{
  "id": 10131,
  "name": "Бесконечный поезд",
  "name_eng": "Infinity Train",
  "year": 2019,
  "slogan": "«We finally got our push»",
  "age": "6+",
  "type": "cartoon-series",
  "quality": "FHD (1080p)",
  "imdb": "8.5",
  "imdb_id": "8146754",
  "kinopoisk": "7.8",
  "kinopoisk_id": "1132500",
  "world_art": null,
  "world_art_id": null,
  "time": "11 мин",
  "ads": false,
  "premier": "2019-08-05",
  "premier_rus": "2019-08-06",
  "availability": "2019-08-07",
  "serial_status": "offline",
  "activate_time": "2019-07-26 16:38:00",
  "budget": null,
  "fees_use": null,
  "fees_world": null,
  "fees_rus": null,
  "rate_mpaa": null,
  "description": "Обычная 12-летняя девчонка Тюлип обожает приключения. Однажды она попадает в поезд, который не имеет ни начала, ни конца и годами едет без остановок. Здесь не обойдется без тайны, заговора и убийства. В каждом новом вагоне ее ждет новое происшествие. И для того, чтобы вернуться домой, Тюлип придется раскрыть все эти секреты.",
  "iframe_url": "",
  "poster": "https://img.imgilall.me/movies/franchise/1/0/1/3/1/0/0/0/0/0/610x900_10131.jpg",
  "country": {
    "1": "США"
  },
  "collection": [],
  "genre": {
    "9": "Приключения",
    "11": "Фантастика",
    "6": "Фэнтези",
    "33": "Семейный",
    "24": "Детектив",
    "19": "Комедия",
    "10": "Зарубежный",
    "7": "Драма"
  },
  "director": [
    "Мадлен Квирипел",
    "Оуэн Дэннис"
  ],
  "screenwriter": [
    "Оуэн Дэннис",
    "Alex Horab",
    "Lindsay Katai"
  ],
  "producer": [
    "Оуэн Дэннис",
    "Кит Мак",
    "Брайан А. Миллер"
  ],
  "operator": [],
  "composer": [
    "Morgan Z Whirledge"
  ],
  "design": [
    "Джилл Дэниелс",
    "Alen Esmaelian"
  ],
  "editor": [
    "Dan Reeves",
    "Бобби Джибис"
  ],
  "actors": [
    "Эшли Джонсон",
    "Оуэн Дэннис",
    "Джереми Кратчли",
    "Кирби Хауэлл-Баптист",
    "Кайл Маккарли",
    "Джонни Янг",
    "Sekai Murashige",
    "Робби Дэймонд",
    "Минти Льюис",
    "Изабелла Абьера"
  ],
  "actors_dubl": [],
  "trivia": [],
  "trailers": [],
  "seasons": [
    {
      "poster": null,
      "release_ru": "2019-08-06",
      "release_world": "2019-08-05",
      "availability": "2019-08-07",
      "iframe_url": "",
      "season": 1,
      "episodes": [
        {
          "episode": 1,
          "name": "The Grid Car",
          "iframe_url": "",
          "iframe_poster": "https://img.imgilall.me/movies/video/1/0/9/5/5/7/0/0/0/0/800x450_109557.jpeg",
          "release_ru": "2019-08-06",
          "release_world": "2019-08-05",
          "availability": "2019-08-07",
          "voiceActing": [
            "NewStation",
            "Eng.Original"
          ],
          "ads": false,
          "subtitle": []
        },
        {
          "episode": 2,
          "name": "The Beach Car",
          "iframe_url": "",
          "iframe_poster": "https://img.imgilall.me/movies/video/1/0/9/5/6/2/0/0/0/0/800x450_109562.jpeg",
          "release_ru": "2019-08-06",
          "release_world": "2019-08-05",
          "availability": "2019-08-07",
          "voiceActing": [
            "NewStation",
            "Eng.Original"
          ],
          "ads": false,
          "subtitle": []
        },
        {
          "episode": 3,
          "name": "The Corgi Car",
          "iframe_url": "",
          "iframe_poster": "https://img.imgilall.me/movies/video/1/0/9/5/5/8/0/0/0/0/800x450_109558.jpeg",
          "release_ru": "2019-08-07",
          "release_world": "2019-08-06",
          "availability": "2019-08-08",
          "voiceActing": [
            "NewStation",
            "Eng.Original"
          ],
          "ads": false,
          "subtitle": []
        },
        {
          "episode": 4,
          "name": "The Crystal Car",
          "iframe_url": "",
          "iframe_poster": "https://img.imgilall.me/movies/video/1/0/9/5/6/1/0/0/0/0/800x450_109561.jpeg",
          "release_ru": "2019-08-07",
          "release_world": "2019-08-06",
          "availability": "2019-08-08",
          "voiceActing": [
            "NewStation",
            "Eng.Original"
          ],
          "ads": false,
          "subtitle": []
        },
        {
          "episode": 5,
          "name": "The Cat's Car",
          "iframe_url": "",
          "iframe_poster": "https://img.imgilall.me/movies/video/1/0/9/5/5/3/0/0/0/0/800x450_109553.jpeg",
          "release_ru": "2019-08-08",
          "release_world": "2019-08-07",
          "availability": "2019-08-09",
          "voiceActing": [
            "NewStation",
            "Eng.Original"
          ],
          "ads": false,
          "subtitle": []
        },
        {
          "episode": 6,
          "name": "The Unfinished Car",
          "iframe_url": "",
          "iframe_poster": "https://img.imgilall.me/movies/video/1/0/9/5/6/0/0/0/0/0/800x450_109560.jpeg",
          "release_ru": "2019-08-08",
          "release_world": "2019-08-07",
          "availability": "2019-08-09",
          "voiceActing": [
            "NewStation",
            "Eng.Original"
          ],
          "ads": false,
          "subtitle": []
        },
        {
          "episode": 7,
          "name": "The Chrome Car",
          "iframe_url": "",
          "iframe_poster": "https://img.imgilall.me/movies/video/1/0/9/5/5/9/0/0/0/0/800x450_109559.jpeg",
          "release_ru": "2019-08-09",
          "release_world": "2019-08-08",
          "availability": "2019-08-10",
          "voiceActing": [
            "NewStation",
            "Eng.Original"
          ],
          "ads": false,
          "subtitle": []
        },
        {
          "episode": 8,
          "name": "The Ball Pit Car",
          "iframe_url": "",
          "iframe_poster": "https://img.imgilall.me/movies/video/1/0/9/5/5/5/0/0/0/0/800x450_109555.jpeg",
          "release_ru": "2019-08-09",
          "release_world": "2019-08-08",
          "availability": "2019-08-10",
          "voiceActing": [
            "NewStation",
            "Eng.Original"
          ],
          "ads": false,
          "subtitle": []
        },
        {
          "episode": 9,
          "name": "The Past Car",
          "iframe_url": "",
          "iframe_poster": "https://img.imgilall.me/movies/video/1/0/9/5/5/4/0/0/0/0/800x450_109554.jpeg",
          "release_ru": "2019-08-10",
          "release_world": "2019-08-09",
          "availability": "2019-08-11",
          "voiceActing": [
            "NewStation",
            "Eng.Original"
          ],
          "ads": false,
          "subtitle": []
        },
        {
          "episode": 10,
          "name": "The Engine",
          "iframe_url": "",
          "iframe_poster": "https://img.imgilall.me/movies/video/1/0/9/5/5/6/0/0/0/0/800x450_109556.jpeg",
          "release_ru": "2019-08-10",
          "release_world": "2019-08-09",
          "availability": "2019-08-11",
          "voiceActing": [
            "NewStation",
            "Eng.Original"
          ],
          "ads": false,
          "subtitle": []
        }
      ]
    },
    {
      "poster": null,
      "release_ru": "2020-01-07",
      "release_world": "2020-01-06",
      "availability": "2020-01-08",
      "iframe_url": "",
      "season": 2,
      "episodes": [
        {
          "episode": 1,
          "name": "The Black Market Car",
          "iframe_url": "",
          "iframe_poster": null,
          "release_ru": "2020-01-07",
          "release_world": "2020-01-06",
          "availability": "2020-01-08",
          "voiceActing": [
            "NewStation",
            "Eng.Original"
          ],
          "ads": false,
          "subtitle": []
        },
        {
          "episode": 2,
          "name": "The Family Tree Car",
          "iframe_url": "",
          "iframe_poster": null,
          "release_ru": "2020-01-07",
          "release_world": "2020-01-06",
          "availability": "2020-01-08",
          "voiceActing": [
            "NewStation",
            "Eng.Original"
          ],
          "ads": false,
          "subtitle": []
        },
        {
          "episode": 3,
          "name": "The Map Car",
          "iframe_url": "",
          "iframe_poster": null,
          "release_ru": "2020-01-08",
          "release_world": "2020-01-07",
          "availability": "2020-01-09",
          "voiceActing": [
            "NewStation",
            "Eng.Original"
          ],
          "ads": false,
          "subtitle": []
        },
        {
          "episode": 4,
          "name": "The Toad Car",
          "iframe_url": "",
          "iframe_poster": null,
          "release_ru": "2020-01-08",
          "release_world": "2020-01-07",
          "availability": "2020-01-09",
          "voiceActing": [
            "NewStation",
            "Eng.Original"
          ],
          "ads": false,
          "subtitle": []
        },
        {
          "episode": 5,
          "name": "The Parasite Car",
          "iframe_url": "",
          "iframe_poster": null,
          "release_ru": "2020-01-09",
          "release_world": "2020-01-08",
          "availability": "2020-01-10",
          "voiceActing": [
            "NewStation",
            "Eng.Original"
          ],
          "ads": false,
          "subtitle": []
        },
        {
          "episode": 6,
          "name": "The Lucky Cat Car",
          "iframe_url": "",
          "iframe_poster": null,
          "release_ru": "2020-01-09",
          "release_world": "2020-01-08",
          "availability": "2020-01-10",
          "voiceActing": [
            "NewStation",
            "Eng.Original"
          ],
          "ads": false,
          "subtitle": []
        },
        {
          "episode": 7,
          "name": "The Mall Car",
          "iframe_url": "",
          "iframe_poster": null,
          "release_ru": "2020-01-10",
          "release_world": "2020-01-09",
          "availability": "2020-01-11",
          "voiceActing": [
            "NewStation",
            "Eng.Original"
          ],
          "ads": false,
          "subtitle": []
        },
        {
          "episode": 8,
          "name": "The Wasteland",
          "iframe_url": "",
          "iframe_poster": null,
          "release_ru": "2020-01-10",
          "release_world": "2020-01-09",
          "availability": "2020-01-11",
          "voiceActing": [
            "NewStation",
            "Eng.Original"
          ],
          "ads": false,
          "subtitle": []
        },
        {
          "episode": 9,
          "name": "The Tape Car",
          "iframe_url": "",
          "iframe_poster": null,
          "release_ru": "2020-01-11",
          "release_world": "2020-01-10",
          "availability": "2020-01-12",
          "voiceActing": [
            "NewStation",
            "Eng.Original"
          ],
          "ads": false,
          "subtitle": []
        },
        {
          "episode": 10,
          "name": "The Number Car",
          "iframe_url": "",
          "iframe_poster": null,
          "release_ru": "2020-01-11",
          "release_world": "2020-01-10",
          "availability": "2020-01-12",
          "voiceActing": [
            "NewStation",
            "Eng.Original"
          ],
          "ads": false,
          "subtitle": []
        }
      ]
    },
    {
      "poster": null,
      "release_ru": "2020-08-14",
      "release_world": "2020-08-13",
      "availability": "2020-08-15",
      "iframe_url": "",
      "season": 3,
      "episodes": [
        {
          "episode": 1,
          "name": "TBA",
          "iframe_url": "",
          "iframe_poster": null,
          "release_ru": "2020-08-14",
          "release_world": "2020-08-13",
          "availability": "2020-08-15",
          "voiceActing": [
            "NewStation",
            "Eng.Original"
          ],
          "ads": false,
          "subtitle": [
            "Рус. полные"
          ]
        },
        {
          "episode": 2,
          "name": "The Jungle Car",
          "iframe_url": "",
          "iframe_poster": null,
          "release_ru": "2020-08-14",
          "release_world": "2020-08-13",
          "availability": "2020-08-15",
          "voiceActing": [
            "NewStation",
            "Eng.Original"
          ],
          "ads": false,
          "subtitle": [
            "Рус. полные"
          ]
        },
        {
          "episode": 3,
          "name": "The Debutante Ball Car",
          "iframe_url": "",
          "iframe_poster": null,
          "release_ru": "2020-08-14",
          "release_world": "2020-08-13",
          "availability": "2020-08-15",
          "voiceActing": [
            "NewStation",
            "Eng.Original"
          ],
          "ads": false,
          "subtitle": [
            "Рус. полные"
          ]
        },
        {
          "episode": 4,
          "name": "Le Chat Chalet Car",
          "iframe_url": "",
          "iframe_poster": null,
          "release_ru": "2020-08-14",
          "release_world": "2020-08-13",
          "availability": "2020-08-15",
          "voiceActing": [
            "NewStation",
            "Eng.Original"
          ],
          "ads": false,
          "subtitle": [
            "Рус. полные"
          ]
        },
        {
          "episode": 5,
          "name": "The Color Clock Car",
          "iframe_url": "",
          "iframe_poster": null,
          "release_ru": "2020-08-14",
          "release_world": "2020-08-13",
          "availability": "2020-08-15",
          "voiceActing": [
            "NewStation",
            "Eng.Original"
          ],
          "ads": false,
          "subtitle": [
            "Рус. полные"
          ]
        },
        {
          "episode": 6,
          "name": "The Campfire Car",
          "iframe_url": "",
          "iframe_poster": null,
          "release_ru": "2020-08-21",
          "release_world": "2020-08-20",
          "availability": "2020-08-22",
          "voiceActing": [
            "NewStation",
            "Eng.Original"
          ],
          "ads": false,
          "subtitle": [
            "Рус. полные"
          ]
        },
        {
          "episode": 7,
          "name": "The Canyon of the Golden Winged Snakes Car",
          "iframe_url": "",
          "iframe_poster": null,
          "release_ru": "2020-08-21",
          "release_world": "2020-08-20",
          "availability": "2020-08-22",
          "voiceActing": [
            "NewStation",
            "Eng.Original"
          ],
          "ads": false,
          "subtitle": [
            "Рус. полные"
          ]
        },
        {
          "episode": 8,
          "name": "The Hey Ho Whoa Car",
          "iframe_url": "",
          "iframe_poster": null,
          "release_ru": "2020-08-21",
          "release_world": "2020-08-20",
          "availability": "2020-08-22",
          "voiceActing": [
            "NewStation",
            "Eng.Original"
          ],
          "ads": false,
          "subtitle": [
            "Рус. полные"
          ]
        },
        {
          "episode": 9,
          "name": "The Origami Car",
          "iframe_url": "",
          "iframe_poster": null,
          "release_ru": "2020-08-28",
          "release_world": "2020-08-27",
          "availability": "2020-08-29",
          "voiceActing": [
            "NewStation",
            "Eng.Original"
          ],
          "ads": false,
          "subtitle": [
            "Рус. полные"
          ]
        },
        {
          "episode": 10,
          "name": "The New Apex",
          "iframe_url": "",
          "iframe_poster": null,
          "release_ru": "2020-08-28",
          "release_world": "2020-08-27",
          "availability": "2020-08-29",
          "voiceActing": [
            "NewStation",
            "Eng.Original"
          ],
          "ads": false,
          "subtitle": [
            "Рус. полные"
          ]
        }
      ]
    },
    {
      "poster": null,
      "release_ru": "2021-04-16",
      "release_world": "2021-04-15",
      "availability": "2021-04-17",
      "iframe_url": "",
      "season": 4,
      "episodes": [
        {
          "episode": 1,
          "name": "The Twin Tapes",
          "iframe_url": "",
          "iframe_poster": null,
          "release_ru": "2021-04-16",
          "release_world": "2021-04-15",
          "availability": "2021-04-17",
          "voiceActing": [
            "NewStation",
            "Eng.Original"
          ],
          "ads": false,
          "subtitle": [
            "Рус. полные"
          ]
        },
        {
          "episode": 2,
          "name": "The Iceberg Car",
          "iframe_url": "",
          "iframe_poster": null,
          "release_ru": "2021-04-16",
          "release_world": "2021-04-15",
          "availability": "2021-04-17",
          "voiceActing": [
            "NewStation",
            "Eng.Original"
          ],
          "ads": false,
          "subtitle": [
            "Рус. полные"
          ]
        },
        {
          "episode": 3,
          "name": "The Old West Car",
          "iframe_url": "",
          "iframe_poster": null,
          "release_ru": "2021-04-16",
          "release_world": "2021-04-15",
          "availability": "2021-04-17",
          "voiceActing": [
            "NewStation",
            "Eng.Original"
          ],
          "ads": false,
          "subtitle": [
            "Рус. полные"
          ]
        },
        {
          "episode": 4,
          "name": "The Pig Baby Car",
          "iframe_url": "",
          "iframe_poster": null,
          "release_ru": "2021-04-16",
          "release_world": "2021-04-15",
          "availability": "2021-04-17",
          "voiceActing": [
            "NewStation",
            "Eng.Original"
          ],
          "ads": false,
          "subtitle": [
            "Рус. полные"
          ]
        },
        {
          "episode": 5,
          "name": "The Astro Queue Car",
          "iframe_url": "",
          "iframe_poster": null,
          "release_ru": "2021-04-16",
          "release_world": "2021-04-15",
          "availability": "2021-04-17",
          "voiceActing": [
            "NewStation",
            "Eng.Original"
          ],
          "ads": false,
          "subtitle": [
            "Рус. полные"
          ]
        },
        {
          "episode": 6,
          "name": "The Party Car",
          "iframe_url": "",
          "iframe_poster": null,
          "release_ru": "2021-04-16",
          "release_world": "2021-04-15",
          "availability": "2021-04-17",
          "voiceActing": [
            "NewStation",
            "Eng.Original"
          ],
          "ads": false,
          "subtitle": [
            "Рус. полные"
          ]
        },
        {
          "episode": 7,
          "name": "The Art Gallery Car",
          "iframe_url": "",
          "iframe_poster": null,
          "release_ru": "2021-04-16",
          "release_world": "2021-04-15",
          "availability": "2021-04-17",
          "voiceActing": [
            "NewStation",
            "Eng.Original"
          ],
          "ads": false,
          "subtitle": [
            "Рус. полные"
          ]
        },
        {
          "episode": 8,
          "name": "The Mega Maze Car",
          "iframe_url": "",
          "iframe_poster": null,
          "release_ru": "2021-04-16",
          "release_world": "2021-04-15",
          "availability": "2021-04-17",
          "voiceActing": [
            "TVShows"
          ],
          "ads": false,
          "subtitle": []
        },
        {
          "episode": 9,
          "name": "The Castle Car",
          "iframe_url": "",
          "iframe_poster": null,
          "release_ru": "2021-04-16",
          "release_world": "2021-04-15",
          "availability": "2021-04-17",
          "voiceActing": [
            "TVShows"
          ],
          "ads": false,
          "subtitle": []
        },
        {
          "episode": 10,
          "name": "The Train to Nowhere",
          "iframe_url": "",
          "iframe_poster": null,
          "release_ru": "2021-04-16",
          "release_world": "2021-04-15",
          "availability": "2021-04-17",
          "voiceActing": [
            "TVShows"
          ],
          "ads": false,
          "subtitle": []
        }
      ]
    }
  ],
  "voiceActing": [
    "NewStation",
    "Eng.Original",
    "TVShows"
  ],
  "subtitle": [
    "Рус. полные"
  ],
  "parts": []
}
