{
  "id": 10204,
  "name": "Погоня за куревом",
  "name_eng": "The Dip Run",
  "year": 2018,
  "slogan": "—",
  "age": "18+",
  "type": "film",
  "quality": "HD (720p)",
  "imdb": "2.7",
  "imdb_id": "8236566",
  "kinopoisk": null,
  "kinopoisk_id": "1120726",
  "world_art": null,
  "world_art_id": null,
  "time": "96 мин. / 01:36",
  "ads": true,
  "premier": "2018-11-20",
  "premier_rus": "2018-11-21",
  "availability": "2018-11-22",
  "activate_time": "2019-08-06 12:51:00",
  "budget": "",
  "fees_use": "",
  "fees_world": "",
  "fees_rus": "",
  "rate_mpaa": "R",
  "description": "В центре событий находятся четверо друзей, которые отправляются в путешествие через всю Америку, чтобы заключить крупнейшую сделку в своей жизни. На старом доме на колёсах они намерены пересечь страну в погоне за американской мечтой, однако многочисленные остановки, вечеринки и встречи с интересными персонажами отдаляют их от намеченной цели. Но спустя некоторое время они начинают осознавать, что дорога подвергает их дружбу настоящему испытанию, а конечная цель поездки может стоить им многолетних приятельских отношений...",
  "iframe_url": "",
  "iframe_poster": "https://img.imgilall.me/movies/video/1/0/7/4/9/5/0/0/0/0/800x450_107495.jpeg",
  "poster": "https://img.imgilall.me/movies/franchise/1/0/2/0/4/0/0/0/0/0/610x900_10204.jpg",
  "country": {
    "1": "США"
  },
  "collection": [],
  "genre": {
    "19": "Комедия",
    "10": "Зарубежный"
  },
  "director": [
    "Michael Pine"
  ],
  "screenwriter": [
    "Michael Pine",
    "Jesse Ryan"
  ],
  "producer": [
    "Darcy Compton",
    "Michael Pine",
    "Jesse Ryan"
  ],
  "operator": [
    "Michael Schilling"
  ],
  "composer": [],
  "design": [
    "Мира Баррера",
    "Cailan Calandro"
  ],
  "editor": [
    "Дрэйк Бут"
  ],
  "actors": [
    "Jared Boyce",
    "Jesse Ryan",
    "Christopher Padilla",
    "Darcy Compton",
    "John Burk",
    "Райан Куинн Адамс",
    "Кори Лэндис",
    "Lonny Morgan",
    "Outlaw Morgan",
    "Marcelo Palacios"
  ],
  "actors_dubl": [],
  "trivia": [],
  "trailers": [],
  "seasons": [],
  "voiceActing": [
    "Рус. Люб. многоголосый"
  ],
  "subtitle": [],
  "parts": []
}
