{
  "id": 10407,
  "name": "Жёстко и безобразно",
  "name_eng": "Hard & Ugly",
  "year": 2017,
  "slogan": "«Dying is not for amateurs!»",
  "age": null,
  "type": "film",
  "quality": "HD (720p)",
  "imdb": "6.5",
  "imdb_id": "5714916",
  "kinopoisk": null,
  "kinopoisk_id": "979953",
  "world_art": null,
  "world_art_id": null,
  "time": "71 мин. / 01:11",
  "ads": true,
  "premier": "2017-03-31",
  "premier_rus": null,
  "availability": null,
  "activate_time": "2019-08-21 17:19:00",
  "budget": null,
  "fees_use": null,
  "fees_world": null,
  "fees_rus": null,
  "rate_mpaa": null,
  "description": "У Эта неудачный день: он теряет работу. Кажется, что ничего хорошего сегодня уже не светит, но внезапно судьба преподносит ему встречу с Карлой, которую бросил жених.",
  "iframe_url": "",
  "iframe_poster": "https://img.imgilall.me/movies/video/1/0/9/5/6/8/0/0/0/0/800x450_109568.jpeg",
  "poster": "https://img.imgilall.me/movies/franchise/1/0/4/0/7/0/0/0/0/0/610x900_10407.jpg",
  "country": {
    "20": "Германия"
  },
  "collection": [],
  "genre": {
    "19": "Комедия",
    "10": "Зарубежный",
    "7": "Драма"
  },
  "director": [
    "Мальте Вирц"
  ],
  "screenwriter": [
    "Мальте Вирц"
  ],
  "producer": [
    "Мальте Вирц"
  ],
  "operator": [
    "Antje Heidemann",
    "Vincent Viebig"
  ],
  "composer": [
    "Рубен Фишер"
  ],
  "design": [],
  "editor": [
    "Assaf Reiter"
  ],
  "actors": [
    "Aline Adam",
    "Benita Sarah Bailey",
    "Kristin Becker",
    "Martin Bergmann",
    "Robin Blase",
    "Anja Bothe",
    "Lisa Brosig",
    "Ann-Kathrin Czymoch",
    "Philipp Eckelmann",
    "Максимилиан Герлингер"
  ],
  "actors_dubl": [],
  "trivia": [],
  "trailers": [],
  "seasons": [],
  "voiceActing": [
    "Рус. Люб. многоголосый"
  ],
  "subtitle": [],
  "parts": []
}
