{
  "id": 10525,
  "name": "Затмение",
  "name_eng": "",
  "year": 2016,
  "slogan": "—",
  "age": "12+",
  "type": "series",
  "quality": "SD",
  "imdb": null,
  "imdb_id": null,
  "kinopoisk": "6.0",
  "kinopoisk_id": "935908",
  "world_art": null,
  "world_art_id": null,
  "time": "45 мин. серия (360 мин. всего)",
  "ads": false,
  "premier": "2016-01-11",
  "premier_rus": "2016-01-12",
  "availability": "2016-01-13",
  "serial_status": "offline",
  "activate_time": "2019-08-22 12:28:00",
  "budget": null,
  "fees_use": null,
  "fees_world": null,
  "fees_rus": null,
  "rate_mpaa": null,
  "description": "До семи лет жизнь Марьяны была чередой ярких праздников, которые устраивал, возвращаясь из плаванья, её папа-моряк. Но однажды всё изменилось: папа перестал приезжать, навсегда оставшись в другой семье, а мама вышла замуж за нелюбимого мужчину, чтобы обеспечить безбедную жизнь себе и дочке. Марьяна сразу невзлюбила отчима и сводную сестру Таню. Она продолжала ждать родного отца и верить, что когда-нибудь праздник вернется в её жизнь. И он вернулся спустя много лет, когда Марьяна встретила и полюбила Диму, который так напоминал ей отца. Но, как и отец, Дима однажды не вернулся домой… Новое предательство окончательно подкосило Марьяну. Она могла стать верной женой и хорошей матерью, а стала безжалостной мстительницей, готовой даже на убийство.",
  "iframe_url": "",
  "poster": "https://img.imgilall.me/movies/franchise/1/0/5/2/5/0/0/0/0/0/610x900_10525.jpg",
  "country": {
    "5": "Россия"
  },
  "collection": [],
  "genre": {
    "22": "Русский",
    "8": "Мелодрама"
  },
  "director": [
    "Андрей Красавин"
  ],
  "screenwriter": [
    "Виктория Евсеева"
  ],
  "producer": [
    "Александр Кушаев",
    "Владимир Игнатьев",
    "Евгений Арендаревич"
  ],
  "operator": [
    "Григорий Рудаков",
    "Илья Пугачев"
  ],
  "composer": [
    "Игорь Щербаков",
    "Иван Евдокимов"
  ],
  "design": [],
  "editor": [
    "Юрий Бутько"
  ],
  "actors": [
    "Ольга Сухарева",
    "Мария Ахметзянова",
    "Алексей Анищенко",
    "Светлана Тимофеева-Летуновская",
    "Руслан Чернецкий",
    "Александр Бранкевич",
    "Андрей Сенькин",
    "Сергей Власов",
    "Михаил Дорожкин",
    "Игорь Филиппов"
  ],
  "actors_dubl": [],
  "trivia": [],
  "trailers": [],
  "seasons": [
    {
      "poster": null,
      "release_ru": "2016-01-12",
      "release_world": "2016-01-11",
      "availability": "2016-01-13",
      "iframe_url": "",
      "season": 1,
      "episodes": [
        {
          "episode": 1,
          "name": null,
          "iframe_url": "",
          "iframe_poster": "https://img.imgilall.me/movies/video/1/1/0/6/4/0/0/0/0/0/800x450_110640.jpeg",
          "release_ru": "2016-01-12",
          "release_world": "2016-01-11",
          "availability": "2016-01-13",
          "voiceActing": [
            "Рус. Оригинальный"
          ],
          "ads": false,
          "subtitle": []
        },
        {
          "episode": 2,
          "name": null,
          "iframe_url": "",
          "iframe_poster": "https://img.imgilall.me/movies/video/1/1/0/6/4/1/0/0/0/0/800x450_110641.jpeg",
          "release_ru": "2016-01-12",
          "release_world": "2016-01-11",
          "availability": "2016-01-13",
          "voiceActing": [
            "Рус. Оригинальный"
          ],
          "ads": false,
          "subtitle": []
        },
        {
          "episode": 3,
          "name": null,
          "iframe_url": "",
          "iframe_poster": "https://img.imgilall.me/movies/video/1/1/0/6/4/2/0/0/0/0/800x450_110642.jpeg",
          "release_ru": "2016-01-13",
          "release_world": "2016-01-12",
          "availability": "2016-01-14",
          "voiceActing": [
            "Рус. Оригинальный"
          ],
          "ads": false,
          "subtitle": []
        },
        {
          "episode": 4,
          "name": null,
          "iframe_url": "",
          "iframe_poster": "https://img.imgilall.me/movies/video/1/1/0/6/4/3/0/0/0/0/800x450_110643.jpeg",
          "release_ru": "2016-01-13",
          "release_world": "2016-01-12",
          "availability": "2016-01-14",
          "voiceActing": [
            "Рус. Оригинальный"
          ],
          "ads": false,
          "subtitle": []
        },
        {
          "episode": 5,
          "name": null,
          "iframe_url": "",
          "iframe_poster": "https://img.imgilall.me/movies/video/1/1/0/6/4/4/0/0/0/0/800x450_110644.jpeg",
          "release_ru": "2016-01-14",
          "release_world": "2016-01-13",
          "availability": "2016-01-15",
          "voiceActing": [
            "Рус. Оригинальный"
          ],
          "ads": false,
          "subtitle": []
        },
        {
          "episode": 6,
          "name": null,
          "iframe_url": "",
          "iframe_poster": "https://img.imgilall.me/movies/video/1/1/0/6/4/5/0/0/0/0/800x450_110645.jpeg",
          "release_ru": "2016-01-14",
          "release_world": "2016-01-13",
          "availability": "2016-01-15",
          "voiceActing": [
            "Рус. Оригинальный"
          ],
          "ads": false,
          "subtitle": []
        },
        {
          "episode": 7,
          "name": null,
          "iframe_url": "",
          "iframe_poster": "https://img.imgilall.me/movies/video/1/1/0/6/4/6/0/0/0/0/800x450_110646.jpeg",
          "release_ru": "2016-01-15",
          "release_world": "2016-01-14",
          "availability": "2016-01-16",
          "voiceActing": [
            "Рус. Оригинальный"
          ],
          "ads": false,
          "subtitle": []
        },
        {
          "episode": 8,
          "name": null,
          "iframe_url": "",
          "iframe_poster": "https://img.imgilall.me/movies/video/1/1/0/6/4/7/0/0/0/0/800x450_110647.jpeg",
          "release_ru": "2016-01-15",
          "release_world": "2016-01-14",
          "availability": "2016-01-16",
          "voiceActing": [
            "Рус. Оригинальный"
          ],
          "ads": false,
          "subtitle": []
        }
      ]
    }
  ],
  "voiceActing": [
    "Рус. Оригинальный"
  ],
  "subtitle": [],
  "parts": []
}
