{
  "id": 10578,
  "name": "Странная парочка",
  "name_eng": "The Odd Couple",
  "year": 2015,
  "slogan": "«Two bachelors. One apartment. Zero in common»",
  "age": null,
  "type": "series",
  "quality": "HD (720p)",
  "imdb": "6.4",
  "imdb_id": "3595776",
  "kinopoisk": "6.5",
  "kinopoisk_id": "839752",
  "world_art": null,
  "world_art_id": null,
  "time": "21 мин",
  "ads": false,
  "premier": "2015-02-19",
  "premier_rus": null,
  "availability": null,
  "serial_status": "offline",
  "activate_time": "2019-08-30 12:16:00",
  "budget": null,
  "fees_use": null,
  "fees_world": null,
  "fees_rus": null,
  "rate_mpaa": null,
  "description": "Два друга пытаются жить в одной квартире, но их подход к ведению домашнего хозяйства и образ жизни такие же разные, как день и ночь.",
  "iframe_url": "",
  "poster": "https://img.imgilall.me/movies/franchise/1/0/5/7/8/0/0/0/0/0/610x900_10578.jpg",
  "country": {
    "1": "США"
  },
  "collection": [],
  "genre": {
    "19": "Комедия",
    "10": "Зарубежный"
  },
  "director": [
    "Фил Льюис",
    "Марк Сендроуски",
    "Джефф Гринштейн"
  ],
  "screenwriter": [
    "Дэнни Джейкобсон",
    "Джо Кинэн",
    "Мэттью Перри"
  ],
  "producer": [
    "Патриция Фэсс Палмер",
    "Эмили Катлер",
    "Джон У. Мэдер"
  ],
  "operator": [
    "Микель Нейерс"
  ],
  "composer": [
    "Брюс Миллер",
    "Джейсон Миллер"
  ],
  "design": [
    "Джон Шаффнер",
    "Джули Беннетт Блок",
    "Энн Х. Аренс"
  ],
  "editor": [
    "Патриция Барнетт",
    "Ноэль Роджерс",
    "Леви Огнер"
  ],
  "actors": [
    "Мэттью Перри",
    "Томас Леннон",
    "Линдсей Слоун",
    "Иветт Николь Браун",
    "Уенделл Пирс",
    "Джофф Стульц",
    "Тери Хэтчер",
    "Джуди Кейн",
    "Дэйв Фоли",
    "Рич Эйзен"
  ],
  "actors_dubl": [],
  "trivia": [],
  "trailers": [],
  "seasons": [
    {
      "poster": null,
      "release_ru": "2015-02-20",
      "release_world": "2015-02-19",
      "availability": "2015-02-21",
      "iframe_url": "",
      "season": 1,
      "episodes": [
        {
          "episode": 1,
          "name": "Pilot",
          "iframe_url": "",
          "iframe_poster": "https://img.imgilall.me/movies/video/1/1/1/0/8/0/0/0/0/0/800x450_111080.jpeg",
          "release_ru": "2015-02-20",
          "release_world": "2015-02-19",
          "availability": "2015-02-21",
          "voiceActing": [
            "Baibako",
            "Eng.Original"
          ],
          "ads": false,
          "subtitle": []
        },
        {
          "episode": 2,
          "name": "The Ghostwriter",
          "iframe_url": "",
          "iframe_poster": "https://img.imgilall.me/movies/video/1/1/1/0/7/0/0/0/0/0/800x450_111070.jpeg",
          "release_ru": "2015-02-27",
          "release_world": "2015-02-26",
          "availability": "2015-02-28",
          "voiceActing": [
            "Baibako",
            "Eng.Original"
          ],
          "ads": false,
          "subtitle": []
        },
        {
          "episode": 3,
          "name": "The Birthday Party",
          "iframe_url": "",
          "iframe_poster": "https://img.imgilall.me/movies/video/1/1/1/0/7/7/0/0/0/0/800x450_111077.jpeg",
          "release_ru": "2015-03-06",
          "release_world": "2015-03-05",
          "availability": "2015-03-07",
          "voiceActing": [
            "Baibako",
            "Eng.Original"
          ],
          "ads": false,
          "subtitle": []
        },
        {
          "episode": 4,
          "name": "The Blind Leading the Blind Date",
          "iframe_url": "",
          "iframe_poster": "https://img.imgilall.me/movies/video/1/1/1/0/8/1/0/0/0/0/800x450_111081.jpeg",
          "release_ru": "2015-03-13",
          "release_world": "2015-03-12",
          "availability": "2015-03-14",
          "voiceActing": [
            "Baibako",
            "Eng.Original"
          ],
          "ads": false,
          "subtitle": []
        },
        {
          "episode": 5,
          "name": "The Wedding Deception",
          "iframe_url": "",
          "iframe_poster": "https://img.imgilall.me/movies/video/1/1/1/0/7/1/0/0/0/0/800x450_111071.jpeg",
          "release_ru": "2015-04-03",
          "release_world": "2015-04-02",
          "availability": "2015-04-04",
          "voiceActing": [
            "Baibako",
            "Eng.Original"
          ],
          "ads": false,
          "subtitle": []
        },
        {
          "episode": 6,
          "name": "Heal Thyself",
          "iframe_url": "",
          "iframe_poster": "https://img.imgilall.me/movies/video/1/1/1/0/7/2/0/0/0/0/800x450_111072.jpeg",
          "release_ru": "2015-04-10",
          "release_world": "2015-04-09",
          "availability": "2015-04-11",
          "voiceActing": [
            "Baibako",
            "Eng.Original"
          ],
          "ads": false,
          "subtitle": []
        },
        {
          "episode": 7,
          "name": "Secret Agent Man",
          "iframe_url": "",
          "iframe_poster": "https://img.imgilall.me/movies/video/1/1/1/0/7/5/0/0/0/0/800x450_111075.jpeg",
          "release_ru": "2015-04-17",
          "release_world": "2015-04-16",
          "availability": "2015-04-18",
          "voiceActing": [
            "Baibako",
            "Eng.Original"
          ],
          "ads": false,
          "subtitle": []
        },
        {
          "episode": 8,
          "name": "The Unger Games",
          "iframe_url": "",
          "iframe_poster": "https://img.imgilall.me/movies/video/1/1/1/0/7/3/0/0/0/0/800x450_111073.jpeg",
          "release_ru": "2015-04-24",
          "release_world": "2015-04-23",
          "availability": "2015-04-25",
          "voiceActing": [
            "Baibako",
            "Eng.Original"
          ],
          "ads": false,
          "subtitle": []
        },
        {
          "episode": 9,
          "name": "Sleeping Dogs Lie",
          "iframe_url": "",
          "iframe_poster": "https://img.imgilall.me/movies/video/1/1/1/0/7/9/0/0/0/0/800x450_111079.jpeg",
          "release_ru": "2015-05-01",
          "release_world": "2015-04-30",
          "availability": "2015-05-02",
          "voiceActing": [
            "Baibako",
            "Eng.Original"
          ],
          "ads": false,
          "subtitle": []
        },
        {
          "episode": 10,
          "name": "Enlightening Strikes",
          "iframe_url": "",
          "iframe_poster": "https://img.imgilall.me/movies/video/1/1/1/0/7/4/0/0/0/0/800x450_111074.jpeg",
          "release_ru": "2015-05-08",
          "release_world": "2015-05-07",
          "availability": "2015-05-09",
          "voiceActing": [
            "Baibako",
            "Eng.Original"
          ],
          "ads": false,
          "subtitle": []
        },
        {
          "episode": 11,
          "name": "Jealous Island",
          "iframe_url": "",
          "iframe_poster": "https://img.imgilall.me/movies/video/1/1/1/0/7/6/0/0/0/0/800x450_111076.jpeg",
          "release_ru": "2015-05-08",
          "release_world": "2015-05-07",
          "availability": "2015-05-09",
          "voiceActing": [
            "Baibako",
            "Eng.Original"
          ],
          "ads": false,
          "subtitle": []
        },
        {
          "episode": 12,
          "name": "The Audit Couple",
          "iframe_url": "",
          "iframe_poster": "https://img.imgilall.me/movies/video/1/1/1/0/7/8/0/0/0/0/800x450_111078.jpeg",
          "release_ru": "2015-05-15",
          "release_world": "2015-05-14",
          "availability": "2015-05-16",
          "voiceActing": [
            "Baibako",
            "Eng.Original"
          ],
          "ads": false,
          "subtitle": []
        }
      ]
    },
    {
      "poster": null,
      "release_ru": "2016-04-08",
      "release_world": "2016-04-07",
      "availability": "2016-04-09",
      "iframe_url": "",
      "season": 2,
      "episodes": [
        {
          "episode": 1,
          "name": "All About Eavesdropping",
          "iframe_url": "",
          "iframe_poster": "https://img.imgilall.me/movies/video/1/1/1/1/0/5/0/0/0/0/800x450_111105.jpeg",
          "release_ru": "2016-04-08",
          "release_world": "2016-04-07",
          "availability": "2016-04-09",
          "voiceActing": [
            "Baibako",
            "Eng.Original"
          ],
          "ads": false,
          "subtitle": []
        },
        {
          "episode": 2,
          "name": "Unger the Influence",
          "iframe_url": "",
          "iframe_poster": "https://img.imgilall.me/movies/video/1/1/1/0/9/9/0/0/0/0/800x450_111099.jpeg",
          "release_ru": "2016-04-15",
          "release_world": "2016-04-14",
          "availability": "2016-04-16",
          "voiceActing": [
            "Baibako",
            "Eng.Original"
          ],
          "ads": false,
          "subtitle": []
        },
        {
          "episode": 3,
          "name": "From Here to Maturity",
          "iframe_url": "",
          "iframe_poster": "https://img.imgilall.me/movies/video/1/1/1/1/0/2/0/0/0/0/800x450_111102.jpeg",
          "release_ru": "2016-04-22",
          "release_world": "2016-04-21",
          "availability": "2016-04-23",
          "voiceActing": [
            "Baibako",
            "Eng.Original"
          ],
          "ads": false,
          "subtitle": []
        },
        {
          "episode": 4,
          "name": "Madison & Son",
          "iframe_url": "",
          "iframe_poster": "https://img.imgilall.me/movies/video/1/1/1/1/0/1/0/0/0/0/800x450_111101.jpeg",
          "release_ru": "2016-04-29",
          "release_world": "2016-04-28",
          "availability": "2016-04-30",
          "voiceActing": [
            "Baibako",
            "Eng.Original"
          ],
          "ads": false,
          "subtitle": []
        },
        {
          "episode": 5,
          "name": "Oscar's Overture",
          "iframe_url": "",
          "iframe_poster": "https://img.imgilall.me/movies/video/1/1/1/1/0/6/0/0/0/0/800x450_111106.jpeg",
          "release_ru": "2016-05-03",
          "release_world": "2016-05-02",
          "availability": "2016-05-04",
          "voiceActing": [
            "Baibako",
            "Eng.Original"
          ],
          "ads": false,
          "subtitle": []
        },
        {
          "episode": 6,
          "name": "An Oscar Named Desire",
          "iframe_url": "",
          "iframe_poster": "https://img.imgilall.me/movies/video/1/1/1/0/9/5/0/0/0/0/800x450_111095.jpeg",
          "release_ru": "2016-05-06",
          "release_world": "2016-05-05",
          "availability": "2016-05-07",
          "voiceActing": [
            "Baibako",
            "Eng.Original"
          ],
          "ads": false,
          "subtitle": []
        },
        {
          "episode": 7,
          "name": "Make Room for Dani",
          "iframe_url": "",
          "iframe_poster": "https://img.imgilall.me/movies/video/1/1/1/1/0/0/0/0/0/0/800x450_111100.jpeg",
          "release_ru": "2016-05-10",
          "release_world": "2016-05-09",
          "availability": "2016-05-11",
          "voiceActing": [
            "Baibako",
            "Eng.Original"
          ],
          "ads": false,
          "subtitle": []
        },
        {
          "episode": 8,
          "name": "The Dinner Engagement",
          "iframe_url": "",
          "iframe_poster": "https://img.imgilall.me/movies/video/1/1/1/0/9/6/0/0/0/0/800x450_111096.jpeg",
          "release_ru": "2016-05-13",
          "release_world": "2016-05-12",
          "availability": "2016-05-14",
          "voiceActing": [
            "Baibako",
            "Eng.Original"
          ],
          "ads": false,
          "subtitle": []
        },
        {
          "episode": 9,
          "name": "Chess Nuts",
          "iframe_url": "",
          "iframe_poster": "https://img.imgilall.me/movies/video/1/1/1/1/0/3/0/0/0/0/800x450_111103.jpeg",
          "release_ru": "2016-05-17",
          "release_world": "2016-05-16",
          "availability": "2016-05-18",
          "voiceActing": [
            "Baibako",
            "Eng.Original"
          ],
          "ads": false,
          "subtitle": []
        },
        {
          "episode": 10,
          "name": "Odd Man Out",
          "iframe_url": "",
          "iframe_poster": "https://img.imgilall.me/movies/video/1/1/1/1/0/4/0/0/0/0/800x450_111104.jpeg",
          "release_ru": "2016-05-20",
          "release_world": "2016-05-19",
          "availability": "2016-05-21",
          "voiceActing": [
            "Baibako",
            "Eng.Original"
          ],
          "ads": false,
          "subtitle": []
        },
        {
          "episode": 11,
          "name": "Road Scholar",
          "iframe_url": "",
          "iframe_poster": "https://img.imgilall.me/movies/video/1/1/1/1/0/7/0/0/0/0/800x450_111107.jpeg",
          "release_ru": "2016-05-20",
          "release_world": "2016-05-19",
          "availability": "2016-05-21",
          "voiceActing": [
            "Baibako",
            "Eng.Original"
          ],
          "ads": false,
          "subtitle": []
        },
        {
          "episode": 12,
          "name": "All the Residents' Men",
          "iframe_url": "",
          "iframe_poster": "https://img.imgilall.me/movies/video/1/1/1/0/9/8/0/0/0/0/800x450_111098.jpeg",
          "release_ru": "2016-05-24",
          "release_world": "2016-05-23",
          "availability": "2016-05-25",
          "voiceActing": [
            "Baibako",
            "Eng.Original"
          ],
          "ads": false,
          "subtitle": []
        },
        {
          "episode": 13,
          "name": "The Ex-Factor",
          "iframe_url": "",
          "iframe_poster": "https://img.imgilall.me/movies/video/1/1/1/0/9/7/0/0/0/0/800x450_111097.jpeg",
          "release_ru": "2016-05-24",
          "release_world": "2016-05-23",
          "availability": "2016-05-25",
          "voiceActing": [
            "Baibako",
            "Eng.Original"
          ],
          "ads": false,
          "subtitle": []
        }
      ]
    },
    {
      "poster": null,
      "release_ru": "2016-10-18",
      "release_world": "2016-10-17",
      "availability": "2016-10-19",
      "iframe_url": "",
      "season": 3,
      "episodes": [
        {
          "episode": 1,
          "name": "London Calling",
          "iframe_url": "",
          "iframe_poster": "https://img.imgilall.me/movies/video/1/1/1/0/8/4/0/0/0/0/800x450_111084.jpeg",
          "release_ru": "2016-10-18",
          "release_world": "2016-10-17",
          "availability": "2016-10-19",
          "voiceActing": [
            "Baibako",
            "Eng.Original"
          ],
          "ads": false,
          "subtitle": []
        },
        {
          "episode": 2,
          "name": "Food Fight",
          "iframe_url": "",
          "iframe_poster": "https://img.imgilall.me/movies/video/1/1/1/0/8/8/0/0/0/0/800x450_111088.jpeg",
          "release_ru": "2016-10-25",
          "release_world": "2016-10-24",
          "availability": "2016-10-26",
          "voiceActing": [
            "Baibako",
            "Eng.Original"
          ],
          "ads": false,
          "subtitle": []
        },
        {
          "episode": 3,
          "name": "I Kid, You Not",
          "iframe_url": "",
          "iframe_poster": "https://img.imgilall.me/movies/video/1/1/1/0/9/0/0/0/0/0/800x450_111090.jpeg",
          "release_ru": "2016-11-01",
          "release_world": "2016-10-31",
          "availability": "2016-11-02",
          "voiceActing": [
            "Baibako",
            "Eng.Original"
          ],
          "ads": false,
          "subtitle": []
        },
        {
          "episode": 4,
          "name": "Taffy Days",
          "iframe_url": "",
          "iframe_poster": "https://img.imgilall.me/movies/video/1/1/1/0/9/1/0/0/0/0/800x450_111091.jpeg",
          "release_ru": "2016-11-08",
          "release_world": "2016-11-07",
          "availability": "2016-11-09",
          "voiceActing": [
            "Baibako",
            "Eng.Original"
          ],
          "ads": false,
          "subtitle": []
        },
        {
          "episode": 5,
          "name": "Miss England",
          "iframe_url": "",
          "iframe_poster": "https://img.imgilall.me/movies/video/1/1/1/0/9/2/0/0/0/0/800x450_111092.jpeg",
          "release_ru": "2016-11-15",
          "release_world": "2016-11-14",
          "availability": "2016-11-16",
          "voiceActing": [
            "Baibako",
            "Eng.Original"
          ],
          "ads": false,
          "subtitle": []
        },
        {
          "episode": 6,
          "name": "Eisen Trouble",
          "iframe_url": "",
          "iframe_poster": "https://img.imgilall.me/movies/video/1/1/1/0/8/9/0/0/0/0/800x450_111089.jpeg",
          "release_ru": "2016-11-22",
          "release_world": "2016-11-21",
          "availability": "2016-11-23",
          "voiceActing": [
            "Baibako",
            "Eng.Original"
          ],
          "ads": false,
          "subtitle": []
        },
        {
          "episode": 7,
          "name": "The Odd Couples",
          "iframe_url": "",
          "iframe_poster": "https://img.imgilall.me/movies/video/1/1/1/0/8/3/0/0/0/0/800x450_111083.jpeg",
          "release_ru": "2016-11-29",
          "release_world": "2016-11-28",
          "availability": "2016-11-30",
          "voiceActing": [
            "Baibako",
            "Eng.Original"
          ],
          "ads": false,
          "subtitle": []
        },
        {
          "episode": 8,
          "name": "Felix Navidad",
          "iframe_url": "",
          "iframe_poster": "https://img.imgilall.me/movies/video/1/1/1/0/8/5/0/0/0/0/800x450_111085.jpeg",
          "release_ru": "2016-12-13",
          "release_world": "2016-12-12",
          "availability": "2016-12-14",
          "voiceActing": [
            "Baibako",
            "Eng.Original"
          ],
          "ads": false,
          "subtitle": []
        },
        {
          "episode": 9,
          "name": "My Best Friend's Girl",
          "iframe_url": "",
          "iframe_poster": "https://img.imgilall.me/movies/video/1/1/1/0/8/6/0/0/0/0/800x450_111086.jpeg",
          "release_ru": "2017-01-03",
          "release_world": "2017-01-02",
          "availability": "2017-01-04",
          "voiceActing": [
            "Baibako",
            "Eng.Original"
          ],
          "ads": false,
          "subtitle": []
        },
        {
          "episode": 10,
          "name": "Should She Stay or Should She Go",
          "iframe_url": "",
          "iframe_poster": "https://img.imgilall.me/movies/video/1/1/1/0/8/7/0/0/0/0/800x450_111087.jpeg",
          "release_ru": "2017-01-10",
          "release_world": "2017-01-09",
          "availability": "2017-01-11",
          "voiceActing": [
            "Baibako",
            "Eng.Original"
          ],
          "ads": false,
          "subtitle": []
        },
        {
          "episode": 11,
          "name": "Batman vs. the Penguin",
          "iframe_url": "",
          "iframe_poster": "https://img.imgilall.me/movies/video/1/1/1/0/8/2/0/0/0/0/800x450_111082.jpeg",
          "release_ru": "2017-01-17",
          "release_world": "2017-01-16",
          "availability": "2017-01-18",
          "voiceActing": [
            "Baibako",
            "Eng.Original"
          ],
          "ads": false,
          "subtitle": []
        },
        {
          "episode": 12,
          "name": "The God Couple",
          "iframe_url": "",
          "iframe_poster": "https://img.imgilall.me/movies/video/1/1/1/0/9/4/0/0/0/0/800x450_111094.jpeg",
          "release_ru": "2017-01-31",
          "release_world": "2017-01-30",
          "availability": "2017-02-01",
          "voiceActing": [
            "Baibako",
            "Eng.Original"
          ],
          "ads": false,
          "subtitle": []
        },
        {
          "episode": 13,
          "name": "Conscious Odd Coupling",
          "iframe_url": "",
          "iframe_poster": "https://img.imgilall.me/movies/video/1/1/1/0/9/3/0/0/0/0/800x450_111093.jpeg",
          "release_ru": "2017-01-31",
          "release_world": "2017-01-30",
          "availability": "2017-02-01",
          "voiceActing": [
            "Baibako",
            "Eng.Original"
          ],
          "ads": false,
          "subtitle": []
        }
      ]
    }
  ],
  "voiceActing": [
    "Baibako",
    "Eng.Original"
  ],
  "subtitle": [],
  "parts": []
}
