{
  "id": 10623,
  "name": "Волшебник",
  "name_eng": "",
  "year": 2019,
  "slogan": null,
  "age": null,
  "type": "series",
  "quality": "HD (720p)",
  "imdb": null,
  "imdb_id": null,
  "kinopoisk": null,
  "kinopoisk_id": null,
  "world_art": null,
  "world_art_id": null,
  "time": null,
  "ads": false,
  "premier": "2019-08-26",
  "premier_rus": "2019-08-27",
  "availability": "2019-08-28",
  "serial_status": "offline",
  "activate_time": "2019-08-27 14:45:00",
  "budget": null,
  "fees_use": null,
  "fees_world": null,
  "fees_rus": null,
  "rate_mpaa": null,
  "description": null,
  "iframe_url": "",
  "poster": "https://img.imgilall.me/movies/franchise/1/0/6/2/3/0/0/0/0/0/610x900_10623.jpeg",
  "country": {
    "5": "Россия"
  },
  "collection": [],
  "genre": {
    "24": "Детектив",
    "22": "Русский",
    "19": "Комедия"
  },
  "director": [],
  "screenwriter": [],
  "producer": [],
  "operator": [],
  "composer": [],
  "design": [],
  "editor": [],
  "actors": [],
  "actors_dubl": [],
  "trivia": [],
  "trailers": [],
  "seasons": [
    {
      "poster": null,
      "release_ru": "2019-08-27",
      "release_world": "2019-08-26",
      "availability": "2019-08-28",
      "iframe_url": "",
      "season": 1,
      "episodes": [
        {
          "episode": 1,
          "name": null,
          "iframe_url": "",
          "iframe_poster": "https://img.imgilall.me/movies/video/1/1/1/7/7/9/0/0/0/0/800x450_111779.jpeg",
          "release_ru": "2019-08-27",
          "release_world": "2019-08-26",
          "availability": "2019-08-28",
          "voiceActing": [
            "Рус. Оригинальный"
          ],
          "ads": false,
          "subtitle": []
        },
        {
          "episode": 2,
          "name": null,
          "iframe_url": "",
          "iframe_poster": "https://img.imgilall.me/movies/video/1/1/1/7/8/0/0/0/0/0/800x450_111780.jpeg",
          "release_ru": "2019-08-27",
          "release_world": "2019-08-26",
          "availability": "2019-08-28",
          "voiceActing": [
            "Рус. Оригинальный"
          ],
          "ads": false,
          "subtitle": []
        },
        {
          "episode": 3,
          "name": null,
          "iframe_url": "",
          "iframe_poster": "https://img.imgilall.me/movies/video/1/1/1/8/5/8/0/0/0/0/800x450_111858.jpeg",
          "release_ru": "2019-08-28",
          "release_world": "2019-08-27",
          "availability": "2019-08-29",
          "voiceActing": [
            "Рус. Оригинальный"
          ],
          "ads": false,
          "subtitle": []
        },
        {
          "episode": 4,
          "name": null,
          "iframe_url": "",
          "iframe_poster": "https://img.imgilall.me/movies/video/1/1/1/8/5/9/0/0/0/0/800x450_111859.jpeg",
          "release_ru": "2019-08-28",
          "release_world": "2019-08-27",
          "availability": "2019-08-29",
          "voiceActing": [
            "Рус. Оригинальный"
          ],
          "ads": false,
          "subtitle": []
        },
        {
          "episode": 5,
          "name": null,
          "iframe_url": "",
          "iframe_poster": "https://img.imgilall.me/movies/video/1/1/2/1/0/0/0/0/0/0/800x450_112100.jpeg",
          "release_ru": "2019-08-29",
          "release_world": "2019-08-28",
          "availability": "2019-08-30",
          "voiceActing": [
            "Рус. Оригинальный"
          ],
          "ads": false,
          "subtitle": []
        },
        {
          "episode": 6,
          "name": null,
          "iframe_url": "",
          "iframe_poster": "https://img.imgilall.me/movies/video/1/1/2/1/0/1/0/0/0/0/800x450_112101.jpeg",
          "release_ru": "2019-08-29",
          "release_world": "2019-08-28",
          "availability": "2019-08-30",
          "voiceActing": [
            "Рус. Оригинальный"
          ],
          "ads": false,
          "subtitle": []
        },
        {
          "episode": 7,
          "name": null,
          "iframe_url": "",
          "iframe_poster": "https://img.imgilall.me/movies/video/1/1/2/1/4/9/0/0/0/0/800x450_112149.jpeg",
          "release_ru": "2019-08-30",
          "release_world": "2019-08-29",
          "availability": "2019-08-31",
          "voiceActing": [
            "Рус. Оригинальный"
          ],
          "ads": false,
          "subtitle": []
        },
        {
          "episode": 8,
          "name": null,
          "iframe_url": "",
          "iframe_poster": "https://img.imgilall.me/movies/video/1/1/2/1/6/1/0/0/0/0/800x450_112161.jpeg",
          "release_ru": "2019-08-30",
          "release_world": "2019-08-29",
          "availability": "2019-08-31",
          "voiceActing": [
            "Рус. Оригинальный"
          ],
          "ads": false,
          "subtitle": []
        }
      ]
    }
  ],
  "voiceActing": [
    "Рус. Оригинальный"
  ],
  "subtitle": [],
  "parts": []
}
