{
  "id": 10853,
  "name": "Божественная ярость",
  "name_eng": "Saja",
  "year": 2019,
  "slogan": "«Will you stand with good or evil?»",
  "age": null,
  "type": "film",
  "quality": "HD (720p)",
  "imdb": "6.3",
  "imdb_id": "10550884",
  "kinopoisk": "6.5",
  "kinopoisk_id": "1112788",
  "world_art": null,
  "world_art_id": null,
  "time": "129 мин. / 02:09",
  "ads": false,
  "premier": "2019-07-31",
  "premier_rus": null,
  "availability": null,
  "activate_time": "2019-09-13 12:41:00",
  "budget": "$10 000 000",
  "fees_use": "$102 982",
  "fees_world": "+ $11 696 574 = $11 799 556",
  "fees_rus": null,
  "rate_mpaa": null,
  "description": "Когда Ён-ху был ребёнком, его отец, полицейский и очень религиозный человек, погиб при исполнении. С тех пор парень живёт, затаив на бога обиду, не любит сближаться с людьми и предпочёл реализоваться в MMA. Однажды на ладони ударной правой руки Ён-ху проступает стигмат, и с тех пор по ночам его приходят мучить злые потусторонние сущности. Пытаясь разобраться в происходящем, парень встречает священника-экзорциста, с которым ему придется наладить отношения, чтобы вместе противостоять дьявольским силам.",
  "iframe_url": "",
  "iframe_poster": "https://img.imgilall.me/movies/video/1/1/5/3/9/7/0/0/0/0/800x450_115397.jpeg",
  "poster": "https://img.imgilall.me/movies/franchise/1/0/8/5/3/0/0/0/0/0/610x900_10853.jpg",
  "country": {
    "16": "Корея Южная"
  },
  "collection": [],
  "genre": {
    "26": "Ужасы",
    "6": "Фэнтези",
    "17": "Боевик",
    "10": "Зарубежный"
  },
  "director": [
    "Ким Джу-хван"
  ],
  "screenwriter": [
    "Ким Джу-хван"
  ],
  "producer": [
    "Пак А-хён",
    "Лим Джун-хёк"
  ],
  "operator": [
    "Чо Сан-юн"
  ],
  "composer": [
    "Ку Джа-ван"
  ],
  "design": [
    "Ли Бон-хван",
    "Чхэ Гён-хва"
  ],
  "editor": [
    "Ким Сон-мин"
  ],
  "actors": [
    "Пак Со-джун",
    "Ан Сон-ги",
    "У До-хван",
    "Пак Чи-хён",
    "Чон Джи-хун",
    "Ли Сын-хи",
    "Щим Хи-соп",
    "Ким Щи-ын",
    "Чхве У-щик",
    "Ли Чхан-ю"
  ],
  "actors_dubl": [],
  "trivia": [
    "Предполагалось, что роль монахини Терезы сыграет Исом, но из-за занятости на съёмках сериала «Третий шарм» она отказалась от роли.",
    "Съёмочный период фильма — с 14 августа по 31 декабря 2018 года."
  ],
  "trailers": [],
  "seasons": [],
  "voiceActing": [
    "SOFTBOX",
    "Храм Дорам"
  ],
  "subtitle": [],
  "parts": []
}
