{
  "id": 10959,
  "name": "Мой друг Алексис",
  "name_eng": "Mi Amigo Alexis",
  "year": 2019,
  "slogan": "—",
  "age": null,
  "type": "film",
  "quality": "HD (720p)",
  "imdb": "4.9",
  "imdb_id": "9747396",
  "kinopoisk": null,
  "kinopoisk_id": "1239615",
  "world_art": null,
  "world_art_id": null,
  "time": "100 мин. / 01:40",
  "ads": true,
  "premier": "2019-05-30",
  "premier_rus": null,
  "availability": null,
  "activate_time": "2019-09-20 17:07:00",
  "budget": "",
  "fees_use": "",
  "fees_world": "",
  "fees_rus": "",
  "rate_mpaa": "",
  "description": "Тито, 12-летний мальчик с талантом к футболу, случайно знакомится со своим кумиром, Алексисом Санчесом. Их дружба помогает Тито понять, чем он хочет заниматься в жизни, а Алексис вспоминает, почему он любит футбол.",
  "iframe_url": "",
  "iframe_poster": "https://img.imgilall.me/movies/video/1/1/5/2/2/7/0/0/0/0/800x450_115227.jpeg",
  "poster": "https://img.imgilall.me/movies/franchise/1/0/9/5/9/0/0/0/0/0/610x900_10959.jpg",
  "country": {
    "54": "Чили"
  },
  "collection": [],
  "genre": {
    "9": "Приключения",
    "33": "Семейный",
    "23": "Спортивный",
    "19": "Комедия",
    "10": "Зарубежный",
    "7": "Драма"
  },
  "director": [
    "Алехандро Фернандес Альмендрас"
  ],
  "screenwriter": [
    "Хосефина Фернандес"
  ],
  "producer": [
    "Хуан де Диос Ларраин",
    "Пабло Ларраин",
    "Enrique González Ledesma"
  ],
  "operator": [
    "Brian Welsh"
  ],
  "composer": [
    "Pablo Vergara"
  ],
  "design": [
    "Romina Olguín"
  ],
  "editor": [
    "Хавьер Эстевес",
    "Javier Estévez"
  ],
  "actors": [
    "Luciano González",
    "Алексис Санчес",
    "Даниэль Муньос",
    "Ignacia Uribe",
    "Marco Baeza",
    "Мануэла Оярсун",
    "Камило Кармона",
    "Darío Salazar",
    "Алехандра Яньес",
    "Lorna Campos"
  ],
  "actors_dubl": [],
  "trivia": [],
  "trailers": [],
  "seasons": [],
  "voiceActing": [
    "Рус. Люб. многоголосый"
  ],
  "subtitle": [],
  "parts": []
}
