{
  "id": 11114,
  "name": "Семейные узы",
  "name_eng": "Separated at Birth",
  "year": 2018,
  "slogan": "—",
  "age": null,
  "type": "film",
  "quality": "HD (720p)",
  "imdb": "5.8",
  "imdb_id": "6748984",
  "kinopoisk": "5.9",
  "kinopoisk_id": "1049048",
  "world_art": null,
  "world_art_id": null,
  "time": "97 мин. / 01:37",
  "ads": false,
  "premier": "2018-02-09",
  "premier_rus": null,
  "availability": null,
  "activate_time": "2019-09-25 14:29:00",
  "budget": null,
  "fees_use": null,
  "fees_world": null,
  "fees_rus": null,
  "rate_mpaa": null,
  "description": "Люси выросла в обычной американской семье среднего достатка. Но вскоре после трагической кончины матери она узнает, что на самом деле ее похитили у настоящих родителей, когда она была маленькой. Люси находит свою биологическую мать, прокурора Элизабет Маршал. Элизабет рада воссоединиться с дочерью, но счастье их будет недолгим.",
  "iframe_url": "",
  "iframe_poster": "https://img.imgilall.me/movies/video/1/1/6/2/9/7/0/0/0/0/800x450_116297.jpeg",
  "poster": "https://img.imgilall.me/movies/franchise/1/1/1/1/4/0/0/0/0/0/610x900_11114.jpg",
  "country": {
    "7": "Канада"
  },
  "collection": [],
  "genre": {
    "13": "Триллер",
    "10": "Зарубежный",
    "7": "Драма"
  },
  "director": [
    "Жан-Франсуа Ривар"
  ],
  "screenwriter": [
    "Джеймс Тейлор Филлипс"
  ],
  "producer": [
    "Йен Уайтхед",
    "Жан Бьюро",
    "Кейли Кэвэна"
  ],
  "operator": [],
  "composer": [
    "Джеймс Гелфэнд",
    "Лолита"
  ],
  "design": [
    "Anie Fisette"
  ],
  "editor": [
    "Бенжамин Даффилд"
  ],
  "actors": [
    "Пейдж Турко",
    "Бриттани Аллен",
    "Доминик Провост-Чалкли",
    "Джейн Хейтмейер",
    "Кэрри-Линн Нилс",
    "Горд Рэнд",
    "Келли Крэйг",
    "Ален Голем",
    "Джулиан Бэйли",
    "Шарлотта ЛеГолт"
  ],
  "actors_dubl": [],
  "trivia": [],
  "trailers": [],
  "seasons": [],
  "voiceActing": [
    "Рус. Проф. многоголосый"
  ],
  "subtitle": [],
  "parts": []
}
