{
  "id": 11451,
  "name": "Хэнди-Денди: Начало",
  "name_eng": "Handy Dandy / Devil's Junction: Handy Dandy's Revenge",
  "year": 2019,
  "slogan": "«Who wants to play?»",
  "age": null,
  "type": "film",
  "quality": "HD (720p)",
  "imdb": "3.2",
  "imdb_id": "8639316",
  "kinopoisk": null,
  "kinopoisk_id": "1168545",
  "world_art": null,
  "world_art_id": null,
  "time": "84 мин. / 01:24",
  "ads": true,
  "premier": "2019-04-01",
  "premier_rus": "2019-04-02",
  "availability": "2019-04-03",
  "activate_time": "2019-10-23 21:47:00",
  "budget": "",
  "fees_use": "",
  "fees_world": "",
  "fees_rus": "",
  "rate_mpaa": "",
  "description": "Мастер-кукловод мистер Весельчак возвращается на заброшенную телестанцию в Детройте, где некогда он и его куклы вырастили целое поколение детишек перед экранами. Теперь в планах мистера Весельчака — возрождение армии марионеток и сведение счетов со своим старым противником. Когда на небо поднимается кровавая луна, куклы во главе Хэнди Дэнди выходят на свободу и начинают мстить.",
  "iframe_url": "",
  "iframe_poster": "https://img.imgilall.me/movies/video/1/2/0/1/6/5/0/0/0/0/800x450_120165.jpeg",
  "poster": "https://img.imgilall.me/movies/franchise/1/1/4/5/1/0/0/0/0/0/610x900_11451.jpg",
  "country": {
    "1": "США"
  },
  "collection": [],
  "genre": {
    "26": "Ужасы"
  },
  "director": [
    "Джефф Бродстрит"
  ],
  "screenwriter": [
    "J.S. Brinkley",
    "Donald Borza II"
  ],
  "producer": [
    "Donald Borza II",
    "Алан Форбс",
    "Уильям Дж. Иммерман"
  ],
  "operator": [
    "Эндрю Парк"
  ],
  "composer": [
    "Александр Бубенхайм"
  ],
  "design": [
    "Tom Luhtala",
    "Patrick Cooper"
  ],
  "editor": [
    "Casey Penn"
  ],
  "actors": [
    "Билл Моусли",
    "Билл Оберст мл.",
    "Jake Red",
    "Кайл Андерсон",
    "Коуди Рени Камерон",
    "Артур Маррокин",
    "КейтЛинн Ньюберри",
    "Дэнни Спринг",
    "Victoria Esther Castillo",
    "Jake LaMarca"
  ],
  "actors_dubl": [],
  "trivia": [],
  "trailers": [],
  "seasons": [],
  "voiceActing": [
    "Рус. Люб. многоголосый"
  ],
  "subtitle": [],
  "parts": []
}
