{
  "id": 11474,
  "name": "Уаллай",
  "name_eng": "Wallay",
  "year": 2017,
  "slogan": "—",
  "age": null,
  "type": "film",
  "quality": "HD (720p)",
  "imdb": "6.4",
  "imdb_id": "6584902",
  "kinopoisk": null,
  "kinopoisk_id": "1039069",
  "world_art": null,
  "world_art_id": null,
  "time": "84 мин. / 01:24",
  "ads": true,
  "premier": "2017-02-13",
  "premier_rus": "2017-02-14",
  "availability": "2017-02-15",
  "activate_time": "2019-10-22 17:40:00",
  "budget": "€600 000",
  "fees_use": "",
  "fees_world": "",
  "fees_rus": "",
  "rate_mpaa": "G",
  "description": "13-летнего мальчика отправляют из дома во Франции в деревушку в Буркина-Фасо. На его настоящую родину, где он должен пройти обряд посвящения в мужчины.",
  "iframe_url": "",
  "iframe_poster": "https://img.imgilall.me/movies/video/1/1/9/9/9/3/0/0/0/0/800x450_119993.jpeg",
  "poster": "https://img.imgilall.me/movies/franchise/1/1/4/7/4/0/0/0/0/0/610x900_11474.jpg",
  "country": {
    "9": "Франция",
    "113": "Буркина-Фасо"
  },
  "collection": [],
  "genre": {
    "7": "Драма"
  },
  "director": [
    "Берни Голдблат"
  ],
  "screenwriter": [],
  "producer": [
    "Николя Антом",
    "Antoine Delahousse",
    "Faissol Gnonlonfin"
  ],
  "operator": [
    "Мартин Рит"
  ],
  "composer": [
    "Винсент Сигал"
  ],
  "design": [],
  "editor": [
    "Лорен Сенешаль"
  ],
  "actors": [
    "Makan Nathan Diarra",
    "Ибрагим Кома",
    "Hamadoun Kassogué",
    "Mounira Kankolé",
    "Жозефин Каборе"
  ],
  "actors_dubl": [],
  "trivia": [],
  "trailers": [],
  "seasons": [],
  "voiceActing": [
    "Рус. Люб. многоголосый"
  ],
  "subtitle": [],
  "parts": []
}
