{
  "id": 11498,
  "name": "Восход Марвел: Баттл групп",
  "name_eng": "Marvel Rising: Battle of the Bands",
  "year": 2019,
  "slogan": "—",
  "age": null,
  "type": "cartoon",
  "quality": "HD (720p)",
  "imdb": "5.0",
  "imdb_id": "10863978",
  "kinopoisk": null,
  "kinopoisk_id": "1298639",
  "world_art": null,
  "world_art_id": null,
  "time": "22 мин.",
  "ads": true,
  "premier": "2019-08-28",
  "premier_rus": "2019-08-29",
  "availability": "2019-08-30",
  "activate_time": "2019-11-14 15:43:00",
  "budget": "",
  "fees_use": "",
  "fees_world": "",
  "fees_rus": "",
  "rate_mpaa": "",
  "description": "Гвен пытается найти равновесие между жизнью простой девушки и супергероя, когда на город нападает новый злодей, который пытается разрушить всё, что ей дорого. Вместе с Тайными Воинами она разберется, что же за таинственному врагу им придется противостоять, в то же время стараясь успеть на собственный концерт.",
  "iframe_url": "",
  "iframe_poster": "https://img.imgilall.me/movies/video/1/1/9/6/0/1/0/0/0/0/800x450_119601.jpeg",
  "poster": "https://img.imgilall.me/movies/franchise/1/1/4/9/8/0/0/0/0/0/610x900_11498.jpg",
  "country": {
    "1": "США"
  },
  "collection": [],
  "genre": {
    "9": "Приключения",
    "33": "Семейный"
  },
  "director": [
    "Chris Rutkowski"
  ],
  "screenwriter": [
    "Mae Catt"
  ],
  "producer": [
    "Кеннет Т. Ито",
    "Howard Schwartz",
    "Сана Аманат"
  ],
  "operator": [],
  "composer": [
    "Майкл МакКьюшен"
  ],
  "design": [],
  "editor": [
    "Адам Реддинг"
  ],
  "actors": [
    "Дав Камерон",
    "Скай Джексон",
    "Катрин Хавари",
    "Камиль МакФедден",
    "Тайлер Пози",
    "Сьерра Рамирес",
    "Тара Стронг",
    "Милана Вайнтруб",
    "София Уайли"
  ],
  "actors_dubl": [],
  "trivia": [],
  "trailers": [],
  "seasons": [],
  "voiceActing": [
    "Рус. Люб. многоголосый"
  ],
  "subtitle": [],
  "parts": []
}
