{
  "id": 11662,
  "name": "Неизвестный солдат",
  "name_eng": "Tuntematon sotilas",
  "year": 2017,
  "slogan": "«Finland, behold, thy daylight now is dawning»",
  "age": null,
  "type": "film",
  "quality": "HD (720p)",
  "imdb": "7.8",
  "imdb_id": "4065552",
  "kinopoisk": "6.8",
  "kinopoisk_id": "973670",
  "world_art": null,
  "world_art_id": null,
  "time": "180 мин. / 03:00",
  "ads": false,
  "premier": "2017-10-22",
  "premier_rus": "2017-10-23",
  "availability": "2017-10-24",
  "activate_time": "2019-10-17 11:31:00",
  "budget": "€7 000 000",
  "fees_use": null,
  "fees_world": "$15 717 199",
  "fees_rus": null,
  "rate_mpaa": null,
  "description": "Рассказ о событиях Советско-финской войны, начиная с захвата Карелии и заканчивая подписанием мирного договора.",
  "iframe_url": "",
  "iframe_poster": "https://img.imgilall.me/movies/video/1/2/0/9/8/9/0/0/0/0/800x450_120989.jpeg",
  "poster": "https://img.imgilall.me/movies/franchise/1/1/6/6/2/0/0/0/0/0/610x900_11662.jpg",
  "country": {
    "11": "Исландия",
    "29": "Бельгия",
    "48": "Финляндия"
  },
  "collection": [],
  "genre": {
    "32": "Военный",
    "10": "Зарубежный",
    "7": "Драма"
  },
  "director": [
    "Аку Лоухимиес"
  ],
  "screenwriter": [
    "Аку Лоухимиес",
    "Яри Рантала",
    "Вяйно Линна"
  ],
  "producer": [
    "Мила Хаависто",
    "Tommi Kangasmaa",
    "Аку Лоухимиес"
  ],
  "operator": [
    "Мика Орасмаа"
  ],
  "composer": [
    "Лассе Энерсен"
  ],
  "design": [
    "Марьятта Ниссинен"
  ],
  "editor": [
    "Бенжамин Мерсер"
  ],
  "actors": [
    "Еэро Ахо",
    "Йоханнес Холопайнен",
    "Юсси Ватанен",
    "Аку Хирвиниеми",
    "Ханнес Суоминен",
    "Артту Капулайнен",
    "Паула Весала",
    "Самули Ваурамо",
    "Йунас Саартамо",
    "Юхо Милонофф"
  ],
  "actors_dubl": [],
  "trivia": [
    "Экранизация одноимённого романа (1954) финского писателя Вяйно Линна (1920-1992).",
    "Звуковой ряд дали прослушать актёру и любителю дикой природы Пиркке-Пекке Петелиусу. Тот убедился, что птицы, чьи голоса слышны в фильме, соответствуют показанному на экране времени года."
  ],
  "trailers": [],
  "seasons": [],
  "voiceActing": [
    "Ю. Живов"
  ],
  "subtitle": [],
  "parts": []
}
