{
  "id": 11681,
  "name": "Тыквы",
  "name_eng": "Pumpkins",
  "year": 2018,
  "slogan": "—",
  "age": null,
  "type": "film",
  "quality": "HD (720p)",
  "imdb": "2.7",
  "imdb_id": "4381382",
  "kinopoisk": null,
  "kinopoisk_id": "994965",
  "world_art": null,
  "world_art_id": null,
  "time": "90 мин. / 01:30",
  "ads": true,
  "premier": "2018-01-21",
  "premier_rus": "2018-01-22",
  "availability": "2018-01-23",
  "activate_time": "2019-10-22 18:02:00",
  "budget": "",
  "fees_use": "",
  "fees_world": "",
  "fees_rus": "",
  "rate_mpaa": "",
  "description": "Молодёжный фильм ужасов, действие которого разворачивается в 80-е годы в северной Англии.\r\n",
  "iframe_url": "",
  "iframe_poster": "https://img.imgilall.me/movies/video/1/2/1/0/3/3/0/0/0/0/800x450_121033.jpeg",
  "poster": "https://img.imgilall.me/movies/franchise/1/1/6/8/1/0/0/0/0/0/610x900_11681.jpg",
  "country": {
    "2": "Великобритания"
  },
  "collection": [],
  "genre": {
    "26": "Ужасы"
  },
  "director": [
    "Мария Ли Метэрингем"
  ],
  "screenwriter": [
    "Мария Ли Метэрингем",
    "Will Metheringham"
  ],
  "producer": [
    "Мария Ли Метэрингем",
    "Стэйси Гоф",
    "Bow Donne Sorn"
  ],
  "operator": [
    "Gary Rogers"
  ],
  "composer": [
    "Will Metheringham"
  ],
  "design": [],
  "editor": [],
  "actors": [
    "Дэни Томпсон",
    "Мария Ли Метэрингем",
    "Craig Edwards",
    "Marcella Edgecombe-Craig",
    "Georgia Annable",
    "Джон Майкл Фулгер",
    "Марк Х. Смит",
    "Саманта Хиндмэн",
    "Dale Hooley",
    "Джим Бэйс"
  ],
  "actors_dubl": [],
  "trivia": [],
  "trailers": [],
  "seasons": [],
  "voiceActing": [
    "Рус. Люб. многоголосый"
  ],
  "subtitle": [],
  "parts": []
}
