{
  "id": 11693,
  "name": "Суперпес",
  "name_eng": "Underdog",
  "year": 2007,
  "slogan": "«One Nation, Under Dog»",
  "age": "12+",
  "type": "film",
  "quality": "FHD (1080p)",
  "imdb": "4.8",
  "imdb_id": "0467110",
  "kinopoisk": "5.4",
  "kinopoisk_id": "196670",
  "world_art": null,
  "world_art_id": null,
  "time": "84 мин. / 01:24",
  "ads": false,
  "premier": "2007-08-03",
  "premier_rus": "2007-08-04",
  "availability": "2007-08-05",
  "activate_time": "2019-10-30 16:32:00",
  "budget": null,
  "fees_use": "$43 760 605",
  "fees_world": "+ $21 509 872 = $65 270 477",
  "fees_rus": null,
  "rate_mpaa": "PG",
  "description": "Пес по кличке «Блеск» однажды угодил в недра секретной лаборатории и в результате стал первой на земле собакой, наделенной сверхсобачьими силами. В обычной жизни – он все та же самая добродушная псина, души не чающая в своем хозяине Джеке. Но стоит где-то поблизости произойти преступлению, и старина Блеск тут же превращается в Суперпса, героя в обтягивающем красном трико и с развевающимся синим плащом за спиной.",
  "iframe_url": "",
  "iframe_poster": null,
  "poster": "https://img.imgilall.me/movies/franchise/1/1/6/9/3/0/0/0/0/0/610x900_11693.jpg",
  "country": {
    "1": "США"
  },
  "collection": {
    "37": "Disney",
    "18": "Про животных"
  },
  "genre": {
    "9": "Приключения",
    "11": "Фантастика",
    "6": "Фэнтези",
    "33": "Семейный",
    "19": "Комедия",
    "17": "Боевик",
    "10": "Зарубежный"
  },
  "director": [
    "Фредерик Ду Чау"
  ],
  "screenwriter": [
    "Адам Рифкин",
    "Джо Пискателла",
    "Крэйг А. Уильямс"
  ],
  "producer": [
    "Гари Барбер",
    "Роджер Бирнбаум",
    "Джонатан Гликман"
  ],
  "operator": [
    "Дэвид Эггби"
  ],
  "composer": [
    "Рэнди Эдельман"
  ],
  "design": [
    "Гаррет Стоувер",
    "Джеймс Ф. Трусдейл",
    "Энни Блум"
  ],
  "editor": [
    "Том Финэн"
  ],
  "actors": [
    "Джейсон Ли",
    "Питер Динклэйдж",
    "Джеймс Белуши",
    "Патрик Варбертон",
    "Алекс Нойбергер",
    "Тейлор Момсен",
    "Джон Слэттери",
    "Эми Адамс",
    "Брэд Гэррет",
    "Саманта Би"
  ],
  "actors_dubl": [
    "Александр Большаков",
    "Сергей Козик",
    "Андрей Тенетко",
    "Глеб Гаврилов",
    "Виктор Костецкий"
  ],
  "trivia": [
    "В 1970-м было выпущено 10 томов одноименного комикса издательством «Charlton Comics», а в 1975-м издательство «Gold Key Comics» напечатало 23 тома. А вот издательство «Spotlight Comics» в 1987-м году смогли выпустить только 3 тома, а «Harvey Comics» в 1993-м всего-навсего 1."
  ],
  "trailers": [],
  "seasons": [],
  "voiceActing": [
    "Рус. Дублированный",
    "Eng.Original"
  ],
  "subtitle": [
    "Рус. форсированные"
  ],
  "parts": []
}
