{
  "id": 1185,
  "name": "Пророк",
  "name_eng": "Next",
  "year": 2007,
  "slogan": "«If you can see the future, you can save it»",
  "age": "12+",
  "type": "film",
  "quality": "FHD (1080p)",
  "imdb": "6.2",
  "imdb_id": "0435705",
  "kinopoisk": "7.1",
  "kinopoisk_id": "87789",
  "world_art": null,
  "world_art_id": null,
  "time": "91 мин. / 01:31",
  "ads": false,
  "premier": "2007-04-25",
  "premier_rus": "2007-04-26",
  "availability": null,
  "activate_time": "2018-07-09 14:21:37",
  "budget": "$70 000 000",
  "fees_use": "$18 211 013",
  "fees_world": "+ $59 210 177 = $77 421 190",
  "fees_rus": "$4 403 850",
  "rate_mpaa": "PG-13",
  "description": "У Криса Джонсона есть секрет, отравляющий его жизнь: он может предсказывать ближайшее будущее. Устав от бесконечного внимания правительства и медицинских центров, пытающихся разгадать природу его удивительных способностей, Крис ложится на дно. Под вымышленным именем он работает в Лас-Вегасе, где развлекает публику дешевыми фокусами. Но когда группа террористов угрожает Лос-Анджелесу, специальному агенту Калли Феррис придется собрать все силы, чтобы разыскать Криса и убедить его помочь предотвратить катастрофу.",
  "iframe_url": "",
  "iframe_poster": null,
  "poster": "https://img.imgilall.me/movies/franchise/1/1/8/5/0/0/0/0/0/0/610x900_1185.jpg",
  "country": {
    "1": "США"
  },
  "collection": {
    "62": "Про полицию"
  },
  "genre": {
    "11": "Фантастика",
    "17": "Боевик",
    "13": "Триллер",
    "10": "Зарубежный"
  },
  "director": [
    "Ли Тамахори"
  ],
  "screenwriter": [
    "Гари Голдман",
    "Джонатан Хенсли",
    "Пол Бернбаум"
  ],
  "producer": [
    "Николас Кейдж",
    "Тодд Гарнер",
    "Грэм Кинг"
  ],
  "operator": [
    "Дэвид Тэттерсолл"
  ],
  "composer": [
    "Марк Айшем"
  ],
  "design": [
    "Уильям Сэнделл",
    "Кевин Исиока",
    "Марк В. Мэнсбридж"
  ],
  "editor": [
    "Кристиан Вагнер"
  ],
  "actors": [
    "Николас Кейдж",
    "Джулианна Мур",
    "Джессика Бил",
    "Томас Кречман",
    "Тори Киттлз",
    "Хосе Суньига",
    "Джим Бивер",
    "Джейсон Батлер Харнер",
    "Майкл Трукко",
    "Энцо Чиленти"
  ],
  "actors_dubl": [
    "Александр Рахленко",
    "Ольга Зубкова",
    "Татьяна Шитова",
    "Борис Шувалов",
    "Денис Беспалый"
  ],
  "trivia": [
    "Фильм снят по мотивам рассказа Филипа К. Дика «Золотой человек» (The Golden Man, 1954).",
    "Различные варианты течения событий похожи на имитацию компьютерной игры, где есть возможность пройти один и тот же эпизод по новому, аналогичная идея использовалась в фильме «Беги, Лола, беги».",
    "Из-за неподходящего рельефа местности сцену с падением автомобиля пришлось снимать в двух разных местах. Машина начала скатываться вниз у ресторана «Обрыв». Все остальные кадры падения были сняты в районе палаточного лагеря «Большое медвежье озеро», который находится в 40 милях от ресторана.",
    "Финальные титры также показывают способность главного героя предвидеть будущее, поэтому они прокручиваются сверху вниз, при этом непривычно читать текст, идущий по строкам снизу вверх.",
    "Кафе, в котором Крис встретил Лиз, использовалось для съемок в начальных и финальных сценах фильма «Криминальное чтиво».",
    "Момент в конце фильма, когда Крис уворачивается от пуль террориста, схватившего его подругу, напоминает сцену из «Матрицы» с участием Нео. Несколько эпизодов фильма были сняты в горах Сан Бернардино в Калифорнии. Отель «Обрыв», где остановились Крис и его подруга, являются на самом деле рестораном, поэтому фасаду придали вид здания. При этом интерьер номера был снят в другом месте. После съемок фасад был разрушен."
  ],
  "trailers": [],
  "seasons": [],
  "voiceActing": [
    "Рус. Дублированный",
    "СТС",
    "Рус. Проф. двухголосый",
    "Eng.Original"
  ],
  "subtitle": [],
  "parts": []
}
