{
  "id": 11934,
  "name": "9J, 9K и 9L",
  "name_eng": "9JKL",
  "year": 2017,
  "slogan": "—",
  "age": null,
  "type": "series",
  "quality": "HD (720p)",
  "imdb": "5.0",
  "imdb_id": "6461794",
  "kinopoisk": null,
  "kinopoisk_id": "1040694",
  "world_art": null,
  "world_art_id": null,
  "time": "22 мин",
  "ads": false,
  "premier": "2017-10-02",
  "premier_rus": "2017-10-03",
  "availability": "2017-10-04",
  "serial_status": "offline",
  "activate_time": "2019-10-28 09:46:00",
  "budget": null,
  "fees_use": null,
  "fees_world": null,
  "fees_rus": null,
  "rate_mpaa": null,
  "description": "Ох уж эти семейные отношения! Порой сложно бывает договориться даже с близкими людьми. Кто бы что ни говорил, но иногда сложные отношения между близкими людьми куда труднее нормализовать! В центре внимания истории оказывается главный герой — простой молодой парень Джош, который проживает в квартире под номером 9K. Всё бы ничего, но только рядом с ним в квартире 9J живут его родители, которые покоя не дают ни днём, ни ночью. В 9L проживают брат с сестрой, у которых тоже напряжённые отношения. Жизнь семейная приходит в личную жизнь молодого человека. Ему не до смеха! Но что не сделаешь ради семейного благополучия!",
  "iframe_url": "",
  "poster": "https://img.imgilall.me/movies/franchise/1/1/9/3/4/0/0/0/0/0/610x900_11934.jpg",
  "country": {
    "1": "США"
  },
  "collection": [],
  "genre": {
    "19": "Комедия",
    "10": "Зарубежный"
  },
  "director": [
    "Памела Фрайман",
    "Виктор Гонзалез",
    "Джефф Гринштейн"
  ],
  "screenwriter": [
    "Марк Фойерстин",
    "Дана Кляйн Боркоу",
    "Талия Бернштейн"
  ],
  "producer": [
    "Марк Фойерстин",
    "Дэна Хонор",
    "Аарон Каплан"
  ],
  "operator": [
    "Крис Ля Фонтейн",
    "Майкл Фрэнкс"
  ],
  "composer": [
    "Гэбриел Манн"
  ],
  "design": [
    "Стив Олсон",
    "Michael T. Leonard",
    "Рейко Шёнфельд"
  ],
  "editor": [
    "Пэм Маршалл"
  ],
  "actors": [
    "Марк Фойерстин",
    "Дэвид Уолтон",
    "Лиза Лапира",
    "Мэтт Мюррэй",
    "Линда Лавин",
    "Эллиотт Гулд",
    "Альберт Цай",
    "Тони Белл",
    "Андреа Андерс",
    "Брук Лайонс"
  ],
  "actors_dubl": [],
  "trivia": [],
  "trailers": [],
  "seasons": [
    {
      "poster": null,
      "release_ru": "2017-10-03",
      "release_world": "2017-10-02",
      "availability": "2017-10-04",
      "iframe_url": "",
      "season": 1,
      "episodes": [
        {
          "episode": 1,
          "name": "Pilot",
          "iframe_url": "",
          "iframe_poster": null,
          "release_ru": "2017-10-03",
          "release_world": "2017-10-02",
          "availability": "2017-10-04",
          "voiceActing": [
            "TVShows",
            "Eng.Original"
          ],
          "ads": false,
          "subtitle": []
        },
        {
          "episode": 2,
          "name": "Relationship Guy",
          "iframe_url": "",
          "iframe_poster": null,
          "release_ru": "2017-10-10",
          "release_world": "2017-10-09",
          "availability": "2017-10-11",
          "voiceActing": [
            "TVShows",
            "Eng.Original"
          ],
          "ads": false,
          "subtitle": []
        },
        {
          "episode": 3,
          "name": "Cool Friend Luke",
          "iframe_url": "",
          "iframe_poster": null,
          "release_ru": "2017-10-17",
          "release_world": "2017-10-16",
          "availability": "2017-10-18",
          "voiceActing": [
            "TVShows",
            "Eng.Original"
          ],
          "ads": false,
          "subtitle": []
        },
        {
          "episode": 4,
          "name": "High Steaks",
          "iframe_url": "",
          "iframe_poster": null,
          "release_ru": "2017-10-24",
          "release_world": "2017-10-23",
          "availability": "2017-10-25",
          "voiceActing": [
            "TVShows",
            "Eng.Original"
          ],
          "ads": false,
          "subtitle": []
        },
        {
          "episode": 5,
          "name": "The Key to Life",
          "iframe_url": "",
          "iframe_poster": null,
          "release_ru": "2017-10-31",
          "release_world": "2017-10-30",
          "availability": "2017-11-01",
          "voiceActing": [
            "TVShows",
            "Eng.Original"
          ],
          "ads": false,
          "subtitle": []
        },
        {
          "episode": 6,
          "name": "TV MD",
          "iframe_url": "",
          "iframe_poster": null,
          "release_ru": "2017-11-07",
          "release_world": "2017-11-06",
          "availability": "2017-11-08",
          "voiceActing": [
            "TVShows",
            "Eng.Original"
          ],
          "ads": false,
          "subtitle": []
        },
        {
          "episode": 7,
          "name": "Nanny Wars",
          "iframe_url": "",
          "iframe_poster": null,
          "release_ru": "2017-11-14",
          "release_world": "2017-11-13",
          "availability": "2017-11-15",
          "voiceActing": [
            "TVShows",
            "Eng.Original"
          ],
          "ads": false,
          "subtitle": []
        },
        {
          "episode": 8,
          "name": "Make Thanksgiving Great Again",
          "iframe_url": "",
          "iframe_poster": null,
          "release_ru": "2017-11-21",
          "release_world": "2017-11-20",
          "availability": "2017-11-22",
          "voiceActing": [
            "TVShows",
            "Eng.Original"
          ],
          "ads": false,
          "subtitle": []
        },
        {
          "episode": 9,
          "name": "Lovers Getaway",
          "iframe_url": "",
          "iframe_poster": null,
          "release_ru": "2017-11-28",
          "release_world": "2017-11-27",
          "availability": "2017-11-29",
          "voiceActing": [
            "TVShows",
            "Eng.Original"
          ],
          "ads": false,
          "subtitle": []
        },
        {
          "episode": 10,
          "name": "The Family Plot",
          "iframe_url": "",
          "iframe_poster": null,
          "release_ru": "2017-12-05",
          "release_world": "2017-12-04",
          "availability": "2017-12-06",
          "voiceActing": [
            "TVShows",
            "Eng.Original"
          ],
          "ads": false,
          "subtitle": []
        },
        {
          "episode": 11,
          "name": "Set Visit",
          "iframe_url": "",
          "iframe_poster": null,
          "release_ru": "2017-12-12",
          "release_world": "2017-12-11",
          "availability": "2017-12-13",
          "voiceActing": [
            "TVShows",
            "Eng.Original"
          ],
          "ads": false,
          "subtitle": []
        },
        {
          "episode": 12,
          "name": "It Happened One Night",
          "iframe_url": "",
          "iframe_poster": null,
          "release_ru": "2017-12-19",
          "release_world": "2017-12-18",
          "availability": "2017-12-20",
          "voiceActing": [
            "TVShows",
            "Eng.Original"
          ],
          "ads": false,
          "subtitle": []
        },
        {
          "episode": 13,
          "name": "Heavy Meddling",
          "iframe_url": "",
          "iframe_poster": null,
          "release_ru": "2018-01-16",
          "release_world": "2018-01-15",
          "availability": "2018-01-17",
          "voiceActing": [
            "TVShows",
            "Eng.Original"
          ],
          "ads": false,
          "subtitle": []
        },
        {
          "episode": 14,
          "name": "Fridays with Harry",
          "iframe_url": "",
          "iframe_poster": null,
          "release_ru": "2018-01-23",
          "release_world": "2018-01-22",
          "availability": "2018-01-24",
          "voiceActing": [
            "TVShows",
            "Eng.Original"
          ],
          "ads": false,
          "subtitle": []
        },
        {
          "episode": 15,
          "name": "Stalker Status",
          "iframe_url": "",
          "iframe_poster": null,
          "release_ru": "2018-01-30",
          "release_world": "2018-01-29",
          "availability": "2018-01-31",
          "voiceActing": [
            "TVShows",
            "Eng.Original"
          ],
          "ads": false,
          "subtitle": []
        },
        {
          "episode": 16,
          "name": "Tell All",
          "iframe_url": "",
          "iframe_poster": null,
          "release_ru": "2018-02-06",
          "release_world": "2018-02-05",
          "availability": "2018-02-07",
          "voiceActing": [
            "TVShows",
            "Eng.Original"
          ],
          "ads": false,
          "subtitle": []
        }
      ]
    }
  ],
  "voiceActing": [
    "TVShows",
    "Eng.Original"
  ],
  "subtitle": [],
  "parts": []
}
