{
  "id": 11944,
  "name": "Танцы с птицами",
  "name_eng": "Dancing with the Birds",
  "year": 2019,
  "slogan": "—",
  "age": null,
  "type": "film",
  "quality": "HD (720p)",
  "imdb": "8.3",
  "imdb_id": "11101698",
  "kinopoisk": "8.4",
  "kinopoisk_id": "1314728",
  "world_art": null,
  "world_art_id": null,
  "time": "51 мин",
  "ads": true,
  "premier": "2019-10-23",
  "premier_rus": "2019-10-24",
  "availability": "2019-10-25",
  "activate_time": "2019-11-06 18:01:00",
  "budget": "",
  "fees_use": "",
  "fees_world": "",
  "fees_rus": "",
  "rate_mpaa": "",
  "description": "Некоторые из самых величественных птиц в мире демонстрируют восхитительно захватывающие брачные ритуалы, от ярких танцев до щеголяющих красочных перьев.",
  "iframe_url": "",
  "iframe_poster": null,
  "poster": "https://img.imgilall.me/movies/franchise/1/1/9/4/4/0/0/0/0/0/610x900_11944.jpg",
  "country": {
    "1": "США"
  },
  "collection": [],
  "genre": {
    "54": "Документальный"
  },
  "director": [
    "Хув Корди"
  ],
  "screenwriter": [
    "Хув Корди"
  ],
  "producer": [
    "Хув Корди",
    "Аластер Фотергилл",
    "Toby Nowlan"
  ],
  "operator": [
    "Matthew Aeberhard",
    "Джеймс Олдред",
    "Tim Laman"
  ],
  "composer": [
    "Дэвид Митчэм"
  ],
  "design": [],
  "editor": [
    "Adam Coates"
  ],
  "actors": [
    "Стивен Фрай"
  ],
  "actors_dubl": [],
  "trivia": [],
  "trailers": [],
  "seasons": [],
  "voiceActing": [
    "Рус. Люб. многоголосый"
  ],
  "subtitle": [],
  "parts": []
}
