{
  "id": 12036,
  "name": "Судная ночь 3",
  "name_eng": "The Purge: Election Year",
  "year": 2016,
  "slogan": "«Один раз в году все преступления законны»",
  "age": "18+",
  "type": "film",
  "quality": "FHD (1080p)",
  "imdb": "6.0",
  "imdb_id": "4094724",
  "kinopoisk": "5.8",
  "kinopoisk_id": "843907",
  "world_art": null,
  "world_art_id": null,
  "time": "108 мин. / 01:48",
  "ads": false,
  "premier": "2016-06-29",
  "premier_rus": "2016-07-28",
  "availability": null,
  "activate_time": "2019-11-07 11:56:00",
  "budget": "$10 000 000",
  "fees_use": "$79 213 375",
  "fees_world": "+ $39 374 505 = $118 587 880",
  "fees_rus": "$824 491",
  "rate_mpaa": "R",
  "description": "Добро пожаловать в идеальное будущее, в котором Судная ночь превратилась в международный тренд. Туристы со всего мира прибывают в  аэропорты Америки: ведь всего лишь раз в году здесь позволено все, главное – дожить до рассвета.",
  "iframe_url": "",
  "iframe_poster": null,
  "poster": "https://img.imgilall.me/movies/franchise/1/2/0/3/6/0/0/0/0/0/610x900_12036.jpg",
  "country": {
    "1": "США",
    "18": "Япония"
  },
  "collection": [],
  "genre": {
    "26": "Ужасы",
    "11": "Фантастика",
    "17": "Боевик",
    "13": "Триллер",
    "10": "Зарубежный"
  },
  "director": [
    "Джеймс ДеМонако"
  ],
  "screenwriter": [
    "Джеймс ДеМонако"
  ],
  "producer": [
    "Майкл Бэй",
    "Эндрю Форм",
    "Брэдли Фуллер"
  ],
  "operator": [
    "Жак Жуффре"
  ],
  "composer": [
    "Нэйтан Уайтхед"
  ],
  "design": [
    "Шэрон Ломофски",
    "Дэвид Бланкеншип",
    "Лиз Вастола"
  ],
  "editor": [
    "Тодд Е. Миллер"
  ],
  "actors": [
    "Фрэнк Грилло",
    "Элизабет Митчелл",
    "Майкелти Уильямсон",
    "Джозеф Джулиан Сория",
    "Бетти Гэбриел",
    "Терри Серпико",
    "Эдвин Ходж",
    "Кайл Сикор",
    "Бэрри Нолан",
    "Лиза Колон-Зайас"
  ],
  "actors_dubl": [
    "Данил Щебланов",
    "Марьяна Спивак",
    "Александр Носков",
    "Антон Эльдаров",
    "Рамиля Искандер"
  ],
  "trivia": [
    "Вначале предполагалось, что это будет приквел к фильму «Судная ночь» (Джеймс ДеМонако, 2013), однако эту идею отбросили, когда Фрэнк Грилло принял предложение режиссёра вновь сыграть сержанта Лео Барнса из «Судной ночи 2» (2014).",
    "События, о которых повествует фильм, разворачиваются в марте 2025 года.",
    "Сюжетная канва фильма разворачивается через два года после событий, о которых идёт речь в фильме Джеймса Демонако «Судная ночь 2» (2014).",
    "Съёмки фильма проходили в городе Вунсокет, штат Род-Айленд.",
    "Джеймс ДеМонако сам написал сценарии и поставил все фильмы франшизы, что в жанре фильмов ужасов случается крайне редко.",
    "Дробовик, который носит с собой Лэйни — это Serbu Super-Shorty.",
    "В Испании фильмы франшизы вышли под другими названиями, но с одним и тем же подзаголовком: «Судная ночь: Ночь зверей» (2013), «Анархия: Ночь зверей» (2014) и «Выбор: Ночь зверей» (2016).",
    "Рабочим названием фильма было «Судная ночь: Убийцы».",
    "Солдаты партии «Новые Отцы-основатели Америки» носят на груди нацистскую символику.",
    "Каждый элемент франшизы стал коммерчески более успешным, чем предшествующий. Для фильмов ужасов это большая редкость.",
    "Рэймонд Дж. Бэрри, исполнитель роли Калеба Уорренса, и Майкелти Уильямсон, сыгравший Джо Диксона, играли в криминальном драматическом сериале «Правосудие» (2010). Первый сыграл Арло Гивенса, второй — Эллстина Лаймхауса.",
    "Банда «Упырей», или «банда из автобуса», в фильме не появляется.",
    "Данте Бишоп в исполнении Эдвина Ходжа в фильме играет роль, которую в «Судной ночи 2» выполнял Кармело Джонс, сыгранный Майком Кеннетом Уильямсом.",
    "Персонаж Эдвина Ходжа появляется во всёх трёх фильмах франшизы. В «Судной ночи 3» зрители узнают, что его зовут Данте Бишоп, тогда как в первых двух фильмах он фигурировал просто как «Незнакомец».",
    "Элизабет Митчелл, которая исполнила роль сенатора Роан, сыграла одну из главных героинь в сериале «Остаться в живых» (2004-2010). В фильме есть отсылка к этому телесериалу — речь идёт о шоколадном батончике Apollo, который Кимми пытается украсть в магазине Джо.",
    "Первый фильм франшизы, где не слышен возвещающий окончание Судной ночи звук сирены.",
    "В фильме появляется Калеб Уорренс — лидер политической партии «Новые Отцы-основатели Америки».",
    "Эдвин Ходж стал единственным актёром, сыгравшим во всёх трёх фильмах франшизы. В последнем фильме его персонаж погибает.",
    "Все изображённые на постерах к фильму персонажи по мере развития сюжета гибнут.",
    "В трёх не связанных между собой фильмах — «Форрест Гамп» (Роберт Земекис, 1994), «Воздушная тюрьма» (Саймон Уэст, 1997) и «Судная ночь 3» (Джеймс ДеМонако, 2016) — персонаж Майкелти Уильямсона сходится с главным героем, получает пулю в живот и разговаривает с главным героем, после чего либо умирает, либо его везут в больницу.",
    "Следующие персонажи из предыдущих частей франшизы в фильме «Судная ночь 3» не появляются: Кармело Джонс, Кали Санчес, Лиз, Таня, Рико Санчес, Большой Папочка, Ева Санчес, Шейн, бандит, Уоррен Грасс, элегантная старушка, второй бандит, Диего, Родди, Барни, Лорен, Кэтрин, мистер Сэбиан (появляется его жена), Карлос, мистер Локхарт, Лорен Локхарт и «Боевые братья»."
  ],
  "trailers": [],
  "seasons": [],
  "voiceActing": [
    "Рус. Дублированный",
    "Eng.Original"
  ],
  "subtitle": [
    "Рус. форсированные"
  ],
  "parts": [
    1890,
    11003,
    12035,
    12036
  ]
}
