{
  "id": 12099,
  "name": "Рождество Жуков",
  "name_eng": "A Pondemonium Christmas",
  "year": 2019,
  "slogan": null,
  "age": null,
  "type": "cartoon",
  "quality": "HD (720p)",
  "imdb": null,
  "imdb_id": "12035676",
  "kinopoisk": null,
  "kinopoisk_id": null,
  "world_art": null,
  "world_art_id": null,
  "time": null,
  "ads": true,
  "premier": null,
  "premier_rus": null,
  "availability": null,
  "activate_time": "2019-11-01 18:01:00",
  "budget": null,
  "fees_use": null,
  "fees_world": null,
  "fees_rus": null,
  "rate_mpaa": null,
  "description": null,
  "iframe_url": "",
  "iframe_poster": null,
  "poster": "https://img.imgilall.me/movies/franchise/1/2/0/9/9/0/0/0/0/0/610x900_12099.jpg",
  "country": {
    "1": "США"
  },
  "collection": [],
  "genre": {
    "9": "Приключения",
    "37": "Детский",
    "33": "Семейный",
    "10": "Зарубежный"
  },
  "director": [],
  "screenwriter": [],
  "producer": [],
  "operator": [],
  "composer": [],
  "design": [],
  "editor": [],
  "actors": [],
  "actors_dubl": [],
  "trivia": [],
  "trailers": [],
  "seasons": [],
  "voiceActing": [
    "Рус. Люб. многоголосый"
  ],
  "subtitle": [],
  "parts": []
}
