{
  "id": 12145,
  "name": "Дядя Кара",
  "name_eng": "Karadayi",
  "year": 2012,
  "slogan": "—",
  "age": null,
  "type": "series",
  "quality": "FHD (1080p)",
  "imdb": "7.5",
  "imdb_id": "2339608",
  "kinopoisk": "8.1",
  "kinopoisk_id": "703025",
  "world_art": null,
  "world_art_id": null,
  "time": "90 мин",
  "ads": false,
  "premier": "2012-10-08",
  "premier_rus": null,
  "availability": null,
  "serial_status": "offline",
  "activate_time": "2019-11-14 09:22:00",
  "budget": null,
  "fees_use": null,
  "fees_world": null,
  "fees_rus": null,
  "rate_mpaa": null,
  "description": "Турция, начало 70 годов, главный герой  Махир не из робкого десятка, решил женится на девушке, но в день помолвки их остановила ужасная весть о том, что его отец Кара - Назиф приговорен к сметной казни за убийство человека. Сын понимает, что нужно восстановить справедливость и спасти отца от клеветы, он делает следующий ход, что бы узнать, кто  на самом деле убийца  и спасти родного отца от сметной казни. Он встречает девушку, в которую влюбляется, но ему местным законом это запрещено. Она из семьи, к которой у него есть претензии. Теперь герой должен выбрать, что ему больше по душе и с кем остаться - с девушкой или отцом...",
  "iframe_url": "",
  "poster": "https://img.imgilall.me/movies/franchise/1/2/1/4/5/0/0/0/0/0/610x900_12145.jpg",
  "country": {
    "36": "Турция"
  },
  "collection": [],
  "genre": {
    "25": "Криминал",
    "17": "Боевик",
    "10": "Зарубежный",
    "8": "Мелодрама",
    "7": "Драма"
  },
  "director": [
    "Улуч Байрактар",
    "Cem Karci"
  ],
  "screenwriter": [
    "Эйлем Джанполат",
    "Сема Эргенекон"
  ],
  "producer": [
    "Керем Чатай"
  ],
  "operator": [
    "Толга Кутлуай"
  ],
  "composer": [
    "Тойгар Ышыклы"
  ],
  "design": [
    "Оя Косеоглу",
    "Айшегюль Чифтчи",
    "Фырат Темель"
  ],
  "editor": [],
  "actors": [
    "Кенан Имирзалыоглу",
    "Бергюзар Корель",
    "Четин Текиндор",
    "Юрдаэр Окур",
    "Рыза Коджаоглу",
    "Озан Агач",
    "Улаш Туна Астепе",
    "Эркан Авджи",
    "Мехмет Боздоган",
    "Лила Гюрмен"
  ],
  "actors_dubl": [],
  "trivia": [],
  "trailers": [],
  "seasons": [
    {
      "poster": null,
      "release_ru": "2012-10-09",
      "release_world": "2012-10-08",
      "availability": "2012-10-10",
      "iframe_url": "",
      "season": 1,
      "episodes": [
        {
          "episode": 1,
          "name": "1. Bölüm",
          "iframe_url": "",
          "iframe_poster": null,
          "release_ru": "2012-10-09",
          "release_world": "2012-10-08",
          "availability": "2012-10-10",
          "voiceActing": [
            "Рус. Люб. одноголосый"
          ],
          "ads": false,
          "subtitle": []
        },
        {
          "episode": 2,
          "name": "2. Bölüm",
          "iframe_url": "",
          "iframe_poster": null,
          "release_ru": "2012-10-16",
          "release_world": "2012-10-15",
          "availability": "2012-10-17",
          "voiceActing": [
            "Рус. Люб. одноголосый"
          ],
          "ads": false,
          "subtitle": []
        },
        {
          "episode": 3,
          "name": "3. Bölüm",
          "iframe_url": "",
          "iframe_poster": null,
          "release_ru": "2012-10-23",
          "release_world": "2012-10-22",
          "availability": "2012-10-24",
          "voiceActing": [
            "Рус. Люб. одноголосый"
          ],
          "ads": false,
          "subtitle": []
        },
        {
          "episode": 4,
          "name": "4. Bölüm",
          "iframe_url": "",
          "iframe_poster": null,
          "release_ru": "2012-10-30",
          "release_world": "2012-10-29",
          "availability": "2012-10-31",
          "voiceActing": [
            "Рус. Люб. одноголосый"
          ],
          "ads": false,
          "subtitle": []
        },
        {
          "episode": 5,
          "name": "5. Bölüm",
          "iframe_url": "",
          "iframe_poster": null,
          "release_ru": "2012-11-06",
          "release_world": "2012-11-05",
          "availability": "2012-11-07",
          "voiceActing": [
            "Рус. Люб. одноголосый"
          ],
          "ads": false,
          "subtitle": []
        },
        {
          "episode": 6,
          "name": "6. Bölüm",
          "iframe_url": "",
          "iframe_poster": null,
          "release_ru": "2012-11-13",
          "release_world": "2012-11-12",
          "availability": "2012-11-14",
          "voiceActing": [
            "Рус. Люб. одноголосый"
          ],
          "ads": false,
          "subtitle": []
        },
        {
          "episode": 7,
          "name": "7. Bölüm",
          "iframe_url": "",
          "iframe_poster": null,
          "release_ru": "2012-11-20",
          "release_world": "2012-11-19",
          "availability": "2012-11-21",
          "voiceActing": [
            "Рус. Люб. одноголосый"
          ],
          "ads": false,
          "subtitle": []
        },
        {
          "episode": 8,
          "name": "8. Bölüm",
          "iframe_url": "",
          "iframe_poster": null,
          "release_ru": "2012-11-27",
          "release_world": "2012-11-26",
          "availability": "2012-11-28",
          "voiceActing": [
            "Рус. Люб. одноголосый"
          ],
          "ads": false,
          "subtitle": []
        },
        {
          "episode": 9,
          "name": "9. Bölüm",
          "iframe_url": "",
          "iframe_poster": null,
          "release_ru": "2012-12-04",
          "release_world": "2012-12-03",
          "availability": "2012-12-05",
          "voiceActing": [
            "Рус. Люб. одноголосый"
          ],
          "ads": false,
          "subtitle": []
        },
        {
          "episode": 10,
          "name": "10. Bölüm",
          "iframe_url": "",
          "iframe_poster": null,
          "release_ru": "2012-12-11",
          "release_world": "2012-12-10",
          "availability": "2012-12-12",
          "voiceActing": [
            "Рус. Люб. одноголосый"
          ],
          "ads": false,
          "subtitle": []
        },
        {
          "episode": 11,
          "name": "11. Bölüm",
          "iframe_url": "",
          "iframe_poster": null,
          "release_ru": "2012-12-18",
          "release_world": "2012-12-17",
          "availability": "2012-12-19",
          "voiceActing": [
            "Рус. Люб. одноголосый"
          ],
          "ads": false,
          "subtitle": []
        },
        {
          "episode": 12,
          "name": "12. Bölüm",
          "iframe_url": "",
          "iframe_poster": null,
          "release_ru": "2012-12-25",
          "release_world": "2012-12-24",
          "availability": "2012-12-26",
          "voiceActing": [
            "Рус. Люб. одноголосый"
          ],
          "ads": false,
          "subtitle": []
        },
        {
          "episode": 13,
          "name": "13. Bölüm",
          "iframe_url": "",
          "iframe_poster": null,
          "release_ru": "2013-01-08",
          "release_world": "2013-01-07",
          "availability": "2013-01-09",
          "voiceActing": [
            "Рус. Люб. одноголосый"
          ],
          "ads": false,
          "subtitle": []
        },
        {
          "episode": 14,
          "name": "14. Bölüm",
          "iframe_url": "",
          "iframe_poster": null,
          "release_ru": "2013-01-15",
          "release_world": "2013-01-14",
          "availability": "2013-01-16",
          "voiceActing": [
            "Рус. Люб. одноголосый"
          ],
          "ads": false,
          "subtitle": []
        },
        {
          "episode": 15,
          "name": "15. Bölüm",
          "iframe_url": "",
          "iframe_poster": null,
          "release_ru": "2013-01-22",
          "release_world": "2013-01-21",
          "availability": "2013-01-23",
          "voiceActing": [
            "Рус. Люб. одноголосый"
          ],
          "ads": false,
          "subtitle": []
        },
        {
          "episode": 16,
          "name": "16. Bölüm",
          "iframe_url": "",
          "iframe_poster": null,
          "release_ru": "2013-01-29",
          "release_world": "2013-01-28",
          "availability": "2013-01-30",
          "voiceActing": [
            "Рус. Люб. одноголосый"
          ],
          "ads": false,
          "subtitle": []
        },
        {
          "episode": 17,
          "name": "17. Bölüm",
          "iframe_url": "",
          "iframe_poster": null,
          "release_ru": "2013-02-05",
          "release_world": "2013-02-04",
          "availability": "2013-02-06",
          "voiceActing": [
            "Рус. Люб. одноголосый"
          ],
          "ads": false,
          "subtitle": []
        },
        {
          "episode": 18,
          "name": "18. Bölüm",
          "iframe_url": "",
          "iframe_poster": null,
          "release_ru": "2013-02-12",
          "release_world": "2013-02-11",
          "availability": "2013-02-13",
          "voiceActing": [
            "Рус. Люб. одноголосый"
          ],
          "ads": false,
          "subtitle": []
        },
        {
          "episode": 19,
          "name": "19. Bölüm",
          "iframe_url": "",
          "iframe_poster": null,
          "release_ru": "2013-02-19",
          "release_world": "2013-02-18",
          "availability": "2013-02-20",
          "voiceActing": [
            "Рус. Люб. одноголосый"
          ],
          "ads": false,
          "subtitle": []
        },
        {
          "episode": 20,
          "name": "20. Bölüm",
          "iframe_url": "",
          "iframe_poster": null,
          "release_ru": "2013-02-26",
          "release_world": "2013-02-25",
          "availability": "2013-02-27",
          "voiceActing": [
            "Рус. Люб. одноголосый"
          ],
          "ads": false,
          "subtitle": []
        },
        {
          "episode": 21,
          "name": "21. Bölüm",
          "iframe_url": "",
          "iframe_poster": null,
          "release_ru": "2013-03-05",
          "release_world": "2013-03-04",
          "availability": "2013-03-06",
          "voiceActing": [
            "Рус. Люб. одноголосый"
          ],
          "ads": false,
          "subtitle": []
        },
        {
          "episode": 22,
          "name": "22. Bölüm",
          "iframe_url": "",
          "iframe_poster": null,
          "release_ru": "2013-03-12",
          "release_world": "2013-03-11",
          "availability": "2013-03-13",
          "voiceActing": [
            "Рус. Люб. одноголосый"
          ],
          "ads": false,
          "subtitle": []
        },
        {
          "episode": 23,
          "name": "23. Bölüm",
          "iframe_url": "",
          "iframe_poster": null,
          "release_ru": "2013-03-19",
          "release_world": "2013-03-18",
          "availability": "2013-03-20",
          "voiceActing": [
            "Рус. Люб. одноголосый"
          ],
          "ads": false,
          "subtitle": []
        },
        {
          "episode": 24,
          "name": "24. Bölüm",
          "iframe_url": "",
          "iframe_poster": null,
          "release_ru": "2013-03-26",
          "release_world": "2013-03-25",
          "availability": "2013-03-27",
          "voiceActing": [
            "Рус. Люб. одноголосый"
          ],
          "ads": false,
          "subtitle": []
        },
        {
          "episode": 25,
          "name": "25. Bölüm",
          "iframe_url": "",
          "iframe_poster": null,
          "release_ru": "2013-04-02",
          "release_world": "2013-04-01",
          "availability": "2013-04-03",
          "voiceActing": [
            "Рус. Люб. одноголосый"
          ],
          "ads": false,
          "subtitle": []
        },
        {
          "episode": 26,
          "name": "26. Bölüm",
          "iframe_url": "",
          "iframe_poster": null,
          "release_ru": "2013-04-09",
          "release_world": "2013-04-08",
          "availability": "2013-04-10",
          "voiceActing": [
            "Рус. Люб. одноголосый"
          ],
          "ads": false,
          "subtitle": []
        },
        {
          "episode": 27,
          "name": "27. Bölüm",
          "iframe_url": "",
          "iframe_poster": null,
          "release_ru": "2013-04-16",
          "release_world": "2013-04-15",
          "availability": "2013-04-17",
          "voiceActing": [
            "Рус. Люб. одноголосый"
          ],
          "ads": false,
          "subtitle": []
        },
        {
          "episode": 28,
          "name": "28. Bölüm",
          "iframe_url": "",
          "iframe_poster": null,
          "release_ru": "2013-04-23",
          "release_world": "2013-04-22",
          "availability": "2013-04-24",
          "voiceActing": [
            "Рус. Люб. одноголосый"
          ],
          "ads": false,
          "subtitle": []
        },
        {
          "episode": 29,
          "name": "29. Bölüm",
          "iframe_url": "",
          "iframe_poster": null,
          "release_ru": "2013-04-30",
          "release_world": "2013-04-29",
          "availability": "2013-05-01",
          "voiceActing": [
            "Рус. Люб. одноголосый"
          ],
          "ads": false,
          "subtitle": []
        },
        {
          "episode": 30,
          "name": "30. Bölüm",
          "iframe_url": "",
          "iframe_poster": null,
          "release_ru": "2012-05-07",
          "release_world": "2012-05-06",
          "availability": "2012-05-08",
          "voiceActing": [
            "Рус. Люб. одноголосый"
          ],
          "ads": false,
          "subtitle": []
        },
        {
          "episode": 31,
          "name": "31. Bölüm",
          "iframe_url": "",
          "iframe_poster": null,
          "release_ru": "2013-05-14",
          "release_world": "2013-05-13",
          "availability": "2013-05-15",
          "voiceActing": [
            "Рус. Люб. одноголосый"
          ],
          "ads": false,
          "subtitle": []
        },
        {
          "episode": 32,
          "name": "32. Bölüm",
          "iframe_url": "",
          "iframe_poster": null,
          "release_ru": "2013-05-21",
          "release_world": "2013-05-20",
          "availability": "2013-05-22",
          "voiceActing": [
            "Рус. Люб. одноголосый"
          ],
          "ads": false,
          "subtitle": []
        },
        {
          "episode": 33,
          "name": "33. Bölüm",
          "iframe_url": "",
          "iframe_poster": null,
          "release_ru": "2013-05-28",
          "release_world": "2013-05-27",
          "availability": "2013-05-29",
          "voiceActing": [
            "Рус. Люб. одноголосый"
          ],
          "ads": false,
          "subtitle": []
        },
        {
          "episode": 34,
          "name": "34. Bölüm",
          "iframe_url": "",
          "iframe_poster": null,
          "release_ru": "2012-06-04",
          "release_world": "2012-06-03",
          "availability": "2012-06-05",
          "voiceActing": [
            "Рус. Люб. одноголосый"
          ],
          "ads": false,
          "subtitle": []
        },
        {
          "episode": 35,
          "name": "35. Bölüm",
          "iframe_url": "",
          "iframe_poster": null,
          "release_ru": "2013-06-11",
          "release_world": "2013-06-10",
          "availability": "2013-06-12",
          "voiceActing": [
            "Рус. Люб. одноголосый"
          ],
          "ads": false,
          "subtitle": []
        },
        {
          "episode": 36,
          "name": "36. Bölüm",
          "iframe_url": "",
          "iframe_poster": null,
          "release_ru": "2013-06-18",
          "release_world": "2013-06-17",
          "availability": "2013-06-19",
          "voiceActing": [
            "Рус. Люб. одноголосый"
          ],
          "ads": false,
          "subtitle": []
        }
      ]
    },
    {
      "poster": null,
      "release_ru": "2013-09-10",
      "release_world": "2013-09-09",
      "availability": "2013-09-11",
      "iframe_url": "",
      "season": 2,
      "episodes": [
        {
          "episode": 1,
          "name": "37. Bölüm",
          "iframe_url": null,
          "iframe_poster": null,
          "release_ru": "2013-09-10",
          "release_world": "2013-09-09",
          "availability": "2013-09-11",
          "voiceActing": []
        },
        {
          "episode": 2,
          "name": "38. Bölüm",
          "iframe_url": null,
          "iframe_poster": null,
          "release_ru": "2013-09-17",
          "release_world": "2013-09-16",
          "availability": "2013-09-18",
          "voiceActing": []
        },
        {
          "episode": 3,
          "name": "39. Bölüm",
          "iframe_url": null,
          "iframe_poster": null,
          "release_ru": "2013-09-24",
          "release_world": "2013-09-23",
          "availability": "2013-09-25",
          "voiceActing": []
        },
        {
          "episode": 4,
          "name": "40. Bölüm",
          "iframe_url": null,
          "iframe_poster": null,
          "release_ru": "2013-10-01",
          "release_world": "2013-09-30",
          "availability": "2013-10-02",
          "voiceActing": []
        },
        {
          "episode": 5,
          "name": "41. Bölüm",
          "iframe_url": null,
          "iframe_poster": null,
          "release_ru": "2013-10-08",
          "release_world": "2013-10-07",
          "availability": "2013-10-09",
          "voiceActing": []
        },
        {
          "episode": 6,
          "name": "42. Bölüm",
          "iframe_url": null,
          "iframe_poster": null,
          "release_ru": "2013-10-22",
          "release_world": "2013-10-21",
          "availability": "2013-10-23",
          "voiceActing": []
        },
        {
          "episode": 7,
          "name": "43. Bölüm",
          "iframe_url": null,
          "iframe_poster": null,
          "release_ru": "2013-10-29",
          "release_world": "2013-10-28",
          "availability": "2013-10-30",
          "voiceActing": []
        },
        {
          "episode": 8,
          "name": "44. Bölüm",
          "iframe_url": null,
          "iframe_poster": null,
          "release_ru": "2013-11-05",
          "release_world": "2013-11-04",
          "availability": "2013-11-06",
          "voiceActing": []
        },
        {
          "episode": 9,
          "name": "45. Bölüm",
          "iframe_url": null,
          "iframe_poster": null,
          "release_ru": "2013-11-12",
          "release_world": "2013-11-11",
          "availability": "2013-11-13",
          "voiceActing": []
        },
        {
          "episode": 10,
          "name": "46. Bölüm",
          "iframe_url": null,
          "iframe_poster": null,
          "release_ru": "2013-11-19",
          "release_world": "2013-11-18",
          "availability": "2013-11-20",
          "voiceActing": []
        },
        {
          "episode": 11,
          "name": "47. Bölüm",
          "iframe_url": null,
          "iframe_poster": null,
          "release_ru": "2013-11-26",
          "release_world": "2013-11-25",
          "availability": "2013-11-27",
          "voiceActing": []
        },
        {
          "episode": 12,
          "name": "48. Bölüm",
          "iframe_url": null,
          "iframe_poster": null,
          "release_ru": "2013-12-03",
          "release_world": "2013-12-02",
          "availability": "2013-12-04",
          "voiceActing": []
        },
        {
          "episode": 13,
          "name": "49. Bölüm",
          "iframe_url": null,
          "iframe_poster": null,
          "release_ru": "2013-12-10",
          "release_world": "2013-12-09",
          "availability": "2013-12-11",
          "voiceActing": []
        },
        {
          "episode": 14,
          "name": "50. Bölüm",
          "iframe_url": null,
          "iframe_poster": null,
          "release_ru": "2013-12-17",
          "release_world": "2013-12-16",
          "availability": "2013-12-18",
          "voiceActing": []
        },
        {
          "episode": 15,
          "name": "51. Bölüm",
          "iframe_url": null,
          "iframe_poster": null,
          "release_ru": "2013-12-24",
          "release_world": "2013-12-23",
          "availability": "2013-12-25",
          "voiceActing": []
        },
        {
          "episode": 16,
          "name": "52. Bölüm",
          "iframe_url": null,
          "iframe_poster": null,
          "release_ru": "2013-12-31",
          "release_world": "2013-12-30",
          "availability": "2014-01-01",
          "voiceActing": []
        },
        {
          "episode": 17,
          "name": "53. Bölüm",
          "iframe_url": null,
          "iframe_poster": null,
          "release_ru": "2014-01-07",
          "release_world": "2014-01-06",
          "availability": "2014-01-08",
          "voiceActing": []
        },
        {
          "episode": 18,
          "name": "54. Bölüm",
          "iframe_url": null,
          "iframe_poster": null,
          "release_ru": "2014-01-14",
          "release_world": "2014-01-13",
          "availability": "2014-01-15",
          "voiceActing": []
        },
        {
          "episode": 19,
          "name": "55. Bölüm",
          "iframe_url": null,
          "iframe_poster": null,
          "release_ru": "2014-01-21",
          "release_world": "2014-01-20",
          "availability": "2014-01-22",
          "voiceActing": []
        },
        {
          "episode": 20,
          "name": "56. Bölüm",
          "iframe_url": null,
          "iframe_poster": null,
          "release_ru": "2014-01-28",
          "release_world": "2014-01-27",
          "availability": "2014-01-29",
          "voiceActing": []
        },
        {
          "episode": 21,
          "name": "57. Bölüm",
          "iframe_url": null,
          "iframe_poster": null,
          "release_ru": "2014-02-04",
          "release_world": "2014-02-03",
          "availability": "2014-02-05",
          "voiceActing": []
        },
        {
          "episode": 22,
          "name": "58. Bölüm",
          "iframe_url": null,
          "iframe_poster": null,
          "release_ru": "2014-02-11",
          "release_world": "2014-02-10",
          "availability": "2014-02-12",
          "voiceActing": []
        },
        {
          "episode": 23,
          "name": "59. Bölüm",
          "iframe_url": null,
          "iframe_poster": null,
          "release_ru": "2014-02-18",
          "release_world": "2014-02-17",
          "availability": "2014-02-19",
          "voiceActing": []
        },
        {
          "episode": 24,
          "name": "60. Bölüm",
          "iframe_url": null,
          "iframe_poster": null,
          "release_ru": "2014-02-25",
          "release_world": "2014-02-24",
          "availability": "2014-02-26",
          "voiceActing": []
        },
        {
          "episode": 25,
          "name": "61. Bölüm",
          "iframe_url": null,
          "iframe_poster": null,
          "release_ru": "2014-03-04",
          "release_world": "2014-03-03",
          "availability": "2014-03-05",
          "voiceActing": []
        },
        {
          "episode": 26,
          "name": "62. Bölüm",
          "iframe_url": null,
          "iframe_poster": null,
          "release_ru": "2014-03-11",
          "release_world": "2014-03-10",
          "availability": "2014-03-12",
          "voiceActing": []
        },
        {
          "episode": 27,
          "name": "63. Bölüm",
          "iframe_url": null,
          "iframe_poster": null,
          "release_ru": "2014-03-18",
          "release_world": "2014-03-17",
          "availability": "2014-03-19",
          "voiceActing": []
        },
        {
          "episode": 28,
          "name": "64. Bölüm",
          "iframe_url": null,
          "iframe_poster": null,
          "release_ru": "2014-03-25",
          "release_world": "2014-03-24",
          "availability": "2014-03-26",
          "voiceActing": []
        },
        {
          "episode": 29,
          "name": "65. Bölüm",
          "iframe_url": null,
          "iframe_poster": null,
          "release_ru": "2014-04-01",
          "release_world": "2014-03-31",
          "availability": "2014-04-02",
          "voiceActing": []
        },
        {
          "episode": 30,
          "name": "66. Bölüm",
          "iframe_url": null,
          "iframe_poster": null,
          "release_ru": "2014-04-08",
          "release_world": "2014-04-07",
          "availability": "2014-04-09",
          "voiceActing": []
        },
        {
          "episode": 31,
          "name": "67. Bölüm",
          "iframe_url": null,
          "iframe_poster": null,
          "release_ru": "2014-04-15",
          "release_world": "2014-04-14",
          "availability": "2014-04-16",
          "voiceActing": []
        },
        {
          "episode": 32,
          "name": "68. Bölüm",
          "iframe_url": null,
          "iframe_poster": null,
          "release_ru": "2014-04-22",
          "release_world": "2014-04-21",
          "availability": "2014-04-23",
          "voiceActing": []
        },
        {
          "episode": 33,
          "name": "69. Bölüm",
          "iframe_url": null,
          "iframe_poster": null,
          "release_ru": "2014-04-29",
          "release_world": "2014-04-28",
          "availability": "2014-04-30",
          "voiceActing": []
        },
        {
          "episode": 34,
          "name": "70. Bölüm",
          "iframe_url": null,
          "iframe_poster": null,
          "release_ru": "2014-05-06",
          "release_world": "2014-05-05",
          "availability": "2014-05-07",
          "voiceActing": []
        },
        {
          "episode": 35,
          "name": "71. Bölüm",
          "iframe_url": null,
          "iframe_poster": null,
          "release_ru": "2014-05-13",
          "release_world": "2014-05-12",
          "availability": "2014-05-14",
          "voiceActing": []
        },
        {
          "episode": 36,
          "name": "72. Bölüm",
          "iframe_url": null,
          "iframe_poster": null,
          "release_ru": "2014-05-27",
          "release_world": "2014-05-26",
          "availability": "2014-05-28",
          "voiceActing": []
        },
        {
          "episode": 37,
          "name": "73. Bölüm",
          "iframe_url": "",
          "iframe_poster": null,
          "release_ru": "2014-06-03",
          "release_world": "2014-06-02",
          "availability": "2014-06-04",
          "voiceActing": [
            "Рус. Одноголосый"
          ],
          "ads": false,
          "subtitle": []
        },
        {
          "episode": 38,
          "name": "74. Bölüm",
          "iframe_url": "",
          "iframe_poster": null,
          "release_ru": "2014-06-10",
          "release_world": "2014-06-09",
          "availability": "2014-06-11",
          "voiceActing": [
            "Рус. Одноголосый"
          ],
          "ads": false,
          "subtitle": []
        },
        {
          "episode": 39,
          "name": "75. Bölüm",
          "iframe_url": "",
          "iframe_poster": null,
          "release_ru": "2014-06-17",
          "release_world": "2014-06-16",
          "availability": "2014-06-18",
          "voiceActing": [
            "Рус. Одноголосый"
          ],
          "ads": false,
          "subtitle": []
        },
        {
          "episode": 40,
          "name": null,
          "iframe_url": "",
          "iframe_poster": null,
          "release_ru": null,
          "release_world": null,
          "availability": null,
          "voiceActing": [
            "Рус. Одноголосый"
          ],
          "ads": false,
          "subtitle": []
        },
        {
          "episode": 41,
          "name": null,
          "iframe_url": "",
          "iframe_poster": null,
          "release_ru": null,
          "release_world": null,
          "availability": null,
          "voiceActing": [
            "Рус. Одноголосый"
          ],
          "ads": false,
          "subtitle": []
        },
        {
          "episode": 42,
          "name": null,
          "iframe_url": "",
          "iframe_poster": null,
          "release_ru": null,
          "release_world": null,
          "availability": null,
          "voiceActing": [
            "Рус. Одноголосый"
          ],
          "ads": false,
          "subtitle": []
        },
        {
          "episode": 43,
          "name": null,
          "iframe_url": "",
          "iframe_poster": null,
          "release_ru": null,
          "release_world": null,
          "availability": null,
          "voiceActing": [
            "Рус. Одноголосый"
          ],
          "ads": false,
          "subtitle": []
        },
        {
          "episode": 44,
          "name": null,
          "iframe_url": "",
          "iframe_poster": null,
          "release_ru": null,
          "release_world": null,
          "availability": null,
          "voiceActing": [
            "Рус. Одноголосый"
          ],
          "ads": false,
          "subtitle": []
        },
        {
          "episode": 45,
          "name": null,
          "iframe_url": "",
          "iframe_poster": null,
          "release_ru": null,
          "release_world": null,
          "availability": null,
          "voiceActing": [
            "Рус. Одноголосый"
          ],
          "ads": false,
          "subtitle": []
        },
        {
          "episode": 46,
          "name": null,
          "iframe_url": "",
          "iframe_poster": null,
          "release_ru": null,
          "release_world": null,
          "availability": null,
          "voiceActing": [
            "Рус. Одноголосый"
          ],
          "ads": false,
          "subtitle": []
        },
        {
          "episode": 47,
          "name": null,
          "iframe_url": "",
          "iframe_poster": null,
          "release_ru": null,
          "release_world": null,
          "availability": null,
          "voiceActing": [
            "Рус. Одноголосый"
          ],
          "ads": false,
          "subtitle": []
        },
        {
          "episode": 48,
          "name": null,
          "iframe_url": "",
          "iframe_poster": null,
          "release_ru": null,
          "release_world": null,
          "availability": null,
          "voiceActing": [
            "Рус. хардсаб"
          ],
          "ads": false,
          "subtitle": []
        },
        {
          "episode": 49,
          "name": null,
          "iframe_url": "",
          "iframe_poster": null,
          "release_ru": null,
          "release_world": null,
          "availability": null,
          "voiceActing": [
            "Рус. хардсаб"
          ],
          "ads": false,
          "subtitle": []
        },
        {
          "episode": 50,
          "name": null,
          "iframe_url": "",
          "iframe_poster": null,
          "release_ru": null,
          "release_world": null,
          "availability": null,
          "voiceActing": [
            "Рус. хардсаб"
          ],
          "ads": false,
          "subtitle": []
        },
        {
          "episode": 51,
          "name": null,
          "iframe_url": "",
          "iframe_poster": null,
          "release_ru": null,
          "release_world": null,
          "availability": null,
          "voiceActing": [
            "Рус. хардсаб"
          ],
          "ads": false,
          "subtitle": []
        },
        {
          "episode": 52,
          "name": null,
          "iframe_url": "",
          "iframe_poster": null,
          "release_ru": null,
          "release_world": null,
          "availability": null,
          "voiceActing": [
            "Рус. хардсаб"
          ],
          "ads": false,
          "subtitle": []
        },
        {
          "episode": 53,
          "name": null,
          "iframe_url": "",
          "iframe_poster": null,
          "release_ru": null,
          "release_world": null,
          "availability": null,
          "voiceActing": [
            "Рус. хардсаб"
          ],
          "ads": false,
          "subtitle": []
        },
        {
          "episode": 54,
          "name": null,
          "iframe_url": "",
          "iframe_poster": null,
          "release_ru": null,
          "release_world": null,
          "availability": null,
          "voiceActing": [
            "Рус. хардсаб"
          ],
          "ads": false,
          "subtitle": []
        },
        {
          "episode": 55,
          "name": null,
          "iframe_url": "",
          "iframe_poster": null,
          "release_ru": null,
          "release_world": null,
          "availability": null,
          "voiceActing": [
            "Рус. хардсаб"
          ],
          "ads": false,
          "subtitle": []
        },
        {
          "episode": 56,
          "name": null,
          "iframe_url": "",
          "iframe_poster": null,
          "release_ru": null,
          "release_world": null,
          "availability": null,
          "voiceActing": [
            "Рус. хардсаб"
          ],
          "ads": false,
          "subtitle": []
        },
        {
          "episode": 57,
          "name": null,
          "iframe_url": "",
          "iframe_poster": null,
          "release_ru": null,
          "release_world": null,
          "availability": null,
          "voiceActing": [
            "Рус. хардсаб"
          ],
          "ads": false,
          "subtitle": []
        },
        {
          "episode": 58,
          "name": null,
          "iframe_url": "",
          "iframe_poster": null,
          "release_ru": null,
          "release_world": null,
          "availability": null,
          "voiceActing": [
            "Рус. хардсаб"
          ],
          "ads": false,
          "subtitle": []
        },
        {
          "episode": 59,
          "name": null,
          "iframe_url": "",
          "iframe_poster": null,
          "release_ru": null,
          "release_world": null,
          "availability": null,
          "voiceActing": [
            "Рус. хардсаб"
          ],
          "ads": false,
          "subtitle": []
        },
        {
          "episode": 60,
          "name": null,
          "iframe_url": "",
          "iframe_poster": null,
          "release_ru": null,
          "release_world": null,
          "availability": null,
          "voiceActing": [
            "Рус. хардсаб"
          ],
          "ads": false,
          "subtitle": []
        },
        {
          "episode": 61,
          "name": null,
          "iframe_url": "",
          "iframe_poster": null,
          "release_ru": null,
          "release_world": null,
          "availability": null,
          "voiceActing": [
            "Рус. хардсаб"
          ],
          "ads": false,
          "subtitle": []
        },
        {
          "episode": 62,
          "name": null,
          "iframe_url": "",
          "iframe_poster": null,
          "release_ru": null,
          "release_world": null,
          "availability": null,
          "voiceActing": [
            "Рус. хардсаб"
          ],
          "ads": false,
          "subtitle": []
        },
        {
          "episode": 63,
          "name": null,
          "iframe_url": "",
          "iframe_poster": null,
          "release_ru": null,
          "release_world": null,
          "availability": null,
          "voiceActing": [
            "Рус. хардсаб"
          ],
          "ads": false,
          "subtitle": []
        },
        {
          "episode": 64,
          "name": null,
          "iframe_url": "",
          "iframe_poster": null,
          "release_ru": null,
          "release_world": null,
          "availability": null,
          "voiceActing": [
            "Рус. хардсаб"
          ],
          "ads": false,
          "subtitle": []
        },
        {
          "episode": 65,
          "name": null,
          "iframe_url": "",
          "iframe_poster": null,
          "release_ru": null,
          "release_world": null,
          "availability": null,
          "voiceActing": [
            "Рус. хардсаб"
          ],
          "ads": false,
          "subtitle": []
        },
        {
          "episode": 66,
          "name": null,
          "iframe_url": "",
          "iframe_poster": null,
          "release_ru": null,
          "release_world": null,
          "availability": null,
          "voiceActing": [
            "Рус. хардсаб"
          ],
          "ads": false,
          "subtitle": []
        },
        {
          "episode": 67,
          "name": null,
          "iframe_url": "",
          "iframe_poster": null,
          "release_ru": null,
          "release_world": null,
          "availability": null,
          "voiceActing": [
            "Рус. хардсаб"
          ],
          "ads": false,
          "subtitle": []
        },
        {
          "episode": 68,
          "name": null,
          "iframe_url": "",
          "iframe_poster": null,
          "release_ru": null,
          "release_world": null,
          "availability": null,
          "voiceActing": [
            "Рус. хардсаб"
          ],
          "ads": false,
          "subtitle": []
        },
        {
          "episode": 69,
          "name": null,
          "iframe_url": "",
          "iframe_poster": null,
          "release_ru": null,
          "release_world": null,
          "availability": null,
          "voiceActing": [
            "Рус. хардсаб"
          ],
          "ads": false,
          "subtitle": []
        },
        {
          "episode": 70,
          "name": null,
          "iframe_url": "",
          "iframe_poster": null,
          "release_ru": null,
          "release_world": null,
          "availability": null,
          "voiceActing": [
            "Рус. хардсаб"
          ],
          "ads": false,
          "subtitle": []
        },
        {
          "episode": 71,
          "name": null,
          "iframe_url": "",
          "iframe_poster": null,
          "release_ru": null,
          "release_world": null,
          "availability": null,
          "voiceActing": [
            "Рус. хардсаб"
          ],
          "ads": false,
          "subtitle": []
        },
        {
          "episode": 72,
          "name": null,
          "iframe_url": "",
          "iframe_poster": null,
          "release_ru": null,
          "release_world": null,
          "availability": null,
          "voiceActing": [
            "Рус. хардсаб"
          ],
          "ads": false,
          "subtitle": []
        },
        {
          "episode": 73,
          "name": null,
          "iframe_url": "",
          "iframe_poster": null,
          "release_ru": null,
          "release_world": null,
          "availability": null,
          "voiceActing": [
            "Рус. хардсаб"
          ],
          "ads": false,
          "subtitle": []
        },
        {
          "episode": 74,
          "name": null,
          "iframe_url": "",
          "iframe_poster": null,
          "release_ru": null,
          "release_world": null,
          "availability": null,
          "voiceActing": [
            "Рус. хардсаб"
          ],
          "ads": false,
          "subtitle": []
        },
        {
          "episode": 75,
          "name": null,
          "iframe_url": "",
          "iframe_poster": null,
          "release_ru": null,
          "release_world": null,
          "availability": null,
          "voiceActing": [
            "Рус. хардсаб"
          ],
          "ads": false,
          "subtitle": []
        }
      ]
    },
    {
      "poster": null,
      "release_ru": "2014-09-16",
      "release_world": "2014-09-15",
      "availability": "2014-09-17",
      "iframe_url": "",
      "season": 3,
      "episodes": [
        {
          "episode": 1,
          "name": "76. Bölüm",
          "iframe_url": null,
          "iframe_poster": null,
          "release_ru": "2014-09-16",
          "release_world": "2014-09-15",
          "availability": "2014-09-17",
          "voiceActing": []
        },
        {
          "episode": 2,
          "name": "77. Bölüm",
          "iframe_url": null,
          "iframe_poster": null,
          "release_ru": "2014-09-23",
          "release_world": "2014-09-22",
          "availability": "2014-09-24",
          "voiceActing": []
        },
        {
          "episode": 3,
          "name": "78. Bölüm",
          "iframe_url": null,
          "iframe_poster": null,
          "release_ru": "2014-09-30",
          "release_world": "2014-09-29",
          "availability": "2014-10-01",
          "voiceActing": []
        },
        {
          "episode": 4,
          "name": "79. Bölüm",
          "iframe_url": null,
          "iframe_poster": null,
          "release_ru": "2014-10-07",
          "release_world": "2014-10-06",
          "availability": "2014-10-08",
          "voiceActing": []
        },
        {
          "episode": 5,
          "name": "80. Bölüm",
          "iframe_url": null,
          "iframe_poster": null,
          "release_ru": "2014-10-14",
          "release_world": "2014-10-13",
          "availability": "2014-10-15",
          "voiceActing": []
        },
        {
          "episode": 6,
          "name": "81. Bölüm",
          "iframe_url": null,
          "iframe_poster": null,
          "release_ru": "2014-10-21",
          "release_world": "2014-10-20",
          "availability": "2014-10-22",
          "voiceActing": []
        },
        {
          "episode": 7,
          "name": "82. Bölüm",
          "iframe_url": null,
          "iframe_poster": null,
          "release_ru": "2014-10-28",
          "release_world": "2014-10-27",
          "availability": "2014-10-29",
          "voiceActing": []
        },
        {
          "episode": 8,
          "name": "83. Bölüm",
          "iframe_url": null,
          "iframe_poster": null,
          "release_ru": "2014-11-04",
          "release_world": "2014-11-03",
          "availability": "2014-11-05",
          "voiceActing": []
        },
        {
          "episode": 9,
          "name": "84. Bölüm",
          "iframe_url": null,
          "iframe_poster": null,
          "release_ru": "2014-11-11",
          "release_world": "2014-11-10",
          "availability": "2014-11-12",
          "voiceActing": []
        },
        {
          "episode": 10,
          "name": "85. Bölüm",
          "iframe_url": null,
          "iframe_poster": null,
          "release_ru": "2014-11-18",
          "release_world": "2014-11-17",
          "availability": "2014-11-19",
          "voiceActing": []
        },
        {
          "episode": 11,
          "name": "86. Bölüm",
          "iframe_url": null,
          "iframe_poster": null,
          "release_ru": "2014-11-25",
          "release_world": "2014-11-24",
          "availability": "2014-11-26",
          "voiceActing": []
        },
        {
          "episode": 12,
          "name": "87. Bölüm",
          "iframe_url": null,
          "iframe_poster": null,
          "release_ru": "2014-12-02",
          "release_world": "2014-12-01",
          "availability": "2014-12-03",
          "voiceActing": []
        },
        {
          "episode": 13,
          "name": "88. Bölüm",
          "iframe_url": null,
          "iframe_poster": null,
          "release_ru": "2014-12-09",
          "release_world": "2014-12-08",
          "availability": "2014-12-10",
          "voiceActing": []
        },
        {
          "episode": 14,
          "name": "89. Bölüm",
          "iframe_url": null,
          "iframe_poster": null,
          "release_ru": "2014-12-16",
          "release_world": "2014-12-15",
          "availability": "2014-12-17",
          "voiceActing": []
        },
        {
          "episode": 15,
          "name": "90. Bölüm",
          "iframe_url": null,
          "iframe_poster": null,
          "release_ru": "2014-12-23",
          "release_world": "2014-12-22",
          "availability": "2014-12-24",
          "voiceActing": []
        },
        {
          "episode": 16,
          "name": "91. Bölüm",
          "iframe_url": null,
          "iframe_poster": null,
          "release_ru": "2014-12-30",
          "release_world": "2014-12-29",
          "availability": "2014-12-31",
          "voiceActing": []
        },
        {
          "episode": 17,
          "name": "92. Bölüm",
          "iframe_url": null,
          "iframe_poster": null,
          "release_ru": "2015-01-06",
          "release_world": "2015-01-05",
          "availability": "2015-01-07",
          "voiceActing": []
        },
        {
          "episode": 18,
          "name": "93. Bölüm",
          "iframe_url": null,
          "iframe_poster": null,
          "release_ru": "2015-01-13",
          "release_world": "2015-01-12",
          "availability": "2015-01-14",
          "voiceActing": []
        },
        {
          "episode": 19,
          "name": "94. Bölüm",
          "iframe_url": null,
          "iframe_poster": null,
          "release_ru": "2015-01-20",
          "release_world": "2015-01-19",
          "availability": "2015-01-21",
          "voiceActing": []
        },
        {
          "episode": 20,
          "name": "95. Bölüm",
          "iframe_url": null,
          "iframe_poster": null,
          "release_ru": "2015-01-27",
          "release_world": "2015-01-26",
          "availability": "2015-01-28",
          "voiceActing": []
        },
        {
          "episode": 21,
          "name": "96. Bölüm",
          "iframe_url": null,
          "iframe_poster": null,
          "release_ru": "2015-02-03",
          "release_world": "2015-02-02",
          "availability": "2015-02-04",
          "voiceActing": []
        },
        {
          "episode": 22,
          "name": "97. Bölüm",
          "iframe_url": null,
          "iframe_poster": null,
          "release_ru": "2015-02-10",
          "release_world": "2015-02-09",
          "availability": "2015-02-11",
          "voiceActing": []
        },
        {
          "episode": 23,
          "name": "98. Bölüm",
          "iframe_url": null,
          "iframe_poster": null,
          "release_ru": "2015-02-17",
          "release_world": "2015-02-16",
          "availability": "2015-02-18",
          "voiceActing": []
        },
        {
          "episode": 24,
          "name": "99. Bölüm",
          "iframe_url": null,
          "iframe_poster": null,
          "release_ru": "2015-02-24",
          "release_world": "2015-02-23",
          "availability": "2015-02-25",
          "voiceActing": []
        },
        {
          "episode": 25,
          "name": "100. Bölüm",
          "iframe_url": null,
          "iframe_poster": null,
          "release_ru": "2015-03-03",
          "release_world": "2015-03-02",
          "availability": "2015-03-04",
          "voiceActing": []
        },
        {
          "episode": 26,
          "name": "101. Bölüm",
          "iframe_url": null,
          "iframe_poster": null,
          "release_ru": "2015-03-10",
          "release_world": "2015-03-09",
          "availability": "2015-03-11",
          "voiceActing": []
        },
        {
          "episode": 27,
          "name": "102. Bölüm",
          "iframe_url": null,
          "iframe_poster": null,
          "release_ru": "2015-03-17",
          "release_world": "2015-03-16",
          "availability": "2015-03-18",
          "voiceActing": []
        },
        {
          "episode": 28,
          "name": "103. Bölüm",
          "iframe_url": null,
          "iframe_poster": null,
          "release_ru": "2015-03-24",
          "release_world": "2015-03-23",
          "availability": "2015-03-25",
          "voiceActing": []
        },
        {
          "episode": 29,
          "name": "104. Bölüm",
          "iframe_url": null,
          "iframe_poster": null,
          "release_ru": "2015-03-31",
          "release_world": "2015-03-30",
          "availability": "2015-04-01",
          "voiceActing": []
        },
        {
          "episode": 30,
          "name": "105. Bölüm",
          "iframe_url": null,
          "iframe_poster": null,
          "release_ru": "2015-04-07",
          "release_world": "2015-04-06",
          "availability": "2015-04-08",
          "voiceActing": []
        },
        {
          "episode": 31,
          "name": "106. Bölüm",
          "iframe_url": null,
          "iframe_poster": null,
          "release_ru": "2015-04-14",
          "release_world": "2015-04-13",
          "availability": "2015-04-15",
          "voiceActing": []
        },
        {
          "episode": 32,
          "name": "107. Bölüm",
          "iframe_url": null,
          "iframe_poster": null,
          "release_ru": "2015-04-21",
          "release_world": "2015-04-20",
          "availability": "2015-04-22",
          "voiceActing": []
        },
        {
          "episode": 33,
          "name": "108. Bölüm",
          "iframe_url": null,
          "iframe_poster": null,
          "release_ru": "2015-04-28",
          "release_world": "2015-04-27",
          "availability": "2015-04-29",
          "voiceActing": []
        },
        {
          "episode": 34,
          "name": "109. Bölüm",
          "iframe_url": null,
          "iframe_poster": null,
          "release_ru": "2015-05-05",
          "release_world": "2015-05-04",
          "availability": "2015-05-06",
          "voiceActing": []
        },
        {
          "episode": 35,
          "name": "110. Bölüm",
          "iframe_url": null,
          "iframe_poster": null,
          "release_ru": "2015-05-12",
          "release_world": "2015-05-11",
          "availability": "2015-05-13",
          "voiceActing": []
        },
        {
          "episode": 36,
          "name": "111. Bölüm",
          "iframe_url": null,
          "iframe_poster": null,
          "release_ru": "2015-05-19",
          "release_world": "2015-05-18",
          "availability": "2015-05-20",
          "voiceActing": []
        },
        {
          "episode": 37,
          "name": "112. Bölüm",
          "iframe_url": null,
          "iframe_poster": null,
          "release_ru": "2015-05-26",
          "release_world": "2015-05-25",
          "availability": "2015-05-27",
          "voiceActing": []
        },
        {
          "episode": 38,
          "name": "113. Bölüm",
          "iframe_url": null,
          "iframe_poster": null,
          "release_ru": "2015-06-02",
          "release_world": "2015-06-01",
          "availability": "2015-06-03",
          "voiceActing": []
        },
        {
          "episode": 39,
          "name": "114. Bölüm",
          "iframe_url": null,
          "iframe_poster": null,
          "release_ru": "2015-06-09",
          "release_world": "2015-06-08",
          "availability": "2015-06-10",
          "voiceActing": []
        },
        {
          "episode": 40,
          "name": "115. Bölüm",
          "iframe_url": null,
          "iframe_poster": null,
          "release_ru": "2015-06-16",
          "release_world": "2015-06-15",
          "availability": "2015-06-17",
          "voiceActing": []
        },
        {
          "episode": 76,
          "name": null,
          "iframe_url": "",
          "iframe_poster": null,
          "release_ru": null,
          "release_world": null,
          "availability": null,
          "voiceActing": [
            "Рус. хардсаб"
          ],
          "ads": false,
          "subtitle": []
        },
        {
          "episode": 77,
          "name": null,
          "iframe_url": "",
          "iframe_poster": null,
          "release_ru": null,
          "release_world": null,
          "availability": null,
          "voiceActing": [
            "Рус. хардсаб"
          ],
          "ads": false,
          "subtitle": []
        },
        {
          "episode": 78,
          "name": null,
          "iframe_url": "",
          "iframe_poster": null,
          "release_ru": null,
          "release_world": null,
          "availability": null,
          "voiceActing": [
            "Рус. хардсаб"
          ],
          "ads": false,
          "subtitle": []
        },
        {
          "episode": 79,
          "name": null,
          "iframe_url": "",
          "iframe_poster": null,
          "release_ru": null,
          "release_world": null,
          "availability": null,
          "voiceActing": [
            "Рус. хардсаб"
          ],
          "ads": false,
          "subtitle": []
        },
        {
          "episode": 80,
          "name": null,
          "iframe_url": "",
          "iframe_poster": null,
          "release_ru": null,
          "release_world": null,
          "availability": null,
          "voiceActing": [
            "Рус. хардсаб"
          ],
          "ads": false,
          "subtitle": []
        },
        {
          "episode": 81,
          "name": null,
          "iframe_url": "",
          "iframe_poster": null,
          "release_ru": null,
          "release_world": null,
          "availability": null,
          "voiceActing": [
            "Рус. хардсаб"
          ],
          "ads": false,
          "subtitle": []
        },
        {
          "episode": 82,
          "name": null,
          "iframe_url": "",
          "iframe_poster": null,
          "release_ru": null,
          "release_world": null,
          "availability": null,
          "voiceActing": [
            "Рус. хардсаб"
          ],
          "ads": false,
          "subtitle": []
        },
        {
          "episode": 83,
          "name": null,
          "iframe_url": "",
          "iframe_poster": null,
          "release_ru": null,
          "release_world": null,
          "availability": null,
          "voiceActing": [
            "Рус. хардсаб"
          ],
          "ads": false,
          "subtitle": []
        },
        {
          "episode": 84,
          "name": null,
          "iframe_url": "",
          "iframe_poster": null,
          "release_ru": null,
          "release_world": null,
          "availability": null,
          "voiceActing": [
            "Рус. хардсаб"
          ],
          "ads": false,
          "subtitle": []
        },
        {
          "episode": 85,
          "name": null,
          "iframe_url": "",
          "iframe_poster": null,
          "release_ru": null,
          "release_world": null,
          "availability": null,
          "voiceActing": [
            "Рус. хардсаб"
          ],
          "ads": false,
          "subtitle": []
        },
        {
          "episode": 86,
          "name": null,
          "iframe_url": "",
          "iframe_poster": null,
          "release_ru": null,
          "release_world": null,
          "availability": null,
          "voiceActing": [
            "Рус. хардсаб"
          ],
          "ads": false,
          "subtitle": []
        },
        {
          "episode": 87,
          "name": null,
          "iframe_url": "",
          "iframe_poster": null,
          "release_ru": null,
          "release_world": null,
          "availability": null,
          "voiceActing": [
            "Рус. хардсаб"
          ],
          "ads": false,
          "subtitle": []
        },
        {
          "episode": 88,
          "name": null,
          "iframe_url": "",
          "iframe_poster": null,
          "release_ru": null,
          "release_world": null,
          "availability": null,
          "voiceActing": [
            "Рус. хардсаб"
          ],
          "ads": false,
          "subtitle": []
        },
        {
          "episode": 89,
          "name": null,
          "iframe_url": "",
          "iframe_poster": null,
          "release_ru": null,
          "release_world": null,
          "availability": null,
          "voiceActing": [
            "Рус. хардсаб"
          ],
          "ads": false,
          "subtitle": []
        },
        {
          "episode": 90,
          "name": null,
          "iframe_url": "",
          "iframe_poster": null,
          "release_ru": null,
          "release_world": null,
          "availability": null,
          "voiceActing": [
            "Рус. хардсаб"
          ],
          "ads": false,
          "subtitle": []
        },
        {
          "episode": 91,
          "name": null,
          "iframe_url": "",
          "iframe_poster": null,
          "release_ru": null,
          "release_world": null,
          "availability": null,
          "voiceActing": [
            "Рус. хардсаб"
          ],
          "ads": false,
          "subtitle": []
        },
        {
          "episode": 92,
          "name": null,
          "iframe_url": "",
          "iframe_poster": null,
          "release_ru": null,
          "release_world": null,
          "availability": null,
          "voiceActing": [
            "Рус. хардсаб"
          ],
          "ads": false,
          "subtitle": []
        },
        {
          "episode": 93,
          "name": null,
          "iframe_url": "",
          "iframe_poster": null,
          "release_ru": null,
          "release_world": null,
          "availability": null,
          "voiceActing": [
            "Рус. хардсаб"
          ],
          "ads": false,
          "subtitle": []
        },
        {
          "episode": 94,
          "name": null,
          "iframe_url": "",
          "iframe_poster": null,
          "release_ru": null,
          "release_world": null,
          "availability": null,
          "voiceActing": [
            "Рус. хардсаб"
          ],
          "ads": false,
          "subtitle": []
        },
        {
          "episode": 95,
          "name": null,
          "iframe_url": "",
          "iframe_poster": null,
          "release_ru": null,
          "release_world": null,
          "availability": null,
          "voiceActing": [
            "Рус. хардсаб"
          ],
          "ads": false,
          "subtitle": []
        },
        {
          "episode": 96,
          "name": null,
          "iframe_url": "",
          "iframe_poster": null,
          "release_ru": null,
          "release_world": null,
          "availability": null,
          "voiceActing": [
            "Рус. хардсаб"
          ],
          "ads": false,
          "subtitle": []
        },
        {
          "episode": 97,
          "name": null,
          "iframe_url": "",
          "iframe_poster": null,
          "release_ru": null,
          "release_world": null,
          "availability": null,
          "voiceActing": [
            "Рус. хардсаб"
          ],
          "ads": false,
          "subtitle": []
        },
        {
          "episode": 98,
          "name": null,
          "iframe_url": "",
          "iframe_poster": null,
          "release_ru": null,
          "release_world": null,
          "availability": null,
          "voiceActing": [
            "Рус. хардсаб"
          ],
          "ads": false,
          "subtitle": []
        },
        {
          "episode": 99,
          "name": null,
          "iframe_url": "",
          "iframe_poster": null,
          "release_ru": null,
          "release_world": null,
          "availability": null,
          "voiceActing": [
            "Рус. хардсаб"
          ],
          "ads": false,
          "subtitle": []
        },
        {
          "episode": 100,
          "name": null,
          "iframe_url": "",
          "iframe_poster": null,
          "release_ru": null,
          "release_world": null,
          "availability": null,
          "voiceActing": [
            "Рус. хардсаб"
          ],
          "ads": false,
          "subtitle": []
        },
        {
          "episode": 101,
          "name": null,
          "iframe_url": "",
          "iframe_poster": null,
          "release_ru": null,
          "release_world": null,
          "availability": null,
          "voiceActing": [
            "Рус. хардсаб"
          ],
          "ads": false,
          "subtitle": []
        },
        {
          "episode": 102,
          "name": null,
          "iframe_url": "",
          "iframe_poster": null,
          "release_ru": null,
          "release_world": null,
          "availability": null,
          "voiceActing": [
            "Рус. хардсаб"
          ],
          "ads": false,
          "subtitle": []
        },
        {
          "episode": 103,
          "name": null,
          "iframe_url": "",
          "iframe_poster": null,
          "release_ru": null,
          "release_world": null,
          "availability": null,
          "voiceActing": [
            "Рус. хардсаб"
          ],
          "ads": false,
          "subtitle": []
        },
        {
          "episode": 104,
          "name": null,
          "iframe_url": "",
          "iframe_poster": null,
          "release_ru": null,
          "release_world": null,
          "availability": null,
          "voiceActing": [
            "Рус. хардсаб"
          ],
          "ads": false,
          "subtitle": []
        },
        {
          "episode": 105,
          "name": null,
          "iframe_url": "",
          "iframe_poster": null,
          "release_ru": null,
          "release_world": null,
          "availability": null,
          "voiceActing": [
            "Рус. хардсаб"
          ],
          "ads": false,
          "subtitle": []
        },
        {
          "episode": 106,
          "name": null,
          "iframe_url": "",
          "iframe_poster": null,
          "release_ru": null,
          "release_world": null,
          "availability": null,
          "voiceActing": [
            "Рус. хардсаб"
          ],
          "ads": false,
          "subtitle": []
        },
        {
          "episode": 107,
          "name": null,
          "iframe_url": "",
          "iframe_poster": null,
          "release_ru": null,
          "release_world": null,
          "availability": null,
          "voiceActing": [
            "Рус. хардсаб"
          ],
          "ads": false,
          "subtitle": []
        },
        {
          "episode": 108,
          "name": null,
          "iframe_url": "",
          "iframe_poster": null,
          "release_ru": null,
          "release_world": null,
          "availability": null,
          "voiceActing": [
            "Рус. хардсаб"
          ],
          "ads": false,
          "subtitle": []
        },
        {
          "episode": 109,
          "name": null,
          "iframe_url": "",
          "iframe_poster": null,
          "release_ru": null,
          "release_world": null,
          "availability": null,
          "voiceActing": [
            "Рус. хардсаб"
          ],
          "ads": false,
          "subtitle": []
        },
        {
          "episode": 110,
          "name": null,
          "iframe_url": "",
          "iframe_poster": null,
          "release_ru": null,
          "release_world": null,
          "availability": null,
          "voiceActing": [
            "Рус. хардсаб"
          ],
          "ads": false,
          "subtitle": []
        },
        {
          "episode": 111,
          "name": null,
          "iframe_url": "",
          "iframe_poster": null,
          "release_ru": null,
          "release_world": null,
          "availability": null,
          "voiceActing": [
            "Рус. хардсаб"
          ],
          "ads": false,
          "subtitle": []
        },
        {
          "episode": 112,
          "name": null,
          "iframe_url": "",
          "iframe_poster": null,
          "release_ru": null,
          "release_world": null,
          "availability": null,
          "voiceActing": [
            "Рус. хардсаб"
          ],
          "ads": false,
          "subtitle": []
        },
        {
          "episode": 113,
          "name": null,
          "iframe_url": "",
          "iframe_poster": null,
          "release_ru": null,
          "release_world": null,
          "availability": null,
          "voiceActing": [
            "Рус. хардсаб"
          ],
          "ads": false,
          "subtitle": []
        },
        {
          "episode": 114,
          "name": null,
          "iframe_url": "",
          "iframe_poster": null,
          "release_ru": null,
          "release_world": null,
          "availability": null,
          "voiceActing": [
            "Рус. хардсаб"
          ],
          "ads": false,
          "subtitle": []
        },
        {
          "episode": 115,
          "name": null,
          "iframe_url": "",
          "iframe_poster": null,
          "release_ru": null,
          "release_world": null,
          "availability": null,
          "voiceActing": [
            "Рус. хардсаб"
          ],
          "ads": false,
          "subtitle": []
        }
      ]
    }
  ],
  "voiceActing": [
    "Рус. Люб. одноголосый",
    "Рус. Одноголосый",
    "Рус. хардсаб"
  ],
  "subtitle": [],
  "parts": []
}
