{
  "id": 12218,
  "name": "Враг",
  "name_eng": "Enemy",
  "year": 2013,
  "slogan": "«Опасайся встречи с самим собой...»",
  "age": "16+",
  "type": "film",
  "quality": "HD (720p)",
  "imdb": "6.9",
  "imdb_id": "2316411",
  "kinopoisk": "6.6",
  "kinopoisk_id": "673910",
  "world_art": null,
  "world_art_id": null,
  "time": "88 мин. / 01:28",
  "ads": false,
  "premier": "2013-09-08",
  "premier_rus": "2014-06-26",
  "availability": null,
  "activate_time": "2019-11-07 11:14:00",
  "budget": null,
  "fees_use": "$1 008 726",
  "fees_world": "+ $2 459 498 = $3 468 224",
  "fees_rus": "$67 300",
  "rate_mpaa": "R",
  "description": "Взяв по совету коллеги фильм в прокате, парень с удивлением замечает в одном из эпизодов актёра, который является почти точной его копией, разве что на пару лет моложе. Желание найти этого двойника превращается для парня в навязчивую идею. Длительные бесплодные поиски, в конце концов, становятся причиной странных событий, постепенно погружающих парня в пучину наваждения.",
  "iframe_url": "",
  "iframe_poster": null,
  "poster": "https://img.imgilall.me/movies/franchise/1/2/2/1/8/0/0/0/0/0/610x900_12218.jpg",
  "country": {
    "7": "Канада",
    "3": "Испания"
  },
  "collection": [],
  "genre": {
    "24": "Детектив",
    "13": "Триллер",
    "10": "Зарубежный"
  },
  "director": [
    "Дени Вильнёв"
  ],
  "screenwriter": [
    "Хавьер Гульон",
    "Жозе Сарамаго"
  ],
  "producer": [
    "Фрайзер Эш",
    "Люк Дери",
    "М.А. Фаура"
  ],
  "operator": [
    "Николя Больдюк"
  ],
  "composer": [
    "Дэнни Бенси",
    "Сондер Юрриаанс"
  ],
  "design": [
    "Патрис Верметт",
    "Шон Брио",
    "Рени Эйприл"
  ],
  "editor": [
    "Мэттью Хэннем"
  ],
  "actors": [
    "Джейк Джилленхол",
    "Мелани Лоран",
    "Сара Гадон",
    "Изабелла Росселлини",
    "Джошуа Пиис",
    "Тим Пост",
    "Кедар Браун",
    "Дэррил Динн",
    "Миша Хайстэд",
    "Меган Мэйн"
  ],
  "actors_dubl": [
    "Михаил Тихонов",
    "Наталья Грачёва",
    "Вероника Саркисова",
    "Елена Шульман",
    "Денис Некрасов"
  ],
  "trivia": [
    "Экранизация романа Жозе Сарамаго «Двойник» (O Homem Duplicado, 2002).",
    "По словам режиссера Дени Вильнёва, главную роль предлагали Хавьеру Бардему, но актер посчитал, что он не подходит для такой роли. Также главную роль предлагали Кристиану Бэйлу, но тот был вынужден отказаться из-за несогласованности рабочих графиков с другими его проектами.",
    "Весь актерский состав подписал соглашение о конфиденциальности, которое запрещало им говорить или объяснять прессе о смысле пауков в фильме."
  ],
  "trailers": [],
  "seasons": [],
  "voiceActing": [
    "R5",
    "Ю. Немахов",
    "Рус. Люб. одноголосый",
    "Д. Есарев",
    "Eng.Original"
  ],
  "subtitle": [],
  "parts": []
}
