{
  "id": 12229,
  "name": "Дом большой мамочки",
  "name_eng": "Big Momma's House",
  "year": 2000,
  "slogan": "«This FBI agent is going undercover... and he's concealing more than a weapon»",
  "age": "16+",
  "type": "film",
  "quality": "HD (720p)",
  "imdb": "5.2",
  "imdb_id": "0208003",
  "kinopoisk": "6.7",
  "kinopoisk_id": "4537",
  "world_art": null,
  "world_art_id": null,
  "time": "99 мин. / 01:39",
  "ads": false,
  "premier": "2000-05-31",
  "premier_rus": "2000-09-06",
  "availability": "2000-09-07",
  "activate_time": "2019-11-07 17:46:00",
  "budget": "$30 000 000",
  "fees_use": "$117 559 438",
  "fees_world": "+ $56 400 000 = $173 959 438",
  "fees_rus": null,
  "rate_mpaa": "PG-13",
  "description": "Агент ФБР Малькольм Тернер - мастер перевоплощений. Он умён, обаятелен и не существует такого задания, с которым он бы не справился. В этот раз Малкольм входит в роль пожилого азиата для расследования преступлений. Последнее назначение приводит его в маленький южный городок, где он должен поймать матерого грабителя банков, недавно сбежавшего из тюрьмы.Малькольм устанавливает слежку за домом властной женщины, известной как Большая мамочка. По оперативным данным, её должна навестить бывшая подружка преступника - Шерри - со своим сыном. Очень простой план, но есть одна большая проблема: Большая мамочка неожиданно покидает город...",
  "iframe_url": "",
  "iframe_poster": null,
  "poster": "https://img.imgilall.me/movies/franchise/1/2/2/2/9/0/0/0/0/0/610x900_12229.jpg",
  "country": {
    "1": "США"
  },
  "collection": [],
  "genre": {
    "25": "Криминал",
    "19": "Комедия",
    "17": "Боевик",
    "10": "Зарубежный"
  },
  "director": [
    "Раджа Госнелл"
  ],
  "screenwriter": [
    "Дэррил Куорлз",
    "Дон Раймер"
  ],
  "producer": [
    "Дэвид Т. Френдли",
    "Майкл Грин",
    "Пичес Дэвис"
  ],
  "operator": [
    "Майкл Д. О’Ши"
  ],
  "composer": [
    "Ричард Гиббс"
  ],
  "design": [
    "Крэйг Стернс",
    "Рэнди Мур",
    "Майлз Тевес"
  ],
  "editor": [
    "Кент Бейда",
    "Брюс Грин"
  ],
  "actors": [
    "Мартин Лоуренс",
    "Ниа Лонг",
    "Пол Джаматти",
    "Яша Вашингтон",
    "Терренс Ховард",
    "Энтони Андерсон",
    "Карл Райт",
    "Николь Прескотт",
    "Октавия Спенсер",
    "Тичина Арнольд"
  ],
  "actors_dubl": [
    "Вячеслав Баранов",
    "Нина Тобилевич",
    "Сергей Чекан",
    "Степан Балабанов",
    "Александр Груздев"
  ],
  "trivia": [
    "Идея имени «Большая мамочка» пришла к сценаристу Дэррилу Куолзу благодаря воспоминаниям о том, что в его детстве соседские ребята так звали его собственную мать.",
    "Съёмки фильма вместе с последующим пост-продакшном заняли всего 5 месяцев — весьма короткий срок для такого достаточно крупного проекта."
  ],
  "trailers": [],
  "seasons": [],
  "voiceActing": [
    "Рус. Дублированный",
    "Eng.Original"
  ],
  "subtitle": [],
  "parts": []
}
