{
  "id": 12237,
  "name": "Анна Каренина",
  "name_eng": "Anna Karenina",
  "year": 2012,
  "slogan": "«You can't ask Why about love»",
  "age": "12+",
  "type": "film",
  "quality": "HD (720p)",
  "imdb": "6.6",
  "imdb_id": "1781769",
  "kinopoisk": "6.8",
  "kinopoisk_id": "575195",
  "world_art": null,
  "world_art_id": null,
  "time": "129 мин. / 02:09",
  "ads": false,
  "premier": "2012-09-07",
  "premier_rus": "2013-01-10",
  "availability": null,
  "activate_time": "2019-11-07 17:39:00",
  "budget": null,
  "fees_use": "$12 816 367",
  "fees_world": "+ $57 171 492 = $69 987 859",
  "fees_rus": "$8 372 239",
  "rate_mpaa": "R",
  "description": "Встречая приехавшую из Петербурга мать, молодой блистательный офицер граф Вронский знакомится с женой влиятельного петербургского чиновника Анной Карениной. Огонь страсти вспыхивает мгновенно, но их любовь шокирует высшее общество. В мире, где правят предрассудки и стереотипы, ей придётся сделать поистине непростой выбор между семьёй и всепоглощающей страстью...",
  "iframe_url": "",
  "iframe_poster": null,
  "poster": "https://img.imgilall.me/movies/franchise/1/2/2/3/7/0/0/0/0/0/610x900_12237.jpg",
  "country": {
    "2": "Великобритания"
  },
  "collection": [],
  "genre": {
    "10": "Зарубежный",
    "8": "Мелодрама",
    "7": "Драма"
  },
  "director": [
    "Джо Райт"
  ],
  "screenwriter": [
    "Том Стоппард",
    "Лев Толстой"
  ],
  "producer": [
    "Тим Беван",
    "Эрик Феллнер",
    "Пол Уэбстер"
  ],
  "operator": [
    "Шеймас МакГарви"
  ],
  "composer": [
    "Дарио Марианелли"
  ],
  "design": [
    "Сара Гринвуд",
    "Томас Браун",
    "Ник Готтшалк"
  ],
  "editor": [
    "Мелани Оливер"
  ],
  "actors": [
    "Кира Найтли",
    "Джуд Лоу",
    "Аарон Тейлор-Джонсон",
    "Келли Макдоналд",
    "Мэттью Макфэдиен",
    "Донал Глисон",
    "Рут Уилсон",
    "Алисия Викандер",
    "Оливия Уильямс",
    "Эмили Уотсон"
  ],
  "actors_dubl": [
    "Наталья Фищук",
    "Василий Дахненко",
    "Антон Эльдаров",
    "Полина Щербакова",
    "Илья Исаев"
  ],
  "trivia": [
    "Фильм снят по мотивам романа Льва Толстого «Анна Каренина» (1878).",
    "Роберту Паттинсону была предложена роль Вронского.",
    "Джеймс Макэвой рассматривался на роль Левина.",
    "Сирша Ронан отказалась от роли Китти из-за продолжительного съемочного графика этой картины (с осени 2011 года до конца весны 2012-го), так как в этот период она должна была сняться в двух других проектах («Византия» и «Гостья»), в каждом из которых она сыграет главную роль. В итоге роль Китти получила Алисия Викандер.",
    "Кейт Бланшетт, Бенедикт Камбербэтч и Андреа Райзборо также рассматривались на главные роли в фильме.",
    "Сирша Ронан, Джеймс Макэвой, Бенедикт Камбербэтч и Кейт Бланшетт ранее работали с режиссером Джо Райтом в разных картинах.",
    "Часть съемок прошла в России, а именно в Карелии на острове Кижи.",
    "Оператор-постановщик Филипп Русло был вынужден покинуть проект на стадии препродакшна, чтобы сделать операцию на спине. Мучительные боли от радикулита не оставили ему выбора. Ему на смену пришел Шеймас МакГарви, который часто работал вместе с режиссером Джо Райтом.",
    "Был момент, когда Джо Райт задумался о том, чтобы актеры говорили с русским акцентом, но передумал, посчитав, что тогда ему будет тяжело оценить их актерскую игру.",
    "Вдохновившись работой британского историка Орландо Файджеса Natasha`s Dance (2002), Джо Райт решился на экспериментальный подход, чтобы передать суть истории. Большая часть фильма была снята в закрытом театре, построенном с нуля в Шеппертоне, Великобритания. Сцены на катке, железнодорожном вокзале и конюшнях были сняты в верхней части театра. Во время съемок панорамных кадров использовали игрушечные поезда и кукольные домики. Единственным человеком из основного актерского состава, которому разрешалось покидать театр, был Донал Глисон (Левин). Этим Райт хотел подчеркнуть тот факт, что только персонаж Левина отражает реальный мир."
  ],
  "trailers": [],
  "seasons": [],
  "voiceActing": [
    "Рус. Дублированный",
    "Eng.Original"
  ],
  "subtitle": [],
  "parts": []
}
