{
  "id": 12283,
  "name": "Борат: Культурные Исследования Америки в Пользу Славного Государства Казахстан",
  "name_eng": "Borat: Cultural Learnings of America for Make Benefit Glorious Nation of Kazakhstan",
  "year": 2006,
  "slogan": "«Come to Kazakhstan, It's Nice!»",
  "age": "18+",
  "type": "film",
  "quality": "FHD (1080p)",
  "imdb": "7.3",
  "imdb_id": "0443453",
  "kinopoisk": "6.7",
  "kinopoisk_id": "102474",
  "world_art": null,
  "world_art_id": null,
  "time": "84 мин. / 01:24",
  "ads": false,
  "premier": "2006-08-04",
  "premier_rus": null,
  "availability": null,
  "activate_time": "2019-11-11 15:34:00",
  "budget": "$18 000 000",
  "fees_use": "$128 505 958",
  "fees_world": "+ $133 066 786 = $261 572 744",
  "fees_rus": null,
  "rate_mpaa": "R",
  "description": "Телеведущий из Казахстана Борат отправляется в США, чтобы сделать репортаж об этой «величайшей в мире стране». Однако по прибытии оказалось, что главная цель его визита — поиски Памелы Андерсон с целью жениться на ней, а вовсе не съемки документального фильма.",
  "iframe_url": "",
  "iframe_poster": null,
  "poster": "https://img.imgilall.me/movies/franchise/1/2/2/8/3/0/0/0/0/0/610x900_12283.jpg",
  "country": {
    "1": "США",
    "2": "Великобритания"
  },
  "collection": [],
  "genre": {
    "19": "Комедия",
    "10": "Зарубежный"
  },
  "director": [
    "Ларри Чарльз"
  ],
  "screenwriter": [
    "Саша Барон Коэн",
    "Энтони Хайнс",
    "Питер Бейнхэм"
  ],
  "producer": [
    "Саша Барон Коэн",
    "Джей Роуч",
    "Питер Бейнхэм"
  ],
  "operator": [
    "Люк Гейссбухлер",
    "Энтони Хардвик"
  ],
  "composer": [
    "Эрран Барон Коэн"
  ],
  "design": [
    "Джейсон Элпер"
  ],
  "editor": [
    "Крэйг Элперт",
    "Питер Тешнер",
    "Джеймс Томас"
  ],
  "actors": [
    "Саша Барон Коэн",
    "Памела Андерсон",
    "Кен Давитян",
    "Луэнелль",
    "Честер",
    "Чарли",
    "Ильхам Алиев",
    "Боб Барр",
    "Кэрол Де Сарам",
    "Митчелл Фальк"
  ],
  "actors_dubl": [
    "Андрей Сидельников",
    "Екатерина Кабашова",
    "Сергей Паршин",
    "Наталья Данилова",
    "Виктор Костецкий"
  ],
  "trivia": [
    "Прототипом Бората Сагдиева стал русский врач. А сам Борат (наряду с рэппером Али Джи и австрийским гомосексуалом Бруно) был придуман в 2000 году – все эти персонажи стали полноправными участниками шоу Саши Барона Коэна на MTV.",
    "По признаниям Саши Барона Коэна, исполняющего роль казахского журналиста, сценический костюм Бората ни разу не чистили и не стирали.",
    "Режиссером картины должен был стать Тодд Филипс, однако Тодду пришлось покинуть проект из-за творческих разногласий между ним и Сашей Бароном Коэном.",
    "Усы и волосы Бората – настоящие. Саша Барон Коэн отрастил их специально для съемок картины.",
    "Фильм едва не стал рекордсменом в номинации «Самое длинное название художественной картины». На русский язык полное название картины переводится следующим образом: «Борат: изучение американской культуры на благо славного народа Казахстана».",
    "Пресс-секретарь министерства иностранных дел Казахстана Ержан Ашикбаев осудил поведение Коэна в роли ведущего церемонии MTV Europe Music Awards в Лиссабоне минувшей осенью, когда комик имитировал имперскую ауру, которая окружает Назарбаева, президента страны, занимающего этот пост с момента развала СССР в 1991 году. Ашикбаев предположил, что Коэн действует по «чьему-то политическому приказу» очернить Казахстан, и заявил, что правительство «сохраняет за собой право на любые правовые меры с целью предотвратить новые выходки подобного рода».",
    "В свою очередь, Саша Барон Коэн, лондонский еврей, ответил от имени Бората в видеообращении, выложенном на его сайте, называя Ашикбаева по имени: «Я хотел бы заявить, что не имею никакого отношения к мистеру Коэну и полностью поддерживаю решение моего правительства засудить этого еврея. После реформ 2003 года Казахстан стал такой же цивилизованной страной, как любая другая страна мира. Женщины могут теперь ездить внутри автобуса, гомосексуалы больше не должны носить голубые шляпы, а возраст вступления в брак повышен до восьми лет».",
    "Большие поклонники Бората Джонни Депп, Джордж Клуни и Стив Мартин просили Сашу Барона Коэна дать им камео, но он отказался, чтобы не разрушать реализм фильма.",
    "Практически все второстепенные персонажи, появляющиеся в фильме, не актеры, а обычные люди, которые действительно не знали, что происходит или знали, но далеко не все. Удивительно, но в суд на Бората подали только три студента, которые его подвезли в своем трейлере. И это при том, что редактор с тв-канала, где набедокурил Борат, лишилась из-за него работы.",
    "Власти Казахстана пообещали, что сделают все возможное, чтобы не допустить появления в стране DVD-копий с неугодной комедией. Чуть позже, как ни странно, они поблагодарили Сашу Барона Коэна за «повышение международного интереса к Казахстану».",
    "В саундтрек фильма «Борат» вошла одна из песен македонской певицы цыганского происхождения Эсмы Реджеповой.",
    "Сцены, действие которых происходит в Казахстане, на самом деле были сняты в румынском селе Глод в жудеце Дымбовица. Несколько персонажей, говорящих якобы бы по-казахски, на самом деле говорят на румынском. Женщина, играющая жену Бората, в действительности родилась в Казахстане и эмигрировала в Румынию.",
    "Большинство сцен фильма снималось без сценария, а все роли за исключением самого Бората, Азамата, Памелы Андерсон, чернокожей проститутки и членов семьи Бората были сыграны непрофессиональными актёрами.",
    "Саша Барон Коэн (Борат) говорит в фильме не по-казахски, а на сильно искажённом иврите. Актёр Кен Давитян, играющий роль Азамата, говорит на армянском. В фильме также присутствуют реплики на разных славянских языках (например, «Як ше маш!», что Борат употребляет в качестве приветствия; в действительности фраза является вопросом на польском языке «Jak się masz?» = «Как дела?»). Кроме того Борат и Азамат употребляют много армянской, казахской и русской нецензурной брани. Фраза «Якши маш» искаженное узбекское выражение — Якши ма?, которое на казахском звучит как «Жаксы ма?» — дословный перевод означает — «Хорошо?», в разговорной интерпретации несет смысловую нагрузку — «Всё нормально?»",
    "Первый непорнографический фильм, запрещенный к прокату в России."
  ],
  "trailers": [],
  "seasons": [],
  "voiceActing": [
    "Рус. Дублированный",
    "Eng.Original"
  ],
  "subtitle": [
    "Рус. форсированные"
  ],
  "parts": []
}
