{
  "id": 12281,
  "name": "Неоспоримый 3",
  "name_eng": "Undisputed III: Redemption",
  "year": 2010,
  "slogan": "«One Deadly Tournament. A Last Fight For Freedom»",
  "age": "16+",
  "type": "film",
  "quality": "FHD (1080p)",
  "imdb": "7.4",
  "imdb_id": "1156466",
  "kinopoisk": "7.6",
  "kinopoisk_id": "402614",
  "world_art": null,
  "world_art_id": null,
  "time": "96 мин. / 01:36",
  "ads": false,
  "premier": "2010-04-17",
  "premier_rus": null,
  "availability": null,
  "activate_time": "2019-11-08 15:23:00",
  "budget": "$3 000 000",
  "fees_use": null,
  "fees_world": "$282 548",
  "fees_rus": null,
  "rate_mpaa": "R",
  "description": "Юрий Бойка — российский чемпион подпольных боев без правил, постепенно оправляющийся от полученной в последнем поединке травмы, решает вернуться на ринг. Победив в бою нынешнего чемпиона тюрьмы «Чёрные Холмы», его босс — Гага — решает отправить его на международный чемпионат тюремных поединков. Поврежденное колено дает о себе знать в каждом бою и беспокоит Бойку, но он готов пройти до конца, чтобы сразиться с колумбийским бойцом и доказать, что он неоспоримый.",
  "iframe_url": "",
  "iframe_poster": null,
  "poster": "https://img.imgilall.me/movies/franchise/1/2/2/8/1/0/0/0/0/0/610x900_12281.jpg",
  "country": {
    "1": "США"
  },
  "collection": [],
  "genre": {
    "25": "Криминал",
    "23": "Спортивный",
    "17": "Боевик",
    "10": "Зарубежный",
    "7": "Драма"
  },
  "director": [
    "Айзек Флорентайн"
  ],
  "screenwriter": [
    "Дэвид Н. Уайт"
  ],
  "producer": [
    "Звия Димборт",
    "Дэнни Димборт",
    "Дэна Голомб"
  ],
  "operator": [
    "Росс В. Кларксон"
  ],
  "composer": [
    "Минос Матсас"
  ],
  "design": [
    "Валентина Младенова",
    "Джанина Байкучева"
  ],
  "editor": [
    "Ирит Раз"
  ],
  "actors": [
    "Скотт Эдкинс",
    "Майкл Шеннон Дженкинс",
    "Марк Иванир",
    "Христо Шопов",
    "Марко Сарор",
    "Михаэль Бараль",
    "Илрам Чои",
    "Роберт Костанцо",
    "Латиф Кроудер",
    "Эстебан Куето"
  ],
  "actors_dubl": [],
  "trivia": [
    "Каждый боец применяет определённый стиль. Турбо — боксёр, но при этом использует элементы джит кун-до. Родриго Сильва применяет бразильское боевое искусство «капоэйра», Джерри Лам — тхэквондо, а Бойка и другие пользуются различными видами смешанных боевых искусств."
  ],
  "trailers": [],
  "seasons": [],
  "voiceActing": [
    "Студия СВ-Дубль",
    "Eng.Original"
  ],
  "subtitle": [
    "Рус. полные"
  ],
  "parts": [
    5273,
    12280,
    12281,
    12282
  ]
}
