{
  "id": 12314,
  "name": "Валите домой",
  "name_eng": "Go Home - A casa loro",
  "year": 2018,
  "slogan": "—",
  "age": null,
  "type": "film",
  "quality": "HD (720p)",
  "imdb": "4.5",
  "imdb_id": "8274978",
  "kinopoisk": null,
  "kinopoisk_id": "1137785",
  "world_art": null,
  "world_art_id": null,
  "time": "84 мин. / 01:24",
  "ads": false,
  "premier": "2018-10-31",
  "premier_rus": null,
  "availability": null,
  "activate_time": "2019-11-11 11:28:00",
  "budget": "",
  "fees_use": "",
  "fees_world": "",
  "fees_rus": "",
  "rate_mpaa": "",
  "description": "В ходе демонстрации в Риме против открытия лагеря для беженцев вспыхивает зомби апокалипсис.",
  "iframe_url": "",
  "iframe_poster": null,
  "poster": "https://img.imgilall.me/movies/franchise/1/2/3/1/4/0/0/0/0/0/610x900_12314.jpg",
  "country": {
    "8": "Италия"
  },
  "collection": [],
  "genre": {
    "26": "Ужасы"
  },
  "director": [
    "Luna Gualano"
  ],
  "screenwriter": [
    "Emiliano Rubbi",
    "Luna Gualano"
  ],
  "producer": [
    "Emiliano Rubbi",
    "Fabrizio Brocchieri",
    "Luna Gualano"
  ],
  "operator": [
    "Сандро Кесса"
  ],
  "composer": [
    "Frank Marrelli",
    "Emiliano Rubbi",
    "Эудженио Вицедомини"
  ],
  "design": [
    "Стефания Писано"
  ],
  "editor": [
    "Luna Gualano"
  ],
  "actors": [
    "Antonio Bannò",
    "Сиди Диоп",
    "Шик Дауда",
    "Cyril Dorand Domche Nzeugang",
    "Pape Momar Diop",
    "Awa Koundoul",
    "Wajeeh Jaber",
    "Mounis Firwana",
    "Карло Каприоли",
    "Annabella Calabrese"
  ],
  "actors_dubl": [],
  "trivia": [],
  "trailers": [],
  "seasons": [],
  "voiceActing": [
    "Рус. Люб. одноголосый"
  ],
  "subtitle": [],
  "parts": []
}
