{
  "id": 12404,
  "name": "Сладкое Рождество",
  "name_eng": "Merry & Bright",
  "year": 2019,
  "slogan": "—",
  "age": null,
  "type": "film",
  "quality": "HD (720p)",
  "imdb": "6.5",
  "imdb_id": "10345022",
  "kinopoisk": null,
  "kinopoisk_id": "1273466",
  "world_art": null,
  "world_art_id": null,
  "time": "84 мин. / 01:24",
  "ads": true,
  "premier": "2019-11-02",
  "premier_rus": null,
  "availability": "2019-11-03",
  "activate_time": "2019-11-12 21:39:00",
  "budget": "",
  "fees_use": "",
  "fees_world": "",
  "fees_rus": "",
  "rate_mpaa": "",
  "description": "Кейт и Гейбу суждено встретиться в самый разгар рождественских праздников. Совет правления кондитерской фирмы, руководителем которой является Кейт, нанимает специалиста по проведению финансовой реструктуризации. Им вместе придётся найти способ поставить компанию на ноги, но возможно это станет не только новым витком для компании, но и главным поворотом в их собственной жизни.",
  "iframe_url": "",
  "iframe_poster": null,
  "poster": "https://img.imgilall.me/movies/franchise/1/2/4/0/4/0/0/0/0/0/610x900_12404.jpg",
  "country": {
    "1": "США"
  },
  "collection": [],
  "genre": {
    "8": "Мелодрама"
  },
  "director": [
    "Гари Йэтс"
  ],
  "screenwriter": [
    "Мэри Кэй Эндрюс",
    "Карен Уайскарвер",
    "Санфорд Голден"
  ],
  "producer": [
    "Мэри Кэй Эндрюс",
    "Джефф Бисли",
    "Энтони Фанкхаузер"
  ],
  "operator": [
    "Пол Садерман"
  ],
  "composer": [
    "Мэттью Роджерс"
  ],
  "design": [
    "Гордон Уидлинг"
  ],
  "editor": [
    "Билл Линч"
  ],
  "actors": [
    "Джоди Суитин",
    "Эндрю У. Уокер",
    "Шэрон Лоуренс",
    "Стефани Мороз",
    "Даррен Мартенс",
    "Нэнси Сорел",
    "Пол Эссимбр",
    "Пилар Флойд",
    "Джейсон Вишновски",
    "Ryder Morcilla"
  ],
  "actors_dubl": [],
  "trivia": [],
  "trailers": [],
  "seasons": [],
  "voiceActing": [
    "Рус. Люб. многоголосый"
  ],
  "subtitle": [],
  "parts": []
}
