{
  "id": 12461,
  "name": "Старец",
  "name_eng": "",
  "year": 2019,
  "slogan": null,
  "age": null,
  "type": "series",
  "quality": "HD (720p)",
  "imdb": null,
  "imdb_id": null,
  "kinopoisk": null,
  "kinopoisk_id": null,
  "world_art": null,
  "world_art_id": null,
  "time": null,
  "ads": false,
  "premier": "2019-11-18",
  "premier_rus": "2019-11-19",
  "availability": "2019-11-20",
  "serial_status": "paused",
  "activate_time": "2019-11-19 15:07:00",
  "budget": null,
  "fees_use": null,
  "fees_world": null,
  "fees_rus": null,
  "rate_mpaa": null,
  "description": null,
  "iframe_url": "",
  "poster": "https://img.imgilall.me/movies/franchise/1/2/4/6/1/0/0/0/0/0/610x900_12461.jpg",
  "country": {
    "5": "Россия"
  },
  "collection": [],
  "genre": {
    "7": "Драма"
  },
  "director": [],
  "screenwriter": [],
  "producer": [],
  "operator": [],
  "composer": [],
  "design": [],
  "editor": [],
  "actors": [],
  "actors_dubl": [],
  "trivia": [],
  "trailers": [],
  "seasons": [
    {
      "poster": null,
      "release_ru": "2019-11-19",
      "release_world": "2019-11-18",
      "availability": "2019-11-20",
      "iframe_url": "",
      "season": 1,
      "episodes": [
        {
          "episode": 1,
          "name": "Ради семьи",
          "iframe_url": "",
          "iframe_poster": null,
          "release_ru": "2019-11-18",
          "release_world": "2019-11-18",
          "availability": "2019-11-18",
          "voiceActing": [
            "Рус. Оригинальный"
          ],
          "ads": false,
          "subtitle": []
        },
        {
          "episode": 2,
          "name": "Награда",
          "iframe_url": "",
          "iframe_poster": null,
          "release_ru": "2019-11-19",
          "release_world": "2019-11-19",
          "availability": "2019-11-19",
          "voiceActing": [
            "Рус. Оригинальный"
          ],
          "ads": false,
          "subtitle": []
        },
        {
          "episode": 3,
          "name": "Бес в ребро",
          "iframe_url": "",
          "iframe_poster": null,
          "release_ru": "2019-11-20",
          "release_world": "2019-11-20",
          "availability": "2019-11-20",
          "voiceActing": [
            "Рус. Оригинальный"
          ],
          "ads": false,
          "subtitle": []
        },
        {
          "episode": 4,
          "name": "Ребёнок любой ценой",
          "iframe_url": "",
          "iframe_poster": null,
          "release_ru": "2019-11-21",
          "release_world": "2019-11-21",
          "availability": "2019-11-21",
          "voiceActing": [
            "Рус. Оригинальный"
          ],
          "ads": false,
          "subtitle": []
        },
        {
          "episode": 5,
          "name": "Мамина дочка",
          "iframe_url": "",
          "iframe_poster": null,
          "release_ru": "2019-11-22",
          "release_world": "2019-11-22",
          "availability": "2019-11-22",
          "voiceActing": [
            "Рус. Оригинальный"
          ],
          "ads": false,
          "subtitle": []
        },
        {
          "episode": 6,
          "name": "Из князей в грязи",
          "iframe_url": "",
          "iframe_poster": null,
          "release_ru": "2019-11-25",
          "release_world": "2019-11-25",
          "availability": "2019-11-25",
          "voiceActing": [
            "Рус. Оригинальный"
          ],
          "ads": false,
          "subtitle": []
        },
        {
          "episode": 7,
          "name": "Вскрытое завещание",
          "iframe_url": "",
          "iframe_poster": null,
          "release_ru": "2019-11-26",
          "release_world": "2019-11-26",
          "availability": "2019-11-26",
          "voiceActing": [
            "Рус. Оригинальный"
          ],
          "ads": false,
          "subtitle": []
        },
        {
          "episode": 8,
          "name": "Старый долг",
          "iframe_url": "",
          "iframe_poster": null,
          "release_ru": "2019-11-27",
          "release_world": "2019-11-27",
          "availability": "2019-11-27",
          "voiceActing": [
            "Рус. Оригинальный"
          ],
          "ads": false,
          "subtitle": []
        },
        {
          "episode": 9,
          "name": "Лисица и виноград",
          "iframe_url": "",
          "iframe_poster": null,
          "release_ru": "2019-11-28",
          "release_world": "2019-11-28",
          "availability": "2019-11-28",
          "voiceActing": [
            "Рус. Оригинальный"
          ],
          "ads": false,
          "subtitle": []
        },
        {
          "episode": 10,
          "name": "Письмо из прошлого",
          "iframe_url": "",
          "iframe_poster": null,
          "release_ru": "2019-11-29",
          "release_world": "2019-11-29",
          "availability": "2019-11-29",
          "voiceActing": [
            "Рус. Оригинальный"
          ],
          "ads": false,
          "subtitle": []
        },
        {
          "episode": 11,
          "name": "Мечта",
          "iframe_url": "",
          "iframe_poster": null,
          "release_ru": "2019-12-02",
          "release_world": "2019-12-02",
          "availability": "2019-12-02",
          "voiceActing": [
            "Рус. Оригинальный"
          ],
          "ads": false,
          "subtitle": []
        },
        {
          "episode": 12,
          "name": "Сделка",
          "iframe_url": "",
          "iframe_poster": null,
          "release_ru": "2019-12-03",
          "release_world": "2019-12-03",
          "availability": "2019-12-03",
          "voiceActing": [
            "Рус. Оригинальный"
          ],
          "ads": false,
          "subtitle": []
        },
        {
          "episode": 13,
          "name": "Ты будешь мой",
          "iframe_url": "",
          "iframe_poster": null,
          "release_ru": "2019-12-04",
          "release_world": "2019-12-04",
          "availability": "2019-12-04",
          "voiceActing": [
            "Рус. Оригинальный"
          ],
          "ads": false,
          "subtitle": []
        },
        {
          "episode": 14,
          "name": "Горький урок",
          "iframe_url": "",
          "iframe_poster": null,
          "release_ru": "2019-12-05",
          "release_world": "2019-12-05",
          "availability": "2019-12-05",
          "voiceActing": [
            "Рус. Оригинальный"
          ],
          "ads": false,
          "subtitle": []
        },
        {
          "episode": 15,
          "name": "Заклятые подруги",
          "iframe_url": "",
          "iframe_poster": null,
          "release_ru": "2019-12-06",
          "release_world": "2019-12-06",
          "availability": "2019-12-06",
          "voiceActing": [
            "Рус. Оригинальный"
          ],
          "ads": false,
          "subtitle": []
        },
        {
          "episode": 16,
          "name": "Рок изобилия",
          "iframe_url": "",
          "iframe_poster": null,
          "release_ru": "2019-12-10",
          "release_world": "2019-12-09",
          "availability": "2019-12-11",
          "voiceActing": [
            "Рус. Оригинальный"
          ],
          "ads": false,
          "subtitle": []
        },
        {
          "episode": 17,
          "name": "Чужая мечта",
          "iframe_url": "",
          "iframe_poster": null,
          "release_ru": "2019-12-11",
          "release_world": "2019-12-10",
          "availability": "2019-12-12",
          "voiceActing": [
            "Рус. Оригинальный"
          ],
          "ads": false,
          "subtitle": []
        },
        {
          "episode": 18,
          "name": "Мать игромана",
          "iframe_url": "",
          "iframe_poster": null,
          "release_ru": "2019-12-12",
          "release_world": "2019-12-11",
          "availability": "2019-12-13",
          "voiceActing": [
            "Рус. Оригинальный"
          ],
          "ads": false,
          "subtitle": []
        },
        {
          "episode": 19,
          "name": "Бриллиантовые слёзы",
          "iframe_url": "",
          "iframe_poster": null,
          "release_ru": "2019-12-13",
          "release_world": "2019-12-12",
          "availability": "2019-12-14",
          "voiceActing": [
            "Рус. Оригинальный"
          ],
          "ads": false,
          "subtitle": []
        },
        {
          "episode": 20,
          "name": "Запретная любовь",
          "iframe_url": "",
          "iframe_poster": null,
          "release_ru": "2019-12-14",
          "release_world": "2019-12-13",
          "availability": "2019-12-15",
          "voiceActing": [
            "Рус. Оригинальный"
          ],
          "ads": false,
          "subtitle": []
        },
        {
          "episode": 21,
          "name": "Коллектор",
          "iframe_url": "",
          "iframe_poster": null,
          "release_ru": "2019-12-17",
          "release_world": "2019-12-16",
          "availability": "2019-12-18",
          "voiceActing": [
            "Рус. Оригинальный"
          ],
          "ads": false,
          "subtitle": []
        },
        {
          "episode": 22,
          "name": "Маме снова 17",
          "iframe_url": "",
          "iframe_poster": null,
          "release_ru": "2019-12-18",
          "release_world": "2019-12-17",
          "availability": "2019-12-19",
          "voiceActing": [
            "Рус. Оригинальный"
          ],
          "ads": false,
          "subtitle": []
        },
        {
          "episode": 23,
          "name": "Чужой ребёнок",
          "iframe_url": "",
          "iframe_poster": null,
          "release_ru": "2019-12-19",
          "release_world": "2019-12-18",
          "availability": "2019-12-20",
          "voiceActing": [
            "Рус. Оригинальный"
          ],
          "ads": false,
          "subtitle": []
        },
        {
          "episode": 24,
          "name": "Медвежья услуга",
          "iframe_url": "",
          "iframe_poster": null,
          "release_ru": "2019-12-20",
          "release_world": "2019-12-19",
          "availability": "2019-12-21",
          "voiceActing": [
            "Рус. Оригинальный"
          ],
          "ads": false,
          "subtitle": []
        },
        {
          "episode": 25,
          "name": "Тринадцатый аркан",
          "iframe_url": "",
          "iframe_poster": null,
          "release_ru": "2019-12-21",
          "release_world": "2019-12-20",
          "availability": "2019-12-22",
          "voiceActing": [
            "Рус. Оригинальный"
          ],
          "ads": false,
          "subtitle": []
        },
        {
          "episode": 26,
          "name": "Бьёт – значит любит",
          "iframe_url": "",
          "iframe_poster": null,
          "release_ru": "2019-12-24",
          "release_world": "2019-12-23",
          "availability": "2019-12-25",
          "voiceActing": [
            "Рус. Оригинальный"
          ],
          "ads": false,
          "subtitle": []
        },
        {
          "episode": 27,
          "name": "Горький мёд",
          "iframe_url": "",
          "iframe_poster": null,
          "release_ru": "2019-12-25",
          "release_world": "2019-12-24",
          "availability": "2019-12-26",
          "voiceActing": [
            "Рус. Оригинальный"
          ],
          "ads": false,
          "subtitle": []
        },
        {
          "episode": 28,
          "name": "Мачеха",
          "iframe_url": "",
          "iframe_poster": null,
          "release_ru": "2019-12-26",
          "release_world": "2019-12-25",
          "availability": "2019-12-27",
          "voiceActing": [
            "Рус. Оригинальный"
          ],
          "ads": false,
          "subtitle": []
        },
        {
          "episode": 29,
          "name": "Из двух зол",
          "iframe_url": "",
          "iframe_poster": null,
          "release_ru": "2019-12-27",
          "release_world": "2019-12-26",
          "availability": "2019-12-28",
          "voiceActing": [
            "Рус. Оригинальный"
          ],
          "ads": false,
          "subtitle": []
        },
        {
          "episode": 30,
          "name": "Врачебная ошибка",
          "iframe_url": "",
          "iframe_poster": null,
          "release_ru": "2019-12-28",
          "release_world": "2019-12-27",
          "availability": "2019-12-29",
          "voiceActing": [
            "Рус. Оригинальный"
          ],
          "ads": false,
          "subtitle": []
        }
      ]
    },
    {
      "poster": null,
      "release_ru": null,
      "release_world": null,
      "availability": null,
      "iframe_url": "",
      "season": 2,
      "episodes": [
        {
          "episode": 1,
          "name": null,
          "iframe_url": "",
          "iframe_poster": null,
          "release_ru": null,
          "release_world": null,
          "availability": null,
          "voiceActing": [
            "Рус. Оригинальный"
          ],
          "ads": false,
          "subtitle": []
        },
        {
          "episode": 2,
          "name": null,
          "iframe_url": "",
          "iframe_poster": null,
          "release_ru": null,
          "release_world": null,
          "availability": null,
          "voiceActing": [
            "Рус. Оригинальный"
          ],
          "ads": false,
          "subtitle": []
        },
        {
          "episode": 3,
          "name": null,
          "iframe_url": "",
          "iframe_poster": null,
          "release_ru": null,
          "release_world": null,
          "availability": null,
          "voiceActing": [
            "Рус. Оригинальный"
          ],
          "ads": false,
          "subtitle": []
        },
        {
          "episode": 4,
          "name": null,
          "iframe_url": "",
          "iframe_poster": null,
          "release_ru": null,
          "release_world": null,
          "availability": null,
          "voiceActing": [
            "Рус. Оригинальный"
          ],
          "ads": false,
          "subtitle": []
        },
        {
          "episode": 5,
          "name": null,
          "iframe_url": "",
          "iframe_poster": null,
          "release_ru": null,
          "release_world": null,
          "availability": null,
          "voiceActing": [
            "Рус. Оригинальный"
          ],
          "ads": false,
          "subtitle": []
        },
        {
          "episode": 6,
          "name": null,
          "iframe_url": "",
          "iframe_poster": null,
          "release_ru": null,
          "release_world": null,
          "availability": null,
          "voiceActing": [
            "Рус. Оригинальный"
          ],
          "ads": false,
          "subtitle": []
        },
        {
          "episode": 7,
          "name": null,
          "iframe_url": "",
          "iframe_poster": null,
          "release_ru": null,
          "release_world": null,
          "availability": null,
          "voiceActing": [
            "Рус. Оригинальный"
          ],
          "ads": false,
          "subtitle": []
        },
        {
          "episode": 8,
          "name": null,
          "iframe_url": "",
          "iframe_poster": null,
          "release_ru": null,
          "release_world": null,
          "availability": null,
          "voiceActing": [
            "Рус. Оригинальный"
          ],
          "ads": false,
          "subtitle": []
        },
        {
          "episode": 9,
          "name": null,
          "iframe_url": "",
          "iframe_poster": null,
          "release_ru": null,
          "release_world": null,
          "availability": null,
          "voiceActing": [
            "Рус. Оригинальный"
          ],
          "ads": false,
          "subtitle": []
        },
        {
          "episode": 10,
          "name": null,
          "iframe_url": "",
          "iframe_poster": null,
          "release_ru": null,
          "release_world": null,
          "availability": null,
          "voiceActing": [
            "Рус. Оригинальный"
          ],
          "ads": false,
          "subtitle": []
        },
        {
          "episode": 11,
          "name": null,
          "iframe_url": "",
          "iframe_poster": null,
          "release_ru": null,
          "release_world": null,
          "availability": null,
          "voiceActing": [
            "Рус. Оригинальный"
          ],
          "ads": false,
          "subtitle": []
        },
        {
          "episode": 12,
          "name": null,
          "iframe_url": "",
          "iframe_poster": null,
          "release_ru": null,
          "release_world": null,
          "availability": null,
          "voiceActing": [
            "Рус. Оригинальный"
          ],
          "ads": false,
          "subtitle": []
        },
        {
          "episode": 13,
          "name": null,
          "iframe_url": "",
          "iframe_poster": null,
          "release_ru": null,
          "release_world": null,
          "availability": null,
          "voiceActing": [
            "Рус. Оригинальный"
          ],
          "ads": false,
          "subtitle": []
        },
        {
          "episode": 14,
          "name": null,
          "iframe_url": "",
          "iframe_poster": null,
          "release_ru": null,
          "release_world": null,
          "availability": null,
          "voiceActing": [
            "Рус. Оригинальный"
          ],
          "ads": false,
          "subtitle": []
        },
        {
          "episode": 15,
          "name": null,
          "iframe_url": "",
          "iframe_poster": null,
          "release_ru": null,
          "release_world": null,
          "availability": null,
          "voiceActing": [
            "Рус. Оригинальный"
          ],
          "ads": false,
          "subtitle": []
        },
        {
          "episode": 16,
          "name": null,
          "iframe_url": "",
          "iframe_poster": null,
          "release_ru": null,
          "release_world": null,
          "availability": null,
          "voiceActing": [
            "Рус. Оригинальный"
          ],
          "ads": false,
          "subtitle": []
        },
        {
          "episode": 17,
          "name": null,
          "iframe_url": "",
          "iframe_poster": null,
          "release_ru": null,
          "release_world": null,
          "availability": null,
          "voiceActing": [
            "Рус. Оригинальный"
          ],
          "ads": false,
          "subtitle": []
        },
        {
          "episode": 18,
          "name": null,
          "iframe_url": "",
          "iframe_poster": null,
          "release_ru": null,
          "release_world": null,
          "availability": null,
          "voiceActing": [
            "Рус. Оригинальный"
          ],
          "ads": false,
          "subtitle": []
        },
        {
          "episode": 19,
          "name": null,
          "iframe_url": "",
          "iframe_poster": null,
          "release_ru": null,
          "release_world": null,
          "availability": null,
          "voiceActing": [
            "Рус. Оригинальный"
          ],
          "ads": false,
          "subtitle": []
        },
        {
          "episode": 20,
          "name": null,
          "iframe_url": "",
          "iframe_poster": null,
          "release_ru": null,
          "release_world": null,
          "availability": null,
          "voiceActing": [
            "Рус. Оригинальный"
          ],
          "ads": false,
          "subtitle": []
        },
        {
          "episode": 21,
          "name": null,
          "iframe_url": "",
          "iframe_poster": null,
          "release_ru": null,
          "release_world": null,
          "availability": null,
          "voiceActing": [
            "Рус. Оригинальный"
          ],
          "ads": false,
          "subtitle": []
        },
        {
          "episode": 22,
          "name": null,
          "iframe_url": "",
          "iframe_poster": null,
          "release_ru": null,
          "release_world": null,
          "availability": null,
          "voiceActing": [
            "Рус. Оригинальный"
          ],
          "ads": false,
          "subtitle": []
        },
        {
          "episode": 23,
          "name": null,
          "iframe_url": "",
          "iframe_poster": null,
          "release_ru": null,
          "release_world": null,
          "availability": null,
          "voiceActing": [
            "Рус. Оригинальный"
          ],
          "ads": false,
          "subtitle": []
        },
        {
          "episode": 24,
          "name": null,
          "iframe_url": "",
          "iframe_poster": null,
          "release_ru": null,
          "release_world": null,
          "availability": null,
          "voiceActing": [
            "Рус. Оригинальный"
          ],
          "ads": false,
          "subtitle": []
        },
        {
          "episode": 25,
          "name": null,
          "iframe_url": "",
          "iframe_poster": null,
          "release_ru": null,
          "release_world": null,
          "availability": null,
          "voiceActing": [
            "Рус. Оригинальный"
          ],
          "ads": false,
          "subtitle": []
        },
        {
          "episode": 26,
          "name": null,
          "iframe_url": "",
          "iframe_poster": null,
          "release_ru": null,
          "release_world": null,
          "availability": null,
          "voiceActing": [
            "Рус. Оригинальный"
          ],
          "ads": false,
          "subtitle": []
        },
        {
          "episode": 27,
          "name": null,
          "iframe_url": "",
          "iframe_poster": null,
          "release_ru": null,
          "release_world": null,
          "availability": null,
          "voiceActing": [
            "Рус. Оригинальный"
          ],
          "ads": false,
          "subtitle": []
        },
        {
          "episode": 28,
          "name": null,
          "iframe_url": "",
          "iframe_poster": null,
          "release_ru": null,
          "release_world": null,
          "availability": null,
          "voiceActing": [
            "Рус. Оригинальный"
          ],
          "ads": false,
          "subtitle": []
        },
        {
          "episode": 29,
          "name": null,
          "iframe_url": "",
          "iframe_poster": null,
          "release_ru": null,
          "release_world": null,
          "availability": null,
          "voiceActing": [
            "Рус. Оригинальный"
          ],
          "ads": false,
          "subtitle": []
        }
      ]
    }
  ],
  "voiceActing": [
    "Рус. Оригинальный"
  ],
  "subtitle": [],
  "parts": []
}
