{
  "id": 12468,
  "name": "Замечательная сказка",
  "name_eng": "Lo nunca visto",
  "year": 2019,
  "slogan": "«A village willing to everything»",
  "age": "16++",
  "type": "film",
  "quality": "HD (720p)",
  "imdb": "5.4",
  "imdb_id": "8296660",
  "kinopoisk": null,
  "kinopoisk_id": "1128862",
  "world_art": null,
  "world_art_id": null,
  "time": "93 мин. / 01:33",
  "ads": true,
  "premier": "2019-06-07",
  "premier_rus": "2019-06-08",
  "availability": "2019-06-08",
  "activate_time": "2019-11-14 22:52:00",
  "budget": "",
  "fees_use": "",
  "fees_world": "",
  "fees_rus": "",
  "rate_mpaa": "",
  "description": "Действие развернётся в крошечном испанском городе Фуэнтеуэла-де-Арриба, расположенном в горах. Местные жители столкнулись с серьезной проблемой: их осталось всего 16 человек, в большинстве своем пожилых мужчин и женщин, а детей или молодых вовсе нет. Мэр предупреждает: если население сократится до 15-и, то они присоединятся в соседнему городу, жители которого их ненавидят. И тогда жена мэра Тереза находит оригинальное решение, связанное с недавно встреченными ею четырьмя африканцами, скрывавшимися от полиции. Танцоров обманули с работой, а Тереза собирается с их помощью увеличить население и спасти город...",
  "iframe_url": "",
  "iframe_poster": null,
  "poster": "https://img.imgilall.me/movies/franchise/1/2/4/6/8/0/0/0/0/0/610x900_12468.jpg",
  "country": {
    "3": "Испания"
  },
  "collection": [],
  "genre": {
    "19": "Комедия",
    "10": "Зарубежный"
  },
  "director": [
    "Marina Seresesky"
  ],
  "screenwriter": [
    "Marina Seresesky"
  ],
  "producer": [
    "Пабло Босси",
    "Alma Gimena Blanco",
    "Икер Гануса"
  ],
  "operator": [
    "Серхи Гальярдо"
  ],
  "composer": [
    "Фернандо Веласкес"
  ],
  "design": [
    "Сара Нативидад",
    "Yolanda Moreno-Burgos",
    "Марта Уозингер"
  ],
  "editor": [
    "Марта Веласко"
  ],
  "actors": [
    "Кармен Мачи",
    "Пепон Ниэто",
    "Кити Манвер",
    "Джон Кортахарена",
    "Джимми Кастро",
    "Ricardo Nkosi",
    "Монтсе Пла",
    "Малкольм Ситте",
    "Пепа Чарро",
    "Эсперанса Элипе"
  ],
  "actors_dubl": [],
  "trivia": [],
  "trailers": [],
  "seasons": [],
  "voiceActing": [
    "Рус. Люб. многоголосый"
  ],
  "subtitle": [],
  "parts": []
}
