{
  "id": 12471,
  "name": "База Куантико",
  "name_eng": "Quantico",
  "year": 2015,
  "slogan": "«The FBI's top recruit is now their most wanted»",
  "age": "16+",
  "type": "series",
  "quality": "HD (720p)",
  "imdb": "6.7",
  "imdb_id": "4428122",
  "kinopoisk": "7.1",
  "kinopoisk_id": "893775",
  "world_art": null,
  "world_art_id": null,
  "time": "42 мин",
  "ads": false,
  "premier": "2015-09-27",
  "premier_rus": "2015-10-29",
  "availability": "2015-10-30",
  "serial_status": "offline",
  "activate_time": "2019-11-15 11:23:00",
  "budget": null,
  "fees_use": null,
  "fees_world": null,
  "fees_rus": null,
  "rate_mpaa": null,
  "description": "Шесть совершенно разных новобранцев поступают на стажировку в ФБР на базу Куантико в штате Вирджиния. Базой руководит Миранда Шоу, первая женщина на высшей должности в ФБР. Миранда объединяется со своим бывшим партнером, Лиамом О'Коннором, который ныне работает советником, чтобы отобрать лучших новобранцев в агенты. Тем не менее в будущем один из новобранцев будет подозреваемым в планировании крупнейшего с 11 сентября террористического акта по Нью-Йорку.",
  "iframe_url": "",
  "poster": "https://img.imgilall.me/movies/franchise/1/2/4/7/1/0/0/0/0/0/610x900_12471.jpg",
  "country": {
    "1": "США"
  },
  "collection": [],
  "genre": {
    "25": "Криминал",
    "24": "Детектив",
    "13": "Триллер",
    "7": "Драма"
  },
  "director": [
    "Дэвид МакУиртер",
    "Дженнифер Линч",
    "Патрик Р. Норрис"
  ],
  "screenwriter": [
    "Джошуа Сафран",
    "Логан Слактер",
    "Джастин Бреннеман"
  ],
  "producer": [
    "Билли Реднер",
    "Джошуа Сафран",
    "Камерон Литвак"
  ],
  "operator": [
    "Энтони Вольберг",
    "Стефан Чапски",
    "Анастас Н. Микос"
  ],
  "composer": [
    "Джоэл Дж. Ричард",
    "Джозеф Трапанезе",
    "Клинтон Шотер"
  ],
  "design": [
    "Бет А. Рубино",
    "Джереми Кэсселлс",
    "Стюарт Блатт"
  ],
  "editor": [
    "Коллин Шарп",
    "Николас Эрасмус",
    "Терилин А. Шропшир"
  ],
  "actors": [
    "Приянка Чопра Джонас",
    "Джейк МакЛафлин",
    "Джоанна Э. Брэдди",
    "Онжаню Эллис",
    "Ясмин Эл Массри",
    "Блэр Андервуд",
    "Рассел Тови",
    "Грэм Роджерс",
    "Джош Хопкинс",
    "Тейт Эллингтон"
  ],
  "actors_dubl": [
    "Анастасия Лапина",
    "Дмитрий Поляновский",
    "Дарья Фролова",
    "Екатерина Семенова",
    "Иван Калинин"
  ],
  "trivia": [
    "Названием каждой серии 1-го сезона служит слово, произнесённое в этой серии последним.",
    "Все сцены в раздевалках, спортзале, тренажёрных залах, медицинском учреждении и зале для отработки боевых навыков снимали в Национальном институте спорта Квебека поблизости от олимпийского стадиона в Монреале. В перерывах между съёмками там продолжали заниматься олимпийцы и паралимпийцы.",
    "Калеб живёт в комнате 113А. \"113А\" или \"А113\" - это \"пасхальное яйцо\", которое нередко встречается в фильмах Pixar и Disney, а телеканал ABC принадлежит последней. \"А113\" - это номер аудитории в Калифорнийском институте искусств, в которой первокурсников обучают азам графического дизайна и анимации. Это учебное заведение закончили многие аниматоры Pixar и Disney."
  ],
  "trailers": [],
  "seasons": [
    {
      "poster": null,
      "release_ru": "2015-09-28",
      "release_world": "2015-09-27",
      "availability": "2015-09-29",
      "iframe_url": "",
      "season": 1,
      "episodes": [
        {
          "episode": 1,
          "name": "Run",
          "iframe_url": "",
          "iframe_poster": null,
          "release_ru": "2015-09-28",
          "release_world": "2015-09-27",
          "availability": "2015-09-29",
          "voiceActing": [
            "Дуб. (Кириллица)",
            "NewStudio",
            "Baibako",
            "IdeaFilm",
            "Eng.Original"
          ],
          "ads": false,
          "subtitle": []
        },
        {
          "episode": 2,
          "name": "America",
          "iframe_url": "",
          "iframe_poster": null,
          "release_ru": "2015-10-05",
          "release_world": "2015-10-04",
          "availability": "2015-10-06",
          "voiceActing": [
            "Дуб. (Кириллица)",
            "NewStudio",
            "Baibako",
            "IdeaFilm",
            "Eng.Original"
          ],
          "ads": false,
          "subtitle": []
        },
        {
          "episode": 3,
          "name": "Cover",
          "iframe_url": "",
          "iframe_poster": null,
          "release_ru": "2015-10-12",
          "release_world": "2015-10-11",
          "availability": "2015-10-13",
          "voiceActing": [
            "Дуб. (Кириллица)",
            "NewStudio",
            "Baibako",
            "IdeaFilm",
            "Eng.Original"
          ],
          "ads": false,
          "subtitle": []
        },
        {
          "episode": 4,
          "name": "Kill",
          "iframe_url": "",
          "iframe_poster": null,
          "release_ru": "2015-10-19",
          "release_world": "2015-10-18",
          "availability": "2015-10-20",
          "voiceActing": [
            "Дуб. (Кириллица)",
            "NewStudio",
            "Baibako",
            "IdeaFilm",
            "Eng.Original"
          ],
          "ads": false,
          "subtitle": []
        },
        {
          "episode": 5,
          "name": "Found",
          "iframe_url": "",
          "iframe_poster": null,
          "release_ru": "2015-10-26",
          "release_world": "2015-10-25",
          "availability": "2015-10-27",
          "voiceActing": [
            "Дуб. (Кириллица)",
            "NewStudio",
            "Baibako",
            "IdeaFilm",
            "Eng.Original"
          ],
          "ads": false,
          "subtitle": []
        },
        {
          "episode": 6,
          "name": "God",
          "iframe_url": "",
          "iframe_poster": null,
          "release_ru": "2015-11-02",
          "release_world": "2015-11-01",
          "availability": "2015-11-03",
          "voiceActing": [
            "Дуб. (Кириллица)",
            "NewStudio",
            "Baibako",
            "IdeaFilm",
            "Eng.Original"
          ],
          "ads": false,
          "subtitle": []
        },
        {
          "episode": 7,
          "name": "Go",
          "iframe_url": "",
          "iframe_poster": null,
          "release_ru": "2015-11-09",
          "release_world": "2015-11-08",
          "availability": "2015-11-10",
          "voiceActing": [
            "Дуб. (Кириллица)",
            "NewStudio",
            "Baibako",
            "IdeaFilm",
            "Eng.Original"
          ],
          "ads": false,
          "subtitle": []
        },
        {
          "episode": 8,
          "name": "Over",
          "iframe_url": "",
          "iframe_poster": null,
          "release_ru": "2015-11-16",
          "release_world": "2015-11-15",
          "availability": "2015-11-17",
          "voiceActing": [
            "Дуб. (Кириллица)",
            "NewStudio",
            "Baibako",
            "IdeaFilm",
            "Eng.Original"
          ],
          "ads": false,
          "subtitle": []
        },
        {
          "episode": 9,
          "name": "Guilty",
          "iframe_url": "",
          "iframe_poster": null,
          "release_ru": "2015-11-30",
          "release_world": "2015-11-29",
          "availability": "2015-12-01",
          "voiceActing": [
            "Дуб. (Кириллица)",
            "NewStudio",
            "Baibako",
            "IdeaFilm",
            "Eng.Original"
          ],
          "ads": false,
          "subtitle": []
        },
        {
          "episode": 10,
          "name": "Quantico",
          "iframe_url": "",
          "iframe_poster": null,
          "release_ru": "2015-12-07",
          "release_world": "2015-12-06",
          "availability": "2015-12-08",
          "voiceActing": [
            "Дуб. (Кириллица)",
            "NewStudio",
            "Baibako",
            "IdeaFilm",
            "Eng.Original"
          ],
          "ads": false,
          "subtitle": []
        },
        {
          "episode": 11,
          "name": "Inside",
          "iframe_url": "",
          "iframe_poster": null,
          "release_ru": "2015-12-14",
          "release_world": "2015-12-13",
          "availability": "2015-12-15",
          "voiceActing": [
            "Дуб. (Кириллица)",
            "NewStudio",
            "Baibako",
            "IdeaFilm",
            "Eng.Original"
          ],
          "ads": false,
          "subtitle": []
        },
        {
          "episode": 12,
          "name": "Alex",
          "iframe_url": "",
          "iframe_poster": null,
          "release_ru": "2016-03-07",
          "release_world": "2016-03-06",
          "availability": "2016-03-08",
          "voiceActing": [
            "Дуб. (Кириллица)",
            "NewStudio",
            "Baibako",
            "IdeaFilm",
            "Eng.Original"
          ],
          "ads": false,
          "subtitle": []
        },
        {
          "episode": 13,
          "name": "Clear",
          "iframe_url": "",
          "iframe_poster": null,
          "release_ru": "2016-03-14",
          "release_world": "2016-03-13",
          "availability": "2016-03-15",
          "voiceActing": [
            "Дуб. (Кириллица)",
            "NewStudio",
            "Baibako",
            "IdeaFilm",
            "Eng.Original"
          ],
          "ads": false,
          "subtitle": []
        },
        {
          "episode": 14,
          "name": "Answer",
          "iframe_url": "",
          "iframe_poster": null,
          "release_ru": "2016-03-21",
          "release_world": "2016-03-20",
          "availability": "2016-03-22",
          "voiceActing": [
            "Дуб. (Кириллица)",
            "NewStudio",
            "Baibako",
            "IdeaFilm",
            "Eng.Original"
          ],
          "ads": false,
          "subtitle": []
        },
        {
          "episode": 15,
          "name": "Turn",
          "iframe_url": "",
          "iframe_poster": null,
          "release_ru": "2016-03-28",
          "release_world": "2016-03-27",
          "availability": "2016-03-29",
          "voiceActing": [
            "Дуб. (Кириллица)",
            "NewStudio",
            "Baibako",
            "IdeaFilm",
            "Eng.Original"
          ],
          "ads": false,
          "subtitle": []
        },
        {
          "episode": 16,
          "name": "Clue",
          "iframe_url": "",
          "iframe_poster": null,
          "release_ru": "2016-04-04",
          "release_world": "2016-04-03",
          "availability": "2016-04-05",
          "voiceActing": [
            "Дуб. (Кириллица)",
            "NewStudio",
            "Baibako",
            "IdeaFilm",
            "Eng.Original"
          ],
          "ads": false,
          "subtitle": []
        },
        {
          "episode": 17,
          "name": "Care",
          "iframe_url": "",
          "iframe_poster": null,
          "release_ru": "2016-04-11",
          "release_world": "2016-04-10",
          "availability": "2016-04-12",
          "voiceActing": [
            "Дуб. (Кириллица)",
            "NewStudio",
            "Baibako",
            "IdeaFilm",
            "Eng.Original"
          ],
          "ads": false,
          "subtitle": []
        },
        {
          "episode": 18,
          "name": "Soon",
          "iframe_url": "",
          "iframe_poster": null,
          "release_ru": "2016-04-18",
          "release_world": "2016-04-17",
          "availability": "2016-04-19",
          "voiceActing": [
            "Дуб. (Кириллица)",
            "NewStudio",
            "Baibako",
            "IdeaFilm",
            "Eng.Original"
          ],
          "ads": false,
          "subtitle": []
        },
        {
          "episode": 19,
          "name": "Fast",
          "iframe_url": "",
          "iframe_poster": null,
          "release_ru": "2016-04-25",
          "release_world": "2016-04-24",
          "availability": "2016-04-26",
          "voiceActing": [
            "Дуб. (Кириллица)",
            "NewStudio",
            "Baibako",
            "IdeaFilm",
            "Eng.Original"
          ],
          "ads": false,
          "subtitle": []
        },
        {
          "episode": 20,
          "name": "Drive",
          "iframe_url": "",
          "iframe_poster": null,
          "release_ru": "2016-05-02",
          "release_world": "2016-05-01",
          "availability": "2016-05-03",
          "voiceActing": [
            "Дуб. (Кириллица)",
            "NewStudio",
            "Baibako",
            "IdeaFilm",
            "Eng.Original"
          ],
          "ads": false,
          "subtitle": []
        },
        {
          "episode": 21,
          "name": "Right",
          "iframe_url": "",
          "iframe_poster": null,
          "release_ru": "2016-05-09",
          "release_world": "2016-05-08",
          "availability": "2016-05-10",
          "voiceActing": [
            "Дуб. (Кириллица)",
            "NewStudio",
            "Baibako",
            "IdeaFilm",
            "Eng.Original"
          ],
          "ads": false,
          "subtitle": []
        },
        {
          "episode": 22,
          "name": "Yes",
          "iframe_url": "",
          "iframe_poster": null,
          "release_ru": "2016-05-16",
          "release_world": "2016-05-15",
          "availability": "2016-05-17",
          "voiceActing": [
            "Дуб. (Кириллица)",
            "NewStudio",
            "Baibako",
            "IdeaFilm",
            "Eng.Original"
          ],
          "ads": false,
          "subtitle": []
        }
      ]
    },
    {
      "poster": null,
      "release_ru": "2016-09-26",
      "release_world": "2016-09-25",
      "availability": "2016-09-27",
      "iframe_url": "",
      "season": 2,
      "episodes": [
        {
          "episode": 1,
          "name": "KUDOVE",
          "iframe_url": "",
          "iframe_poster": null,
          "release_ru": "2016-09-26",
          "release_world": "2016-09-25",
          "availability": "2016-09-27",
          "voiceActing": [
            "Дуб. (Кириллица)",
            "Eng.Original"
          ],
          "ads": false,
          "subtitle": []
        },
        {
          "episode": 2,
          "name": "LIPSTICK",
          "iframe_url": "",
          "iframe_poster": null,
          "release_ru": "2016-10-03",
          "release_world": "2016-10-02",
          "availability": "2016-10-04",
          "voiceActing": [
            "Дуб. (Кириллица)",
            "Eng.Original"
          ],
          "ads": false,
          "subtitle": []
        },
        {
          "episode": 3,
          "name": "STESCALADE",
          "iframe_url": "",
          "iframe_poster": null,
          "release_ru": "2016-10-17",
          "release_world": "2016-10-16",
          "availability": "2016-10-18",
          "voiceActing": [
            "Дуб. (Кириллица)",
            "Eng.Original"
          ],
          "ads": false,
          "subtitle": []
        },
        {
          "episode": 4,
          "name": "KUBARK",
          "iframe_url": "",
          "iframe_poster": null,
          "release_ru": "2016-10-24",
          "release_world": "2016-10-23",
          "availability": "2016-10-25",
          "voiceActing": [
            "Дуб. (Кириллица)",
            "Eng.Original"
          ],
          "ads": false,
          "subtitle": []
        },
        {
          "episode": 5,
          "name": "KMFORGET",
          "iframe_url": "",
          "iframe_poster": null,
          "release_ru": "2016-10-31",
          "release_world": "2016-10-30",
          "availability": "2016-11-01",
          "voiceActing": [
            "Дуб. (Кириллица)",
            "Eng.Original"
          ],
          "ads": false,
          "subtitle": []
        },
        {
          "episode": 6,
          "name": "AQUILINE",
          "iframe_url": "",
          "iframe_poster": null,
          "release_ru": "2016-11-07",
          "release_world": "2016-11-06",
          "availability": "2016-11-08",
          "voiceActing": [
            "Дуб. (Кириллица)",
            "Eng.Original"
          ],
          "ads": false,
          "subtitle": []
        },
        {
          "episode": 7,
          "name": "LCFLUTTER",
          "iframe_url": "",
          "iframe_poster": null,
          "release_ru": "2016-11-14",
          "release_world": "2016-11-13",
          "availability": "2016-11-15",
          "voiceActing": [
            "Дуб. (Кириллица)",
            "Eng.Original"
          ],
          "ads": false,
          "subtitle": []
        },
        {
          "episode": 8,
          "name": "ODENVY",
          "iframe_url": "",
          "iframe_poster": null,
          "release_ru": "2016-11-28",
          "release_world": "2016-11-27",
          "availability": "2016-11-29",
          "voiceActing": [
            "Дуб. (Кириллица)",
            "Eng.Original"
          ],
          "ads": false,
          "subtitle": []
        },
        {
          "episode": 9,
          "name": "CLEOPATRA",
          "iframe_url": "",
          "iframe_poster": null,
          "release_ru": "2017-01-24",
          "release_world": "2017-01-23",
          "availability": "2017-01-25",
          "voiceActing": [
            "Дуб. (Кириллица)",
            "Eng.Original"
          ],
          "ads": false,
          "subtitle": []
        },
        {
          "episode": 10,
          "name": "JMPALM",
          "iframe_url": "",
          "iframe_poster": null,
          "release_ru": "2017-01-31",
          "release_world": "2017-01-30",
          "availability": "2017-02-01",
          "voiceActing": [
            "Дуб. (Кириллица)",
            "Eng.Original"
          ],
          "ads": false,
          "subtitle": []
        },
        {
          "episode": 11,
          "name": "ZRTORCH",
          "iframe_url": "",
          "iframe_poster": null,
          "release_ru": "2017-02-07",
          "release_world": "2017-02-06",
          "availability": "2017-02-08",
          "voiceActing": [
            "Дуб. (Кириллица)",
            "Eng.Original"
          ],
          "ads": false,
          "subtitle": []
        },
        {
          "episode": 12,
          "name": "FALLENORACLE",
          "iframe_url": "",
          "iframe_poster": null,
          "release_ru": "2017-02-14",
          "release_world": "2017-02-13",
          "availability": "2017-02-15",
          "voiceActing": [
            "Дуб. (Кириллица)",
            "Eng.Original"
          ],
          "ads": false,
          "subtitle": []
        },
        {
          "episode": 13,
          "name": "EPICSHELTER",
          "iframe_url": "",
          "iframe_poster": null,
          "release_ru": "2017-02-21",
          "release_world": "2017-02-20",
          "availability": "2017-02-22",
          "voiceActing": [
            "Дуб. (Кириллица)",
            "Eng.Original"
          ],
          "ads": false,
          "subtitle": []
        },
        {
          "episode": 14,
          "name": "LNWILT",
          "iframe_url": "",
          "iframe_poster": null,
          "release_ru": "2017-03-21",
          "release_world": "2017-03-20",
          "availability": "2017-03-22",
          "voiceActing": [
            "Дуб. (Кириллица)",
            "Eng.Original"
          ],
          "ads": false,
          "subtitle": []
        },
        {
          "episode": 15,
          "name": "MOCKINGBIRD",
          "iframe_url": "",
          "iframe_poster": null,
          "release_ru": "2017-03-28",
          "release_world": "2017-03-27",
          "availability": "2017-03-29",
          "voiceActing": [
            "Дуб. (Кириллица)",
            "Eng.Original"
          ],
          "ads": false,
          "subtitle": []
        },
        {
          "episode": 16,
          "name": "MKTOPAZ",
          "iframe_url": "",
          "iframe_poster": null,
          "release_ru": "2017-04-04",
          "release_world": "2017-04-03",
          "availability": "2017-04-05",
          "voiceActing": [
            "Дуб. (Кириллица)",
            "Eng.Original"
          ],
          "ads": false,
          "subtitle": []
        },
        {
          "episode": 17,
          "name": "ODYOKE",
          "iframe_url": "",
          "iframe_poster": null,
          "release_ru": "2017-04-11",
          "release_world": "2017-04-10",
          "availability": "2017-04-12",
          "voiceActing": [
            "Дуб. (Кириллица)",
            "Eng.Original"
          ],
          "ads": false,
          "subtitle": []
        },
        {
          "episode": 18,
          "name": "KUMONK",
          "iframe_url": "",
          "iframe_poster": null,
          "release_ru": "2017-04-18",
          "release_world": "2017-04-17",
          "availability": "2017-04-19",
          "voiceActing": [
            "Дуб. (Кириллица)",
            "Eng.Original"
          ],
          "ads": false,
          "subtitle": []
        },
        {
          "episode": 19,
          "name": "MHORDER",
          "iframe_url": "",
          "iframe_poster": null,
          "release_ru": "2017-04-25",
          "release_world": "2017-04-24",
          "availability": "2017-04-26",
          "voiceActing": [
            "Дуб. (Кириллица)",
            "Eng.Original"
          ],
          "ads": false,
          "subtitle": []
        },
        {
          "episode": 20,
          "name": "GLOBALREACH",
          "iframe_url": "",
          "iframe_poster": null,
          "release_ru": "2017-05-02",
          "release_world": "2017-05-01",
          "availability": "2017-05-03",
          "voiceActing": [
            "Дуб. (Кириллица)",
            "Eng.Original"
          ],
          "ads": false,
          "subtitle": []
        },
        {
          "episode": 21,
          "name": "RAINBOW",
          "iframe_url": "",
          "iframe_poster": null,
          "release_ru": "2017-05-09",
          "release_world": "2017-05-08",
          "availability": "2017-05-10",
          "voiceActing": [
            "Дуб. (Кириллица)",
            "Eng.Original"
          ],
          "ads": false,
          "subtitle": []
        },
        {
          "episode": 22,
          "name": "RESISTANCE",
          "iframe_url": "",
          "iframe_poster": null,
          "release_ru": "2017-05-16",
          "release_world": "2017-05-15",
          "availability": "2017-05-17",
          "voiceActing": [
            "Дуб. (Кириллица)",
            "Eng.Original"
          ],
          "ads": false,
          "subtitle": []
        }
      ]
    },
    {
      "poster": null,
      "release_ru": "2018-04-27",
      "release_world": "2018-04-26",
      "availability": "2018-04-28",
      "iframe_url": "",
      "season": 3,
      "episodes": [
        {
          "episode": 1,
          "name": "The Conscience Code",
          "iframe_url": "",
          "iframe_poster": null,
          "release_ru": "2018-04-27",
          "release_world": "2018-04-26",
          "availability": "2018-04-28",
          "voiceActing": [
            "Дуб. (Кириллица)",
            "Eng.Original"
          ],
          "ads": false,
          "subtitle": []
        },
        {
          "episode": 2,
          "name": "Fear and Flesh",
          "iframe_url": "",
          "iframe_poster": null,
          "release_ru": "2018-05-04",
          "release_world": "2018-05-03",
          "availability": "2018-05-05",
          "voiceActing": [
            "Дуб. (Кириллица)",
            "Eng.Original"
          ],
          "ads": false,
          "subtitle": []
        },
        {
          "episode": 3,
          "name": "Hell's Gate",
          "iframe_url": "",
          "iframe_poster": null,
          "release_ru": "2018-05-11",
          "release_world": "2018-05-10",
          "availability": "2018-05-12",
          "voiceActing": [
            "Дуб. (Кириллица)",
            "Eng.Original"
          ],
          "ads": false,
          "subtitle": []
        },
        {
          "episode": 4,
          "name": "Spy Games",
          "iframe_url": "",
          "iframe_poster": null,
          "release_ru": "2018-05-26",
          "release_world": "2018-05-25",
          "availability": "2018-05-27",
          "voiceActing": [
            "Дуб. (Кириллица)",
            "Eng.Original"
          ],
          "ads": false,
          "subtitle": []
        },
        {
          "episode": 5,
          "name": "The Blood of Romeo",
          "iframe_url": "",
          "iframe_poster": null,
          "release_ru": "2018-06-02",
          "release_world": "2018-06-01",
          "availability": "2018-06-03",
          "voiceActing": [
            "Дуб. (Кириллица)",
            "Eng.Original"
          ],
          "ads": false,
          "subtitle": []
        },
        {
          "episode": 6,
          "name": "Heaven's Fall",
          "iframe_url": "",
          "iframe_poster": null,
          "release_ru": "2018-06-16",
          "release_world": "2018-06-15",
          "availability": "2018-06-17",
          "voiceActing": [
            "Дуб. (Кириллица)",
            "Eng.Original"
          ],
          "ads": false,
          "subtitle": []
        },
        {
          "episode": 7,
          "name": "Bullet Train",
          "iframe_url": "",
          "iframe_poster": null,
          "release_ru": "2018-06-23",
          "release_world": "2018-06-22",
          "availability": "2018-06-24",
          "voiceActing": [
            "Дуб. (Кириллица)",
            "Eng.Original"
          ],
          "ads": false,
          "subtitle": []
        },
        {
          "episode": 8,
          "name": "Deep Cover",
          "iframe_url": "",
          "iframe_poster": null,
          "release_ru": "2018-06-30",
          "release_world": "2018-06-29",
          "availability": "2018-07-01",
          "voiceActing": [
            "Дуб. (Кириллица)",
            "Eng.Original"
          ],
          "ads": false,
          "subtitle": []
        },
        {
          "episode": 9,
          "name": "Fear Feargach",
          "iframe_url": "",
          "iframe_poster": null,
          "release_ru": "2018-07-07",
          "release_world": "2018-07-06",
          "availability": "2018-07-08",
          "voiceActing": [
            "Дуб. (Кириллица)",
            "Eng.Original"
          ],
          "ads": false,
          "subtitle": []
        },
        {
          "episode": 10,
          "name": "No Place Is Home",
          "iframe_url": "",
          "iframe_poster": null,
          "release_ru": "2018-07-14",
          "release_world": "2018-07-13",
          "availability": "2018-07-15",
          "voiceActing": [
            "Дуб. (Кириллица)",
            "Eng.Original"
          ],
          "ads": false,
          "subtitle": []
        },
        {
          "episode": 11,
          "name": "The Art of War",
          "iframe_url": "",
          "iframe_poster": null,
          "release_ru": "2018-07-21",
          "release_world": "2018-07-20",
          "availability": "2018-07-22",
          "voiceActing": [
            "Дуб. (Кириллица)",
            "Eng.Original"
          ],
          "ads": false,
          "subtitle": []
        },
        {
          "episode": 12,
          "name": "Ghosts",
          "iframe_url": "",
          "iframe_poster": null,
          "release_ru": "2018-07-28",
          "release_world": "2018-07-27",
          "availability": "2018-07-29",
          "voiceActing": [
            "Дуб. (Кириллица)",
            "Eng.Original"
          ],
          "ads": false,
          "subtitle": []
        },
        {
          "episode": 13,
          "name": "Who Are You?",
          "iframe_url": "",
          "iframe_poster": null,
          "release_ru": "2018-08-04",
          "release_world": "2018-08-03",
          "availability": "2018-08-05",
          "voiceActing": [
            "Дуб. (Кириллица)",
            "Eng.Original"
          ],
          "ads": false,
          "subtitle": []
        }
      ]
    }
  ],
  "voiceActing": [
    "Дуб. (Кириллица)",
    "NewStudio",
    "Baibako",
    "IdeaFilm",
    "Eng.Original"
  ],
  "subtitle": [],
  "parts": []
}
