{
  "id": 12488,
  "name": "Гнилые времена / Те самые дни",
  "name_eng": "Another Period",
  "year": 2015,
  "slogan": "—",
  "age": "18+",
  "type": "series",
  "quality": "HD (720p)",
  "imdb": "7.2",
  "imdb_id": "3593432",
  "kinopoisk": "6.8",
  "kinopoisk_id": "843203",
  "world_art": null,
  "world_art_id": null,
  "time": "21 мин",
  "ads": false,
  "premier": "2015-06-23",
  "premier_rus": "2017-01-09",
  "availability": null,
  "serial_status": "offline",
  "activate_time": "2019-11-15 16:48:00",
  "budget": null,
  "fees_use": null,
  "fees_world": null,
  "fees_rus": null,
  "rate_mpaa": null,
  "description": "1901 год, шикарное поместье в одном из городов США. Избалованные сестры Беатрис и Лилиан Белакорт живут роскошной жизнью, предаваясь всем доступным им порокам. Больше всего на свете они любят комфорт, свою красоту и семейное наследство, а также кокаиновое вино и кидаться в слуг профитролями. Семья и ближайшее окружение им под стать, а их отношения достойны отдельной мыльной оперы: отец тайно находится в сексуальном рабстве у новой служанки-экс-проститутки, мать сидит на модном морфии, мужья любят не своих жен, а друг друга, а одна из сестер — своего брата.",
  "iframe_url": "",
  "poster": "https://img.imgilall.me/movies/franchise/1/2/4/8/8/0/0/0/0/0/610x900_12488.jpg",
  "country": {
    "1": "США"
  },
  "collection": [],
  "genre": {
    "28": "Исторический",
    "19": "Комедия",
    "10": "Зарубежный"
  },
  "director": [
    "Джереми Коннер"
  ],
  "screenwriter": [
    "Наташа Леджеро",
    "Рики Линдхоум",
    "Джереми Коннер"
  ],
  "producer": [
    "Наташа Леджеро",
    "Рики Линдхоум",
    "Стюарт Корнфелд"
  ],
  "operator": [
    "Карл Херц",
    "Джон Танцер",
    "Дэвид Раш Моррисон"
  ],
  "composer": [
    "Эбан Шлеттер"
  ],
  "design": [
    "Джастин Либ",
    "Рэйчел Робб Кондрат",
    "Эрик Дж. Арчер"
  ],
  "editor": [
    "Эл Ливайн",
    "Джессика Брунетто",
    "Кайл Рейтер"
  ],
  "actors": [
    "Наташа Леджеро",
    "Рики Линдхоум",
    "Армен Вайцман",
    "Майкл Йен Блэк",
    "Бет Довер",
    "Джейсон Риттер",
    "Пэйджет Брюстер",
    "Бретт Гельман",
    "Дэвид Кокнер",
    "Кристина Хендрикс"
  ],
  "actors_dubl": [],
  "trivia": [],
  "trailers": [],
  "seasons": [
    {
      "poster": null,
      "release_ru": "2015-06-24",
      "release_world": "2015-06-23",
      "availability": "2015-06-25",
      "iframe_url": "",
      "season": 1,
      "episodes": [
        {
          "episode": 1,
          "name": "The Party of the Century",
          "iframe_url": "",
          "iframe_poster": null,
          "release_ru": "2015-06-24",
          "release_world": "2015-06-23",
          "availability": "2015-06-25",
          "voiceActing": [
            "Ozz",
            "Eng.Original"
          ],
          "ads": false,
          "subtitle": []
        },
        {
          "episode": 2,
          "name": "Divorce",
          "iframe_url": "",
          "iframe_poster": null,
          "release_ru": "2015-07-01",
          "release_world": "2015-06-30",
          "availability": "2015-07-02",
          "voiceActing": [
            "Ozz",
            "Eng.Original"
          ],
          "ads": false,
          "subtitle": []
        },
        {
          "episode": 3,
          "name": "Funeral",
          "iframe_url": "",
          "iframe_poster": null,
          "release_ru": "2015-07-08",
          "release_world": "2015-07-07",
          "availability": "2015-07-09",
          "voiceActing": [
            "Ozz",
            "Eng.Original"
          ],
          "ads": false,
          "subtitle": []
        },
        {
          "episode": 4,
          "name": "Pageant",
          "iframe_url": "",
          "iframe_poster": null,
          "release_ru": "2015-07-15",
          "release_world": "2015-07-14",
          "availability": "2015-07-16",
          "voiceActing": [
            "Ozz",
            "Eng.Original"
          ],
          "ads": false,
          "subtitle": []
        },
        {
          "episode": 5,
          "name": "Senate",
          "iframe_url": "",
          "iframe_poster": null,
          "release_ru": "2015-07-22",
          "release_world": "2015-07-21",
          "availability": "2015-07-23",
          "voiceActing": [
            "Ozz",
            "Eng.Original"
          ],
          "ads": false,
          "subtitle": []
        },
        {
          "episode": 6,
          "name": "Lillian's Birthday",
          "iframe_url": "",
          "iframe_poster": null,
          "release_ru": "2015-07-29",
          "release_world": "2015-07-28",
          "availability": "2015-07-30",
          "voiceActing": [
            "Ozz",
            "Eng.Original"
          ],
          "ads": false,
          "subtitle": []
        },
        {
          "episode": 7,
          "name": "Switcheroo Day",
          "iframe_url": "",
          "iframe_poster": null,
          "release_ru": "2015-08-05",
          "release_world": "2015-08-04",
          "availability": "2015-08-06",
          "voiceActing": [
            "Ozz",
            "Eng.Original"
          ],
          "ads": false,
          "subtitle": []
        },
        {
          "episode": 8,
          "name": "Dog Dinner Party",
          "iframe_url": "",
          "iframe_poster": null,
          "release_ru": "2015-08-12",
          "release_world": "2015-08-11",
          "availability": "2015-08-13",
          "voiceActing": [
            "Ozz",
            "Eng.Original"
          ],
          "ads": false,
          "subtitle": []
        },
        {
          "episode": 9,
          "name": "Reject's Beach",
          "iframe_url": "",
          "iframe_poster": null,
          "release_ru": "2015-08-19",
          "release_world": "2015-08-18",
          "availability": "2015-08-20",
          "voiceActing": [
            "Ozz",
            "Eng.Original"
          ],
          "ads": false,
          "subtitle": []
        },
        {
          "episode": 10,
          "name": "Modern Pigs",
          "iframe_url": "",
          "iframe_poster": null,
          "release_ru": "2015-08-26",
          "release_world": "2015-08-25",
          "availability": "2015-08-27",
          "voiceActing": [
            "Ozz",
            "Eng.Original"
          ],
          "ads": false,
          "subtitle": []
        }
      ]
    },
    {
      "poster": null,
      "release_ru": "2016-06-16",
      "release_world": "2016-06-15",
      "availability": "2016-06-17",
      "iframe_url": "",
      "season": 2,
      "episodes": [
        {
          "episode": 1,
          "name": "Tubman",
          "iframe_url": "",
          "iframe_poster": null,
          "release_ru": "2016-06-16",
          "release_world": "2016-06-15",
          "availability": "2016-06-17",
          "voiceActing": [
            "Ozz",
            "Eng.Original"
          ],
          "ads": false,
          "subtitle": []
        },
        {
          "episode": 2,
          "name": "Annulment",
          "iframe_url": "",
          "iframe_poster": null,
          "release_ru": "2016-06-23",
          "release_world": "2016-06-22",
          "availability": "2016-06-24",
          "voiceActing": [
            "Ozz",
            "Eng.Original"
          ],
          "ads": false,
          "subtitle": []
        },
        {
          "episode": 3,
          "name": "The Prince and the Pauper",
          "iframe_url": "",
          "iframe_poster": null,
          "release_ru": "2016-06-30",
          "release_world": "2016-06-29",
          "availability": "2016-07-01",
          "voiceActing": [
            "Ozz",
            "Eng.Original"
          ],
          "ads": false,
          "subtitle": []
        },
        {
          "episode": 4,
          "name": "Trial of the Century",
          "iframe_url": "",
          "iframe_poster": null,
          "release_ru": "2016-07-07",
          "release_world": "2016-07-06",
          "availability": "2016-07-08",
          "voiceActing": [
            "Ozz",
            "Eng.Original"
          ],
          "ads": false,
          "subtitle": []
        },
        {
          "episode": 5,
          "name": "Roosevelt",
          "iframe_url": "",
          "iframe_poster": null,
          "release_ru": "2016-07-14",
          "release_world": "2016-07-13",
          "availability": "2016-07-15",
          "voiceActing": [
            "Ozz",
            "Eng.Original"
          ],
          "ads": false,
          "subtitle": []
        },
        {
          "episode": 6,
          "name": "Servants' Disease",
          "iframe_url": "",
          "iframe_poster": null,
          "release_ru": "2016-07-21",
          "release_world": "2016-07-20",
          "availability": "2016-07-22",
          "voiceActing": [
            "Ozz",
            "Eng.Original"
          ],
          "ads": false,
          "subtitle": []
        },
        {
          "episode": 7,
          "name": "Harvard",
          "iframe_url": "",
          "iframe_poster": null,
          "release_ru": "2016-07-28",
          "release_world": "2016-07-27",
          "availability": "2016-07-29",
          "voiceActing": [
            "Ozz",
            "Eng.Original"
          ],
          "ads": false,
          "subtitle": []
        },
        {
          "episode": 8,
          "name": "Joplin",
          "iframe_url": "",
          "iframe_poster": null,
          "release_ru": "2016-08-04",
          "release_world": "2016-08-03",
          "availability": "2016-08-05",
          "voiceActing": [
            "Ozz",
            "Eng.Original"
          ],
          "ads": false,
          "subtitle": []
        },
        {
          "episode": 9,
          "name": "Lillian's Wedding",
          "iframe_url": "",
          "iframe_poster": null,
          "release_ru": "2016-08-11",
          "release_world": "2016-08-10",
          "availability": "2016-08-12",
          "voiceActing": [
            "Ozz",
            "Eng.Original"
          ],
          "ads": false,
          "subtitle": []
        },
        {
          "episode": 10,
          "name": "The Duel",
          "iframe_url": "",
          "iframe_poster": null,
          "release_ru": "2016-08-18",
          "release_world": "2016-08-17",
          "availability": "2016-08-19",
          "voiceActing": [
            "Ozz",
            "Eng.Original"
          ],
          "ads": false,
          "subtitle": []
        },
        {
          "episode": 11,
          "name": "Lillian is Dead",
          "iframe_url": "",
          "iframe_poster": null,
          "release_ru": "2016-08-25",
          "release_world": "2016-08-24",
          "availability": "2016-08-26",
          "voiceActing": [
            "Ozz",
            "Eng.Original"
          ],
          "ads": false,
          "subtitle": []
        }
      ]
    },
    {
      "poster": null,
      "release_ru": "2018-01-24",
      "release_world": "2018-01-23",
      "availability": "2018-01-25",
      "iframe_url": "",
      "season": 3,
      "episodes": [
        {
          "episode": 1,
          "name": "Congress",
          "iframe_url": "",
          "iframe_poster": null,
          "release_ru": "2018-01-24",
          "release_world": "2018-01-23",
          "availability": "2018-01-25",
          "voiceActing": [
            "Ozz",
            "Eng.Original"
          ],
          "ads": false,
          "subtitle": []
        },
        {
          "episode": 2,
          "name": "Séance",
          "iframe_url": "",
          "iframe_poster": null,
          "release_ru": "2018-01-31",
          "release_world": "2018-01-30",
          "availability": "2018-02-01",
          "voiceActing": [
            "Ozz",
            "Eng.Original"
          ],
          "ads": false,
          "subtitle": []
        },
        {
          "episode": 3,
          "name": "Olympics",
          "iframe_url": "",
          "iframe_poster": null,
          "release_ru": "2018-02-07",
          "release_world": "2018-02-06",
          "availability": "2018-02-08",
          "voiceActing": [
            "Ozz",
            "Eng.Original"
          ],
          "ads": false,
          "subtitle": []
        },
        {
          "episode": 4,
          "name": "The Love Boat",
          "iframe_url": "",
          "iframe_poster": null,
          "release_ru": "2018-02-14",
          "release_world": "2018-02-13",
          "availability": "2018-02-15",
          "voiceActing": [
            "Ozz",
            "Eng.Original"
          ],
          "ads": false,
          "subtitle": []
        },
        {
          "episode": 5,
          "name": "Masquerade",
          "iframe_url": "",
          "iframe_poster": null,
          "release_ru": "2018-02-21",
          "release_world": "2018-02-20",
          "availability": "2018-02-22",
          "voiceActing": [
            "Ozz",
            "Eng.Original"
          ],
          "ads": false,
          "subtitle": []
        },
        {
          "episode": 6,
          "name": "Shady Acres",
          "iframe_url": "",
          "iframe_poster": null,
          "release_ru": "2018-02-28",
          "release_world": "2018-02-27",
          "availability": "2018-03-01",
          "voiceActing": [
            "Ozz",
            "Eng.Original"
          ],
          "ads": false,
          "subtitle": []
        },
        {
          "episode": 7,
          "name": "Sex Nickelodeon",
          "iframe_url": "",
          "iframe_poster": null,
          "release_ru": "2018-03-07",
          "release_world": "2018-03-06",
          "availability": "2018-03-08",
          "voiceActing": [
            "Ozz",
            "Eng.Original"
          ],
          "ads": false,
          "subtitle": []
        },
        {
          "episode": 8,
          "name": "Lucky Chang's",
          "iframe_url": "",
          "iframe_poster": null,
          "release_ru": "2018-03-14",
          "release_world": "2018-03-13",
          "availability": "2018-03-15",
          "voiceActing": [
            "Ozz",
            "Eng.Original"
          ],
          "ads": false,
          "subtitle": []
        },
        {
          "episode": 9,
          "name": "Little Orphan Garfield",
          "iframe_url": "",
          "iframe_poster": null,
          "release_ru": "2018-03-14",
          "release_world": "2018-03-13",
          "availability": "2018-03-15",
          "voiceActing": [
            "Ozz",
            "Eng.Original"
          ],
          "ads": false,
          "subtitle": []
        },
        {
          "episode": 10,
          "name": "Commodore Returns",
          "iframe_url": "",
          "iframe_poster": null,
          "release_ru": "2018-03-21",
          "release_world": "2018-03-20",
          "availability": "2018-03-22",
          "voiceActing": [
            "Ozz",
            "Eng.Original"
          ],
          "ads": false,
          "subtitle": []
        },
        {
          "episode": 11,
          "name": "President Bellacourt",
          "iframe_url": "",
          "iframe_poster": null,
          "release_ru": "2018-03-21",
          "release_world": "2018-03-20",
          "availability": "2018-03-22",
          "voiceActing": [
            "Ozz",
            "Eng.Original"
          ],
          "ads": false,
          "subtitle": []
        }
      ]
    }
  ],
  "voiceActing": [
    "Ozz",
    "Eng.Original"
  ],
  "subtitle": [],
  "parts": []
}
