{
  "id": 12553,
  "name": "Решение сердца",
  "name_eng": "Ruling of the Heart",
  "year": 2018,
  "slogan": "—",
  "age": null,
  "type": "film",
  "quality": "HD (720p)",
  "imdb": "7.1",
  "imdb_id": "8042598",
  "kinopoisk": null,
  "kinopoisk_id": "1157485",
  "world_art": null,
  "world_art_id": null,
  "time": "85 мин. / 01:25",
  "ads": true,
  "premier": "2018-03-02",
  "premier_rus": null,
  "availability": null,
  "activate_time": "2019-11-18 17:52:00",
  "budget": "",
  "fees_use": "",
  "fees_world": "",
  "fees_rus": "",
  "rate_mpaa": "",
  "description": "Несколько человек застревают в кафе во время снежной бури. Среди них строгий судья и двое несчастных, которые тщетно искали у него справедливости. По мере того, как они знакомятся и ближе узнают друг друга, они понимают, что правда не всегда то, что лежит на поверхности.",
  "iframe_url": "",
  "iframe_poster": null,
  "poster": "https://img.imgilall.me/movies/franchise/1/2/5/5/3/0/0/0/0/0/610x900_12553.jpg",
  "country": {
    "1": "США"
  },
  "collection": [],
  "genre": {
    "7": "Драма"
  },
  "director": [
    "Брайан Бру"
  ],
  "screenwriter": [
    "Spanky Dustin Ward"
  ],
  "producer": [
    "Брайан Бру",
    "Бриттани Бру Уискомб"
  ],
  "operator": [
    "Брайан Бру"
  ],
  "composer": [
    "Джеймс Шафер"
  ],
  "design": [],
  "editor": [],
  "actors": [
    "Рэндолл Малин",
    "Роберт Милош Эндрус",
    "Bailey Heesch",
    "Джилл Адлер",
    "Кейт Аллен",
    "Чарла Кохрэн",
    "Деметриус Дэниелс",
    "Bryce Fernelius",
    "Кит Хоттингер",
    "Шона Кэй"
  ],
  "actors_dubl": [],
  "trivia": [],
  "trailers": [],
  "seasons": [],
  "voiceActing": [
    "Рус. Люб. многоголосый"
  ],
  "subtitle": [],
  "parts": []
}
