{
  "id": 12600,
  "name": "Проверка на дорогах",
  "name_eng": "",
  "year": 1986,
  "slogan": "—",
  "age": "16+",
  "type": "film",
  "quality": "HD (720p)",
  "imdb": "7.9",
  "imdb_id": "0067625",
  "kinopoisk": "8.0",
  "kinopoisk_id": "43332",
  "world_art": null,
  "world_art_id": null,
  "time": "97 мин. / 01:37",
  "ads": false,
  "premier": "1986-11-06",
  "premier_rus": null,
  "availability": null,
  "activate_time": "2019-11-18 11:27:00",
  "budget": null,
  "fees_use": null,
  "fees_world": null,
  "fees_rus": null,
  "rate_mpaa": null,
  "description": "Зима 1942 года. В одной из северо-западных областей России, оккупированной фашистами, действует партизанский отряд лейтенанта Ивана Локоткова, в прошлом - сельского милиционера. Отряд кормить нечем: в округе - одни сожженные деревни и каратели.Командир принимает решение захватить фашистский эшелон с продовольствием на узловой станции, где охраняется каждый метр. Провести операцию берется раскаявшийся полицай Лазарев, которого немцы знают в лицо. Но можно ли ему довериться?..",
  "iframe_url": "",
  "iframe_poster": null,
  "poster": "https://img.imgilall.me/movies/franchise/1/2/6/0/0/0/0/0/0/0/610x900_12600.jpg",
  "country": {
    "24": "СССР"
  },
  "collection": [],
  "genre": {
    "32": "Военный",
    "22": "Русский",
    "7": "Драма"
  },
  "director": [
    "Алексей Герман"
  ],
  "screenwriter": [
    "Эдуард Володарский",
    "Юрий Герман"
  ],
  "producer": [],
  "operator": [
    "Яков Склянский"
  ],
  "composer": [
    "Исаак Шварц"
  ],
  "design": [
    "Валерий Юркевич"
  ],
  "editor": [
    "Анна Бабушкина"
  ],
  "actors": [
    "Ролан Быков",
    "Анатолий Солоницын",
    "Владимир Заманский",
    "Олег Борисов",
    "Федор Одиноков",
    "Геннадий Дюдяев",
    "Майя Булгакова",
    "Николай Бурляев",
    "Виктор Павлов",
    "Юрий Дубровин"
  ],
  "actors_dubl": [],
  "trivia": [
    "Фильм снят по повести Юрия Германа «Операция „С Новым годом!“».",
    "Первоначально фильм был снят под названием «Операция «С Новым годом»».",
    "Выпущен на экран только в 1986 году под названием «Проверка на дорогах».",
    "Председатель Госкино СССР Алексей Романов усмотрел в фильме нападки на лучшие образцы советского искусства, посвящённого ВОВ, и позаботился о том, чтобы лента не увидела свет. В результате фильм положили «на полку» на 15 лет.",
    "На роль Локоткова пробовались Михаил Ульянов, Евгений Евстигнеев, Алексей Глазырин.",
    "Первоначально в роли Лазарева должен был сниматься Владимир Высоцкий.",
    "На роль Петушкова пробовался Михаил Глузский, но потом он отказался от роли, о чём в последствии сожалел.",
    "Натурные съёмки картины проводились близ Волги, в Тверской (тогда Калининской) области. Эпизоды на станции Карнаухово снимались в Бологом на путях парка Медведево.",
    "При воссоздании исторической картины партизанской жизни создателей фильма консультировал Герой Советского Союза Никифоров. По его словам, власовцев уверяли, что Советский Союз примет и простит их, но все случилось наоборот. Когда они отвоевали в Красной Армии, после войны их посадили в тюрьму.",
    "После успеха «Мой друг Иван Лапшин», «>Проверка на дорогах» была тепло принята и телезрителями и кинокритиками: в 1985 году, среди лучших фильмов года картина заняла 3-е место, Ролан Быков занял 2-е место среди лучших актёров 1986 года, а в 1988 году создатели фильма получили Госпремию СССР.",
    "Картина была обвинена в дегероизации народного сопротивления врагу во время ВОВ, главный конфликт был назван фальшивым, а режиссёр был уличен в незнании реалий партизанской жизни. Сам Герман считал, что причиной запрета стала показанная в фильме жалость к людям, сдавшимся в плен.",
    "В финальной сцене Лазарев ведёт огонь из 7,62-мм пулемёта Калашникова, «загримированного» под Maschinengewehr MG 42. Когда он раненый спускается с вышки, из его рук на снег выпадает раскалённый MG 42."
  ],
  "trailers": [],
  "seasons": [],
  "voiceActing": [
    "Рус. Оригинальный"
  ],
  "subtitle": [],
  "parts": []
}
