{
  "id": 12710,
  "name": "Любовь напрокат",
  "name_eng": "",
  "year": 2015,
  "slogan": "—",
  "age": "16+",
  "type": "film",
  "quality": "HD (720p)",
  "imdb": null,
  "imdb_id": null,
  "kinopoisk": "6.5",
  "kinopoisk_id": "838285",
  "world_art": null,
  "world_art_id": null,
  "time": "100 мин. / 01:40",
  "ads": false,
  "premier": null,
  "premier_rus": "2015-04-05",
  "availability": null,
  "activate_time": "2019-11-28 09:37:00",
  "budget": null,
  "fees_use": null,
  "fees_world": null,
  "fees_rus": null,
  "rate_mpaa": null,
  "description": "К преуспевающему бизнесмену Александру приезжает богатая родственница из Америки. 15 лет назад она дала ему начальный капитал  и теперь хочет посмотреть, как он им распорядился, а также познакомиться с его семьей. Но проблема в том, что семьи у Александра нет: он ее выдумал, чтобы произвести хорошее впечатление на тетю. Если обман откроется, Александр может лишиться своего бизнеса и наследства. Друг Борис предлагает неожиданный выход: взять напрокат его семью…",
  "iframe_url": "",
  "iframe_poster": null,
  "poster": "https://img.imgilall.me/movies/franchise/1/2/7/1/0/0/0/0/0/0/610x900_12710.jpg",
  "country": {
    "5": "Россия"
  },
  "collection": [],
  "genre": {
    "19": "Комедия",
    "8": "Мелодрама"
  },
  "director": [
    "Вазген Каграманян"
  ],
  "screenwriter": [
    "Наталия Лутчин",
    "Дмитрий Пуркин"
  ],
  "producer": [
    "Анастасия Кавуновская",
    "Александр Плотников",
    "Андрей Кретов"
  ],
  "operator": [
    "Кирилл Сперанский"
  ],
  "composer": [
    "Грант Каграманян"
  ],
  "design": [],
  "editor": [],
  "actors": [
    "Елена Подкаминская",
    "Дмитрий Миллер",
    "Елена Валюшкина",
    "Грант Каграманян",
    "Иван Шмаков",
    "Евгения Соляных",
    "Михаил Полицеймако",
    "Алина Ольшанская",
    "Анжела Белянская",
    "Екатерина Рокотова"
  ],
  "actors_dubl": [],
  "trivia": [],
  "trailers": [],
  "seasons": [],
  "voiceActing": [
    "Рус. Оригинальный"
  ],
  "subtitle": [],
  "parts": []
}
