{
  "id": 1284,
  "name": "Доброе утро",
  "name_eng": "Morning Glory",
  "year": 2010,
  "slogan": "«Романтическая комедия о карьере... и не только о ней»",
  "age": "16+",
  "type": "film",
  "quality": "FHD (1080p)",
  "imdb": "6.5",
  "imdb_id": "1126618",
  "kinopoisk": "7.1",
  "kinopoisk_id": "437040",
  "world_art": null,
  "world_art_id": null,
  "time": "102 мин. / 01:42",
  "ads": false,
  "premier": "2010-11-10",
  "premier_rus": "2011-01-13",
  "availability": null,
  "activate_time": "2018-07-10 14:25:14",
  "budget": "$40 000 000",
  "fees_use": "$31 011 732",
  "fees_world": "+ $29 029 244 = $60 040 976",
  "fees_rus": "$3 148 093",
  "rate_mpaa": "PG-13",
  "description": "Когда неутомимого телепродюсера Бекки Фулер увольняют с программы местных новостей, ее карьера становится столь же безнадежной, как и ее личная жизнь. Устроившись в третьесортное утреннее шоу, Бекки решает реанимировать его, пригласив легендарного ведущего Майка Помероя. К сожалению, Майк отказывается рассказывать о моде, погоде и сплетничать о знаменитостях. Это делает его соведущая Колин Пек, бывшая королева красоты и героиня утренних программ, которая в восторге от возможности поделиться с миром свежими «новостями». По мере того, как ведущие вступают в войну сначала за кадром, а потом и в эфире, в жизнь Бекки входит любовь к коллеге по цеху Адаму Беннету. И вот уже Бекки борется за свои отношения, репутацию, работу и, естественно, за судьбу шоу.",
  "iframe_url": "",
  "iframe_poster": null,
  "poster": "https://img.imgilall.me/movies/franchise/1/2/8/4/0/0/0/0/0/0/610x900_1284.jpg",
  "country": {
    "1": "США"
  },
  "collection": [],
  "genre": {
    "19": "Комедия",
    "10": "Зарубежный",
    "8": "Мелодрама",
    "7": "Драма"
  },
  "director": [
    "Роджер Мишелл"
  ],
  "screenwriter": [
    "Алин Брош МакКенна"
  ],
  "producer": [
    "Джей Джей Абрамс",
    "Брайан Берк",
    "Шеррил Кларк"
  ],
  "operator": [
    "Альвин Х. Кюхлер"
  ],
  "composer": [
    "Дэвид Арнольд"
  ],
  "design": [
    "Марк Фридберг",
    "Алекс ДиДжерландо",
    "Ким Дженнингс"
  ],
  "editor": [
    "Дэн Фаррелл",
    "Ник Мур",
    "Стивен Вайсберг"
  ],
  "actors": [
    "Рэйчел МакАдамс",
    "Харрисон Форд",
    "Дайан Китон",
    "Патрик Уилсон",
    "Джон Пэнкоу",
    "Мэтт Мэллой",
    "Джефф Голдблюм",
    "Дж. Элейн Маркос",
    "Патти Д’Арбанвиль",
    "Линда Пауэлл"
  ],
  "actors_dubl": [
    "Татьяна Шитова",
    "Владимир Антоник",
    "Ирина Пономарева",
    "Ирина Муромцева",
    "Сергей Быстрицкий"
  ],
  "trivia": [
    "Многие новостные передачи в фильме взяты из эфира в период наводнения в штате Айова летом 2008 года. В одном из репортажей упоминается Сидар-Рапидс, где под воду ушло 400 кварталов.",
    "Для российского кинопроката несколько ключевых ролей дублировали телеведущие утреннего блока телеканала «Россия-1» — Ирина Муромцева, Андрей Петров, Владислав Завьялов и Анастасия Чернобровина.\nИх голоса можно было услышать только в кино: при выходе фильма на DVD и Blu-Ray зритель слышал голоса уже других артистов.",
    "Вымышленную информационную студию IBS снимали в реально существующей студии по адресу Нью-Йорк, Авеню Америк, 1114."
  ],
  "trailers": [],
  "seasons": [],
  "voiceActing": [
    "Рус. Дублированный",
    "Eng.Original"
  ],
  "subtitle": [
    "Рус. форсированные"
  ],
  "parts": []
}
