{
  "id": 12872,
  "name": "Болтун",
  "name_eng": "Blurt",
  "year": 2018,
  "slogan": "—",
  "age": null,
  "type": "film",
  "quality": "HD (720p)",
  "imdb": "5.9",
  "imdb_id": "6948600",
  "kinopoisk": "6.0",
  "kinopoisk_id": "1062702",
  "world_art": null,
  "world_art_id": null,
  "time": "44 мин.",
  "ads": true,
  "premier": "2018-02-19",
  "premier_rus": "2018-06-02",
  "availability": null,
  "activate_time": "2019-11-26 14:03:00",
  "budget": "$3 000 000",
  "fees_use": null,
  "fees_world": null,
  "fees_rus": null,
  "rate_mpaa": null,
  "description": "Норман живет в небольшом городке. Он ходит в школу, развлекается со своими друзьями, флиртует с девушками и просто зависает в компьютерных видеоиграх. Однажды он играет в виртуальную игру с помощью специальных очков, которые странное действуют на него: теперь парень может говорить только правду.",
  "iframe_url": "",
  "iframe_poster": null,
  "poster": "https://img.imgilall.me/movies/franchise/1/2/8/7/2/0/0/0/0/0/610x900_12872.jpg",
  "country": {
    "1": "США"
  },
  "collection": [],
  "genre": {
    "33": "Семейный"
  },
  "director": [
    "Мишель Джонстон"
  ],
  "screenwriter": [
    "Адриан Вина"
  ],
  "producer": [
    "Эми Сидорик",
    "Скотт МакЭбой",
    "Джейс Норман"
  ],
  "operator": [
    "Кори Робсон"
  ],
  "composer": [
    "Зак Райан"
  ],
  "design": [
    "Laura Oliva",
    "Камилль Куинтон",
    "Эллен Андерсон"
  ],
  "editor": [
    "Дэймон Фехт"
  ],
  "actors": [
    "Джейс Норман",
    "ДжоДжо Сива",
    "Даниэлла Перкинс",
    "Джеймс Риттингер",
    "Лилиан Дусе-Рош",
    "Ализа Веллани",
    "Скотт Пате",
    "Синтия Мендес",
    "Эндрю МакНи",
    "Стэйси Бендфельт"
  ],
  "actors_dubl": [
    "Тихон Бузников",
    "Анна Драгилева",
    "Ева Финкельштейн",
    "Александр Зачиняев",
    "Лина Иванова"
  ],
  "trivia": [],
  "trailers": [],
  "seasons": [],
  "voiceActing": [
    "Рус. Люб. двухголосый"
  ],
  "subtitle": [],
  "parts": []
}
