{
  "id": 12880,
  "name": "Идеальный незнакомец",
  "name_eng": "Perfect Stranger",
  "year": 2007,
  "slogan": "«Как далеко ты способен зайти?»",
  "age": "16+",
  "type": "film",
  "quality": "HD (720p)",
  "imdb": "5.7",
  "imdb_id": "0457433",
  "kinopoisk": "6.9",
  "kinopoisk_id": "104924",
  "world_art": null,
  "world_art_id": null,
  "time": "109 мин. / 01:49",
  "ads": false,
  "premier": "2007-04-10",
  "premier_rus": "2007-04-19",
  "availability": null,
  "activate_time": "2019-11-25 12:18:00",
  "budget": "$60 795 000",
  "fees_use": "$23 984 949",
  "fees_world": "+ $49 105 662 = $73 090 611",
  "fees_rus": "$3 790 024",
  "rate_mpaa": "R",
  "description": "Когда журналистка Ровена Прайс, занимающаяся расследованием убийства своей подруги, узнает, что к нему может быть причастен влиятельный глава рекламного агентства Харрисон Хилл, она затевает опасную игру вместе со своим помощником Майлзом Хэйли. Принимая образы Катарины, машинистки в агентстве Хилла, и Вероники, девушки, с которой Хилл флиртует в Интернете, она плетет хитроумную паутину вокруг своей жертвы, чтобы, в конечном счете, выяснить, что она не единственная, кто меняет свои личины. Чем ближе мы приближаемся к разгадке тайны, тем очевиднее ответ на вопрос, как далеко люди готовы идти, чтобы защитить ее: сокровенную тайну.",
  "iframe_url": "",
  "iframe_poster": null,
  "poster": "https://img.imgilall.me/movies/franchise/1/2/8/8/0/0/0/0/0/0/610x900_12880.jpg",
  "country": {
    "1": "США"
  },
  "collection": [],
  "genre": {
    "25": "Криминал",
    "26": "Ужасы",
    "24": "Детектив",
    "13": "Триллер",
    "7": "Драма"
  },
  "director": [
    "Джеймс Фоули"
  ],
  "screenwriter": [
    "Тодд Комарники",
    "Джон Бокенкамп"
  ],
  "producer": [
    "Элейн Голдсмит-Томас",
    "Рональд М. Бозман",
    "Стивен Дж. Идс"
  ],
  "operator": [
    "Анастас Н. Микос"
  ],
  "composer": [
    "Антонио Пинто"
  ],
  "design": [
    "Билл Грум",
    "Чарли Бил",
    "Рени Эрлих Калфус"
  ],
  "editor": [
    "Кристофер Теллефсен"
  ],
  "actors": [
    "Холли Берри",
    "Брюс Уиллис",
    "Джованни Рибизи",
    "Ричард Портноу",
    "Гари Дурдан",
    "Флоренция Лозаньо",
    "Никки Эйкокс",
    "Кэтлин Чэлфант",
    "Гордон МакДональд",
    "Дэниэлла Ван Граас"
  ],
  "actors_dubl": [
    "Светлана Кузнецова",
    "Валерий Кухарешин",
    "Андрей Кузнецов",
    "Виктор Костецкий",
    "Вадим Яковлев"
  ],
  "trivia": [
    "Съемки картины начались 31 января 2006 года.",
    "Было снято три разных концовки фильма, в каждой из которых убийцами оказывались разные люди.",
    "Это первая картина, снятая на ground zero — месте, на котором находились башни-близнецы.",
    "В оригинале слоган картины гласит: «Насколько далеко ты зайдешь, чтобы сохранить тайну?».",
    "Фильм буквально напичкан product placement — Reebok, Heineken и Victoria`s Secret.",
    "Изначально местом действия был выбран Новый Орлеан, но из-за последствий урагана Катрина съемки перенесли в Нью-Йорк."
  ],
  "trailers": [],
  "seasons": [],
  "voiceActing": [
    "Рус. Дублированный",
    "Eng.Original"
  ],
  "subtitle": [],
  "parts": []
}
