{
  "id": 12952,
  "name": "Лютый",
  "name_eng": "",
  "year": 2013,
  "slogan": "«Это мой город»",
  "age": "12+",
  "type": "series",
  "quality": "SD",
  "imdb": "6.6",
  "imdb_id": "3739204",
  "kinopoisk": "6.3",
  "kinopoisk_id": "811371",
  "world_art": null,
  "world_art_id": null,
  "time": "47 мин. серия (376 мин. всего)",
  "ads": false,
  "premier": "2013-11-29",
  "premier_rus": "2013-11-29",
  "availability": null,
  "serial_status": "offline",
  "activate_time": "2019-12-06 10:42:00",
  "budget": null,
  "fees_use": null,
  "fees_world": null,
  "fees_rus": null,
  "rate_mpaa": null,
  "description": "Главного героя, полицейского Максима Лютова, долго считали убитым. Когда он возвращается к работе в полиции и становится новым начальником убойного отдела, у многих коллег это вызывает шок. Старые знакомые смотрят на него как на ожившего покойника. Новые сотрудники отделения с трудом воспринимают его своеобразные манеры и внешний вид. Лютов груб, странно выглядит, странно шутит, и методы работы у него странные. Лютов полицейский, но часто выглядит и ведет себя как преступник. Он чтит закон, хотя не всегда действует законными методами. В прошлом у Лютова много тайн, которые зритель будет узнавать постепенно. По ходу действия зритель узнает, что у Лютова погибла семья, и теперь у него в жизни нет ничего, кроме работы. Что в гибели семьи Лютов винит своего коллегу Виктора Маркина, когда-то бывшего его лучшим другом. Что Лютов живучий, хотя многие пытались его убить. Что он никогда не сдает своих. В каждой серии Лютов и его коллеги заняты обычной полицейской работой: расследуют преступления, допрашивают свидетелей, ищут улики, анализируют информацию, – и в результате ловят убийц, похитителей, террористов и маньяков.",
  "iframe_url": "",
  "poster": "https://img.imgilall.me/movies/franchise/1/2/9/5/2/0/0/0/0/0/610x900_12952.jpg",
  "country": {
    "5": "Россия"
  },
  "collection": [],
  "genre": {
    "25": "Криминал",
    "22": "Русский",
    "17": "Боевик"
  },
  "director": [
    "Станислав Мареев"
  ],
  "screenwriter": [
    "Сергей Юдаков",
    "Алексей Гравицкий"
  ],
  "producer": [
    "Давид Дишдишян",
    "Алексей Моисеев",
    "Олег Пиганов"
  ],
  "operator": [
    "Александр Гусев"
  ],
  "composer": [
    "Алексей Карпов"
  ],
  "design": [
    "Владимир Трапезников"
  ],
  "editor": [],
  "actors": [
    "Владимир Епифанцев",
    "Ирина Апексимова",
    "Елена Панова",
    "Михаил Трухин",
    "Андрей Лавров",
    "Дарья Мельникова",
    "Сергей Годин",
    "Олег Алмазов",
    "Максим Стоялов",
    "Алексей Овсянников"
  ],
  "actors_dubl": [],
  "trivia": [],
  "trailers": [],
  "seasons": [
    {
      "poster": null,
      "release_ru": "2013-11-30",
      "release_world": "2013-11-29",
      "availability": "2013-12-01",
      "iframe_url": "",
      "season": 1,
      "episodes": [
        {
          "episode": 1,
          "name": null,
          "iframe_url": "",
          "iframe_poster": null,
          "release_ru": "2013-11-30",
          "release_world": "2013-11-29",
          "availability": "2013-12-01",
          "voiceActing": [
            "Рус. Оригинальный"
          ],
          "ads": false,
          "subtitle": []
        },
        {
          "episode": 2,
          "name": null,
          "iframe_url": "",
          "iframe_poster": null,
          "release_ru": "2013-11-30",
          "release_world": "2013-11-29",
          "availability": "2013-12-01",
          "voiceActing": [
            "Рус. Оригинальный"
          ],
          "ads": false,
          "subtitle": []
        },
        {
          "episode": 3,
          "name": null,
          "iframe_url": "",
          "iframe_poster": null,
          "release_ru": "2013-11-30",
          "release_world": "2013-11-29",
          "availability": "2013-12-01",
          "voiceActing": [
            "Рус. Оригинальный"
          ],
          "ads": false,
          "subtitle": []
        },
        {
          "episode": 4,
          "name": null,
          "iframe_url": "",
          "iframe_poster": null,
          "release_ru": "2013-11-30",
          "release_world": "2013-11-29",
          "availability": "2013-12-01",
          "voiceActing": [
            "Рус. Оригинальный"
          ],
          "ads": false,
          "subtitle": []
        },
        {
          "episode": 5,
          "name": null,
          "iframe_url": "",
          "iframe_poster": null,
          "release_ru": "2013-12-01",
          "release_world": "2013-11-30",
          "availability": "2013-12-02",
          "voiceActing": [
            "Рус. Оригинальный"
          ],
          "ads": false,
          "subtitle": []
        },
        {
          "episode": 6,
          "name": null,
          "iframe_url": "",
          "iframe_poster": null,
          "release_ru": "2013-12-01",
          "release_world": "2013-11-30",
          "availability": "2013-12-02",
          "voiceActing": [
            "Рус. Оригинальный"
          ],
          "ads": false,
          "subtitle": []
        },
        {
          "episode": 7,
          "name": null,
          "iframe_url": "",
          "iframe_poster": null,
          "release_ru": "2013-12-01",
          "release_world": "2013-11-30",
          "availability": "2013-12-02",
          "voiceActing": [
            "Рус. Оригинальный"
          ],
          "ads": false,
          "subtitle": []
        },
        {
          "episode": 8,
          "name": null,
          "iframe_url": "",
          "iframe_poster": null,
          "release_ru": "2013-12-01",
          "release_world": "2013-11-30",
          "availability": "2013-12-02",
          "voiceActing": [
            "Рус. Оригинальный"
          ],
          "ads": false,
          "subtitle": []
        }
      ]
    },
    {
      "poster": null,
      "release_ru": "2018-12-07",
      "release_world": "2018-12-06",
      "availability": "2018-12-08",
      "iframe_url": "",
      "season": 2,
      "episodes": [
        {
          "episode": 1,
          "name": null,
          "iframe_url": "",
          "iframe_poster": null,
          "release_ru": null,
          "release_world": null,
          "availability": null,
          "voiceActing": [
            "Рус. Оригинальный"
          ],
          "ads": false,
          "subtitle": []
        },
        {
          "episode": 2,
          "name": null,
          "iframe_url": "",
          "iframe_poster": null,
          "release_ru": null,
          "release_world": null,
          "availability": null,
          "voiceActing": [
            "Рус. Оригинальный"
          ],
          "ads": false,
          "subtitle": []
        },
        {
          "episode": 3,
          "name": null,
          "iframe_url": "",
          "iframe_poster": null,
          "release_ru": null,
          "release_world": null,
          "availability": null,
          "voiceActing": [
            "Рус. Оригинальный"
          ],
          "ads": false,
          "subtitle": []
        },
        {
          "episode": 4,
          "name": null,
          "iframe_url": "",
          "iframe_poster": null,
          "release_ru": null,
          "release_world": null,
          "availability": null,
          "voiceActing": [
            "Рус. Оригинальный"
          ],
          "ads": false,
          "subtitle": []
        },
        {
          "episode": 12,
          "name": null,
          "iframe_url": null,
          "iframe_poster": null,
          "release_ru": "2018-12-28",
          "release_world": "2018-12-27",
          "availability": "2018-12-29",
          "voiceActing": []
        }
      ]
    }
  ],
  "voiceActing": [
    "Рус. Оригинальный"
  ],
  "subtitle": [],
  "parts": []
}
