{
  "id": 13158,
  "name": "Меня зовут Эрл",
  "name_eng": "My Name Is Earl",
  "year": 2005,
  "slogan": "«Karma is a funny thing»",
  "age": "16+",
  "type": "series",
  "quality": "HD (720p)",
  "imdb": "7.7",
  "imdb_id": "0460091",
  "kinopoisk": "7.8",
  "kinopoisk_id": "259849",
  "world_art": null,
  "world_art_id": null,
  "time": "22 мин",
  "ads": false,
  "premier": "2005-09-20",
  "premier_rus": null,
  "availability": null,
  "serial_status": "offline",
  "activate_time": "2019-12-13 14:50:00",
  "budget": null,
  "fees_use": null,
  "fees_world": null,
  "fees_rus": null,
  "rate_mpaa": null,
  "description": "Жизнь Эрла, мелкого проходимца районного масштаба, полна ошибок и неправильных решений. Сразу после выигрыша джек-пота в небольшой лотерее, его сбивает машина, и он теряет выигравший билет. В больнице на него снисходит озарение: все дело в карме, и неприятности преследуют его потому, что он сам нескончаемый источник неприятностей для окружающих.Герой решает круто изменить свою судьбу. Он хочет исправить все неправильное, что он сделал со времен своих причуд в начальной школе, когда изощренно измывался над одноклассниками и тащил все, что попадалось под руку. С этой целью он составляет подробный список своих разнокалиберных проказ и преисполняется решимости разыскать всех, кому он когда-либо сделал недоброе и компенсировать зло, чего бы это ни ему, ни когда-то от него потерпевшим ни стоило.",
  "iframe_url": "",
  "poster": "https://img.imgilall.me/movies/franchise/1/3/1/5/8/0/0/0/0/0/610x900_13158.jpg",
  "country": {
    "1": "США"
  },
  "collection": [],
  "genre": {
    "19": "Комедия",
    "10": "Зарубежный"
  },
  "director": [
    "Марк Баклэнд",
    "Эял Гордин",
    "Майкл Фреско"
  ],
  "screenwriter": [
    "Грегори Томас Гарсиа",
    "Джон Хоберг",
    "Кэт Ликкел"
  ],
  "producer": [
    "Виктор Фреско",
    "Грегори Томас Гарсиа",
    "Джейсон Ли"
  ],
  "operator": [
    "Эял Гордин",
    "Майкл Гои",
    "Уолт Фрайзер"
  ],
  "composer": [
    "Дэнни Люкс",
    "Марк Леггетт"
  ],
  "design": [
    "Рэнди Сер",
    "Грегори Мелтон",
    "Джон Захари"
  ],
  "editor": [
    "Уильям Мэрринсон",
    "Лэнс Лакки",
    "Патрик Маджи"
  ],
  "actors": [
    "Джейсон Ли",
    "Итан Сапли",
    "Джейми Прессли",
    "Эдди Стиплз",
    "Надин Веласкес",
    "Луис Т. Мойл",
    "Трей Карлайл",
    "Ной Кроуфорд",
    "Дейл Дикки",
    "Грегг Бинкли"
  ],
  "actors_dubl": [
    "Пётр Иващенко",
    "Михаил Георгиу",
    "Всеволод Кузнецов",
    "Людмила Шувалова",
    "Михаил Тихонов"
  ],
  "trivia": [
    "В одной из серий роль отца Дарнела исполнил Дэнни Гловер, в момент воссоединения с сыном он говорит: «Черт, я слишком стар для всего этого!» Эта фраза является коронной для другого персонажа Гловера - офицера Мюрто из эпопеи «Смертельное оружие».",
    "Фамилия Эрла — Хикки (англ. Hickey) — на сленге означает «штучка, хреновина, фигулина»."
  ],
  "trailers": [],
  "seasons": [
    {
      "poster": null,
      "release_ru": "2005-09-21",
      "release_world": "2005-09-20",
      "availability": "2005-09-22",
      "iframe_url": "",
      "season": 1,
      "episodes": [
        {
          "episode": 1,
          "name": "Pilot",
          "iframe_url": "",
          "iframe_poster": null,
          "release_ru": "2005-09-21",
          "release_world": "2005-09-20",
          "availability": "2005-09-22",
          "voiceActing": [
            "Рен-ТВ",
            "Eng.Original"
          ],
          "ads": false,
          "subtitle": []
        },
        {
          "episode": 2,
          "name": "Quit Smoking",
          "iframe_url": "",
          "iframe_poster": null,
          "release_ru": "2005-09-28",
          "release_world": "2005-09-27",
          "availability": "2005-09-29",
          "voiceActing": [
            "Рен-ТВ",
            "Eng.Original"
          ],
          "ads": false,
          "subtitle": []
        },
        {
          "episode": 3,
          "name": "Randy's Touchdown",
          "iframe_url": "",
          "iframe_poster": null,
          "release_ru": "2005-10-05",
          "release_world": "2005-10-04",
          "availability": "2005-10-06",
          "voiceActing": [
            "Рен-ТВ",
            "Eng.Original"
          ],
          "ads": false,
          "subtitle": []
        },
        {
          "episode": 4,
          "name": "Faked My Own Death",
          "iframe_url": "",
          "iframe_poster": null,
          "release_ru": "2005-10-12",
          "release_world": "2005-10-11",
          "availability": "2005-10-13",
          "voiceActing": [
            "Рен-ТВ",
            "Eng.Original"
          ],
          "ads": false,
          "subtitle": []
        },
        {
          "episode": 5,
          "name": "Teacher Earl",
          "iframe_url": "",
          "iframe_poster": null,
          "release_ru": "2005-10-19",
          "release_world": "2005-10-18",
          "availability": "2005-10-20",
          "voiceActing": [
            "Рен-ТВ",
            "Eng.Original"
          ],
          "ads": false,
          "subtitle": []
        },
        {
          "episode": 6,
          "name": "Broke Joy's Fancy Figurine",
          "iframe_url": "",
          "iframe_poster": null,
          "release_ru": "2005-11-02",
          "release_world": "2005-11-01",
          "availability": "2005-11-03",
          "voiceActing": [
            "Рен-ТВ",
            "Eng.Original"
          ],
          "ads": false,
          "subtitle": []
        },
        {
          "episode": 7,
          "name": "Stole Beer from a Golfer",
          "iframe_url": "",
          "iframe_poster": null,
          "release_ru": "2005-11-09",
          "release_world": "2005-11-08",
          "availability": "2005-11-10",
          "voiceActing": [
            "Рен-ТВ",
            "Eng.Original"
          ],
          "ads": false,
          "subtitle": []
        },
        {
          "episode": 8,
          "name": "Joy's Wedding",
          "iframe_url": "",
          "iframe_poster": null,
          "release_ru": "2005-11-16",
          "release_world": "2005-11-15",
          "availability": "2005-11-17",
          "voiceActing": [
            "Рен-ТВ",
            "Eng.Original"
          ],
          "ads": false,
          "subtitle": []
        },
        {
          "episode": 9,
          "name": "Cost Dad the Election",
          "iframe_url": "",
          "iframe_poster": null,
          "release_ru": "2005-11-23",
          "release_world": "2005-11-22",
          "availability": "2005-11-24",
          "voiceActing": [
            "Рен-ТВ",
            "Eng.Original"
          ],
          "ads": false,
          "subtitle": []
        },
        {
          "episode": 10,
          "name": "White Lie Christmas",
          "iframe_url": "",
          "iframe_poster": null,
          "release_ru": "2005-12-07",
          "release_world": "2005-12-06",
          "availability": "2005-12-08",
          "voiceActing": [
            "Рен-ТВ",
            "Eng.Original"
          ],
          "ads": false,
          "subtitle": []
        },
        {
          "episode": 11,
          "name": "Barn Burner",
          "iframe_url": "",
          "iframe_poster": null,
          "release_ru": "2006-01-06",
          "release_world": "2006-01-05",
          "availability": "2006-01-07",
          "voiceActing": [
            "Рен-ТВ",
            "Eng.Original"
          ],
          "ads": false,
          "subtitle": []
        },
        {
          "episode": 12,
          "name": "O Karma, Where Art Thou?",
          "iframe_url": "",
          "iframe_poster": null,
          "release_ru": "2006-01-13",
          "release_world": "2006-01-12",
          "availability": "2006-01-14",
          "voiceActing": [
            "Рен-ТВ",
            "Eng.Original"
          ],
          "ads": false,
          "subtitle": []
        },
        {
          "episode": 13,
          "name": "Stole P's HD Cart",
          "iframe_url": "",
          "iframe_poster": null,
          "release_ru": "2006-01-20",
          "release_world": "2006-01-19",
          "availability": "2006-01-21",
          "voiceActing": [
            "Рен-ТВ",
            "Eng.Original"
          ],
          "ads": false,
          "subtitle": []
        },
        {
          "episode": 14,
          "name": "Monkeys in Space",
          "iframe_url": "",
          "iframe_poster": null,
          "release_ru": "2006-01-27",
          "release_world": "2006-01-26",
          "availability": "2006-01-28",
          "voiceActing": [
            "Рен-ТВ",
            "Eng.Original"
          ],
          "ads": false,
          "subtitle": []
        },
        {
          "episode": 15,
          "name": "Something to Live For",
          "iframe_url": "",
          "iframe_poster": null,
          "release_ru": "2006-02-03",
          "release_world": "2006-02-02",
          "availability": "2006-02-04",
          "voiceActing": [
            "Рен-ТВ",
            "Eng.Original"
          ],
          "ads": false,
          "subtitle": []
        },
        {
          "episode": 16,
          "name": "The Professor",
          "iframe_url": "",
          "iframe_poster": null,
          "release_ru": "2006-02-10",
          "release_world": "2006-02-09",
          "availability": "2006-02-11",
          "voiceActing": [
            "Рен-ТВ",
            "Eng.Original"
          ],
          "ads": false,
          "subtitle": []
        },
        {
          "episode": 17,
          "name": "Didn't Pay Taxes",
          "iframe_url": "",
          "iframe_poster": null,
          "release_ru": "2006-03-03",
          "release_world": "2006-03-02",
          "availability": "2006-03-04",
          "voiceActing": [
            "Рен-ТВ",
            "Eng.Original"
          ],
          "ads": false,
          "subtitle": []
        },
        {
          "episode": 18,
          "name": "Dad's Car",
          "iframe_url": "",
          "iframe_poster": null,
          "release_ru": "2006-03-17",
          "release_world": "2006-03-16",
          "availability": "2006-03-18",
          "voiceActing": [
            "Рен-ТВ",
            "Eng.Original"
          ],
          "ads": false,
          "subtitle": []
        },
        {
          "episode": 19,
          "name": "Y2K",
          "iframe_url": "",
          "iframe_poster": null,
          "release_ru": "2006-03-24",
          "release_world": "2006-03-23",
          "availability": "2006-03-25",
          "voiceActing": [
            "Рен-ТВ",
            "Eng.Original"
          ],
          "ads": false,
          "subtitle": []
        },
        {
          "episode": 20,
          "name": "Boogeyman",
          "iframe_url": "",
          "iframe_poster": null,
          "release_ru": "2006-03-31",
          "release_world": "2006-03-30",
          "availability": "2006-04-01",
          "voiceActing": [
            "Рен-ТВ",
            "Eng.Original"
          ],
          "ads": false,
          "subtitle": []
        },
        {
          "episode": 21,
          "name": "The Bounty Hunter",
          "iframe_url": "",
          "iframe_poster": null,
          "release_ru": "2006-04-07",
          "release_world": "2006-04-06",
          "availability": "2006-04-08",
          "voiceActing": [
            "Рен-ТВ",
            "Eng.Original"
          ],
          "ads": false,
          "subtitle": []
        },
        {
          "episode": 22,
          "name": "Stole a Badge",
          "iframe_url": "",
          "iframe_poster": null,
          "release_ru": "2006-04-28",
          "release_world": "2006-04-27",
          "availability": "2006-04-29",
          "voiceActing": [
            "Рен-ТВ",
            "Eng.Original"
          ],
          "ads": false,
          "subtitle": []
        },
        {
          "episode": 23,
          "name": "BB",
          "iframe_url": "",
          "iframe_poster": null,
          "release_ru": "2006-05-05",
          "release_world": "2006-05-04",
          "availability": "2006-05-06",
          "voiceActing": [
            "Рен-ТВ",
            "Eng.Original"
          ],
          "ads": false,
          "subtitle": []
        },
        {
          "episode": 24,
          "name": "Number One",
          "iframe_url": "",
          "iframe_poster": null,
          "release_ru": "2006-05-12",
          "release_world": "2006-05-11",
          "availability": "2006-05-13",
          "voiceActing": [
            "Рен-ТВ",
            "Eng.Original"
          ],
          "ads": false,
          "subtitle": []
        }
      ]
    },
    {
      "poster": null,
      "release_ru": "2006-09-22",
      "release_world": "2006-09-21",
      "availability": "2006-09-23",
      "iframe_url": "",
      "season": 2,
      "episodes": [
        {
          "episode": 1,
          "name": "Very Bad Things",
          "iframe_url": "",
          "iframe_poster": null,
          "release_ru": "2006-09-22",
          "release_world": "2006-09-21",
          "availability": "2006-09-23",
          "voiceActing": [
            "Рен-ТВ",
            "Eng.Original"
          ],
          "ads": false,
          "subtitle": []
        },
        {
          "episode": 2,
          "name": "Jump for Joy",
          "iframe_url": "",
          "iframe_poster": null,
          "release_ru": "2006-09-29",
          "release_world": "2006-09-28",
          "availability": "2006-09-30",
          "voiceActing": [
            "Рен-ТВ",
            "Eng.Original"
          ],
          "ads": false,
          "subtitle": []
        },
        {
          "episode": 3,
          "name": "Sticks & Stones",
          "iframe_url": "",
          "iframe_poster": null,
          "release_ru": "2006-10-06",
          "release_world": "2006-10-05",
          "availability": "2006-10-07",
          "voiceActing": [
            "Рен-ТВ",
            "Eng.Original"
          ],
          "ads": false,
          "subtitle": []
        },
        {
          "episode": 4,
          "name": "Larceny of a Kitty Cat",
          "iframe_url": "",
          "iframe_poster": null,
          "release_ru": "2006-10-13",
          "release_world": "2006-10-12",
          "availability": "2006-10-14",
          "voiceActing": [
            "Рен-ТВ",
            "Eng.Original"
          ],
          "ads": false,
          "subtitle": []
        },
        {
          "episode": 5,
          "name": "Van Hickey",
          "iframe_url": "",
          "iframe_poster": null,
          "release_ru": "2006-10-20",
          "release_world": "2006-10-19",
          "availability": "2006-10-21",
          "voiceActing": [
            "Рен-ТВ",
            "Eng.Original"
          ],
          "ads": false,
          "subtitle": []
        },
        {
          "episode": 6,
          "name": "Made a Lady Think I Was God",
          "iframe_url": "",
          "iframe_poster": null,
          "release_ru": "2006-11-03",
          "release_world": "2006-11-02",
          "availability": "2006-11-04",
          "voiceActing": [
            "Рен-ТВ",
            "Eng.Original"
          ],
          "ads": false,
          "subtitle": []
        },
        {
          "episode": 7,
          "name": "Mailbox",
          "iframe_url": "",
          "iframe_poster": null,
          "release_ru": "2006-11-10",
          "release_world": "2006-11-09",
          "availability": "2006-11-11",
          "voiceActing": [
            "Рен-ТВ",
            "Eng.Original"
          ],
          "ads": false,
          "subtitle": []
        },
        {
          "episode": 8,
          "name": "Robbed a Stoner Blind",
          "iframe_url": "",
          "iframe_poster": null,
          "release_ru": "2006-11-17",
          "release_world": "2006-11-16",
          "availability": "2006-11-18",
          "voiceActing": [
            "Рен-ТВ",
            "Eng.Original"
          ],
          "ads": false,
          "subtitle": []
        },
        {
          "episode": 9,
          "name": "Born a Gamblin' Man",
          "iframe_url": "",
          "iframe_poster": null,
          "release_ru": "2006-12-01",
          "release_world": "2006-11-30",
          "availability": "2006-12-02",
          "voiceActing": [
            "Рен-ТВ",
            "Eng.Original"
          ],
          "ads": false,
          "subtitle": []
        },
        {
          "episode": 10,
          "name": "South of the Border: Part Uno",
          "iframe_url": "",
          "iframe_poster": null,
          "release_ru": "2006-12-08",
          "release_world": "2006-12-07",
          "availability": "2006-12-09",
          "voiceActing": [
            "Рен-ТВ",
            "Eng.Original"
          ],
          "ads": false,
          "subtitle": []
        },
        {
          "episode": 11,
          "name": "South of the Border: Part Dos",
          "iframe_url": "",
          "iframe_poster": null,
          "release_ru": "2006-12-08",
          "release_world": "2006-12-07",
          "availability": "2006-12-09",
          "voiceActing": [
            "Рен-ТВ",
            "Eng.Original"
          ],
          "ads": false,
          "subtitle": []
        },
        {
          "episode": 12,
          "name": "Our 'Cops' is On",
          "iframe_url": "",
          "iframe_poster": null,
          "release_ru": "2007-01-05",
          "release_world": "2007-01-04",
          "availability": "2007-01-06",
          "voiceActing": [
            "Рен-ТВ",
            "Eng.Original"
          ],
          "ads": false,
          "subtitle": []
        },
        {
          "episode": 13,
          "name": "Buried Treasure",
          "iframe_url": "",
          "iframe_poster": null,
          "release_ru": "2007-01-12",
          "release_world": "2007-01-11",
          "availability": "2007-01-13",
          "voiceActing": [
            "Рен-ТВ",
            "Eng.Original"
          ],
          "ads": false,
          "subtitle": []
        },
        {
          "episode": 14,
          "name": "Kept a Guy Locked in a Truck",
          "iframe_url": "",
          "iframe_poster": null,
          "release_ru": "2007-01-19",
          "release_world": "2007-01-18",
          "availability": "2007-01-20",
          "voiceActing": [
            "Рен-ТВ",
            "Eng.Original"
          ],
          "ads": false,
          "subtitle": []
        },
        {
          "episode": 15,
          "name": "Foreign Exchange Student",
          "iframe_url": "",
          "iframe_poster": null,
          "release_ru": "2007-02-02",
          "release_world": "2007-02-01",
          "availability": "2007-02-03",
          "voiceActing": [
            "Рен-ТВ",
            "Eng.Original"
          ],
          "ads": false,
          "subtitle": []
        },
        {
          "episode": 16,
          "name": "B.L.O.W.",
          "iframe_url": "",
          "iframe_poster": null,
          "release_ru": "2007-02-09",
          "release_world": "2007-02-08",
          "availability": "2007-02-10",
          "voiceActing": [
            "Рен-ТВ",
            "Eng.Original"
          ],
          "ads": false,
          "subtitle": []
        },
        {
          "episode": 17,
          "name": "The Birthday Party",
          "iframe_url": "",
          "iframe_poster": null,
          "release_ru": "2007-02-16",
          "release_world": "2007-02-15",
          "availability": "2007-02-17",
          "voiceActing": [
            "Рен-ТВ",
            "Eng.Original"
          ],
          "ads": false,
          "subtitle": []
        },
        {
          "episode": 18,
          "name": "Guess Who's Coming Out of Joy",
          "iframe_url": "",
          "iframe_poster": null,
          "release_ru": "2007-02-23",
          "release_world": "2007-02-22",
          "availability": "2007-02-24",
          "voiceActing": [
            "Рен-ТВ",
            "Eng.Original"
          ],
          "ads": false,
          "subtitle": []
        },
        {
          "episode": 19,
          "name": "Harassed a Reporter",
          "iframe_url": "",
          "iframe_poster": null,
          "release_ru": "2007-04-13",
          "release_world": "2007-04-12",
          "availability": "2007-04-14",
          "voiceActing": [
            "Рен-ТВ",
            "Eng.Original"
          ],
          "ads": false,
          "subtitle": []
        },
        {
          "episode": 20,
          "name": "Two Balls, Two Strikes",
          "iframe_url": "",
          "iframe_poster": null,
          "release_ru": "2007-04-20",
          "release_world": "2007-04-19",
          "availability": "2007-04-21",
          "voiceActing": [
            "Рен-ТВ",
            "Eng.Original"
          ],
          "ads": false,
          "subtitle": []
        },
        {
          "episode": 21,
          "name": "G.E.D.",
          "iframe_url": "",
          "iframe_poster": null,
          "release_ru": "2007-04-27",
          "release_world": "2007-04-26",
          "availability": "2007-04-28",
          "voiceActing": [
            "Рен-ТВ",
            "Eng.Original"
          ],
          "ads": false,
          "subtitle": []
        },
        {
          "episode": 22,
          "name": "Get a Real Job",
          "iframe_url": "",
          "iframe_poster": null,
          "release_ru": "2007-05-04",
          "release_world": "2007-05-03",
          "availability": "2007-05-05",
          "voiceActing": [
            "Рен-ТВ",
            "Eng.Original"
          ],
          "ads": false,
          "subtitle": []
        },
        {
          "episode": 23,
          "name": "The Trial",
          "iframe_url": "",
          "iframe_poster": null,
          "release_ru": "2007-05-11",
          "release_world": "2007-05-10",
          "availability": "2007-05-12",
          "voiceActing": [
            "Рен-ТВ",
            "Eng.Original"
          ],
          "ads": false,
          "subtitle": []
        }
      ]
    },
    {
      "poster": null,
      "release_ru": "2007-09-28",
      "release_world": "2007-09-27",
      "availability": "2007-09-29",
      "iframe_url": "",
      "season": 3,
      "episodes": [
        {
          "episode": 1,
          "name": "My Name is Inmate 28301-016 (1)",
          "iframe_url": "",
          "iframe_poster": null,
          "release_ru": "2007-09-28",
          "release_world": "2007-09-27",
          "availability": "2007-09-29",
          "voiceActing": [
            "MTV",
            "Eng.Original"
          ],
          "ads": false,
          "subtitle": []
        },
        {
          "episode": 2,
          "name": "My Name is Inmate 28301-016 (2)",
          "iframe_url": "",
          "iframe_poster": null,
          "release_ru": "2007-09-28",
          "release_world": "2007-09-27",
          "availability": "2007-09-29",
          "voiceActing": [
            "MTV",
            "Eng.Original"
          ],
          "ads": false,
          "subtitle": []
        },
        {
          "episode": 3,
          "name": "The Gangs of Camden County",
          "iframe_url": "",
          "iframe_poster": null,
          "release_ru": "2007-10-05",
          "release_world": "2007-10-04",
          "availability": "2007-10-06",
          "voiceActing": [
            "MTV",
            "Eng.Original"
          ],
          "ads": false,
          "subtitle": []
        },
        {
          "episode": 4,
          "name": "The Frank Factor",
          "iframe_url": "",
          "iframe_poster": null,
          "release_ru": "2007-10-12",
          "release_world": "2007-10-11",
          "availability": "2007-10-13",
          "voiceActing": [
            "MTV",
            "Eng.Original"
          ],
          "ads": false,
          "subtitle": []
        },
        {
          "episode": 5,
          "name": "Creative Writing",
          "iframe_url": "",
          "iframe_poster": null,
          "release_ru": "2007-10-19",
          "release_world": "2007-10-18",
          "availability": "2007-10-20",
          "voiceActing": [
            "MTV",
            "Eng.Original"
          ],
          "ads": false,
          "subtitle": []
        },
        {
          "episode": 6,
          "name": "Frank's Girl",
          "iframe_url": "",
          "iframe_poster": null,
          "release_ru": "2007-10-26",
          "release_world": "2007-10-25",
          "availability": "2007-10-27",
          "voiceActing": [
            "MTV",
            "Eng.Original"
          ],
          "ads": false,
          "subtitle": []
        },
        {
          "episode": 7,
          "name": "Our Other 'Cops' is On! (1)",
          "iframe_url": "",
          "iframe_poster": null,
          "release_ru": "2007-11-02",
          "release_world": "2007-11-01",
          "availability": "2007-11-03",
          "voiceActing": [
            "MTV",
            "Eng.Original"
          ],
          "ads": false,
          "subtitle": []
        },
        {
          "episode": 8,
          "name": "Our Other 'Cops' is On! (2)",
          "iframe_url": "",
          "iframe_poster": null,
          "release_ru": "2007-11-02",
          "release_world": "2007-11-01",
          "availability": "2007-11-03",
          "voiceActing": [
            "MTV",
            "Eng.Original"
          ],
          "ads": false,
          "subtitle": []
        },
        {
          "episode": 9,
          "name": "Randy in Charge (...of Our Days and Our Nights)",
          "iframe_url": "",
          "iframe_poster": null,
          "release_ru": "2007-11-09",
          "release_world": "2007-11-08",
          "availability": "2007-11-10",
          "voiceActing": [
            "MTV",
            "Eng.Original"
          ],
          "ads": false,
          "subtitle": []
        },
        {
          "episode": 10,
          "name": "Midnight Bun",
          "iframe_url": "",
          "iframe_poster": null,
          "release_ru": "2007-11-16",
          "release_world": "2007-11-15",
          "availability": "2007-11-17",
          "voiceActing": [
            "MTV",
            "Eng.Original"
          ],
          "ads": false,
          "subtitle": []
        },
        {
          "episode": 11,
          "name": "Burn Victim",
          "iframe_url": "",
          "iframe_poster": null,
          "release_ru": "2007-11-30",
          "release_world": "2007-11-29",
          "availability": "2007-12-01",
          "voiceActing": [
            "MTV",
            "Eng.Original"
          ],
          "ads": false,
          "subtitle": []
        },
        {
          "episode": 12,
          "name": "Early Release",
          "iframe_url": "",
          "iframe_poster": null,
          "release_ru": "2007-12-07",
          "release_world": "2007-12-06",
          "availability": "2007-12-08",
          "voiceActing": [
            "MTV",
            "Eng.Original"
          ],
          "ads": false,
          "subtitle": []
        },
        {
          "episode": 13,
          "name": "Bad Earl",
          "iframe_url": "",
          "iframe_poster": null,
          "release_ru": "2008-01-11",
          "release_world": "2008-01-10",
          "availability": "2008-01-12",
          "voiceActing": [
            "MTV",
            "Eng.Original"
          ],
          "ads": false,
          "subtitle": []
        },
        {
          "episode": 14,
          "name": "I Won't Die with a Little Help from My Friends (1)",
          "iframe_url": "",
          "iframe_poster": null,
          "release_ru": "2008-04-04",
          "release_world": "2008-04-03",
          "availability": "2008-04-05",
          "voiceActing": [
            "MTV",
            "Eng.Original"
          ],
          "ads": false,
          "subtitle": []
        },
        {
          "episode": 15,
          "name": "I Won't Die with a Little Help from My Friends (2)",
          "iframe_url": "",
          "iframe_poster": null,
          "release_ru": "2008-04-04",
          "release_world": "2008-04-03",
          "availability": "2008-04-05",
          "voiceActing": [
            "MTV",
            "Eng.Original"
          ],
          "ads": false,
          "subtitle": []
        },
        {
          "episode": 16,
          "name": "Stole a Motorcycle",
          "iframe_url": "",
          "iframe_poster": null,
          "release_ru": "2008-04-11",
          "release_world": "2008-04-10",
          "availability": "2008-04-12",
          "voiceActing": [
            "MTV",
            "Eng.Original"
          ],
          "ads": false,
          "subtitle": []
        },
        {
          "episode": 17,
          "name": "No Heads and a Duffel Bag",
          "iframe_url": "",
          "iframe_poster": null,
          "release_ru": "2008-04-18",
          "release_world": "2008-04-17",
          "availability": "2008-04-19",
          "voiceActing": [
            "MTV",
            "Eng.Original"
          ],
          "ads": false,
          "subtitle": []
        },
        {
          "episode": 18,
          "name": "Killerball",
          "iframe_url": "",
          "iframe_poster": null,
          "release_ru": "2008-04-25",
          "release_world": "2008-04-24",
          "availability": "2008-04-26",
          "voiceActing": [
            "MTV",
            "Eng.Original"
          ],
          "ads": false,
          "subtitle": []
        },
        {
          "episode": 19,
          "name": "Love Octagon",
          "iframe_url": "",
          "iframe_poster": null,
          "release_ru": "2008-05-02",
          "release_world": "2008-05-01",
          "availability": "2008-05-03",
          "voiceActing": [
            "MTV",
            "Eng.Original"
          ],
          "ads": false,
          "subtitle": []
        },
        {
          "episode": 20,
          "name": "Girl Earl",
          "iframe_url": "",
          "iframe_poster": null,
          "release_ru": "2008-05-09",
          "release_world": "2008-05-08",
          "availability": "2008-05-10",
          "voiceActing": [
            "MTV",
            "Eng.Original"
          ],
          "ads": false,
          "subtitle": []
        },
        {
          "episode": 21,
          "name": "Camdenites (1)",
          "iframe_url": "",
          "iframe_poster": null,
          "release_ru": "2008-05-16",
          "release_world": "2008-05-15",
          "availability": "2008-05-17",
          "voiceActing": [
            "MTV",
            "Eng.Original"
          ],
          "ads": false,
          "subtitle": []
        },
        {
          "episode": 22,
          "name": "Camdenites (2)",
          "iframe_url": "",
          "iframe_poster": null,
          "release_ru": "2008-05-16",
          "release_world": "2008-05-15",
          "availability": "2008-05-17",
          "voiceActing": [
            "MTV",
            "Eng.Original"
          ],
          "ads": false,
          "subtitle": []
        }
      ]
    },
    {
      "poster": null,
      "release_ru": "2008-09-26",
      "release_world": "2008-09-25",
      "availability": "2008-09-27",
      "iframe_url": "",
      "season": 4,
      "episodes": [
        {
          "episode": 1,
          "name": "The Magic Hour",
          "iframe_url": "",
          "iframe_poster": null,
          "release_ru": "2008-09-26",
          "release_world": "2008-09-25",
          "availability": "2008-09-27",
          "voiceActing": [
            "MTV",
            "Eng.Original"
          ],
          "ads": false,
          "subtitle": []
        },
        {
          "episode": 2,
          "name": "Monkeys Take a Bath",
          "iframe_url": "",
          "iframe_poster": null,
          "release_ru": "2008-09-26",
          "release_world": "2008-09-25",
          "availability": "2008-09-27",
          "voiceActing": [
            "MTV",
            "Eng.Original"
          ],
          "ads": false,
          "subtitle": []
        },
        {
          "episode": 3,
          "name": "Joy in a Bubble",
          "iframe_url": "",
          "iframe_poster": null,
          "release_ru": "2008-10-03",
          "release_world": "2008-10-02",
          "availability": "2008-10-04",
          "voiceActing": [
            "MTV",
            "Eng.Original"
          ],
          "ads": false,
          "subtitle": []
        },
        {
          "episode": 4,
          "name": "Stole an RV",
          "iframe_url": "",
          "iframe_poster": null,
          "release_ru": "2008-10-03",
          "release_world": "2008-10-02",
          "availability": "2008-10-04",
          "voiceActing": [
            "MTV",
            "Eng.Original"
          ],
          "ads": false,
          "subtitle": []
        },
        {
          "episode": 5,
          "name": "Sweet Johnny",
          "iframe_url": "",
          "iframe_poster": null,
          "release_ru": "2008-10-10",
          "release_world": "2008-10-09",
          "availability": "2008-10-11",
          "voiceActing": [
            "MTV",
            "Eng.Original"
          ],
          "ads": false,
          "subtitle": []
        },
        {
          "episode": 6,
          "name": "We've Got Spirit",
          "iframe_url": "",
          "iframe_poster": null,
          "release_ru": "2008-10-17",
          "release_world": "2008-10-16",
          "availability": "2008-10-18",
          "voiceActing": [
            "MTV",
            "Eng.Original"
          ],
          "ads": false,
          "subtitle": []
        },
        {
          "episode": 7,
          "name": "Quit Your Snitchin'",
          "iframe_url": "",
          "iframe_poster": null,
          "release_ru": "2008-10-24",
          "release_world": "2008-10-23",
          "availability": "2008-10-25",
          "voiceActing": [
            "MTV",
            "Eng.Original"
          ],
          "ads": false,
          "subtitle": []
        },
        {
          "episode": 8,
          "name": "Little Bad Voodoo Brother",
          "iframe_url": "",
          "iframe_poster": null,
          "release_ru": "2008-10-31",
          "release_world": "2008-10-30",
          "availability": "2008-11-01",
          "voiceActing": [
            "MTV",
            "Eng.Original"
          ],
          "ads": false,
          "subtitle": []
        },
        {
          "episode": 9,
          "name": "Sold a Guy a Lemon Car",
          "iframe_url": "",
          "iframe_poster": null,
          "release_ru": "2008-11-07",
          "release_world": "2008-11-06",
          "availability": "2008-11-08",
          "voiceActing": [
            "MTV",
            "Eng.Original"
          ],
          "ads": false,
          "subtitle": []
        },
        {
          "episode": 10,
          "name": "Earl and Joy's Anniversary",
          "iframe_url": "",
          "iframe_poster": null,
          "release_ru": "2008-11-14",
          "release_world": "2008-11-13",
          "availability": "2008-11-15",
          "voiceActing": [
            "MTV",
            "Eng.Original"
          ],
          "ads": false,
          "subtitle": []
        },
        {
          "episode": 11,
          "name": "Nature's Game Show",
          "iframe_url": "",
          "iframe_poster": null,
          "release_ru": "2008-11-21",
          "release_world": "2008-11-20",
          "availability": "2008-11-22",
          "voiceActing": [
            "MTV",
            "Eng.Original"
          ],
          "ads": false,
          "subtitle": []
        },
        {
          "episode": 12,
          "name": "Reading is a Fundamental Case",
          "iframe_url": "",
          "iframe_poster": null,
          "release_ru": "2008-12-05",
          "release_world": "2008-12-04",
          "availability": "2008-12-06",
          "voiceActing": [
            "MTV",
            "Eng.Original"
          ],
          "ads": false,
          "subtitle": []
        },
        {
          "episode": 13,
          "name": "Orphan Earl",
          "iframe_url": "",
          "iframe_poster": null,
          "release_ru": "2008-12-12",
          "release_world": "2008-12-11",
          "availability": "2008-12-13",
          "voiceActing": [
            "MTV",
            "Eng.Original"
          ],
          "ads": false,
          "subtitle": []
        },
        {
          "episode": 14,
          "name": "Got the Babysitter Pregnant",
          "iframe_url": "",
          "iframe_poster": null,
          "release_ru": "2009-01-09",
          "release_world": "2009-01-08",
          "availability": "2009-01-10",
          "voiceActing": [
            "MTV",
            "Eng.Original"
          ],
          "ads": false,
          "subtitle": []
        },
        {
          "episode": 15,
          "name": "Darnell Outed (1)",
          "iframe_url": "",
          "iframe_poster": null,
          "release_ru": "2009-01-16",
          "release_world": "2009-01-15",
          "availability": "2009-01-17",
          "voiceActing": [
            "MTV",
            "Eng.Original"
          ],
          "ads": false,
          "subtitle": []
        },
        {
          "episode": 16,
          "name": "Darnell Outed (2)",
          "iframe_url": "",
          "iframe_poster": null,
          "release_ru": "2009-01-23",
          "release_world": "2009-01-22",
          "availability": "2009-01-24",
          "voiceActing": [
            "MTV",
            "Eng.Original"
          ],
          "ads": false,
          "subtitle": []
        },
        {
          "episode": 17,
          "name": "Randy's List Item",
          "iframe_url": "",
          "iframe_poster": null,
          "release_ru": "2009-02-06",
          "release_world": "2009-02-05",
          "availability": "2009-02-07",
          "voiceActing": [
            "MTV",
            "Eng.Original"
          ],
          "ads": false,
          "subtitle": []
        },
        {
          "episode": 18,
          "name": "Friends with Benefits",
          "iframe_url": "",
          "iframe_poster": null,
          "release_ru": "2009-02-13",
          "release_world": "2009-02-12",
          "availability": "2009-02-14",
          "voiceActing": [
            "MTV",
            "Eng.Original"
          ],
          "ads": false,
          "subtitle": []
        },
        {
          "episode": 19,
          "name": "My Name is Alias",
          "iframe_url": "",
          "iframe_poster": null,
          "release_ru": "2009-02-20",
          "release_world": "2009-02-19",
          "availability": "2009-02-21",
          "voiceActing": [
            "MTV",
            "Eng.Original"
          ],
          "ads": false,
          "subtitle": []
        },
        {
          "episode": 20,
          "name": "Chaz Dalton's Space Academy",
          "iframe_url": "",
          "iframe_poster": null,
          "release_ru": "2009-03-06",
          "release_world": "2009-03-05",
          "availability": "2009-03-07",
          "voiceActing": [
            "MTV",
            "Eng.Original"
          ],
          "ads": false,
          "subtitle": []
        },
        {
          "episode": 21,
          "name": "Witch Lady",
          "iframe_url": "",
          "iframe_poster": null,
          "release_ru": "2009-03-20",
          "release_world": "2009-03-19",
          "availability": "2009-03-21",
          "voiceActing": [
            "MTV",
            "Eng.Original"
          ],
          "ads": false,
          "subtitle": []
        },
        {
          "episode": 22,
          "name": "Pinky",
          "iframe_url": "",
          "iframe_poster": null,
          "release_ru": "2009-03-27",
          "release_world": "2009-03-26",
          "availability": "2009-03-28",
          "voiceActing": [
            "MTV",
            "Eng.Original"
          ],
          "ads": false,
          "subtitle": []
        },
        {
          "episode": 23,
          "name": "Bullies",
          "iframe_url": "",
          "iframe_poster": null,
          "release_ru": "2009-04-17",
          "release_world": "2009-04-16",
          "availability": "2009-04-18",
          "voiceActing": [
            "MTV",
            "Eng.Original"
          ],
          "ads": false,
          "subtitle": []
        },
        {
          "episode": 24,
          "name": "Gospel",
          "iframe_url": "",
          "iframe_poster": null,
          "release_ru": "2009-04-24",
          "release_world": "2009-04-23",
          "availability": "2009-04-25",
          "voiceActing": [
            "MTV",
            "Eng.Original"
          ],
          "ads": false,
          "subtitle": []
        },
        {
          "episode": 25,
          "name": "Inside Probe (1)",
          "iframe_url": "",
          "iframe_poster": null,
          "release_ru": "2009-05-01",
          "release_world": "2009-04-30",
          "availability": "2009-05-02",
          "voiceActing": [
            "MTV",
            "Eng.Original"
          ],
          "ads": false,
          "subtitle": []
        },
        {
          "episode": 26,
          "name": "Inside Probe (2)",
          "iframe_url": "",
          "iframe_poster": null,
          "release_ru": "2009-05-08",
          "release_world": "2009-05-07",
          "availability": "2009-05-09",
          "voiceActing": [
            "MTV",
            "Eng.Original"
          ],
          "ads": false,
          "subtitle": []
        },
        {
          "episode": 27,
          "name": "Dodge's Dad",
          "iframe_url": "",
          "iframe_poster": null,
          "release_ru": "2009-05-15",
          "release_world": "2009-05-14",
          "availability": "2009-05-16",
          "voiceActing": [
            "MTV",
            "Eng.Original"
          ],
          "ads": false,
          "subtitle": []
        }
      ]
    }
  ],
  "voiceActing": [
    "Рен-ТВ",
    "Eng.Original",
    "MTV"
  ],
  "subtitle": [],
  "parts": []
}
