{
  "id": 13162,
  "name": "Спрячь бабушку в холодильнике",
  "name_eng": "Metti la nonna in freezer",
  "year": 2018,
  "slogan": "«Ни одна бабушка не пострадала»",
  "age": "16+",
  "type": "film",
  "quality": "FHD (1080p)",
  "imdb": "6.0",
  "imdb_id": "6982104",
  "kinopoisk": "6.1",
  "kinopoisk_id": "1056966",
  "world_art": null,
  "world_art_id": null,
  "time": "100 мин. / 01:40",
  "ads": false,
  "premier": "2018-03-15",
  "premier_rus": "2020-01-01",
  "availability": "2020-01-02",
  "activate_time": "2019-12-16 15:13:00",
  "budget": null,
  "fees_use": null,
  "fees_world": "$4 014 383",
  "fees_rus": "$26 657",
  "rate_mpaa": null,
  "description": "Молодая художница Клаудия держит на плаву свою мастерскую только благодаря бабушкиной пенсии. И когда старушка умирает, Клаудии ничего не остается, как скрыть этот факт, чтобы продолжать получать деньги. Но девушку начинает преследовать дотошный и неподкупный полицейский Симоне, обожающий свою работу. Что же привлекло его внимание – сама Клаудия или ее «скелет в шкафу»?",
  "iframe_url": "",
  "iframe_poster": null,
  "poster": "https://img.imgilall.me/movies/franchise/1/3/1/6/2/0/0/0/0/0/610x900_13162.jpg",
  "country": {
    "8": "Италия"
  },
  "collection": {
    "19": "Про ограбления, аферы и мошенников"
  },
  "genre": {
    "19": "Комедия",
    "10": "Зарубежный"
  },
  "director": [
    "Джанкарло Фонтана",
    "Джузеппе Стази"
  ],
  "screenwriter": [
    "Фабио Бонифаччи",
    "Никола Джулиано"
  ],
  "producer": [
    "Франческа Чима",
    "Никола Джулиано",
    "Андреа Пассалакуа"
  ],
  "operator": [
    "Валерио Аццали"
  ],
  "composer": [
    "Франческо Черази"
  ],
  "design": [
    "Паки Медури",
    "Симоне Таддеи",
    "Моника Гаэтани"
  ],
  "editor": [
    "Джанкарло Фонтана"
  ],
  "actors": [
    "Фабио Де Луиджи",
    "Мириам Леоне",
    "Люсия Оконе",
    "Марина Рокко",
    "Франческо Ди Лива",
    "Сьюзи Лауде",
    "Карло Лука Де Руджиери",
    "Маурицио Ломбарди",
    "Эрос Паньи",
    "Барбара Буше"
  ],
  "actors_dubl": [],
  "trivia": [
    "Фильм был снят в провинции Витербо близ Рима."
  ],
  "trailers": [
    {
      "name": "трейлер №1",
      "number": 1,
      "iframe_poster": null,
      "season": null,
      "iframe_url": ""
    },
    {
      "name": "трейлер №1",
      "number": 1,
      "iframe_poster": null,
      "season": null,
      "iframe_url": ""
    }
  ],
  "seasons": [],
  "voiceActing": [
    "Рус. Дублированный",
    "Ital. Original"
  ],
  "subtitle": [
    "Рус. форсированные"
  ],
  "parts": []
}
