{
  "id": 13503,
  "name": "Тайны Хейвена",
  "name_eng": "Haven",
  "year": 2010,
  "slogan": "«It takes a village to hide a secret»",
  "age": "12+",
  "type": "series",
  "quality": "FHD (1080p)",
  "imdb": "7.5",
  "imdb_id": "1519931",
  "kinopoisk": "7.4",
  "kinopoisk_id": "521489",
  "world_art": null,
  "world_art_id": null,
  "time": "43 мин",
  "ads": false,
  "premier": "2010-07-09",
  "premier_rus": "2010-10-10",
  "availability": null,
  "serial_status": "offline",
  "activate_time": "2019-12-20 12:52:00",
  "budget": null,
  "fees_use": null,
  "fees_world": null,
  "fees_rus": null,
  "rate_mpaa": null,
  "description": "В маленький город Хейвен приезжает агент ФБР Одри Паркер, чтобы расследовать смерть бывшего преступника. Из-за своего природного любопытства она попала в эпицентр этого необычного анклава, который, оказывается, издавна служил пристанищем для людей со сверхспособностями. Среди местных жителей города полицейский Натан Вурно, который стал напарником Одри, и загадочный и обаятельный мастер на все руки Дюк Крокер.",
  "iframe_url": "",
  "poster": "https://img.imgilall.me/movies/franchise/1/3/5/0/3/0/0/0/0/0/610x900_13503.jpg",
  "country": {
    "7": "Канада",
    "1": "США"
  },
  "collection": {
    "33": "Экранизация книг"
  },
  "genre": {
    "25": "Криминал",
    "26": "Ужасы",
    "11": "Фантастика",
    "6": "Фэнтези",
    "24": "Детектив",
    "13": "Триллер",
    "7": "Драма"
  },
  "director": [
    "Шон Пиллер",
    "Т.У. Пикок",
    "Ли Роуз"
  ],
  "screenwriter": [
    "Джим Данн",
    "Сэм Эрнст",
    "Стивен Кинг"
  ],
  "producer": [
    "Чарльз Ардай",
    "Стефани Н. Диул",
    "Адам Фратто"
  ],
  "operator": [
    "Эрик Кайла",
    "Бэрри Донлеви",
    "Кристофер Болл"
  ],
  "composer": [
    "Шон Пирс"
  ],
  "design": [
    "Дженнифер Стюарт",
    "Терри Куэннелл",
    "Стивен Райт"
  ],
  "editor": [
    "Нил Грив",
    "Торбен Бигер",
    "Рослин Каллу"
  ],
  "actors": [
    "Эмили Роуз",
    "Лукас Брайант",
    "Эрик Бальфур",
    "Ричард Донат",
    "Джон Дансуорт",
    "Адам Коуплэнд",
    "Гленн Лефчак",
    "Джейн Иствуд",
    "Николас Кэмпбелл",
    "Кейт Келтон"
  ],
  "actors_dubl": [],
  "trivia": [
    "Вольная экранизация романа Стивена Кинга \"Парень из Колорадо\" (2005), сюжет которого, в свою очередь, является свободным переложением истории неразгаданного убийства в Австралии в конце 1940-х. (Там на пляже Сомертон было обнаружено тело неизвестного мужчины без документов.)",
    "В сериале несколько раз упоминаются города Дерри и Касл-Рок. Оба они вымышлены и неоднократно становились местом действия произведений Стивена Кинга.",
    "В начальных титрах указан \"Досточтимый Флэгг\". Рэнделл Флэгг фигурирует в нескольких произведениях Стивена Кинга, где неизменно выступает в роли антагониста.",
    "В серии \"Беда с бедами\" 4-го сезона можно заметить рекламную листовку заведения под названием Captain Trip's Cafe. Captain Trip - это обиходное название чумы, поразившей мир в романе Стивена Кинга \"Противостояние\" (1978).",
    "В серии \"То, что всплыло\" 1-го сезона на рабочем столе одного из героев стоит игрушечная машинка. Это модель автомобиля Plymouth Fury 1958 года выпуска. О такой же машине идёт речь в романе Стивена Кинга \"Кристина\" (1983)."
  ],
  "trailers": [],
  "seasons": [
    {
      "poster": null,
      "release_ru": "2010-07-10",
      "release_world": "2010-07-09",
      "availability": "2010-07-11",
      "iframe_url": "",
      "season": 1,
      "episodes": [
        {
          "episode": 1,
          "name": "Welcome to Haven",
          "iframe_url": "",
          "iframe_poster": null,
          "release_ru": "2010-07-10",
          "release_world": "2010-07-09",
          "availability": "2010-07-11",
          "voiceActing": [
            "SyFy",
            "Eng.Original"
          ],
          "ads": false,
          "subtitle": [
            "Рус. полные"
          ]
        },
        {
          "episode": 2,
          "name": "Butterfly",
          "iframe_url": "",
          "iframe_poster": null,
          "release_ru": "2010-07-17",
          "release_world": "2010-07-16",
          "availability": "2010-07-18",
          "voiceActing": [
            "SyFy",
            "Eng.Original"
          ],
          "ads": false,
          "subtitle": [
            "Рус. полные"
          ]
        },
        {
          "episode": 3,
          "name": "Harmony",
          "iframe_url": "",
          "iframe_poster": null,
          "release_ru": "2010-07-24",
          "release_world": "2010-07-23",
          "availability": "2010-07-25",
          "voiceActing": [
            "SyFy",
            "Eng.Original"
          ],
          "ads": false,
          "subtitle": [
            "Рус. полные"
          ]
        },
        {
          "episode": 4,
          "name": "Consumed",
          "iframe_url": "",
          "iframe_poster": null,
          "release_ru": "2010-07-31",
          "release_world": "2010-07-30",
          "availability": "2010-08-01",
          "voiceActing": [
            "SyFy",
            "Eng.Original"
          ],
          "ads": false,
          "subtitle": [
            "Рус. полные"
          ]
        },
        {
          "episode": 5,
          "name": "Ball and Chain",
          "iframe_url": "",
          "iframe_poster": null,
          "release_ru": "2010-08-07",
          "release_world": "2010-08-06",
          "availability": "2010-08-08",
          "voiceActing": [
            "SyFy",
            "Eng.Original"
          ],
          "ads": false,
          "subtitle": [
            "Рус. полные"
          ]
        },
        {
          "episode": 6,
          "name": "Fur",
          "iframe_url": "",
          "iframe_poster": null,
          "release_ru": "2010-08-14",
          "release_world": "2010-08-13",
          "availability": "2010-08-15",
          "voiceActing": [
            "SyFy",
            "Eng.Original"
          ],
          "ads": false,
          "subtitle": [
            "Рус. полные"
          ]
        },
        {
          "episode": 7,
          "name": "Sketchy",
          "iframe_url": "",
          "iframe_poster": null,
          "release_ru": "2010-08-21",
          "release_world": "2010-08-20",
          "availability": "2010-08-22",
          "voiceActing": [
            "SyFy",
            "Eng.Original"
          ],
          "ads": false,
          "subtitle": [
            "Рус. полные"
          ]
        },
        {
          "episode": 8,
          "name": "Ain't No Sunshine",
          "iframe_url": "",
          "iframe_poster": null,
          "release_ru": "2010-08-28",
          "release_world": "2010-08-27",
          "availability": "2010-08-29",
          "voiceActing": [
            "SyFy",
            "Eng.Original"
          ],
          "ads": false,
          "subtitle": [
            "Рус. полные"
          ]
        },
        {
          "episode": 9,
          "name": "As You Were",
          "iframe_url": "",
          "iframe_poster": null,
          "release_ru": "2010-09-11",
          "release_world": "2010-09-10",
          "availability": "2010-09-12",
          "voiceActing": [
            "SyFy",
            "Eng.Original"
          ],
          "ads": false,
          "subtitle": [
            "Рус. полные"
          ]
        },
        {
          "episode": 10,
          "name": "The Hand You're Dealt",
          "iframe_url": "",
          "iframe_poster": null,
          "release_ru": "2010-09-18",
          "release_world": "2010-09-17",
          "availability": "2010-09-19",
          "voiceActing": [
            "SyFy",
            "Eng.Original"
          ],
          "ads": false,
          "subtitle": [
            "Рус. полные"
          ]
        },
        {
          "episode": 11,
          "name": "The Trial of Audrey Parker",
          "iframe_url": "",
          "iframe_poster": null,
          "release_ru": "2010-09-25",
          "release_world": "2010-09-24",
          "availability": "2010-09-26",
          "voiceActing": [
            "SyFy",
            "Eng.Original"
          ],
          "ads": false,
          "subtitle": [
            "Рус. полные"
          ]
        },
        {
          "episode": 12,
          "name": "Resurfacing",
          "iframe_url": "",
          "iframe_poster": null,
          "release_ru": "2010-10-02",
          "release_world": "2010-10-01",
          "availability": "2010-10-03",
          "voiceActing": [
            "SyFy",
            "Eng.Original"
          ],
          "ads": false,
          "subtitle": [
            "Рус. полные"
          ]
        },
        {
          "episode": 13,
          "name": "Spiral",
          "iframe_url": "",
          "iframe_poster": null,
          "release_ru": "2010-10-09",
          "release_world": "2010-10-08",
          "availability": "2010-10-10",
          "voiceActing": [
            "SyFy",
            "Eng.Original"
          ],
          "ads": false,
          "subtitle": [
            "Рус. полные"
          ]
        }
      ]
    },
    {
      "poster": null,
      "release_ru": "2011-07-16",
      "release_world": "2011-07-15",
      "availability": "2011-07-17",
      "iframe_url": "",
      "season": 2,
      "episodes": [
        {
          "episode": 1,
          "name": "A Tale of Two Audreys",
          "iframe_url": "",
          "iframe_poster": null,
          "release_ru": "2011-07-16",
          "release_world": "2011-07-15",
          "availability": "2011-07-17",
          "voiceActing": [
            "SyFy",
            "Eng.Original"
          ],
          "ads": false,
          "subtitle": [
            "Рус. полные"
          ]
        },
        {
          "episode": 2,
          "name": "Fear & Loathing",
          "iframe_url": "",
          "iframe_poster": null,
          "release_ru": "2011-07-23",
          "release_world": "2011-07-22",
          "availability": "2011-07-24",
          "voiceActing": [
            "SyFy",
            "Eng.Original"
          ],
          "ads": false,
          "subtitle": [
            "Рус. полные"
          ]
        },
        {
          "episode": 3,
          "name": "Love Machine",
          "iframe_url": "",
          "iframe_poster": null,
          "release_ru": "2011-07-30",
          "release_world": "2011-07-29",
          "availability": "2011-07-31",
          "voiceActing": [
            "SyFy",
            "Eng.Original"
          ],
          "ads": false,
          "subtitle": [
            "Рус. полные"
          ]
        },
        {
          "episode": 4,
          "name": "Sparks and Recreation",
          "iframe_url": "",
          "iframe_poster": null,
          "release_ru": "2011-08-06",
          "release_world": "2011-08-05",
          "availability": "2011-08-07",
          "voiceActing": [
            "SyFy",
            "Eng.Original"
          ],
          "ads": false,
          "subtitle": [
            "Рус. полные"
          ]
        },
        {
          "episode": 5,
          "name": "Roots",
          "iframe_url": "",
          "iframe_poster": null,
          "release_ru": "2011-08-13",
          "release_world": "2011-08-12",
          "availability": "2011-08-14",
          "voiceActing": [
            "SyFy",
            "Eng.Original"
          ],
          "ads": false,
          "subtitle": [
            "Рус. полные"
          ]
        },
        {
          "episode": 6,
          "name": "Audrey Parker's Day Off",
          "iframe_url": "",
          "iframe_poster": null,
          "release_ru": "2011-08-20",
          "release_world": "2011-08-19",
          "availability": "2011-08-21",
          "voiceActing": [
            "SyFy",
            "Eng.Original"
          ],
          "ads": false,
          "subtitle": [
            "Рус. полные"
          ]
        },
        {
          "episode": 7,
          "name": "The Tides That Bind",
          "iframe_url": "",
          "iframe_poster": null,
          "release_ru": "2011-08-27",
          "release_world": "2011-08-26",
          "availability": "2011-08-28",
          "voiceActing": [
            "SyFy",
            "Eng.Original"
          ],
          "ads": false,
          "subtitle": [
            "Рус. полные"
          ]
        },
        {
          "episode": 8,
          "name": "Friend or Faux",
          "iframe_url": "",
          "iframe_poster": null,
          "release_ru": "2011-09-03",
          "release_world": "2011-09-02",
          "availability": "2011-09-04",
          "voiceActing": [
            "SyFy",
            "Eng.Original"
          ],
          "ads": false,
          "subtitle": [
            "Рус. полные"
          ]
        },
        {
          "episode": 9,
          "name": "Lockdown",
          "iframe_url": "",
          "iframe_poster": null,
          "release_ru": "2011-09-10",
          "release_world": "2011-09-09",
          "availability": "2011-09-11",
          "voiceActing": [
            "SyFy",
            "Eng.Original"
          ],
          "ads": false,
          "subtitle": [
            "Рус. полные"
          ]
        },
        {
          "episode": 10,
          "name": "Who, What, Where, Wendigo?",
          "iframe_url": "",
          "iframe_poster": null,
          "release_ru": "2011-09-17",
          "release_world": "2011-09-16",
          "availability": "2011-09-18",
          "voiceActing": [
            "SyFy",
            "Eng.Original"
          ],
          "ads": false,
          "subtitle": [
            "Рус. полные"
          ]
        },
        {
          "episode": 11,
          "name": "Business as Usual",
          "iframe_url": "",
          "iframe_poster": null,
          "release_ru": "2011-09-24",
          "release_world": "2011-09-23",
          "availability": "2011-09-25",
          "voiceActing": [
            "SyFy",
            "Eng.Original"
          ],
          "ads": false,
          "subtitle": [
            "Рус. полные"
          ]
        },
        {
          "episode": 12,
          "name": "Sins of the Fathers",
          "iframe_url": "",
          "iframe_poster": null,
          "release_ru": "2011-10-01",
          "release_world": "2011-09-30",
          "availability": "2011-10-02",
          "voiceActing": [
            "SyFy",
            "Eng.Original"
          ],
          "ads": false,
          "subtitle": [
            "Рус. полные"
          ]
        },
        {
          "episode": 13,
          "name": "Silent Night",
          "iframe_url": "",
          "iframe_poster": null,
          "release_ru": "2011-12-07",
          "release_world": "2011-12-06",
          "availability": "2011-12-08",
          "voiceActing": [
            "SyFy",
            "Eng.Original"
          ],
          "ads": false,
          "subtitle": [
            "Рус. полные"
          ]
        }
      ]
    },
    {
      "poster": null,
      "release_ru": "2012-09-22",
      "release_world": "2012-09-21",
      "availability": "2012-09-23",
      "iframe_url": "",
      "season": 3,
      "episodes": [
        {
          "episode": 1,
          "name": "301",
          "iframe_url": "",
          "iframe_poster": null,
          "release_ru": "2012-09-22",
          "release_world": "2012-09-21",
          "availability": "2012-09-23",
          "voiceActing": [
            "Diva Universal",
            "Eng.Original"
          ],
          "ads": false,
          "subtitle": [
            "Рус. полные"
          ]
        },
        {
          "episode": 2,
          "name": "Stay",
          "iframe_url": "",
          "iframe_poster": null,
          "release_ru": "2012-09-29",
          "release_world": "2012-09-28",
          "availability": "2012-09-30",
          "voiceActing": [
            "Diva Universal",
            "Eng.Original"
          ],
          "ads": false,
          "subtitle": [
            "Рус. полные"
          ]
        },
        {
          "episode": 3,
          "name": "The Farmer",
          "iframe_url": "",
          "iframe_poster": null,
          "release_ru": "2012-10-06",
          "release_world": "2012-10-05",
          "availability": "2012-10-07",
          "voiceActing": [
            "Diva Universal",
            "Eng.Original"
          ],
          "ads": false,
          "subtitle": [
            "Рус. полные"
          ]
        },
        {
          "episode": 4,
          "name": "Over My Head",
          "iframe_url": "",
          "iframe_poster": null,
          "release_ru": "2012-10-13",
          "release_world": "2012-10-12",
          "availability": "2012-10-14",
          "voiceActing": [
            "Diva Universal",
            "Eng.Original"
          ],
          "ads": false,
          "subtitle": [
            "Рус. полные"
          ]
        },
        {
          "episode": 5,
          "name": "Double Jeopardy",
          "iframe_url": "",
          "iframe_poster": null,
          "release_ru": "2012-10-20",
          "release_world": "2012-10-19",
          "availability": "2012-10-21",
          "voiceActing": [
            "Diva Universal",
            "Eng.Original"
          ],
          "ads": false,
          "subtitle": [
            "Рус. полные"
          ]
        },
        {
          "episode": 6,
          "name": "Real Estate",
          "iframe_url": "",
          "iframe_poster": null,
          "release_ru": "2012-10-27",
          "release_world": "2012-10-26",
          "availability": "2012-10-28",
          "voiceActing": [
            "Diva Universal",
            "Eng.Original"
          ],
          "ads": false,
          "subtitle": [
            "Рус. полные"
          ]
        },
        {
          "episode": 7,
          "name": "Magic Hour (1)",
          "iframe_url": "",
          "iframe_poster": null,
          "release_ru": "2012-11-03",
          "release_world": "2012-11-02",
          "availability": "2012-11-04",
          "voiceActing": [
            "Diva Universal",
            "Eng.Original"
          ],
          "ads": false,
          "subtitle": [
            "Рус. полные"
          ]
        },
        {
          "episode": 8,
          "name": "Magic Hour (2)",
          "iframe_url": "",
          "iframe_poster": null,
          "release_ru": "2012-11-10",
          "release_world": "2012-11-09",
          "availability": "2012-11-11",
          "voiceActing": [
            "Diva Universal",
            "Eng.Original"
          ],
          "ads": false,
          "subtitle": [
            "Рус. полные"
          ]
        },
        {
          "episode": 9,
          "name": "Sarah",
          "iframe_url": "",
          "iframe_poster": null,
          "release_ru": "2012-11-17",
          "release_world": "2012-11-16",
          "availability": "2012-11-18",
          "voiceActing": [
            "Diva Universal",
            "Eng.Original"
          ],
          "ads": false,
          "subtitle": [
            "Рус. полные"
          ]
        },
        {
          "episode": 10,
          "name": "Burned",
          "iframe_url": "",
          "iframe_poster": null,
          "release_ru": "2012-12-01",
          "release_world": "2012-11-30",
          "availability": "2012-12-02",
          "voiceActing": [
            "Diva Universal",
            "Eng.Original"
          ],
          "ads": false,
          "subtitle": [
            "Рус. полные"
          ]
        },
        {
          "episode": 11,
          "name": "Last Goodbyes",
          "iframe_url": "",
          "iframe_poster": null,
          "release_ru": "2012-12-08",
          "release_world": "2012-12-07",
          "availability": "2012-12-09",
          "voiceActing": [
            "Diva Universal",
            "Eng.Original"
          ],
          "ads": false,
          "subtitle": [
            "Рус. полные"
          ]
        },
        {
          "episode": 12,
          "name": "Reunion",
          "iframe_url": "",
          "iframe_poster": null,
          "release_ru": "2013-01-18",
          "release_world": "2013-01-17",
          "availability": "2013-01-19",
          "voiceActing": [
            "Diva Universal",
            "Eng.Original"
          ],
          "ads": false,
          "subtitle": [
            "Рус. полные"
          ]
        },
        {
          "episode": 13,
          "name": "Thanks for the Memories",
          "iframe_url": "",
          "iframe_poster": null,
          "release_ru": "2013-01-18",
          "release_world": "2013-01-17",
          "availability": "2013-01-19",
          "voiceActing": [
            "Diva Universal",
            "Eng.Original"
          ],
          "ads": false,
          "subtitle": [
            "Рус. полные"
          ]
        }
      ]
    },
    {
      "poster": null,
      "release_ru": "2013-09-14",
      "release_world": "2013-09-13",
      "availability": "2013-09-15",
      "iframe_url": "",
      "season": 4,
      "episodes": [
        {
          "episode": 1,
          "name": "Fallout",
          "iframe_url": "",
          "iframe_poster": null,
          "release_ru": "2013-09-14",
          "release_world": "2013-09-13",
          "availability": "2013-09-15",
          "voiceActing": [
            "Universal Russia",
            "Eng.Original"
          ],
          "ads": false,
          "subtitle": [
            "Рус. полные"
          ]
        },
        {
          "episode": 2,
          "name": "Survivors",
          "iframe_url": "",
          "iframe_poster": null,
          "release_ru": "2013-09-21",
          "release_world": "2013-09-20",
          "availability": "2013-09-22",
          "voiceActing": [
            "Universal Russia",
            "Eng.Original"
          ],
          "ads": false,
          "subtitle": [
            "Рус. полные"
          ]
        },
        {
          "episode": 3,
          "name": "Bad Blood",
          "iframe_url": "",
          "iframe_poster": null,
          "release_ru": "2013-09-28",
          "release_world": "2013-09-27",
          "availability": "2013-09-29",
          "voiceActing": [
            "Universal Russia",
            "Eng.Original"
          ],
          "ads": false,
          "subtitle": [
            "Рус. полные"
          ]
        },
        {
          "episode": 4,
          "name": "Lost and Found",
          "iframe_url": "",
          "iframe_poster": null,
          "release_ru": "2013-10-05",
          "release_world": "2013-10-04",
          "availability": "2013-10-06",
          "voiceActing": [
            "Universal Russia",
            "Eng.Original"
          ],
          "ads": false,
          "subtitle": [
            "Рус. полные"
          ]
        },
        {
          "episode": 5,
          "name": "The New Girl",
          "iframe_url": "",
          "iframe_poster": null,
          "release_ru": "2013-10-12",
          "release_world": "2013-10-11",
          "availability": "2013-10-13",
          "voiceActing": [
            "Universal Russia",
            "Eng.Original"
          ],
          "ads": false,
          "subtitle": [
            "Рус. полные"
          ]
        },
        {
          "episode": 6,
          "name": "Countdown",
          "iframe_url": "",
          "iframe_poster": null,
          "release_ru": "2013-10-19",
          "release_world": "2013-10-18",
          "availability": "2013-10-20",
          "voiceActing": [
            "Universal Russia",
            "Eng.Original"
          ],
          "ads": false,
          "subtitle": [
            "Рус. полные"
          ]
        },
        {
          "episode": 7,
          "name": "Lay Me Down",
          "iframe_url": "",
          "iframe_poster": null,
          "release_ru": "2013-10-26",
          "release_world": "2013-10-25",
          "availability": "2013-10-27",
          "voiceActing": [
            "Universal Russia",
            "Eng.Original"
          ],
          "ads": false,
          "subtitle": [
            "Рус. полные"
          ]
        },
        {
          "episode": 8,
          "name": "Crush",
          "iframe_url": "",
          "iframe_poster": null,
          "release_ru": "2013-11-02",
          "release_world": "2013-11-01",
          "availability": "2013-11-03",
          "voiceActing": [
            "Universal Russia",
            "Eng.Original"
          ],
          "ads": false,
          "subtitle": [
            "Рус. полные"
          ]
        },
        {
          "episode": 9,
          "name": "William",
          "iframe_url": "",
          "iframe_poster": null,
          "release_ru": "2013-11-09",
          "release_world": "2013-11-08",
          "availability": "2013-11-10",
          "voiceActing": [
            "Universal Russia",
            "Eng.Original"
          ],
          "ads": false,
          "subtitle": [
            "Рус. полные"
          ]
        },
        {
          "episode": 10,
          "name": "The Trouble with Troubles",
          "iframe_url": "",
          "iframe_poster": null,
          "release_ru": "2013-11-16",
          "release_world": "2013-11-15",
          "availability": "2013-11-17",
          "voiceActing": [
            "Universal Russia",
            "Eng.Original"
          ],
          "ads": false,
          "subtitle": [
            "Рус. полные"
          ]
        },
        {
          "episode": 11,
          "name": "Shot in the Dark",
          "iframe_url": "",
          "iframe_poster": null,
          "release_ru": "2013-11-23",
          "release_world": "2013-11-22",
          "availability": "2013-11-24",
          "voiceActing": [
            "Universal Russia",
            "Eng.Original"
          ],
          "ads": false,
          "subtitle": [
            "Рус. полные"
          ]
        },
        {
          "episode": 12,
          "name": "When the Bough Breaks",
          "iframe_url": "",
          "iframe_poster": null,
          "release_ru": "2013-12-07",
          "release_world": "2013-12-06",
          "availability": "2013-12-08",
          "voiceActing": [
            "Universal Russia",
            "Eng.Original"
          ],
          "ads": false,
          "subtitle": [
            "Рус. полные"
          ]
        },
        {
          "episode": 13,
          "name": "The Lighthouse",
          "iframe_url": "",
          "iframe_poster": null,
          "release_ru": "2013-12-14",
          "release_world": "2013-12-13",
          "availability": "2013-12-15",
          "voiceActing": [
            "Universal Russia",
            "Eng.Original"
          ],
          "ads": false,
          "subtitle": [
            "Рус. полные"
          ]
        }
      ]
    },
    {
      "poster": null,
      "release_ru": "2014-09-12",
      "release_world": "2014-09-11",
      "availability": "2014-09-13",
      "iframe_url": "",
      "season": 5,
      "episodes": [
        {
          "episode": 1,
          "name": "See No Evil",
          "iframe_url": "",
          "iframe_poster": null,
          "release_ru": "2014-09-12",
          "release_world": "2014-09-11",
          "availability": "2014-09-13",
          "voiceActing": [
            "Universal Russia",
            "Eng.Original"
          ],
          "ads": false,
          "subtitle": [
            "Рус. полные"
          ]
        },
        {
          "episode": 2,
          "name": "Speak No Evil",
          "iframe_url": "",
          "iframe_poster": null,
          "release_ru": "2014-09-19",
          "release_world": "2014-09-18",
          "availability": "2014-09-20",
          "voiceActing": [
            "Universal Russia",
            "Eng.Original"
          ],
          "ads": false,
          "subtitle": [
            "Рус. полные"
          ]
        },
        {
          "episode": 3,
          "name": "Spotlight",
          "iframe_url": "",
          "iframe_poster": null,
          "release_ru": "2014-09-26",
          "release_world": "2014-09-25",
          "availability": "2014-09-27",
          "voiceActing": [
            "Universal Russia",
            "Eng.Original"
          ],
          "ads": false,
          "subtitle": [
            "Рус. полные"
          ]
        },
        {
          "episode": 4,
          "name": "Much Ado About Mara",
          "iframe_url": "",
          "iframe_poster": null,
          "release_ru": "2014-10-03",
          "release_world": "2014-10-02",
          "availability": "2014-10-04",
          "voiceActing": [
            "Universal Russia",
            "Eng.Original"
          ],
          "ads": false,
          "subtitle": [
            "Рус. полные"
          ]
        },
        {
          "episode": 5,
          "name": "The Old Switcheroo (1)",
          "iframe_url": "",
          "iframe_poster": null,
          "release_ru": "2014-10-11",
          "release_world": "2014-10-10",
          "availability": "2014-10-12",
          "voiceActing": [
            "Universal Russia",
            "Eng.Original"
          ],
          "ads": false,
          "subtitle": [
            "Рус. полные"
          ]
        },
        {
          "episode": 6,
          "name": "The Old Switcheroo (2)",
          "iframe_url": "",
          "iframe_poster": null,
          "release_ru": "2014-10-18",
          "release_world": "2014-10-17",
          "availability": "2014-10-19",
          "voiceActing": [
            "Universal Russia",
            "Eng.Original"
          ],
          "ads": false,
          "subtitle": [
            "Рус. полные"
          ]
        },
        {
          "episode": 7,
          "name": "Nowhere Man",
          "iframe_url": "",
          "iframe_poster": null,
          "release_ru": "2014-10-25",
          "release_world": "2014-10-24",
          "availability": "2014-10-26",
          "voiceActing": [
            "Universal Russia",
            "Eng.Original"
          ],
          "ads": false,
          "subtitle": [
            "Рус. полные"
          ]
        },
        {
          "episode": 8,
          "name": "Exposure",
          "iframe_url": "",
          "iframe_poster": null,
          "release_ru": "2014-11-01",
          "release_world": "2014-10-31",
          "availability": "2014-11-02",
          "voiceActing": [
            "Universal Russia",
            "Eng.Original"
          ],
          "ads": false,
          "subtitle": [
            "Рус. полные"
          ]
        },
        {
          "episode": 9,
          "name": "Morbidity",
          "iframe_url": "",
          "iframe_poster": null,
          "release_ru": "2014-11-08",
          "release_world": "2014-11-07",
          "availability": "2014-11-09",
          "voiceActing": [
            "Universal Russia",
            "Eng.Original"
          ],
          "ads": false,
          "subtitle": [
            "Рус. полные"
          ]
        },
        {
          "episode": 10,
          "name": "Mortality",
          "iframe_url": "",
          "iframe_poster": null,
          "release_ru": "2014-11-15",
          "release_world": "2014-11-14",
          "availability": "2014-11-16",
          "voiceActing": [
            "Universal Russia",
            "Eng.Original"
          ],
          "ads": false,
          "subtitle": [
            "Рус. полные"
          ]
        },
        {
          "episode": 11,
          "name": "Reflections",
          "iframe_url": "",
          "iframe_poster": null,
          "release_ru": "2014-11-22",
          "release_world": "2014-11-21",
          "availability": "2014-11-23",
          "voiceActing": [
            "Universal Russia",
            "Eng.Original"
          ],
          "ads": false,
          "subtitle": [
            "Рус. полные"
          ]
        },
        {
          "episode": 12,
          "name": "Chemistry",
          "iframe_url": "",
          "iframe_poster": null,
          "release_ru": "2014-11-29",
          "release_world": "2014-11-28",
          "availability": "2014-11-30",
          "voiceActing": [
            "Universal Russia",
            "Eng.Original"
          ],
          "ads": false,
          "subtitle": [
            "Рус. полные"
          ]
        },
        {
          "episode": 13,
          "name": "Chosen",
          "iframe_url": "",
          "iframe_poster": null,
          "release_ru": "2014-12-06",
          "release_world": "2014-12-05",
          "availability": "2014-12-07",
          "voiceActing": [
            "Universal Russia",
            "Eng.Original"
          ],
          "ads": false,
          "subtitle": [
            "Рус. полные"
          ]
        },
        {
          "episode": 14,
          "name": "New World Order",
          "iframe_url": "",
          "iframe_poster": null,
          "release_ru": "2015-10-09",
          "release_world": "2015-10-08",
          "availability": "2015-10-10",
          "voiceActing": [
            "Universal Russia",
            "Eng.Original"
          ],
          "ads": false,
          "subtitle": [
            "Рус. полные"
          ]
        },
        {
          "episode": 15,
          "name": "Power",
          "iframe_url": "",
          "iframe_poster": null,
          "release_ru": "2015-10-09",
          "release_world": "2015-10-08",
          "availability": "2015-10-10",
          "voiceActing": [
            "Universal Russia",
            "Eng.Original"
          ],
          "ads": false,
          "subtitle": [
            "Рус. полные"
          ]
        },
        {
          "episode": 16,
          "name": "The Trial of Nathan Wuornos",
          "iframe_url": "",
          "iframe_poster": null,
          "release_ru": "2015-10-16",
          "release_world": "2015-10-15",
          "availability": "2015-10-17",
          "voiceActing": [
            "Universal Russia",
            "Eng.Original"
          ],
          "ads": false,
          "subtitle": [
            "Рус. полные"
          ]
        },
        {
          "episode": 17,
          "name": "Enter Sandman",
          "iframe_url": "",
          "iframe_poster": null,
          "release_ru": "2015-10-23",
          "release_world": "2015-10-22",
          "availability": "2015-10-24",
          "voiceActing": [
            "Universal Russia",
            "Eng.Original"
          ],
          "ads": false,
          "subtitle": [
            "Рус. полные"
          ]
        },
        {
          "episode": 18,
          "name": "Wild Card",
          "iframe_url": "",
          "iframe_poster": null,
          "release_ru": "2015-10-30",
          "release_world": "2015-10-29",
          "availability": "2015-10-31",
          "voiceActing": [
            "Universal Russia",
            "Eng.Original"
          ],
          "ads": false,
          "subtitle": [
            "Рус. полные"
          ]
        },
        {
          "episode": 19,
          "name": "Perditus",
          "iframe_url": "",
          "iframe_poster": null,
          "release_ru": "2015-11-06",
          "release_world": "2015-11-05",
          "availability": "2015-11-07",
          "voiceActing": [
            "Universal Russia",
            "Eng.Original"
          ],
          "ads": false,
          "subtitle": [
            "Рус. полные"
          ]
        },
        {
          "episode": 20,
          "name": "Just Passing Through",
          "iframe_url": "",
          "iframe_poster": null,
          "release_ru": "2015-11-13",
          "release_world": "2015-11-12",
          "availability": "2015-11-14",
          "voiceActing": [
            "Universal Russia",
            "Eng.Original"
          ],
          "ads": false,
          "subtitle": [
            "Рус. полные"
          ]
        },
        {
          "episode": 21,
          "name": "Close to Home",
          "iframe_url": "",
          "iframe_poster": null,
          "release_ru": "2015-11-20",
          "release_world": "2015-11-19",
          "availability": "2015-11-21",
          "voiceActing": [
            "Universal Russia",
            "Eng.Original"
          ],
          "ads": false,
          "subtitle": [
            "Рус. полные"
          ]
        },
        {
          "episode": 22,
          "name": "A Matter of Time",
          "iframe_url": "",
          "iframe_poster": null,
          "release_ru": "2015-11-27",
          "release_world": "2015-11-26",
          "availability": "2015-11-28",
          "voiceActing": [
            "Universal Russia",
            "Eng.Original"
          ],
          "ads": false,
          "subtitle": [
            "Рус. полные"
          ]
        },
        {
          "episode": 23,
          "name": "Blind Spot",
          "iframe_url": "",
          "iframe_poster": null,
          "release_ru": "2015-12-04",
          "release_world": "2015-12-03",
          "availability": "2015-12-05",
          "voiceActing": [
            "Universal Russia",
            "Eng.Original"
          ],
          "ads": false,
          "subtitle": [
            "Рус. полные"
          ]
        },
        {
          "episode": 24,
          "name": "The Widening Gyre",
          "iframe_url": "",
          "iframe_poster": null,
          "release_ru": "2015-12-11",
          "release_world": "2015-12-10",
          "availability": "2015-12-12",
          "voiceActing": [
            "Universal Russia",
            "Eng.Original"
          ],
          "ads": false,
          "subtitle": [
            "Рус. полные"
          ]
        },
        {
          "episode": 25,
          "name": "Now",
          "iframe_url": "",
          "iframe_poster": null,
          "release_ru": "2015-12-18",
          "release_world": "2015-12-17",
          "availability": "2015-12-19",
          "voiceActing": [
            "Universal Russia",
            "Eng.Original"
          ],
          "ads": false,
          "subtitle": [
            "Рус. полные"
          ]
        },
        {
          "episode": 26,
          "name": "Forever",
          "iframe_url": "",
          "iframe_poster": null,
          "release_ru": "2015-12-18",
          "release_world": "2015-12-17",
          "availability": "2015-12-19",
          "voiceActing": [
            "Universal Russia",
            "Eng.Original"
          ],
          "ads": false,
          "subtitle": [
            "Рус. полные"
          ]
        }
      ]
    }
  ],
  "voiceActing": [
    "SyFy",
    "Eng.Original",
    "Diva Universal",
    "Universal Russia"
  ],
  "subtitle": [
    "Рус. полные"
  ],
  "parts": []
}
