{
  "id": 13546,
  "name": "Сумка с деньгами",
  "name_eng": "Meonibaek",
  "year": 2018,
  "slogan": "—",
  "age": null,
  "type": "film",
  "quality": "HD (720p)",
  "imdb": "6.1",
  "imdb_id": "10452996",
  "kinopoisk": null,
  "kinopoisk_id": "1112992",
  "world_art": null,
  "world_art_id": null,
  "time": "100 мин. / 01:40",
  "ads": true,
  "premier": "2018-04-12",
  "premier_rus": null,
  "availability": null,
  "activate_time": "2019-12-17 17:24:00",
  "budget": null,
  "fees_use": null,
  "fees_world": "$358 212",
  "fees_rus": null,
  "rate_mpaa": null,
  "description": "Не сумев достать необходимую для операции матери сумму, Мин-джэ собирается лезть в петлю, но судьба преподносит ему подарок в виде посылки, которую курьер просит передать отсутствующему соседу. В коробке обнаруживается пистолет, оставленный в залог полицейским и посланный хозяином подпольного казино киллеру, чтобы устранить обнаглевшего политика. С помощью оружия Мин-джэ решается на ограбление, и теперь куча элементов разной степени криминализированности будет пытаться заполучить пистолет и сумку с деньгами.",
  "iframe_url": "",
  "iframe_poster": null,
  "poster": "https://img.imgilall.me/movies/franchise/1/3/5/4/6/0/0/0/0/0/610x900_13546.jpg",
  "country": {
    "16": "Корея Южная"
  },
  "collection": [],
  "genre": {
    "25": "Криминал",
    "17": "Боевик",
    "13": "Триллер",
    "10": "Зарубежный"
  },
  "director": [
    "Хо Джун-хён"
  ],
  "screenwriter": [
    "Хо Джун-хён"
  ],
  "producer": [
    "Ли Джон-сок"
  ],
  "operator": [
    "Ли Чхун-хи"
  ],
  "composer": [
    "Сон Му-хён"
  ],
  "design": [
    "Чхве И-ён"
  ],
  "editor": [
    "Ким Сон-мин"
  ],
  "actors": [
    "Ким Му-ёль",
    "Пак Хи-сун",
    "Ли Гён-ён",
    "Чон Гван-нёль",
    "Лим Вон-хи",
    "О Джон-сэ",
    "Ким Мин-гё",
    "Хён Бон-щик",
    "Чхве Джон-нам",
    "Ли Ик-чун"
  ],
  "actors_dubl": [],
  "trivia": [],
  "trailers": [],
  "seasons": [],
  "voiceActing": [
    "Колобок"
  ],
  "subtitle": [],
  "parts": []
}
