{
  "id": 13600,
  "name": "Энди Маррей: Возрождение",
  "name_eng": "Andy Murray: Resurfacing",
  "year": 2019,
  "slogan": null,
  "age": null,
  "type": "film",
  "quality": "HD (720p)",
  "imdb": "8.0",
  "imdb_id": "11243364",
  "kinopoisk": null,
  "kinopoisk_id": null,
  "world_art": null,
  "world_art_id": null,
  "time": null,
  "ads": true,
  "premier": "2019-11-29",
  "premier_rus": null,
  "availability": null,
  "activate_time": "2019-12-18 21:53:00",
  "budget": null,
  "fees_use": null,
  "fees_world": null,
  "fees_rus": null,
  "rate_mpaa": null,
  "description": null,
  "iframe_url": "",
  "iframe_poster": null,
  "poster": "https://img.imgilall.me/movies/franchise/1/3/6/0/0/0/0/0/0/0/610x900_13600.jpg",
  "country": {
    "2": "Великобритания"
  },
  "collection": [],
  "genre": {
    "54": "Документальный"
  },
  "director": [],
  "screenwriter": [],
  "producer": [],
  "operator": [],
  "composer": [],
  "design": [],
  "editor": [],
  "actors": [],
  "actors_dubl": [],
  "trivia": [],
  "trailers": [],
  "seasons": [],
  "voiceActing": [
    "Рус. Люб. многоголосый"
  ],
  "subtitle": [],
  "parts": []
}
