{
  "id": 1383,
  "name": "Милый Ханс, дорогой Петр",
  "name_eng": "",
  "year": 2015,
  "slogan": "—",
  "age": "18+",
  "type": "film",
  "quality": "FHD (1080p)",
  "imdb": "6.1",
  "imdb_id": "3817188",
  "kinopoisk": "5.9",
  "kinopoisk_id": "712697",
  "world_art": null,
  "world_art_id": null,
  "time": "124 мин. / 02:04",
  "ads": false,
  "premier": "2015-10-07",
  "premier_rus": "2016-03-10",
  "availability": null,
  "activate_time": "2018-08-02 15:51:06",
  "budget": "$3 500 000",
  "fees_use": null,
  "fees_world": "$15 565",
  "fees_rus": "$15 735",
  "rate_mpaa": null,
  "description": "Накануне войны немецкие инженеры работают на советском заводе над производством высокоточной оптики. Судьба и благополучие каждого из них зависит от успеха дела, но пока результата нет – ошибки следуют одна за другой. На фоне производственных неудач и приближения трагической эпохи раскрываются личные проблемы героев и их непростые взаимоотношения. Во время ответственной варки у инженера Ханса случается нервный срыв, приведший к тяжелым последствиям: взрыву, смертям и расследованию советских спецслужб. Свидетелем его проступка становится русский рабочий Пётр. Ханс и Пётр, случайно ставший причастным к преступлению, оказываются в зависимости друг от друга, повязанные страхом разоблачения. Однако взаимное недоверие парадоксальным образом оборачивается духовной близостью. Когда Петр с женой и детьми тайно бежит из города, гонимый страхом расстрела, немецкий инженер вместо облегчения испытывает чувство утраты. Вскоре Ханс возвращается в те же места, но уже в офицерской форме, смотрит в бинокль сквозь созданные им же линзы, обозревая окрестности: а была ли недавняя мирная жизнь?",
  "iframe_url": "",
  "iframe_poster": null,
  "poster": "https://img.imgilall.me/movies/franchise/1/3/8/3/0/0/0/0/0/0/610x900_1383.jpg",
  "country": {
    "2": "Великобритания",
    "20": "Германия",
    "5": "Россия",
    "6": "Украина"
  },
  "collection": [],
  "genre": {
    "22": "Русский",
    "7": "Драма"
  },
  "director": [
    "Александр Миндадзе"
  ],
  "screenwriter": [
    "Александр Миндадзе"
  ],
  "producer": [
    "Александр Миндадзе",
    "Лиза Антонова",
    "Хайно Декерт"
  ],
  "operator": [
    "Олег Муту"
  ],
  "composer": [
    "Валерий Сивер"
  ],
  "design": [
    "Кирилл Шувалов",
    "Екатерина Химичева"
  ],
  "editor": [
    "Даша Данилова"
  ],
  "actors": [
    "Якоб Диль",
    "Биргит Минихмайр",
    "Марк Вашке",
    "Марк Хоземанн",
    "Роза Хайруллина",
    "Андрюс Даряла",
    "Евгений Сармонт",
    "Ангелина Римашевская",
    "Анна Скиданова",
    "Светлана Косолапова"
  ],
  "actors_dubl": [],
  "trivia": [],
  "trailers": [],
  "seasons": [],
  "voiceActing": [
    "Рус. Оригинальный"
  ],
  "subtitle": [],
  "parts": []
}
