{
  "id": 13857,
  "name": "Подарок доброй ведьмы",
  "name_eng": "The Good Witch's Gift",
  "year": 2010,
  "slogan": "—",
  "age": "6+",
  "type": "film",
  "quality": "HD (720p)",
  "imdb": "7.3",
  "imdb_id": "1560779",
  "kinopoisk": "6.8",
  "kinopoisk_id": "489418",
  "world_art": null,
  "world_art_id": null,
  "time": "83 мин. / 01:23",
  "ads": false,
  "premier": "2010-11-13",
  "premier_rus": null,
  "availability": null,
  "activate_time": "2019-12-27 09:59:00",
  "budget": null,
  "fees_use": null,
  "fees_world": null,
  "fees_rus": null,
  "rate_mpaa": null,
  "description": "Джейк Рассел хочет сделать своей невесте, Кэсси, идеальный рождественский подарок. Ему в голову приходит великолепная идея — устроить свадьбу на Рождество, но возникают непредвиденные препятствия, которые они должны преодолеть, чтобы пожениться.\r\rНеожиданно в город приезжает бывший заключенный Леон Дикс, он ищет деньги, которые спрятал в доме Кэсси. Джейк также не может найти документы Кэсси, которые нужно отнести в ЗАГс. А еще собака съела свадебный торт, и теперь Джейк во что бы то ни стало должен найти новый. И, наконец, дети Джейка не в восторге от затеи папы. \r\rСможет ли Кэсси с помощью магии справиться со всеми трудностями и насладиться незабываемым Рождеством?",
  "iframe_url": "",
  "iframe_poster": null,
  "poster": "https://img.imgilall.me/movies/franchise/1/3/8/5/7/0/0/0/0/0/610x900_13857.jpg",
  "country": {
    "7": "Канада"
  },
  "collection": [],
  "genre": {
    "6": "Фэнтези",
    "33": "Семейный",
    "10": "Зарубежный",
    "7": "Драма"
  },
  "director": [
    "Крэйг Прайс"
  ],
  "screenwriter": [
    "Род Спенс",
    "Дж. Росс Паркер"
  ],
  "producer": [
    "Андреа Раффаэлло",
    "Орли Эделсон",
    "Джанина Баррет"
  ],
  "operator": [
    "Джон Берри"
  ],
  "composer": [
    "Джек Ленц"
  ],
  "design": [
    "Ингрид Юрек",
    "Норин Ландри",
    "Элизабет Колдерхед"
  ],
  "editor": [
    "Марк Сандерс"
  ],
  "actors": [
    "Кэтрин Белл",
    "Крис Поттер",
    "Катрин Дишер",
    "Питер Макнил",
    "Мэттью Найт",
    "Элизабет Ленни",
    "Ханна Эндикотт-Дуглас",
    "Ной Кэппи",
    "Пол Миллер",
    "Лаура Бертрам"
  ],
  "actors_dubl": [],
  "trivia": [],
  "trailers": [],
  "seasons": [],
  "voiceActing": [
    "Fox",
    "Рус. Проф. многоголосый",
    "Eng.Original"
  ],
  "subtitle": [],
  "parts": []
}
