{
  "id": 14282,
  "name": "Невинный поцелуй",
  "name_eng": "An Innocent Kiss",
  "year": 2019,
  "slogan": "—",
  "age": null,
  "type": "film",
  "quality": "HD (720p)",
  "imdb": "8.8",
  "imdb_id": "9642038",
  "kinopoisk": null,
  "kinopoisk_id": "1232670",
  "world_art": null,
  "world_art_id": null,
  "time": "111 мин. / 01:51",
  "ads": true,
  "premier": "2019-12-31",
  "premier_rus": null,
  "availability": null,
  "activate_time": "2020-01-13 21:02:00",
  "budget": "",
  "fees_use": "",
  "fees_world": "",
  "fees_rus": "",
  "rate_mpaa": "",
  "description": "У Элли и Билли проблемы в браке, но всё было хорошо до приезда Рэнди, брата Билли. Стоило ему приехать и всё пошло кувырком. Теперь Элли и Билли надо наладить отношения, но еще и готовится к фестивалю.",
  "iframe_url": "",
  "iframe_poster": null,
  "poster": "https://img.imgilall.me/movies/franchise/1/4/2/8/2/0/0/0/0/0/610x900_14282.jpg",
  "country": {
    "1": "США"
  },
  "collection": {
    "36": "Романтические комедии",
    "27": "Про жизнь"
  },
  "genre": {
    "33": "Семейный",
    "19": "Комедия",
    "10": "Зарубежный"
  },
  "director": [
    "Джейсон Ширли"
  ],
  "screenwriter": [
    "Джейсон Ширли",
    "Jeremy Shirley"
  ],
  "producer": [
    "Shelby D. Henderson",
    "Paul Papadeas",
    "Джейсон Ширли"
  ],
  "operator": [],
  "composer": [
    "Clay Bolt"
  ],
  "design": [
    "Дуглас Лигон",
    "Lenual Mukai",
    "Эмили Уэстон"
  ],
  "editor": [
    "Джейсон Ширли",
    "David Thienes"
  ],
  "actors": [
    "Р. Кит Харрис",
    "Уитни Гойн",
    "Майкл Эбботт мл.",
    "Берт Рейнолдс",
    "Майкл Провост",
    "Уолтер Роберт Дакворт",
    "Софи Уотсон",
    "Noah Neal",
    "Matt Rossitch",
    "Али Линдси"
  ],
  "actors_dubl": [],
  "trivia": [],
  "trailers": [],
  "seasons": [],
  "voiceActing": [
    "Рус. Люб. многоголосый"
  ],
  "subtitle": [],
  "parts": []
}
