{
  "id": 14283,
  "name": "Амитивилль: Экзорцизм",
  "name_eng": "Amityville Exorcism",
  "year": 2017,
  "slogan": "—",
  "age": null,
  "type": "film",
  "quality": "HD (720p)",
  "imdb": "4.0",
  "imdb_id": "6068978",
  "kinopoisk": null,
  "kinopoisk_id": "1004575",
  "world_art": null,
  "world_art_id": null,
  "time": "77 мин. / 01:17",
  "ads": true,
  "premier": "2017-01-03",
  "premier_rus": null,
  "availability": null,
  "activate_time": "2020-01-15 15:28:00",
  "budget": "",
  "fees_use": "",
  "fees_world": "",
  "fees_rus": "",
  "rate_mpaa": "",
  "description": "Семья должна довериться таинственному священнику, когда демоническая сила овладевает их дочерью.",
  "iframe_url": "",
  "iframe_poster": null,
  "poster": "https://img.imgilall.me/movies/franchise/1/4/2/8/3/0/0/0/0/0/610x900_14283.jpg",
  "country": {
    "1": "США"
  },
  "collection": {
    "29": "Психологические"
  },
  "genre": {
    "26": "Ужасы",
    "10": "Зарубежный"
  },
  "director": [
    "Марк Полония"
  ],
  "screenwriter": [
    "Билли Д’Амато"
  ],
  "producer": [
    "Роб Хаусхильд"
  ],
  "operator": [
    "Лукас К. Рейнольдс"
  ],
  "composer": [
    "John Rayl",
    "Greg Stanina"
  ],
  "design": [],
  "editor": [
    "Марк Полония"
  ],
  "actors": [
    "Мари ДеЛоренцо",
    "Jeff Kirkendall",
    "James Carolus",
    "Austin Dragovich",
    "Steve Diasparra",
    "Кэтрин Сью Янг",
    "Titus Himmelberger",
    "Yolie Canales",
    "Кен Ван Сент",
    "Тодд Карпентер"
  ],
  "actors_dubl": [],
  "trivia": [],
  "trailers": [],
  "seasons": [],
  "voiceActing": [
    "Рус. Люб. многоголосый"
  ],
  "subtitle": [],
  "parts": []
}
