{
  "id": 14367,
  "name": "Мы такие, какие есть",
  "name_eng": "We Are What We Are",
  "year": 2013,
  "slogan": "«Blood is the strongest bond»",
  "age": null,
  "type": "film",
  "quality": "HD (720p)",
  "imdb": "5.9",
  "imdb_id": "2309021",
  "kinopoisk": "5.2",
  "kinopoisk_id": "673323",
  "world_art": null,
  "world_art_id": null,
  "time": "100 мин. / 01:40",
  "ads": false,
  "premier": "2013-01-18",
  "premier_rus": null,
  "availability": "2013-01-19",
  "activate_time": "2020-01-20 17:51:00",
  "budget": null,
  "fees_use": "$81 381",
  "fees_world": "+ $77 666 = $159 047",
  "fees_rus": null,
  "rate_mpaa": "R",
  "description": "Казалось бы, обычная доброжелательная семья Паркеров, всегда державшаяся особняком от остальных жителей городка, не могла бы привлечь к себе особого внимания. Но за закрытыми дверями вспыльчивый глава семейства Фрэнк правит бал и хранит семейные секреты от посторонних глаз. Секреты, которые заставят содрогнуться от ужаса любого, кто прикоснется к ним.",
  "iframe_url": "",
  "iframe_poster": null,
  "poster": "https://img.imgilall.me/movies/franchise/1/4/3/6/7/0/0/0/0/0/610x900_14367.jpg",
  "country": {
    "1": "США",
    "9": "Франция"
  },
  "collection": {
    "25": "Про маньяков",
    "14": "Для взрослых"
  },
  "genre": {
    "26": "Ужасы",
    "13": "Триллер",
    "10": "Зарубежный",
    "7": "Драма"
  },
  "director": [
    "Джим Микл"
  ],
  "screenwriter": [
    "Ник Дамичи",
    "Джим Микл",
    "Хорхе Мишель Грау"
  ],
  "producer": [
    "Родриго Бельотт",
    "Линда Моран",
    "Джек Тернер"
  ],
  "operator": [
    "Райан Самул"
  ],
  "composer": [
    "Джефф Грэйс",
    "Даррен Моррис",
    "Фил Моссман"
  ],
  "design": [
    "Расселл Барнс",
    "Ада Смит",
    "Лиз Вастола"
  ],
  "editor": [
    "Джим Микл"
  ],
  "actors": [
    "Кэсси ДеПайва",
    "Лорен Рейто",
    "Джулия Гарнер",
    "Эмбир Чилдерс",
    "Джек Гор",
    "Билл Сейдж",
    "Келли МакГиллис",
    "Уайатт Рассел",
    "Майкл Паркс",
    "Аннемари Лоулесс"
  ],
  "actors_dubl": [],
  "trivia": [],
  "trailers": [],
  "seasons": [],
  "voiceActing": [
    "Рус. Люб. двухголосый",
    "Eng.Original"
  ],
  "subtitle": [],
  "parts": []
}
