{
  "id": 14380,
  "name": "Падшие Ангелы",
  "name_eng": "Angels Fallen",
  "year": 2020,
  "slogan": "—",
  "age": null,
  "type": "film",
  "quality": "HD (720p)",
  "imdb": "3.1",
  "imdb_id": "5759590",
  "kinopoisk": null,
  "kinopoisk_id": "982562",
  "world_art": null,
  "world_art_id": null,
  "time": "86 мин. / 01:26",
  "ads": true,
  "premier": "2020-01-14",
  "premier_rus": null,
  "availability": null,
  "activate_time": "2020-01-16 12:27:00",
  "budget": "",
  "fees_use": "",
  "fees_world": "",
  "fees_rus": "",
  "rate_mpaa": "",
  "description": "Габриэль — охотник за нечистью, который работает в группе таких же отчаянных и смелых людей. Они ищут зло повсюду и истребляют его. Конечно же, такая работа очень опасна, но герой не боится умереть. Самое страшное для него — потеря любимого человека, и однажды ему приходится с этим столкнуться. Неизвестные убивают его жену, после чего Габриэль впадает в глубокую депрессию. Он замыкается в себе и бросает работу всей своей жизни. Однако силы зла вновь выходят на тропу войны и ему приходится воссоединиться с командой. Вместе они отправляются в самые отдаленные деревушки Европы, чтобы сразиться с безжалостным врагом в последней битве.",
  "iframe_url": "",
  "iframe_poster": null,
  "poster": "https://img.imgilall.me/movies/franchise/1/4/3/8/0/0/0/0/0/0/610x900_14380.jpg",
  "country": {
    "1": "США"
  },
  "collection": {
    "71": "Про путешествия",
    "26": "Про монстров",
    "22": "Про призраков"
  },
  "genre": {
    "26": "Ужасы",
    "10": "Зарубежный"
  },
  "director": [
    "Али Замани"
  ],
  "screenwriter": [
    "Аманда Бартон"
  ],
  "producer": [
    "Ретт Джиллз",
    "Джонатан Хауг",
    "Джастин Джонс"
  ],
  "operator": [
    "Dane Lawing"
  ],
  "composer": [
    "Скотт Энтони Гулд"
  ],
  "design": [
    "Брандо МакКлюр",
    "Simo Branov"
  ],
  "editor": [],
  "actors": [
    "Никола Поснер",
    "Хьюстон Райнс",
    "Майкл Тех",
    "Ли Джин",
    "Майкл Мэдсен",
    "Сэйд Лиг",
    "Каролин Амиге",
    "Эрик Робертс",
    "Lee Kholafai",
    "Ивица Димитрейевич"
  ],
  "actors_dubl": [],
  "trivia": [],
  "trailers": [],
  "seasons": [],
  "voiceActing": [
    "Рус. Люб. многоголосый"
  ],
  "subtitle": [],
  "parts": []
}
