{
  "id": 1445,
  "name": "Операция «Шаровая молния»",
  "name_eng": "Entebbe / 7 Days in Entebbe",
  "year": 2018,
  "slogan": "«248 пассажиров. 7 дней. Один план спасения»",
  "age": "16+",
  "type": "film",
  "quality": "HD (720p)",
  "imdb": "5.8",
  "imdb_id": "5466186",
  "kinopoisk": "5.7",
  "kinopoisk_id": "995013",
  "world_art": null,
  "world_art_id": null,
  "time": "107 мин. / 01:47",
  "ads": false,
  "premier": "2018-02-19",
  "premier_rus": "2018-04-05",
  "availability": "2018-04-06",
  "activate_time": "2018-08-03 14:08:49",
  "budget": null,
  "fees_use": "$3 326 885",
  "fees_world": "+ $5 444 547 = $8 771 432",
  "fees_rus": "$89 967",
  "rate_mpaa": "PG-13",
  "description": "В 1976 году самолет, следовавший из Тель-Авива в Париж, был захвачен террористами и совершил вынужденную посадку в  аэропорту Энтеббе в Уганде с целью обмена заложников на осужденных преступников. Дипломатического решения вопроса за 7 дней найти не удалось. Тогда был разработан весьма изобретательный и  крайне смелый план спасения...",
  "iframe_url": "",
  "iframe_poster": null,
  "poster": "https://img.imgilall.me/movies/franchise/1/4/4/5/0/0/0/0/0/0/610x900_1445.jpg",
  "country": {
    "1": "США",
    "2": "Великобритания"
  },
  "collection": {
    "50": "Про агентов"
  },
  "genre": {
    "25": "Криминал",
    "28": "Исторический",
    "13": "Триллер",
    "10": "Зарубежный",
    "7": "Драма"
  },
  "director": [
    "Жозе Падилья"
  ],
  "screenwriter": [
    "Грегори Бурк"
  ],
  "producer": [
    "Тим Беван",
    "Эрик Феллнер",
    "Рон Халперн"
  ],
  "operator": [
    "Лула Карвальо"
  ],
  "composer": [
    "Родриго Амаранте"
  ],
  "design": [
    "Кейв Куинн",
    "Чарло Далли",
    "Сабина Дайгелер"
  ],
  "editor": [
    "Даниэл Резенде"
  ],
  "actors": [
    "Даниэль Брюль",
    "Розамунд Пайк",
    "Эдди Марсан",
    "Лиор Ашкенази",
    "Дени Меноше",
    "Бен Шнетцер",
    "Анхель Бунани",
    "Марк Иванир",
    "Нонсо Анози",
    "Хуан Пабло Раба"
  ],
  "actors_dubl": [
    "Михаил Тишин",
    "Екатерина Буцкая",
    "Евгений Пашин",
    "Олег Лепенец",
    "Борис Георгиевский"
  ],
  "trivia": [
    "Многие сцены фильма снимали в расположенном неподалёку от муниципалитета Лука международном аэропорту Мальты. Буквально на следующий день после окончания съёмок недалеко от съёмочной площадки приземлился захваченный террористами ливийский самолёт. У преступников были муляжи ручных гранат и пистолетов.",
    "О событиях, о которых идёт речь в фильме, рассказывалось и в других картинах, однако не совсем в таком же ключе — «Победа в Энтеббе» (Марвин Дж. Чомски, 1976), «Рейд на Энтеббе» (Ирвин Кершнер, 1976), и «Операция «Йонатан» (Менахем Голан, 1977)."
  ],
  "trailers": [],
  "seasons": [],
  "voiceActing": [
    "Рус. Дублированный",
    "HDRezka Studio",
    "Eng.Original"
  ],
  "subtitle": [
    "Eng. full"
  ],
  "parts": []
}
