{
  "id": 14463,
  "name": "Кобра",
  "name_eng": "Cobra",
  "year": 2019,
  "slogan": "—",
  "age": "16+",
  "type": "series",
  "quality": "HD (720p)",
  "imdb": "6.0",
  "imdb_id": "10062652",
  "kinopoisk": "6.0",
  "kinopoisk_id": "1253001",
  "world_art": null,
  "world_art_id": null,
  "time": "43 мин",
  "ads": false,
  "premier": "2020-01-17",
  "premier_rus": "2020-01-18",
  "availability": "2020-01-18",
  "serial_status": "online",
  "activate_time": "2020-01-21 16:04:00",
  "budget": null,
  "fees_use": null,
  "fees_world": null,
  "fees_rus": null,
  "rate_mpaa": null,
  "description": "Шоу расскажет о работе комитета «Кобра», состоящем из экспертов по безопасности, политиков и специалистов по защите граждан во время ЧС. Премьер-министр Великобритании  постоянно вынужден принимать неожиданные и порой рискованные политические решения, дабы страна спала спокойно. Полная боевая готовность не только для героев, но и зрителей: лихо закрученный сюжет точно не даст заскучать.",
  "iframe_url": "",
  "poster": "https://img.imgilall.me/movies/franchise/1/4/4/6/3/0/0/0/0/0/610x900_14463.jpg",
  "country": {
    "2": "Великобритания"
  },
  "collection": [],
  "genre": {
    "17": "Боевик",
    "10": "Зарубежный"
  },
  "director": [
    "Ханс Херботс",
    "Аластер Маккэй",
    "Мо Али"
  ],
  "screenwriter": [
    "Бен Ричардс"
  ],
  "producer": [
    "Joe Donaldson",
    "Риан Гриффитс",
    "Кристин Хили"
  ],
  "operator": [
    "Лоуренс Де Гейтер",
    "Мика Орасмаа",
    "Антон Мертенс"
  ],
  "composer": [
    "Роберт Лэйн"
  ],
  "design": [
    "Стефен Дэйли",
    "Ник Бланш",
    "Адам Дэвид Грант"
  ],
  "editor": [
    "Бен Друри",
    "Марк Тренд",
    "Хелен Чэпман"
  ],
  "actors": [
    "Роберт Карлайл",
    "Виктория Хэмилтон",
    "Джошуа Хоган",
    "Дэвид Хэйг",
    "Ричард Дормер",
    "Люси Коху",
    "Лиза Пэлфри",
    "Эдвард Беннетт",
    "Мариса Абела",
    "Элли Кендрик"
  ],
  "actors_dubl": [],
  "trivia": [],
  "trailers": [],
  "seasons": [
    {
      "poster": null,
      "release_ru": "2020-01-18",
      "release_world": "2020-01-17",
      "availability": "2020-01-19",
      "iframe_url": "",
      "season": 1,
      "episodes": [
        {
          "episode": 1,
          "name": null,
          "iframe_url": "",
          "iframe_poster": null,
          "release_ru": "2020-01-18",
          "release_world": "2020-01-17",
          "availability": "2020-01-19",
          "voiceActing": [
            "Amedia",
            "Eng.Original"
          ],
          "ads": false,
          "subtitle": []
        },
        {
          "episode": 2,
          "name": null,
          "iframe_url": "",
          "iframe_poster": null,
          "release_ru": "2020-01-18",
          "release_world": "2020-01-17",
          "availability": "2020-01-19",
          "voiceActing": [
            "Amedia",
            "Eng.Original"
          ],
          "ads": false,
          "subtitle": []
        },
        {
          "episode": 3,
          "name": null,
          "iframe_url": "",
          "iframe_poster": null,
          "release_ru": "2020-01-18",
          "release_world": "2020-01-17",
          "availability": "2020-01-19",
          "voiceActing": [
            "Amedia",
            "Eng.Original"
          ],
          "ads": false,
          "subtitle": []
        },
        {
          "episode": 4,
          "name": null,
          "iframe_url": "",
          "iframe_poster": null,
          "release_ru": "2020-01-18",
          "release_world": "2020-01-17",
          "availability": "2020-01-19",
          "voiceActing": [
            "Amedia",
            "Eng.Original"
          ],
          "ads": false,
          "subtitle": []
        },
        {
          "episode": 5,
          "name": null,
          "iframe_url": "",
          "iframe_poster": null,
          "release_ru": "2020-01-18",
          "release_world": "2020-01-17",
          "availability": "2020-01-19",
          "voiceActing": [
            "Amedia",
            "Eng.Original"
          ],
          "ads": false,
          "subtitle": []
        },
        {
          "episode": 6,
          "name": null,
          "iframe_url": "",
          "iframe_poster": null,
          "release_ru": "2020-01-18",
          "release_world": "2020-01-17",
          "availability": "2020-01-19",
          "voiceActing": [
            "Amedia",
            "Eng.Original"
          ],
          "ads": false,
          "subtitle": []
        }
      ]
    },
    {
      "poster": null,
      "release_ru": "2021-10-16",
      "release_world": "2021-10-15",
      "availability": "2021-10-17",
      "iframe_url": "",
      "season": 2,
      "episodes": [
        {
          "episode": 1,
          "name": null,
          "iframe_url": "",
          "iframe_poster": null,
          "release_ru": "2021-10-16",
          "release_world": "2021-10-15",
          "availability": "2021-10-17",
          "voiceActing": [
            "Amedia",
            "Eng.Original"
          ],
          "ads": false,
          "subtitle": [
            "Рус. форсированные"
          ]
        },
        {
          "episode": 2,
          "name": null,
          "iframe_url": "",
          "iframe_poster": null,
          "release_ru": "2021-10-16",
          "release_world": "2021-10-15",
          "availability": "2021-10-17",
          "voiceActing": [
            "Amedia",
            "Eng.Original"
          ],
          "ads": false,
          "subtitle": [
            "Рус. форсированные"
          ]
        },
        {
          "episode": 3,
          "name": null,
          "iframe_url": "",
          "iframe_poster": null,
          "release_ru": "2021-10-16",
          "release_world": "2021-10-15",
          "availability": "2021-10-17",
          "voiceActing": [
            "Amedia",
            "Eng.Original"
          ],
          "ads": false,
          "subtitle": [
            "Рус. форсированные"
          ]
        },
        {
          "episode": 4,
          "name": null,
          "iframe_url": "",
          "iframe_poster": null,
          "release_ru": "2021-10-16",
          "release_world": "2021-10-15",
          "availability": "2021-10-17",
          "voiceActing": [
            "Amedia",
            "Eng.Original"
          ],
          "ads": false,
          "subtitle": [
            "Рус. форсированные"
          ]
        },
        {
          "episode": 5,
          "name": null,
          "iframe_url": null,
          "iframe_poster": null,
          "release_ru": "2021-10-16",
          "release_world": "2021-10-15",
          "availability": "2021-10-17",
          "voiceActing": []
        },
        {
          "episode": 6,
          "name": null,
          "iframe_url": null,
          "iframe_poster": null,
          "release_ru": "2021-10-16",
          "release_world": "2021-10-15",
          "availability": "2021-10-17",
          "voiceActing": []
        }
      ]
    }
  ],
  "voiceActing": [
    "Amedia",
    "Eng.Original"
  ],
  "subtitle": [
    "Рус. форсированные"
  ],
  "parts": []
}
