{
  "id": 14518,
  "name": "Черная Молния",
  "name_eng": "",
  "year": 2009,
  "slogan": "«Ты должен подняться»",
  "age": "0+",
  "type": "film",
  "quality": "HD (720p)",
  "imdb": "5.7",
  "imdb_id": "1569364",
  "kinopoisk": "5.3",
  "kinopoisk_id": "439906",
  "world_art": null,
  "world_art_id": null,
  "time": "100 мин. / 01:40",
  "ads": false,
  "premier": "2009-12-28",
  "premier_rus": "2009-12-31",
  "availability": "2010-01-01",
  "activate_time": "2020-01-20 17:52:00",
  "budget": "$8 000 000",
  "fees_use": null,
  "fees_world": "$21 500 000",
  "fees_rus": "$19 680 848",
  "rate_mpaa": null,
  "description": "Двадцатилетний Дима Майков получает в подарок от отца старенький автомобиль ГАЗ-21 «Волга» и внезапно обнаруживает, что его машина летает, как настоящий истребитель. Дима  активно включается в бизнес по доставке цветов, проносясь над столичными пробками и наслаждаясь полётами, пока однажды беда не заставляет его по-другому взглянуть на мир. Теперь ему предстоит встать на защиту тех, кем он дорожит, и сразиться со Злом в небе над новогодней Москвой.",
  "iframe_url": "",
  "iframe_poster": null,
  "poster": "https://img.imgilall.me/movies/franchise/1/4/5/1/8/0/0/0/0/0/610x900_14518.jpg",
  "country": {
    "5": "Россия"
  },
  "collection": {
    "21": "Для молодёжи"
  },
  "genre": {
    "9": "Приключения",
    "11": "Фантастика",
    "22": "Русский",
    "19": "Комедия",
    "17": "Боевик",
    "8": "Мелодрама"
  },
  "director": [
    "Александр Войтинский",
    "Дмитрий Киселёв"
  ],
  "screenwriter": [
    "Дмитрий Алейников",
    "Александр Талал"
  ],
  "producer": [
    "Тимур Бекмамбетов",
    "Сюзанна Муазен",
    "Ива Стромилова"
  ],
  "operator": [
    "Сергей Трофимов"
  ],
  "composer": [
    "Юрий Потеенко",
    "Александр Войтинский"
  ],
  "design": [
    "Мария Турская"
  ],
  "editor": [
    "Дмитрий Алейников",
    "Илья Лебедев",
    "Александр Андрющенко"
  ],
  "actors": [
    "Григорий Добрыгин",
    "Иван Жидков",
    "Виктор Вержбицкий",
    "Сергей Гармаш",
    "Валерий Золотухин",
    "Екатерина Вилкова",
    "Екатерина Старшова",
    "Михаил Ефремов",
    "Игорь Савочкин",
    "Андрей Назимов"
  ],
  "actors_dubl": [],
  "trivia": [
    "Продолжительность съемок составила 44 съемочных дня, первый из которых пришелся на 31 декабря 2008 года.",
    "По словам Дмитрия Токоякова, супервайзера студии Bazelevs VFX, за пять месяцев было создано 700 кадров сложнейшей компьютерной графики, 70 из которых нарисованы с нуля.",
    "После консультаций с экспертами по авиации и промышленными дизайнерами аниматоры остановились на «Волге-21» с выдвижными закрылками и убирающимися колесами. Всего было сделано 100 моделей машины. Дабы она летала согласно законам аэродинамики, был разработан специальный авиационный симулятор.",
    "Большинство кадров компьютерной графики были сделаны на основе материала, снятого с участием каскадеров. Так, для съемок пробивающего стену автомобиля была сооружена настоящая пушка, стреляющая машинами весом 700 кг со скоростью на вылете 90 км/ч.",
    "Москву снимали с высотных объектов, используя специальное съемочное оборудование. Недостающие фрагменты изображения затем дополняли компьютерной графикой на основе фотографий.",
    "Над созданием графики к фильму «Черная молния» трудились 150 человек, помимо специалистов Bazelevs VFX для создания отдельных сцен привлекались сотрудники 14 крупных студий компьютерной графики.",
    "Гидравлическая система «Гимбл» позволяла имитировать полет на машине. При этом болтало в ней как на американских горках. Григорий Добрыгин и Виктор Вержбицкий провели на «Гимбле» больше недели.",
    "Полеты над Москвой снимались с помощью радиоуправляемой камеры, которая ездила по тросу, натянутому между двумя огромными кранами.",
    "Каскадерская «Волга ГАЗ-21» разгоняется до 100 км/ч за 6 секунд. Она была оборудована усовершенствованным двигателем.",
    "Готовая «Чёрная молния» весит четыре тонны, разгоняется до 300 км/ч и умеет зависать в воздухе.",
    "В моменте когда семья Димы в гостиной наряжают люстру, на заднем плане отрывок из 127 серии сериала «Папины дочки» (2007-2013).",
    "Студийные съемки фильма проходили в 9-м павильоне «Мосфильма». Его площадь — 1306,4 кв. м. Это второй по величине павильон студии."
  ],
  "trailers": [],
  "seasons": [],
  "voiceActing": [
    "Рус. Оригинальный"
  ],
  "subtitle": [],
  "parts": []
}
