{
  "id": 1453,
  "name": "Славные пташки",
  "name_eng": "PLOEY. You Never Fly Alone",
  "year": 2018,
  "slogan": "—",
  "age": "6+",
  "type": "cartoon",
  "quality": "HD (720p)",
  "imdb": "5.4",
  "imdb_id": "2766104",
  "kinopoisk": "5.9",
  "kinopoisk_id": "1111744",
  "world_art": null,
  "world_art_id": null,
  "time": "83 мин. / 01:23",
  "ads": false,
  "premier": "2018-02-02",
  "premier_rus": "2018-04-12",
  "availability": null,
  "activate_time": "2018-08-03 15:20:16",
  "budget": null,
  "fees_use": null,
  "fees_world": null,
  "fees_rus": "$679 507",
  "rate_mpaa": "PG",
  "description": "Приключения маленького птенца Рыжика и куропатки-отшельника Гайрона. Судьба сводит их вместе, когда Рыжик, отстав от стаи, не смог улететь на юг. Рыжик уговаривает чудаковатого и вечно брюзжащего Гайрона показать ему дорогу в Райскую долину — тайное место в горах, где птицы могут переждать суровую зиму. Путь туда таит немало опасностей. Постепенно неунывающему Рыжику удается растопить сердце старого отшельника. Вместе эта парочка становится друг для друга настоящей семьей, которой по силам свернуть горы.",
  "iframe_url": "",
  "iframe_poster": "https://img.imgilall.me/movies/video/1/4/4/2/7/0/0/0/0/0/800x450_14427.jpeg",
  "poster": "https://img.imgilall.me/movies/franchise/1/4/5/3/0/0/0/0/0/0/610x900_1453.jpg",
  "country": {
    "11": "Исландия",
    "29": "Бельгия"
  },
  "collection": [],
  "genre": {
    "9": "Приключения",
    "37": "Детский",
    "33": "Семейный",
    "19": "Комедия",
    "10": "Зарубежный"
  },
  "director": [
    "Аудни Аусгейрссон"
  ],
  "screenwriter": [
    "Фридрик Эрлингссон"
  ],
  "producer": [
    "Ивес Агеманс",
    "Хильмар Сигурдссон",
    "Маянк Джхалани"
  ],
  "operator": [],
  "composer": [
    "Атли Эрварссон"
  ],
  "design": [],
  "editor": [
    "Йон Стефанссон"
  ],
  "actors": [
    "Шон Эстин",
    "Джон Стамос",
    "Дебби Чейзен",
    "Джорджина Сатклифф",
    "Колин Мейс",
    "Джэми Орам",
    "Донья Кролл",
    "Кайзер Ахтар",
    "Ричард Уиллс-Коттон",
    "Каспер Майклс"
  ],
  "actors_dubl": [
    "Олег Куценко",
    "Элиза Мартиросова",
    "Людмила Ильина",
    "Александр Новиков",
    "Елена Ивасишина"
  ],
  "trivia": [],
  "trailers": [],
  "seasons": [],
  "voiceActing": [
    "Рус. Дублированный"
  ],
  "subtitle": [],
  "parts": []
}
