{
  "id": 14783,
  "name": "За пределами «Маджестик»",
  "name_eng": "Above Majestic",
  "year": 2018,
  "slogan": "—",
  "age": null,
  "type": "film",
  "quality": "HD (720p)",
  "imdb": "6.3",
  "imdb_id": "9143304",
  "kinopoisk": null,
  "kinopoisk_id": "1211915",
  "world_art": null,
  "world_art_id": null,
  "time": "133 мин. / 02:13",
  "ads": true,
  "premier": "2018-06-23",
  "premier_rus": null,
  "availability": "2018-06-24",
  "activate_time": "2020-01-24 21:30:00",
  "budget": "",
  "fees_use": "",
  "fees_world": "",
  "fees_rus": "",
  "rate_mpaa": "",
  "description": "Существуют ли заговоры, меняющие устройство нашего мира? Авторы фильма «За пределами «Маджестик» уверены в том, что подобное имеет место быть. Они предлагают нам погрузиться в историю создания и продвижения одного из таких заговоров.\r\n\r\nПовествование обращает общественное внимание на тайное финансирование многомиллиардной и высокотехнологичной программы по освоению космоса. Согласно авторам картины, этот проект был создан под руководством одной из самых элитных групп, состоящей из наиболее влиятельных военных, политиков и бизнесменов. Собрав имеющиеся у них ресурсы и возможности, они смогли обрести поразительные технологии, не попавшие в руки человечества. Эти люди посчитали, что общество еще не готово к имеющимся у них на руках достижениях. И поэтому они стали использовать их тайно. Но спустя долгое время правда стала доступна опытным журналистам и информаторам, готовым рисковать своими жизнями ради актуальных новостей.\r\n\r\nСобрав все факты воедино, создатели фильма «За пределами «Маджестик» предлагают зрителям погрузиться в провокационное и неоднозначное повествование, рассказывающее о глобальной теории заговора.",
  "iframe_url": "",
  "iframe_poster": null,
  "poster": "https://img.imgilall.me/movies/franchise/1/4/7/8/3/0/0/0/0/0/610x900_14783.jpg",
  "country": {
    "1": "США"
  },
  "collection": {
    "78": "Биографии",
    "28": "Про космос"
  },
  "genre": {
    "54": "Документальный",
    "10": "Зарубежный"
  },
  "director": [
    "Roger R. Richards"
  ],
  "screenwriter": [],
  "producer": [
    "Corey Goode",
    "Jordan Sather",
    "Брэндон Грэхэм"
  ],
  "operator": [
    "Дж.Дж. Сикотт"
  ],
  "composer": [],
  "design": [
    "Rene Armenta"
  ],
  "editor": [],
  "actors": [
    "Дэвид Эдейр",
    "Ronald Bernard",
    "John DeSouza",
    "Лаура Магдалена Эйзенхауэр",
    "Brien Foerster",
    "Corey Goode",
    "Niara Isley",
    "Джон Керри",
    "Mark McCandlish",
    "Рональд Рейган"
  ],
  "actors_dubl": [],
  "trivia": [],
  "trailers": [],
  "seasons": [],
  "voiceActing": [
    "Рус. Люб. многоголосый"
  ],
  "subtitle": [],
  "parts": []
}
