{
  "id": 14809,
  "name": "Дэвид Боуи: Путь к славе",
  "name_eng": "David Bowie: Finding Fame",
  "year": 2019,
  "slogan": "—",
  "age": null,
  "type": "film",
  "quality": "HD (720p)",
  "imdb": "7.3",
  "imdb_id": "9144476",
  "kinopoisk": "7.8",
  "kinopoisk_id": "1260306",
  "world_art": null,
  "world_art_id": null,
  "time": "91 мин. / 01:31",
  "ads": false,
  "premier": "2019-02-09",
  "premier_rus": null,
  "availability": "2019-02-10",
  "activate_time": "2020-01-28 11:48:00",
  "budget": null,
  "fees_use": null,
  "fees_world": null,
  "fees_rus": null,
  "rate_mpaa": null,
  "description": "Еще школьником Дэви Джонс твердо знал, что будет звездой. Правда, ему представлялось, что это произойдет в составе джазового квартета, а на деле слава пришла к Джонсу, больше известному как Дэвид Боуи, с появлением его первого альтер-эго — андрогина-инопланетянина Зигги Стардаста. Путь к триумфу занял 11 лет, за которые Боуи сменил 9 групп, играл ритм-энд-блюз и каверы на песню из мюзикла «Мэри Поппинс», был мимом и хиппи, организовал Общество по защите длинноволосых мужчин и носил женские платья.",
  "iframe_url": "",
  "iframe_poster": null,
  "poster": "https://img.imgilall.me/movies/franchise/1/4/8/0/9/0/0/0/0/0/610x900_14809.jpg",
  "country": {
    "2": "Великобритания"
  },
  "collection": {
    "81": "Про звезд",
    "39": "На реальных событиях"
  },
  "genre": {
    "54": "Документальный",
    "10": "Зарубежный"
  },
  "director": [
    "Фрэнсис Уотли"
  ],
  "screenwriter": [],
  "producer": [
    "Фрэнсис Уотли",
    "Фил Доллинг",
    "Gemma Thomas"
  ],
  "operator": [
    "Луис Колфилд",
    "Ричард Нумерофф"
  ],
  "composer": [],
  "design": [],
  "editor": [
    "Гед Мерфи"
  ],
  "actors": [
    "Дэвид Боуи",
    "Фил Ланкастер",
    "Дэнис Тейлор",
    "Тони Хэтч",
    "Джофф Макгормак",
    "Джордж Андервуд",
    "Джон Хатчинсон",
    "Дэна Гиллеспи",
    "Mark Plati",
    "Эрл Слик"
  ],
  "actors_dubl": [],
  "trivia": [],
  "trailers": [],
  "seasons": [],
  "voiceActing": [
    "Рус. Проф. многоголосый",
    "Eng.Original"
  ],
  "subtitle": [],
  "parts": []
}
