{
  "id": 14846,
  "name": "Где-то там",
  "name_eng": "Elsewhere",
  "year": 2020,
  "slogan": "—",
  "age": null,
  "type": "film",
  "quality": "FHD (1080p)",
  "imdb": "6.0",
  "imdb_id": "7364522",
  "kinopoisk": "6.0",
  "kinopoisk_id": "1061737",
  "world_art": null,
  "world_art_id": null,
  "time": "98 мин. / 01:38",
  "ads": false,
  "premier": "2020-01-24",
  "premier_rus": null,
  "availability": "2020-01-25",
  "activate_time": "2020-02-21 15:14:00",
  "budget": "",
  "fees_use": "",
  "fees_world": "",
  "fees_rus": "",
  "rate_mpaa": "R",
  "description": "Молодой вдовец Бруно теряет главное напоминание о любимой жене – дом у берегу моря, который они построили вместе. Когда родственники покойной выселяют Бруно на улицу, он решает любой ценой отвоевать дом. Познакомившись с новым арендатором Мэри, бывший хозяин представляется простым разнорабочим и начинает рискованную «многоходовку», которая перевернет его взгляды и его судьбу.",
  "iframe_url": "",
  "iframe_poster": null,
  "poster": "https://img.imgilall.me/movies/franchise/1/4/8/4/6/0/0/0/0/0/610x900_14846.jpg",
  "country": {
    "1": "США"
  },
  "collection": {
    "29": "Психологические"
  },
  "genre": {
    "19": "Комедия",
    "10": "Зарубежный",
    "7": "Драма"
  },
  "director": [
    "Эрнан Хименес"
  ],
  "screenwriter": [
    "Эрнан Хименес"
  ],
  "producer": [
    "Крис А. Коул",
    "Дж. Тодд Харрис",
    "Аарон Ау"
  ],
  "operator": [
    "Глауцо Бермудез"
  ],
  "composer": [
    "Марк Ортон"
  ],
  "design": [
    "Пол Джоял",
    "Карлос Болбрадж",
    "Сара Байблоу"
  ],
  "editor": [
    "Эрнан Хименес"
  ],
  "actors": [
    "Аден Янг",
    "Паркер Поузи",
    "Кен Жонг",
    "Бо Бриджес",
    "Джеки Уивер",
    "Джеки Тон",
    "Скотт Хайлендс",
    "Сьюзэн Хоган",
    "Рэй Абруццо",
    "Кэтлин Манро"
  ],
  "actors_dubl": [
    "Александр Гаврилин",
    "Ольга Зверева",
    "Андрей Бархударов",
    "Борис Токарев",
    "Наталья Казначеева"
  ],
  "trivia": [],
  "trailers": [],
  "seasons": [],
  "voiceActing": [
    "Рус. Дублированный",
    "Eng.Original"
  ],
  "subtitle": [
    "Eng. full"
  ],
  "parts": []
}
