{
  "id": 14862,
  "name": "1210",
  "name_eng": "",
  "year": 2012,
  "slogan": "«Равнодушие рождает чудовищ»",
  "age": "12+",
  "type": "film",
  "quality": "SD",
  "imdb": "6.2",
  "imdb_id": "2372461",
  "kinopoisk": "6.4",
  "kinopoisk_id": "680941",
  "world_art": null,
  "world_art_id": null,
  "time": "73 мин. / 01:13",
  "ads": false,
  "premier": null,
  "premier_rus": "2012-10-25",
  "availability": "2012-10-26",
  "activate_time": "2020-02-06 20:47:00",
  "budget": "₽ 600 000",
  "fees_use": null,
  "fees_world": null,
  "fees_rus": null,
  "rate_mpaa": null,
  "description": "«1210» - это история про «маленького человека», который пытается добиться справедливости от государства. Но его попытки заранее обречены. Он - лишний, ненужный старик, против которого ополчилась даже его собственная семья.Обездоленному и обворованному ветерану войны, кажется, остается только сойти с ума. Но это еще вопрос - он безумен в этом «нормальном» мире или «нормальный» мир сошел с ума от равнодушия? В итоге, отчаявшийся старик решается на страшный поступок. Поступок, который вряд ли можно будет оправдать.",
  "iframe_url": "",
  "iframe_poster": null,
  "poster": "https://img.imgilall.me/movies/franchise/1/4/8/6/2/0/0/0/0/0/610x900_14862.jpg",
  "country": {
    "5": "Россия"
  },
  "collection": {
    "27": "Про жизнь"
  },
  "genre": {
    "22": "Русский",
    "7": "Драма"
  },
  "director": [
    "Арсений Гончуков"
  ],
  "screenwriter": [
    "Арсений Гончуков"
  ],
  "producer": [
    "Арсений Гончуков"
  ],
  "operator": [
    "Константин Рассолов"
  ],
  "composer": [
    "Никита Белов"
  ],
  "design": [
    "Екатерина Лапынина",
    "Александра Печкина"
  ],
  "editor": [
    "Арсений Гончуков"
  ],
  "actors": [
    "Роберт Вааб",
    "Александр Сухинин",
    "Виктор Немец",
    "Юлия Дегтяренко",
    "Александр Гавриков",
    "Елизавета Лукьянова",
    "Владимир Шинов",
    "Артем Кобзев",
    "Николай Бутенин",
    "Елена Елесина"
  ],
  "actors_dubl": [],
  "trivia": [],
  "trailers": [],
  "seasons": [],
  "voiceActing": [
    "Рус. Оригинальный"
  ],
  "subtitle": [],
  "parts": []
}
