{
  "id": 15079,
  "name": "Мертвец из Тумстоуна",
  "name_eng": "Dead in Tombstone",
  "year": 2012,
  "slogan": "«His killers have hell to pay»",
  "age": "18+",
  "type": "film",
  "quality": "HD (720p)",
  "imdb": "4.9",
  "imdb_id": "2268419",
  "kinopoisk": "5.3",
  "kinopoisk_id": "669564",
  "world_art": null,
  "world_art_id": null,
  "time": "100 мин. / 01:40",
  "ads": false,
  "premier": "2013-09-20",
  "premier_rus": null,
  "availability": "2013-09-21",
  "activate_time": "2020-02-05 17:26:00",
  "budget": "$5 200 000",
  "fees_use": null,
  "fees_world": null,
  "fees_rus": null,
  "rate_mpaa": "R",
  "description": "Сюжет вращается вокруг мексиканского бандита по имени Герреро Эрнандес, которого предательски убил брат, свежевызволенный из тюрьмы. Заключивший сделку с Дьяволом с Эль Диабло, Эрнандес возвращается в мир живых, чтобы во всём разобраться и отомстить.",
  "iframe_url": "",
  "iframe_poster": null,
  "poster": "https://img.imgilall.me/movies/franchise/1/5/0/7/9/0/0/0/0/0/610x900_15079.jpg",
  "country": {
    "1": "США"
  },
  "collection": {
    "12": "Для мужчин"
  },
  "genre": {
    "26": "Ужасы",
    "6": "Фэнтези",
    "29": "Вестерн",
    "17": "Боевик",
    "10": "Зарубежный"
  },
  "director": [
    "Роэль Рейн"
  ],
  "screenwriter": [
    "Шэйн Кун",
    "Брендан Коулз"
  ],
  "producer": [
    "Альберт Т. Дикерсон III",
    "Майк Эллиот",
    "Грег Холстейн"
  ],
  "operator": [
    "Роэль Рейн"
  ],
  "composer": [
    "Хайбрид"
  ],
  "design": [
    "Кристиан Никулеску",
    "Джина Станку",
    "Оана Драгичи"
  ],
  "editor": [
    "Раду Ион"
  ],
  "actors": [
    "Дэнни Трехо",
    "Энтони Майкл Холл",
    "Дина Мейер",
    "Микки Рурк",
    "Ричард Диллэйн",
    "Колин Мейс",
    "Эмиль Хостина",
    "Овидиу Никулеску",
    "Ронан Саммерс",
    "Эдвард Экрут"
  ],
  "actors_dubl": [
    "Александр Хотченков",
    "Александр Котов",
    "Елена Харитонова",
    "Александр Головчанский",
    "Александр Носков"
  ],
  "trivia": [],
  "trailers": [],
  "seasons": [],
  "voiceActing": [
    "Рус. Дублированный",
    "Eng.Original"
  ],
  "subtitle": [],
  "parts": [
    15079,
    15080
  ]
}
