{
  "id": 15113,
  "name": "Месси",
  "name_eng": "Messi",
  "year": 2014,
  "slogan": "—",
  "age": null,
  "type": "film",
  "quality": "HD (720p)",
  "imdb": "7.3",
  "imdb_id": "3538766",
  "kinopoisk": "7.1",
  "kinopoisk_id": "840647",
  "world_art": null,
  "world_art_id": null,
  "time": "93 мин. / 01:33",
  "ads": false,
  "premier": "2014-10-11",
  "premier_rus": null,
  "availability": "2014-10-12",
  "activate_time": "2020-02-05 17:26:00",
  "budget": null,
  "fees_use": null,
  "fees_world": null,
  "fees_rus": null,
  "rate_mpaa": null,
  "description": "Документальный фильм, посвященный жизни и карьере знаменитого форварда «Барселоны».",
  "iframe_url": "",
  "iframe_poster": null,
  "poster": "https://img.imgilall.me/movies/franchise/1/5/1/1/3/0/0/0/0/0/610x900_15113.jpg",
  "country": {
    "3": "Испания"
  },
  "collection": {
    "81": "Про звезд",
    "78": "Биографии",
    "76": "Про спорт",
    "12": "Для мужчин",
    "39": "На реальных событиях"
  },
  "genre": {
    "54": "Документальный",
    "27": "Биографический",
    "23": "Спортивный",
    "10": "Зарубежный"
  },
  "director": [
    "Алекс де ла Иглесиа"
  ],
  "screenwriter": [
    "Jorge Valdano Sáenz",
    "Хорхе Вальдано"
  ],
  "producer": [
    "Хауме Роурес",
    "Iris Benjamín",
    "Бернат Елиас"
  ],
  "operator": [
    "Кико де ла Рика"
  ],
  "composer": [
    "Хоан Валент"
  ],
  "design": [
    "Анчон Гомес",
    "Марсело Понт Вергес",
    "Мириам Ибаньес"
  ],
  "editor": [
    "Доминго Гонсалес"
  ],
  "actors": [
    "Йохан Кройф",
    "Kike Domínguez",
    "Álex García",
    "Pere Gratacós",
    "Андрес Иньеста",
    "Xavier Llorens",
    "Хавьер Маскерано",
    "Сесар Луис Менотти",
    "Xavier Pérez Farguell",
    "Жерар Пике"
  ],
  "actors_dubl": [],
  "trivia": [],
  "trailers": [],
  "seasons": [],
  "voiceActing": [
    "Рус. Люб. одноголосый"
  ],
  "subtitle": [],
  "parts": []
}
