{
  "id": 15207,
  "name": "День, когда Земля замерзла",
  "name_eng": "Ice",
  "year": 2010,
  "slogan": "«Человечество на пороге катастрофы»",
  "age": "12+",
  "type": "series",
  "quality": "SD",
  "imdb": "4.6",
  "imdb_id": "1510984",
  "kinopoisk": "5.9",
  "kinopoisk_id": "474762",
  "world_art": null,
  "world_art_id": null,
  "time": "184 мин. всего",
  "ads": false,
  "premier": "2011-01-02",
  "premier_rus": null,
  "availability": "2011-01-03",
  "serial_status": "offline",
  "activate_time": "2020-02-13 11:19:00",
  "budget": null,
  "fees_use": null,
  "fees_world": null,
  "fees_rus": null,
  "rate_mpaa": null,
  "description": "Год 2020. Профессор экологии Том Арчер считает, что бурение в Гренландии энергетической компанией Хало приведёт к таянию ледников, но профессора игнорируют. Для сбора доказательств Том прибывает в Арктику и обнаруживает, что всё человечество под угрозой. Том отправляется домой, чтобы спасти свою семью, а тем временем, ледники начинают таять с огромной скоростью…",
  "iframe_url": "",
  "poster": "https://img.imgilall.me/movies/franchise/1/5/2/0/7/0/0/0/0/0/610x900_15207.jpg",
  "country": {
    "2": "Великобритания",
    "23": "Новая Зеландия"
  },
  "collection": {
    "7": "Фильмы-катастрофы"
  },
  "genre": {
    "11": "Фантастика",
    "17": "Боевик",
    "13": "Триллер",
    "10": "Зарубежный"
  },
  "director": [
    "Ник Копус"
  ],
  "screenwriter": [
    "Джеймс Фоллет",
    "Рэй Хардинг",
    "Ричард Мьюис"
  ],
  "producer": [
    "Джастин Бодл",
    "Филли де Лэйси",
    "Кристофер Холл"
  ],
  "operator": [
    "Ричард Блак"
  ],
  "composer": [
    "Дэвид Лонг"
  ],
  "design": [
    "Тим Феррье",
    "Джон Аллан",
    "Миро Харре"
  ],
  "editor": [
    "Марго Френсис"
  ],
  "actors": [
    "Ричард Роксбург",
    "Фрэнсис О’Коннор",
    "Клэр Форлани",
    "Бен Кросс",
    "Саймон Кэллоу",
    "Патрик Бергин",
    "Стивен Мойер",
    "Брук Уильямс",
    "Эрин Маллалли",
    "Джозеф Г. Куинн"
  ],
  "actors_dubl": [],
  "trivia": [],
  "trailers": [],
  "seasons": [
    {
      "poster": null,
      "release_ru": null,
      "release_world": null,
      "availability": null,
      "iframe_url": "",
      "season": 1,
      "episodes": [
        {
          "episode": 1,
          "name": null,
          "iframe_url": "",
          "iframe_poster": null,
          "release_ru": null,
          "release_world": null,
          "availability": null,
          "voiceActing": [
            "Рус. Проф. многоголосый"
          ],
          "ads": false,
          "subtitle": []
        },
        {
          "episode": 2,
          "name": null,
          "iframe_url": "",
          "iframe_poster": null,
          "release_ru": null,
          "release_world": null,
          "availability": null,
          "voiceActing": [
            "Рус. Проф. многоголосый"
          ],
          "ads": false,
          "subtitle": []
        }
      ]
    }
  ],
  "voiceActing": [
    "Рус. Проф. многоголосый"
  ],
  "subtitle": [],
  "parts": []
}
