{
  "id": 1540,
  "name": "Сестричка, действуй 2",
  "name_eng": "Sister Act 2: Back in the Habit",
  "year": 1993,
  "slogan": "«A comedy triumph !»",
  "age": "12+",
  "type": "film",
  "quality": "HD (720p)",
  "imdb": "5.7",
  "imdb_id": "0108147",
  "kinopoisk": "6.8",
  "kinopoisk_id": "6555",
  "world_art": null,
  "world_art_id": null,
  "time": "107 мин. / 01:47",
  "ads": false,
  "premier": "1993-12-10",
  "premier_rus": null,
  "availability": null,
  "activate_time": "2018-08-07 16:39:54",
  "budget": "$38 000 000",
  "fees_use": "$57 319 029",
  "fees_world": null,
  "fees_rus": null,
  "rate_mpaa": "PG",
  "description": "Прогульщики и лоботрясы ни в какую не хотят учиться, и бедные учителя не находят себе места от их шуток и приколов. Их молитвы услышаны — неугомонная Долорес соглашается внедриться к ним под маской обычного учителя музыки. Бывшая подруга мафиози вспомнила о своих былых похождениях, и под рясой монахини в класс входит крутая «сестричка». Религиозные догмы снова дрогнули… в ритме рок-н-ролла.",
  "iframe_url": "",
  "iframe_poster": null,
  "poster": "https://img.imgilall.me/movies/franchise/1/5/4/0/0/0/0/0/0/0/610x900_1540.jpg",
  "country": {
    "1": "США"
  },
  "collection": [],
  "genre": {
    "19": "Комедия",
    "10": "Зарубежный"
  },
  "director": [
    "Билл Дьюк"
  ],
  "screenwriter": [
    "Джеймс Орр",
    "Джим Крукшэнк",
    "Джуди Энн Мэйсон"
  ],
  "producer": [
    "Скотт Рудин",
    "Доун Стил",
    "Марио Искович"
  ],
  "operator": [
    "Оливер Вуд"
  ],
  "composer": [
    "Майлз Гудман"
  ],
  "design": [
    "Джон ДеКуир мл.",
    "Луис М. Манн",
    "Френсин Джеймисон-Танчук"
  ],
  "editor": [
    "Джон Картер",
    "Пемброук Дж. Херринг",
    "Стюарт Х. Паппе"
  ],
  "actors": [
    "Вупи Голдберг",
    "Кэти Нэджими",
    "Барнард Хьюз",
    "Мэри Уикс",
    "Джеймс Коберн",
    "Майкл Джитер",
    "Уэнди Маккена",
    "Шерил Ли Ральф",
    "Роберт Пасторелли",
    "Томас Готтшальк"
  ],
  "actors_dubl": [],
  "trivia": [],
  "trailers": [],
  "seasons": [],
  "voiceActing": [
    "Diva Universal"
  ],
  "subtitle": [],
  "parts": [
    1539,
    1540
  ]
}
