{
  "id": 15502,
  "name": "Приятного путешествия в ад",
  "name_eng": "Enjoy Your Trip to Hell",
  "year": 2018,
  "slogan": null,
  "age": null,
  "type": "film",
  "quality": "HD (720p)",
  "imdb": "7.3",
  "imdb_id": "7374964",
  "kinopoisk": null,
  "kinopoisk_id": null,
  "world_art": null,
  "world_art_id": null,
  "time": null,
  "ads": true,
  "premier": "2018-09-14",
  "premier_rus": null,
  "availability": "2018-09-15",
  "activate_time": "2020-02-18 17:01:00",
  "budget": null,
  "fees_use": null,
  "fees_world": null,
  "fees_rus": null,
  "rate_mpaa": null,
  "description": null,
  "iframe_url": "",
  "iframe_poster": null,
  "poster": "https://img.imgilall.me/movies/franchise/1/5/5/0/2/0/0/0/0/0/610x900_15502.jpg",
  "country": {
    "1": "США"
  },
  "collection": {
    "71": "Про путешествия",
    "12": "Для мужчин"
  },
  "genre": {
    "54": "Документальный"
  },
  "director": [],
  "screenwriter": [],
  "producer": [],
  "operator": [],
  "composer": [],
  "design": [],
  "editor": [],
  "actors": [],
  "actors_dubl": [],
  "trivia": [],
  "trailers": [],
  "seasons": [],
  "voiceActing": [
    "Рус. Люб. многоголосый"
  ],
  "subtitle": [],
  "parts": []
}
