{
  "id": 15555,
  "name": "Родина: Форт Салем",
  "name_eng": "Motherland: Fort Salem",
  "year": 2020,
  "slogan": "«Born witches. Made warriors»",
  "age": "18+",
  "type": "series",
  "quality": "HD (720p)",
  "imdb": "7.3",
  "imdb_id": "9900092",
  "kinopoisk": "7.5",
  "kinopoisk_id": "1253333",
  "world_art": null,
  "world_art_id": null,
  "time": "43 мин",
  "ads": false,
  "premier": "2020-04-03",
  "premier_rus": "2020-04-04",
  "availability": "2020-04-04",
  "serial_status": "online",
  "activate_time": "2020-02-21 11:55:00",
  "budget": null,
  "fees_use": null,
  "fees_world": null,
  "fees_rus": null,
  "rate_mpaa": null,
  "description": "Три ведьмы проходят специальное обучение, чтобы помочь американским военным.",
  "iframe_url": "",
  "poster": "https://img.imgilall.me/movies/franchise/1/5/5/5/5/0/0/0/0/0/610x900_15555.jpg",
  "country": {
    "1": "США"
  },
  "collection": {
    "73": "Про девушек",
    "59": "Про ведьм"
  },
  "genre": {
    "11": "Фантастика",
    "13": "Триллер",
    "10": "Зарубежный",
    "7": "Драма"
  },
  "director": [
    "Аманда Таппинг",
    "Стив Эделсон",
    "Шеннон Коли"
  ],
  "screenwriter": [
    "Элиот Лоуренс",
    "Nicole Avenia",
    "Eli Edelson"
  ],
  "producer": [
    "Джо Де Оливейра",
    "Уилл Феррелл",
    "Трэйси Джеффри"
  ],
  "operator": [
    "Джон Джоффин",
    "Стивен Джексон",
    "Майкл Вейл"
  ],
  "composer": [
    "Брэндон Робертс"
  ],
  "design": [
    "Брайан Кэйн",
    "Darryll Doucette",
    "Ивэн Веббер"
  ],
  "editor": [
    "Мэттью Гилна",
    "Джина Блэйер",
    "Роберт Комацу"
  ],
  "actors": [
    "Тэйлор Хиксон",
    "Амалия Хольм",
    "Деметрия МакКинни",
    "Джессика Саттон",
    "Эшли Николь Уильямс",
    "Лайн Рени",
    "Дэйл Хантер",
    "Lynn Whyte",
    "Лиллиэн Лим",
    "La Nein Harrison"
  ],
  "actors_dubl": [],
  "trivia": [],
  "trailers": [
    {
      "name": "трейлер №1",
      "number": 1,
      "iframe_poster": null,
      "season": 1,
      "iframe_url": ""
    }
  ],
  "seasons": [
    {
      "poster": null,
      "release_ru": "2020-03-19",
      "release_world": "2020-03-18",
      "availability": "2020-03-20",
      "iframe_url": "",
      "season": 1,
      "episodes": [
        {
          "episode": 1,
          "name": "Say The Words",
          "iframe_url": "",
          "iframe_poster": null,
          "release_ru": "2020-03-19",
          "release_world": "2020-03-18",
          "availability": "2020-03-20",
          "voiceActing": [
            "Кириллица",
            "Eng.Original"
          ],
          "ads": false,
          "subtitle": [
            "Рус. форсированные"
          ]
        },
        {
          "episode": 2,
          "name": "My Witches",
          "iframe_url": "",
          "iframe_poster": null,
          "release_ru": "2020-03-26",
          "release_world": "2020-03-25",
          "availability": "2020-03-27",
          "voiceActing": [
            "Кириллица",
            "Eng.Original"
          ],
          "ads": false,
          "subtitle": [
            "Рус. форсированные"
          ]
        },
        {
          "episode": 3,
          "name": "A Biddy's Life",
          "iframe_url": "",
          "iframe_poster": null,
          "release_ru": "2020-04-02",
          "release_world": "2020-04-01",
          "availability": "2020-04-02",
          "voiceActing": [
            "Кириллица",
            "Eng.Original"
          ],
          "ads": false,
          "subtitle": [
            "Рус. форсированные"
          ]
        },
        {
          "episode": 4,
          "name": "Hail Beltane",
          "iframe_url": "",
          "iframe_poster": null,
          "release_ru": "2020-04-09",
          "release_world": "2020-04-08",
          "availability": "2020-04-09",
          "voiceActing": [
            "Кириллица",
            "Eng.Original"
          ],
          "ads": false,
          "subtitle": [
            "Рус. форсированные"
          ]
        },
        {
          "episode": 5,
          "name": "Bellweather Season",
          "iframe_url": "",
          "iframe_poster": null,
          "release_ru": "2020-04-16",
          "release_world": "2020-04-15",
          "availability": "2020-04-16",
          "voiceActing": [
            "Кириллица",
            "Eng.Original"
          ],
          "ads": false,
          "subtitle": [
            "Рус. форсированные"
          ]
        },
        {
          "episode": 6,
          "name": "Up Is Down",
          "iframe_url": "",
          "iframe_poster": null,
          "release_ru": "2020-04-23",
          "release_world": "2020-04-22",
          "availability": "2020-04-23",
          "voiceActing": [
            "Кириллица",
            "Eng.Original"
          ],
          "ads": false,
          "subtitle": [
            "Рус. форсированные"
          ]
        },
        {
          "episode": 7,
          "name": "Mother Mycelium",
          "iframe_url": "",
          "iframe_poster": null,
          "release_ru": "2020-04-30",
          "release_world": "2020-04-29",
          "availability": "2020-04-30",
          "voiceActing": [
            "Кириллица",
            "Eng.Original"
          ],
          "ads": false,
          "subtitle": [
            "Рус. форсированные"
          ]
        },
        {
          "episode": 8,
          "name": "Citydrop",
          "iframe_url": "",
          "iframe_poster": null,
          "release_ru": "2020-05-07",
          "release_world": "2020-05-06",
          "availability": "2020-05-07",
          "voiceActing": [
            "Кириллица",
            "Eng.Original"
          ],
          "ads": false,
          "subtitle": [
            "Рус. форсированные"
          ]
        },
        {
          "episode": 9,
          "name": "Coup",
          "iframe_url": "",
          "iframe_poster": null,
          "release_ru": "2020-05-14",
          "release_world": "2020-05-13",
          "availability": "2020-05-14",
          "voiceActing": [
            "Кириллица",
            "Eng.Original"
          ],
          "ads": false,
          "subtitle": [
            "Рус. форсированные"
          ]
        },
        {
          "episode": 10,
          "name": "Witchbomb",
          "iframe_url": "",
          "iframe_poster": null,
          "release_ru": "2020-05-21",
          "release_world": "2020-05-20",
          "availability": "2020-05-21",
          "voiceActing": [
            "Кириллица",
            "Eng.Original"
          ],
          "ads": false,
          "subtitle": [
            "Рус. форсированные"
          ]
        }
      ]
    },
    {
      "poster": null,
      "release_ru": "2021-06-23",
      "release_world": "2021-06-22",
      "availability": "2021-06-24",
      "iframe_url": "",
      "season": 2,
      "episodes": [
        {
          "episode": 1,
          "name": "Of the Blood",
          "iframe_url": "",
          "iframe_poster": null,
          "release_ru": "2021-06-23",
          "release_world": "2021-06-22",
          "availability": "2021-06-23",
          "voiceActing": [
            "TVShows"
          ],
          "ads": false,
          "subtitle": []
        },
        {
          "episode": 2,
          "name": "Abomination",
          "iframe_url": "",
          "iframe_poster": null,
          "release_ru": "2021-06-30",
          "release_world": "2021-06-29",
          "availability": "2021-06-30",
          "voiceActing": [
            "TVShows"
          ],
          "ads": false,
          "subtitle": []
        },
        {
          "episode": 3,
          "name": "A Tiffany",
          "iframe_url": null,
          "iframe_poster": null,
          "release_ru": "2021-07-07",
          "release_world": "2021-07-06",
          "availability": "2021-07-08",
          "voiceActing": []
        },
        {
          "episode": 4,
          "name": "Not Our Daughters",
          "iframe_url": "",
          "iframe_poster": null,
          "release_ru": "2021-07-14",
          "release_world": "2021-07-13",
          "availability": "2021-07-15",
          "voiceActing": [
            "TVShows"
          ],
          "ads": false,
          "subtitle": []
        },
        {
          "episode": 5,
          "name": "Brianna's Favorite Pencil",
          "iframe_url": "",
          "iframe_poster": null,
          "release_ru": "2021-07-21",
          "release_world": "2021-07-20",
          "availability": "2021-07-22",
          "voiceActing": [
            "TVShows"
          ],
          "ads": false,
          "subtitle": []
        },
        {
          "episode": 6,
          "name": "My 3 Dads",
          "iframe_url": "",
          "iframe_poster": null,
          "release_ru": "2021-07-28",
          "release_world": "2021-07-27",
          "availability": "2021-07-29",
          "voiceActing": [
            "TVShows"
          ],
          "ads": false,
          "subtitle": []
        },
        {
          "episode": 7,
          "name": "Irrevocable",
          "iframe_url": "",
          "iframe_poster": null,
          "release_ru": "2021-08-04",
          "release_world": "2021-08-03",
          "availability": "2021-08-05",
          "voiceActing": [
            "TVShows"
          ],
          "ads": false,
          "subtitle": []
        },
        {
          "episode": 8,
          "name": "Delusional",
          "iframe_url": "",
          "iframe_poster": null,
          "release_ru": "2021-08-11",
          "release_world": "2021-08-10",
          "availability": "2021-08-12",
          "voiceActing": [
            "TVShows"
          ],
          "ads": false,
          "subtitle": []
        },
        {
          "episode": 9,
          "name": "Mother of All, Mother of None",
          "iframe_url": "",
          "iframe_poster": null,
          "release_ru": "2021-08-18",
          "release_world": "2021-08-17",
          "availability": "2021-08-19",
          "voiceActing": [
            "TVShows"
          ],
          "ads": false,
          "subtitle": []
        },
        {
          "episode": 10,
          "name": "Revolution, Part 1",
          "iframe_url": "",
          "iframe_poster": null,
          "release_ru": "2021-08-25",
          "release_world": "2021-08-24",
          "availability": "2021-08-26",
          "voiceActing": [
            "TVShows"
          ],
          "ads": false,
          "subtitle": []
        }
      ]
    }
  ],
  "voiceActing": [
    "Кириллица",
    "Eng.Original",
    "TVShows"
  ],
  "subtitle": [
    "Рус. форсированные"
  ],
  "parts": []
}
