{
  "id": 15671,
  "name": "7 гномов",
  "name_eng": "The 7D",
  "year": 2014,
  "slogan": "—",
  "age": "6+",
  "type": "cartoon-series",
  "quality": "HD (720p)",
  "imdb": "5.6",
  "imdb_id": "2219622",
  "kinopoisk": "5.6",
  "kinopoisk_id": "818958",
  "world_art": null,
  "world_art_id": null,
  "time": "30 мин",
  "ads": false,
  "premier": "2014-07-07",
  "premier_rus": null,
  "availability": "2014-07-08",
  "serial_status": "offline",
  "activate_time": "2020-02-28 15:36:00",
  "budget": null,
  "fees_use": null,
  "fees_world": null,
  "fees_rus": null,
  "rate_mpaa": null,
  "description": "Умник, Простачок, Скромник, Ворчун, Чихун, Соня и Весельчак уже знакомы миллионам людей во всём мире! В центре сюжета современного мультсериала – приключения гномов в волшебном королевстве Приколивуд задолго до встречи с красавицей Белоснежкой. Друзья работают на шахте и добывают разноцветные алмазы, распевая весёлые песенки. Они всегда готовы прийти на помощь Королеве Грации и защитить её от местных злодеев. Гномики никогда не падают духом, ведь главное средство против всех бед – сила настоящей дружбы.",
  "iframe_url": "",
  "poster": "https://img.imgilall.me/movies/franchise/1/5/6/7/1/0/0/0/0/0/610x900_15671.jpg",
  "country": {
    "1": "США"
  },
  "collection": [],
  "genre": {
    "9": "Приключения",
    "6": "Фэнтези",
    "38": "Мюзикл",
    "33": "Семейный",
    "19": "Комедия",
    "10": "Зарубежный"
  },
  "director": [
    "Альфред Гимено",
    "Чарльз Виссер",
    "Джефф Гордон"
  ],
  "screenwriter": [
    "Лиза Арч",
    "Дин Батали",
    "Синди Боведа-Спэкмен"
  ],
  "producer": [
    "Том Рюггер",
    "Том Варбертон",
    "Луис Дж. Кук"
  ],
  "operator": [],
  "composer": [
    "Кит Хорн",
    "Parry Gripp"
  ],
  "design": [
    "Фрэнк Монтагна"
  ],
  "editor": [
    "Brad Rozman",
    "Луис Расселл"
  ],
  "actors": [
    "Билл Фармер",
    "Морис ЛаМарш",
    "Ди Брэдли Бейкер",
    "Кевин Майкл Ричардсон",
    "Билли Уэст",
    "Стефен Стэнтон",
    "Скотт Менвиль",
    "Ли-Эллин Бейкер",
    "Пол Рагг",
    "Джесс Харнелл"
  ],
  "actors_dubl": [
    "Никита Прозоровский",
    "Александр Носков",
    "Диомид Виноградов",
    "Станислав Стрелков",
    "Лина Иванова"
  ],
  "trivia": [],
  "trailers": [],
  "seasons": [
    {
      "poster": null,
      "release_ru": "2014-07-08",
      "release_world": "2014-07-07",
      "availability": "2014-07-09",
      "iframe_url": "",
      "season": 1,
      "episodes": [
        {
          "episode": 1,
          "name": "The Long, Long Winter | Itsy Bitsy Spider Fighters",
          "iframe_url": "",
          "iframe_poster": null,
          "release_ru": "2014-07-08",
          "release_world": "2014-07-07",
          "availability": "2014-07-09",
          "voiceActing": [
            "Рус. Дублированный"
          ],
          "ads": false,
          "subtitle": []
        },
        {
          "episode": 2,
          "name": "Sneezin' Season | The Delightful Diamond Mystery",
          "iframe_url": "",
          "iframe_poster": null,
          "release_ru": "2014-07-09",
          "release_world": "2014-07-08",
          "availability": "2014-07-10",
          "voiceActing": [
            "Рус. Дублированный"
          ],
          "ads": false,
          "subtitle": []
        },
        {
          "episode": 3,
          "name": "Mirror, Mirror | The Big Bash",
          "iframe_url": "",
          "iframe_poster": null,
          "release_ru": "2014-07-10",
          "release_world": "2014-07-09",
          "availability": "2014-07-11",
          "voiceActing": [
            "Рус. Дублированный"
          ],
          "ads": false,
          "subtitle": []
        },
        {
          "episode": 4,
          "name": "Surprise | Welcome to the Neighborhood",
          "iframe_url": "",
          "iframe_poster": null,
          "release_ru": "2014-07-11",
          "release_world": "2014-07-10",
          "availability": "2014-07-12",
          "voiceActing": [
            "Рус. Дублированный"
          ],
          "ads": false,
          "subtitle": []
        },
        {
          "episode": 5,
          "name": "Sir Yipsalot and the Goose | Starchy Takes a Break",
          "iframe_url": "",
          "iframe_poster": null,
          "release_ru": "2014-07-12",
          "release_world": "2014-07-11",
          "availability": "2014-07-13",
          "voiceActing": [
            "Рус. Дублированный"
          ],
          "ads": false,
          "subtitle": []
        },
        {
          "episode": 6,
          "name": "The Littlest Giants | Gnome Alone",
          "iframe_url": "",
          "iframe_poster": null,
          "release_ru": "2014-07-15",
          "release_world": "2014-07-14",
          "availability": "2014-07-16",
          "voiceActing": [
            "Рус. Дублированный"
          ],
          "ads": false,
          "subtitle": []
        },
        {
          "episode": 7,
          "name": "Sleepytime | Goldilocks and the 7D",
          "iframe_url": "",
          "iframe_poster": null,
          "release_ru": "2014-07-16",
          "release_world": "2014-07-15",
          "availability": "2014-07-17",
          "voiceActing": [
            "Рус. Дублированный"
          ],
          "ads": false,
          "subtitle": []
        },
        {
          "episode": 8,
          "name": "For the Love of Cheese | Let's Get Organ-ized",
          "iframe_url": "",
          "iframe_poster": null,
          "release_ru": "2014-07-22",
          "release_world": "2014-07-21",
          "availability": "2014-07-23",
          "voiceActing": [
            "Рус. Дублированный"
          ],
          "ads": false,
          "subtitle": []
        },
        {
          "episode": 9,
          "name": "Grandpa Grumpy & the Ogre | Fairest in the Land",
          "iframe_url": "",
          "iframe_poster": null,
          "release_ru": "2014-07-23",
          "release_world": "2014-07-22",
          "availability": "2014-07-24",
          "voiceActing": [
            "Рус. Дублированный"
          ],
          "ads": false,
          "subtitle": []
        },
        {
          "episode": 10,
          "name": "The 8th D | New Shoe",
          "iframe_url": "",
          "iframe_poster": null,
          "release_ru": "2014-07-29",
          "release_world": "2014-07-28",
          "availability": "2014-07-30",
          "voiceActing": [
            "Рус. Дублированный"
          ],
          "ads": false,
          "subtitle": []
        },
        {
          "episode": 11,
          "name": "Bathtub Bashful | Knick Knack Paddy Whack",
          "iframe_url": "",
          "iframe_poster": null,
          "release_ru": "2014-08-05",
          "release_world": "2014-08-04",
          "availability": "2014-08-06",
          "voiceActing": [
            "Рус. Дублированный"
          ],
          "ads": false,
          "subtitle": []
        },
        {
          "episode": 12,
          "name": "Grim the Dragon | Free Teensy",
          "iframe_url": "",
          "iframe_poster": null,
          "release_ru": "2014-09-15",
          "release_world": "2014-09-14",
          "availability": "2014-09-16",
          "voiceActing": [
            "Рус. Дублированный"
          ],
          "ads": false,
          "subtitle": []
        },
        {
          "episode": 13,
          "name": "Hildy the Good | The Jollywood Jam",
          "iframe_url": "",
          "iframe_poster": null,
          "release_ru": "2014-09-22",
          "release_world": "2014-09-21",
          "availability": "2014-09-23",
          "voiceActing": [
            "Рус. Дублированный"
          ],
          "ads": false,
          "subtitle": []
        },
        {
          "episode": 14,
          "name": "Buckets | Frankengloom",
          "iframe_url": "",
          "iframe_poster": null,
          "release_ru": "2014-10-13",
          "release_world": "2014-10-12",
          "availability": "2014-10-14",
          "voiceActing": [
            "Рус. Дублированный"
          ],
          "ads": false,
          "subtitle": []
        },
        {
          "episode": 15,
          "name": "Uncle Humidor | Grim the Genius",
          "iframe_url": "",
          "iframe_poster": null,
          "release_ru": "2014-11-03",
          "release_world": "2014-11-02",
          "availability": "2014-11-04",
          "voiceActing": [
            "Рус. Дублированный"
          ],
          "ads": false,
          "subtitle": []
        },
        {
          "episode": 16,
          "name": "The Enchanted Shoes | Hildyrella",
          "iframe_url": "",
          "iframe_poster": null,
          "release_ru": "2014-11-17",
          "release_world": "2014-11-16",
          "availability": "2014-11-18",
          "voiceActing": [
            "Рус. Дублированный"
          ],
          "ads": false,
          "subtitle": []
        },
        {
          "episode": 17,
          "name": "Big Bad Sneezy | Cat on a Hot Grim Roof",
          "iframe_url": "",
          "iframe_poster": null,
          "release_ru": "2014-12-01",
          "release_world": "2014-11-30",
          "availability": "2014-12-02",
          "voiceActing": [
            "Рус. Дублированный"
          ],
          "ads": false,
          "subtitle": []
        },
        {
          "episode": 18,
          "name": "Gingersnaps and Grumpy Snaps | Jollybells",
          "iframe_url": "",
          "iframe_poster": null,
          "release_ru": "2014-12-03",
          "release_world": "2014-12-02",
          "availability": "2014-12-04",
          "voiceActing": [
            "Рус. Дублированный"
          ],
          "ads": false,
          "subtitle": []
        },
        {
          "episode": 19,
          "name": "The Very Important Thingy | Leaf It to Sneezy",
          "iframe_url": "",
          "iframe_poster": null,
          "release_ru": "2015-01-14",
          "release_world": "2015-01-13",
          "availability": "2015-01-15",
          "voiceActing": [
            "Рус. Дублированный"
          ],
          "ads": false,
          "subtitle": []
        },
        {
          "episode": 20,
          "name": "7 Frogs | Sir Yipsalot and the Mutt",
          "iframe_url": "",
          "iframe_poster": null,
          "release_ru": "2015-01-15",
          "release_world": "2015-01-14",
          "availability": "2015-01-16",
          "voiceActing": [
            "Рус. Дублированный"
          ],
          "ads": false,
          "subtitle": []
        },
        {
          "episode": 21,
          "name": "The Queen's Quest | Finders Keepers",
          "iframe_url": "",
          "iframe_poster": null,
          "release_ru": "2015-01-20",
          "release_world": "2015-01-19",
          "availability": "2015-01-21",
          "voiceActing": [
            "Рус. Дублированный"
          ],
          "ads": false,
          "subtitle": []
        },
        {
          "episode": 22,
          "name": "Abraca-Dopey | Bing Bong Beans!",
          "iframe_url": "",
          "iframe_poster": null,
          "release_ru": "2015-01-21",
          "release_world": "2015-01-20",
          "availability": "2015-01-22",
          "voiceActing": [
            "Рус. Дублированный"
          ],
          "ads": false,
          "subtitle": []
        },
        {
          "episode": 23,
          "name": "Big Rock Candy Flim-Flam | Doing the 7D Dance",
          "iframe_url": "",
          "iframe_poster": null,
          "release_ru": "2015-01-22",
          "release_world": "2015-01-21",
          "availability": "2015-01-23",
          "voiceActing": [
            "Рус. Дублированный"
          ],
          "ads": false,
          "subtitle": []
        },
        {
          "episode": 24,
          "name": "The Rock of Sages",
          "iframe_url": "",
          "iframe_poster": null,
          "release_ru": "2015-09-13",
          "release_world": "2015-09-12",
          "availability": "2015-09-14",
          "voiceActing": [
            "Рус. Дублированный"
          ],
          "ads": false,
          "subtitle": []
        }
      ]
    },
    {
      "poster": null,
      "release_ru": "2016-01-24",
      "release_world": "2016-01-23",
      "availability": "2016-01-25",
      "iframe_url": "",
      "season": 2,
      "episodes": [
        {
          "episode": 20,
          "name": "A Royal Pain in the Castle | A Sneeze in Time",
          "iframe_url": null,
          "iframe_poster": null,
          "release_ru": "2016-11-06",
          "release_world": "2016-11-05",
          "availability": "2016-11-07",
          "voiceActing": []
        }
      ]
    }
  ],
  "voiceActing": [
    "Рус. Дублированный"
  ],
  "subtitle": [],
  "parts": []
}
