{
  "id": 15681,
  "name": "Веротика",
  "name_eng": "Verotika",
  "year": 2019,
  "slogan": "—",
  "age": "18+",
  "type": "film",
  "quality": "HD (720p)",
  "imdb": "1.9",
  "imdb_id": "9425078",
  "kinopoisk": null,
  "kinopoisk_id": "1219528",
  "world_art": null,
  "world_art_id": null,
  "time": "90 мин. / 01:30",
  "ads": true,
  "premier": "2019-06-13",
  "premier_rus": null,
  "availability": "2019-06-14",
  "activate_time": "2020-02-28 10:24:00",
  "budget": "",
  "fees_use": "",
  "fees_world": "",
  "fees_rus": "",
  "rate_mpaa": "",
  "description": "Три истории: про паука-альбиноса, сотворенного из слез глазастых сисек, про обезображенную стриптизершу, вырезающую лица для своей ужасной коллекции, и про жестокую правительницу, любящую ванны из крови девственниц.",
  "iframe_url": "",
  "iframe_poster": null,
  "poster": "https://img.imgilall.me/movies/franchise/1/5/6/8/1/0/0/0/0/0/610x900_15681.jpg",
  "country": {
    "1": "США"
  },
  "collection": {
    "14": "Для взрослых"
  },
  "genre": {
    "26": "Ужасы"
  },
  "director": [
    "Гленн Данциг"
  ],
  "screenwriter": [
    "Гленн Данциг"
  ],
  "producer": [
    "Джеймс Каллен Брэссак",
    "Джарретт Ферст",
    "Крис Блэк"
  ],
  "operator": [
    "Дэвид Ньюберт"
  ],
  "composer": [
    "Гленн Данциг"
  ],
  "design": [
    "Маркос Кейто",
    "Дэни Мэннинг",
    "Фернандо Вальдес"
  ],
  "editor": [
    "Brian Cox"
  ],
  "actors": [
    "Эшли Уисдом",
    "Рэйчел Элиг",
    "Элис Хэйг",
    "Кэйден Кросс",
    "Скотч Хопкинс",
    "Шон Кэнан",
    "Natalia Borowsky",
    "Ника Балина",
    "Джоди Бартон",
    "Brennah Black"
  ],
  "actors_dubl": [],
  "trivia": [],
  "trailers": [],
  "seasons": [],
  "voiceActing": [
    "Рус. Люб. многоголосый"
  ],
  "subtitle": [],
  "parts": []
}
