{
  "id": 157,
  "name": "Левша",
  "name_eng": "Southpaw",
  "year": 2015,
  "slogan": "«Преодолей судьбу»",
  "age": "16+",
  "type": "film",
  "quality": "FHD (1080p)",
  "imdb": "7.4",
  "imdb_id": "1798684",
  "kinopoisk": "7.5",
  "kinopoisk_id": "573990",
  "world_art": null,
  "world_art_id": null,
  "time": "124 мин. / 02:04",
  "ads": false,
  "premier": "2015-06-15",
  "premier_rus": "2015-07-30",
  "availability": null,
  "activate_time": "2018-06-04 15:12:28",
  "budget": "$30 000 000",
  "fees_use": "$52 421 953",
  "fees_world": "$91 970 827",
  "fees_rus": "$931 339",
  "rate_mpaa": "R",
  "description": "У боксера Билли Хоупа все было прекрасно: звание чемпиона, красавица-жена и любимая дочка. Но фортуна отворачивается от него: при трагических обстоятельствах погибает любимая жена, дисквалификация на ринге, нулевые доходы, суд лишает его родительских прав… Хоуп должен отстоять звание чемпиона и вернуть дочь. Есть ли у Хоупа шансы на победу? Все решит его знаменитый хук левой…",
  "iframe_url": "",
  "iframe_poster": null,
  "poster": "https://img.imgilall.me/movies/franchise/1/5/7/0/0/0/0/0/0/0/610x900_157.jpg",
  "country": {
    "1": "США"
  },
  "collection": {
    "76": "Про спорт",
    "12": "Для мужчин",
    "16": "Про боевые искусства"
  },
  "genre": {
    "23": "Спортивный",
    "17": "Боевик",
    "13": "Триллер",
    "10": "Зарубежный",
    "7": "Драма"
  },
  "director": [
    "Антуан Фукуа"
  ],
  "screenwriter": [
    "Курт Саттер"
  ],
  "producer": [
    "Тодд Блэк",
    "Джейсон Блюменталь",
    "Антуан Фукуа"
  ],
  "operator": [
    "Мауро Фиоре"
  ],
  "composer": [
    "Джеймс Хорнер"
  ],
  "design": [
    "Дерек Р. Хилл",
    "Грегори А. Веймерскирч",
    "Дэвид С. Робинсон"
  ],
  "editor": [
    "Джон Рефуа"
  ],
  "actors": [
    "Джейк Джилленхол",
    "Рэйчел МакАдамс",
    "Форест Уитакер",
    "Уна Лоуренс",
    "Фифти Сент",
    "Скайлан Брукс",
    "Наоми Харрис",
    "Виктор Ортис",
    "Бо Напп",
    "Мигель Гомес"
  ],
  "actors_dubl": [
    "Михаил Тихонов",
    "Татьяна Шитова",
    "Сергей Чихачёв",
    "Елизавета Запорожец",
    "Радик Мухаметзянов"
  ],
  "trivia": [
    "Первоначально проект рассматривался как неофициальное продолжение к фильму «8 миля» (2002) с Эминемом (который на самом деле является левшой) в главной роли. Однако в конечном итоге сценарий претерпел существенные изменения и от этой идеи отказались.",
    "Хотя Эминем не снялся в фильме из-за своей активной музыкальной жизни, он составил для «Левши» саундтрек и сам исполнил одну из песен – «Phenomenal».",
    "Оригинальное название фильма — «Southpaw» относится к боксерской терминологии, означая стойку, которую чаще используют боксеры-левши.",
    "Из-за небольшого бюджета у режиссера не было денег, чтобы заплатить Джеймсу Хорнеру за написание музыки к фильму. Однако Джеймсу настолько понравилась идея фильма, что он написал музыку бесплатно.",
    "Лупита Нионго могла исполнить роль Анджелы Риверы, но ей пришлось покинуть проект из-за занятости в фильме «Звёздные войны: Пробуждение силы» (2015).",
    "Готовясь к своей роли, Джейк Джилленхол изучал боксерский стиль Мигеля Котто.",
    "Райан Гослинг, Брэдли Купер и Джереми Реннер рассматривались на главную роль в этом фильме.",
    "Изначально композитором фильма должен был стать Гарри Грегсон-Уильямс. Он даже заявил в одном своем интервью в конце 2014 году, что уже приступил к написанию музыки. Однако вскоре после этого было объявлено, что композитором будет Джеймс Хорнер.",
    "Сцены боксерских поединков в Лас-Вегасе и в Мэдисон-сквер-гарден были отсняты за две недели. Оба поединка на самом деле снимались в Индианском университете в Пенсильвании.",
    "Фильм посвящен памяти композитора Джеймса Хорнера."
  ],
  "trailers": [],
  "seasons": [],
  "voiceActing": [
    "Рус. Дублированный"
  ],
  "subtitle": [],
  "parts": []
}
