{
  "id": 15747,
  "name": "Бельвю",
  "name_eng": "Bellevue",
  "year": 2017,
  "slogan": "«Everyone Has Something to Hide»",
  "age": null,
  "type": "series",
  "quality": "HD (720p)",
  "imdb": "6.4",
  "imdb_id": "6082618",
  "kinopoisk": "6.4",
  "kinopoisk_id": "1009722",
  "world_art": null,
  "world_art_id": null,
  "time": "44 мин",
  "ads": false,
  "premier": "2017-02-20",
  "premier_rus": "2017-02-21",
  "availability": "2017-02-22",
  "serial_status": "offline",
  "activate_time": "2020-03-03 14:53:00",
  "budget": null,
  "fees_use": null,
  "fees_world": null,
  "fees_rus": null,
  "rate_mpaa": null,
  "description": "Энни Райдер - детектив небольшого городка, который нередко сотрясают различные преступления. Девушка находит интересные связи с делом о похищении подростка-трансгендера, несмотря на то, что оно уже не первый раз заходит в тупик. Вскоре она начинает догадываться о том, что именно происходит в городе. И понимает, что похищенного могут ждать самые печальные последствия...",
  "iframe_url": "",
  "poster": "https://img.imgilall.me/movies/franchise/1/5/7/4/7/0/0/0/0/0/610x900_15747.jpg",
  "country": {
    "7": "Канада"
  },
  "collection": {
    "13": "С неожиданным концом"
  },
  "genre": {
    "24": "Детектив",
    "13": "Триллер",
    "10": "Зарубежный",
    "7": "Драма"
  },
  "director": [
    "Эдриэнн Митчелл",
    "Эйприл Маллен",
    "Ким Нгуен"
  ],
  "screenwriter": [
    "Джейн Маггс",
    "Эдриэнн Митчелл",
    "Морвин Бребнер"
  ],
  "producer": [
    "Морвин Бребнер",
    "Тереза Де Люка",
    "Элисса Льюис"
  ],
  "operator": [
    "Эрик Кайла"
  ],
  "composer": [
    "Марио Севигни"
  ],
  "design": [
    "Донна Нунан",
    "Клод Тремблэ",
    "Джанет Кэмпбелл"
  ],
  "editor": [
    "Тереза Де Люка",
    "Сьюзэн Шиптон",
    "Саймон Уэбб"
  ],
  "actors": [
    "Анна Пэкуин",
    "Шон Дойл",
    "Билли Маклеллан",
    "Шэрон Тейлор",
    "Жанин Терио",
    "Аллен Лич",
    "Мэдисон Фергюсон",
    "Эмбер Голдфарб",
    "Патрик Лаббе",
    "Сэди О’Нил"
  ],
  "actors_dubl": [],
  "trivia": [],
  "trailers": [],
  "seasons": [
    {
      "poster": null,
      "release_ru": "2017-02-21",
      "release_world": "2017-02-20",
      "availability": "2017-02-22",
      "iframe_url": "",
      "season": 1,
      "episodes": [
        {
          "episode": 1,
          "name": "Pilot",
          "iframe_url": "",
          "iframe_poster": null,
          "release_ru": "2017-02-21",
          "release_world": "2017-02-20",
          "availability": "2017-02-22",
          "voiceActing": [
            "TVShows",
            "Eng.Original"
          ],
          "ads": false,
          "subtitle": []
        },
        {
          "episode": 2,
          "name": "He's Back",
          "iframe_url": "",
          "iframe_poster": null,
          "release_ru": "2017-02-28",
          "release_world": "2017-02-27",
          "availability": "2017-03-01",
          "voiceActing": [
            "TVShows",
            "Eng.Original"
          ],
          "ads": false,
          "subtitle": []
        },
        {
          "episode": 3,
          "name": "The Guy with Fire in His Eyes",
          "iframe_url": "",
          "iframe_poster": null,
          "release_ru": "2017-03-07",
          "release_world": "2017-03-06",
          "availability": "2017-03-08",
          "voiceActing": [
            "TVShows",
            "Eng.Original"
          ],
          "ads": false,
          "subtitle": []
        },
        {
          "episode": 4,
          "name": "Hello Little Light",
          "iframe_url": "",
          "iframe_poster": null,
          "release_ru": "2017-03-14",
          "release_world": "2017-03-13",
          "availability": "2017-03-15",
          "voiceActing": [
            "TVShows",
            "Eng.Original"
          ],
          "ads": false,
          "subtitle": []
        },
        {
          "episode": 5,
          "name": "How Do I Remember?",
          "iframe_url": "",
          "iframe_poster": null,
          "release_ru": "2017-03-21",
          "release_world": "2017-03-20",
          "availability": "2017-03-22",
          "voiceActing": [
            "TVShows",
            "Eng.Original"
          ],
          "ads": false,
          "subtitle": []
        },
        {
          "episode": 6,
          "name": "The Problem with the Truth",
          "iframe_url": "",
          "iframe_poster": null,
          "release_ru": "2017-03-28",
          "release_world": "2017-03-27",
          "availability": "2017-03-29",
          "voiceActing": [
            "TVShows",
            "Eng.Original"
          ],
          "ads": false,
          "subtitle": []
        },
        {
          "episode": 7,
          "name": "The Man Behind the Curtain",
          "iframe_url": "",
          "iframe_poster": null,
          "release_ru": "2017-04-04",
          "release_world": "2017-04-03",
          "availability": "2017-04-05",
          "voiceActing": [
            "TVShows",
            "Eng.Original"
          ],
          "ads": false,
          "subtitle": []
        },
        {
          "episode": 8,
          "name": "You Don't Understand Me at All",
          "iframe_url": "",
          "iframe_poster": null,
          "release_ru": "2017-04-11",
          "release_world": "2017-04-10",
          "availability": "2017-04-12",
          "voiceActing": [
            "TVShows",
            "Eng.Original"
          ],
          "ads": false,
          "subtitle": []
        }
      ]
    }
  ],
  "voiceActing": [
    "TVShows",
    "Eng.Original"
  ],
  "subtitle": [],
  "parts": []
}
