{
  "id": 15759,
  "name": "Дом на продажу",
  "name_eng": "The Open House",
  "year": 2018,
  "slogan": "«You can't lock out what's already Inside»",
  "age": null,
  "type": "film",
  "quality": "HD (720p)",
  "imdb": "3.2",
  "imdb_id": "7608028",
  "kinopoisk": "4.2",
  "kinopoisk_id": "1100911",
  "world_art": null,
  "world_art_id": null,
  "time": "94 мин. / 01:34",
  "ads": false,
  "premier": "2018-01-19",
  "premier_rus": "2018-01-20",
  "availability": "2018-01-21",
  "activate_time": "2020-03-10 14:40:00",
  "budget": null,
  "fees_use": null,
  "fees_world": null,
  "fees_rus": null,
  "rate_mpaa": null,
  "description": "После смерти мужа Наоми с сыном-подростком Логаном остаются без средств к существованию, и сестра женщины предлагает им пожить в своем огромном особняке посреди леса. Дом выставлен на продажу, поэтому новые жильцы должны периодически оставлять ключи и дом риэлторам на целый день. Скорбя о потере, мать с сыном стараются не обращать внимание на некоторые странности жилища, что вскоре может выйти им боком.",
  "iframe_url": "",
  "iframe_poster": null,
  "poster": "https://img.imgilall.me/movies/franchise/1/5/7/5/9/0/0/0/0/0/610x900_15759.jpg",
  "country": {
    "1": "США"
  },
  "collection": {
    "40": "Netflix"
  },
  "genre": {
    "26": "Ужасы",
    "13": "Триллер",
    "10": "Зарубежный"
  },
  "director": [
    "Мэтт Энджел",
    "Suzanne Coote"
  ],
  "screenwriter": [
    "Мэтт Энджел",
    "Suzanne Coote"
  ],
  "producer": [
    "Дэн Энджел",
    "Мэтт Энджел",
    "Suzanne Coote"
  ],
  "operator": [
    "Филип Вандевал"
  ],
  "composer": [
    "Joseph Shirley"
  ],
  "design": [
    "Каролина Иноэ",
    "Minnie Garcia"
  ],
  "editor": [
    "Брэд МакЛафлин"
  ],
  "actors": [
    "Дилан Миннетт",
    "Пирси Далтон",
    "Патриша Бетун",
    "Шариф Аткинс",
    "Аарон Абрамс",
    "Эдвард Олсон",
    "Кэти Уолдер",
    "Пол Рэй",
    "Ли Паркер",
    "Kathryn Beckwith"
  ],
  "actors_dubl": [],
  "trivia": [],
  "trailers": [],
  "seasons": [],
  "voiceActing": [
    "JASKIER",
    "Eng.Original"
  ],
  "subtitle": [],
  "parts": []
}
