{
  "id": 15756,
  "name": "Тайная жизнь",
  "name_eng": "A Hidden Life",
  "year": 2019,
  "slogan": "—",
  "age": "16+",
  "type": "film",
  "quality": "FHD (1080p)",
  "imdb": "7.4",
  "imdb_id": "5827916",
  "kinopoisk": "7.3",
  "kinopoisk_id": "991632",
  "world_art": null,
  "world_art_id": null,
  "time": "174 мин. / 02:54",
  "ads": false,
  "premier": "2019-05-19",
  "premier_rus": "2020-03-19",
  "availability": "2020-03-20",
  "activate_time": "2020-03-03 18:20:00",
  "budget": null,
  "fees_use": "$1 730 597",
  "fees_world": "+ $2 876 967 = $4 607 564",
  "fees_rus": "$35 218",
  "rate_mpaa": "PG-13",
  "description": "История символа австрийского сопротивления, Франца Егерштеттера, отказавшегося сражаться за нацистов во Второй мировой войне. Когда Франц сталкивается с угрозой казни за измену, несмотря на многочисленные возможности ее избежать, он продолжает отстаивать свои убеждения, опираясь на веру и любовь своей семьи.",
  "iframe_url": "",
  "iframe_poster": null,
  "poster": "https://img.imgilall.me/movies/franchise/1/5/7/5/6/0/0/0/0/0/610x900_15756.jpg",
  "country": {
    "1": "США",
    "2": "Великобритания",
    "20": "Германия"
  },
  "collection": {
    "69": "Про войну 1941-1945"
  },
  "genre": {
    "32": "Военный",
    "28": "Исторический",
    "27": "Биографический",
    "10": "Зарубежный",
    "7": "Драма"
  },
  "director": [
    "Терренс Малик"
  ],
  "screenwriter": [
    "Терренс Малик"
  ],
  "producer": [
    "Элизабет Бентли",
    "Дарио Берджесио",
    "Мэтт Билски"
  ],
  "operator": [
    "Йорг Видмер"
  ],
  "composer": [
    "Джеймс Ньютон Ховард"
  ],
  "design": [
    "Себастьян Т. Кравинкель",
    "Стив Саммерсгилл",
    "Брайс Тибби"
  ],
  "editor": [
    "Реман Низар Али",
    "Joe Gleason",
    "Себастьян Джонс"
  ],
  "actors": [
    "Аугуст Диль",
    "Валери Пахнер",
    "Мария Зимон",
    "Карин Нойхаузер",
    "Тобиас Моретти",
    "Ульрих Маттес",
    "Маттиас Шонартс",
    "Франц Роговский",
    "Карл Маркович",
    "Бруно Ганц"
  ],
  "actors_dubl": [
    "Илья Крутояров",
    "Лада Аукштыкальнис",
    "Лариса Брохман",
    "Марина Перелешина",
    "Евгений Крылов"
  ],
  "trivia": [],
  "trailers": [],
  "seasons": [],
  "voiceActing": [
    "Рус. Дублированный",
    "HDRezka Studio",
    "Eng.Original"
  ],
  "subtitle": [
    "Рус. форсированные"
  ],
  "parts": []
}
