{
  "id": 15935,
  "name": "Последние ответчики: жизнь после смерти",
  "name_eng": "The Last Responders: Life After Death",
  "year": 2019,
  "slogan": "—",
  "age": null,
  "type": "film",
  "quality": "FHD (1080p)",
  "imdb": "6.9",
  "imdb_id": "4697722",
  "kinopoisk": null,
  "kinopoisk_id": "937136",
  "world_art": null,
  "world_art_id": null,
  "time": "99 мин. / 01:39",
  "ads": true,
  "premier": "2019-09-29",
  "premier_rus": "2019-09-30",
  "availability": "2019-10-01",
  "activate_time": "2020-03-19 09:43:00",
  "budget": "$15 000",
  "fees_use": "",
  "fees_world": "",
  "fees_rus": "",
  "rate_mpaa": "",
  "description": "Медэксперт, Теодор Дэвис, возвращается к работе после длительного перерыва из-за смерти его напарника Элиз. Он знакомится с новой сотрудницей по имени Кай, которой удается отвлечь его от горя. Но по мере того, как их отношения начинают развиваться, Дэвису всё труднее скрывать тот факт, как сильно на него повлияла смерть Элиз.",
  "iframe_url": "",
  "iframe_poster": null,
  "poster": "https://img.imgilall.me/movies/franchise/1/5/9/3/5/0/0/0/0/0/610x900_15935.jpg",
  "country": {
    "1": "США"
  },
  "collection": {
    "29": "Психологические"
  },
  "genre": {
    "13": "Триллер",
    "10": "Зарубежный",
    "8": "Мелодрама",
    "7": "Драма"
  },
  "director": [
    "Andrea Magwood"
  ],
  "screenwriter": [
    "Andrea Magwood"
  ],
  "producer": [
    "Andrea Magwood",
    "Мишель Й. Аллен",
    "Robyn Chea Govreau"
  ],
  "operator": [
    "Miguel Gonzalez"
  ],
  "composer": [
    "Eros Cartechini"
  ],
  "design": [
    "Джордж О’Бартс",
    "Josh Cannatelli"
  ],
  "editor": [
    "Emeric Palm"
  ],
  "actors": [
    "Phuong Kubacki",
    "Джессика Й. Мартин",
    "Сильвия Ромеро",
    "Мелисса Уил",
    "Lauren Hall",
    "Дэйв Холландер",
    "Алекс Касс",
    "Джим Коутс",
    "Джеймс Рэй",
    "Brandon Hannifin"
  ],
  "actors_dubl": [],
  "trivia": [],
  "trailers": [],
  "seasons": [],
  "voiceActing": [
    "Рус. Люб. многоголосый"
  ],
  "subtitle": [],
  "parts": []
}
