{
  "id": 15975,
  "name": "Плачущая",
  "name_eng": "The Wailer",
  "year": 2006,
  "slogan": "«The Legend of La Llorona»",
  "age": null,
  "type": "film",
  "quality": "SD",
  "imdb": "3.5",
  "imdb_id": "0823726",
  "kinopoisk": null,
  "kinopoisk_id": "301010",
  "world_art": null,
  "world_art_id": null,
  "time": "90 мин. / 01:30",
  "ads": false,
  "premier": "2006-06-20",
  "premier_rus": "2006-06-21",
  "availability": "2006-06-22",
  "activate_time": "2020-03-21 12:30:00",
  "budget": "$250 000",
  "fees_use": null,
  "fees_world": null,
  "fees_rus": null,
  "rate_mpaa": null,
  "description": "На отдыхе в Мексике шестеро друзей остались без крыши над головой, когда выяснилось, что в окрестных гостиницах нет свободных номеров. Помощь пришла от добродушного мужичка, который предложил молодёжи снять у него дом. Уютный коттедж в живописных горах обещал туристам райский уголок, правда был один подвох: местные жители боязливо связывали это место с легендой о некой Плачущей.",
  "iframe_url": "",
  "iframe_poster": null,
  "poster": "https://img.imgilall.me/movies/franchise/1/5/9/7/5/0/0/0/0/0/610x900_15975.jpg",
  "country": {
    "1": "США"
  },
  "collection": [],
  "genre": {
    "26": "Ужасы",
    "10": "Зарубежный"
  },
  "director": [
    "Андрес Навия"
  ],
  "screenwriter": [
    "Аль Браво",
    "Рафи Ривера"
  ],
  "producer": [
    "Аль Браво",
    "Рафи Ривера",
    "Яков Бреслер"
  ],
  "operator": [
    "Куртис Петерсен"
  ],
  "composer": [
    "Ричард Джон Бэйкер"
  ],
  "design": [
    "Хулиан Торо-Дуке"
  ],
  "editor": [
    "Андрес Навия"
  ],
  "actors": [
    "Ванесса Райс",
    "Джон Патрик Джордан",
    "Уго Медина",
    "Бренда Мехиа",
    "Элтони Уильямс",
    "Николь Даниэль",
    "Моника Барахас",
    "Фрэнки Дж.",
    "Joselyn Gallegos",
    "Эмилио Росо"
  ],
  "actors_dubl": [],
  "trivia": [],
  "trailers": [],
  "seasons": [],
  "voiceActing": [
    "Рус. Люб. одноголосый"
  ],
  "subtitle": [],
  "parts": [
    15975,
    15976,
    16477
  ]
}
