{
  "id": 16004,
  "name": "Светлячков больше нет",
  "name_eng": "La disparition des lucioles",
  "year": 2018,
  "slogan": "—",
  "age": null,
  "type": "film",
  "quality": "FHD (1080p)",
  "imdb": "6.9",
  "imdb_id": "8449092",
  "kinopoisk": null,
  "kinopoisk_id": "1153748",
  "world_art": null,
  "world_art_id": null,
  "time": "96 мин. / 01:36",
  "ads": true,
  "premier": "2018-06-30",
  "premier_rus": "2018-07-01",
  "availability": "2018-07-02",
  "activate_time": "2020-03-23 13:05:00",
  "budget": "",
  "fees_use": "$245 006",
  "fees_world": "",
  "fees_rus": "",
  "rate_mpaa": "",
  "description": "Девочка-подросток освобождается от влияния своей матери и уезжает из маленького индустриального города, чтобы узнать, кто она на самом деле.",
  "iframe_url": "",
  "iframe_poster": null,
  "poster": "https://img.imgilall.me/movies/franchise/1/6/0/0/4/0/0/0/0/0/610x900_16004.jpg",
  "country": {
    "7": "Канада"
  },
  "collection": [],
  "genre": {
    "10": "Зарубежный",
    "7": "Драма"
  },
  "director": [
    "Себастьян Пилот"
  ],
  "screenwriter": [
    "Себастьян Пилот"
  ],
  "producer": [
    "Марк Дэйгл",
    "Bernadette Payeur",
    "Robert Lacerte"
  ],
  "operator": [
    "Мишель Ла Ву"
  ],
  "composer": [
    "Philippe Brault"
  ],
  "design": [
    "Эрик Барбо",
    "Éric Barbeau",
    "Sophie Lefebvre"
  ],
  "editor": [
    "Стефан ЛаФлер"
  ],
  "actors": [
    "Карей Тремблэ",
    "Пьер-Люк Брийян",
    "Франсуа Папино",
    "Мари-Франс Маркотте",
    "Люк Пикар"
  ],
  "actors_dubl": [],
  "trivia": [],
  "trailers": [],
  "seasons": [],
  "voiceActing": [
    "Рус. Люб. многоголосый"
  ],
  "subtitle": [],
  "parts": []
}
