{
  "id": 16045,
  "name": "Симфония нашего мира",
  "name_eng": "Symphony for Our World",
  "year": 2018,
  "slogan": "",
  "age": "12+",
  "type": "film",
  "quality": "FHD (1080p)",
  "imdb": null,
  "imdb_id": null,
  "kinopoisk": null,
  "kinopoisk_id": null,
  "world_art": null,
  "world_art_id": null,
  "time": "",
  "ads": false,
  "premier": null,
  "premier_rus": null,
  "availability": null,
  "activate_time": "2020-03-24 14:22:00",
  "budget": "",
  "fees_use": "",
  "fees_world": "",
  "fees_rus": "",
  "rate_mpaa": "",
  "description": "В сериале соединены воедино потрясающие моменты, захватывающие дух открытия и самые сокровенные моменты из жизни дикой природы.",
  "iframe_url": "",
  "iframe_poster": null,
  "poster": "https://img.imgilall.me/movies/franchise/1/6/0/4/5/0/0/0/0/0/610x900_16045.jpg",
  "country": {
    "1": "США"
  },
  "collection": {
    "105": "National Geographic"
  },
  "genre": {
    "54": "Документальный",
    "10": "Зарубежный"
  },
  "director": [
    ""
  ],
  "screenwriter": [],
  "producer": [],
  "operator": [],
  "composer": [],
  "design": [],
  "editor": [],
  "actors": [
    ""
  ],
  "actors_dubl": [],
  "trivia": [],
  "trailers": [],
  "seasons": [],
  "voiceActing": [
    "Рус. Дублированный"
  ],
  "subtitle": [],
  "parts": []
}
