{
  "id": 16116,
  "name": "Падающая камелия",
  "name_eng": "Chiri tsubaki",
  "year": 2018,
  "slogan": "—",
  "age": null,
  "type": "film",
  "quality": "FHD (1080p)",
  "imdb": "6.4",
  "imdb_id": "6926356",
  "kinopoisk": null,
  "kinopoisk_id": "1045433",
  "world_art": null,
  "world_art_id": null,
  "time": "111 мин. / 01:51",
  "ads": true,
  "premier": "2018-08-23",
  "premier_rus": "2018-08-24",
  "availability": "2018-08-25",
  "activate_time": "2020-03-31 20:45:00",
  "budget": "",
  "fees_use": "",
  "fees_world": "$5 410 153",
  "fees_rus": "",
  "rate_mpaa": "",
  "description": " Изгнанный из клана после скандала, связанного с коррупцией, самурай возвращается, чтобы исполнить последнюю просьбу своей жены.",
  "iframe_url": "",
  "iframe_poster": null,
  "poster": "https://img.imgilall.me/movies/franchise/1/6/1/1/6/0/0/0/0/0/610x900_16116.jpg",
  "country": {
    "18": "Япония"
  },
  "collection": {
    "16": "Про боевые искусства"
  },
  "genre": {
    "17": "Боевик",
    "10": "Зарубежный",
    "8": "Мелодрама"
  },
  "director": [
    "Даисаку Кимура"
  ],
  "screenwriter": [
    "Такаси Коидзуми",
    "Рин Хамуро"
  ],
  "producer": [
    "Дзюнъити Абэ"
  ],
  "operator": [
    "Даисаку Кимура"
  ],
  "composer": [],
  "design": [],
  "editor": [],
  "actors": [
    "Дзюнъити Окада",
    "Хидэтоси Нисидзима",
    "Хару Куроки",
    "Хирофуми Араи",
    "Кёко Ёсинэ",
    "Кумико Асо",
    "Дзюнко Фудзи",
    "Сосукэ Икэмацу",
    "Кодзи Като",
    "Наото Огата"
  ],
  "actors_dubl": [],
  "trivia": [],
  "trailers": [],
  "seasons": [],
  "voiceActing": [
    "Рус. Люб. многоголосый"
  ],
  "subtitle": [],
  "parts": []
}
