{
  "id": 1617,
  "name": "Девушка в тумане",
  "name_eng": "La ragazza nella nebbia",
  "year": 2017,
  "slogan": null,
  "age": "16+",
  "type": "film",
  "quality": "FHD (1080p)",
  "imdb": "6.8",
  "imdb_id": "6892400",
  "kinopoisk": "6.8",
  "kinopoisk_id": "1047956",
  "world_art": null,
  "world_art_id": null,
  "time": "128 мин. / 02:08",
  "ads": false,
  "premier": "2017-10-26",
  "premier_rus": "2018-01-25",
  "availability": null,
  "activate_time": "2018-08-14 14:26:35",
  "budget": null,
  "fees_use": null,
  "fees_world": "$4 996 317",
  "fees_rus": "$412 178",
  "rate_mpaa": "PG-13",
  "description": "Холодной зимней ночью психиатра Аугусто Флореса срочно вызывают на работу, чтобы обследовать попавшего в аварию инспектора Фогеля. Инспектор ничего не помнит, на месте аварии ничто не указывает на ее причину и на ее жертв, однако рубашка Фогеля в пятнах свежей крови, и эта кровь не его. В ходе беседы начинает восстанавливаться цепь невероятных событий, начавшихся месяц назад.Затерянный в Альпах сонный городок, рождественский вечер, туман. 16-летняя девушка Анна Лу, выйдя из дома, до празднично украшенной церкви так и не дошла. Нет ни тела жертвы, ни каких-либо следов борьбы, ни свидетелей — ничего. Вскоре в городе появляется инспектор Фогель, звезда сыска, специалист по поимке маньяков и серийных убийц…",
  "iframe_url": "",
  "iframe_poster": null,
  "poster": "https://img.imgilall.me/movies/franchise/1/6/1/7/0/0/0/0/0/0/610x900_1617.jpg",
  "country": {
    "8": "Италия",
    "9": "Франция",
    "20": "Германия"
  },
  "collection": {
    "29": "Психологические"
  },
  "genre": {
    "25": "Криминал",
    "13": "Триллер",
    "10": "Зарубежный"
  },
  "director": [
    "Донато Карризи"
  ],
  "screenwriter": [
    "Донато Карризи"
  ],
  "producer": [
    "Маурицио Тотти",
    "Алессандро Усай",
    "Рэйчел Окин"
  ],
  "operator": [
    "Федерико Масьеро"
  ],
  "composer": [
    "Вито Ло Ре"
  ],
  "design": [
    "Тонино Дзера",
    "Патриция Керикони",
    "Maria Grazia Schirripa"
  ],
  "editor": [
    "Массимо Квалья"
  ],
  "actors": [
    "Тони Сервилло",
    "Жан Рено",
    "Алессио Бони",
    "Лоренцо Рикельми",
    "Галатеа Ранци",
    "Микела Ческон",
    "Лукреция Гидоне",
    "Даниэла Пьяцца",
    "Тьерри Тоскан",
    "Екатерина Бушеми"
  ],
  "actors_dubl": [
    "Андрей Гриневич",
    "Владимир Рыбальченко",
    "Александр Коврижных",
    "Александр Лучинин",
    "Инга Сметанина"
  ],
  "trivia": [],
  "trailers": [],
  "seasons": [],
  "voiceActing": [
    "Рус. Дублированный",
    "Eng.Original"
  ],
  "subtitle": [
    "Eng. full"
  ],
  "parts": []
}
