{
  "id": 16248,
  "name": "Дикие места Африки. Рожденные выживать",
  "name_eng": "Africa's Wild Side",
  "year": 2018,
  "slogan": "",
  "age": "6+",
  "type": "film",
  "quality": "HD (720p)",
  "imdb": null,
  "imdb_id": null,
  "kinopoisk": null,
  "kinopoisk_id": null,
  "world_art": null,
  "world_art_id": null,
  "time": "",
  "ads": false,
  "premier": null,
  "premier_rus": null,
  "availability": null,
  "activate_time": "2020-04-08 13:22:00",
  "budget": "",
  "fees_use": "",
  "fees_world": "",
  "fees_rus": "",
  "rate_mpaa": "",
  "description": "Способы выживания самых харизматичных обитателей Ботсваны столь же таинственны, замысловаты и разнообразны, как и сами животные.\r\n\r\nНа земле нет более сурового места для того, чтобы вырастить потомство, чем дикие места Ботсваны. Каждый родитель делает все, что в его силах, чтобы его потомство получило шанс на выживание в будущих схватках с соперниками.",
  "iframe_url": "",
  "iframe_poster": null,
  "poster": "https://img.imgilall.me/movies/franchise/1/6/2/4/8/0/0/0/0/0/610x900_16248.jpg",
  "country": {
    "1": "США"
  },
  "collection": {
    "105": "National Geographic"
  },
  "genre": {
    "54": "Документальный",
    "10": "Зарубежный"
  },
  "director": [
    ""
  ],
  "screenwriter": [],
  "producer": [],
  "operator": [],
  "composer": [],
  "design": [],
  "editor": [],
  "actors": [
    ""
  ],
  "actors_dubl": [],
  "trivia": [],
  "trailers": [],
  "seasons": [],
  "voiceActing": [
    "Рус. Одноголосый",
    "Eng.Original"
  ],
  "subtitle": [],
  "parts": []
}
