{
  "id": 16299,
  "name": "Discovery. COVID-19: Китай против вируса",
  "name_eng": "COVID-19: Battling the Pandemic",
  "year": 2020,
  "slogan": "",
  "age": null,
  "type": "film",
  "quality": "HD (720p)",
  "imdb": null,
  "imdb_id": null,
  "kinopoisk": null,
  "kinopoisk_id": null,
  "world_art": null,
  "world_art_id": null,
  "time": "",
  "ads": false,
  "premier": null,
  "premier_rus": null,
  "availability": null,
  "activate_time": "2020-04-09 09:10:00",
  "budget": "",
  "fees_use": "",
  "fees_world": "",
  "fees_rus": "",
  "rate_mpaa": "",
  "description": "Коронавирусная инфекция COVID-19 была впервые зафиксирована в Китае, где всего за два месяца удалось подавить вспышку болезни. Как принимались беспрецедентные в истории медицины решения? Узнаете из нового фильма «COVID-19. Китай против вируса». Фильм прослеживает хронологию событий, предшествовавших закрытию на карантин целого региона. В него вошли эксклюзивные хроники и интервью с китайскими врачами, вирусологами, экспертами в области здравоохранения, волонтерами, пациентами, представителями властей, а также специалистами из других стран и представителями ВОЗ.",
  "iframe_url": "",
  "iframe_poster": null,
  "poster": "https://img.imgilall.me/movies/franchise/1/6/2/9/9/0/0/0/0/0/610x900_16299.jpg",
  "country": {
    "19": "Китай"
  },
  "collection": {
    "39": "На реальных событиях"
  },
  "genre": {
    "54": "Документальный",
    "10": "Зарубежный"
  },
  "director": [
    ""
  ],
  "screenwriter": [],
  "producer": [],
  "operator": [],
  "composer": [],
  "design": [],
  "editor": [],
  "actors": [
    ""
  ],
  "actors_dubl": [],
  "trivia": [],
  "trailers": [],
  "seasons": [],
  "voiceActing": [
    "Рус. Одноголосый",
    "Eng.Original"
  ],
  "subtitle": [],
  "parts": []
}
