{
  "id": 16451,
  "name": "Эльба против Блока",
  "name_eng": "Elba vs. Block",
  "year": 2020,
  "slogan": "—",
  "age": null,
  "type": "series",
  "quality": "FHD (1080p)",
  "imdb": "4.9",
  "imdb_id": "10482720",
  "kinopoisk": null,
  "kinopoisk_id": "1365989",
  "world_art": null,
  "world_art_id": null,
  "time": "—",
  "ads": true,
  "premier": "2020-05-13",
  "premier_rus": "2020-05-14",
  "availability": "2020-05-15",
  "serial_status": "offline",
  "activate_time": "2020-04-13 22:27:00",
  "budget": null,
  "fees_use": null,
  "fees_world": null,
  "fees_rus": null,
  "rate_mpaa": null,
  "description": "Актер Идрис Эльба и гонщик Кен Блок решают, кто из них лучший водитель.",
  "iframe_url": "",
  "poster": "https://img.imgilall.me/movies/franchise/1/6/4/5/1/0/0/0/0/0/610x900_16451.jpg",
  "country": {
    "1": "США",
    "2": "Великобритания"
  },
  "collection": {
    "94": "Про гонки",
    "12": "Для мужчин"
  },
  "genre": {
    "53": "Короткометражный",
    "10": "Зарубежный"
  },
  "director": [
    "Сутан Моррис",
    "Rick Murray",
    "Кит Линч Робинсон"
  ],
  "screenwriter": [
    "Идрис Эльба"
  ],
  "producer": [
    "Фрэнк Смэлли",
    "Бен Смит",
    "Идрис Эльба"
  ],
  "operator": [
    "Стив Лиджервуд"
  ],
  "composer": [
    "Уэйн Робертс"
  ],
  "design": [],
  "editor": [],
  "actors": [
    "Кен Блок",
    "Идрис Эльба"
  ],
  "actors_dubl": [],
  "trivia": [],
  "trailers": [],
  "seasons": [
    {
      "poster": null,
      "release_ru": "2020-04-14",
      "release_world": "2020-04-13",
      "availability": "2020-04-15",
      "iframe_url": "",
      "season": 1,
      "episodes": [
        {
          "episode": 1,
          "name": "Flaming Obstacle Course",
          "iframe_url": "",
          "iframe_poster": null,
          "release_ru": "2020-04-14",
          "release_world": "2020-04-13",
          "availability": "2020-04-15",
          "voiceActing": [
            "Cold Film"
          ],
          "ads": true,
          "subtitle": []
        },
        {
          "episode": 2,
          "name": "Jump",
          "iframe_url": "",
          "iframe_poster": null,
          "release_ru": "2020-04-14",
          "release_world": "2020-04-13",
          "availability": "2020-04-15",
          "voiceActing": [
            "Cold Film"
          ],
          "ads": true,
          "subtitle": []
        },
        {
          "episode": 3,
          "name": "Two Wheels",
          "iframe_url": "",
          "iframe_poster": null,
          "release_ru": "2020-04-14",
          "release_world": "2020-04-13",
          "availability": "2020-04-15",
          "voiceActing": [
            "Cold Film"
          ],
          "ads": true,
          "subtitle": []
        },
        {
          "episode": 4,
          "name": "Duel",
          "iframe_url": "",
          "iframe_poster": null,
          "release_ru": "2020-04-15",
          "release_world": "2020-04-14",
          "availability": "2020-04-16",
          "voiceActing": [
            "Cold Film"
          ],
          "ads": true,
          "subtitle": []
        },
        {
          "episode": 5,
          "name": "Monster Trucks",
          "iframe_url": "",
          "iframe_poster": null,
          "release_ru": "2020-04-16",
          "release_world": "2020-04-15",
          "availability": "2020-04-17",
          "voiceActing": [
            "Cold Film"
          ],
          "ads": true,
          "subtitle": []
        },
        {
          "episode": 6,
          "name": "Wall of Death",
          "iframe_url": "",
          "iframe_poster": null,
          "release_ru": "2020-04-17",
          "release_world": "2020-04-16",
          "availability": "2020-04-18",
          "voiceActing": [
            "Cold Film"
          ],
          "ads": true,
          "subtitle": []
        },
        {
          "episode": 7,
          "name": "High Beams",
          "iframe_url": "",
          "iframe_poster": null,
          "release_ru": "2020-04-18",
          "release_world": "2020-04-17",
          "availability": "2020-04-19",
          "voiceActing": [
            "Cold Film"
          ],
          "ads": true,
          "subtitle": []
        },
        {
          "episode": 8,
          "name": "Hill Chase",
          "iframe_url": "",
          "iframe_poster": null,
          "release_ru": "2020-04-21",
          "release_world": "2020-04-20",
          "availability": "2020-04-22",
          "voiceActing": [
            "Cold Film"
          ],
          "ads": true,
          "subtitle": []
        }
      ]
    }
  ],
  "voiceActing": [
    "Cold Film"
  ],
  "subtitle": [],
  "parts": []
}
