{
  "id": 16478,
  "name": "Привет, мне пора",
  "name_eng": "Hello I Must Be Going",
  "year": 2012,
  "slogan": "«Жизнь всегда даёт второй шанс»",
  "age": "16+",
  "type": "film",
  "quality": "FHD (1080p)",
  "imdb": "6.2",
  "imdb_id": "2063666",
  "kinopoisk": "6.1",
  "kinopoisk_id": "630005",
  "world_art": null,
  "world_art_id": null,
  "time": "93 мин. / 01:33",
  "ads": false,
  "premier": "2012-01-19",
  "premier_rus": "2013-01-31",
  "availability": "2013-02-01",
  "activate_time": "2020-04-13 22:39:00",
  "budget": null,
  "fees_use": "$106 709",
  "fees_world": null,
  "fees_rus": "$26 849",
  "rate_mpaa": "R",
  "description": "Эми Мински разведена и деморализована, и ее перспективы на будущее весьма малообещающи. В возрасте 35 лет ей приходится вернуться в родительский дом. В тот момент, когда ожидание любви становится нестерпимо, и депрессия подходит близко, на горизонте появляется самоуверенный прекрасный 19-летний юноша. Он разжигает в Эми тлевший фитилек страсти и неожиданно освещает возможный путь к самопознанию.",
  "iframe_url": "",
  "iframe_poster": null,
  "poster": "https://img.imgilall.me/movies/franchise/1/6/4/7/8/0/0/0/0/0/610x900_16478.jpg",
  "country": {
    "1": "США"
  },
  "collection": [],
  "genre": {
    "19": "Комедия",
    "10": "Зарубежный",
    "8": "Мелодрама",
    "7": "Драма"
  },
  "director": [
    "Тодд Луисо"
  ],
  "screenwriter": [
    "Сара Коскофф"
  ],
  "producer": [
    "Ганс С. Риттер",
    "Мэри Джейн Скалски",
    "Джонатан Грэй"
  ],
  "operator": [
    "Джули Кирквуд"
  ],
  "composer": [
    "Лаура Вейрс"
  ],
  "design": [
    "Расселл Барнс",
    "Бобби Фредерик Тилли",
    "Дэниэл Р. Керстинг"
  ],
  "editor": [
    "Том МакАрдл"
  ],
  "actors": [
    "Мелани Лински",
    "Кристофер Эбботт",
    "Блайт Даннер",
    "Джон Рубинстайн",
    "Джули Уайт",
    "Сара Чейз",
    "Дэниэл Эрик Голд",
    "Джимми Симпсон",
    "Дэн Футтерман",
    "Мира Симхан"
  ],
  "actors_dubl": [],
  "trivia": [
    "Название фильма — это намек на одноименную песню Граучо Маркса."
  ],
  "trailers": [],
  "seasons": [],
  "voiceActing": [
    "Рус. Проф. многоголосый",
    "Eng.Original"
  ],
  "subtitle": [
    "Eng. Full"
  ],
  "parts": []
}
