{
  "id": 16483,
  "name": "Уиджи: Проклятие Вероники",
  "name_eng": "Verónica",
  "year": 2017,
  "slogan": "«Не зови того, кого не сможешь остановить»",
  "age": "18+",
  "type": "film",
  "quality": "HD (720p)",
  "imdb": "6.2",
  "imdb_id": "5862312",
  "kinopoisk": "5.4",
  "kinopoisk_id": "992173",
  "world_art": null,
  "world_art_id": null,
  "time": "105 мин. / 01:45",
  "ads": false,
  "premier": "2017-08-25",
  "premier_rus": "2018-02-08",
  "availability": "2018-02-09",
  "activate_time": "2020-04-13 22:34:00",
  "budget": null,
  "fees_use": null,
  "fees_world": "$6 123 089",
  "fees_rus": "$271 279",
  "rate_mpaa": null,
  "description": "Уиджи – доска для вызова душ умерших. Красивая и жизнерадостная старшеклассница Вероника и представить не могла, чем для нее закончится то, что она считала невинной игрой.",
  "iframe_url": "",
  "iframe_poster": null,
  "poster": "https://img.imgilall.me/movies/franchise/1/6/4/8/3/0/0/0/0/0/610x900_16483.jpg",
  "country": {
    "3": "Испания"
  },
  "collection": [],
  "genre": {
    "26": "Ужасы"
  },
  "director": [
    "Пако Пласа"
  ],
  "screenwriter": [
    "Пако Пласа",
    "Фернандо Наварро",
    "Корал Круз"
  ],
  "producer": [
    "Мария Ангуло",
    "Хавьер Карнерос",
    "Мар Илундаин"
  ],
  "operator": [
    "Пабло Россо"
  ],
  "composer": [
    "Эухенио Мира"
  ],
  "design": [
    "Хавьер Альвариньо",
    "Сара Нативидад",
    "Виньет Эскобар"
  ],
  "editor": [
    "Марти Рока"
  ],
  "actors": [
    "Сандра Эскасена",
    "Бруна Гонсалес",
    "Клаудия Плейсер",
    "Иван Чаверо",
    "Ана Торрент",
    "Консуэло Трухильо",
    "Анхела Фабиан",
    "Карла Кампра",
    "Чема Адева",
    "Миранда Гас"
  ],
  "actors_dubl": [
    "Элиза Мартиросова",
    "Ольга Мешкова",
    "Василиса Эльдарова",
    "Тимофей Звягольский",
    "Ольга Голованова"
  ],
  "trivia": [
    "В фильме Вероника и её одноклассницы играют с доской Уиджи во время полного солнечного затмения 12 июня 1991 года. На самом деле полное солнечное затмение произошло 11 июля 1991 года.",
    "Каждая неинструментальная песня в саундтреке к фильму принадлежит испанской рок-группе Heroes del Silencio. Вероника слушает их песни на плеере Walkman. В её комнате висят как минимум 2 плаката и 1 календарь этой группы. В некоторых сценах Вероника носит футболку с названием группы.",
    "Фильм основан на реальных событиях, произошедших с Эстефанией Гутьеррес Лазаро (Estefanía Gutiérrez Lázaro) и её семьёй в 1991 году. 18-летняя Эстефания спустя несколько месяцев после игры с доской Уиджи с двумя одноклассницами начала видеть и ощущать в своём доме паранормальную активность. Она умерла 14 августа 1991 года, через шесть месяцев после первой игры с доской Уиджи. После её смерти паранормальная активность в доме увеличилась. Это было зафиксировано в официально поданном рапорте работниками Национального полицейского корпуса Испании, которые стали свидетелями этих явлений 27 ноября 1992 года."
  ],
  "trailers": [],
  "seasons": [],
  "voiceActing": [
    "Рус. Дублированный",
    "Eng.Original"
  ],
  "subtitle": [
    "Eng. Full"
  ],
  "parts": []
}
