{
  "id": 16603,
  "name": "Идентификация",
  "name_eng": "Identity",
  "year": 2003,
  "slogan": "«Identity is a secret. Identity is a mystery. Identity is a killer»",
  "age": "16+",
  "type": "film",
  "quality": "FHD (1080p)",
  "imdb": "7.3",
  "imdb_id": "0309698",
  "kinopoisk": "7.6",
  "kinopoisk_id": "708",
  "world_art": null,
  "world_art_id": null,
  "time": "90 мин. / 01:30",
  "ads": false,
  "premier": "2003-04-23",
  "premier_rus": "2003-08-21",
  "availability": "2003-08-22",
  "activate_time": "2020-06-22 16:27:00",
  "budget": "$28 000 000",
  "fees_use": "$52 159 536",
  "fees_world": "+ $38 100 000 = $90 259 536",
  "fees_rus": null,
  "rate_mpaa": "R",
  "description": "Бушует жуткий ливень. В поисках укрытия десять путешественников вынуждены остановиться на ночь в старом придорожном мотеле. Однако вскоре они с ужасом обнаруживают, что это место становится не спасительным укрытием, а смертельной мышеловкой.Люди гибнут один за другим, а убийца, скрывающийся среди них, по-прежнему не вычислен. С каждым новым трупом оставшимся в живых становится все очевиднее, что их всех вместе собрала далеко не судьба, а чья-то дьявольски изощренная воля, творящая собственное правосудие.",
  "iframe_url": "",
  "iframe_poster": null,
  "poster": "https://img.imgilall.me/movies/franchise/1/6/6/0/3/0/0/0/0/0/610x900_16603.jpg",
  "country": {
    "1": "США"
  },
  "collection": [],
  "genre": {
    "24": "Детектив",
    "13": "Триллер",
    "10": "Зарубежный"
  },
  "director": [
    "Джеймс Мэнголд"
  ],
  "screenwriter": [
    "Майкл Куни"
  ],
  "producer": [
    "Кэти Конрад",
    "Стюарт М. Бессер",
    "Дикси Дж. Кэпп"
  ],
  "operator": [
    "Фидон Папамайкл"
  ],
  "composer": [
    "Алан Сильвестри"
  ],
  "design": [
    "Марк Фридберг",
    "Джесс Гончор",
    "Арианна Филлипс"
  ],
  "editor": [
    "Дэвид Бреннер"
  ],
  "actors": [
    "Джон Кьюсак",
    "Рэй Лиотта",
    "Аманда Пит",
    "Джон Хоукс",
    "Альфред Молина",
    "Клеа ДюВалл",
    "Джон К. МакГинли",
    "Уильям Ли Скотт",
    "Джейк Бьюзи",
    "Прюитт Тэйлор Винс"
  ],
  "actors_dubl": [
    "Евгений Дятлов",
    "Станислав Концевич",
    "Анна Геллер",
    "Александр Завьялов",
    "Анатолий Петров"
  ],
  "trivia": [
    "Как утверждают создатели, сюжет основан на романе Агаты Кристи «10 негритят».",
    "Большая часть картины была снята на съёмочной площадке в Лос-Анджелесе, принадлежащей студии «Sony Studios».",
    "Книга, которая упоминается в одном из эпизодов фильма — Being and Nothingness Жана-Поля Сартра.",
    "Специально для фильма построили мотель со всеми его элементами, а для большей реалистичности вентиляторы постоянно нагоняли холодный воздух, а актёров во время съемок поливали водой. Исполнители признавались, что им приходилось тяжело каждый день по двенадцать часов мокнуть под искусственным ливнем.",
    "Один из героев утверждает, что в молодости написал стихотворение, но на самом деле он цитирует поэму Хьюза Мернса.",
    "У фильма есть и альтернативный (дополненный) финал, который доступен на DVD-издании.",
    "Психиатр допускает ошибку, когда говорит, чем болен маньяк. На английском языке синдром раздвоения личности звучит как dissociative identity disorder, психиатр же его называет disassociative identity disorder."
  ],
  "trailers": [],
  "seasons": [],
  "voiceActing": [
    "Рус. Проф. многоголосый",
    "Рус. Люб. многоголосый",
    "Рус. Проф. двухголосый",
    "А. Гаврилов",
    "Д. Есарев",
    "Ю. Живов",
    "1+1",
    "Eng.Original"
  ],
  "subtitle": [
    "Рус. полные"
  ],
  "parts": []
}
