{
  "id": 16689,
  "name": "Она",
  "name_eng": "She",
  "year": 2020,
  "slogan": null,
  "age": null,
  "type": "series",
  "quality": "FHD (1080p)",
  "imdb": "6.5",
  "imdb_id": "11905720",
  "kinopoisk": null,
  "kinopoisk_id": null,
  "world_art": null,
  "world_art_id": null,
  "time": null,
  "ads": true,
  "premier": "2020-03-20",
  "premier_rus": "2020-03-21",
  "availability": "2020-03-22",
  "serial_status": "offline",
  "activate_time": "2020-04-17 15:06:00",
  "budget": null,
  "fees_use": null,
  "fees_world": null,
  "fees_rus": null,
  "rate_mpaa": null,
  "description": null,
  "iframe_url": "",
  "poster": "https://img.imgilall.me/movies/franchise/1/6/6/8/9/0/0/0/0/0/610x900_16689.jpg",
  "country": {
    "26": "Индия"
  },
  "collection": {
    "40": "Netflix"
  },
  "genre": {
    "25": "Криминал",
    "7": "Драма"
  },
  "director": [],
  "screenwriter": [],
  "producer": [],
  "operator": [],
  "composer": [],
  "design": [],
  "editor": [],
  "actors": [],
  "actors_dubl": [],
  "trivia": [],
  "trailers": [],
  "seasons": [
    {
      "poster": null,
      "release_ru": "2020-03-21",
      "release_world": "2020-03-20",
      "availability": "2020-03-22",
      "iframe_url": "",
      "season": 1,
      "episodes": [
        {
          "episode": 1,
          "name": "The Pickup",
          "iframe_url": "",
          "iframe_poster": null,
          "release_ru": "2020-03-21",
          "release_world": "2020-03-20",
          "availability": "2020-03-22",
          "voiceActing": [
            "Cold Film"
          ],
          "ads": true,
          "subtitle": []
        },
        {
          "episode": 2,
          "name": "The Proposal",
          "iframe_url": "",
          "iframe_poster": null,
          "release_ru": "2020-03-21",
          "release_world": "2020-03-20",
          "availability": "2020-03-22",
          "voiceActing": [
            "Cold Film"
          ],
          "ads": true,
          "subtitle": []
        },
        {
          "episode": 3,
          "name": "The Pawn's Move",
          "iframe_url": "",
          "iframe_poster": null,
          "release_ru": "2020-03-21",
          "release_world": "2020-03-20",
          "availability": "2020-03-22",
          "voiceActing": [
            "Cold Film"
          ],
          "ads": true,
          "subtitle": []
        },
        {
          "episode": 4,
          "name": "Night Walk",
          "iframe_url": "",
          "iframe_poster": null,
          "release_ru": "2020-03-21",
          "release_world": "2020-03-20",
          "availability": "2020-03-22",
          "voiceActing": [
            "Cold Film"
          ],
          "ads": true,
          "subtitle": []
        },
        {
          "episode": 5,
          "name": "It's Time",
          "iframe_url": "",
          "iframe_poster": null,
          "release_ru": "2020-03-21",
          "release_world": "2020-03-20",
          "availability": "2020-03-22",
          "voiceActing": [
            "Cold Film"
          ],
          "ads": true,
          "subtitle": []
        },
        {
          "episode": 6,
          "name": "The Promise",
          "iframe_url": "",
          "iframe_poster": null,
          "release_ru": "2020-03-21",
          "release_world": "2020-03-20",
          "availability": "2020-03-22",
          "voiceActing": [
            "Cold Film"
          ],
          "ads": true,
          "subtitle": []
        },
        {
          "episode": 7,
          "name": "Devil's Share",
          "iframe_url": "",
          "iframe_poster": null,
          "release_ru": "2020-03-21",
          "release_world": "2020-03-20",
          "availability": "2020-03-22",
          "voiceActing": [
            "Cold Film"
          ],
          "ads": true,
          "subtitle": []
        }
      ]
    }
  ],
  "voiceActing": [
    "Cold Film"
  ],
  "subtitle": [],
  "parts": []
}
