{
  "id": 16721,
  "name": "Душеприказчица",
  "name_eng": "The Executrix",
  "year": 2017,
  "slogan": "«The Executrix follows a discontented New York family woman called unexpectedly to Tuscany to execute her estranged mother's will. There, she must decipher visions of her forgotten childhood and confront a spectral 'Lady in Red,' whose dark secret unlocks a terrifying destiny»",
  "age": null,
  "type": "film",
  "quality": "FHD (1080p)",
  "imdb": "3.9",
  "imdb_id": "6247650",
  "kinopoisk": null,
  "kinopoisk_id": "1009942",
  "world_art": null,
  "world_art_id": null,
  "time": "115 мин. / 01:55",
  "ads": true,
  "premier": "2017-10-05",
  "premier_rus": "2017-10-06",
  "availability": "2017-10-07",
  "activate_time": "2020-04-17 15:02:00",
  "budget": "$5 000 000",
  "fees_use": "",
  "fees_world": "",
  "fees_rus": "",
  "rate_mpaa": "",
  "description": "Исидора узнаёт, что её мать была итальянской маркизой и недавно скончалась, оставив ей в наследство титул и богатое имение в Тоскане. Вместе с мужем и дочерью она уезжает из Нью-Йорка в Италию, чтобы вступить во владение наследством, но здесь её накрывают воспоминания о далёком детстве, и она узнаёт, что смерть её матери покрыта мрачной тайной и связана с таинственной \"Дамой в красном\".",
  "iframe_url": "",
  "iframe_poster": null,
  "poster": "https://img.imgilall.me/movies/franchise/1/6/7/2/1/0/0/0/0/0/610x900_16721.jpg",
  "country": {
    "1": "США"
  },
  "collection": [],
  "genre": {
    "13": "Триллер",
    "10": "Зарубежный"
  },
  "director": [
    "Микеле Чиветта"
  ],
  "screenwriter": [
    "Микеле Чиветта",
    "Schuman Joseph"
  ],
  "producer": [
    "Микеле Чиветта",
    "David Goren",
    "Джулия Марлетта"
  ],
  "operator": [
    "Никола Пекорини"
  ],
  "composer": [
    "Даниель Хант"
  ],
  "design": [
    "Евгения Ф. Ди Наполи",
    "Лаура Бони"
  ],
  "editor": [
    "Триш Фуллер"
  ],
  "actors": [
    "Азия Ардженто",
    "Джонатан Кауэтт",
    "Ник Дэйли",
    "Нинетто Даволи",
    "Джулия Ди Килио",
    "Моника Джерриторе",
    "Molly Jane McCarthy",
    "Франко Неро",
    "Раде Шербеджия",
    "Симон Вассерман"
  ],
  "actors_dubl": [],
  "trivia": [],
  "trailers": [],
  "seasons": [],
  "voiceActing": [
    "Рус. Люб. многоголосый"
  ],
  "subtitle": [],
  "parts": []
}
