{
  "id": 16732,
  "name": "Некуда бежать",
  "name_eng": "Nowhere to Run",
  "year": 1993,
  "slogan": "«Когда весь мир восстал против тебя, и уже...»",
  "age": "16+",
  "type": "film",
  "quality": "FHD (1080p)",
  "imdb": "5.7",
  "imdb_id": "0107711",
  "kinopoisk": "6.7",
  "kinopoisk_id": "9576",
  "world_art": null,
  "world_art_id": null,
  "time": "94 мин. / 01:34",
  "ads": false,
  "premier": "1993-01-14",
  "premier_rus": "1995-04-21",
  "availability": "1995-04-22",
  "activate_time": "2020-04-17 18:01:00",
  "budget": "$15 000 000",
  "fees_use": "$22 189 039",
  "fees_world": null,
  "fees_rus": null,
  "rate_mpaa": "R",
  "description": "Сэм, беглый заключенный находит кров на уединенной ферме, где живет молодая женщина с двумя детьми. С трудом сбежав от полиции, он уже на пути к свободе, но безопасность тех, кто помог ему в трудную минуту, заставляет его вернуться.Беспомощной женщине и двум ее детям угрожает опасность - подкупленный судья и бандиты хотят отобрать у них дом - и Сэм встает на защиту семьи.В трудной схватке он один противостоит нескольким головорезам, но только так он может заслужить любовь и доверие тех, кто стал для него самым дорогими людьми на свете.",
  "iframe_url": "",
  "iframe_poster": null,
  "poster": "https://img.imgilall.me/movies/franchise/1/6/7/3/2/0/0/0/0/0/610x900_16732.jpg",
  "country": {
    "1": "США"
  },
  "collection": {
    "12": "Для мужчин",
    "16": "Про боевые искусства"
  },
  "genre": {
    "17": "Боевик",
    "13": "Триллер",
    "8": "Мелодрама",
    "7": "Драма"
  },
  "director": [
    "Роберт Хармон"
  ],
  "screenwriter": [
    "Джо Эстерхаз",
    "Лесли Боэм",
    "Рэнди Фельдман"
  ],
  "producer": [
    "Гари Эделсон",
    "Крэйг Баумгартен",
    "Майкл И. Рахмил"
  ],
  "operator": [
    "Дэвид Гриббл"
  ],
  "composer": [
    "Марк Айшем"
  ],
  "design": [
    "Дж. Деннис Вашингтон",
    "Джозеф П. Лаки",
    "Гамила Мариана Факри"
  ],
  "editor": [
    "Марк Хелфрич",
    "Зак Стэнберг"
  ],
  "actors": [
    "Жан-Клод Ван Дамм",
    "Розанна Аркетт",
    "Киран Калкин",
    "Тед Левайн",
    "Тиффани Тоубмэн",
    "Эдвард Блэтчфорд",
    "Энтони Старк",
    "Джосс Экленд",
    "Аллан Граф",
    "Леонард Термо"
  ],
  "actors_dubl": [
    "Борис Щербаков",
    "Александр Новиков",
    "Нина Тобилевич",
    "Марина Левтова",
    "Андрей Гриневич"
  ],
  "trivia": [
    "Сцены с фермой и прудом были сняты в Сонома Коунти в Калифорнии.",
    "Первоначально фильм имел рабочее название «Переступая черту» (Crossing the Line)."
  ],
  "trailers": [],
  "seasons": [],
  "voiceActing": [
    "Рус. Дублированный",
    "Рус. Проф. многоголосый",
    "Л. Володарский",
    "Ю. Живов"
  ],
  "subtitle": [],
  "parts": []
}
