{
  "id": 16867,
  "name": "Длинная тень",
  "name_eng": "The Long Shadow",
  "year": 2020,
  "slogan": "—",
  "age": null,
  "type": "film",
  "quality": "HD (720p)",
  "imdb": "4.8",
  "imdb_id": "7629818",
  "kinopoisk": null,
  "kinopoisk_id": "1103642",
  "world_art": null,
  "world_art_id": null,
  "time": "94 мин. / 01:34",
  "ads": true,
  "premier": "2020-02-04",
  "premier_rus": "2020-02-05",
  "availability": "2020-02-06",
  "activate_time": "2020-04-29 12:19:00",
  "budget": "",
  "fees_use": "",
  "fees_world": "",
  "fees_rus": "",
  "rate_mpaa": "",
  "description": "Молодая девушка, заместитель шерифа, пытается узнать кто же убил её любимую девушку, которая занималась делом против железнодорожной компании в Луизиане.",
  "iframe_url": "",
  "iframe_poster": null,
  "poster": "https://img.imgilall.me/movies/franchise/1/6/8/6/7/0/0/0/0/0/610x900_16867.jpg",
  "country": {
    "1": "США"
  },
  "collection": {
    "62": "Про полицию"
  },
  "genre": {
    "24": "Детектив",
    "10": "Зарубежный"
  },
  "director": [
    "Daniel LaFrenz"
  ],
  "screenwriter": [
    "Daniel LaFrenz",
    "Stephen Peltier"
  ],
  "producer": [
    "Sam Claitor",
    "Майлз Харди",
    "Jeremy D. Hill"
  ],
  "operator": [
    "Пол Кэннон",
    "Paul Cannon"
  ],
  "composer": [
    "Эндрю Морган Смит"
  ],
  "design": [
    "Dexlon Cooksey",
    "Венди Талли"
  ],
  "editor": [
    "Eva K. Morgan",
    "Мисти Талли"
  ],
  "actors": [
    "Тесс Харпер",
    "Ааша Дэвис",
    "Тери Уайбл",
    "Йетиде Бадаки",
    "Эштон Ли",
    "Китти Свинк",
    "Дэвид Дженсен",
    "Джим Клок",
    "Линк Хэнд",
    "Терренс Розмор"
  ],
  "actors_dubl": [],
  "trivia": [],
  "trailers": [],
  "seasons": [],
  "voiceActing": [
    "Рус. Люб. многоголосый"
  ],
  "subtitle": [],
  "parts": []
}
