{
  "id": 16889,
  "name": "И придёт огонь",
  "name_eng": "O que arde",
  "year": 2019,
  "slogan": "—",
  "age": null,
  "type": "film",
  "quality": "SD",
  "imdb": "6.8",
  "imdb_id": "8212958",
  "kinopoisk": "6.4",
  "kinopoisk_id": "1129083",
  "world_art": null,
  "world_art_id": null,
  "time": "86 мин. / 01:26",
  "ads": true,
  "premier": "2019-05-21",
  "premier_rus": "2019-07-24",
  "availability": "2019-07-25",
  "activate_time": "2020-04-23 16:26:00",
  "budget": null,
  "fees_use": null,
  "fees_world": "$699 923",
  "fees_rus": null,
  "rate_mpaa": null,
  "description": "Амадор Коро получил два года тюрьмы за крупный пожар, который он якобы устроил в родных краях. Отсидев срок, он возвращается домой — к пожилой матери, сельским будням и немногочисленным местным жителям, которые сторонятся Амадора и считают его пироманом из-за его одержимости огнем.",
  "iframe_url": "",
  "iframe_poster": null,
  "poster": "https://img.imgilall.me/movies/franchise/1/6/8/8/9/0/0/0/0/0/610x900_16889.jpg",
  "country": {
    "3": "Испания",
    "9": "Франция",
    "35": "Люксембург"
  },
  "collection": {
    "5": "С наградами"
  },
  "genre": {
    "25": "Криминал",
    "10": "Зарубежный",
    "7": "Драма"
  },
  "director": [
    "Оливер Лаше"
  ],
  "screenwriter": [
    "Сантьяго Фильоль",
    "Оливер Лаше"
  ],
  "producer": [
    "Элиз Андре",
    "Хорди Балло",
    "Ксавьер Фонт"
  ],
  "operator": [
    "Мауро Эрсе"
  ],
  "composer": [],
  "design": [
    "Курру Гарабаль",
    "Samuel Lema",
    "Nadia Acimi"
  ],
  "editor": [
    "Кристобаль Фернандез"
  ],
  "actors": [
    "Амадор Ариас",
    "Бенедикта Санчес",
    "Inazio Abrao",
    "Elena Mar Fernández",
    "David de Poso",
    "Alvaro de Bazal",
    "Damián Prado",
    "Nando Vázquez",
    "Manuel Martínez",
    "José Luis Santalices"
  ],
  "actors_dubl": [],
  "trivia": [],
  "trailers": [],
  "seasons": [],
  "voiceActing": [
    "Рус. Люб. многоголосый"
  ],
  "subtitle": [],
  "parts": []
}
