{
  "id": 16904,
  "name": "Перри Мэйсон",
  "name_eng": "Perry Mason",
  "year": 2020,
  "slogan": "«Everyone is guilty of something»",
  "age": "18+",
  "type": "series",
  "quality": "FHD (1080p)",
  "imdb": "7.5",
  "imdb_id": "2077823",
  "kinopoisk": "7.2",
  "kinopoisk_id": "633825",
  "world_art": null,
  "world_art_id": null,
  "time": "60 мин",
  "ads": false,
  "premier": "2020-06-21",
  "premier_rus": "2020-06-22",
  "availability": "2020-06-23",
  "serial_status": "online",
  "activate_time": "2020-04-23 19:00:00",
  "budget": "",
  "fees_use": "",
  "fees_world": "",
  "fees_rus": "",
  "rate_mpaa": "",
  "description": "1930-е годы. Адвокат Перри Мэйсон в отличие от своих коллег частенько лично занимается расследованием дел своих клиентов. Иногда Мэйсону помогает частный детектив Пол Дрейк.",
  "iframe_url": "",
  "poster": "https://img.imgilall.me/movies/franchise/1/6/9/0/4/0/0/0/0/0/610x900_16904.jpg",
  "country": {
    "1": "США"
  },
  "collection": {
    "97": "HBO"
  },
  "genre": {
    "25": "Криминал",
    "24": "Детектив",
    "10": "Зарубежный"
  },
  "director": [
    "Тимоти Ван Паттен",
    "Дениз Гамзе Эргювен"
  ],
  "screenwriter": [
    "Рон Фицджералд",
    "Ролин Джонс",
    "Кевин Дж. Хайнс"
  ],
  "producer": [
    "Аманда Баррелл",
    "Christopher Darling",
    "Роберт Дауни мл."
  ],
  "operator": [
    "Дэрран Тирнан"
  ],
  "composer": [
    "Теренс Блэнчард"
  ],
  "design": [
    "Джон П. Голдсмит",
    "Крис Фармер",
    "Эмма Поттер"
  ],
  "editor": [
    "Мако Камицуна",
    "Рон Розен"
  ],
  "actors": [
    "Мэттью Риз",
    "Татьяна Маслани",
    "Джон Литгоу",
    "Крис Чок",
    "Шей Уигэм",
    "Джульет Райлэнс",
    "Лили Тейлор",
    "Роберт Патрик",
    "Стивен Рут",
    "Эндрю Ховард"
  ],
  "actors_dubl": [],
  "trivia": [],
  "trailers": [
    {
      "name": "трейлер №1",
      "number": 1,
      "iframe_poster": null,
      "season": 1,
      "iframe_url": ""
    }
  ],
  "seasons": [
    {
      "poster": null,
      "release_ru": "2020-06-22",
      "release_world": "2020-06-21",
      "availability": "2020-06-23",
      "iframe_url": "",
      "season": 1,
      "episodes": [
        {
          "episode": 1,
          "name": "Chapter One",
          "iframe_url": "",
          "iframe_poster": null,
          "release_ru": "2020-06-22",
          "release_world": "2020-06-21",
          "availability": "2020-06-22",
          "voiceActing": [
            "Amedia",
            "NewStudio",
            "AlexFilm",
            "HDRezka Studio",
            "Eng.Original"
          ],
          "ads": false,
          "subtitle": [
            "Рус. форсированные"
          ]
        },
        {
          "episode": 2,
          "name": "Chapter Two",
          "iframe_url": "",
          "iframe_poster": null,
          "release_ru": "2020-06-29",
          "release_world": "2020-06-28",
          "availability": "2020-06-29",
          "voiceActing": [
            "Amedia",
            "NewStudio",
            "AlexFilm",
            "HDRezka Studio",
            "Eng.Original"
          ],
          "ads": false,
          "subtitle": [
            "Рус. форсированные"
          ]
        },
        {
          "episode": 3,
          "name": "Chapter Three",
          "iframe_url": "",
          "iframe_poster": null,
          "release_ru": "2020-07-06",
          "release_world": "2020-07-05",
          "availability": "2020-07-06",
          "voiceActing": [
            "Amedia",
            "NewStudio",
            "AlexFilm",
            "HDRezka Studio",
            "Eng.Original"
          ],
          "ads": false,
          "subtitle": [
            "Рус. форсированные"
          ]
        },
        {
          "episode": 4,
          "name": "Chapter Four",
          "iframe_url": "",
          "iframe_poster": null,
          "release_ru": "2020-07-13",
          "release_world": "2020-07-12",
          "availability": "2020-07-13",
          "voiceActing": [
            "Amedia",
            "NewStudio",
            "AlexFilm",
            "HDRezka Studio",
            "Eng.Original"
          ],
          "ads": false,
          "subtitle": [
            "Рус. форсированные"
          ]
        },
        {
          "episode": 5,
          "name": "Chapter Five",
          "iframe_url": "",
          "iframe_poster": null,
          "release_ru": "2020-07-20",
          "release_world": "2020-07-19",
          "availability": "2020-07-20",
          "voiceActing": [
            "Amedia",
            "NewStudio",
            "AlexFilm",
            "HDRezka Studio",
            "Eng.Original"
          ],
          "ads": false,
          "subtitle": [
            "Рус. форсированные"
          ]
        },
        {
          "episode": 6,
          "name": "Chapter Six",
          "iframe_url": "",
          "iframe_poster": null,
          "release_ru": "2020-07-27",
          "release_world": "2020-07-26",
          "availability": "2020-07-27",
          "voiceActing": [
            "Amedia",
            "NewStudio",
            "AlexFilm",
            "HDRezka Studio",
            "Eng.Original"
          ],
          "ads": false,
          "subtitle": [
            "Рус. форсированные"
          ]
        },
        {
          "episode": 7,
          "name": "Chapter Seven",
          "iframe_url": "",
          "iframe_poster": null,
          "release_ru": "2020-08-03",
          "release_world": "2020-08-02",
          "availability": "2020-08-03",
          "voiceActing": [
            "Amedia",
            "NewStudio",
            "AlexFilm",
            "HDRezka Studio",
            "Eng.Original"
          ],
          "ads": false,
          "subtitle": [
            "Рус. форсированные"
          ]
        },
        {
          "episode": 8,
          "name": "Chapter Eight",
          "iframe_url": "",
          "iframe_poster": null,
          "release_ru": "2020-08-10",
          "release_world": "2020-08-09",
          "availability": "2020-08-10",
          "voiceActing": [
            "Amedia",
            "NewStudio",
            "AlexFilm",
            "HDRezka Studio",
            "Eng.Original"
          ],
          "ads": false,
          "subtitle": [
            "Рус. форсированные"
          ]
        }
      ]
    }
  ],
  "voiceActing": [
    "Amedia",
    "NewStudio",
    "AlexFilm",
    "HDRezka Studio",
    "Eng.Original"
  ],
  "subtitle": [
    "Рус. форсированные"
  ],
  "parts": []
}
