{
  "id": 16902,
  "name": "Опасная ложь",
  "name_eng": "Dangerous Lies",
  "year": 2020,
  "slogan": "«A gift they can't explain. A secret they never imagined. But fortune comes with a price»",
  "age": null,
  "type": "film",
  "quality": "FHD (1080p)",
  "imdb": "5.3",
  "imdb_id": "10183816",
  "kinopoisk": "5.6",
  "kinopoisk_id": "1263794",
  "world_art": null,
  "world_art_id": null,
  "time": "96 мин. / 01:36",
  "ads": false,
  "premier": "2020-04-30",
  "premier_rus": "2020-05-01",
  "availability": "2020-05-02",
  "activate_time": "2020-04-23 18:06:00",
  "budget": null,
  "fees_use": null,
  "fees_world": null,
  "fees_rus": null,
  "rate_mpaa": null,
  "description": "Богач умирает и оставляет всё своё наследство молодой сиделке. Теперь девушке придётся противостоять всяким мутным личностям, чтобы сохранить не только внезапно свалившееся на неё состояние, но и свою жизнь.",
  "iframe_url": "",
  "iframe_poster": null,
  "poster": "https://img.imgilall.me/movies/franchise/1/6/9/0/2/0/0/0/0/0/610x900_16902.jpg",
  "country": {
    "1": "США"
  },
  "collection": {
    "40": "Netflix",
    "13": "С неожиданным концом"
  },
  "genre": {
    "13": "Триллер",
    "10": "Зарубежный"
  },
  "director": [
    "Майкл Скотт"
  ],
  "screenwriter": [
    "Дэвид Голден"
  ],
  "producer": [
    "Дэвид Голден",
    "Маргарет Х. Хадлстон",
    "Rukmani Jones"
  ],
  "operator": [
    "Рональд Ричард"
  ],
  "composer": [
    "Джеймс Джендриш"
  ],
  "design": [
    "Джеймс Роббинс",
    "Кортни Стоукстэд",
    "Шила Уайт"
  ],
  "editor": [
    "Элисон Грэйс"
  ],
  "actors": [
    "Ник Пурча",
    "Карлос Джо Коста",
    "Камила Мендес",
    "Briana Skye",
    "Джесси Ашер",
    "Шон О. Робертс",
    "Тревор Лернер",
    "Эллиотт Гулд",
    "Кэм Жиганде",
    "Майкл П. Норти"
  ],
  "actors_dubl": [],
  "trivia": [],
  "trailers": [
    {
      "name": "трейлер №1",
      "number": 1,
      "iframe_poster": null,
      "season": null,
      "iframe_url": ""
    }
  ],
  "seasons": [],
  "voiceActing": [
    "IdeaFilm",
    "Eng.Original"
  ],
  "subtitle": [
    "Рус. полные"
  ],
  "parts": []
}
