{
  "id": 17185,
  "name": "Укол",
  "name_eng": "Needlestick",
  "year": 2017,
  "slogan": "«Cross Your Heart. Hope To Die»",
  "age": null,
  "type": "film",
  "quality": "SD",
  "imdb": "3.6",
  "imdb_id": "2523096",
  "kinopoisk": null,
  "kinopoisk_id": "719435",
  "world_art": null,
  "world_art_id": null,
  "time": "85 мин. / 01:25",
  "ads": true,
  "premier": "2017-02-21",
  "premier_rus": "2017-02-22",
  "availability": "2017-02-23",
  "activate_time": "2020-04-30 10:04:00",
  "budget": null,
  "fees_use": null,
  "fees_world": null,
  "fees_rus": null,
  "rate_mpaa": null,
  "description": "Гениальный врач с преступными наклонностями открыл способ бесконечно продлевать жизнь смертельно больных пациентов. Но в этом способе есть один небольшой недостаток — чтобы жил один человек, другой должен умереть. С точки зрения доктора всё правильно, ведь чем существеннее награда, тем выше цена. А что касается моральных издержек, в данной ситуации для него это сущие пустяки.",
  "iframe_url": "",
  "iframe_poster": null,
  "poster": "https://img.imgilall.me/movies/franchise/1/7/1/8/5/0/0/0/0/0/610x900_17185.jpg",
  "country": {
    "1": "США"
  },
  "collection": [],
  "genre": {
    "26": "Ужасы",
    "13": "Триллер",
    "10": "Зарубежный"
  },
  "director": [
    "Steven Karageanes"
  ],
  "screenwriter": [
    "Steven Karageanes"
  ],
  "producer": [
    "Двжуан Ф. Фокс",
    "Steven Karageanes",
    "Эдвард Стенсель"
  ],
  "operator": [
    "Брайан Гринберг"
  ],
  "composer": [
    "Гарри Манфредини"
  ],
  "design": [
    "Джои Острандер",
    "Марк С. Дэвис мл.",
    "Lauren Waterstone"
  ],
  "editor": [
    "Nick Hrycyk"
  ],
  "actors": [
    "Лэнс Хенриксен",
    "Гарри Дж. Ленникс",
    "Майкл Трэйнор",
    "Кэти Савой",
    "Джек Ноузуорти",
    "Джордан Тровиллион",
    "Alara Ceri",
    "George Pogacich",
    "Линда Бостон",
    "Rachel Bellack"
  ],
  "actors_dubl": [],
  "trivia": [],
  "trailers": [],
  "seasons": [],
  "voiceActing": [
    "Рус. Люб. многоголосый"
  ],
  "subtitle": [],
  "parts": []
}
