{
  "id": 17255,
  "name": "Песчаные акулы",
  "name_eng": "Sand Sharks",
  "year": 2012,
  "slogan": "«Just When You Thought You Were Safe Out of the Water»",
  "age": null,
  "type": "film",
  "quality": "SD",
  "imdb": "2.6",
  "imdb_id": "1844770",
  "kinopoisk": "2.6",
  "kinopoisk_id": "647751",
  "world_art": null,
  "world_art_id": null,
  "time": "86 мин. / 01:26",
  "ads": false,
  "premier": "2012-01-09",
  "premier_rus": "2012-01-10",
  "availability": "2012-01-11",
  "activate_time": "2020-04-30 14:18:00",
  "budget": null,
  "fees_use": null,
  "fees_world": null,
  "fees_rus": null,
  "rate_mpaa": "R",
  "description": "В разгар пляжного сезона в курортном городке учащаются случаи нападения акул на людей. К ужасу экспертов, выясняется, что хищники могут перемещаться не только в воде, но и в песках. Однако, несмотря на все предупреждения, местные власти не готовы закрывать курорт, а туристы готовятся к масштабной пляжной вечеринке…",
  "iframe_url": "",
  "iframe_poster": null,
  "poster": "https://img.imgilall.me/movies/franchise/1/7/2/5/5/0/0/0/0/0/610x900_17255.jpg",
  "country": {
    "1": "США"
  },
  "collection": [],
  "genre": {
    "9": "Приключения",
    "26": "Ужасы",
    "11": "Фантастика",
    "19": "Комедия",
    "17": "Боевик",
    "13": "Триллер",
    "10": "Зарубежный"
  },
  "director": [
    "Марк Аткинс"
  ],
  "screenwriter": [
    "Камерон Ларсон",
    "Джо Бенкис"
  ],
  "producer": [
    "Дэна Дубовский",
    "Энтони Фанкхаузер",
    "Камерон Ларсон"
  ],
  "operator": [
    "Марк Аткинс"
  ],
  "composer": [
    "Марио Сальвучи"
  ],
  "design": [
    "Саралин Тарталья",
    "Элли Роккамо",
    "Дэна Лоатс"
  ],
  "editor": [
    "Шон Кэйн"
  ],
  "actors": [
    "Корин Немек",
    "Брук Хоган",
    "Ванесса Ли Эвиган",
    "Эрик Скотт Вудс",
    "Джина Холден",
    "Эдгар Аллан По IV",
    "Роберт Пайк Дэниэл",
    "Хилари Круз",
    "Дельпано Виллис",
    "Джули Берман"
  ],
  "actors_dubl": [],
  "trivia": [],
  "trailers": [],
  "seasons": [],
  "voiceActing": [
    "ТВ3"
  ],
  "subtitle": [],
  "parts": []
}
