{
  "id": 17270,
  "name": "За гранью страха",
  "name_eng": "Borderland",
  "year": 2007,
  "slogan": "«Не ходите дети в Мексику гулять...»",
  "age": "16+",
  "type": "film",
  "quality": "SD",
  "imdb": "5.7",
  "imdb_id": "0452592",
  "kinopoisk": "5.3",
  "kinopoisk_id": "95154",
  "world_art": null,
  "world_art_id": null,
  "time": "105 мин. / 01:45",
  "ads": false,
  "premier": "2007-03-11",
  "premier_rus": "2007-03-12",
  "availability": "2007-03-13",
  "activate_time": "2020-04-30 14:18:00",
  "budget": null,
  "fees_use": null,
  "fees_world": null,
  "fees_rus": null,
  "rate_mpaa": "R",
  "description": "Три студента колледжа, Фил, Эд, и Генри отправляются в автопутешествие по Мексике, чтобы провести целую неделю в беззаботных пьянках и веселье. Но в этой латиноамериканской стране их ждет настоящий кошмар - Фил оказывается пленником группы мексиканских наркоконтрабандистов.\r\rБандиты оказываются еще и членами сатанинского культа, и как раз подыскивают новую кандидатуру для жертвоприношения. Молодые несмышленые туристы - что может быть лучше?",
  "iframe_url": "",
  "iframe_poster": null,
  "poster": "https://img.imgilall.me/movies/franchise/1/7/2/7/0/0/0/0/0/0/610x900_17270.jpg",
  "country": {
    "17": "Мексика",
    "1": "США"
  },
  "collection": [],
  "genre": {
    "25": "Криминал",
    "26": "Ужасы",
    "13": "Триллер",
    "10": "Зарубежный"
  },
  "director": [
    "Зев Берман"
  ],
  "screenwriter": [
    "Эрик Поппен",
    "Зев Берман"
  ],
  "producer": [
    "Рэндолл Эмметт",
    "Джордж Фурла",
    "Лорен Моуз"
  ],
  "operator": [
    "Скотт Кеван"
  ],
  "composer": [
    "Андрес Левин"
  ],
  "design": [
    "Тим Галвин",
    "Моника Араис",
    "Пачилу Морено"
  ],
  "editor": [
    "Эрик Страндт"
  ],
  "actors": [
    "Брайан Прэсли",
    "Райдер Стронг",
    "Джэйк Максворфи",
    "Бету Куэвас",
    "Марта Игареда",
    "Шон Эстин",
    "Дамиан Алькасар",
    "Марко Бакуцци",
    "Роберто Соса",
    "Хосе Мария Яспик"
  ],
  "actors_dubl": [],
  "trivia": [
    "Песня La Frontera была написана Андресом Левином, Куку Диамантес и Бету Куэвасом, также исполнена самими Куку Диамантес и Бету Куэвасом. Куэвас в свою очередь сыграл роль главного злодея Сантиллана в фильме.",
    "Фильм основан на реальных событиях, произошедших в Мехико в 1989 году. Была обнаружена группа «наркосатанистов», которая убила, по крайней мере, 20 человек и использовала их части тела в ритуальных жертвоприношениях. Члены культа были ответственны за похищение и убийство Марка Килроя, техасского студента медицинского колледжа, который исчез в марте 1989 во время весенних каникул в Мехико.",
    "В фильме, бывший полицейский, потерявший из-за культа своего напарника, говорит, что жертвоприношения, которые проводит культ, заставляют их транспорт с контрабандой наркотиков становиться невидимыми для правоохранительных органов. В реальной же жизни, арест, который привел к обнаружению культа, похитившего и убившего Марка Килроя, произошел после того, как наркокурьера и члена культа арестовали перевозящего наркотики через границу средь бела дня. Подозреваемый думал, что он был невидим из-за человеческих жертвоприношений, совершаемых культом.",
    "В фильме Генри предлагает ребятам грибы, на что Эд поначалу отказывается и когда Валериа спрашивает причину отказа, Генри произносит фразу: «He`s afraid he`ll jump off a building or go Leatherface on somebody» (в русском дубляже это переведено как «он боится спрыгнуть с крыши или убить кого-нибудь»). Таким образом в русском дубляже была утеряна отсылка к «Техасской резне бензопилой»."
  ],
  "trailers": [],
  "seasons": [],
  "voiceActing": [
    "Рус. Проф. многоголосый",
    "Eng.Original"
  ],
  "subtitle": [
    "Рус. полные"
  ],
  "parts": []
}
