{
  "id": 17284,
  "name": "Я всегда хотел быть гангстером",
  "name_eng": "J'ai toujours rêvé d'être un gangster",
  "year": 2007,
  "slogan": "—",
  "age": "12+",
  "type": "film",
  "quality": "HD (720p)",
  "imdb": "7.1",
  "imdb_id": "0827713",
  "kinopoisk": "7.6",
  "kinopoisk_id": "264700",
  "world_art": null,
  "world_art_id": null,
  "time": "113 мин. / 01:53",
  "ads": false,
  "premier": "2007-08-03",
  "premier_rus": "2009-04-16",
  "availability": "2009-04-17",
  "activate_time": "2020-04-30 14:19:00",
  "budget": "€2 800 000",
  "fees_use": null,
  "fees_world": null,
  "fees_rus": "$19 847",
  "rate_mpaa": null,
  "description": "Безоружный бандит-дебютант пытается ограбить кассу. На автостоянке разыгрывается абсурдная сцена получения выкупа. Два знаменитых певца случайно встречаются в туалете и пользуются оказией, чтобы решить давний спор. А банда стариков-разбойников решает вспомнить старые времена. Все эти события обрушатся на голову официантки, только вчера поступившей на новое место работы...",
  "iframe_url": "",
  "iframe_poster": null,
  "poster": "https://img.imgilall.me/movies/franchise/1/7/2/8/4/0/0/0/0/0/610x900_17284.jpg",
  "country": {
    "9": "Франция"
  },
  "collection": {
    "19": "Про ограбления, аферы и мошенников"
  },
  "genre": {
    "25": "Криминал",
    "19": "Комедия",
    "10": "Зарубежный",
    "7": "Драма"
  },
  "director": [
    "Самюэль Беншетри"
  ],
  "screenwriter": [
    "Самюэль Беншетри"
  ],
  "producer": [
    "Оливье Дельбоск",
    "Марк Миссонье",
    "Кристин де Жекель"
  ],
  "operator": [
    "Пьер Аим"
  ],
  "composer": [
    "Дмитрий Тиковой"
  ],
  "design": [
    "Николас Форе",
    "Себастьен Данос"
  ],
  "editor": [
    "Софи Рейн"
  ],
  "actors": [
    "Анна Муглалис",
    "Эдуард Баэр",
    "Жан Рошфор",
    "Лоран Терзиефф",
    "Жан-Пьер Кальфон",
    "Венантино Венантини",
    "Роже Дюма",
    "Ален Башунг",
    "Арно",
    "Були Ланнерс"
  ],
  "actors_dubl": [],
  "trivia": [],
  "trailers": [],
  "seasons": [],
  "voiceActing": [
    "Рус. Проф. многоголосый",
    "Fr. Original"
  ],
  "subtitle": [
    "Рус. полные"
  ],
  "parts": []
}
