{
  "id": 17747,
  "name": "Отдых на грани нервного срыва",
  "name_eng": "Ni a vendre ni a louer",
  "year": 2011,
  "slogan": "—",
  "age": "16+",
  "type": "film",
  "quality": "SD",
  "imdb": "5.7",
  "imdb_id": "1754946",
  "kinopoisk": "6.1",
  "kinopoisk_id": "572310",
  "world_art": null,
  "world_art_id": null,
  "time": "77 мин. / 01:17",
  "ads": false,
  "premier": "2011-06-15",
  "premier_rus": "2012-06-07",
  "availability": "2012-06-08",
  "activate_time": "2020-05-14 10:49:00",
  "budget": null,
  "fees_use": null,
  "fees_world": null,
  "fees_rus": null,
  "rate_mpaa": null,
  "description": "Французы выдвигаются на побережье. Горожане и влюбленные панки, пенсионеры, супружеские пары, тайные любовники, семья скаутов и даже садомазохист-неудачник намерены получить заслуженный отдых и немного развлечься в палатке, в номере безымянного отеля, в автотрейлере, домике размером с собачью будку. Они все едут на море — на машине для гольфа, в  электричке и спортивных автомобилях с открытым верхом. Их случайные и спланированные встречи, измены, влюбленности, семейная рутина и другие курортные приключения превратятся в фейерверк.",
  "iframe_url": "",
  "iframe_poster": null,
  "poster": "https://img.imgilall.me/movies/franchise/1/7/7/4/7/0/0/0/0/0/610x900_17747.jpg",
  "country": {
    "9": "Франция"
  },
  "collection": {
    "82": "Молодежные комедии"
  },
  "genre": {
    "19": "Комедия"
  },
  "director": [
    "Паскаль Рабатэ"
  ],
  "screenwriter": [
    "Паскаль Рабатэ",
    "Скоп"
  ],
  "producer": [
    "Ксавьер Делма"
  ],
  "operator": [
    "Бенуа Шамайар"
  ],
  "composer": [
    "Ален Певзне"
  ],
  "design": [
    "Анджело Зампарутти",
    "Франсуа Пинель"
  ],
  "editor": [
    "Жан-Франсуа Эли"
  ],
  "actors": [
    "Жак Гамблен",
    "Мария де Медейруш",
    "Франсуа Дамиенс",
    "Франсуа Морель",
    "Доминик Пинон",
    "Арсен Моска",
    "Мари Кремер",
    "Шанталь Нойвирт",
    "Катрин Осмален",
    "Шарль Шнайдер"
  ],
  "actors_dubl": [],
  "trivia": [],
  "trailers": [],
  "seasons": [],
  "voiceActing": [
    "Рус. Оригинальный"
  ],
  "subtitle": [],
  "parts": []
}
