{
  "id": 17841,
  "name": "Голос",
  "name_eng": "Boychoir",
  "year": 2014,
  "slogan": "«Find your voice. Dare to dream»",
  "age": "12+",
  "type": "film",
  "quality": "SD",
  "imdb": "6.7",
  "imdb_id": "3302706",
  "kinopoisk": "7.6",
  "kinopoisk_id": "806934",
  "world_art": null,
  "world_art_id": null,
  "time": "103 мин. / 01:43",
  "ads": false,
  "premier": "2014-09-05",
  "premier_rus": "2014-09-06",
  "availability": "2014-09-07",
  "activate_time": "2020-05-05 22:40:00",
  "budget": null,
  "fees_use": null,
  "fees_world": "$3 146 094",
  "fees_rus": null,
  "rate_mpaa": null,
  "description": "После смерти матери, жизнь 11-летнего Стэта складывается не совсем удачно — отсутствие внимания, нескончаемая борьба со своим окружением, проблемы с законом… Все шло под откос, пока судьба не привела его в музыкальную школу. Трудный характер Стэта не помешал руководителю школы разглядеть в нем уникальный талант и раскрыть его душу в музыке и в жизни.",
  "iframe_url": "",
  "iframe_poster": null,
  "poster": "https://img.imgilall.me/movies/franchise/1/7/8/4/1/0/0/0/0/0/610x900_17841.jpg",
  "country": {
    "7": "Канада",
    "1": "США"
  },
  "collection": [],
  "genre": {
    "7": "Драма"
  },
  "director": [
    "Франсуа Жирар"
  ],
  "screenwriter": [
    "Бен Рипли"
  ],
  "producer": [
    "Кэрол Баум",
    "Джуди Каиро",
    "Джейн Голденринг"
  ],
  "operator": [
    "Дэвид Франко"
  ],
  "composer": [
    "Брайан Бирн"
  ],
  "design": [
    "Джейн Маски",
    "Джеймс Боленбо",
    "Юна Квак"
  ],
  "editor": [
    "Гаэтан Юо"
  ],
  "actors": [
    "Дастин Хоффман",
    "Кэти Бейтс",
    "Эдди Иззард",
    "Кевин МакХэйл",
    "Джош Лукас",
    "Дебра Уингер",
    "Гарретт Вэрэйнг",
    "Джо Уэст",
    "Ривер Александр",
    "Сэм Пун"
  ],
  "actors_dubl": [
    "Владимир Еремин",
    "Ольга Кузнецова",
    "Станислав Стрелков",
    "Николай Быстров",
    "Дмитрий Поляновский"
  ],
  "trivia": [
    "В юности Дастин Хоффман серьёзно занимался музыкой (фортепиано), однако, как и в случае с его героем в этом фильме, кто-то решил, что способностей, чтобы стать музыкантом, ему всё же не хватает.",
    "Незадолго до начала съёмок в Техасе Гарретт Вэрэйнг сломал в трёх местах левую руку. Снимался он с наложенной на руку шиной, а гипс ему наложили только по окончании съёмок.",
    "Компания CBS планировала выпустить фильм весной 2016 года, однако в самый последний момент премьеру отменили из-за скандала, поднятого бывшими участниками хора мальчиков, подвергшихся сексуальному насилию в частной школе, похожей на ту, о которой рассказывается в фильме."
  ],
  "trailers": [],
  "seasons": [],
  "voiceActing": [
    "Рус. Дублированный"
  ],
  "subtitle": [],
  "parts": []
}
