{
  "id": 18157,
  "name": "Тринадцатый этаж",
  "name_eng": "The Thirteenth Floor",
  "year": 1999,
  "slogan": "«Question reality. You can go there even though it doesn't exist»",
  "age": "16+",
  "type": "film",
  "quality": "FHD (1080p)",
  "imdb": "7.1",
  "imdb_id": "0139809",
  "kinopoisk": "7.6",
  "kinopoisk_id": "1086",
  "world_art": null,
  "world_art_id": null,
  "time": "100 мин. / 01:40",
  "ads": false,
  "premier": "1999-04-16",
  "premier_rus": "1999-05-27",
  "availability": "1999-05-28",
  "activate_time": "2020-05-07 18:53:00",
  "budget": "$16 000 000",
  "fees_use": "$11 916 661",
  "fees_world": "+ $6 647 427 = $18 564 088",
  "fees_rus": null,
  "rate_mpaa": "R",
  "description": "На тринадцатом этаже компьютерной корпорации была разработана совершенная модель виртуальной реальности, создание которой повлекло за собой цепь таинственных убийств. Разгадать загадку можно, лишь погрузившись в иное измерение, где может быть ответ на многие вопросы, а может быть - страшная нереальность...",
  "iframe_url": "",
  "iframe_poster": null,
  "poster": "https://img.imgilall.me/movies/franchise/1/8/1/5/7/0/0/0/0/0/610x900_18157.jpg",
  "country": {
    "1": "США",
    "20": "Германия"
  },
  "collection": [],
  "genre": {
    "11": "Фантастика",
    "24": "Детектив",
    "13": "Триллер"
  },
  "director": [
    "Йозеф Руснак"
  ],
  "screenwriter": [
    "Йозеф Руснак",
    "Равель Сентено-Родригес",
    "Дэниэл Ф. Галуйе"
  ],
  "producer": [
    "Роланд Эммерих",
    "Уте Эммерих",
    "Марко Вебер"
  ],
  "operator": [
    "Ведиго фон Шульцендорфф"
  ],
  "composer": [
    "Харальд Клозер"
  ],
  "design": [
    "Кирк М. Петруччелли",
    "Фрэнк Боллинджер",
    "Бэрри Чусид"
  ],
  "editor": [
    "Генри Ричардсон"
  ],
  "actors": [
    "Крэйг Бирко",
    "Гретхен Мол",
    "Армин Мюллер-Шталь",
    "Винсент Д’Онофрио",
    "Деннис Хейсбёрт",
    "Стивен Шуб",
    "Джереми Робертс",
    "Риф Хаттон",
    "Леон Риппи",
    "Джанет МакЛахлан"
  ],
  "actors_dubl": [
    "Владимир Антоник",
    "Ольга Голованова",
    "Борис Кумаритов",
    "Андрей Гриневич",
    "Владимир Герасимов"
  ],
  "trivia": [
    "Фильм снят по мотивам романа Дэниэла Ф. Галуйе «Тринадцатый этаж» (Simulacron-3, 1964). Роман является одним из самых первых литературных описаний виртуальной реальности.",
    "«Тринадцатый этаж» вышел на экраны одновременно со знаменитой «Матрицей» братьев Вачовски и на её фоне оказался практически незамеченным.",
    "Картина снималась в Лос-Анджелесе."
  ],
  "trailers": [],
  "seasons": [],
  "voiceActing": [
    "Рус. Дублированный",
    "Eng.Original"
  ],
  "subtitle": [
    "Рус. полные"
  ],
  "parts": []
}
