{
  "id": 1824,
  "name": "Демон внутри",
  "name_eng": "The Autopsy of Jane Doe",
  "year": 2016,
  "slogan": "«Есть вещи страшнее смерти»",
  "age": "18+",
  "type": "film",
  "quality": "FHD (1080p)",
  "imdb": "6.8",
  "imdb_id": "3289956",
  "kinopoisk": "6.4",
  "kinopoisk_id": "807313",
  "world_art": null,
  "world_art_id": null,
  "time": "86 мин. / 01:26",
  "ads": false,
  "premier": "2016-09-09",
  "premier_rus": "2017-03-23",
  "availability": null,
  "activate_time": "2018-08-27 14:26:44",
  "budget": null,
  "fees_use": "$10 474",
  "fees_world": "$6 170 043",
  "fees_rus": "$193 260",
  "rate_mpaa": "R",
  "description": "Патологоанатомы маленького городка получают обнаруженное при странных обстоятельствах и хорошо сохранившееся тело молодой красивой девушки без видимой причины смерти. Они пытаются выяснить, кто она и как умерла, обнаруживая все более причудливые подсказки, которые ведут к тайнам её жизни и смерти.",
  "iframe_url": "",
  "iframe_poster": null,
  "poster": "https://img.imgilall.me/movies/franchise/1/8/2/4/0/0/0/0/0/0/610x900_1824.jpg",
  "country": {
    "2": "Великобритания"
  },
  "collection": {
    "45": "Фильмы на Хэллоуин",
    "21": "Для молодёжи"
  },
  "genre": {
    "26": "Ужасы",
    "13": "Триллер",
    "10": "Зарубежный"
  },
  "director": [
    "Андре Овредал"
  ],
  "screenwriter": [
    "Йен Голдберг",
    "Ричард Найнг"
  ],
  "producer": [
    "Рори Аиткен",
    "Фред Бергер",
    "Эрик Гарсия"
  ],
  "operator": [
    "Роман Осин"
  ],
  "composer": [
    "Дэнни Бенси",
    "Сондер Юрриаанс"
  ],
  "design": [
    "Мэтт Гант",
    "Астрид Зибен",
    "Натали Уорд"
  ],
  "editor": [
    "Питер Гвоздас",
    "Патрик Ларсгаард"
  ],
  "actors": [
    "Брайан Кокс",
    "Эмиль Хирш",
    "Офелия Ловибонд",
    "Майкл МакЭлхаттон",
    "Олуэн Катрин Келли",
    "Джейн Перри",
    "Паркер Сойерс",
    "Мэри Дадди",
    "Марк Феникс",
    "Сидни"
  ],
  "actors_dubl": [],
  "trivia": [
    "Оригинальное название фильма можно перевести как «Вскрытие неизвестной».",
    "Режиссёр Андре Овредал вдохновился снять фильм ужасов после просмотра фильма «Заклятие». Он позвонил своим агентам и сказал, что они должны попытаться найти хороший сценарий хоррора. Через месяц сценарий был найден.",
    "Мартин Шин был первоначально заявлен на роль Томми, но ему пришлось отказаться из-за несогласованности расписаний съёмок.",
    "Песня, играющая на протяжении всего фильма, — «Let the Sunshine in» в исполнении Pebbles.",
    "Имена Джон Доу (John Doe) и Джейн Доу (Jane Doe) — принятый в английском праве термин для обозначения неизвестного или анонимного участника процесса, зачастую истца. Позже термин перешел в медицину, где его используют для обозначения безымянного трупа или неизвестного пациента.",
    "Стивен Кинг назвал этот фильм своим любимым фильмом ужасов 2016 года.",
    "В интервью режиссёр признавался, что его любимая сцена фильма — в лифте, когда главные герои обсуждают смерть матери. А сцена, которой он больше всего гордился как режиссер — момент раскрытия символов под кожей Джейн Доу."
  ],
  "trailers": [],
  "seasons": [],
  "voiceActing": [
    "AlexFilm",
    "Eng.Original"
  ],
  "subtitle": [],
  "parts": []
}
