{
  "id": 18268,
  "name": "Черный Плащ",
  "name_eng": "Darkwing Duck",
  "year": 1991,
  "slogan": "«Ну-ка, от винта!»",
  "age": "6+",
  "type": "cartoon-series",
  "quality": "SD",
  "imdb": "7.6",
  "imdb_id": "0101076",
  "kinopoisk": "7.6",
  "kinopoisk_id": "395106",
  "world_art": null,
  "world_art_id": null,
  "time": "22 мин",
  "ads": false,
  "premier": "1991-09-06",
  "premier_rus": "1993-01-03",
  "availability": "1993-01-04",
  "serial_status": "offline",
  "activate_time": "2020-05-08 20:13:00",
  "budget": "",
  "fees_use": "",
  "fees_world": "",
  "fees_rus": "",
  "rate_mpaa": "",
  "description": "Мультсериал, повествующий о приключениях загадочного супергероя-селезня по прозвищу Чёрный Плащ, который ведет борьбу со злодеями, представляющими смертельную угрозу для города Сен-Канар. В этом нелёгком деле ему помогают горе-пилот и механик Зигзаг МакКряк и непоседливая Гусёна.",
  "iframe_url": "",
  "poster": "https://img.imgilall.me/movies/franchise/1/8/2/6/8/0/0/0/0/0/610x900_18268.jpg",
  "country": {
    "1": "США"
  },
  "collection": {
    "18": "Про животных"
  },
  "genre": {
    "9": "Приключения",
    "33": "Семейный",
    "24": "Детектив",
    "19": "Комедия"
  },
  "director": [
    "Тэд Стоунс",
    "Алан Заслов"
  ],
  "screenwriter": [
    "Хэскелл Баркин",
    "Джон Бенке",
    "Гордон Брэссак"
  ],
  "producer": [
    "Алан Заслов",
    "Тэд Стоунс",
    "Луанн Вуд"
  ],
  "operator": [],
  "composer": [
    "Филип Гиффин",
    "Джоэл МакНили"
  ],
  "design": [
    "Фред Вартер"
  ],
  "editor": [],
  "actors": [
    "Джим Каммингс",
    "Теренс МакГоверн",
    "Кристин Кавана",
    "Кэти Ли",
    "Сьюзэн Толски",
    "Дэн Кастелланета",
    "Фрэнк Уэлкер",
    "Дэнни Манн",
    "Тино Инсана",
    "Роб Полсен"
  ],
  "actors_dubl": [
    "Юрий Волынцев",
    "Сергей Паршин",
    "Людмила Ильина",
    "Ксения Бржезовская",
    "Ольга Кузнецова"
  ],
  "trivia": [
    "Одно время предполагалось назвать мультсериал \"Дакс Ноль Ноль\", однако выяснилось, что сочетание \"ноль ноль\" запатентовано Яном Флемингом (1908-1964), и в тот период правами на него обладал Альберт Р. Брокколи (1909-1996), наиболее известный как продюсер серии фильмов об агенте 007 Джеймсе Бонде.",
    "Авторы мультсериала открыто признавались, что задумали этот проект как пародию на франшизу \"Бэтмен\", в особенности на фильм Тима Бёртона 1989 года с Майклом Китоном в главной роли. Поначалу они даже планировали дать своему герою напарника (вроде Робина у Бэтмена) и дворецкого (как Альфред). Было решено, однако, не делать настолько заметный акцент на пародируемом объекте, и от использования этих персонажей решили отказаться. Их обоих заменил Зигзаг.",
    "Некоторые серии были созданы, но в прокат не пошли. Утверждается, будто одну из них, 1991 года выпуска, сняли с показа за пародию на Человека-паука. Одна серия 1992 года выпуска вышла в эфир только однажды. В ней один из злодеев продал душу Чёрного Плаща дьяволу.",
    "Зигзаг стал первым мультяшным героем студии Disney, появившимся в двух различных сериалах. Изначально Зигзаг МакКряк был одним из персонажей мультсериала \"Утиные истории\" (1987)."
  ],
  "trailers": [
    {
      "name": "трейлер №1",
      "number": 1,
      "iframe_poster": null,
      "season": 1,
      "iframe_url": ""
    }
  ],
  "seasons": [
    {
      "poster": null,
      "release_ru": null,
      "release_world": null,
      "availability": null,
      "iframe_url": "",
      "season": 1,
      "episodes": [
        {
          "episode": 1,
          "name": null,
          "iframe_url": "",
          "iframe_poster": null,
          "release_ru": null,
          "release_world": null,
          "availability": null,
          "voiceActing": [
            "Рус. Дублированный"
          ],
          "ads": false,
          "subtitle": []
        },
        {
          "episode": 2,
          "name": null,
          "iframe_url": "",
          "iframe_poster": null,
          "release_ru": null,
          "release_world": null,
          "availability": null,
          "voiceActing": [
            "Рус. Дублированный"
          ],
          "ads": false,
          "subtitle": []
        },
        {
          "episode": 3,
          "name": null,
          "iframe_url": "",
          "iframe_poster": null,
          "release_ru": null,
          "release_world": null,
          "availability": null,
          "voiceActing": [
            "Рус. Дублированный"
          ],
          "ads": false,
          "subtitle": []
        },
        {
          "episode": 4,
          "name": null,
          "iframe_url": "",
          "iframe_poster": null,
          "release_ru": null,
          "release_world": null,
          "availability": null,
          "voiceActing": [
            "Рус. Дублированный"
          ],
          "ads": false,
          "subtitle": []
        },
        {
          "episode": 5,
          "name": null,
          "iframe_url": "",
          "iframe_poster": null,
          "release_ru": null,
          "release_world": null,
          "availability": null,
          "voiceActing": [
            "Рус. Дублированный"
          ],
          "ads": false,
          "subtitle": []
        },
        {
          "episode": 6,
          "name": null,
          "iframe_url": "",
          "iframe_poster": null,
          "release_ru": null,
          "release_world": null,
          "availability": null,
          "voiceActing": [
            "Рус. Дублированный"
          ],
          "ads": false,
          "subtitle": []
        },
        {
          "episode": 7,
          "name": null,
          "iframe_url": "",
          "iframe_poster": null,
          "release_ru": null,
          "release_world": null,
          "availability": null,
          "voiceActing": [
            "Рус. Дублированный"
          ],
          "ads": false,
          "subtitle": []
        },
        {
          "episode": 8,
          "name": null,
          "iframe_url": "",
          "iframe_poster": null,
          "release_ru": null,
          "release_world": null,
          "availability": null,
          "voiceActing": [
            "Рус. Дублированный"
          ],
          "ads": false,
          "subtitle": []
        },
        {
          "episode": 9,
          "name": null,
          "iframe_url": "",
          "iframe_poster": null,
          "release_ru": null,
          "release_world": null,
          "availability": null,
          "voiceActing": [
            "Рус. Дублированный"
          ],
          "ads": false,
          "subtitle": []
        },
        {
          "episode": 10,
          "name": null,
          "iframe_url": "",
          "iframe_poster": null,
          "release_ru": null,
          "release_world": null,
          "availability": null,
          "voiceActing": [
            "Рус. Дублированный"
          ],
          "ads": false,
          "subtitle": []
        },
        {
          "episode": 11,
          "name": null,
          "iframe_url": "",
          "iframe_poster": null,
          "release_ru": null,
          "release_world": null,
          "availability": null,
          "voiceActing": [
            "Рус. Дублированный"
          ],
          "ads": false,
          "subtitle": []
        },
        {
          "episode": 12,
          "name": null,
          "iframe_url": "",
          "iframe_poster": null,
          "release_ru": null,
          "release_world": null,
          "availability": null,
          "voiceActing": [
            "Рус. Дублированный"
          ],
          "ads": false,
          "subtitle": []
        },
        {
          "episode": 13,
          "name": null,
          "iframe_url": "",
          "iframe_poster": null,
          "release_ru": null,
          "release_world": null,
          "availability": null,
          "voiceActing": [
            "Рус. Дублированный"
          ],
          "ads": false,
          "subtitle": []
        },
        {
          "episode": 14,
          "name": null,
          "iframe_url": "",
          "iframe_poster": null,
          "release_ru": null,
          "release_world": null,
          "availability": null,
          "voiceActing": [
            "Рус. Дублированный"
          ],
          "ads": false,
          "subtitle": []
        },
        {
          "episode": 15,
          "name": null,
          "iframe_url": "",
          "iframe_poster": null,
          "release_ru": null,
          "release_world": null,
          "availability": null,
          "voiceActing": [
            "Рус. Дублированный"
          ],
          "ads": false,
          "subtitle": []
        },
        {
          "episode": 16,
          "name": null,
          "iframe_url": "",
          "iframe_poster": null,
          "release_ru": null,
          "release_world": null,
          "availability": null,
          "voiceActing": [
            "Рус. Дублированный"
          ],
          "ads": false,
          "subtitle": []
        },
        {
          "episode": 17,
          "name": null,
          "iframe_url": "",
          "iframe_poster": null,
          "release_ru": null,
          "release_world": null,
          "availability": null,
          "voiceActing": [
            "Рус. Дублированный"
          ],
          "ads": false,
          "subtitle": []
        },
        {
          "episode": 18,
          "name": null,
          "iframe_url": "",
          "iframe_poster": null,
          "release_ru": null,
          "release_world": null,
          "availability": null,
          "voiceActing": [
            "Рус. Дублированный"
          ],
          "ads": false,
          "subtitle": []
        },
        {
          "episode": 19,
          "name": null,
          "iframe_url": "",
          "iframe_poster": null,
          "release_ru": null,
          "release_world": null,
          "availability": null,
          "voiceActing": [
            "Рус. Дублированный"
          ],
          "ads": false,
          "subtitle": []
        },
        {
          "episode": 20,
          "name": null,
          "iframe_url": "",
          "iframe_poster": null,
          "release_ru": null,
          "release_world": null,
          "availability": null,
          "voiceActing": [
            "Рус. Дублированный"
          ],
          "ads": false,
          "subtitle": []
        },
        {
          "episode": 21,
          "name": null,
          "iframe_url": "",
          "iframe_poster": null,
          "release_ru": null,
          "release_world": null,
          "availability": null,
          "voiceActing": [
            "Рус. Дублированный"
          ],
          "ads": false,
          "subtitle": []
        },
        {
          "episode": 22,
          "name": null,
          "iframe_url": "",
          "iframe_poster": null,
          "release_ru": null,
          "release_world": null,
          "availability": null,
          "voiceActing": [
            "Рус. Дублированный"
          ],
          "ads": false,
          "subtitle": []
        },
        {
          "episode": 23,
          "name": null,
          "iframe_url": "",
          "iframe_poster": null,
          "release_ru": null,
          "release_world": null,
          "availability": null,
          "voiceActing": [
            "Рус. Дублированный"
          ],
          "ads": false,
          "subtitle": []
        },
        {
          "episode": 24,
          "name": null,
          "iframe_url": "",
          "iframe_poster": null,
          "release_ru": null,
          "release_world": null,
          "availability": null,
          "voiceActing": [
            "Рус. Дублированный"
          ],
          "ads": false,
          "subtitle": []
        },
        {
          "episode": 25,
          "name": null,
          "iframe_url": "",
          "iframe_poster": null,
          "release_ru": null,
          "release_world": null,
          "availability": null,
          "voiceActing": [
            "Рус. Дублированный"
          ],
          "ads": false,
          "subtitle": []
        },
        {
          "episode": 26,
          "name": null,
          "iframe_url": "",
          "iframe_poster": null,
          "release_ru": null,
          "release_world": null,
          "availability": null,
          "voiceActing": [
            "Рус. Дублированный"
          ],
          "ads": false,
          "subtitle": []
        },
        {
          "episode": 27,
          "name": null,
          "iframe_url": "",
          "iframe_poster": null,
          "release_ru": null,
          "release_world": null,
          "availability": null,
          "voiceActing": [
            "Рус. Дублированный"
          ],
          "ads": false,
          "subtitle": []
        },
        {
          "episode": 28,
          "name": null,
          "iframe_url": "",
          "iframe_poster": null,
          "release_ru": null,
          "release_world": null,
          "availability": null,
          "voiceActing": [
            "Рус. Дублированный"
          ],
          "ads": false,
          "subtitle": []
        },
        {
          "episode": 29,
          "name": null,
          "iframe_url": "",
          "iframe_poster": null,
          "release_ru": null,
          "release_world": null,
          "availability": null,
          "voiceActing": [
            "Рус. Дублированный"
          ],
          "ads": false,
          "subtitle": []
        },
        {
          "episode": 30,
          "name": null,
          "iframe_url": "",
          "iframe_poster": null,
          "release_ru": null,
          "release_world": null,
          "availability": null,
          "voiceActing": [
            "Рус. Дублированный"
          ],
          "ads": false,
          "subtitle": []
        },
        {
          "episode": 31,
          "name": null,
          "iframe_url": "",
          "iframe_poster": null,
          "release_ru": null,
          "release_world": null,
          "availability": null,
          "voiceActing": [
            "Рус. Дублированный"
          ],
          "ads": false,
          "subtitle": []
        },
        {
          "episode": 32,
          "name": null,
          "iframe_url": "",
          "iframe_poster": null,
          "release_ru": null,
          "release_world": null,
          "availability": null,
          "voiceActing": [
            "Рус. Дублированный"
          ],
          "ads": false,
          "subtitle": []
        },
        {
          "episode": 33,
          "name": null,
          "iframe_url": "",
          "iframe_poster": null,
          "release_ru": null,
          "release_world": null,
          "availability": null,
          "voiceActing": [
            "Рус. Дублированный"
          ],
          "ads": false,
          "subtitle": []
        },
        {
          "episode": 34,
          "name": null,
          "iframe_url": "",
          "iframe_poster": null,
          "release_ru": null,
          "release_world": null,
          "availability": null,
          "voiceActing": [
            "Рус. Дублированный"
          ],
          "ads": false,
          "subtitle": []
        },
        {
          "episode": 35,
          "name": null,
          "iframe_url": "",
          "iframe_poster": null,
          "release_ru": null,
          "release_world": null,
          "availability": null,
          "voiceActing": [
            "Рус. Дублированный"
          ],
          "ads": false,
          "subtitle": []
        },
        {
          "episode": 36,
          "name": null,
          "iframe_url": "",
          "iframe_poster": null,
          "release_ru": null,
          "release_world": null,
          "availability": null,
          "voiceActing": [
            "Рус. Дублированный"
          ],
          "ads": false,
          "subtitle": []
        },
        {
          "episode": 37,
          "name": null,
          "iframe_url": "",
          "iframe_poster": null,
          "release_ru": null,
          "release_world": null,
          "availability": null,
          "voiceActing": [
            "Рус. Дублированный"
          ],
          "ads": false,
          "subtitle": []
        },
        {
          "episode": 38,
          "name": null,
          "iframe_url": "",
          "iframe_poster": null,
          "release_ru": null,
          "release_world": null,
          "availability": null,
          "voiceActing": [
            "Рус. Дублированный"
          ],
          "ads": false,
          "subtitle": []
        },
        {
          "episode": 39,
          "name": null,
          "iframe_url": "",
          "iframe_poster": null,
          "release_ru": null,
          "release_world": null,
          "availability": null,
          "voiceActing": [
            "Рус. Дублированный"
          ],
          "ads": false,
          "subtitle": []
        },
        {
          "episode": 40,
          "name": null,
          "iframe_url": "",
          "iframe_poster": null,
          "release_ru": null,
          "release_world": null,
          "availability": null,
          "voiceActing": [
            "Рус. Дублированный"
          ],
          "ads": false,
          "subtitle": []
        },
        {
          "episode": 41,
          "name": null,
          "iframe_url": "",
          "iframe_poster": null,
          "release_ru": null,
          "release_world": null,
          "availability": null,
          "voiceActing": [
            "Рус. Дублированный"
          ],
          "ads": false,
          "subtitle": []
        },
        {
          "episode": 42,
          "name": null,
          "iframe_url": "",
          "iframe_poster": null,
          "release_ru": null,
          "release_world": null,
          "availability": null,
          "voiceActing": [
            "Рус. Дублированный"
          ],
          "ads": false,
          "subtitle": []
        },
        {
          "episode": 43,
          "name": null,
          "iframe_url": "",
          "iframe_poster": null,
          "release_ru": null,
          "release_world": null,
          "availability": null,
          "voiceActing": [
            "Рус. Дублированный"
          ],
          "ads": false,
          "subtitle": []
        },
        {
          "episode": 44,
          "name": null,
          "iframe_url": "",
          "iframe_poster": null,
          "release_ru": null,
          "release_world": null,
          "availability": null,
          "voiceActing": [
            "Рус. Дублированный"
          ],
          "ads": false,
          "subtitle": []
        },
        {
          "episode": 45,
          "name": null,
          "iframe_url": "",
          "iframe_poster": null,
          "release_ru": null,
          "release_world": null,
          "availability": null,
          "voiceActing": [
            "Рус. Дублированный"
          ],
          "ads": false,
          "subtitle": []
        },
        {
          "episode": 46,
          "name": null,
          "iframe_url": "",
          "iframe_poster": null,
          "release_ru": null,
          "release_world": null,
          "availability": null,
          "voiceActing": [
            "Рус. Дублированный"
          ],
          "ads": false,
          "subtitle": []
        },
        {
          "episode": 47,
          "name": null,
          "iframe_url": "",
          "iframe_poster": null,
          "release_ru": null,
          "release_world": null,
          "availability": null,
          "voiceActing": [
            "Рус. Дублированный"
          ],
          "ads": false,
          "subtitle": []
        },
        {
          "episode": 48,
          "name": null,
          "iframe_url": "",
          "iframe_poster": null,
          "release_ru": null,
          "release_world": null,
          "availability": null,
          "voiceActing": [
            "Рус. Дублированный"
          ],
          "ads": false,
          "subtitle": []
        },
        {
          "episode": 49,
          "name": null,
          "iframe_url": "",
          "iframe_poster": null,
          "release_ru": null,
          "release_world": null,
          "availability": null,
          "voiceActing": [
            "Рус. Дублированный"
          ],
          "ads": false,
          "subtitle": []
        },
        {
          "episode": 50,
          "name": null,
          "iframe_url": "",
          "iframe_poster": null,
          "release_ru": null,
          "release_world": null,
          "availability": null,
          "voiceActing": [
            "Рус. Дублированный"
          ],
          "ads": false,
          "subtitle": []
        },
        {
          "episode": 51,
          "name": null,
          "iframe_url": "",
          "iframe_poster": null,
          "release_ru": null,
          "release_world": null,
          "availability": null,
          "voiceActing": [
            "Рус. Дублированный"
          ],
          "ads": false,
          "subtitle": []
        },
        {
          "episode": 52,
          "name": null,
          "iframe_url": "",
          "iframe_poster": null,
          "release_ru": null,
          "release_world": null,
          "availability": null,
          "voiceActing": [
            "Рус. Дублированный"
          ],
          "ads": false,
          "subtitle": []
        },
        {
          "episode": 53,
          "name": null,
          "iframe_url": "",
          "iframe_poster": null,
          "release_ru": null,
          "release_world": null,
          "availability": null,
          "voiceActing": [
            "Рус. Дублированный"
          ],
          "ads": false,
          "subtitle": []
        },
        {
          "episode": 54,
          "name": null,
          "iframe_url": "",
          "iframe_poster": null,
          "release_ru": null,
          "release_world": null,
          "availability": null,
          "voiceActing": [
            "Рус. Дублированный"
          ],
          "ads": false,
          "subtitle": []
        },
        {
          "episode": 55,
          "name": null,
          "iframe_url": "",
          "iframe_poster": null,
          "release_ru": null,
          "release_world": null,
          "availability": null,
          "voiceActing": [
            "Рус. Дублированный"
          ],
          "ads": false,
          "subtitle": []
        },
        {
          "episode": 56,
          "name": null,
          "iframe_url": "",
          "iframe_poster": null,
          "release_ru": null,
          "release_world": null,
          "availability": null,
          "voiceActing": [
            "Рус. Дублированный"
          ],
          "ads": false,
          "subtitle": []
        },
        {
          "episode": 57,
          "name": null,
          "iframe_url": "",
          "iframe_poster": null,
          "release_ru": null,
          "release_world": null,
          "availability": null,
          "voiceActing": [
            "Рус. Дублированный"
          ],
          "ads": false,
          "subtitle": []
        },
        {
          "episode": 58,
          "name": null,
          "iframe_url": "",
          "iframe_poster": null,
          "release_ru": null,
          "release_world": null,
          "availability": null,
          "voiceActing": [
            "Рус. Дублированный"
          ],
          "ads": false,
          "subtitle": []
        },
        {
          "episode": 59,
          "name": null,
          "iframe_url": "",
          "iframe_poster": null,
          "release_ru": null,
          "release_world": null,
          "availability": null,
          "voiceActing": [
            "Рус. Дублированный"
          ],
          "ads": false,
          "subtitle": []
        },
        {
          "episode": 60,
          "name": null,
          "iframe_url": "",
          "iframe_poster": null,
          "release_ru": null,
          "release_world": null,
          "availability": null,
          "voiceActing": [
            "Рус. Дублированный"
          ],
          "ads": false,
          "subtitle": []
        },
        {
          "episode": 61,
          "name": null,
          "iframe_url": "",
          "iframe_poster": null,
          "release_ru": null,
          "release_world": null,
          "availability": null,
          "voiceActing": [
            "Рус. Дублированный"
          ],
          "ads": false,
          "subtitle": []
        },
        {
          "episode": 62,
          "name": null,
          "iframe_url": "",
          "iframe_poster": null,
          "release_ru": null,
          "release_world": null,
          "availability": null,
          "voiceActing": [
            "Рус. Дублированный"
          ],
          "ads": false,
          "subtitle": []
        },
        {
          "episode": 63,
          "name": null,
          "iframe_url": "",
          "iframe_poster": null,
          "release_ru": null,
          "release_world": null,
          "availability": null,
          "voiceActing": [
            "Рус. Дублированный"
          ],
          "ads": false,
          "subtitle": []
        },
        {
          "episode": 64,
          "name": null,
          "iframe_url": "",
          "iframe_poster": null,
          "release_ru": null,
          "release_world": null,
          "availability": null,
          "voiceActing": [
            "Рус. Дублированный"
          ],
          "ads": false,
          "subtitle": []
        },
        {
          "episode": 65,
          "name": null,
          "iframe_url": "",
          "iframe_poster": null,
          "release_ru": null,
          "release_world": null,
          "availability": null,
          "voiceActing": [
            "Рус. Дублированный"
          ],
          "ads": false,
          "subtitle": []
        }
      ]
    },
    {
      "poster": null,
      "release_ru": null,
      "release_world": null,
      "availability": null,
      "iframe_url": "",
      "season": 2,
      "episodes": [
        {
          "episode": 1,
          "name": null,
          "iframe_url": "",
          "iframe_poster": null,
          "release_ru": null,
          "release_world": null,
          "availability": null,
          "voiceActing": [
            "Рус. Дублированный"
          ],
          "ads": false,
          "subtitle": []
        },
        {
          "episode": 2,
          "name": null,
          "iframe_url": "",
          "iframe_poster": null,
          "release_ru": null,
          "release_world": null,
          "availability": null,
          "voiceActing": [
            "Рус. Дублированный"
          ],
          "ads": false,
          "subtitle": []
        },
        {
          "episode": 3,
          "name": null,
          "iframe_url": "",
          "iframe_poster": null,
          "release_ru": null,
          "release_world": null,
          "availability": null,
          "voiceActing": [
            "Рус. Дублированный"
          ],
          "ads": false,
          "subtitle": []
        },
        {
          "episode": 4,
          "name": null,
          "iframe_url": "",
          "iframe_poster": null,
          "release_ru": null,
          "release_world": null,
          "availability": null,
          "voiceActing": [
            "Рус. Дублированный"
          ],
          "ads": false,
          "subtitle": []
        },
        {
          "episode": 5,
          "name": null,
          "iframe_url": "",
          "iframe_poster": null,
          "release_ru": null,
          "release_world": null,
          "availability": null,
          "voiceActing": [
            "Рус. Дублированный"
          ],
          "ads": false,
          "subtitle": []
        },
        {
          "episode": 6,
          "name": null,
          "iframe_url": "",
          "iframe_poster": null,
          "release_ru": null,
          "release_world": null,
          "availability": null,
          "voiceActing": [
            "Рус. Дублированный"
          ],
          "ads": false,
          "subtitle": []
        },
        {
          "episode": 7,
          "name": null,
          "iframe_url": "",
          "iframe_poster": null,
          "release_ru": null,
          "release_world": null,
          "availability": null,
          "voiceActing": [
            "Рус. Дублированный"
          ],
          "ads": false,
          "subtitle": []
        },
        {
          "episode": 8,
          "name": null,
          "iframe_url": "",
          "iframe_poster": null,
          "release_ru": null,
          "release_world": null,
          "availability": null,
          "voiceActing": [
            "Рус. Дублированный"
          ],
          "ads": false,
          "subtitle": []
        },
        {
          "episode": 9,
          "name": null,
          "iframe_url": "",
          "iframe_poster": null,
          "release_ru": null,
          "release_world": null,
          "availability": null,
          "voiceActing": [
            "Рус. Дублированный"
          ],
          "ads": false,
          "subtitle": []
        },
        {
          "episode": 10,
          "name": null,
          "iframe_url": "",
          "iframe_poster": null,
          "release_ru": null,
          "release_world": null,
          "availability": null,
          "voiceActing": [
            "Рус. Дублированный"
          ],
          "ads": false,
          "subtitle": []
        },
        {
          "episode": 11,
          "name": null,
          "iframe_url": "",
          "iframe_poster": null,
          "release_ru": null,
          "release_world": null,
          "availability": null,
          "voiceActing": [
            "Рус. Дублированный"
          ],
          "ads": false,
          "subtitle": []
        },
        {
          "episode": 12,
          "name": null,
          "iframe_url": "",
          "iframe_poster": null,
          "release_ru": null,
          "release_world": null,
          "availability": null,
          "voiceActing": [
            "Рус. Дублированный"
          ],
          "ads": false,
          "subtitle": []
        },
        {
          "episode": 13,
          "name": null,
          "iframe_url": "",
          "iframe_poster": null,
          "release_ru": null,
          "release_world": null,
          "availability": null,
          "voiceActing": [
            "Рус. Дублированный"
          ],
          "ads": false,
          "subtitle": []
        }
      ]
    },
    {
      "poster": null,
      "release_ru": null,
      "release_world": null,
      "availability": null,
      "iframe_url": "",
      "season": 3,
      "episodes": [
        {
          "episode": 1,
          "name": null,
          "iframe_url": "",
          "iframe_poster": null,
          "release_ru": null,
          "release_world": null,
          "availability": null,
          "voiceActing": [
            "Рус. Дублированный"
          ],
          "ads": false,
          "subtitle": []
        },
        {
          "episode": 2,
          "name": null,
          "iframe_url": "",
          "iframe_poster": null,
          "release_ru": null,
          "release_world": null,
          "availability": null,
          "voiceActing": [
            "Рус. Дублированный"
          ],
          "ads": false,
          "subtitle": []
        },
        {
          "episode": 3,
          "name": null,
          "iframe_url": "",
          "iframe_poster": null,
          "release_ru": null,
          "release_world": null,
          "availability": null,
          "voiceActing": [
            "Рус. Дублированный"
          ],
          "ads": false,
          "subtitle": []
        },
        {
          "episode": 4,
          "name": null,
          "iframe_url": "",
          "iframe_poster": null,
          "release_ru": null,
          "release_world": null,
          "availability": null,
          "voiceActing": [
            "Рус. Дублированный"
          ],
          "ads": false,
          "subtitle": []
        },
        {
          "episode": 5,
          "name": null,
          "iframe_url": "",
          "iframe_poster": null,
          "release_ru": null,
          "release_world": null,
          "availability": null,
          "voiceActing": [
            "Рус. Дублированный"
          ],
          "ads": false,
          "subtitle": []
        },
        {
          "episode": 6,
          "name": null,
          "iframe_url": "",
          "iframe_poster": null,
          "release_ru": null,
          "release_world": null,
          "availability": null,
          "voiceActing": [
            "Рус. Дублированный"
          ],
          "ads": false,
          "subtitle": []
        },
        {
          "episode": 7,
          "name": null,
          "iframe_url": "",
          "iframe_poster": null,
          "release_ru": null,
          "release_world": null,
          "availability": null,
          "voiceActing": [
            "Рус. Дублированный"
          ],
          "ads": false,
          "subtitle": []
        },
        {
          "episode": 8,
          "name": null,
          "iframe_url": "",
          "iframe_poster": null,
          "release_ru": null,
          "release_world": null,
          "availability": null,
          "voiceActing": [
            "Рус. Дублированный"
          ],
          "ads": false,
          "subtitle": []
        },
        {
          "episode": 9,
          "name": null,
          "iframe_url": "",
          "iframe_poster": null,
          "release_ru": null,
          "release_world": null,
          "availability": null,
          "voiceActing": [
            "Рус. Дублированный"
          ],
          "ads": false,
          "subtitle": []
        },
        {
          "episode": 10,
          "name": null,
          "iframe_url": "",
          "iframe_poster": null,
          "release_ru": null,
          "release_world": null,
          "availability": null,
          "voiceActing": [
            "Рус. Дублированный"
          ],
          "ads": false,
          "subtitle": []
        },
        {
          "episode": 11,
          "name": null,
          "iframe_url": "",
          "iframe_poster": null,
          "release_ru": null,
          "release_world": null,
          "availability": null,
          "voiceActing": [
            "Рус. Дублированный"
          ],
          "ads": false,
          "subtitle": []
        },
        {
          "episode": 12,
          "name": null,
          "iframe_url": "",
          "iframe_poster": null,
          "release_ru": null,
          "release_world": null,
          "availability": null,
          "voiceActing": [
            "Рус. Дублированный"
          ],
          "ads": false,
          "subtitle": []
        },
        {
          "episode": 13,
          "name": null,
          "iframe_url": "",
          "iframe_poster": null,
          "release_ru": null,
          "release_world": null,
          "availability": null,
          "voiceActing": [
            "Рус. Дублированный"
          ],
          "ads": false,
          "subtitle": []
        }
      ]
    }
  ],
  "voiceActing": [
    "Рус. Дублированный"
  ],
  "subtitle": [],
  "parts": []
}
