{
  "id": 18335,
  "name": "Трасса 60",
  "name_eng": "Interstate 60",
  "year": 2001,
  "slogan": "«На все ваши ответы будут заданы вопросы»",
  "age": "16+",
  "type": "film",
  "quality": "SD",
  "imdb": "7.7",
  "imdb_id": "0165832",
  "kinopoisk": "8.0",
  "kinopoisk_id": "3563",
  "world_art": null,
  "world_art_id": null,
  "time": "116 мин. / 01:56",
  "ads": false,
  "premier": "2002-04-13",
  "premier_rus": "2002-04-14",
  "availability": "2002-04-15",
  "activate_time": "2020-05-08 19:00:00",
  "budget": "$7 000 000",
  "fees_use": null,
  "fees_world": "$8 449",
  "fees_rus": null,
  "rate_mpaa": "R",
  "description": "В легендах и мифах есть персонажи, главная задача которых – исполнять желания. У арабов это - джинны, у ирландцев – лепреконы, у китайцев – драконы, у европейцев – феи и лесные духи. А в Америке есть некто О. Ж. Грант – довольно странный и забавный человек, который тоже может исполнить любое желание. Но будьте осторожны, он очень проказлив! Вот его-то и встречает однажды Нил Оливер.Нил вполне доволен своей жизнью: у него обеспеченные родители, симпатичная невеста и впереди блестящая карьера юриста. Но с недавних пор по ночам ему стала сниться загадочная девушка, которую он никак не может выбросить из головы.Чудаковатый Грант приглашает Нила совершить поездку по таинственной автостраде 60, которой нет ни на одной карте США. И Нил бросает всё и пускается в самое невероятное и рискованное путешествие в своей жизни, решив во что бы то ни стало разыскать незнакомку из своих снов.",
  "iframe_url": "",
  "iframe_poster": null,
  "poster": "https://img.imgilall.me/movies/franchise/1/8/3/3/5/0/0/0/0/0/610x900_18335.jpg",
  "country": {
    "7": "Канада",
    "1": "США"
  },
  "collection": [],
  "genre": {
    "9": "Приключения",
    "11": "Фантастика",
    "6": "Фэнтези",
    "24": "Детектив",
    "19": "Комедия",
    "7": "Драма"
  },
  "director": [
    "Боб Гейл"
  ],
  "screenwriter": [
    "Боб Гейл"
  ],
  "producer": [
    "Айра Дойчман",
    "Питер Ньюман",
    "Питер Брэй"
  ],
  "operator": [
    "Денис Малони"
  ],
  "composer": [
    "Кристоф Бек"
  ],
  "design": [
    "Рокко Маттео",
    "Мун Йинг Кван",
    "Энн Диксон"
  ],
  "editor": [
    "Майкл Фаллаволлита"
  ],
  "actors": [
    "Джеймс Марсден",
    "Гари Олдман",
    "Эми Смарт",
    "Курт Рассел",
    "Кристофер Ллойд",
    "Крис Купер",
    "Майкл Дж. Фокс",
    "Энн-Маргрет",
    "Эми Джо Джонсон",
    "Арт Эванс"
  ],
  "actors_dubl": [],
  "trivia": [
    "Фильм снимался в Фениксе (штат Аризона, США) и в Торонто (провинция Онтарио, Канада).",
    "Непосредственные съемки фильма были осуществлены практически за месяц — с 18 сентября по октябрь 2000 года.",
    "Номер здания, в котором у Нила была назначена встреча с Рэем — 555. Это число часто используют в фильмах для вымышленных объектов, в телефонных номерах и прочее.",
    "Создатели фильма хотели показать, что при создании образа О. Ж. Гранта авторы черпали вдохновение в мифологии стран мира. Грант представлен как лепрекон-ирландец, поэтому он — рыжий. Трубка в форме головы обезьяны пришла из Восточной мифологии, а саму трубку можно привязать к джиннам.",
    "Карточные трюки за Кристофера Ллойда исполнил профессиональный фокусник-дублёр.",
    "Часы за героем Кристофера Ллойда показывают 10:04 — во столько остановились часы на башне из-за удара молнии в трилогии «Назад в будущее».",
    "Съёмки фильма начались 18 сентября 2000 года. В начальной сцене Нил Оливер говорит «Что до меня, то всё началось 18 сентября, в мой день рождения». При этом сыгравший его Джеймс Марсден действительно родился 18 сентября.",
    "Этаж, на который поднимается Нил в здании 555 — 13. Также число 13 встречается в сцене с девушкой на дороге — номер Нила был бы 2461 (2+4+6+1=13).",
    "Когда Нил впервые видит свой подарок — новый красный BMW 328i — музыка, звучащая в этой сцене, очень похожа на ту, что использована в фильме «Назад в будущее» (1985), когда Марти открывает дверь гаража и видит там новую машину.",
    "В здании суда города Морло (Morlaw) висит герб, на котором написан искажённый американский девиз: «In law we trust» («Мы верим в закон»). Название города можно прочитать как «more law» («побольше законов»).",
    "Нил очнулся в больнице 18 сентября вечером в 19:25, во вторник (это видно на больничных часах), то есть в день, когда начались съёмки.",
    "Фильм, который смотрит Салли (Мелисса Эд) после ресторана, это «Близкие контакты третьей степени» (1977).",
    "Инициалы одного из главных героев картины — О. Ж. Гранта — расшифровываются как «Одно предоставленное желание» (One Wish Grant).",
    "В начале фильма у героя Джеймса Марсдена на столе лежит комикс X-MEN (Люди Икс), позже Джеймс Марсден сыграл мутанта Циклопа в нескольких частях «Людей Икс»."
  ],
  "trailers": [],
  "seasons": [],
  "voiceActing": [
    "Рус. Проф. многоголосый"
  ],
  "subtitle": [],
  "parts": []
}
