{
  "id": 18615,
  "name": "Заражённый 2: Чёрт",
  "name_eng": "Musallat 2: Lanet",
  "year": 2011,
  "slogan": "—",
  "age": null,
  "type": "film",
  "quality": "SD",
  "imdb": "5.3",
  "imdb_id": "2114440",
  "kinopoisk": null,
  "kinopoisk_id": "649154",
  "world_art": null,
  "world_art_id": null,
  "time": "82 мин. / 01:22",
  "ads": false,
  "premier": "2011-12-01",
  "premier_rus": "2011-12-02",
  "availability": "2011-12-03",
  "activate_time": "2020-05-11 21:25:00",
  "budget": "$1 500 000",
  "fees_use": null,
  "fees_world": null,
  "fees_rus": null,
  "rate_mpaa": null,
  "description": null,
  "iframe_url": "",
  "iframe_poster": null,
  "poster": "https://img.imgilall.me/movies/franchise/1/8/6/1/5/0/0/0/0/0/610x900_18615.jpg",
  "country": {
    "36": "Турция"
  },
  "collection": [],
  "genre": {
    "26": "Ужасы"
  },
  "director": [
    "Алпер Местчи"
  ],
  "screenwriter": [
    "Алпер Местчи"
  ],
  "producer": [
    "Бану Акдениз"
  ],
  "operator": [
    "Турксой Голебейи"
  ],
  "composer": [
    "Ресит Гёздамла"
  ],
  "design": [
    "Asli Akinci",
    "Merve Hepgirginer",
    "Çagla Köseoglu"
  ],
  "editor": [
    "Efe Hizir"
  ],
  "actors": [
    "Nurcan Aktas",
    "Veysi Aliskan",
    "Тюлай Бурса",
    "Зелиха Гюней",
    "Selim Gürata",
    "Saliha Iplikci",
    "Мерал Коро",
    "Sinem Ocalir",
    "Басай Окай",
    "Корай Шахинбаш"
  ],
  "actors_dubl": [],
  "trivia": [],
  "trailers": [],
  "seasons": [],
  "voiceActing": [
    "Рус. Люб. одноголосый"
  ],
  "subtitle": [],
  "parts": []
}
