{
  "id": 18655,
  "name": "Бладрейн 3",
  "name_eng": "BloodRayne: The Third Reich",
  "year": 2010,
  "slogan": "«Only the Dead Survive»",
  "age": "16+",
  "type": "film",
  "quality": "FHD (1080p)",
  "imdb": "3.0",
  "imdb_id": "1153546",
  "kinopoisk": "2.6",
  "kinopoisk_id": "409168",
  "world_art": null,
  "world_art_id": null,
  "time": "76 мин. / 01:16",
  "ads": false,
  "premier": "2011-05-02",
  "premier_rus": "2011-05-03",
  "availability": "2011-05-04",
  "activate_time": "2020-05-12 03:03:00",
  "budget": "$10 000 000",
  "fees_use": null,
  "fees_world": null,
  "fees_rus": null,
  "rate_mpaa": "R",
  "description": "Рейн борется против нацистов в Европе во время Второй мировой войны, сталкиваясь с Экартом Брэндом, нацистским лидером, цель которого ввести в Адольфа Гитлера кровь Рейн для того, чтобы превратить его в вампира и сделать бессмертным.",
  "iframe_url": "",
  "iframe_poster": null,
  "poster": "https://img.imgilall.me/movies/franchise/1/8/6/5/5/0/0/0/0/0/610x900_18655.jpg",
  "country": {
    "7": "Канада",
    "1": "США",
    "20": "Германия"
  },
  "collection": [],
  "genre": {
    "9": "Приключения",
    "26": "Ужасы",
    "6": "Фэнтези",
    "17": "Боевик"
  },
  "director": [
    "Уве Болл"
  ],
  "screenwriter": [
    "Майкл Начофф"
  ],
  "producer": [
    "Уве Болл",
    "Дэн Кларк",
    "Сандра Бассо"
  ],
  "operator": [
    "Матиас Нойманн"
  ],
  "composer": [
    "Джессика Де Руйи"
  ],
  "design": [
    "Марко Биттнер Россер",
    "Дамир Габелица",
    "Марио Ивезич"
  ],
  "editor": [
    "Чарльз Ладмираль"
  ],
  "actors": [
    "Наташа Мальте",
    "Брендан Флетчер",
    "Майкл Паре",
    "Уиллам Беллай",
    "Аннетта Кульп",
    "Клинт Ховард",
    "Штеффен Меннекес",
    "Арвед Бирнбаум",
    "Сафия Кэйгин",
    "Ник Голдман"
  ],
  "actors_dubl": [],
  "trivia": [
    "Фильм снят по мотивам серии компьютерных игр «BloodRayne» (2002 — н. в., Terminal Reality).",
    "Съёмки проходили в Хорватии."
  ],
  "trailers": [],
  "seasons": [],
  "voiceActing": [
    "Рус. Люб. двухголосый",
    "Eng.Original"
  ],
  "subtitle": [],
  "parts": [
    18653,
    18654,
    18655
  ]
}
