{
  "id": 18772,
  "name": "Мой нетронутый остров",
  "name_eng": "Issiz Adam",
  "year": 2008,
  "slogan": "—",
  "age": "18+",
  "type": "film",
  "quality": "SD",
  "imdb": "6.7",
  "imdb_id": "1322930",
  "kinopoisk": "8.0",
  "kinopoisk_id": "431180",
  "world_art": null,
  "world_art_id": null,
  "time": "113 мин. / 01:53",
  "ads": false,
  "premier": "2008-11-07",
  "premier_rus": "2008-11-08",
  "availability": "2008-11-09",
  "activate_time": "2020-05-13 18:08:00",
  "budget": null,
  "fees_use": null,
  "fees_world": null,
  "fees_rus": null,
  "rate_mpaa": null,
  "description": "Алпер и Ада познакомились в стамбульском букинистическом магазине. Алпер, раскрепощённый удачливый мужчина чуть за тридцать, он шеф-повар собственного ресторана. Аде к тридцати годам, она скромная женщина, дизайнер детской одежды. Их образ жизни столь различен, что о возникновении каких-либо отношений между ними не могло быть и речи...",
  "iframe_url": "",
  "iframe_poster": null,
  "poster": "https://img.imgilall.me/movies/franchise/1/8/7/7/2/0/0/0/0/0/610x900_18772.jpg",
  "country": {
    "36": "Турция"
  },
  "collection": [],
  "genre": {
    "8": "Мелодрама",
    "7": "Драма"
  },
  "director": [
    "Чаган Ырмак"
  ],
  "screenwriter": [
    "Чаган Ырмак"
  ],
  "producer": [
    "Эси Гюльдже",
    "Мустафа Огуз"
  ],
  "operator": [
    "Гёкхан Тирьяки"
  ],
  "composer": [
    "Ария",
    "Бора Эбеоглу",
    "Сенк Эрдоган"
  ],
  "design": [
    "Мурат Гуней"
  ],
  "editor": [],
  "actors": [
    "Мелис Биркан",
    "Джемаль Хюнал",
    "Йылдыз Кюльтюр",
    "Шериф Бозкурт",
    "Гёзде Кансу",
    "Гонджагюль Сунар",
    "Аслы Айбарс",
    "Веда Юртсевер Ипек",
    "Сезгин Эрдемир",
    "Неджла Фиде"
  ],
  "actors_dubl": [],
  "trivia": [],
  "trailers": [],
  "seasons": [],
  "voiceActing": [
    "Рус. Люб. двухголосый"
  ],
  "subtitle": [],
  "parts": []
}
