{
  "id": 18782,
  "name": "Жизнь на перемотке",
  "name_eng": "Play",
  "year": 2019,
  "slogan": "«Пересмотри свою жизнь»",
  "age": "16+",
  "type": "film",
  "quality": "FHD (1080p)",
  "imdb": "7.1",
  "imdb_id": "7998848",
  "kinopoisk": "7.3",
  "kinopoisk_id": "1161346",
  "world_art": null,
  "world_art_id": null,
  "time": "108 мин. / 01:48",
  "ads": false,
  "premier": "2019-08-21",
  "premier_rus": "2019-08-22",
  "availability": "2019-08-23",
  "activate_time": "2020-05-14 13:12:00",
  "budget": null,
  "fees_use": null,
  "fees_world": "$1 899 658",
  "fees_rus": null,
  "rate_mpaa": null,
  "description": "Что если можно было бы отмотать свою жизнь на 25 лет назад, заново пережить все самые яркие события и получить заряд ностальгии? Когда Максу в 13 лет подарили его первую видеокамеру, он не мог представить, что это положит начало невероятно трогательной, смешной и такой знакомой всем нам хронике от 90-х до 2010-х.",
  "iframe_url": "",
  "iframe_poster": null,
  "poster": "https://img.imgilall.me/movies/franchise/1/8/7/8/2/0/0/0/0/0/610x900_18782.jpg",
  "country": {
    "9": "Франция"
  },
  "collection": [],
  "genre": {
    "19": "Комедия",
    "10": "Зарубежный",
    "8": "Мелодрама"
  },
  "director": [
    "Антони Марсьяно"
  ],
  "screenwriter": [
    "Макс Бублиль",
    "Антони Марсьяно"
  ],
  "producer": [
    "Бенжамин Элалуф",
    "Дмитрий Рассам",
    "Седрик Иланд"
  ],
  "operator": [
    "Жан-Поль Агостини"
  ],
  "composer": [],
  "design": [
    "Сидни Дюбуа",
    "Каролин Спит"
  ],
  "editor": [
    "Самуэль Данеси"
  ],
  "actors": [
    "Макс Бублиль",
    "Алис Исааз",
    "Малик Зиди",
    "Артур Перье",
    "Ноэми Львовски",
    "Ален Шаба",
    "Камилль Лу",
    "Александр Деруссо",
    "Габриэль Кабальеро",
    "Габриэль Брюне"
  ],
  "actors_dubl": [
    "Иван Породнов",
    "Лина Иванова",
    "Глеб Глушенков",
    "Илья Крутояров",
    "Мария Овчинникова"
  ],
  "trivia": [],
  "trailers": [],
  "seasons": [],
  "voiceActing": [
    "Рус. Дублированный",
    "Fr. Original"
  ],
  "subtitle": [
    "Рус. полные"
  ],
  "parts": []
}
