{
  "id": 1890,
  "name": "Судная ночь. Начало",
  "name_eng": "The First Purge",
  "year": 2018,
  "slogan": "«Нет правил. Нет законов. Нет пощады»",
  "age": "18+",
  "type": "film",
  "quality": "FHD (1080p)",
  "imdb": "5.2",
  "imdb_id": "6133466",
  "kinopoisk": "5.5",
  "kinopoisk_id": "1021671",
  "world_art": null,
  "world_art_id": null,
  "time": "98 мин. / 01:38",
  "ads": false,
  "premier": "2018-07-04",
  "premier_rus": "2018-08-02",
  "availability": null,
  "activate_time": "2018-08-30 22:18:11",
  "budget": "$13 000 000",
  "fees_use": "$69 488 745",
  "fees_world": "$137 056 262",
  "fees_rus": "$1 981 825",
  "rate_mpaa": "R",
  "description": "Хотели бы вы жить в идеальном мире, где нет преступности, безработицы и войн?Единственная плата за такое счастливое будущее — это одна ночь абсолютного беззакония в году.Ночь, когда дозволено всё. Согласны поучаствовать в таком социальном эксперименте?",
  "iframe_url": "",
  "iframe_poster": null,
  "poster": "https://img.imgilall.me/movies/franchise/1/8/9/0/0/0/0/0/0/0/610x900_1890.jpg",
  "country": {
    "1": "США"
  },
  "collection": {
    "29": "Психологические",
    "21": "Для молодёжи"
  },
  "genre": {
    "26": "Ужасы",
    "11": "Фантастика",
    "17": "Боевик",
    "13": "Триллер"
  },
  "director": [
    "Герард МакМюррей"
  ],
  "screenwriter": [
    "Джеймс ДеМонако"
  ],
  "producer": [
    "Майкл Бэй",
    "Джейсон Блум",
    "Эндрю Форм"
  ],
  "operator": [
    "Анастас Н. Микос"
  ],
  "composer": [
    "Кевин Лакс"
  ],
  "design": [
    "Шэрон Ломофски",
    "Дэвид Бланкеншип",
    "Карл Балдассо"
  ],
  "editor": [
    "Джим Пейдж"
  ],
  "actors": [
    "И’лан Ноэль",
    "Лекс Скотт Дэвис",
    "Джоиван Уэйд",
    "Магга",
    "Патрик Дарро",
    "Мариса Томей",
    "Луна Лорен Велес",
    "Кристен Солис",
    "Ротими Пол",
    "Мо"
  ],
  "actors_dubl": [
    "Олег Новиков",
    "Лина Иванова",
    "Евгений Толоконников",
    "Вероника Саркисова",
    "Константин Карасик"
  ],
  "trivia": [],
  "trailers": [],
  "seasons": [],
  "voiceActing": [
    "Рус. Дублированный",
    "Eng.Original"
  ],
  "subtitle": [
    "Eng. full"
  ],
  "parts": [
    1890,
    11003,
    12035,
    12036
  ]
}
