{
  "id": 18905,
  "name": "Найденные плёнки 3D",
  "name_eng": "Found Footage 3D",
  "year": 2016,
  "slogan": "«A new dimension in terror»",
  "age": null,
  "type": "film",
  "quality": "HD (720p)",
  "imdb": "5.4",
  "imdb_id": "3449006",
  "kinopoisk": "4.9",
  "kinopoisk_id": "996633",
  "world_art": null,
  "world_art_id": null,
  "time": "100 мин. / 01:40",
  "ads": false,
  "premier": "2016-08-20",
  "premier_rus": "2016-08-21",
  "availability": "2016-08-22",
  "activate_time": "2020-06-03 20:34:00",
  "budget": null,
  "fees_use": null,
  "fees_world": null,
  "fees_rus": null,
  "rate_mpaa": null,
  "description": "Команда начинающих кинематографистов собирается снимать фильм ужасов в жанре найденных плёнок и параллельно делает фильм о съемках. Автор идеи, сценарист и исполнитель главной роли Дэрек приглашает свою бывшую жену сыграть ведущую женскую роль — разведённая пара должна изображать супругов, проводящих уикенд в заброшенном доме. Оказывается, что дом заброшен не просто так, и фильм по всем законам жанра получится гораздо лучше, чем планировалось.",
  "iframe_url": "",
  "iframe_poster": null,
  "poster": "https://img.imgilall.me/movies/franchise/1/8/9/0/5/0/0/0/0/0/610x900_18905.jpg",
  "country": {
    "1": "США"
  },
  "collection": [],
  "genre": {
    "26": "Ужасы"
  },
  "director": [
    "Steven DeGennaro"
  ],
  "screenwriter": [
    "Steven DeGennaro"
  ],
  "producer": [
    "Steven DeGennaro",
    "Ким Хенкел",
    "Чарльз Мулфорд"
  ],
  "operator": [
    "Дрю Дэниелс"
  ],
  "composer": [],
  "design": [
    "Клер Уайт",
    "Элли Лэйн",
    "Рэйчел Мари Джонс"
  ],
  "editor": [
    "Pete Barnstrom",
    "Steven DeGennaro"
  ],
  "actors": [
    "Картер Рой",
    "Алена фон Строхейм",
    "Крис О’Брайэн",
    "Том Сапорито",
    "Скотт Аллен Перри",
    "Jessica Perrin",
    "Скотт Вейнберг",
    "Джон Доуз",
    "Доран Ингрэм",
    "Карлтон Кодл"
  ],
  "actors_dubl": [],
  "trivia": [],
  "trailers": [],
  "seasons": [],
  "voiceActing": [
    "und0"
  ],
  "subtitle": [],
  "parts": []
}
