{
  "id": 18969,
  "name": "Унесённые пулями",
  "name_eng": "Yi bu zhi yao",
  "year": 2014,
  "slogan": "—",
  "age": null,
  "type": "film",
  "quality": "SD",
  "imdb": "5.8",
  "imdb_id": "2168000",
  "kinopoisk": "5.1",
  "kinopoisk_id": "684241",
  "world_art": null,
  "world_art_id": null,
  "time": "140 мин. / 02:20",
  "ads": false,
  "premier": "2014-12-18",
  "premier_rus": "2014-12-19",
  "availability": "2014-12-20",
  "activate_time": "2020-05-15 22:01:00",
  "budget": "$20 000 000",
  "fees_use": null,
  "fees_world": null,
  "fees_rus": null,
  "rate_mpaa": null,
  "description": "1920 год, Шанхай. Бывший аристократ Ма Дзури становится профессиональным аферистом и вступает в сговор с полицейским «Бруни» Сяном Фейтаном, чтобы отмывать деньги в больших масштабах.",
  "iframe_url": "",
  "iframe_poster": null,
  "poster": "https://img.imgilall.me/movies/franchise/1/8/9/6/9/0/0/0/0/0/610x900_18969.jpg",
  "country": {
    "12": "Гонконг",
    "1": "США",
    "19": "Китай"
  },
  "collection": [],
  "genre": {
    "19": "Комедия",
    "17": "Боевик",
    "7": "Драма"
  },
  "director": [
    "Цзян Вэнь"
  ],
  "screenwriter": [
    "Цзян Вэнь",
    "Ван Шо",
    "Liao Yimei"
  ],
  "producer": [
    "Альберт Ли",
    "Гун Юй",
    "Цзян Вэнь"
  ],
  "operator": [
    "Се Чжэнъюй"
  ],
  "composer": [],
  "design": [
    "Уильям Чан",
    "Лю Цин"
  ],
  "editor": [
    "Цао Вэйцзе",
    "Cui Dalong",
    "Цзян Вэнь"
  ],
  "actors": [
    "Цзян Вэнь",
    "Шу Ци",
    "Гэ Ю",
    "Чжоу Юнь",
    "Ван Чживэнь",
    "Вэнь Чжан",
    "Хун Хуан",
    "Харрисон Лью",
    "На Ин",
    "Ню Бэнь"
  ],
  "actors_dubl": [],
  "trivia": [],
  "trailers": [],
  "seasons": [],
  "voiceActing": [
    "Рус. Проф. многоголосый",
    "Eng.Original"
  ],
  "subtitle": [
    "Рус. полные"
  ],
  "parts": []
}
