{
  "id": 19001,
  "name": "Красный снег",
  "name_eng": "Red Snow",
  "year": 2020,
  "slogan": "",
  "age": null,
  "type": "film",
  "quality": "HD (720p)",
  "imdb": "5.2",
  "imdb_id": "6670074",
  "kinopoisk": null,
  "kinopoisk_id": null,
  "world_art": null,
  "world_art_id": null,
  "time": "",
  "ads": true,
  "premier": "2020-05-15",
  "premier_rus": "2020-05-16",
  "availability": "2020-05-17",
  "activate_time": "2020-05-18 02:59:00",
  "budget": "",
  "fees_use": "",
  "fees_world": "",
  "fees_rus": "",
  "rate_mpaa": "",
  "description": " Дилан, канадский индеец по происхождению, попадает в плен к Талибану. Молодого солдата не перестают терзать воспоминания о погибшей двоюродной сестре.",
  "iframe_url": "",
  "iframe_poster": null,
  "poster": "https://img.imgilall.me/movies/franchise/1/9/0/0/1/0/0/0/0/0/610x900_19001.jpg",
  "country": {
    "1": "США"
  },
  "collection": {
    "12": "Для мужчин"
  },
  "genre": {
    "10": "Зарубежный",
    "7": "Драма"
  },
  "director": [
    ""
  ],
  "screenwriter": [],
  "producer": [],
  "operator": [],
  "composer": [],
  "design": [],
  "editor": [],
  "actors": [
    ""
  ],
  "actors_dubl": [],
  "trivia": [],
  "trailers": [],
  "seasons": [],
  "voiceActing": [
    "Рус. Люб. многоголосый"
  ],
  "subtitle": [],
  "parts": []
}
