{
  "id": 19205,
  "name": "Три мушкетера",
  "name_eng": "The Three Musketeers",
  "year": 1993,
  "slogan": "«Один за всех и все за одного»",
  "age": "12+",
  "type": "film",
  "quality": "FHD (1080p)",
  "imdb": "6.4",
  "imdb_id": "0108333",
  "kinopoisk": "6.3",
  "kinopoisk_id": "4743",
  "world_art": null,
  "world_art_id": null,
  "time": "105 мин. / 01:45",
  "ads": true,
  "premier": "1993-11-12",
  "premier_rus": "1993-11-13",
  "availability": "1993-11-14",
  "activate_time": "2020-05-19 15:49:00",
  "budget": "$30 000 000",
  "fees_use": "$53 898 845",
  "fees_world": null,
  "fees_rus": null,
  "rate_mpaa": "PG",
  "description": "Настоящая любовь и опасные приключения, о которых другие только мечтают, стали буднями для трех мушкетеров. Эти истинные рыцари без страха и упрека не признают никаких законов, кроме закона чести.Их нельзя поставить на колени, потому что они преклоняются только перед отвагой и мужеством.",
  "iframe_url": "",
  "iframe_poster": null,
  "poster": "https://img.imgilall.me/movies/franchise/1/9/2/0/5/0/0/0/0/0/610x900_19205.jpg",
  "country": {
    "1": "США",
    "2": "Великобритания",
    "49": "Австрия"
  },
  "collection": [],
  "genre": {
    "9": "Приключения",
    "33": "Семейный",
    "19": "Комедия",
    "17": "Боевик",
    "8": "Мелодрама"
  },
  "director": [
    "Стивен Херек"
  ],
  "screenwriter": [
    "Дэвид Локери",
    "Александр Дюма отец"
  ],
  "producer": [
    "Джон Эвнет",
    "Роджер Бирнбаум",
    "Нед Дауд"
  ],
  "operator": [
    "Дин Семлер"
  ],
  "composer": [
    "Майкл Кэмен"
  ],
  "design": [
    "Вульф Крёгер",
    "Херта Харайтер",
    "Ричард Холлэнд"
  ],
  "editor": [
    "Джон Ф. Линк"
  ],
  "actors": [
    "Чарли Шин",
    "Кифер Сазерленд",
    "Крис О’Доннелл",
    "Оливер Платт",
    "Тим Карри",
    "Ребекка Де Морнэй",
    "Габриель Анвар",
    "Майкл Уинкотт",
    "Пол МакГанн",
    "Жюли Дельпи"
  ],
  "actors_dubl": [
    "Владимир Антоник",
    "Рудольф Панков",
    "Борис Шувалов",
    "Вадим Андреев",
    "Александр Белявский"
  ],
  "trivia": [
    "Фильм снят по мотивам романа Александра Дюма отца «Три мушкетёра» (Les trois mousquetaires, 1844).",
    "Изначально Чарли Шин планировался на роль Портоса, но в итоге сыграл Арамиса.",
    "Кифер Сазерленд, Крис О’Доннел и Оливер Платт перед началом съемок прошли шестинедельный курс тренировок фехтования и езды на лошади. Чарли Шин свой курс тренировок пропустил, поскольку был занят на съёмках «Горячие головы 2».",
    "Роль Д’Артаньяна предлагалась Брэду Питту и Стивену Дорффу, но актёры отказались.",
    "Для съёмок в различных эпизодах фильма Walt Disney предлагал роли Жан-Клоду Ван Дамму, Джонни Деппу, Кэри Элвису и Гари Олдману.",
    "Вайнона Райдер рассматривалась на роль Миледи де Винтер.",
    "Большая часть фильма была снята в Австрии, в Перхтольдсдорфе, где Ребекка Де Морнэй заканчивала школу и колледж.",
    "Параллельно съёмкам в разработке находилась ещё одна версия фильма соперничающей студии TriStar, к которой были прикреплены Джонни Депп и режиссёр Джеримайя С. Чечик. В конце концов, разработка другого фильма была свернута.",
    "Часть съёмок проходила в Чарльзтауне (Корнуолл, Великобритания) и замке Лэндсии (Бургенланд); также в Лихтенштейне, Мариа-Энцерсдорфе, Хинтербрюлле, Корнойбурге (Нижняя Австрия) и Вене (в частности, в Хофбурге). Одна сцена с погоней была снята в роще Голифа Фоллс у реки Фоуи (Golitha Falls), в Корнуолле. Маленькая гавань в деревне Чарльзтауна стала домом для галеона, участвовавшего в съемках."
  ],
  "trailers": [],
  "seasons": [],
  "voiceActing": [
    "Рус. Проф. многоголосый",
    "Рус. Проф. двухголосый",
    "Рус. Люб. одноголосый",
    "Eng.Original"
  ],
  "subtitle": [
    "Eng. full"
  ],
  "parts": []
}
