{
  "id": 19333,
  "name": "Что с моим сердцем?",
  "name_eng": "Koi Mere Dil Mein Hai",
  "year": 2005,
  "slogan": "—",
  "age": "12+",
  "type": "film",
  "quality": "SD",
  "imdb": "4.7",
  "imdb_id": "0478868",
  "kinopoisk": null,
  "kinopoisk_id": "227500",
  "world_art": null,
  "world_art_id": null,
  "time": "125 мин. / 02:05",
  "ads": false,
  "premier": "2005-06-03",
  "premier_rus": "2005-06-04",
  "availability": "2005-06-05",
  "activate_time": "2020-06-23 14:52:00",
  "budget": null,
  "fees_use": null,
  "fees_world": null,
  "fees_rus": null,
  "rate_mpaa": null,
  "description": "Радж, сын состоятельных родителей, влюблен в учительницу своей младшей сестры, Ашу. Поэтому у него нет никакого желания жениться на Симран, дочке друга отца, которую родители прочат ему в невесты.Да и Симран не горит желанием связывать себя семейными узами с Раджем. Ее сердце отдано талантливому певцу Самиру. Но неожиданно выясняется, что Аша и Самир помолвлены друг с другом...",
  "iframe_url": "",
  "iframe_poster": null,
  "poster": "https://img.imgilall.me/movies/franchise/1/9/3/3/3/0/0/0/0/0/610x900_19333.jpg",
  "country": {
    "26": "Индия"
  },
  "collection": [],
  "genre": {
    "8": "Мелодрама",
    "7": "Драма"
  },
  "director": [
    "Дипак Рамсей"
  ],
  "screenwriter": [
    "Хумаюн Мирза",
    "М. Салим"
  ],
  "producer": [
    "Арджан Дас",
    "Махеш Кумар"
  ],
  "operator": [
    "Удей Тивари"
  ],
  "composer": [],
  "design": [],
  "editor": [],
  "actors": [
    "Дия Мирза",
    "Садашив Амрапуркар",
    "Рита Бхадури",
    "Бирбал",
    "Прияншу Чаттерджи",
    "Сунил Дхаван",
    "Динеш Хингу",
    "Ади Ирани",
    "Кадер Кхан",
    "Рима Лагу"
  ],
  "actors_dubl": [],
  "trivia": [],
  "trailers": [],
  "seasons": [],
  "voiceActing": [
    "Рус. Проф. многоголосый"
  ],
  "subtitle": [],
  "parts": []
}
