{
  "id": 19472,
  "name": "Я весь твой",
  "name_eng": "Je suis à vous tout de suite",
  "year": 2015,
  "slogan": "—",
  "age": null,
  "type": "film",
  "quality": "SD",
  "imdb": "5.9",
  "imdb_id": "4025194",
  "kinopoisk": null,
  "kinopoisk_id": "880223",
  "world_art": null,
  "world_art_id": null,
  "time": "100 мин. / 01:40",
  "ads": true,
  "premier": "2015-08-28",
  "premier_rus": "2015-08-29",
  "availability": "2015-08-30",
  "activate_time": "2020-05-21 12:11:00",
  "budget": null,
  "fees_use": null,
  "fees_world": null,
  "fees_rus": null,
  "rate_mpaa": null,
  "description": "Добродушной Ханне 30 лет. Она очень обаятельна и совсем не умеет говорить «нет». Ханна страдает так называемым «синдромом доброты», доставшимся ей в наследство от отца Омара, социального бакалейщика, и матери Симоны, домашнего психолога. Несмотря на доброту, Ханне никак не удается найти общий язык с братом Хакимом, сосредоточенным на своем происхождении и религии. Пока одно непредвиденное событие не заставляет Ханну и Хакима сблизиться...",
  "iframe_url": "",
  "iframe_poster": null,
  "poster": "https://img.imgilall.me/movies/franchise/1/9/4/7/2/0/0/0/0/0/610x900_19472.jpg",
  "country": {
    "9": "Франция"
  },
  "collection": [],
  "genre": {
    "19": "Комедия"
  },
  "director": [
    "Байа Касми"
  ],
  "screenwriter": [
    "Байа Касми",
    "Мишель Леклерк"
  ],
  "producer": [
    "Кэролайн Адриан",
    "Антуан Гандобер",
    "Фабрис Голдштейн"
  ],
  "operator": [
    "Гийом Дефонтен"
  ],
  "composer": [
    "Жером Бенсуссан"
  ],
  "design": [
    "Жан-Марк Чан Тан Ба",
    "Kenza Mehadji",
    "Мелани Готье"
  ],
  "editor": [
    "Моника Колеман"
  ],
  "actors": [
    "Вимала Понс",
    "Mehdi Djaadi",
    "Аньес Жауи",
    "Рамзи Бедиа",
    "Лорен Капеллуто",
    "Клаудия Тагбо",
    "Камелия Жордана",
    "Анемон",
    "Зинедин Суалем",
    "Брюно Подалидес"
  ],
  "actors_dubl": [],
  "trivia": [],
  "trailers": [],
  "seasons": [],
  "voiceActing": [
    "Рус. Люб. многоголосый"
  ],
  "subtitle": [],
  "parts": []
}
