{
  "id": 19497,
  "name": "Эйс Вентура младший",
  "name_eng": "Ace Ventura Jr: Pet Detective",
  "year": 2009,
  "slogan": "«He's the burping, farting, snorting, spitting image of his dad»",
  "age": null,
  "type": "film",
  "quality": "SD",
  "imdb": "2.1",
  "imdb_id": "0844029",
  "kinopoisk": "2.0",
  "kinopoisk_id": "260988",
  "world_art": null,
  "world_art_id": null,
  "time": "93 мин. / 01:33",
  "ads": false,
  "premier": "2009-03-01",
  "premier_rus": "2009-03-02",
  "availability": "2009-03-03",
  "activate_time": "2020-05-22 09:34:00",
  "budget": "$7 500 000",
  "fees_use": null,
  "fees_world": "$117 421",
  "fees_rus": null,
  "rate_mpaa": "PG",
  "description": "Сын эксцентричного детектива вступает на путь своего отца после того, как его мать ошибочно арестовали за кражу детеныша панды.",
  "iframe_url": "",
  "iframe_poster": null,
  "poster": "https://img.imgilall.me/movies/franchise/1/9/4/9/7/0/0/0/0/0/610x900_19497.jpg",
  "country": {
    "1": "США"
  },
  "collection": [],
  "genre": {
    "25": "Криминал",
    "9": "Приключения",
    "33": "Семейный",
    "19": "Комедия"
  },
  "director": [
    "Дэвид М. Эванс"
  ],
  "screenwriter": [
    "Джефф Сэнк",
    "Джейсон Хеймберг",
    "Джастин Хеймберг"
  ],
  "producer": [
    "Дэвид С. Робинсон",
    "Джеймс Дж. Робинсон",
    "Гай МакЭлвайн"
  ],
  "operator": [
    "Марк Ирвин"
  ],
  "composer": [
    "Лаура Карпман"
  ],
  "design": [
    "Марк Гарнер",
    "Беверли Сэфьер",
    "Шон МакФол"
  ],
  "editor": [
    "Дэнни Сэфир"
  ],
  "actors": [
    "Джош Флиттер",
    "Эмма Локхарт",
    "Энн Кьюсак",
    "Каллен Дуглас",
    "Арт ЛаФлёр",
    "Остин Роджерс",
    "Рид Александр",
    "Карина Конти II",
    "Ральф Уэйт",
    "Эшли Милчман"
  ],
  "actors_dubl": [],
  "trivia": [],
  "trailers": [],
  "seasons": [],
  "voiceActing": [
    "Укр. Проф. Двоголосий",
    "Eng.Original"
  ],
  "subtitle": [],
  "parts": []
}
