{
  "id": 19494,
  "name": "Автостоп",
  "name_eng": "",
  "year": 1991,
  "slogan": "—",
  "age": "0+",
  "type": "film",
  "quality": "SD",
  "imdb": "5.8",
  "imdb_id": "0099075",
  "kinopoisk": "5.8",
  "kinopoisk_id": "43568",
  "world_art": null,
  "world_art_id": null,
  "time": "56 мин.",
  "ads": true,
  "premier": null,
  "premier_rus": null,
  "availability": null,
  "activate_time": "2020-05-21 15:08:00",
  "budget": null,
  "fees_use": null,
  "fees_world": null,
  "fees_rus": null,
  "rate_mpaa": null,
  "description": "Итальянец приезжает на машине в Россию и подсаживает к себе беременную женщину, направляющуюся рожать в больницу. Позже их догоняет на мотоцикле ее муж и, запихнув мотоцикл в багажник, тоже залезает в иностранный автомобиль. Когда до больницы остается всего несколько километров, они понимают, что туда им уже не успеть.",
  "iframe_url": "",
  "iframe_poster": null,
  "poster": "https://img.imgilall.me/movies/franchise/1/9/4/9/4/0/0/0/0/0/610x900_19494.jpg",
  "country": {
    "24": "СССР",
    "8": "Италия",
    "10": "Швейцария"
  },
  "collection": [],
  "genre": {
    "19": "Комедия",
    "7": "Драма"
  },
  "director": [
    "Никита Михалков"
  ],
  "screenwriter": [
    "Никита Михалков",
    "Рустам Ибрагимбеков"
  ],
  "producer": [],
  "operator": [
    "Франко Ди Джакомо"
  ],
  "composer": [
    "Эдуард Артемьев"
  ],
  "design": [
    "Владимир Аронин",
    "Ирина Гинно",
    "Росселла Сканагатта"
  ],
  "editor": [
    "Энцо Меникони"
  ],
  "actors": [
    "Массимо Вентурьелло",
    "Нина Русланова",
    "Владимир Гостюхин",
    "Джорджо Бьявати",
    "Любовь Соколова",
    "Лариса Удовиченко",
    "Вирджиния Брайант",
    "Алессандра Баранска",
    "Джанни Берсани",
    "Тоти Д`Аурелио"
  ],
  "actors_dubl": [],
  "trivia": [],
  "trailers": [],
  "seasons": [],
  "voiceActing": [
    "Рус. Оригинальный"
  ],
  "subtitle": [],
  "parts": []
}
