{
  "id": 19578,
  "name": "Старухи",
  "name_eng": "",
  "year": 2003,
  "slogan": "—",
  "age": "0+",
  "type": "film",
  "quality": "SD",
  "imdb": "6.9",
  "imdb_id": "0399437",
  "kinopoisk": "7.4",
  "kinopoisk_id": "77349",
  "world_art": null,
  "world_art_id": null,
  "time": "103 мин. / 01:43",
  "ads": true,
  "premier": "2004-01-21",
  "premier_rus": "2004-01-01",
  "availability": "2004-01-02",
  "activate_time": "2020-05-24 23:40:00",
  "budget": null,
  "fees_use": null,
  "fees_world": null,
  "fees_rus": "$11 500",
  "rate_mpaa": null,
  "description": "В далеком, богом забытом селе живут несколько старух. Несмотря на нищету тихой деревеньки, они не жалуются на жизнь, не унывают и умирать не собираются. Внезапно в деревню приезжает на постоянное жительство семья узбеков. Приезжие заводят хозяйство и устраивают свою жизнь, но кое-кому в деревне не нравится «засилье инородцев»...",
  "iframe_url": "",
  "iframe_poster": null,
  "poster": "https://img.imgilall.me/movies/franchise/1/9/5/7/8/0/0/0/0/0/610x900_19578.jpg",
  "country": {
    "5": "Россия"
  },
  "collection": [],
  "genre": {
    "7": "Драма"
  },
  "director": [
    "Геннадий Сидоров"
  ],
  "screenwriter": [
    "Геннадий Сидоров"
  ],
  "producer": [
    "Геннадий Сидоров"
  ],
  "operator": [
    "Анатолий Петрига"
  ],
  "composer": [
    "Андрей Худяков",
    "Далер Назаров"
  ],
  "design": [
    "Владимир Ярин",
    "Алексей Чернов"
  ],
  "editor": [],
  "actors": [
    "Валентина Березуцкая",
    "Тамара Климова",
    "Анастасия Любимова",
    "Зоя Норкина",
    "Галина Смирнова",
    "Бронислава Захарова",
    "Нина Корнилова",
    "Сергей Макаров",
    "Геннадий Сидоров",
    "Рано Кубаева"
  ],
  "actors_dubl": [],
  "trivia": [],
  "trailers": [],
  "seasons": [],
  "voiceActing": [
    "Рус. Оригинальный"
  ],
  "subtitle": [
    "Рус. форсированные"
  ],
  "parts": []
}
