{
  "id": 19604,
  "name": "Любовь есть война",
  "name_eng": "Love is War",
  "year": 2019,
  "slogan": "—",
  "age": null,
  "type": "film",
  "quality": "HD (720p)",
  "imdb": "7.2",
  "imdb_id": "10799940",
  "kinopoisk": null,
  "kinopoisk_id": "1295239",
  "world_art": null,
  "world_art_id": null,
  "time": "111 мин. / 01:51",
  "ads": true,
  "premier": "2019-09-27",
  "premier_rus": "2019-09-28",
  "availability": "2019-09-29",
  "activate_time": "2020-05-22 01:13:00",
  "budget": "",
  "fees_use": "",
  "fees_world": "",
  "fees_rus": "",
  "rate_mpaa": "",
  "description": "Когда муж и жена становятся кандидатами на пост губернатора от двух противоборствующих партий, разгорается настоящее пламя. Смогут ли они сохранить брак в погоне за властью?",
  "iframe_url": "",
  "iframe_poster": null,
  "poster": "https://img.imgilall.me/movies/franchise/1/9/6/0/4/0/0/0/0/0/610x900_19604.jpg",
  "country": {
    "106": "Нигерия"
  },
  "collection": [],
  "genre": {
    "10": "Зарубежный",
    "7": "Драма"
  },
  "director": [
    "Омони Оболи"
  ],
  "screenwriter": [
    "Chinaza Onuzo"
  ],
  "producer": [
    "Tomi Adeoye",
    "Омони Оболи",
    "Chinaza Onuzo"
  ],
  "operator": [
    "Adekunle Nodash Adejuyigbe"
  ],
  "composer": [
    "Kolade Morakinyo"
  ],
  "design": [],
  "editor": [],
  "actors": [
    "Shaffy Bello",
    "William Benson",
    "Yemi Blaq",
    "Феми Бренч",
    "Jide Kosoko",
    "Damilare Kuku",
    "Акин Льюис",
    "Бимбо Мануэль",
    "Richard Mofe-Damijo",
    "Омони Оболи"
  ],
  "actors_dubl": [],
  "trivia": [],
  "trailers": [],
  "seasons": [],
  "voiceActing": [
    "Рус. Люб. многоголосый"
  ],
  "subtitle": [],
  "parts": []
}
