{
  "id": 19707,
  "name": "Злая няня",
  "name_eng": "Evil Nanny",
  "year": 2016,
  "slogan": "—",
  "age": null,
  "type": "film",
  "quality": "SD",
  "imdb": "4.7",
  "imdb_id": "6354166",
  "kinopoisk": "4.8",
  "kinopoisk_id": "1021190",
  "world_art": null,
  "world_art_id": null,
  "time": "90 мин. / 01:30",
  "ads": true,
  "premier": "2016-12-27",
  "premier_rus": "2016-12-28",
  "availability": "2016-12-29",
  "activate_time": "2020-06-23 17:34:00",
  "budget": null,
  "fees_use": null,
  "fees_world": null,
  "fees_rus": null,
  "rate_mpaa": null,
  "description": "Молодая пара нанимает няню для своих детей. Поначалу дети ладят с милой девушкой, но после произошедшего инцидента родители решают уволить её. Однако няня уже решила превратить жизнь семьи в кошмар, и так просто избавиться от неё не получится.",
  "iframe_url": "",
  "iframe_poster": null,
  "poster": "https://img.imgilall.me/movies/franchise/1/9/7/0/7/0/0/0/0/0/610x900_19707.jpg",
  "country": {
    "1": "США"
  },
  "collection": [],
  "genre": {
    "13": "Триллер"
  },
  "director": [
    "Джаред Кон"
  ],
  "screenwriter": [
    "Наоми Л. Селфман"
  ],
  "producer": [
    "Дэвид Майкл Лэтт",
    "Пол Бейлс",
    "Дэвид Л. Гарбер"
  ],
  "operator": [
    "Лаура Бет Лав"
  ],
  "composer": [
    "Крис Кано",
    "Крис Риденауа"
  ],
  "design": [
    "David Peters",
    "Джессика Завала"
  ],
  "editor": [
    "Роб Паллатина"
  ],
  "actors": [
    "Линдсей Илстон",
    "Nicole Sterling",
    "Мэттью Полкамп",
    "Cooper Fontaine",
    "Стефен Баррингтон",
    "Эйприл МакКалло",
    "Билл Дэвлин",
    "Parker Six Rimawi",
    "Carl Chao",
    "Деметриус Стеар"
  ],
  "actors_dubl": [],
  "trivia": [],
  "trailers": [],
  "seasons": [],
  "voiceActing": [
    "Рус. Люб. многоголосый"
  ],
  "subtitle": [],
  "parts": []
}
