{
  "id": 1975,
  "name": "Рио",
  "name_eng": "Rio",
  "year": 2011,
  "slogan": "«Он отправляется в самое удивительное и волшебное место на Земле... домой»",
  "age": "0+",
  "type": "cartoon",
  "quality": "FHD (1080p)",
  "imdb": "6.9",
  "imdb_id": "1436562",
  "kinopoisk": "7.5",
  "kinopoisk_id": "465674",
  "world_art": null,
  "world_art_id": null,
  "time": "96 мин. / 01:36",
  "ads": false,
  "premier": "2011-03-22",
  "premier_rus": "2011-04-07",
  "availability": null,
  "activate_time": "2018-08-31 17:40:04",
  "budget": "$90 000 000",
  "fees_use": "$143 619 809",
  "fees_world": "$483 866 518",
  "fees_rus": "$24 870 122",
  "rate_mpaa": "G",
  "description": "Попугай-зануда оставляет свою уютную сытую жизнь в клетке и из Миннесоты отправляется в Рио-де-Жанейро, город грез всех и каждого. Неминуемые встречи, препятствия, опасности и любовь к последней представительнице его рода заставляют нашего героя по-другому посмотреть на мир и из скучного домоседа превратиться в милого симпатягу, узнавшего цену дружбе и смелости.",
  "iframe_url": "",
  "iframe_poster": null,
  "poster": "https://img.imgilall.me/movies/franchise/1/9/7/5/0/0/0/0/0/0/610x900_1975.jpg",
  "country": {
    "1": "США"
  },
  "collection": {
    "18": "Про животных"
  },
  "genre": {
    "37": "Детский",
    "34": "Полнометражный",
    "10": "Зарубежный"
  },
  "director": [
    "Карлос Салдана"
  ],
  "screenwriter": [
    "Дон Раймер",
    "Джошуа Стернин",
    "Джеффри Вентимилья"
  ],
  "producer": [
    "Брюс Андерсон",
    "Джон С. Донкин",
    "Крис Уэдж"
  ],
  "operator": [
    "Ренато Фалькао"
  ],
  "composer": [
    "Джон Пауэлл"
  ],
  "design": [
    "Мелани Мартини"
  ],
  "editor": [
    "Гарри Хитнер"
  ],
  "actors": [
    "Джесси Айзенберг",
    "Энн Хэтэуэй",
    "Джейми Фокс",
    "Уилл Ай Эм",
    "Родриго Санторо",
    "Карен Дишер",
    "Карлос Понсе",
    "Джордж Лопес",
    "Джемейн Клемент",
    "Джейсон Фриккионе"
  ],
  "actors_dubl": [
    "Павел Деревянко",
    "Татьяна Шилина",
    "Илья Колесников",
    "Аркадий Джем",
    "Элиза Мартиросова"
  ],
  "trivia": [
    "В мультфильме время от времени на втором плане можно увидеть птиц — персонажей популярной игры «Angry Birds». Интересно, что игра «Angry Birds Rio» основана на сюжете этого мультфильма.",
    "В русской версии мультфильма вместо песни «Fly Love», исполняемой Джейми Фоксом на английском языке, звучит песня «Ararinha», в исполнении Карлиньюса Брауна на португальском языке. В официальном саундтреке мультфильма эта песня отсутствует."
  ],
  "trailers": [
    {
      "name": "трейлер №1",
      "number": 1,
      "iframe_poster": null,
      "season": null,
      "iframe_url": ""
    }
  ],
  "seasons": [],
  "voiceActing": [
    "Рус. Дублированный"
  ],
  "subtitle": [
    "Рус. форсированные"
  ],
  "parts": [
    1973,
    1975
  ]
}
