{
  "id": 19843,
  "name": "Опустошение",
  "name_eng": "Desolation",
  "year": 2017,
  "slogan": "«Hollywood is to DIE for»",
  "age": null,
  "type": "film",
  "quality": "SD",
  "imdb": "4.8",
  "imdb_id": "4444798",
  "kinopoisk": null,
  "kinopoisk_id": "902284",
  "world_art": null,
  "world_art_id": null,
  "time": "90 мин. / 01:30",
  "ads": false,
  "premier": "2017-10-25",
  "premier_rus": "2017-10-26",
  "availability": "2017-10-27",
  "activate_time": "2020-06-02 12:10:00",
  "budget": null,
  "fees_use": "$18 490",
  "fees_world": null,
  "fees_rus": null,
  "rate_mpaa": null,
  "description": "Кэти однажды заводит знакомство с популярными актером. Между двумя людьми вскоре завязывается роман, и Кэти получает возможность переехать в Лос-Анджелес. Казалось бы, о чем еще можно мечтать? Но в итоге девушке придется бороться за жизнь, ведь в новом доме её поджидает масса неприятных сюрпризов.",
  "iframe_url": "",
  "iframe_poster": null,
  "poster": "https://img.imgilall.me/movies/franchise/1/9/8/4/3/0/0/0/0/0/610x900_19843.jpg",
  "country": {
    "1": "США"
  },
  "collection": [],
  "genre": {
    "13": "Триллер"
  },
  "director": [
    "Дэвид Москоу"
  ],
  "screenwriter": [
    "Крэйг Валендзяк",
    "Matthew McCarty"
  ],
  "producer": [
    "Люк Эдвардс",
    "Дэвид Харрис",
    "Тодд Ремис"
  ],
  "operator": [
    "Дэрин Моран"
  ],
  "composer": [
    "Мацей Зилински"
  ],
  "design": [
    "Марк Бэнкинс",
    "Сэм Хенсен",
    "Сандра Элгуд"
  ],
  "editor": [
    "Джоэль Плотч"
  ],
  "actors": [
    "Кэйли Флеминг",
    "Рэймонд Дж. Бэрри",
    "Доминик Гарсиа-Лоридо",
    "Брок Келли",
    "Нинджа Н. Деву",
    "Мария Волк",
    "Александра Луккези",
    "Шон Майкл Ховард",
    "Эндрю Билгор",
    "Kyle June Williams"
  ],
  "actors_dubl": [],
  "trivia": [],
  "trailers": [],
  "seasons": [],
  "voiceActing": [
    "Рус. Проф. многоголосый"
  ],
  "subtitle": [],
  "parts": []
}
