{
  "id": 19917,
  "name": "Мебиус",
  "name_eng": "Moebius",
  "year": 1996,
  "slogan": "—",
  "age": "16+",
  "type": "film",
  "quality": "SD",
  "imdb": "6.8",
  "imdb_id": "0117069",
  "kinopoisk": "6.8",
  "kinopoisk_id": "58867",
  "world_art": null,
  "world_art_id": null,
  "time": "88 мин. / 01:28",
  "ads": false,
  "premier": "1996-10-17",
  "premier_rus": "1996-10-18",
  "availability": "1996-10-19",
  "activate_time": "2020-06-24 16:56:00",
  "budget": "$250 000",
  "fees_use": null,
  "fees_world": null,
  "fees_rus": null,
  "rate_mpaa": null,
  "description": "В лабиринтах тоннелей метро Буэнос-Айреса начинают происходить странные вещи. Внезапно бесследно исчезают один из поездов вместе с пассажирами. Иногда в тоннелях можно услышать звук проезжающего в соответствии с расписанием поезда, но его никто не видит. Начинается расследование…",
  "iframe_url": "",
  "iframe_poster": null,
  "poster": "https://img.imgilall.me/movies/franchise/1/9/9/1/7/0/0/0/0/0/610x900_19917.jpg",
  "country": {
    "22": "Аргентина"
  },
  "collection": [],
  "genre": {
    "11": "Фантастика",
    "24": "Детектив",
    "13": "Триллер"
  },
  "director": [
    "Густаво Москера Р."
  ],
  "screenwriter": [
    "Педро Кристиани",
    "Габриэль Лифшиц",
    "Артуро Оньятавия"
  ],
  "producer": [
    "Мария Анхелес Мира",
    "Густаво Москера Р."
  ],
  "operator": [
    "Абель Пеньяльба"
  ],
  "composer": [
    "Мариано Нуньес Уэст"
  ],
  "design": [
    "Мария Анхелес Мира",
    "Фредерико Островский"
  ],
  "editor": [
    "Алехандро Бродерсон",
    "Пабло Джорджелли"
  ],
  "actors": [
    "Гильермо Анджелелли",
    "Роберто Карнаги",
    "Аннабелла Леви",
    "Хорхе Петраглиа",
    "Мигель Анхель Палуди",
    "Фернандо Льоса",
    "Мартин Аджемян",
    "Даниэль Ди Биасе",
    "Жан Пьер Регерра",
    "Мартин Павловски"
  ],
  "actors_dubl": [],
  "trivia": [
    "По мотивам рассказа А. Дж. Дейча «Лист Мёбиуса»."
  ],
  "trailers": [],
  "seasons": [],
  "voiceActing": [
    "Рус. Проф. двухголосый"
  ],
  "subtitle": [],
  "parts": []
}
