{
  "id": 19943,
  "name": "Джеки в царстве женщин",
  "name_eng": "Jacky au royaume des filles",
  "year": 2013,
  "slogan": "«Самая смелая комедия»",
  "age": "18+",
  "type": "film",
  "quality": "HD (720p)",
  "imdb": "6.1",
  "imdb_id": "2382422",
  "kinopoisk": "6.1",
  "kinopoisk_id": "707290",
  "world_art": null,
  "world_art_id": null,
  "time": "90 мин. / 01:30",
  "ads": true,
  "premier": "2014-01-25",
  "premier_rus": "2015-05-14",
  "availability": "2015-05-15",
  "activate_time": "2020-05-25 18:26:00",
  "budget": null,
  "fees_use": null,
  "fees_world": "$854 529",
  "fees_rus": "$86 449",
  "rate_mpaa": "G",
  "description": "В Демократической Республике Бубун, где мужчины и женщины поменялись ролями, живет Джеки, идеальный парень на выданье: он отлично готовит, скромно одевается и мечтает попасть на бал, где его обязательно заметит прекрасная Полконесса на белом коне. К своему удивлению, застенчивый жених быстро окажется в центре дворцовой интриги, но на пути к мужскому счастью его не остановят ни коварная родня, ни жестокая диктатура.",
  "iframe_url": "",
  "iframe_poster": null,
  "poster": "https://img.imgilall.me/movies/franchise/1/9/9/4/3/0/0/0/0/0/610x900_19943.jpg",
  "country": {
    "9": "Франция"
  },
  "collection": {
    "82": "Молодежные комедии"
  },
  "genre": {
    "19": "Комедия",
    "8": "Мелодрама"
  },
  "director": [
    "Риад Саттуф"
  ],
  "screenwriter": [
    "Риад Саттуф"
  ],
  "producer": [
    "Энн-Доминик Туссэн",
    "Ника Априашвили",
    "Мирза Давитая"
  ],
  "operator": [
    "Жози Дешайе"
  ],
  "composer": [
    "Риад Саттуф"
  ],
  "design": [
    "Ален Гюффруа",
    "Филипп Лакомблез",
    "Оливье Лижан"
  ],
  "editor": [
    "Вирджиния Брюант"
  ],
  "actors": [
    "Венсан Лакост",
    "Шарлотта Генсбур",
    "Дидье Бурдон",
    "Анемон",
    "Валери Боннетон",
    "Мишель Хазанавичус",
    "Ноэми Львовски",
    "Лор Марсак",
    "Уилльям Лебхил",
    "Антони Сониго"
  ],
  "actors_dubl": [
    "Станислав Войнич",
    "Анна Слынько",
    "Сергей Куприянов",
    "Татьяна Кулакова",
    "Юлия Рудина"
  ],
  "trivia": [
    "В момент, когда Джеки переключает кашепровод на обратный ход, на дисплее показывается расположение труб по всей стране. В этот момент отчетливо видно, что это физическая карта Грузии. Именно в этой стране происходили съемки фильма."
  ],
  "trailers": [],
  "seasons": [],
  "voiceActing": [
    "Рус. Дублированный"
  ],
  "subtitle": [],
  "parts": []
}
