{
  "id": 20083,
  "name": "Луни Тюнз: Снова в деле",
  "name_eng": "Looney Tunes: Back in Action",
  "year": 2003,
  "slogan": "«The biggest animated adventure ever to hit real life»",
  "age": "12+",
  "type": "film",
  "quality": "FHD (1080p)",
  "imdb": "5.7",
  "imdb_id": "0318155",
  "kinopoisk": "6.2",
  "kinopoisk_id": "2518",
  "world_art": null,
  "world_art_id": null,
  "time": "93 мин. / 01:33",
  "ads": true,
  "premier": "2003-11-09",
  "premier_rus": "2003-12-18",
  "availability": "2003-12-19",
  "activate_time": "2020-05-26 16:05:00",
  "budget": "$80 000 000",
  "fees_use": "$20 991 364",
  "fees_world": "+ $47 523 480 = $68 514 844",
  "fees_rus": "$730 000",
  "rate_mpaa": "PG",
  "description": "Анимационные герои: Багс Банни и Даффи Дак - в реальной жизни! Поиски пропавшего человека и огромного мифического алмаза приводят Багса и Даффи сначала в Лас-Вегас, а затем в непроходимые джунгли Африки…",
  "iframe_url": "",
  "iframe_poster": null,
  "poster": "https://img.imgilall.me/movies/franchise/2/0/0/8/3/0/0/0/0/0/610x900_20083.jpg",
  "country": {
    "1": "США",
    "20": "Германия"
  },
  "collection": {
    "71": "Про путешествия",
    "21": "Для молодёжи"
  },
  "genre": {
    "9": "Приключения",
    "11": "Фантастика",
    "6": "Фэнтези",
    "33": "Семейный",
    "19": "Комедия"
  },
  "director": [
    "Джо Данте",
    "Эрик Голдберг"
  ],
  "screenwriter": [
    "Ларри Дойл"
  ],
  "producer": [
    "Берни Голдманн",
    "Джоэль Саймон",
    "Паула Вайнштейн"
  ],
  "operator": [
    "Дин Канди"
  ],
  "composer": [
    "Джерри Голдсмит"
  ],
  "design": [
    "Билл Брзески",
    "Пол Сонски",
    "Стелла Ваккаро"
  ],
  "editor": [
    "Рик Финни",
    "Маршалл Харви"
  ],
  "actors": [
    "Брендан Фрейзер",
    "Дженна Элфман",
    "Стив Мартин",
    "Тимоти Далтон",
    "Хэзер Локлир",
    "Джоан Кьюсак",
    "Билл Голдберг",
    "Дон Стэнтон",
    "Дэн Стэнтон",
    "Дик Миллер"
  ],
  "actors_dubl": [
    "Всеволод Кузнецов",
    "Любовь Германова",
    "Алексей Колган",
    "Владимир Антоник",
    "Ольга Голованова"
  ],
  "trivia": [
    "Момент для выхода на экраны был выбран крайне неудачно. Вначале планировалось устроить премьеру в июле, но это решение пришлось изменить, т. к. на экраны вышел мультфильм «В поисках Немо» (2003) и мгновенно стал кассовым успехом. Релиз фильма пришёлся на ноябрь, однако произошло это сразу после выхода фильмов «Братец медвежонок» и «Эльф» и незадолго до премьер фильмов «Кот» и «Властелин колец: Возвращение короля». Вдобавок ко всему в компании Warner Bros. ещё не пришли в себя после проблем с производством фильма и превышением сметы, поэтому устраивать фильму «Луни Тьюнз: Снова в деле» шумную рекламную кампанию не стали.",
    "Брендан Фрейзер так хорошо озвучил Таза, что было решено заменить им постоянного актёра озвучивания Джима Каммингса.",
    "Когда Даффи забирает свои вещи, в коробке видна фотография настоящих братьев Уорнеров — Джека Леонарда (1892-1978) и Гарри Морриса (1881-1958), основателей студии Warner Bros.",
    "Фильм планировался как продолжение картины «Космический джем» (Джо Питка, 1996). Считалось, что в главной роли сыграет Джеки Чан, однако дальше замысла дело так и не пошло.",
    "По традиции все анимационные персонажи в фильме нарисованы вручную. Трёхмерная компьютерная анимация использовалась только при создании объектов вроде космических кораблей, ракеты Вайла И. Койота, робота-собаки и морковок Багза.",
    "Элмер Фадд гонится за Багзом и Даффи по трём всемирно известным картинам. Это «Воскресный день на острове Гранд-Жатт» Жоржа Сёра (1859-1891) из Чикагского института искусств, «Постоянство памяти» Сальвадора Дали (1904-1989) из Музея современного искусства в Нью-Йорке и «Крик» Эдварда Мунка (1863-1944) из собрания музея Мунка в Осло.",
    "Автомобиль в фильме — это Tuscan независимой британской компании TVR. В Великобритании каждый год собирается порядка 1 000 таких автомобилей. На момент выхода фильма на экраны речи о сборке в США не шло.",
    "Во время драки в казино Даффи советует Ди Джею укусить кого-то за ухо. Это отсылка к инциденту с ухом Эвандер Холлифилд, которое в 1997-м году ему откусил боксёр Майк Тайсон.",
    "Когда Элмер Фадд гонится за Багзом и Даффи по музею, фоном звучит сюита из цикла «Картинки с выставки» Модеста Мусоргского (1839-1881) — своеобразной музыкальной прогулки по воображаемой выставочной галерее."
  ],
  "trailers": [
    {
      "name": "трейлер №1",
      "number": 1,
      "iframe_poster": null,
      "season": null,
      "iframe_url": ""
    }
  ],
  "seasons": [],
  "voiceActing": [
    "Tycoon",
    "Eng.Original"
  ],
  "subtitle": [
    "Рус. форсированные"
  ],
  "parts": []
}
