{
  "id": 20168,
  "name": "Путешествия Гулливера",
  "name_eng": "Gulliver's Travels",
  "year": 2010,
  "slogan": "«Чем больше шкаф, тем громче падает»",
  "age": "12+",
  "type": "film",
  "quality": "FHD (1080p)",
  "imdb": "4.9",
  "imdb_id": "1320261",
  "kinopoisk": "5.6",
  "kinopoisk_id": "432723",
  "world_art": null,
  "world_art_id": null,
  "time": "85 мин. / 01:25",
  "ads": false,
  "premier": "2010-12-22",
  "premier_rus": "2011-01-06",
  "availability": "2011-01-07",
  "activate_time": "2020-05-27 15:40:00",
  "budget": "$112 000 000",
  "fees_use": "$42 779 261",
  "fees_world": "+ $194 603 463 = $237 382 724",
  "fees_rus": "$17 158 472",
  "rate_mpaa": "PG",
  "description": "Лемюэль Гулливер, ищущий славы и сенсационного материала, отправляется в Бермудский треугольник, одно из самых таинственных мест планеты. Оттуда шторм уносит его в неизвестном направлении к острову, населенному крошечным народом, благодаря которому Гулливер вырвется из своего тесного мирка в большой мир.",
  "iframe_url": "",
  "iframe_poster": null,
  "poster": "https://img.imgilall.me/movies/franchise/2/0/1/6/8/0/0/0/0/0/610x900_20168.jpg",
  "country": {
    "1": "США"
  },
  "collection": [],
  "genre": {
    "9": "Приключения",
    "6": "Фэнтези",
    "33": "Семейный",
    "19": "Комедия"
  },
  "director": [
    "Роб Леттерман"
  ],
  "screenwriter": [
    "Джо Стиллман",
    "Николас Столлер",
    "Джонатан Свифт"
  ],
  "producer": [
    "Джон Дэвис",
    "Грегори Гудман",
    "Джек Блэк"
  ],
  "operator": [
    "Дэвид Тэттерсолл"
  ],
  "composer": [
    "Генри Джекман"
  ],
  "design": [
    "Гэвин Боке",
    "Роберт Каупер",
    "Фил Харви"
  ],
  "editor": [
    "Алан Эдвард Белл",
    "Николас Де То",
    "Дин Зиммерман"
  ],
  "actors": [
    "Джек Блэк",
    "Джейсон Сигел",
    "Эмили Блант",
    "Аманда Пит",
    "Билли Коннолли",
    "Крис О’Дауд",
    "ТиДжей Миллер",
    "Джеймс Корден",
    "Кэтрин Тейт",
    "Эмманюэль Куатра"
  ],
  "actors_dubl": [
    "Илья Исаев",
    "Евгений Вальц",
    "Марианна Шульц",
    "Татьяна Шитова",
    "Олег Форостенко"
  ],
  "trivia": [
    "Фильм снят по мотивам романа Джонатана Свифта «Путешествия Гулливера» (Gulliver`s Travels, 1726).",
    "Ради роли в «Путешествиях Гулливера» Эмили Блант отказалась от съемок в «Железном человеке 2»."
  ],
  "trailers": [],
  "seasons": [],
  "voiceActing": [
    "Рус. Дублированный",
    "Eng.Original"
  ],
  "subtitle": [
    "Рус. полные"
  ],
  "parts": []
}
