{
  "id": 2026,
  "name": "После нашей эры",
  "name_eng": "After Earth",
  "year": 2013,
  "slogan": "«Danger is real. Fear is a choice»",
  "age": "12+",
  "type": "film",
  "quality": "FHD (1080p)",
  "imdb": "4.8",
  "imdb_id": "1815862",
  "kinopoisk": "5.8",
  "kinopoisk_id": "577285",
  "world_art": null,
  "world_art_id": null,
  "time": "100 мин. / 01:40",
  "ads": false,
  "premier": "2013-05-01",
  "premier_rus": "2013-06-06",
  "availability": null,
  "activate_time": "2018-09-03 17:24:10",
  "budget": "$130 000 000",
  "fees_use": "$60 522 097",
  "fees_world": "$243 611 982",
  "fees_rus": "$17 142 181",
  "rate_mpaa": "PG-13",
  "description": "События разворачиваются через тысячу лет после катастрофы, вынудившей человечество покинуть Землю. Новым домом становится планета под названием Нова Прайм. Легендарный генерал Сайфер Рейдж возвращается с очередного боевого задания в семью, которая раньше обходилась без его родительского внимания, чтобы стать отцом своему 13-летнему сыну Китаю. Во время астероидной бури летательный аппарат с папой и сыном на борту терпит крушение, падая на незнакомую и опасную Землю. И пока Рейдж-старший на последнем дыхании лежит среди обломков своего корабля, сын должен пересечь враждебный ландшафт, чтобы запустить их спасательный маячок. Ни о чем большем юноша в своей жизни не мечтал: быть солдатом, как отец, — его заветное желание. Сегодня у него есть шанс проявить себя.",
  "iframe_url": "",
  "iframe_poster": null,
  "poster": "https://img.imgilall.me/movies/franchise/2/0/2/6/0/0/0/0/0/0/610x900_2026.jpg",
  "country": {
    "1": "США"
  },
  "collection": {
    "21": "Для молодёжи",
    "28": "Про космос"
  },
  "genre": {
    "9": "Приключения",
    "11": "Фантастика",
    "41": "Блокбастер",
    "17": "Боевик",
    "10": "Зарубежный"
  },
  "director": [
    "М. Найт Шьямалан"
  ],
  "screenwriter": [
    "Гэри Уитта",
    "М. Найт Шьямалан",
    "Уилл Смит"
  ],
  "producer": [
    "Джеймс Ласситер",
    "Джада Пинкетт Смит",
    "Калиб Пинкетт"
  ],
  "operator": [
    "Питер Сушицки"
  ],
  "composer": [
    "Джеймс Ньютон Ховард"
  ],
  "design": [
    "Томас Е. Сандерс",
    "Роберт В. Джозеф",
    "Наман Маршалл"
  ],
  "editor": [
    "Стивен Розенблюм"
  ],
  "actors": [
    "Джейден Смит",
    "Уилл Смит",
    "Софи Оконедо",
    "Зои Кравиц",
    "Гленн Моршауэр",
    "Кристофер Хивью",
    "Саша Дхаван",
    "Крис Гир",
    "Диего Клаттенхофф",
    "Дэвид Денман"
  ],
  "actors_dubl": [
    "Кирилл Продолятченко",
    "Станислав Концевич",
    "Инна Королёва",
    "Александр Дзюба",
    "Василий Дахненко"
  ],
  "trivia": [
    "Первый фильм, снимавшийся на цифровую камеру Sony F65, а также первый цифровой фильм М. Найта Шьямалана.",
    "Первый фильм М. Найта Шьямалана, который режиссер снял не по собственному сценарию.",
    "Это второй раз, когда Уилл Смит и Джейден Смит, реальные отец и сын, играют отца и сына на экране. Первый раз был в фильме «В погоне за счастьем» (2006).",
    "Исходная идея фильма была об отце и сыне, которые отправились в поход. После того как их машина слетает в кювет, сыну приходится проделать большой путь через лес, чтобы привести помощь для отца. Понимая, что идея имеет большой потенциал, продюсер Уилл Смит и сценарист Гари Уитта решили перенести основные концепции выживания в более научно-фантастический проект.",
    "Уилл Смит на протяжении нескольких лет хотел поработать с режиссером М. Найтом Шьямаланом, но не было подходящего проекта. Смит лично нанял Шьямалана на должность режиссера этого фильма.",
    "Первоначальный сценарий написал Гари Уитта на основе идеи Уилла Смита. Во время препродакшна режиссер М. Найт Шьямалан сделал несколько набросков сценария просто для ознакомления с материалом, прежде чем передал его Стивену Гейгану, который был главным сценаристом во время продакшна. Также к сценарию приложил руку Марк Боал, который работал над такими фильмами, как «Повелитель бури» (2008) и «Цель номер один» (2012).",
    "300-страничная библия, освещающая историю человечества от решения покинуть Землю вплоть до событий, изображенных в фильме, была подготовлена писателем комиксов Питером Дэвидом (Peter David) вместе с Майклом Яном Фридманом (Michael Jan Friedman) и Робертом Гринбергером (Robert Greenberger). Эта книга послужила источником для всех видов вспомогательных материалов.",
    "Серия спин-офф-романов с подзаголовком «Истории о призраках» (Ghost Stories) была запланирована не только в качестве рекламы фильма, но и для конкретизации некоторых сюжетных моментов. Названия этих книг следующие: «Невинность» (Innocence), «Мир» (Peace), «Загнанный» (Hunted) и «Идеальный зверь» (A Perfect Beast). Все книги написаны Питером Дэвидом (Peter David) вместе с Майклом Яном Фридманом (Michael Jan Friedman) и Робертом Гринбергером (Robert Greenberger) с иллюстрациями Бенито Лобеля (Benito Lobel).",
    "Harper Collins и Insight Editions специально для рекламы фильма выпустили две книги — «После нашей эры: Руководство по выживанию объединенного корпуса рейнджеров» (After Earth: United Ranger Corps Survival Manual) и «После нашей эры: Журнал Китая» (After Earth: Kitai`s Journal).",
    "Хотя это и не было отмечено в титрах, Уилл Смит принимал активное участие в режиссуре фильма. М. Найт Шьямалан в основном отвечал за композицию и места расположения камеры, а также за визуальные аспекты (цвет и дизайн). Уилл Смит лично занимался перформансом Джейдена Смита, диктовал развитие истории и то, каким образом это будет разворачиваться на экране."
  ],
  "trailers": [],
  "seasons": [],
  "voiceActing": [
    "Рус. Дублированный",
    "Укр. Дубльований",
    "Eng.Original"
  ],
  "subtitle": [
    "Рус. полные"
  ],
  "parts": []
}
