{
  "id": 20324,
  "name": "Кто боится Вирджинии Вульф?",
  "name_eng": "Who's Afraid of Virginia Woolf?",
  "year": 1966,
  "slogan": "«It can now be said: 1. Apart from its widespread critical acclaim, it has provoked more discussion, interest and excitement than any other picture in memory. 2. People want to see it - in unprecedented numbers. In its first engagements it has shattered every record in the history of all theatres involved. 3. It has become a significant and extraordinary entertainment event. It is truly a unique motion picture»",
  "age": "16+",
  "type": "film",
  "quality": "SD",
  "imdb": "8.0",
  "imdb_id": "0061184",
  "kinopoisk": "7.9",
  "kinopoisk_id": "490",
  "world_art": null,
  "world_art_id": null,
  "time": "131 мин. / 02:11",
  "ads": false,
  "premier": "1966-06-21",
  "premier_rus": "1966-06-22",
  "availability": "1966-06-23",
  "activate_time": "2020-05-27 16:54:00",
  "budget": "$7 500 000",
  "fees_use": "$28 000 000",
  "fees_world": "+ $5 040 = $28 005 040",
  "fees_rus": null,
  "rate_mpaa": null,
  "description": "Два часа ночи в Новой Англии. Джордж — подавленный профессор истории, женатый на Марте, распутнице, чей отец является ректором колледжа, где преподает Джордж. После двадцати лет брака их союз постоянно скачет от любви к ненависти. Марта любит сравнивать своего слабого супруга со своим сильным отцом, зная, что это злит её мужа. Накануне вечером они отправились на вечеринку факультета, где познакомились с молодыми сотрудниками Ником и Хани. Ник, преподаватель биологии, считает себя сердцеедом, а Хани, по определению Марты, серая мышка. Супружеская пара постарше приглашает вторую зайти в их комфортабельный дом и выпить по рюмочке на прощанье. Всю ночь напролёт они выпивают, танцуют и играют в психологические «игры».",
  "iframe_url": "",
  "iframe_poster": null,
  "poster": "https://img.imgilall.me/movies/franchise/2/0/3/2/4/0/0/0/0/0/610x900_20324.jpg",
  "country": {
    "1": "США"
  },
  "collection": [],
  "genre": {
    "10": "Зарубежный",
    "7": "Драма"
  },
  "director": [
    "Майк Николс"
  ],
  "screenwriter": [
    "Эрнест Леман",
    "Эдвард Олби"
  ],
  "producer": [
    "Эрнест Леман"
  ],
  "operator": [
    "Хаскелл Уэкслер"
  ],
  "composer": [
    "Алекс Норт"
  ],
  "design": [
    "Ричард Силберт",
    "Ирен Шарафф",
    "Джордж Джеймс Хопкинс"
  ],
  "editor": [
    "Сэм О’Стин"
  ],
  "actors": [
    "Элизабет Тейлор",
    "Ричард Бёртон",
    "Джордж Сигал",
    "Сэнди Деннис",
    "Агнес Флэнеган",
    "Фрэнк Флэнеган"
  ],
  "actors_dubl": [],
  "trivia": [
    "Пьеса Эдварда Олби, с громадным успехом поставленная на Бродвее в 1962 году, была куплена компанией за 500 000 долларов США.",
    "В 2013 году лента вошла в Национальный реестр фильмов Библиотеки Конгресса США."
  ],
  "trailers": [],
  "seasons": [],
  "voiceActing": [
    "Рус. Проф. многоголосый",
    "Eng.Original"
  ],
  "subtitle": [],
  "parts": []
}
