{
  "id": 20538,
  "name": "Удалённая местность",
  "name_eng": "Edge of Winter",
  "year": 2016,
  "slogan": "«Nothing is more dangerous than a father's love»",
  "age": null,
  "type": "film",
  "quality": "FHD (1080p)",
  "imdb": "5.4",
  "imdb_id": "4526546",
  "kinopoisk": "5.4",
  "kinopoisk_id": "893311",
  "world_art": null,
  "world_art_id": null,
  "time": "89 мин. / 01:29",
  "ads": true,
  "premier": "2016-08-02",
  "premier_rus": "2016-08-03",
  "availability": "2016-08-04",
  "activate_time": "2020-05-28 14:50:00",
  "budget": null,
  "fees_use": null,
  "fees_world": null,
  "fees_rus": null,
  "rate_mpaa": "R",
  "description": "Напряженная драма об одиноком мужчине, которому выпадает возможность сблизиться с двумя сыновьями, когда бывшая жена, уезжая в отпуск, оставляет их под его присмотром. Но вместо семейной идиллии братьев ждет кошмарная ночь в заброшенной хижине, сотрясаемой ударами снежной бури. Подростки многое откроют о своем малознакомом отце и о том, что они значат для него на самом деле.",
  "iframe_url": "",
  "iframe_poster": null,
  "poster": "https://img.imgilall.me/movies/franchise/2/0/5/3/8/0/0/0/0/0/610x900_20538.jpg",
  "country": {
    "7": "Канада",
    "1": "США"
  },
  "collection": [],
  "genre": {
    "13": "Триллер",
    "7": "Драма"
  },
  "director": [
    "Роберт Коннолли"
  ],
  "screenwriter": [
    "Кайл Мэнн",
    "Роберт Коннолли"
  ],
  "producer": [
    "Джонатан Бронфман",
    "Аарон Барнетт",
    "Кайл Мэнн"
  ],
  "operator": [
    "Норм Ли"
  ],
  "composer": [
    "Брук Блэр",
    "Уилл Блэр"
  ],
  "design": [
    "Крэйг Лэтроп",
    "Андреа Кристоф",
    "Джоэнна Сырокомля"
  ],
  "editor": [
    "Грег ЭнДжи"
  ],
  "actors": [
    "Юэль Киннаман",
    "Том Холланд",
    "Перси Хайнс Уайт",
    "Рашель Лефевр",
    "Россиф Сазерленд",
    "Шайло Фернандес",
    "Шон Бенсон",
    "Патрик Гэрроу"
  ],
  "actors_dubl": [],
  "trivia": [],
  "trailers": [],
  "seasons": [],
  "voiceActing": [
    "Рус. Проф. многоголосый",
    "Eng.Original"
  ],
  "subtitle": [
    "Eng. full"
  ],
  "parts": []
}
