{
  "id": 20560,
  "name": "BBC. Земля под водой",
  "name_eng": "Earth Under Water",
  "year": 2010,
  "slogan": "—",
  "age": null,
  "type": "film",
  "quality": "HD (720p)",
  "imdb": "6.7",
  "imdb_id": "5584618",
  "kinopoisk": null,
  "kinopoisk_id": "1043589",
  "world_art": null,
  "world_art_id": null,
  "time": "—",
  "ads": true,
  "premier": "2010-12-01",
  "premier_rus": "2010-12-02",
  "availability": "2010-12-03",
  "activate_time": "2020-05-28 16:13:00",
  "budget": null,
  "fees_use": null,
  "fees_world": null,
  "fees_rus": null,
  "rate_mpaa": null,
  "description": null,
  "iframe_url": "",
  "iframe_poster": null,
  "poster": "https://img.imgilall.me/movies/franchise/2/0/5/6/0/0/0/0/0/0/610x900_20560.jpg",
  "country": {
    "2": "Великобритания"
  },
  "collection": [],
  "genre": {
    "54": "Документальный"
  },
  "director": [
    "Тильман Ремм"
  ],
  "screenwriter": [
    "Тильман Ремм"
  ],
  "producer": [
    "Тильман Ремм"
  ],
  "operator": [
    "Эд Мэш"
  ],
  "composer": [
    "Кевин Ливи"
  ],
  "design": [],
  "editor": [
    "Саймон Холлэнд"
  ],
  "actors": [
    "Филип Брезертон"
  ],
  "actors_dubl": [],
  "trivia": [],
  "trailers": [],
  "seasons": [],
  "voiceActing": [
    "Рус. Проф. двухголосый",
    "Eng.Original"
  ],
  "subtitle": [],
  "parts": []
}
