{
  "id": 20664,
  "name": "Лепрекон 5: Сосед",
  "name_eng": "Leprechaun in the Hood",
  "year": 2000,
  "slogan": "«Lep in the Hood, come to do no good!»",
  "age": null,
  "type": "film",
  "quality": "FHD (1080p)",
  "imdb": "3.7",
  "imdb_id": "0209095",
  "kinopoisk": "4.0",
  "kinopoisk_id": "229283",
  "world_art": null,
  "world_art_id": null,
  "time": "90 мин. / 01:30",
  "ads": true,
  "premier": "2000-03-28",
  "premier_rus": "2000-03-29",
  "availability": "2000-03-30",
  "activate_time": "2020-05-29 09:04:00",
  "budget": null,
  "fees_use": null,
  "fees_world": null,
  "fees_rus": null,
  "rate_mpaa": "R",
  "description": "Четверо рэпперов решают отомстить влиятельному импресарио Маку Дэдди, который отказался взять их в мир гангстерской музыки, и грабят его офис. В результате в их руках оказывается магическая золотая флейта, принадлежащая когда-то Лепрекону.Но страшное было в другом: они случайно снимают чары с Лепрекона, этого маленького чудовища, пребывавшего в оцепенении последние 25 лет. И теперь только чудо может спасти парней от возмездия коварного монстра...",
  "iframe_url": "",
  "iframe_poster": null,
  "poster": "https://img.imgilall.me/movies/franchise/2/0/6/6/4/0/0/0/0/0/610x900_20664.jpg",
  "country": {
    "1": "США"
  },
  "collection": [],
  "genre": {
    "26": "Ужасы",
    "6": "Фэнтези",
    "19": "Комедия",
    "17": "Боевик"
  },
  "director": [
    "Роб Спера"
  ],
  "screenwriter": [
    "Doug Hall",
    "Джон Хаффман",
    "Марк Джонс"
  ],
  "producer": [
    "Ральф Купер",
    "Брюс Дэвид Эйзен",
    "Майкл П. Флэннигэн"
  ],
  "operator": [
    "Майк Микенс"
  ],
  "composer": [
    "Николас Ривера"
  ],
  "design": [
    "Нава",
    "Элизабет Эннис",
    "Вероника Краули"
  ],
  "editor": [
    "ДжейДжей Джексон"
  ],
  "actors": [
    "Уорвик Дэвис",
    "Айс-Ти",
    "Энтони Монтгомери",
    "Рашаан Нэлл",
    "Ред Грант",
    "Дэн Мартин",
    "Лобо Себастьян",
    "Айвори Оушен",
    "Джек Онг",
    "Барима МакНайт"
  ],
  "actors_dubl": [],
  "trivia": [],
  "trailers": [],
  "seasons": [],
  "voiceActing": [
    "Рус. Проф. двухголосый",
    "А. Гаврилов",
    "Eng.Original"
  ],
  "subtitle": [],
  "parts": [
    20664,
    24307
  ]
}
