{
  "id": 20796,
  "name": "Альбион: Заколдованный жеребец",
  "name_eng": "Albion: The Enchanted Stallion",
  "year": 2016,
  "slogan": "—",
  "age": "12+",
  "type": "film",
  "quality": "SD",
  "imdb": "5.3",
  "imdb_id": "4518260",
  "kinopoisk": "5.4",
  "kinopoisk_id": "893633",
  "world_art": null,
  "world_art_id": null,
  "time": "106 мин. / 01:46",
  "ads": true,
  "premier": "2016-05-07",
  "premier_rus": "2016-05-08",
  "availability": "2016-05-09",
  "activate_time": "2020-06-24 14:52:00",
  "budget": null,
  "fees_use": null,
  "fees_world": null,
  "fees_rus": null,
  "rate_mpaa": null,
  "description": "Волшебный чёрный жеребец перевозит двенадцатилетнюю девочку в мистический мир Альбион, где она обнаруживает, что является ключом к спасению всех его обитателей.",
  "iframe_url": "",
  "iframe_poster": null,
  "poster": "https://img.imgilall.me/movies/franchise/2/0/7/9/6/0/0/0/0/0/610x900_20796.jpg",
  "country": {
    "1": "США",
    "33": "Болгария"
  },
  "collection": [],
  "genre": {
    "9": "Приключения",
    "6": "Фэнтези",
    "33": "Семейный",
    "19": "Комедия",
    "17": "Боевик"
  },
  "director": [
    "Кастиль Лэндон"
  ],
  "screenwriter": [
    "Кастиль Лэндон",
    "Сара Скугал",
    "Райан О’Нан"
  ],
  "producer": [
    "Райан О’Нан",
    "Джозеф Рестайно",
    "Сара Скугал"
  ],
  "operator": [
    "Адриан Коррейя"
  ],
  "composer": [
    "Джордж Каллис"
  ],
  "design": [
    "Лора Венкова",
    "Мина Кэй"
  ],
  "editor": [
    "Трэйси Адамс",
    "Майкл Дарроу"
  ],
  "actors": [
    "Эйвери Арендес",
    "Кастиль Лэндон",
    "Джонни Секвойя",
    "Дженнифер Моррисон",
    "Дебра Мессинг",
    "Джон Клиз",
    "Стивен Дорфф",
    "Дэниэл Шарман",
    "Лиам Макинтайр",
    "Ричард Кайнд"
  ],
  "actors_dubl": [],
  "trivia": [],
  "trailers": [],
  "seasons": [],
  "voiceActing": [
    "Рус. Люб. многоголосый"
  ],
  "subtitle": [],
  "parts": []
}
