{
  "id": 2080,
  "name": "Лига Справедливости против Юных Титанов",
  "name_eng": "Justice League vs. Teen Titans",
  "year": 2016,
  "slogan": "«Two teams. One epic battle»",
  "age": "12+",
  "type": "cartoon",
  "quality": "HD (720p)",
  "imdb": "7.0",
  "imdb_id": "5091548",
  "kinopoisk": "6.6",
  "kinopoisk_id": "957875",
  "world_art": null,
  "world_art_id": null,
  "time": "78 мин. / 01:18",
  "ads": false,
  "premier": "2016-03-26",
  "premier_rus": null,
  "availability": null,
  "activate_time": "2018-09-06 17:55:33",
  "budget": null,
  "fees_use": null,
  "fees_world": null,
  "fees_rus": null,
  "rate_mpaa": "PG-13",
  "description": "После битвы с Легионом Смерти Лига Справедливости внезапно сталкивается с неизвестным могущественным соперником, который умеет захватывать контроль над другими. Робин, пытаясь проявить себя, нарушает приказ и своими действиями ставит миссию под риск. Из-за этого Бэтмен отсылает его в школу Юных Титанов — команду молодых супергероев, которые учатся управлять своими способностями и работать вместе. Теперь, несмотря на непростой характер, Робин вынужден научиться работать в команде и завести друзей. Тем временем над миром нависла огромная угроза — могущественная сила, связанная с одним из Юных Титанов, хочет вторгнуться на Землю и устроить тут ад.",
  "iframe_url": "",
  "iframe_poster": "https://img.imgilall.me/movies/video/1/7/9/5/4/0/0/0/0/0/800x450_17954.jpeg",
  "poster": "https://img.imgilall.me/movies/franchise/2/0/8/0/0/0/0/0/0/0/610x900_2080.jpg",
  "country": {
    "1": "США"
  },
  "collection": {
    "21": "Для молодёжи",
    "2": "DC"
  },
  "genre": {
    "9": "Приключения",
    "11": "Фантастика",
    "6": "Фэнтези",
    "34": "Полнометражный",
    "17": "Боевик",
    "10": "Зарубежный"
  },
  "director": [
    "Сэм Лью"
  ],
  "screenwriter": [
    "Брайан К. Миллер",
    "Алан Барнетт",
    "Джерри Сигел"
  ],
  "producer": [
    "Алан Барнетт",
    "Эми МакКенна",
    "Сэм Реджистер"
  ],
  "operator": [],
  "composer": [
    "Фредерик Вьедманн"
  ],
  "design": [],
  "editor": [
    "Кристофер Д. Лозински"
  ],
  "actors": [
    "Розарио Доусон",
    "Кристофер Горам",
    "Шемар Мур",
    "Джерри О’Коннелл",
    "Джейсон О’Мара",
    "Стюарт Аллан",
    "Джейк Т. Остин",
    "Таисса Фармига",
    "Шон Маэр",
    "Брэндон Су Ху"
  ],
  "actors_dubl": [],
  "trivia": [],
  "trailers": [
    {
      "name": "трейлер №1",
      "number": 1,
      "iframe_poster": null,
      "season": null,
      "iframe_url": ""
    }
  ],
  "seasons": [],
  "voiceActing": [
    "Saint Sound",
    "Eng.Original"
  ],
  "subtitle": [],
  "parts": [
    2080,
    2083,
    2103,
    2290,
    2304,
    2319,
    2360,
    2361,
    2958
  ]
}
