{
  "id": 20892,
  "name": "Защита от дурака",
  "name_eng": "Foolproof",
  "year": 2003,
  "slogan": "«This fall suspense gets intense!»",
  "age": "12+",
  "type": "film",
  "quality": "FHD (1080p)",
  "imdb": "6.5",
  "imdb_id": "0356614",
  "kinopoisk": "6.9",
  "kinopoisk_id": "21018",
  "world_art": null,
  "world_art_id": null,
  "time": "94 мин. / 01:34",
  "ads": false,
  "premier": "2003-10-03",
  "premier_rus": "2004-02-19",
  "availability": "2004-02-20",
  "activate_time": "2020-05-30 04:12:00",
  "budget": "CA$ 8 000 000",
  "fees_use": "$460 978",
  "fees_world": "+ $320 046 = $781 024",
  "fees_rus": "$230 000",
  "rate_mpaa": "R",
  "description": "Кевин, Саманта и Роб - члены частного клуба «Фулпрув» -занимаются разработкой технических способов защиты от грабежей и теоретическим осуществлением самых невыполнимых ограблений. В реальности же они не осуществили ни одного грабежа. Но все меняется, когда бандит Лео – криминальный авторитет, заполучает их план по краже бриллиантов и успешно осуществляет ограбление.Он шантажирует горе-умников, угрожая выдать их как соучастников, требуя разработать план еще одного ограбления, где на кон поставлены 10 млн $. Теперь ребятам нужен не только тщательно разработанный план ограбления, но как никогда раньше надежный способ остаться в живых…",
  "iframe_url": "",
  "iframe_poster": null,
  "poster": "https://img.imgilall.me/movies/franchise/2/0/8/9/2/0/0/0/0/0/610x900_20892.jpg",
  "country": {
    "7": "Канада"
  },
  "collection": [],
  "genre": {
    "25": "Криминал",
    "19": "Комедия",
    "17": "Боевик",
    "13": "Триллер"
  },
  "director": [
    "Уильям Филлипс"
  ],
  "screenwriter": [
    "Уильям Филлипс"
  ],
  "producer": [
    "Билл Хаус",
    "Ситон МакЛин",
    "Колин Брантон"
  ],
  "operator": [
    "Дерек Роджерс"
  ],
  "composer": [
    "Джим МакГрат"
  ],
  "design": [
    "Стефан Ролофф",
    "Адам Колодзей",
    "Линда Мьюир"
  ],
  "editor": [
    "Сьюзэн Шиптон"
  ],
  "actors": [
    "Райан Рейнольдс",
    "Кристин Бут",
    "Джорис Джарски",
    "Дэвид Суше",
    "Шон Грегори Салливан",
    "Тара Слоун",
    "Су Гарай",
    "Дэвид Хьюлетт",
    "Уильям Хаус",
    "Вэй Чой"
  ],
  "actors_dubl": [
    "Александр Рахленко",
    "Ольга Плетнёва",
    "Андрей Бархударов",
    "Вадим Андреев",
    "Дмитрий Филимонов"
  ],
  "trivia": [],
  "trailers": [],
  "seasons": [],
  "voiceActing": [
    "Рус. Дублированный",
    "Рус. Проф. многоголосый",
    "М. Яроцкий",
    "Eng.Original"
  ],
  "subtitle": [
    "Рус. полные"
  ],
  "parts": []
}
