{
  "id": 20935,
  "name": "Измученные походом",
  "name_eng": "Bushwhacked",
  "year": 1995,
  "slogan": "«They wanted a great adventure. What they got was «Mad Max» Grabelski»",
  "age": "16+",
  "type": "film",
  "quality": "HD (720p)",
  "imdb": "5.6",
  "imdb_id": "0112602",
  "kinopoisk": "7.1",
  "kinopoisk_id": "9902",
  "world_art": null,
  "world_art_id": null,
  "time": "90 мин. / 01:30",
  "ads": false,
  "premier": "1995-08-04",
  "premier_rus": "1995-08-05",
  "availability": "1995-08-06",
  "activate_time": "2020-05-29 21:09:00",
  "budget": null,
  "fees_use": "$7 919 823",
  "fees_world": null,
  "fees_rus": null,
  "rate_mpaa": "PG-13",
  "description": "Макс Грабельски, работающий курьером, однажды узнает, что хозяин ловко использовал его для своих темных «делишек». Но хуже всего другое — теперь он мертв. Опасаясь, что в убийстве заподозрят его, Макс решает скрыться.А полиция уже идет по следу. И тогда он в качестве руководителя группы бойскаутов отправляется в путешествие по горам. Правда, парень понятия не имеет, как обращаться со своими новыми подопечными...",
  "iframe_url": "",
  "iframe_poster": null,
  "poster": "https://img.imgilall.me/movies/franchise/2/0/9/3/5/0/0/0/0/0/610x900_20935.jpg",
  "country": {
    "1": "США"
  },
  "collection": [],
  "genre": {
    "25": "Криминал",
    "9": "Приключения",
    "33": "Семейный",
    "24": "Детектив",
    "19": "Комедия"
  },
  "director": [
    "Грег Биман"
  ],
  "screenwriter": [
    "Джон Джордан",
    "Дэнни Байерс",
    "Томми Свердлоу"
  ],
  "producer": [
    "Пол Шифф",
    "Чарльз Б. Весслер",
    "Дэниел Стерн"
  ],
  "operator": [
    "Тео ван де Санде"
  ],
  "composer": [
    "Билл Конти"
  ],
  "design": [
    "Марк В. Мэнсбридж",
    "Сэнди Венециано",
    "Брюс Кроун"
  ],
  "editor": [
    "Росс Альберт"
  ],
  "actors": [
    "Дэниел Стерн",
    "Джон Полито",
    "Брэд Салливан",
    "Энн Дауд",
    "Энтони Хилд",
    "Том Вуд",
    "Блейк Бэшофф",
    "Кори Кэрриэр",
    "Майкл Галеота",
    "Макс Голдблатт"
  ],
  "actors_dubl": [],
  "trivia": [],
  "trailers": [],
  "seasons": [],
  "voiceActing": [
    "Рус. Проф. многоголосый",
    "Рус. Люб. одноголосый",
    "Eng.Original"
  ],
  "subtitle": [],
  "parts": []
}
