{
  "id": 20975,
  "name": "Дневники преступности: Кольменарес",
  "name_eng": "Historia de un crimen: Colmenares",
  "year": 2019,
  "slogan": "—",
  "age": null,
  "type": "series",
  "quality": "HD (720p)",
  "imdb": "7.3",
  "imdb_id": "10242266",
  "kinopoisk": null,
  "kinopoisk_id": "1265021",
  "world_art": null,
  "world_art_id": null,
  "time": "—",
  "ads": true,
  "premier": "2019-05-03",
  "premier_rus": "2019-05-04",
  "availability": "2019-05-05",
  "serial_status": "offline",
  "activate_time": "2020-06-01 11:17:00",
  "budget": "",
  "fees_use": "",
  "fees_world": "",
  "fees_rus": "",
  "rate_mpaa": "",
  "description": "После вечеринки по поводу Хэллоуина студент колледжа Луис Андрес Кольменарес был найден мертвым. Это был несчастный случай или убийство? Основано на реальных событиях.",
  "iframe_url": "",
  "poster": "https://img.imgilall.me/movies/franchise/2/0/9/7/5/0/0/0/0/0/610x900_20975.jpg",
  "country": {
    "17": "Мексика",
    "63": "Колумбия"
  },
  "collection": {
    "40": "Netflix",
    "39": "На реальных событиях"
  },
  "genre": {
    "25": "Криминал",
    "10": "Зарубежный"
  },
  "director": [
    "Хуан Фелипе Кано",
    "Фелипе Мартинес"
  ],
  "screenwriter": [
    "Пабло Гонсалес",
    "Camilo Salazar Prince",
    "Наталия Санта"
  ],
  "producer": [
    "Carolina Caicedo",
    "Андрес Кальдерон",
    "Перла Мартинез"
  ],
  "operator": [
    "Сизар Гутьеррез"
  ],
  "composer": [
    "Ignacio Gabriel",
    "Алехандро Каудерер"
  ],
  "design": [
    "Cristina Medina",
    "Tulia Diaz"
  ],
  "editor": [
    "Этьен Буссак"
  ],
  "actors": [
    "Эрнесто Кампос",
    "Carlos Carvajal",
    "Camila Jurado",
    "Фабиана Медина",
    "Laura Osma",
    "Juliana Velásquez",
    "Карлос Вергара",
    "Эрнесто Бенхумеа",
    "Энрике Каррьясо",
    "Ампаро Конде"
  ],
  "actors_dubl": [],
  "trivia": [],
  "trailers": [],
  "seasons": [
    {
      "poster": null,
      "release_ru": "2019-05-04",
      "release_world": "2019-05-03",
      "availability": "2019-05-05",
      "iframe_url": "",
      "season": 1,
      "episodes": [
        {
          "episode": 1,
          "name": "A Dark Halloween Night",
          "iframe_url": "",
          "iframe_poster": null,
          "release_ru": "2019-05-04",
          "release_world": "2019-05-03",
          "availability": "2019-05-05",
          "voiceActing": [
            "Octopus"
          ],
          "ads": true,
          "subtitle": []
        },
        {
          "episode": 2,
          "name": "A Mother Seeks Justice",
          "iframe_url": "",
          "iframe_poster": null,
          "release_ru": "2019-05-04",
          "release_world": "2019-05-03",
          "availability": "2019-05-05",
          "voiceActing": [
            "Octopus"
          ],
          "ads": true,
          "subtitle": []
        },
        {
          "episode": 3,
          "name": "When Bodies Talk",
          "iframe_url": null,
          "iframe_poster": null,
          "release_ru": "2019-05-04",
          "release_world": "2019-05-03",
          "availability": "2019-05-05",
          "voiceActing": []
        },
        {
          "episode": 4,
          "name": "Pain, Justice, and Ideals",
          "iframe_url": "",
          "iframe_poster": null,
          "release_ru": "2019-05-04",
          "release_world": "2019-05-03",
          "availability": "2019-05-05",
          "voiceActing": [
            "Octopus"
          ],
          "ads": true,
          "subtitle": []
        },
        {
          "episode": 5,
          "name": "A Rumor in Los Cerros",
          "iframe_url": "",
          "iframe_poster": null,
          "release_ru": "2019-05-04",
          "release_world": "2019-05-03",
          "availability": "2019-05-05",
          "voiceActing": [
            "Octopus"
          ],
          "ads": true,
          "subtitle": []
        },
        {
          "episode": 6,
          "name": "A Witness Appears",
          "iframe_url": "",
          "iframe_poster": null,
          "release_ru": "2019-05-04",
          "release_world": "2019-05-03",
          "availability": "2019-05-05",
          "voiceActing": [
            "Octopus"
          ],
          "ads": true,
          "subtitle": []
        },
        {
          "episode": 7,
          "name": "A Hole in the Story",
          "iframe_url": "",
          "iframe_poster": null,
          "release_ru": "2019-05-04",
          "release_world": "2019-05-03",
          "availability": "2019-05-05",
          "voiceActing": [
            "Octopus"
          ],
          "ads": true,
          "subtitle": []
        },
        {
          "episode": 8,
          "name": "The Final Judgement",
          "iframe_url": "",
          "iframe_poster": null,
          "release_ru": "2019-05-04",
          "release_world": "2019-05-03",
          "availability": "2019-05-05",
          "voiceActing": [
            "Octopus"
          ],
          "ads": true,
          "subtitle": []
        }
      ]
    }
  ],
  "voiceActing": [
    "Octopus"
  ],
  "subtitle": [],
  "parts": []
}
