{
  "id": 21147,
  "name": "Лайф",
  "name_eng": "Life",
  "year": 2015,
  "slogan": "«From Rebel to Icon»",
  "age": "18+",
  "type": "film",
  "quality": "HD (720p)",
  "imdb": "6.1",
  "imdb_id": "2948840",
  "kinopoisk": "6.1",
  "kinopoisk_id": "766363",
  "world_art": null,
  "world_art_id": null,
  "time": "111 мин. / 01:51",
  "ads": false,
  "premier": "2015-02-09",
  "premier_rus": "2016-03-24",
  "availability": "2016-03-25",
  "activate_time": "2020-06-09 17:14:00",
  "budget": "$12 000 000",
  "fees_use": null,
  "fees_world": "$1 231 606",
  "fees_rus": "$27 914",
  "rate_mpaa": "R",
  "description": "Фотограф журнала Life делает знаменитую фотосессию с актёром Джеймсом Дином.",
  "iframe_url": "",
  "iframe_poster": null,
  "poster": "https://img.imgilall.me/movies/franchise/2/1/1/4/7/0/0/0/0/0/610x900_21147.jpg",
  "country": {
    "7": "Канада",
    "1": "США",
    "2": "Великобритания",
    "4": "Австралия",
    "20": "Германия"
  },
  "collection": [],
  "genre": {
    "27": "Биографический",
    "7": "Драма"
  },
  "director": [
    "Антон Корбейн"
  ],
  "screenwriter": [
    "Люк Дейвис"
  ],
  "producer": [
    "Эйн Каннинг",
    "Бенито Мюллер",
    "Кристина Пиовесан"
  ],
  "operator": [
    "Шарлотта Брюус Кристенсен"
  ],
  "composer": [
    "Оуэн Паллетт"
  ],
  "design": [
    "Анастасия Масаро",
    "Кейт Бэнгс",
    "Кимберли Захарко"
  ],
  "editor": [
    "Ник Фентон"
  ],
  "actors": [
    "Дэйн ДеХаан",
    "Роберт Паттинсон",
    "Бен Кингсли",
    "Джоэл Эдгертон",
    "Алессандра Мастронарди",
    "Стелла Шнабель",
    "Майкл Терриоль",
    "Кристен Хагер",
    "Келли МакКрири",
    "Ева Фишер"
  ],
  "actors_dubl": [],
  "trivia": [
    "Предполагалось, что релиз фильма будет совпадать с шестидесятой годовщиной смерти Джеймса Дина."
  ],
  "trailers": [],
  "seasons": [],
  "voiceActing": [
    "Рус. Проф. многоголосый",
    "Eng.Original"
  ],
  "subtitle": [
    "Eng. full"
  ],
  "parts": []
}
