{
  "id": 2116,
  "name": "Побег с планеты Земля",
  "name_eng": "Escape from Planet Earth",
  "year": 2013,
  "slogan": "«Земные секреты раскрыты чужими!»",
  "age": "0+",
  "type": "cartoon",
  "quality": "HD (720p)",
  "imdb": "5.9",
  "imdb_id": "0765446",
  "kinopoisk": "6.3",
  "kinopoisk_id": "601797",
  "world_art": null,
  "world_art_id": null,
  "time": "85 мин. / 01:25",
  "ads": false,
  "premier": "2013-02-14",
  "premier_rus": "2013-02-28",
  "availability": "2013-03-01",
  "activate_time": "2018-09-07 10:54:53",
  "budget": "$40 000 000",
  "fees_use": "$57 012 977",
  "fees_world": "$74 597 643",
  "fees_rus": "$2 453 939",
  "rate_mpaa": "PG",
  "description": "На планете Бааб, в самом центре Вселенной, два брата делают всё возможное, чтобы защитить свою галактику. Они — полные противоположности. Если девиз Гарри — «сначала подумай, потом сделай», то отважный Скорч живет по закону «сила есть — ума не надо», что не мешает им слаженно работать. Но однажды они получают сигнал S.O.S. с опасной планеты…под названием Земля. Скорч, сломя голову, бросается на помощь, и, разумеется, влипает в неприятности. Только Гарри может вытащить его из «Зоны 51». Братья откроют множество головокружительных тайн, но смогут ли они сбежать с самой опасной планеты во Вселенной?",
  "iframe_url": "",
  "iframe_poster": "https://img.imgilall.me/movies/video/1/8/4/9/9/0/0/0/0/0/800x450_18499.jpeg",
  "poster": "https://img.imgilall.me/movies/franchise/2/1/1/6/0/0/0/0/0/0/610x900_2116.jpg",
  "country": {
    "7": "Канада",
    "1": "США"
  },
  "collection": [],
  "genre": {
    "9": "Приключения",
    "11": "Фантастика",
    "37": "Детский",
    "34": "Полнометражный",
    "33": "Семейный",
    "19": "Комедия",
    "10": "Зарубежный"
  },
  "director": [
    "Кэллан Брункер"
  ],
  "screenwriter": [
    "Боб Барлен",
    "Кэллан Брункер",
    "Стивен Фрай"
  ],
  "producer": [
    "Ivan Bajic",
    "Тамара Бутчер",
    "Люк Кэрролл"
  ],
  "operator": [
    "Мэттью А. Уорд"
  ],
  "composer": [
    "Аарон Цигман"
  ],
  "design": [
    "Бэрри Е. Джексон",
    "Маттиас Лехнер"
  ],
  "editor": [
    "Мэтт Лэндон",
    "Скотт Уинлоу"
  ],
  "actors": [
    "Брендан Фрейзер",
    "Роб Кордри",
    "Рики Джервэйс",
    "Джонатан Морган Хейт",
    "Джессика Альба",
    "София Вергара",
    "Пол Шир",
    "Джейсон Симпсон",
    "Сара Джессика Паркер",
    "Даг Абрахамс"
  ],
  "actors_dubl": [
    "Иван Жарков",
    "Евгений Стычкин",
    "Пётр Иващенко",
    "Ольга Шорохова",
    "Татьяна Шитова"
  ],
  "trivia": [
    "Всякий раз, когда две фамилии героев в фильме произносят подряд, они совпадают с именами известных режиссеров, например: «Питер! Джексон! Задержать его!» или «Джеймс! Кэмерон! Не дайте ему уйти!».",
    "Это первый фильм студии Rainmaker Entertainment, который вышел на экраны кинотеатров, а также первый фильм студии снятый в 3D.",
    "В мультфильме планета Земля названа планетой класса «М» — это отсылка на сериал «Звездный путь» (1966-1969). Также в мультфильме используется приветствие вулканцев."
  ],
  "trailers": [
    {
      "name": "трейлер №1",
      "number": 1,
      "iframe_poster": null,
      "season": null,
      "iframe_url": ""
    }
  ],
  "seasons": [],
  "voiceActing": [
    "Рус. Дублированный",
    "Eng.Original"
  ],
  "subtitle": [],
  "parts": []
}
