{
  "id": 21169,
  "name": "Слуги Сатаны",
  "name_eng": "Pengabdi Setan",
  "year": 2017,
  "slogan": "—",
  "age": null,
  "type": "film",
  "quality": "SD",
  "imdb": "6.6",
  "imdb_id": "7076834",
  "kinopoisk": "5.7",
  "kinopoisk_id": "1046559",
  "world_art": null,
  "world_art_id": null,
  "time": "107 мин. / 01:47",
  "ads": true,
  "premier": "2017-09-20",
  "premier_rus": "2017-09-21",
  "availability": "2017-09-22",
  "activate_time": "2020-06-02 12:28:00",
  "budget": "$150 000",
  "fees_use": null,
  "fees_world": "$16 200 000",
  "fees_rus": null,
  "rate_mpaa": null,
  "description": "1981 год, Индонезия. Когда-то бывшая популярной певицей мать четырёх детей несколько лет назад слегла и доживает последние дни. Семья о ней заботится, но сводить концы с концами становится всё труднее — в звукозаписывающей компании говорят, что записи больше не продаются, поэтому комиссионных нет, и семья продаёт всё, что может. Когда женщина умирает, то сразу после похорон отец семейства отправляет в город, чтобы договориться о продаже дома, а оставшиеся с бабушкой дети начинают видеть и слышать призраков. Вскоре старшая дочь узнаёт о матери нечто странное.",
  "iframe_url": "",
  "iframe_poster": null,
  "poster": "https://img.imgilall.me/movies/franchise/2/1/1/6/9/0/0/0/0/0/610x900_21169.jpg",
  "country": {
    "16": "Корея Южная",
    "40": "Индонезия"
  },
  "collection": {
    "29": "Психологические"
  },
  "genre": {
    "26": "Ужасы",
    "24": "Детектив",
    "7": "Драма"
  },
  "director": [
    "Джоко Анвар"
  ],
  "screenwriter": [
    "Джоко Анвар",
    "Сисворо Гаутама Путра",
    "Naryono Prayitno"
  ],
  "producer": [
    "Гопе Т. Самтани",
    "Тиа Хасибуан",
    "Майк Им"
  ],
  "operator": [
    "Икал Танджун"
  ],
  "composer": [
    "Бемби Густи",
    "Тони Мерле",
    "Аги Нароттама"
  ],
  "design": [
    "Аллан Трияна Себастьян",
    "Изабель Патрис"
  ],
  "editor": [
    "Арифин Куунк"
  ],
  "actors": [
    "Тара Басро",
    "Бронт Паларэ",
    "Димас Адитья",
    "Энди Арфиан",
    "Насар Аннус",
    "М. Адхият",
    "Арсвенди Насутион",
    "Эги Федли",
    "Аю Лакшми",
    "Элли Д. Лутан"
  ],
  "actors_dubl": [],
  "trivia": [
    "Джоко Анвар признавался в интервью, что, ещё в детстве посмотрев фильм «Раб Сатаны» (Сисворо Гаутама Путра, 1982), решил стать режиссёром. После дебютного полнометражного фильма «Обещание Джони» Анвар много лет упрашивал компанию Rapi Films сделать римейк «Раба Сатаны» и взять его режиссёром.",
    "Больше всего времени при подготовке к съёмкам ушло на поиски дома с нужной авторам фильма атмосферой. Поиски заняли 4 месяца.",
    "Фильм снят за 18 дней и практически весь в хронологическом порядке."
  ],
  "trailers": [],
  "seasons": [],
  "voiceActing": [
    "Indones. Original"
  ],
  "subtitle": [],
  "parts": []
}
