{
  "id": 21300,
  "name": "Напряги извилины",
  "name_eng": "Get Smart",
  "year": 2008,
  "slogan": "«Они любят спасать мир... по-своему»",
  "age": "12+",
  "type": "film",
  "quality": "FHD (1080p)",
  "imdb": "6.5",
  "imdb_id": "0425061",
  "kinopoisk": "6.7",
  "kinopoisk_id": "87178",
  "world_art": null,
  "world_art_id": null,
  "time": "110 мин. / 01:50",
  "ads": false,
  "premier": "2008-06-19",
  "premier_rus": "2008-07-17",
  "availability": "2008-07-18",
  "activate_time": "2020-06-01 19:54:00",
  "budget": "$80 000 000",
  "fees_use": "$130 319 208",
  "fees_world": "+ $100 366 245 = $230 685 453",
  "fees_rus": "$2 311 339",
  "rate_mpaa": "PG-13",
  "description": "Неуклюжие приёмы секретного агента Максвелла Смарта, взявшегося за обезвреживание группировки «Хаос», стремящейся к власти над миром, ставят операцию под угрозу. Во избежание провала командование прикрепляет к Смарту Агента 99...",
  "iframe_url": "",
  "iframe_poster": null,
  "poster": "https://img.imgilall.me/movies/franchise/2/1/3/0/0/0/0/0/0/0/610x900_21300.jpg",
  "country": {
    "7": "Канада",
    "1": "США"
  },
  "collection": [],
  "genre": {
    "9": "Приключения",
    "19": "Комедия",
    "17": "Боевик"
  },
  "director": [
    "Питер Сигал"
  ],
  "screenwriter": [
    "Том Дж. Эстл",
    "Мэтт Эмбер",
    "Мэл Брукс"
  ],
  "producer": [
    "Майкл Юинг",
    "Алекс Гартнер",
    "Эндрю Лазар"
  ],
  "operator": [
    "Дин Семлер"
  ],
  "composer": [
    "Тревор Рэбин"
  ],
  "design": [
    "Винн Томас",
    "Кэролайн Алдер",
    "Кристофер Бериэн-Мор"
  ],
  "editor": [
    "Ричард Пирсон"
  ],
  "actors": [
    "Стив Карелл",
    "Энн Хэтэуэй",
    "Алан Аркин",
    "Дуэйн Джонсон",
    "Теренс Стэмп",
    "Терри Крюс",
    "Дэвид Кокнер",
    "Маси Ока",
    "Нейт Торренс",
    "Джеймс Каан"
  ],
  "actors_dubl": [
    "Всеволод Кузнецов",
    "Елена Соловьева",
    "Рудольф Панков",
    "Юрий Деркач",
    "Дальвин Щербаков"
  ],
  "trivia": [
    "На роль агента 99 претендовали Дженнифер Лав Хьюитт и Рэйчел МакАдамс.",
    "Когда проект разрабатывался в 1998 году, на главную роль рассматривался Джим Керри.",
    "Некоторые сцены были сняты на территории Университета Макгилла в Монреале. Другие сцены были сняты в Москве, Вашингтоне и Лос-Анджелесе."
  ],
  "trailers": [],
  "seasons": [],
  "voiceActing": [
    "Рус. Дублированный"
  ],
  "subtitle": [],
  "parts": []
}
