{
  "id": 21379,
  "name": "Лен и компания",
  "name_eng": "Len and Company",
  "year": 2015,
  "slogan": "—",
  "age": null,
  "type": "film",
  "quality": "SD",
  "imdb": "6.1",
  "imdb_id": "3675204",
  "kinopoisk": "6.4",
  "kinopoisk_id": "845404",
  "world_art": null,
  "world_art_id": null,
  "time": "102 мин. / 01:42",
  "ads": false,
  "premier": "2015-06-20",
  "premier_rus": "2015-06-21",
  "availability": "2015-06-22",
  "activate_time": "2020-06-09 15:49:00",
  "budget": null,
  "fees_use": null,
  "fees_world": null,
  "fees_rus": null,
  "rate_mpaa": null,
  "description": "Бывший рокер, а ныне преуспевающий поп-продюсер Лен Блэк психанул на церемонии вручения очередных наград и свалил в свой загородный дом в штате Нью-Йорк отмокать в грязном бассейне, смотреть древние британские сериалы и слушать аудиокниги про ковбоев. Но не прошло и месяца, как блаженный дауншифтинг эстрадного деятеля нарушают его сын, начинающий музыкант Макс, и его протеже, миловидная певица Зоуи. Макс приехал, чтобы испросить у папаши профессионального совета на предмет демозаписи своей группы, а Зоуи не терпится выяснить причину внезапного бегства Лена. Оба волей-неволей принуждают скатившегося с проторенной дорожки героя более серьезно отнестись не только к отцовским обязанностям, но и к взрослой жизни вообще.",
  "iframe_url": "",
  "iframe_poster": null,
  "poster": "https://img.imgilall.me/movies/franchise/2/1/3/7/9/0/0/0/0/0/610x900_21379.jpg",
  "country": {
    "7": "Канада",
    "1": "США"
  },
  "collection": {
    "27": "Про жизнь"
  },
  "genre": {
    "19": "Комедия",
    "7": "Драма"
  },
  "director": [
    "Тим Годсалл"
  ],
  "screenwriter": [
    "Тим Годсалл",
    "Кэтрин Найт"
  ],
  "producer": [
    "Юри Хенли",
    "Рик Яржура",
    "Кейт Бакли"
  ],
  "operator": [
    "Андре Пиенаар"
  ],
  "composer": [
    "Майлз Хэнкинс"
  ],
  "design": [
    "Пол Д. Остерберри",
    "Katry Sertic",
    "Доун Ривар"
  ],
  "editor": [
    "Джофф Ханселл"
  ],
  "actors": [
    "Рис Иванс",
    "Джуно Темпл",
    "Джек Килмер",
    "Кейр Гилкрист",
    "Кэтрин Хан",
    "Илайс Туфексис",
    "Тайлер Хайнс",
    "Джонатан Поттс",
    "Марк О’Брайэн",
    "Трэйси Хойт"
  ],
  "actors_dubl": [],
  "trivia": [],
  "trailers": [],
  "seasons": [],
  "voiceActing": [
    "Рус. Люб. многоголосый"
  ],
  "subtitle": [],
  "parts": []
}
