{
  "id": 21372,
  "name": "Альфа-тест",
  "name_eng": "The Alpha Test",
  "year": 2020,
  "slogan": "«Война интеллектов»",
  "age": null,
  "type": "film",
  "quality": "HD (720p)",
  "imdb": "3.3",
  "imdb_id": "11086254",
  "kinopoisk": "4.1",
  "kinopoisk_id": "1313399",
  "world_art": null,
  "world_art_id": null,
  "time": "87 мин. / 01:27",
  "ads": false,
  "premier": "2020-03-10",
  "premier_rus": "2020-03-11",
  "availability": "2020-03-12",
  "activate_time": "2020-06-02 11:46:00",
  "budget": null,
  "fees_use": null,
  "fees_world": null,
  "fees_rus": null,
  "rate_mpaa": null,
  "description": "В простую семью, живущую за городом, привозят новый гаджет – «Домашний помощник Альфа». Но несносная хозяйка доводит робота до крайности и заставляет искусственный интеллект мстить и убивать.",
  "iframe_url": "",
  "iframe_poster": null,
  "poster": "https://img.imgilall.me/movies/franchise/2/1/3/7/2/0/0/0/0/0/610x900_21372.jpg",
  "country": {
    "1": "США"
  },
  "collection": {
    "68": "Про роботов"
  },
  "genre": {
    "11": "Фантастика"
  },
  "director": [
    "Аарон Миртес"
  ],
  "screenwriter": [
    "Аарон Миртес",
    "Брэд Белемджян"
  ],
  "producer": [
    "Мэдисон Эби",
    "Аарон Миртес"
  ],
  "operator": [
    "Аарон Миртес"
  ],
  "composer": [],
  "design": [],
  "editor": [
    "Аарон Миртес"
  ],
  "actors": [
    "Мак Байда",
    "Брэд Белемджян",
    "Дэвид Дитмор",
    "Lacy Hartselle",
    "Шеннон Хант",
    "Белла Мартин",
    "Элис Рэвер",
    "Винн Райхерт",
    "Дебора Сидел"
  ],
  "actors_dubl": [],
  "trivia": [],
  "trailers": [],
  "seasons": [],
  "voiceActing": [
    "Рус. Проф. многоголосый",
    "Укр. Проф. багатоголосий",
    "Eng.Original"
  ],
  "subtitle": [
    "Eng. full"
  ],
  "parts": []
}
