{
  "id": 21444,
  "name": "Школа Эвер Афтер: День клятвы. Сказка о двух сказках",
  "name_eng": "Ever After High-Legacy Day: A Tale of Two Tales",
  "year": 2013,
  "slogan": "—",
  "age": null,
  "type": "cartoon",
  "quality": "SD",
  "imdb": "7.9",
  "imdb_id": "3611304",
  "kinopoisk": null,
  "kinopoisk_id": "846162",
  "world_art": null,
  "world_art_id": null,
  "time": "—",
  "ads": false,
  "premier": "2013-11-26",
  "premier_rus": "2013-11-27",
  "availability": "2013-11-28",
  "activate_time": "2020-06-02 15:56:00",
  "budget": null,
  "fees_use": null,
  "fees_world": null,
  "fees_rus": null,
  "rate_mpaa": null,
  "description": "Кто такие наследницы и кто такие отступницы? Что произойдет в том случае, если любой из учеников не даст клятву наследия? Продолжится ли история тех, кто попытается перечеркнуть ее? Для того, чтоб соперничество каждой из учениц, наконец, прекратилось, им придется пройти немало испытаний в школе. Первым испытанием будет та самая Рейвен Куин, которую все боялись поначалу. Следующим испытанием будет тайна Книги Наследия, о которой уже много лет умалчивает директор. Так где же правда? В чем заключается сказка каждой сказки?",
  "iframe_url": "",
  "iframe_poster": null,
  "poster": "https://img.imgilall.me/movies/franchise/2/1/4/4/4/0/0/0/0/0/610x900_21444.jpg",
  "country": {
    "1": "США"
  },
  "collection": [],
  "genre": [
    "Мультфильм"
  ],
  "director": [
    "Brandon James Scott",
    "Харольд Харрис",
    "Оду Паден"
  ],
  "screenwriter": [
    "Джордж Доути IV",
    "Оду Паден",
    "Ира Сингерман"
  ],
  "producer": [
    "Маргарет М. Дин",
    "Эми Робсон",
    "Ира Сингерман"
  ],
  "operator": [],
  "composer": [
    "Эшер Ленц",
    "Стивен Скратт"
  ],
  "design": [
    "W. Scott Forbes"
  ],
  "editor": [],
  "actors": [
    "Валери Арем",
    "Лора Бэйли",
    "Кэм Кларк",
    "Мальколм Дэнар",
    "Эрин Фицджералд",
    "Грант Джордж",
    "Джонкуил Гуд",
    "Кейт Хиггинс",
    "Уэнди Ли",
    "Джули Маддалена"
  ],
  "actors_dubl": [
    "Наталья Грачёва",
    "Василиса Воронина",
    "Ольга Кузнецова",
    "Антон Колесников",
    "Ольга Шорохова"
  ],
  "trivia": [],
  "trailers": [],
  "seasons": [],
  "voiceActing": [
    "Рус. Дублированный"
  ],
  "subtitle": [],
  "parts": []
}
