{
  "id": 21501,
  "name": "Кабинка",
  "name_eng": "Stalled",
  "year": 2013,
  "slogan": "«He's in the perfect place to be scared sh*tless...»",
  "age": null,
  "type": "film",
  "quality": "SD",
  "imdb": "4.7",
  "imdb_id": "2140429",
  "kinopoisk": "4.6",
  "kinopoisk_id": "655389",
  "world_art": null,
  "world_art_id": null,
  "time": "84 мин. / 01:24",
  "ads": false,
  "premier": "2013-07-19",
  "premier_rus": "2013-07-20",
  "availability": "2013-07-21",
  "activate_time": "2020-06-24 16:15:00",
  "budget": "£ 450 000",
  "fees_use": null,
  "fees_world": null,
  "fees_rus": null,
  "rate_mpaa": null,
  "description": "Несчастный работник сферы обслуживания оказывается застрявшим в дамском туалете во время зомби-апокалипсиса.",
  "iframe_url": "",
  "iframe_poster": null,
  "poster": "https://img.imgilall.me/movies/franchise/2/1/5/0/1/0/0/0/0/0/610x900_21501.jpg",
  "country": {
    "2": "Великобритания"
  },
  "collection": [],
  "genre": {
    "26": "Ужасы",
    "19": "Комедия"
  },
  "director": [
    "Кристиан Джеймс"
  ],
  "screenwriter": [
    "Дэн Палмер"
  ],
  "producer": [
    "Ричард Керриган",
    "Эмма Биггинс",
    "Дэниэл Пикеринг"
  ],
  "operator": [
    "Шастри Киссун"
  ],
  "composer": [
    "Адам Лэнгстон"
  ],
  "design": [
    "Энтони Хейлок",
    "Кэти Энн МакГрегор",
    "Яника Уотерс"
  ],
  "editor": [
    "Марк Джиллис"
  ],
  "actors": [
    "Дэн Палмер",
    "Антония Бернат",
    "Тамарин Пэйн",
    "Марк Холден",
    "Джиллз Алдерсон",
    "Sarah Suzanne Biggins",
    "Виктория Брум",
    "Дэнни Келли",
    "Виктория Элдон",
    "Крис Р. Райт"
  ],
  "actors_dubl": [],
  "trivia": [],
  "trailers": [],
  "seasons": [],
  "voiceActing": [
    "Рус. Люб. одноголосый"
  ],
  "subtitle": [],
  "parts": []
}
