{
  "id": 2152,
  "name": "Тайна красной планеты",
  "name_eng": "Mars Needs Moms",
  "year": 2011,
  "slogan": "«Mom needs a little space»",
  "age": "0+",
  "type": "cartoon",
  "quality": "HD (720p)",
  "imdb": "5.4",
  "imdb_id": "1305591",
  "kinopoisk": "6.1",
  "kinopoisk_id": "441432",
  "world_art": null,
  "world_art_id": null,
  "time": "88 мин. / 01:28",
  "ads": false,
  "premier": "2011-03-09",
  "premier_rus": "2011-03-10",
  "availability": null,
  "activate_time": "2018-09-07 13:10:22",
  "budget": "$150 000 000",
  "fees_use": "$21 392 758",
  "fees_world": "$38 992 758",
  "fees_rus": "$5 730 921",
  "rate_mpaa": "PG",
  "description": "Есть мерзкую брокколи, выносить мусор, рано ложиться спать — кому вообще нужны мамы, заставляющие это делать? Так думал Майло, пока не обнаружил, что его маму похитили марсиане. Тут-то и оказалось, что ему предстоит отправиться на другую планету, чтобы найти маму и вернуть ее домой.",
  "iframe_url": "",
  "iframe_poster": "https://img.imgilall.me/movies/video/1/8/6/9/0/0/0/0/0/0/800x450_18690.jpeg",
  "poster": "https://img.imgilall.me/movies/franchise/2/1/5/2/0/0/0/0/0/0/610x900_2152.jpg",
  "country": {
    "1": "США"
  },
  "collection": {
    "37": "Disney"
  },
  "genre": {
    "9": "Приключения",
    "11": "Фантастика",
    "37": "Детский",
    "34": "Полнометражный",
    "10": "Зарубежный"
  },
  "director": [
    "Саймон Уэллс"
  ],
  "screenwriter": [
    "Саймон Уэллс",
    "Венди Уэллс",
    "Беркели Брисед"
  ],
  "producer": [
    "Джек Рэпк",
    "Стив Старки",
    "Роберт Земекис"
  ],
  "operator": [
    "Роберт Пресли"
  ],
  "composer": [
    "Джон Пауэлл"
  ],
  "design": [
    "Даг Чианг",
    "Брайан Флора",
    "Курт Кауфман"
  ],
  "editor": [
    "Уэйн Варман"
  ],
  "actors": [
    "Сет Грин",
    "Дэн Фоглер",
    "Джоан Кьюсак",
    "Элизабет Арнуа",
    "Минди Стерлинг",
    "Кевин Кахун",
    "Том Эверетт Скотт",
    "Жаки Барнбрук",
    "Мэттью Хенерсон",
    "Адам Дженнингс"
  ],
  "actors_dubl": [
    "Марк Вирин",
    "Диомид Виноградов",
    "Анастасия Лапина",
    "Жанна Агузарова",
    "Вера Русевич"
  ],
  "trivia": [
    "Книга Беркли Брезеда «Марсу нужны мамы», по которой снят фильм «Тайна Красной планеты», появилась на свет после ссоры между его женой и сыном. Главного героя и в книге, и в фильме зовут так же, как сына Брезеда — Майло.",
    "Вот что говорит сам Брезед: «Фильма бы не было, если бы 10 августа 2006 года на столе Брезедов не осталась недоеденной тарелка цветной капусты. Настоящий Майло, 5 лет от роду, закатил скандал и прокричал своей маме несусветное, чем довёл её до слёз. Мне пришлось объяснять вопящему сыну, что бы он почувствовал, если бы маму, которую он якобы не любит, вдруг забрали — я сочинял на ходу — марсиане! Той ночью я написал книгу».",
    "Волшебные цифровые технологии позволили 35-летнему актёру (Сет Грин) сыграть 9-летнего мальчика (Майло).",
    "Каждый день актёры одевались в одно и то же. Всё те же наряды (чёрный облегающий костюм), причёски (волосы откинуты назад, чтобы не закрывали лицо) и грим (чёрные точки, расставленные в специальных местах). Все актёры носили одинаковые чёрные облегающие костюмы, но на каждом были нашивки определённого цвета, чтобы не запутаться. У Сета был бордовый цвет, у Минди — лиловый, у Элизабет — зелёный.",
    "На каждом чёрном костюме есть красная вертикальная полоска с правого бока, зелёная вертикальная полоска с левого бока и около 65 сенсоров, расставленных в особо обозначенных местах. Эти маркеры должны помочь управляемым и статичным камерам.",
    "Марсианский язык стал результатом коллективного творчества актёров. Они придумали его прямо в процессе озвучки."
  ],
  "trailers": [
    {
      "name": "трейлер №1",
      "number": 1,
      "iframe_poster": null,
      "season": null,
      "iframe_url": ""
    }
  ],
  "seasons": [],
  "voiceActing": [
    "Рус. Дублированный",
    "Eng.Original"
  ],
  "subtitle": [],
  "parts": []
}
