{
  "id": 21654,
  "name": "Аврил и поддельный мир",
  "name_eng": "Avril et le monde truqué",
  "year": 2015,
  "slogan": "—",
  "age": null,
  "type": "cartoon",
  "quality": "HD (720p)",
  "imdb": "7.3",
  "imdb_id": "3422078",
  "kinopoisk": "7.3",
  "kinopoisk_id": "819087",
  "world_art": null,
  "world_art_id": null,
  "time": "105 мин. / 01:45",
  "ads": true,
  "premier": "2015-06-15",
  "premier_rus": "2015-06-16",
  "availability": "2015-06-17",
  "activate_time": "2020-06-03 15:21:00",
  "budget": "$12 400 000",
  "fees_use": "$295 488",
  "fees_world": "+ $200 391 = $495 879",
  "fees_rus": null,
  "rate_mpaa": "PG",
  "description": "1941 год. Во Франции правит Наполеон VI и паровые технологии, потому что уже на протяжении многих лет во всём мире пропадают выдающиеся учёные, и электричество так и не было открыто. Когда Аврил была маленькой, её родители пытались получить эликсир бессмертия, но тоже исчезли таинственным образом. От семьи у девушки остался только говорящий кот, и с тех пор она пытается воссоздать тот эликсир.",
  "iframe_url": "",
  "iframe_poster": null,
  "poster": "https://img.imgilall.me/movies/franchise/2/1/6/5/4/0/0/0/0/0/610x900_21654.jpg",
  "country": {
    "7": "Канада",
    "9": "Франция",
    "29": "Бельгия"
  },
  "collection": [],
  "genre": {
    "9": "Приключения",
    "11": "Фантастика",
    "24": "Детектив",
    "19": "Комедия",
    "13": "Триллер",
    "7": "Драма"
  },
  "director": [
    "Кристиан Димар",
    "Франк Экинджи"
  ],
  "screenwriter": [
    "Бенжамин Легран",
    "Франк Экинджи",
    "Жак Тарди"
  ],
  "producer": [
    "Мишель Дутей",
    "Франк Экинджи",
    "Matthieu Liegeois"
  ],
  "operator": [],
  "composer": [
    "Валентин Хаджадж"
  ],
  "design": [
    "Кристиан Димар",
    "Luciano Lepinay"
  ],
  "editor": [
    "Nazim Meslem"
  ],
  "actors": [
    "Марион Котийяр",
    "Марк-Андре Гронден",
    "Филипп Катрин",
    "Жан Рошфор",
    "Були Ланнерс",
    "Оливье Гурме",
    "Маша Гренон",
    "Бенуа Бриер",
    "Анн Косенс",
    "Карлос Аласраки"
  ],
  "actors_dubl": [],
  "trivia": [
    "Сюжет мультфильма основан на графических романах Жака Тарди. В работе над мультфильмом Тарди был художником компьютерной графики.",
    "Маша Гренон озвучила Аннетт как во французской, так и в английской версии мультфильма."
  ],
  "trailers": [],
  "seasons": [],
  "voiceActing": [
    "Рус. Проф. многоголосый",
    "Fr. Original",
    "Eng.Original"
  ],
  "subtitle": [
    "Рус. полные"
  ],
  "parts": []
}
