{
  "id": 21829,
  "name": "Жилец",
  "name_eng": "Le locataire",
  "year": 1976,
  "slogan": "«No one does it to you like Roman Polanski»",
  "age": "18+",
  "type": "film",
  "quality": "HD (720p)",
  "imdb": "7.7",
  "imdb_id": "0074811",
  "kinopoisk": "7.8",
  "kinopoisk_id": "11619",
  "world_art": null,
  "world_art_id": null,
  "time": "126 мин. / 02:06",
  "ads": false,
  "premier": "1976-05-24",
  "premier_rus": "1976-05-25",
  "availability": "1976-05-26",
  "activate_time": "2020-06-25 16:24:00",
  "budget": null,
  "fees_use": "$1 924 733",
  "fees_world": null,
  "fees_rus": null,
  "rate_mpaa": "R",
  "description": "Скромный конторский служащий Трелковский решает сменить место проживания и переехать на новое место. Он снимает квартиру в обветшалом здании с недружелюбными соседями. От консьержки он узнает, что предыдущая квартирантка, Симона, покончила с собой, выбросившись из окна. Со временем Трелковский начинает всё больше и больше думать о ней, стараясь узнать как можно больше подробностей. Вскоре он начинает винить соседей в её гибели.",
  "iframe_url": "",
  "iframe_poster": null,
  "poster": "https://img.imgilall.me/movies/franchise/2/1/8/2/9/0/0/0/0/0/610x900_21829.jpg",
  "country": {
    "9": "Франция"
  },
  "collection": {
    "14": "Для взрослых"
  },
  "genre": {
    "24": "Детектив",
    "13": "Триллер",
    "7": "Драма"
  },
  "director": [
    "Роман Полански"
  ],
  "screenwriter": [
    "Жерар Браш",
    "Роман Полански",
    "Роланд Топор"
  ],
  "producer": [
    "Эндрю Браунсберг",
    "Геркулес Беллвилл",
    "Ален Сард"
  ],
  "operator": [
    "Свен Нюквист"
  ],
  "composer": [
    "Филипп Сард"
  ],
  "design": [
    "Пьер Гюффруа",
    "Клод Мёшинг",
    "Альберт Ражо"
  ],
  "editor": [
    "Франсуаза Бонно"
  ],
  "actors": [
    "Роман Полански",
    "Изабель Аджани",
    "Мелвин Дуглас",
    "Джо Ван Флит",
    "Бернар Фрессон",
    "Лиля Кедрова",
    "Клод Дофен",
    "Клод Пьеплю",
    "Рюфюс",
    "Роман Бутей"
  ],
  "actors_dubl": [],
  "trivia": [
    "Фильм снят по мотивам романа Роланда Топора «Призрачный жилец» (Le Locataire Chimerique, 1964).",
    "Филиппа Сарда, написавшего музыку к фильму, можно увидеть в камео — он сыграл мужчину, пристально смотрящего на Трелковского в кинотеатре.",
    "Идея использовать стеклянную гармонику пришла в голову композитору Филиппу Сарду после того, как он случайно увидел, что Роман Полански, сидя за столиком в ресторане, имитировал движение пальцев при игре на бокалах.",
    "Несмотря на то, что в британский кинопрокат фильм вышел без каких-либо сокращений, британская видеоверсия 1986 года содержала «купюру»: были вырезаны 6 секунд экранного времени из эпизода, в котором Трелковский и Стелла смотрят фильм в кинотеатре. А именно — были удалены несколько появляющихся на экране кинотеатра кадров фильма Роберта Клауза «Выход Дракона» (1973) с Брюсом Ли в главной роли. Дело в том, что в этих кадрах фигурировали нунчаки — оружие, официально запрещенное в Европе."
  ],
  "trailers": [],
  "seasons": [],
  "voiceActing": [
    "Рус. Одноголосый",
    "Рус. Проф. многоголосый",
    "Eng.Original"
  ],
  "subtitle": [
    "Рус. полные"
  ],
  "parts": []
}
