{
  "id": 2190,
  "name": "Том и Джерри: Полет на Марс",
  "name_eng": "Tom and Jerry Blast off to Mars",
  "year": 2005,
  "slogan": null,
  "age": "0+",
  "type": "cartoon",
  "quality": "HD (720p)",
  "imdb": "6.0",
  "imdb_id": "0433696",
  "kinopoisk": "6.0",
  "kinopoisk_id": "94164",
  "world_art": null,
  "world_art_id": null,
  "time": "75 мин. / 01:15",
  "ads": false,
  "premier": "2005-03-25",
  "premier_rus": "2005-03-26",
  "availability": "2005-03-27",
  "activate_time": "2018-09-07 15:53:23",
  "budget": null,
  "fees_use": null,
  "fees_world": null,
  "fees_rus": null,
  "rate_mpaa": null,
  "description": "Выходит, что для своих погонь и проказ легендарные Том и Джерри уже использовали все возможные места на нашей старушке-Земле; и теперь забавные зверушки решают совершить вояж наМарс, чтобы повеселиться там от души! Вот, правда, марсиане оказались мелковаты: крошечные гуманоиды посчитали Тома свирепым галактическим монстром и решили расправиться с беднягой.Марс атакует! А в это время маленький хитрый Джерри был по ошибке признан возвратившимся после долгого отсутствия космическим вождем марсиан. Смогут ли мышонок и кот отложить на время свои разногласия, чтобы спасти Землю от инопланетного вторжения? Ведь для этого потребуются все девять жизней кота Тома!",
  "iframe_url": "",
  "iframe_poster": "https://img.imgilall.me/movies/video/1/8/7/2/6/0/0/0/0/0/800x450_18726.jpeg",
  "poster": "https://img.imgilall.me/movies/franchise/2/1/9/0/0/0/0/0/0/0/610x900_2190.jpg",
  "country": {
    "1": "США"
  },
  "collection": [],
  "genre": {
    "9": "Приключения",
    "11": "Фантастика",
    "37": "Детский",
    "34": "Полнометражный",
    "33": "Семейный",
    "19": "Комедия",
    "10": "Зарубежный"
  },
  "director": [
    "Билл Копп"
  ],
  "screenwriter": [
    "Билл Копп",
    "Джозеф Барбера",
    "Уильям Ханна"
  ],
  "producer": [
    "Том Минтон",
    "Джозеф Барбера",
    "Роберт Кларк"
  ],
  "operator": [],
  "composer": [
    "Джули Бернштейн",
    "Стивен Бернштейн"
  ],
  "design": [
    "Джим Шленкер"
  ],
  "editor": [
    "Кен Соломон"
  ],
  "actors": [
    "Джефф Беннетт",
    "Кори Бертон",
    "Кэтрин Фиоре",
    "Брэд Гэррет",
    "Джесс Харнелл",
    "Том Кенни",
    "Билл Копп",
    "Роб Полсен",
    "Фрэнк Уэлкер",
    "Билли Уэст"
  ],
  "actors_dubl": [],
  "trivia": [],
  "trailers": [
    {
      "name": "трейлер №1",
      "number": 1,
      "iframe_poster": null,
      "season": null,
      "iframe_url": ""
    }
  ],
  "seasons": [],
  "voiceActing": [
    "Рус. Проф. многоголосый",
    "Укр. Проф. багатоголосий",
    "C. Визгунов",
    "Eng.Original"
  ],
  "subtitle": [],
  "parts": [
    2185,
    2187,
    2099,
    2178,
    2180,
    2181,
    2182,
    2183,
    2184,
    2186,
    2188,
    2189,
    2190,
    2191,
    2192
  ]
}
