{
  "id": 21928,
  "name": "Татау",
  "name_eng": "Tatau",
  "year": 2015,
  "slogan": "—",
  "age": null,
  "type": "series",
  "quality": "HD (720p)",
  "imdb": "6.1",
  "imdb_id": "4122348",
  "kinopoisk": "5.1",
  "kinopoisk_id": "905069",
  "world_art": null,
  "world_art_id": null,
  "time": "45 мин",
  "ads": false,
  "premier": "2015-04-12",
  "premier_rus": "2015-04-13",
  "availability": "2015-04-14",
  "serial_status": "offline",
  "activate_time": "2020-06-06 23:04:00",
  "budget": null,
  "fees_use": null,
  "fees_world": null,
  "fees_rus": null,
  "rate_mpaa": null,
  "description": "Кайл и Бадж — двое 20-летних друзей из Лондона, которые отправились путешествовать по миру. Перед поездкой Кайл набивает татуировку в стиле маори, узор которой вертелся у него в голове несколько лет. На завершающем этапе путешествия — острове Кука — они думают, что попали в Рай на Земле. Но не всё являет тем, чем кажется. Парни пробуют священный напиток Аватави, и Кайлу начинает видеться местная девушка, которая просит спасти её. В попытках разобраться, что к чему, Кайл и Бадж всё глубже погружаются в мир маори, реальный и воображаемый...",
  "iframe_url": "",
  "poster": "https://img.imgilall.me/movies/franchise/2/1/9/2/8/0/0/0/0/0/610x900_21928.jpg",
  "country": {
    "2": "Великобритания"
  },
  "collection": [],
  "genre": {
    "11": "Фантастика",
    "24": "Детектив"
  },
  "director": [
    "Уэйн Йип",
    "Джошуа Фриззелл",
    "Майкл Херст"
  ],
  "screenwriter": [
    "Ричард Зайдлик",
    "Брайан Филлис",
    "Кэт Джонс"
  ],
  "producer": [
    "Джон Раштон",
    "Ричард Зайдлик",
    "Крис Бэйли"
  ],
  "operator": [
    "Дэйл МакКреди"
  ],
  "composer": [
    "Карл Стивен",
    "Алехандро де ла Льоса"
  ],
  "design": [
    "Миро Харре"
  ],
  "editor": [],
  "actors": [
    "Джо Лэйтон",
    "Тео Барклем-Биггз",
    "Циан Элиз Уайт",
    "Шушила Такао",
    "Алекс Таррант",
    "Тай Бердиннер-Блэйдс",
    "Темуэра Моррисон",
    "Рангимоана Тейлор",
    "Кирк Торранс",
    "Андре Кинг"
  ],
  "actors_dubl": [],
  "trivia": [],
  "trailers": [],
  "seasons": [
    {
      "poster": null,
      "release_ru": null,
      "release_world": null,
      "availability": null,
      "iframe_url": "",
      "season": 1,
      "episodes": [
        {
          "episode": 1,
          "name": null,
          "iframe_url": "",
          "iframe_poster": null,
          "release_ru": null,
          "release_world": null,
          "availability": null,
          "voiceActing": [
            "Рус. Люб. многоголосый",
            "Eng.Original"
          ],
          "ads": false,
          "subtitle": [
            "Рус. полные"
          ]
        },
        {
          "episode": 2,
          "name": null,
          "iframe_url": "",
          "iframe_poster": null,
          "release_ru": null,
          "release_world": null,
          "availability": null,
          "voiceActing": [
            "Рус. Люб. многоголосый",
            "Eng.Original"
          ],
          "ads": false,
          "subtitle": [
            "Рус. полные"
          ]
        },
        {
          "episode": 3,
          "name": null,
          "iframe_url": "",
          "iframe_poster": null,
          "release_ru": null,
          "release_world": null,
          "availability": null,
          "voiceActing": [
            "Рус. Люб. многоголосый",
            "Eng.Original"
          ],
          "ads": false,
          "subtitle": [
            "Рус. полные"
          ]
        },
        {
          "episode": 4,
          "name": null,
          "iframe_url": "",
          "iframe_poster": null,
          "release_ru": null,
          "release_world": null,
          "availability": null,
          "voiceActing": [
            "Рус. Люб. многоголосый",
            "Eng.Original"
          ],
          "ads": false,
          "subtitle": [
            "Рус. полные"
          ]
        },
        {
          "episode": 5,
          "name": null,
          "iframe_url": "",
          "iframe_poster": null,
          "release_ru": null,
          "release_world": null,
          "availability": null,
          "voiceActing": [
            "Рус. Люб. многоголосый",
            "Eng.Original"
          ],
          "ads": false,
          "subtitle": [
            "Рус. полные"
          ]
        },
        {
          "episode": 6,
          "name": null,
          "iframe_url": "",
          "iframe_poster": null,
          "release_ru": null,
          "release_world": null,
          "availability": null,
          "voiceActing": [
            "Рус. Люб. многоголосый",
            "Eng.Original"
          ],
          "ads": false,
          "subtitle": [
            "Рус. полные"
          ]
        },
        {
          "episode": 7,
          "name": null,
          "iframe_url": "",
          "iframe_poster": null,
          "release_ru": null,
          "release_world": null,
          "availability": null,
          "voiceActing": [
            "Рус. Люб. многоголосый",
            "Eng.Original"
          ],
          "ads": false,
          "subtitle": [
            "Рус. полные"
          ]
        },
        {
          "episode": 8,
          "name": null,
          "iframe_url": "",
          "iframe_poster": null,
          "release_ru": null,
          "release_world": null,
          "availability": null,
          "voiceActing": [
            "Рус. Люб. многоголосый",
            "Eng.Original"
          ],
          "ads": false,
          "subtitle": [
            "Eng. full"
          ]
        }
      ]
    }
  ],
  "voiceActing": [
    "Рус. Люб. многоголосый",
    "Eng.Original"
  ],
  "subtitle": [
    "Рус. полные",
    "Eng. full"
  ],
  "parts": []
}
