{
  "id": 21940,
  "name": "Тени прошлого",
  "name_eng": "",
  "year": 2014,
  "slogan": "—",
  "age": "12+",
  "type": "series",
  "quality": "FHD (1080p)",
  "imdb": null,
  "imdb_id": null,
  "kinopoisk": null,
  "kinopoisk_id": "897891",
  "world_art": null,
  "world_art_id": null,
  "time": "—",
  "ads": true,
  "premier": null,
  "premier_rus": "2015-02-07",
  "availability": "2015-02-08",
  "serial_status": "offline",
  "activate_time": "2020-06-08 10:01:00",
  "budget": null,
  "fees_use": null,
  "fees_world": null,
  "fees_rus": null,
  "rate_mpaa": null,
  "description": "Для главной героини Ксении, семья была тихой гаванью. Она любила мужа, тот любил ее. Но появился Николай и стал шантажировать героиню ее прошлым. Ксения предпринимает все возможное и невозможное, чтобы муж ничего не узнал. Правда открывается, когда Ксения встречается со своей дочерью, которую она оставила в младенчестве в роддоме.",
  "iframe_url": "",
  "poster": "https://img.imgilall.me/movies/franchise/2/1/9/4/0/0/0/0/0/0/610x900_21940.jpg",
  "country": {
    "5": "Россия"
  },
  "collection": [],
  "genre": {
    "8": "Мелодрама"
  },
  "director": [
    "Екатерина Двигубская"
  ],
  "screenwriter": [
    "Александр Жуков",
    "Ирина Ларина"
  ],
  "producer": [
    "Александр Кушаев",
    "Егор Юзбашев"
  ],
  "operator": [
    "Геннадий Немых"
  ],
  "composer": [
    "Владимир Сайко"
  ],
  "design": [
    "Валерий Юркевич",
    "Татьяна Котес"
  ],
  "editor": [],
  "actors": [
    "Анжела Кольцова",
    "Антон Сёмкин",
    "Кирилл Гребенщиков",
    "Марина Денисова",
    "Григорий Гандлевский",
    "Дарья Бранкевич",
    "Вера Кавалерова",
    "Андрей Карако",
    "Татьяна Гаркуша",
    "Сергей Анцелевич"
  ],
  "actors_dubl": [],
  "trivia": [],
  "trailers": [],
  "seasons": [
    {
      "poster": null,
      "release_ru": null,
      "release_world": null,
      "availability": null,
      "iframe_url": "",
      "season": 1,
      "episodes": [
        {
          "episode": 1,
          "name": null,
          "iframe_url": "",
          "iframe_poster": null,
          "release_ru": null,
          "release_world": null,
          "availability": null,
          "voiceActing": [
            "Рус. Оригинальный"
          ],
          "ads": true,
          "subtitle": []
        },
        {
          "episode": 2,
          "name": null,
          "iframe_url": "",
          "iframe_poster": null,
          "release_ru": null,
          "release_world": null,
          "availability": null,
          "voiceActing": [
            "Рус. Оригинальный"
          ],
          "ads": true,
          "subtitle": []
        }
      ]
    }
  ],
  "voiceActing": [
    "Рус. Оригинальный"
  ],
  "subtitle": [],
  "parts": []
}
