{
  "id": 21952,
  "name": "Добрые слова",
  "name_eng": "The Kind Words",
  "year": 2015,
  "slogan": "«Family can make you do crazy things»",
  "age": null,
  "type": "film",
  "quality": "SD",
  "imdb": "6.9",
  "imdb_id": "3809478",
  "kinopoisk": null,
  "kinopoisk_id": "844938",
  "world_art": null,
  "world_art_id": null,
  "time": "118 мин. / 01:58",
  "ads": false,
  "premier": "2015-05-28",
  "premier_rus": "2015-05-29",
  "availability": "2015-05-30",
  "activate_time": "2020-06-10 12:30:00",
  "budget": null,
  "fees_use": "$135 382",
  "fees_world": null,
  "fees_rus": null,
  "rate_mpaa": null,
  "description": "История трех вполне взрослых израильтян, узнавших что жизнь их семьи много лет была основана на лжи. У каждого из них свои проблемы. Дорона никак не может родить и после очередного выкидыша чувствует как разлаживаются её отношения с мужем. Старший из братьев Натанел, религиозный еврей, ушёл в иудаизм только под воздействием жены, и через много лет его решение кажется ему ошибкой. Шай — владелец небольшого ресторанчика — либерал и гей. После смерти матери в осиротевшей семье «нарисовался» давно ушедший из неё отец, когда-то покинувший жену ради молодой и симпатичной певички. Теперь он пытается наладить отношения с детьми, которых не видел много лет. От отца все трое узнают, что он не способен иметь детей, стало быть где-то существует их биологический отец. В поисках разгадки тайны все четверо отправляются из Иерусалима сначала в Париж, затем в Марсель. В конце концов они узнают, что секрет покойной скрыт в годах её молодости, которую она провела в Алжире…",
  "iframe_url": "",
  "iframe_poster": null,
  "poster": "https://img.imgilall.me/movies/franchise/2/1/9/5/2/0/0/0/0/0/610x900_21952.jpg",
  "country": {
    "7": "Канада",
    "72": "Израиль"
  },
  "collection": {
    "29": "Психологические"
  },
  "genre": {
    "7": "Драма"
  },
  "director": [
    "Шеми Зархин"
  ],
  "screenwriter": [
    "Шеми Зархин"
  ],
  "producer": [
    "Леон Эдери",
    "Моше Эдери",
    "Оснат Хандельсман-Керен"
  ],
  "operator": [
    "Рональд Планте"
  ],
  "composer": [
    "Дэниэл Скотт"
  ],
  "design": [
    "Авишай Авиви",
    "Dorit Ben Shoshan",
    "Дорон Ашкенази"
  ],
  "editor": [
    "Эйнат Глэйзер-Зархин"
  ],
  "actors": [
    "Ротем Зуссман-Коэн",
    "Rassabn Abes",
    "Ro'i Asaf",
    "Мэгги Азарзар",
    "Джонатан Бар-Гиора",
    "Ophelie Belalia",
    "Elizabeth Beltrami",
    "Assaf Ben-Shimon",
    "Флоренс Блох",
    "Xavier Bonadonna"
  ],
  "actors_dubl": [],
  "trivia": [],
  "trailers": [],
  "seasons": [],
  "voiceActing": [
    "Original"
  ],
  "subtitle": [],
  "parts": []
}
