{
  "id": 21993,
  "name": "Невидимка 2",
  "name_eng": "Hollow Man II",
  "year": 2006,
  "slogan": "«There's more to terror than meets the eye...»",
  "age": "16+",
  "type": "film",
  "quality": "HD (720p)",
  "imdb": "4.4",
  "imdb_id": "0469916",
  "kinopoisk": "4.6",
  "kinopoisk_id": "195341",
  "world_art": null,
  "world_art_id": null,
  "time": "91 мин. / 01:31",
  "ads": false,
  "premier": "2006-05-23",
  "premier_rus": "2006-05-24",
  "availability": "2006-05-25",
  "activate_time": "2020-06-05 11:22:00",
  "budget": null,
  "fees_use": null,
  "fees_world": null,
  "fees_rus": null,
  "rate_mpaa": "R",
  "description": "Эксперименты по достижению невидимости человека увенчались успехом: военные, мечтавшие об идеальном шпионе и диверсанте, в полном восторге. Но ученым так и не удалось справиться с побочными эффектами новой технологии — у невидимок резко повышается уровень агрессии и психической нестабильности.В один ужасный день очередной подопытный по имени Майкл Гриффин выходит из-под контроля и вырывается на свободу. Лишь два человека, знающие тайну незримого убийцы — Френк Тернер и биолог Мэгги Далтон — способны остановить его. Однако спецслужбы вовсе не желают быть уличенными в том, что выпустили на свободу невидимого монстра. И готовы на все, чтобы заставить героев замолчать навеки — как и сам Гриффин…",
  "iframe_url": "",
  "iframe_poster": null,
  "poster": "https://img.imgilall.me/movies/franchise/2/1/9/9/3/0/0/0/0/0/610x900_21993.jpg",
  "country": {
    "1": "США"
  },
  "collection": [],
  "genre": {
    "26": "Ужасы",
    "11": "Фантастика",
    "17": "Боевик",
    "13": "Триллер"
  },
  "director": [
    "Клаудио Фах"
  ],
  "screenwriter": [
    "Гэри Скотт Томпсон",
    "Джоэль Сойзон",
    "Эндрю У. Марлоу"
  ],
  "producer": [
    "Дэвид Ланкастер",
    "Люси Фишер",
    "Грег Малкольм"
  ],
  "operator": [
    "Питер Вансторф"
  ],
  "composer": [
    "Маркус Трумп"
  ],
  "design": [
    "Брентан Харрон",
    "Лиз Голдвин",
    "Мария Ливингстоун"
  ],
  "editor": [
    "Нэйтан Истерлинг"
  ],
  "actors": [
    "Кристиан Слэйтер",
    "Питер Фачинелли",
    "Лаура Риган",
    "Дэвид Макилрайт",
    "Уильям МакДональд",
    "Сара Дикинс",
    "Джессика Хэрмон",
    "Соня Саломяа",
    "Терри Энн Уэлики",
    "Джон Шоу"
  ],
  "actors_dubl": [],
  "trivia": [],
  "trailers": [],
  "seasons": [],
  "voiceActing": [
    "Рус. Проф. многоголосый"
  ],
  "subtitle": [],
  "parts": []
}
