{
  "id": 22036,
  "name": "Я виновен",
  "name_eng": "Je suis coupable",
  "year": 2017,
  "slogan": "—",
  "age": null,
  "type": "film",
  "quality": "SD",
  "imdb": "4.4",
  "imdb_id": "6439438",
  "kinopoisk": null,
  "kinopoisk_id": "1027538",
  "world_art": null,
  "world_art_id": null,
  "time": "90 мин. / 01:30",
  "ads": false,
  "premier": "2017-01-18",
  "premier_rus": "2017-01-19",
  "availability": "2017-01-20",
  "activate_time": "2020-06-10 12:35:00",
  "budget": null,
  "fees_use": null,
  "fees_world": null,
  "fees_rus": null,
  "rate_mpaa": null,
  "description": "Посреди тихого дня раздается выстрел: женщина покончила жизнь самоубийством. Её муж отводит дочерей к родственнице и связывается со своим другом-врачом, чтобы констатировать смерть. Но полиция начинает сомневаться: тело было перемещено, оружие брошено... Что же на самом деле произошло?",
  "iframe_url": "",
  "iframe_poster": null,
  "poster": "https://img.imgilall.me/movies/franchise/2/2/0/3/6/0/0/0/0/0/610x900_22036.jpg",
  "country": {
    "9": "Франция"
  },
  "collection": [],
  "genre": {
    "25": "Криминал",
    "7": "Драма"
  },
  "director": [
    "Кристоф Ламотт"
  ],
  "screenwriter": [
    "Marie Guilmineau"
  ],
  "producer": [
    "Пьер Эйд"
  ],
  "operator": [
    "Бенуа Шамайар"
  ],
  "composer": [
    "Андре Дзезюк"
  ],
  "design": [
    "Матье Мену",
    "Бетсабе Дрейфюс"
  ],
  "editor": [
    "Кристин Лукас Наварро"
  ],
  "actors": [
    "Брюно Дебрандт",
    "Мари Денарно",
    "Самуэль Жуи",
    "Хлоя Ламберт",
    "Кристель Ребуль",
    "Фредерик Бурали",
    "Мартин Косте",
    "Мартин Шевалье",
    "Бенуа Жирос",
    "Джульетт Нэвис"
  ],
  "actors_dubl": [],
  "trivia": [],
  "trailers": [],
  "seasons": [],
  "voiceActing": [
    "GreenРай Studio"
  ],
  "subtitle": [],
  "parts": []
}
