{
  "id": 22118,
  "name": "Изнанка судьбы",
  "name_eng": "Reversal of Fortune",
  "year": 1990,
  "slogan": "«The Case of Claus Von Bulow. An American Saga of Money and Mystery»",
  "age": "16+",
  "type": "film",
  "quality": "FHD (1080p)",
  "imdb": "7.2",
  "imdb_id": "0100486",
  "kinopoisk": "6.7",
  "kinopoisk_id": "17322",
  "world_art": null,
  "world_art_id": null,
  "time": "112 мин. / 01:52",
  "ads": false,
  "premier": "1990-09-12",
  "premier_rus": "1990-09-13",
  "availability": "1990-09-14",
  "activate_time": "2020-06-05 22:19:00",
  "budget": null,
  "fees_use": "$15 445 131",
  "fees_world": null,
  "fees_rus": null,
  "rate_mpaa": "R",
  "description": "Аристократ Клаус фон Бюлов обвинен в попытке убийства своей жены Санни. Клаус был оправдан. Так виновен ли он?",
  "iframe_url": "",
  "iframe_poster": null,
  "poster": "https://img.imgilall.me/movies/franchise/2/2/1/1/8/0/0/0/0/0/610x900_22118.jpg",
  "country": {
    "1": "США",
    "2": "Великобритания",
    "18": "Япония"
  },
  "collection": {
    "114": "Лауреат премии \"Оскар\"",
    "5": "С наградами"
  },
  "genre": {
    "27": "Биографический",
    "24": "Детектив",
    "7": "Драма"
  },
  "director": [
    "Барбет Шрёдер"
  ],
  "screenwriter": [
    "Николас Казан",
    "Алан М. Дершовиц"
  ],
  "producer": [
    "Эдвард Р. Прессман",
    "Оливер Стоун",
    "Элон Дершовиц"
  ],
  "operator": [
    "Лучиано Товоли"
  ],
  "composer": [
    "Марк Айшем"
  ],
  "design": [
    "Мэл Борн",
    "Дэн Дэвис",
    "Джудианна Маковски"
  ],
  "editor": [
    "Ли Перси"
  ],
  "actors": [
    "Гленн Клоуз",
    "Джереми Айронс",
    "Рон Сильвер",
    "Аннабелла Шиорра",
    "Ута Хаген",
    "Фишер Стивенс",
    "Джек Гилпин",
    "Кристин Барански",
    "Стефен Мэйлер",
    "Кристин Данфорд"
  ],
  "actors_dubl": [
    "Наталья Вихрова",
    "Дмитрий Матвеев",
    "Дмитрий Полонский",
    "Александр Рыжков",
    "Александр Новиков"
  ],
  "trivia": [
    "По словам ассистента режиссера Говарда Фьюэра, актрисе Гленн Клоуз были выплачены «несметные сокровища» за три недели работы. И в то время как исполняющие главные роли Джереми Айронс и Рон Сильвер получали достаточно хорошо, актерам с ролями второго плана — Джули Хэгерти, Фишер Стивенс и Уте Хаген — приходилось довольствоваться стандартным окладом и 10 % агенту.",
    "Марта фон Бюлов, которая провела последние 28 лет своей жизни в коме, скончалась 6 декабря 2008 года в возрасте 76 лет. Ее мужа дважды обвиняли в попытках убить ее.",
    "Джереми Айронс действительно встречался с настоящим Клаусом фон Бюловом, хотя это произошло только спустя несколько лет после выхода фильма. Айронс прокомментировал ситуацию: «Он не говорил мне ничего такого, чего я уже не знал».",
    "Наручные часы, которые Джереми Айронс носит в своем офисе, — это Swatch Burglar.",
    "Сценарист Алан М. Дершовиц, по книге которого снят фильм, сыграл эпизодическую роль в фильме: одного из апелляционных судей.",
    "История двух братьев, которых Алан Дершовиц (Рон Сильвер) пытается спасти от смертного приговора, основана на случае братьев Тисон в Аризоне в 1980 году. Они помогли своему отцу сбежать из тюрьмы, вскоре после чего он убил четырех человек. Оба брата были обвинены в убийстве."
  ],
  "trailers": [],
  "seasons": [],
  "voiceActing": [
    "Варус-Видео",
    "Рус. Проф. многоголосый",
    "А. Михалев",
    "Eng.Original"
  ],
  "subtitle": [
    "Eng. full"
  ],
  "parts": []
}
