{
  "id": 22129,
  "name": "Отчаянный папа",
  "name_eng": "Father Hood",
  "year": 1993,
  "slogan": "«There's No Escaping Laughter...»",
  "age": "16+",
  "type": "film",
  "quality": "HD (720p)",
  "imdb": "4.9",
  "imdb_id": "0106877",
  "kinopoisk": "6.8",
  "kinopoisk_id": "1988",
  "world_art": null,
  "world_art_id": null,
  "time": "95 мин. / 01:35",
  "ads": true,
  "premier": "1993-08-27",
  "premier_rus": "1993-08-28",
  "availability": "1993-08-29",
  "activate_time": "2020-06-05 20:20:00",
  "budget": null,
  "fees_use": "$3 418 141",
  "fees_world": null,
  "fees_rus": null,
  "rate_mpaa": "PG-13",
  "description": "Джек Чарльз - беспутный отец, имеющий 3 судимости и не уделяющий должного внимания своим детям. После смерти матери дети оказываются в интернате, где с ними обращаются не лучшим образом. Джек решает похитить их и, скрываясь от преследований полиции, совершает ряд безрассудных поступков. Угон автомобилей и катера он осуществляет весело и с выдумкой. Но постепенно восхищение детей сменяется горечью, что у них все не как у других...",
  "iframe_url": "",
  "iframe_poster": null,
  "poster": "https://img.imgilall.me/movies/franchise/2/2/1/2/9/0/0/0/0/0/610x900_22129.jpg",
  "country": {
    "1": "США"
  },
  "collection": {
    "21": "Для молодёжи"
  },
  "genre": {
    "9": "Приключения",
    "19": "Комедия",
    "7": "Драма"
  },
  "director": [
    "Даррелл Рудт"
  ],
  "screenwriter": [
    "Скотт Спенсер"
  ],
  "producer": [
    "Джеффри Чернов",
    "Джиллиан Горфил",
    "Николас Пиледжи"
  ],
  "operator": [
    "Марк Висенте"
  ],
  "composer": [
    "Патрик О’Херн"
  ],
  "design": [
    "Дэвид Баркэм",
    "Динс В.В. Даниелсен",
    "Донфелд"
  ],
  "editor": [
    "Дэвид Хейтнер"
  ],
  "actors": [
    "Патрик Суэйзи",
    "Холли Берри",
    "Сабрина Ллойд",
    "Брайан Бонсалл",
    "Майкл Айронсайд",
    "Дайан Лэдд",
    "Боб Гантон",
    "Эдриенн Барбо",
    "Джорганн Джонсон",
    "Марвин Дж. МакИнтайр"
  ],
  "actors_dubl": [],
  "trivia": [
    "На момент съёмок фильма Сабрине Ллойд. играющей девочку-подростка, исполнилось 23 года.",
    "Используя перекрытый по поводу съёмок участок дороги, рок-группа R.E.M. записала там видео-клип на свою известную композицию «Everybody Hurts».",
    "Оригинальное название фильма — «Father Hood» (Отец по кличке «Капюшон») — прямая аллюзия на благородного разбойника Робина Гуда (Robin Hood). Из-за сложности буквального перевода в прокате разных стран фильм получал различные названия: «Похититель детей» («Der Kidnapper») в Германии, «Враг общества № 1… мой папа» («El enemigo público número 1… mi padre») в Испании, «Семья в бегах» («Famiglia in fuga») в Италии и т. д."
  ],
  "trailers": [],
  "seasons": [],
  "voiceActing": [
    "А. Пронин",
    "Eng.Original"
  ],
  "subtitle": [
    "Eng. SDH"
  ],
  "parts": []
}
