{
  "id": 22237,
  "name": "Механика любви",
  "name_eng": "The Mechanics of Love",
  "year": 2017,
  "slogan": "—",
  "age": null,
  "type": "film",
  "quality": "HD (720p)",
  "imdb": "6.3",
  "imdb_id": "5493392",
  "kinopoisk": null,
  "kinopoisk_id": "970352",
  "world_art": null,
  "world_art_id": null,
  "time": "90 мин. / 01:30",
  "ads": true,
  "premier": "2017-03-13",
  "premier_rus": "2017-03-14",
  "availability": "2017-03-15",
  "activate_time": "2020-06-08 16:19:00",
  "budget": null,
  "fees_use": null,
  "fees_world": null,
  "fees_rus": null,
  "rate_mpaa": null,
  "description": "Маттлинн Дьюпри вернулась в свой родной город на свадьбу сестры. Ностальгические воспоминания о прошлом, случайная встреча со старым другом Джейком в автомастерской отца коренным образом меняют все её планы. Матлинн решает остаться здесь навсегда. Но с этим категорически не согласен её босс. В городе появляется бывший бойфренд Маттлинн, чтобы вернуть её, а босс обещает долгожданное повышение. Так девушка оказывается между сложным выбором: жизнь, которую, по её мнению, всегда хотела, и тем единственным, которого она вновь полюбила.",
  "iframe_url": "",
  "iframe_poster": null,
  "poster": "https://img.imgilall.me/movies/franchise/2/2/2/3/7/0/0/0/0/0/610x900_22237.jpg",
  "country": {
    "1": "США"
  },
  "collection": [],
  "genre": {
    "10": "Зарубежный",
    "7": "Драма"
  },
  "director": [
    "Дэвид Уивер"
  ],
  "screenwriter": [
    "Даррен О’Харе",
    "Виктория Роуз"
  ],
  "producer": [
    "Джэми Горинг",
    "Кевин Лисон",
    "Джеймисон Паркер"
  ],
  "operator": [
    "Рендал Платт"
  ],
  "composer": [
    "Collin Ankerson"
  ],
  "design": [
    "Дэрен Сэсджис",
    "Клаудия Да Понте",
    "Heather Victoria-Adams"
  ],
  "editor": [
    "Джейсон Дэйл"
  ],
  "actors": [
    "Шинэй Граймс-Бич",
    "Тайлер Хайнс",
    "Локлин Манро",
    "Эмили Теннант",
    "Блэр Пеннер",
    "Уилльям Вон",
    "Мило Шендел",
    "Райан Брюс",
    "Ивонн Чепмен",
    "Emily Mae Giles"
  ],
  "actors_dubl": [],
  "trivia": [],
  "trailers": [],
  "seasons": [],
  "voiceActing": [
    "Рус. Люб. многоголосый"
  ],
  "subtitle": [],
  "parts": []
}
