{
  "id": 22284,
  "name": "Быстрее, кошечка! Убей, убей!",
  "name_eng": "Faster, Pussycat! Kill! Kill!",
  "year": 1965,
  "slogan": "«Russ Meyer's ode to the violence in women»",
  "age": "16+",
  "type": "film",
  "quality": "HD (720p)",
  "imdb": "6.7",
  "imdb_id": "0059170",
  "kinopoisk": "6.7",
  "kinopoisk_id": "84202",
  "world_art": null,
  "world_art_id": null,
  "time": "83 мин. / 01:23",
  "ads": false,
  "premier": "1965-08-06",
  "premier_rus": "1965-08-07",
  "availability": "1965-08-08",
  "activate_time": "2020-06-08 19:07:00",
  "budget": "$45 000",
  "fees_use": null,
  "fees_world": null,
  "fees_rus": null,
  "rate_mpaa": null,
  "description": "Три стриптизёрши, ищущие острых ощущений, сталкиваются с молодой парой в пустыне. После расправы с молодым человеком, они берут девушку в заложницы и устраиваются у старика-калеки, живущего с двумя сыновьями, скрывающего, по их мнению, крупную сумму денег. Они становятся гостями старика и пытаются соблазнить его сыновей, пытаясь определить местонахождение денег, не предполагая, что у старика имеются свои планы насчёт девушек…",
  "iframe_url": "",
  "iframe_poster": null,
  "poster": "https://img.imgilall.me/movies/franchise/2/2/2/8/4/0/0/0/0/0/610x900_22284.jpg",
  "country": {
    "1": "США"
  },
  "collection": [],
  "genre": {
    "19": "Комедия",
    "17": "Боевик"
  },
  "director": [
    "Расс Майер"
  ],
  "screenwriter": [
    "Джек Моран",
    "Расс Майер"
  ],
  "producer": [
    "Ив Мейер",
    "Расс Майер",
    "Джордж Костильо"
  ],
  "operator": [
    "Уолтер Шенк"
  ],
  "composer": [],
  "design": [],
  "editor": [
    "Расс Майер",
    "Чарльз Дж. Шеллинг"
  ],
  "actors": [
    "Тура Сатана",
    "Хаджи",
    "Лори Уильямс",
    "Рэй Барлоу",
    "Сью Бернард",
    "Майкл Финн",
    "Дэннис Буш",
    "Стюарт Ланкастер",
    "Пол Тринка",
    "Джон Фурлонг"
  ],
  "actors_dubl": [],
  "trivia": [],
  "trailers": [],
  "seasons": [],
  "voiceActing": [
    "Рус. Проф. многоголосый",
    "Рус. Люб. одноголосый",
    "Eng.Original"
  ],
  "subtitle": [],
  "parts": []
}
