{
  "id": 22312,
  "name": "Затопленный город",
  "name_eng": "Curon",
  "year": 2020,
  "slogan": "—",
  "age": null,
  "type": "series",
  "quality": "FHD (1080p)",
  "imdb": "5.8",
  "imdb_id": "10101518",
  "kinopoisk": "5.9",
  "kinopoisk_id": "1304560",
  "world_art": null,
  "world_art_id": null,
  "time": "50 мин",
  "ads": false,
  "premier": "2020-06-10",
  "premier_rus": "2020-06-11",
  "availability": "2020-06-12",
  "serial_status": "paused",
  "activate_time": "2020-06-09 09:33:00",
  "budget": null,
  "fees_use": null,
  "fees_world": null,
  "fees_rus": null,
  "rate_mpaa": null,
  "description": "Женщина с детьми, подростками-близнецами, возвращается в родной город, где вскоре исчезает. Теперь ребятам предстоит столкнуться с древними легендами и мрачными семейными тайнами.",
  "iframe_url": "",
  "poster": "https://img.imgilall.me/movies/franchise/2/2/3/1/2/0/0/0/0/0/610x900_22312.jpg",
  "country": {
    "8": "Италия"
  },
  "collection": {
    "40": "Netflix"
  },
  "genre": {
    "6": "Фэнтези",
    "24": "Детектив",
    "13": "Триллер",
    "10": "Зарубежный"
  },
  "director": [
    "Фабио Молло",
    "Лида Патитуччи"
  ],
  "screenwriter": [
    "Ezio Abbate",
    "Ivano Fachin",
    "Giovanni Galassi"
  ],
  "producer": [
    "Марко Коэн",
    "Фабрицио Донвито",
    "Бенедетто Хабиб"
  ],
  "operator": [
    "Бенжамин Мэйер"
  ],
  "composer": [
    "Джорджо Джампа",
    "Ginevra Nervi",
    "Carmelo Emanuele Patti"
  ],
  "design": [
    "Sara Fanelli"
  ],
  "editor": [
    "Люка Монтанари",
    "Филиппо Мария Монтемурро",
    "Мирко Платаниа"
  ],
  "actors": [
    "Лука Лионелло",
    "Федерико Руссо",
    "Margherita Morchio",
    "Анна Ферцетти",
    "Алессандро Тедески",
    "Juju Di Domenico",
    "Джулио Брицци",
    "Luca Castellano",
    "Райан Каргилл",
    "Dennis Kleinman"
  ],
  "actors_dubl": [],
  "trivia": [],
  "trailers": [
    {
      "name": "трейлер №1",
      "number": 1,
      "iframe_poster": null,
      "season": 1,
      "iframe_url": ""
    }
  ],
  "seasons": [
    {
      "poster": null,
      "release_ru": "2020-06-11",
      "release_world": "2020-06-10",
      "availability": "2020-06-12",
      "iframe_url": "",
      "season": 1,
      "episodes": [
        {
          "episode": 1,
          "name": "The Black Lake",
          "iframe_url": "",
          "iframe_poster": null,
          "release_ru": "2020-06-11",
          "release_world": "2020-06-10",
          "availability": "2020-06-12",
          "voiceActing": [
            "HDRezka Studio",
            "Ital. Original"
          ],
          "ads": false,
          "subtitle": [
            "Eng. SDH"
          ]
        },
        {
          "episode": 2,
          "name": null,
          "iframe_url": "",
          "iframe_poster": null,
          "release_ru": "2020-06-11",
          "release_world": "2020-06-10",
          "availability": "2020-06-12",
          "voiceActing": [
            "HDRezka Studio",
            "Ital. Original"
          ],
          "ads": false,
          "subtitle": [
            "Eng. SDH"
          ]
        },
        {
          "episode": 3,
          "name": null,
          "iframe_url": "",
          "iframe_poster": null,
          "release_ru": "2020-06-11",
          "release_world": "2020-06-10",
          "availability": "2020-06-12",
          "voiceActing": [
            "HDRezka Studio",
            "Ital. Original"
          ],
          "ads": false,
          "subtitle": [
            "Eng. SDH"
          ]
        },
        {
          "episode": 4,
          "name": null,
          "iframe_url": "",
          "iframe_poster": null,
          "release_ru": "2020-06-11",
          "release_world": "2020-06-10",
          "availability": "2020-06-12",
          "voiceActing": [
            "HDRezka Studio",
            "Ital. Original"
          ],
          "ads": false,
          "subtitle": [
            "Eng. SDH"
          ]
        },
        {
          "episode": 5,
          "name": null,
          "iframe_url": "",
          "iframe_poster": null,
          "release_ru": "2020-06-11",
          "release_world": "2020-06-10",
          "availability": "2020-06-12",
          "voiceActing": [
            "HDRezka Studio",
            "Ital. Original"
          ],
          "ads": false,
          "subtitle": [
            "Eng. SDH"
          ]
        },
        {
          "episode": 6,
          "name": null,
          "iframe_url": "",
          "iframe_poster": null,
          "release_ru": "2020-06-11",
          "release_world": "2020-06-10",
          "availability": "2020-06-12",
          "voiceActing": [
            "HDRezka Studio",
            "Ital. Original"
          ],
          "ads": false,
          "subtitle": [
            "Eng. SDH"
          ]
        },
        {
          "episode": 7,
          "name": null,
          "iframe_url": "",
          "iframe_poster": null,
          "release_ru": "2020-06-11",
          "release_world": "2020-06-10",
          "availability": "2020-06-12",
          "voiceActing": [
            "HDRezka Studio",
            "Ital. Original"
          ],
          "ads": false,
          "subtitle": [
            "Eng. SDH"
          ]
        }
      ]
    }
  ],
  "voiceActing": [
    "HDRezka Studio",
    "Ital. Original"
  ],
  "subtitle": [
    "Eng. SDH"
  ],
  "parts": []
}
