{
  "id": 22376,
  "name": "Телемертвецы",
  "name_eng": "The Video Dead",
  "year": 1987,
  "slogan": "«The living dead are here, and they're lusting for blood - yours!»",
  "age": "18+",
  "type": "film",
  "quality": "SD",
  "imdb": "5.1",
  "imdb_id": "0155350",
  "kinopoisk": "5.4",
  "kinopoisk_id": "256088",
  "world_art": null,
  "world_art_id": null,
  "time": "90 мин. / 01:30",
  "ads": true,
  "premier": "2000-05-17",
  "premier_rus": "2000-05-18",
  "availability": "2000-05-19",
  "activate_time": "2020-06-09 13:43:00",
  "budget": "$80 000",
  "fees_use": null,
  "fees_world": null,
  "fees_rus": null,
  "rate_mpaa": "R",
  "description": "Из-за ошибки почтовой службы телевизор, направленный в институт оккультных наук, попадает не по адресу. Если этот телевизор включить, он будет показывать только один фильм — «Кровавые кошмары зомби». Если его выключить, он все равно будет показывать этот фильм. А потом и сами зомби вылазят из телевизора. Но если делать вид, что они обыкновенные живые люди и не бояться их, то мертвецы не тронут.",
  "iframe_url": "",
  "iframe_poster": null,
  "poster": "https://img.imgilall.me/movies/franchise/2/2/3/7/6/0/0/0/0/0/610x900_22376.jpg",
  "country": {
    "1": "США"
  },
  "collection": {
    "51": "Про зомби"
  },
  "genre": {
    "26": "Ужасы",
    "19": "Комедия"
  },
  "director": [
    "Роберт Скотт"
  ],
  "screenwriter": [
    "Роберт Скотт"
  ],
  "producer": [
    "Роберт Скотт",
    "Уильям С. Уэйнер"
  ],
  "operator": [
    "Грег Бекер"
  ],
  "composer": [
    "Леонард Марсель",
    "Кевин МакМахон",
    "Стюарт Рабинович"
  ],
  "design": [
    "Каталин Роджерс",
    "Андреа Немерсон",
    "Эдвард Ричард"
  ],
  "editor": [
    "Боб Сарлс"
  ],
  "actors": [
    "Майкл Ст. Майклс",
    "Тадеус Голас",
    "Дуглас Белл",
    "Аль Миллан",
    "Роксанна Огесен",
    "Лори-Майкл Ригетт",
    "Джордж Кернан",
    "Роки Дюваль",
    "Сэм Дэвид МакКлелланд",
    "Дженнифер Миро"
  ],
  "actors_dubl": [],
  "trivia": [],
  "trailers": [],
  "seasons": [],
  "voiceActing": [
    "НТВ",
    "Eng.Original"
  ],
  "subtitle": [],
  "parts": []
}
