{
  "id": 22371,
  "name": "Теорема",
  "name_eng": "Teorema",
  "year": 1968,
  "slogan": "«There are only 923 words spoken in «Teorema» - but it says everything!»",
  "age": "16+",
  "type": "film",
  "quality": "SD",
  "imdb": "7.2",
  "imdb_id": "0063678",
  "kinopoisk": "7.7",
  "kinopoisk_id": "31806",
  "world_art": null,
  "world_art_id": null,
  "time": "98 мин. / 01:38",
  "ads": false,
  "premier": "1968-09-05",
  "premier_rus": "1968-09-06",
  "availability": "1968-09-07",
  "activate_time": "2020-06-09 13:24:00",
  "budget": null,
  "fees_use": null,
  "fees_world": null,
  "fees_rus": null,
  "rate_mpaa": null,
  "description": "В богатом миланском доме появляется гость. Он по очереди вступает в сексуальные отношения со всеми членами семьи – с сыном, дочерью, матерью, отцом и со служанкой. Гость уезжает, а привычный уклад буржуазного семейства разрушается до основания…",
  "iframe_url": "",
  "iframe_poster": null,
  "poster": "https://img.imgilall.me/movies/franchise/2/2/3/7/1/0/0/0/0/0/610x900_22371.jpg",
  "country": {
    "8": "Италия"
  },
  "collection": [],
  "genre": {
    "7": "Драма"
  },
  "director": [
    "Пьер Паоло Пазолини"
  ],
  "screenwriter": [
    "Пьер Паоло Пазолини"
  ],
  "producer": [
    "Маноло Болоньини",
    "Франко Росселлини"
  ],
  "operator": [
    "Джузеппе Руццолини"
  ],
  "composer": [
    "Эннио Морриконе"
  ],
  "design": [
    "Лучиано Пуччини",
    "Роберто Капуччи",
    "Марчелла Де Маркиз"
  ],
  "editor": [
    "Нино Баральи"
  ],
  "actors": [
    "Теренс Стэмп",
    "Сильвана Мангано",
    "Массимо Джиротти",
    "Анна Вяземски",
    "Лаура Бетти",
    "Андрес Хосе Крус Сублетт",
    "Нинетто Даволи",
    "Карло Де Мейо",
    "Аделе Камбрия",
    "Луиджи Барбини"
  ],
  "actors_dubl": [],
  "trivia": [
    "Подсчитано, что в фильме произносится только 923 слова.",
    "Процесс по обвинению фильма в непристойности закончился оправдательным вердиктом. Судья обосновал своё решение следующим образом: «Волнение, которое я испытал при просмотре, носило не сексуальный, а исключительно идеологический и мистический характер. Поскольку речь, бесспорно, идет о произведении искусства, оно не может быть непристойным»."
  ],
  "trailers": [],
  "seasons": [],
  "voiceActing": [
    "Рус. Проф. многоголосый"
  ],
  "subtitle": [],
  "parts": []
}
