{
  "id": 22489,
  "name": "Человек в стеклянной будке",
  "name_eng": "The Man in the Glass Booth",
  "year": 1975,
  "slogan": "«The kidnapping . . . . The masquerade . . . The murder trial . . . . Perhaps the most suspenseful shocker of our time»",
  "age": null,
  "type": "film",
  "quality": "HD (720p)",
  "imdb": "7.1",
  "imdb_id": "0073345",
  "kinopoisk": "7.8",
  "kinopoisk_id": "48343",
  "world_art": null,
  "world_art_id": null,
  "time": "117 мин. / 01:57",
  "ads": true,
  "premier": "1975-01-27",
  "premier_rus": "1975-01-28",
  "availability": "1975-01-29",
  "activate_time": "2020-06-09 21:33:00",
  "budget": null,
  "fees_use": null,
  "fees_world": null,
  "fees_rus": null,
  "rate_mpaa": "PG",
  "description": "Начало 1970-х, Нью-Йорк. Артур Голдман — преуспевающий еврейский бизнесмен, миллионер и меценат,  выживший во время Холокоста в нацистских лагерях смерти. Но есть в его поведении странности: он шокирует своих сотрудников приступами мании преследования и жёстким антисемитизмом. Однажды израильские спецслужбы похищают Голдмана и доставляют его в Израиль для судебного разбирательства по обвинению в нацистских военных преступлениях. Израильская прокуратура приводит доказательства того, что под маской еврейского бизнесмена скрывается бывший комендант концентрационного лагеря Карл Дорфф. Обвиняемый решил защищать себя сам. Обращаясь из стеклянной кабины в зале суда к своим обвинителям, Голдман спрашивал: почему во время Холокоста, когда приходили за вашими соседями и родственниками, вы молчали? Почему вы думали, что беда, коснувшаяся соседнего дома, не коснется вашего, и отчего вы вели себя как ягнята, которых ведут на бойню? В ходе процесса выяснилось, что Голдман лишь выдавал себя за нациста. Когда его обман был раскрыт, он заново вернулся к трагическим переживаниям военных лет.",
  "iframe_url": "",
  "iframe_poster": null,
  "poster": "https://img.imgilall.me/movies/franchise/2/2/4/8/9/0/0/0/0/0/610x900_22489.jpg",
  "country": {
    "1": "США"
  },
  "collection": {
    "27": "Про жизнь"
  },
  "genre": {
    "7": "Драма"
  },
  "director": [
    "Артур Хиллер"
  ],
  "screenwriter": [
    "Эдвард Энхалт",
    "Роберт Шоу"
  ],
  "producer": [
    "Эли А. Ландау",
    "Морт Абрахамс"
  ],
  "operator": [
    "Сэм Ливитт"
  ],
  "composer": [],
  "design": [
    "Джоэль Шиллер",
    "Джон А. Андерсон",
    "Леонард А. Маццола"
  ],
  "editor": [
    "Дэвид Брезертон"
  ],
  "actors": [
    "Максимилиан Шелл",
    "Луис Неттлтон",
    "Лоуренс Прессман",
    "Лютер Эдлер",
    "Ллойд Бокнер",
    "Роберт Х. Харрис",
    "Генри Браун",
    "Норберт Шиллер",
    "Берри Крёгер",
    "Леонардо Чимино"
  ],
  "actors_dubl": [],
  "trivia": [],
  "trailers": [],
  "seasons": [],
  "voiceActing": [
    "Рус. Люб. одноголосый",
    "Eng.Original"
  ],
  "subtitle": [
    "Рус. полные"
  ],
  "parts": []
}
