{
  "id": 2260,
  "name": "Истинная грусть",
  "name_eng": "Perfect blue",
  "year": 1998,
  "slogan": "«The color of illusion is Perfect Blue»",
  "age": "18+",
  "type": "anime-film",
  "quality": "HD (720p)",
  "imdb": "8.0",
  "imdb_id": "0156887",
  "kinopoisk": "7.6",
  "kinopoisk_id": "8237",
  "world_art": "8.2",
  "world_art_id": "68",
  "time": "81 мин. / 01:21",
  "ads": false,
  "premier": "1998-02-16",
  "premier_rus": "1998-02-17",
  "availability": "1998-02-18",
  "activate_time": "2018-09-14 09:31:27",
  "budget": null,
  "fees_use": "$112 536",
  "fees_world": null,
  "fees_rus": null,
  "rate_mpaa": "R",
  "description": "Молодая поп-певица Мима Киригоэ пытается перейти из мира музыки в индустрию ТВ-сериалов и прославиться как актриса, но, похоже, что не всем её поклонникам понравилось такое решение, и началось: странный телефонный звонок, факс, конверт со взрывчаткой… К тому же в интернете обнаружилась страничка с якобы её дневником.",
  "iframe_url": "",
  "iframe_poster": "https://img.imgilall.me/movies/video/2/0/0/6/3/0/0/0/0/0/800x450_20063.jpeg",
  "poster": "https://img.imgilall.me/movies/franchise/2/2/6/0/0/0/0/0/0/0/610x900_2260.jpg",
  "country": {
    "18": "Япония"
  },
  "collection": {
    "21": "Для молодёжи"
  },
  "genre": {
    "9": "Приключения",
    "26": "Ужасы",
    "13": "Триллер",
    "10": "Зарубежный",
    "7": "Драма"
  },
  "director": [
    "Сатоси Кон"
  ],
  "screenwriter": [
    "Садаюки Мураи",
    "Рика Такахаси",
    "Ёсикадзу Такэути"
  ],
  "producer": [
    "Хироаки Иноуэ",
    "Ёсихиса Исихара",
    "Масао Маруяма"
  ],
  "operator": [
    "Хисао Сираи"
  ],
  "composer": [
    "Масахиро Икуми"
  ],
  "design": [
    "Нобутака Икэ"
  ],
  "editor": [
    "Харутоси Огата"
  ],
  "actors": [
    "Дзюнко Ивао",
    "Рика Мацумото",
    "Синпати Цудзи",
    "Масааки Окура",
    "Ёсукэ Акимото",
    "Ёку Сиоя",
    "Хидэюки Хори",
    "Эми Синохара",
    "Масаси Эбара",
    "Киёюки Янада"
  ],
  "actors_dubl": [],
  "trivia": [
    "Сцена кричащей девушки, находящейся в ванне под водой, была скопирована в фильме «Реквием по мечте» (2000). Дарен Аронофски выкупил права на мультфильм для того, чтобы использовать в своем произведении эту сцену.",
    "Первоначально предполагалось снимать кинофильм. Поэтому в фильме активно используются «кинематографические» приемы работы с изображением.",
    "Название фильма говорит о чистом токийском небе (буквальный перевод — «Чистое голубое [небо]\"). Оно имело смысл для романа, однако потеряло свое значение для фильма.",
    "Иллюстратором романа был Кацухиро Отомо. Именно он порекомендовал своего ученика Сатоси Кона на должность режиссера фильма."
  ],
  "trailers": [
    {
      "name": "трейлер №1",
      "number": 1,
      "iframe_poster": null,
      "season": null,
      "iframe_url": ""
    }
  ],
  "seasons": [],
  "voiceActing": [
    "Рус. Проф. многоголосый",
    "Рус. Люб. двухголосый"
  ],
  "subtitle": [],
  "parts": []
}
