{
  "id": 22707,
  "name": "Психбольница",
  "name_eng": "Asylum",
  "year": 1972,
  "slogan": "«See what the author of «Psycho» is up to now!»",
  "age": null,
  "type": "film",
  "quality": "HD (720p)",
  "imdb": "6.5",
  "imdb_id": "0068230",
  "kinopoisk": "6.6",
  "kinopoisk_id": "8714",
  "world_art": null,
  "world_art_id": null,
  "time": "85 мин. / 01:25",
  "ads": false,
  "premier": "1972-07-06",
  "premier_rus": "1972-07-07",
  "availability": "1972-07-08",
  "activate_time": "2020-06-11 11:17:00",
  "budget": null,
  "fees_use": null,
  "fees_world": null,
  "fees_rus": null,
  "rate_mpaa": "PG",
  "description": "Молодой психиатр доктор Мартин  приезжает в психбольницу Дансмора, где надеется быть принятым на работу. Главный врач клиники, доктор Стар, был помещен к своим бывшим пациентам из-за умственного расстройства. Его ассистент, доктор Рутерфорд, чтобы проверить компетенцию прибывшего, показывает доктору Мартину четырех пациентов, среди которых находится и доктор Стар. Доктор должен выслушать их, идентифицировать и обнаружить безумного главного врача...",
  "iframe_url": "",
  "iframe_poster": null,
  "poster": "https://img.imgilall.me/movies/franchise/2/2/7/0/7/0/0/0/0/0/610x900_22707.jpg",
  "country": {
    "2": "Великобритания"
  },
  "collection": [],
  "genre": {
    "26": "Ужасы",
    "10": "Зарубежный"
  },
  "director": [
    "Рой Уорд Бейкер"
  ],
  "screenwriter": [
    "Роберт Блох"
  ],
  "producer": [
    "Милтон Суботски",
    "Гюстав М. Берн",
    "Макс Розенберг"
  ],
  "operator": [
    "Денис Н. Куп"
  ],
  "composer": [
    "Дуглас Геймли"
  ],
  "design": [
    "Тони Кертис"
  ],
  "editor": [
    "Питер Тэннер"
  ],
  "actors": [
    "Барбара Паркинс",
    "Ричард Тодд",
    "Сильвия Симс",
    "Питер Кушинг",
    "Бэрри Морс",
    "Энн Фёрбэнк",
    "Джон Фрэнклин-Роббинс",
    "Бритт Экланд",
    "Шарлотта Рэмплинг",
    "Джеймс Виллерс"
  ],
  "actors_dubl": [],
  "trivia": [
    "Сцена с участием Херберта Лома была отснята за полдня.",
    "Все сцены с участием Питера Кушинга были отсняты за два дня.",
    "Съемки фильма начались в апреле 1972 года и продлились 24 дня, и всего лишь 15 недель спустя фильм появился в кинотеатрах.",
    "Артур Грант должен был стать оператором-постановщиком этого фильма, но за три недели до съемок он узнал о том, что неизлечимо болен, и покинул проект. Вместо него к проекту присоединился Денис Н. Куп.",
    "В своем интервью Ричард Тодд говорил, что сожалеет о том, что снимался в этом фильме.",
    "В качестве внутренности роботов использовалась вермишель.",
    "Спайк Миллиган мог сыграть роль в этом фильме, но покинул проект еще до начала съемок, и его роль досталась Джеффри Бэйлдону."
  ],
  "trailers": [],
  "seasons": [],
  "voiceActing": [
    "Рус. Проф. многоголосый",
    "Eng.Original"
  ],
  "subtitle": [
    "Eng. full"
  ],
  "parts": []
}
