{
  "id": 22738,
  "name": "Пойманы с поличным 2",
  "name_eng": "Thiruttuppayale 2",
  "year": 2017,
  "slogan": "—",
  "age": null,
  "type": "film",
  "quality": "HD (720p)",
  "imdb": "6.7",
  "imdb_id": "7505152",
  "kinopoisk": null,
  "kinopoisk_id": "1098520",
  "world_art": null,
  "world_art_id": null,
  "time": "147 мин. / 02:27",
  "ads": false,
  "premier": "2017-11-30",
  "premier_rus": "2017-12-01",
  "availability": "2017-12-02",
  "activate_time": "2020-06-11 12:19:00",
  "budget": null,
  "fees_use": null,
  "fees_world": null,
  "fees_rus": null,
  "rate_mpaa": null,
  "description": "Селваму – офицер полиции, работающий в отделении уже много лет. Однажды он получает от своего начальства задание прослушать переговоры нескольких влиятельных политиков. Несмотря на все свои жизненные принципы, Селваму не может удержаться от соблазна подслушать разговоры друзей и родных.",
  "iframe_url": "",
  "iframe_poster": null,
  "poster": "https://img.imgilall.me/movies/franchise/2/2/7/3/8/0/0/0/0/0/610x900_22738.jpg",
  "country": {
    "26": "Индия"
  },
  "collection": [],
  "genre": {
    "13": "Триллер"
  },
  "director": [
    "Суши Ганешан"
  ],
  "screenwriter": [
    "Суши Ганешан"
  ],
  "producer": [
    "Kalpathi S. Agoram",
    "Kalpathi S. Ganesh",
    "Kalpathi S. Suresh"
  ],
  "operator": [
    "P. Chelladurai"
  ],
  "composer": [
    "Видьясагар"
  ],
  "design": [],
  "editor": [
    "Раджа Мохаммед"
  ],
  "actors": [
    "Амала Пол",
    "Shyam Prasad",
    "Р.С. Прасанна",
    "Бобби Симха"
  ],
  "actors_dubl": [],
  "trivia": [],
  "trailers": [],
  "seasons": [],
  "voiceActing": [
    "Колобок"
  ],
  "subtitle": [],
  "parts": []
}
