{
  "id": 22732,
  "name": "Миллионер поневоле",
  "name_eng": "Mr. Deeds",
  "year": 2002,
  "slogan": "«Деньги могут изменить мир, но не подлинные чувства»",
  "age": "12+",
  "type": "film",
  "quality": "HD (720p)",
  "imdb": "5.8",
  "imdb_id": "0280590",
  "kinopoisk": "6.8",
  "kinopoisk_id": "4186",
  "world_art": null,
  "world_art_id": null,
  "time": "96 мин. / 01:36",
  "ads": false,
  "premier": "2002-06-28",
  "premier_rus": "2002-08-22",
  "availability": "2002-08-23",
  "activate_time": "2020-06-11 12:17:00",
  "budget": "$50 000 000",
  "fees_use": "$126 293 452",
  "fees_world": "+ $44 976 083 = $171 269 535",
  "fees_rus": "$783 935",
  "rate_mpaa": "PG-13",
  "description": "У Лонгфелло Дидза два неоспоримых таланта - он готовит самую вкусную в городе пиццу и сочиняет самые уморительные поздравительные открытки. Но однажды его спокойной жизни приходит конец - его дядя Престон Блэйк оставляет ему в наследство 40 миллиардов долларов, медиа-империю, футбольную и баскетбольную команды и личный вертолет.Эта история тут же вызывает зависть знакомых и привлекает внимание прессы, в том числе и журналистки Бейб Беннет, которая решает окрутить счастливчика. Но с помощью своего верного помощника Эмилио, Дидз решает все проблемы и понимает, что деньги меняют многое, .. но не многих...",
  "iframe_url": "",
  "iframe_poster": null,
  "poster": "https://img.imgilall.me/movies/franchise/2/2/7/3/2/0/0/0/0/0/610x900_22732.jpg",
  "country": {
    "1": "США"
  },
  "collection": [],
  "genre": {
    "19": "Комедия",
    "8": "Мелодрама"
  },
  "director": [
    "Стивен Брилл"
  ],
  "screenwriter": [
    "Роберт Рискин",
    "Тим Херлихи",
    "Кларенс Бадингтон Келланд"
  ],
  "producer": [
    "Джек Джиррапуто",
    "Джозеф М. Караччоло",
    "Аллен Коверт"
  ],
  "operator": [
    "Питер Лайонс Коллистер"
  ],
  "composer": [
    "Тедди Кастелуччи"
  ],
  "design": [
    "Перри Энделин Блейк",
    "Стивен МакКейб",
    "Эллен Люттер"
  ],
  "editor": [
    "Джефф Годисон"
  ],
  "actors": [
    "Адам Сэндлер",
    "Вайнона Райдер",
    "Джон Туртурро",
    "Аллен Коверт",
    "Питер Галлахер",
    "Джаред Харрис",
    "Эрик Авари",
    "Питер Данте",
    "Кончата Феррелл",
    "Харви Преснелл"
  ],
  "actors_dubl": [
    "Олег Куликович",
    "Александра Кожевникова",
    "Станислав Концевич",
    "Владимир Маслаков",
    "Валерий Кухарешин"
  ],
  "trivia": [
    "В эпизодической роли в фильме снялся известный теннисист Джон Макинрой.",
    "Использованный в фильме вертолёт новой модели Sikorsky S-92 на тот момент ещё не прошёл обязательную сертификацию Федеральной Авиационной Администрации, а его внутренняя отделка ещё не была завершена. По этой причине никому из актёров и членов съёмочной группы не разрешалось находиться на борту вертолёта, а все кадры внутри были сымитированы искусственно.",
    "Указатель с надписью «Добро пожаловать в Мандрэйк Фоллс» и последующей поэмой взят из оригинального фильма «Мистер Дидс переезжает в город» (1936).",
    "Во время разговора с Лонгфелло Дидсом по телефону героиня Вайноны Райдер, которая притворяется школьной медсестрой, говорит о больном мальчике по имени Билли Барти в её кабинете. Это небольшой знак памяти актёру Билли Барти, скончавшемуся в 2000 году за три месяца до начала производства картины.",
    "Режисер Стивен Брилл появляется в камео в качестве скрипача в Madison Square Garden.",
    "Роб Шнайдер имеет в фильме точно такое же камео курьера-доставщика, что и в другом фильме Адама Сэндлера «Большой папа»(1999).",
    "Во время съёмок сцены, когда Дидс избивает Марти на улице, разошедшийся Адам Сэндлер нанёс такой удар Аллену Коверту, что тот упал на землю и ударился головой об асфальт, потеряв на минуту сознание.",
    "Съёмочный период: май — июнь 2001 года."
  ],
  "trailers": [],
  "seasons": [],
  "voiceActing": [
    "Cartoon Network"
  ],
  "subtitle": [],
  "parts": []
}
