{
  "id": 22755,
  "name": "Риддл",
  "name_eng": "Riddle",
  "year": 2010,
  "slogan": "—",
  "age": null,
  "type": "film",
  "quality": "HD (720p)",
  "imdb": "4.1",
  "imdb_id": "1648208",
  "kinopoisk": "4.4",
  "kinopoisk_id": "518043",
  "world_art": null,
  "world_art_id": null,
  "time": "100 мин. / 01:40",
  "ads": false,
  "premier": "2013-01-10",
  "premier_rus": "2013-01-11",
  "availability": "2013-01-12",
  "activate_time": "2020-06-11 12:27:00",
  "budget": "$7 000 000",
  "fees_use": null,
  "fees_world": null,
  "fees_rus": null,
  "rate_mpaa": "PG-13",
  "description": "Молодая девушка Холли Теллер попадает в город Риддл, пытаясь найти своего пропавшего брата. Когда шериф города отказывается продолжать поиски мальчика, Холли пытается самостоятельно разгадать тайну его исчезновения и понять, что связывает его с заброшенной психиатрической лечебницей. То, что предстоит узнать Холли, навсегда изменит ее жизнь.",
  "iframe_url": "",
  "iframe_poster": null,
  "poster": "https://img.imgilall.me/movies/franchise/2/2/7/5/5/0/0/0/0/0/610x900_22755.jpg",
  "country": {
    "1": "США"
  },
  "collection": {
    "29": "Психологические"
  },
  "genre": {
    "25": "Криминал",
    "24": "Детектив",
    "13": "Триллер",
    "7": "Драма"
  },
  "director": [
    "Джон О. Хартман",
    "Николас Мросс"
  ],
  "screenwriter": [
    "Джон О. Хартман",
    "Николас Мросс",
    "Брайан Хартман"
  ],
  "producer": [
    "Брайан Хартман",
    "Филлип Глассер",
    "Энни Лоффлер"
  ],
  "operator": [
    "Джефф Гартон"
  ],
  "composer": [
    "Скотт Глазгоу"
  ],
  "design": [
    "Ленди Ли",
    "Дайан Коллинз",
    "Смит Харпер Хатчингс"
  ],
  "editor": [
    "Nathan Innes"
  ],
  "actors": [
    "Элизабет Арнуа",
    "Диора Бэрд",
    "Брайан Лиллис",
    "Бен Бледсо",
    "Райан Малгарини",
    "Вэл Килмер",
    "Джэк Эрди",
    "Уильям Сэдлер",
    "Джошуа Риз",
    "Бинго О’Мэлли"
  ],
  "actors_dubl": [],
  "trivia": [],
  "trailers": [],
  "seasons": [],
  "voiceActing": [
    "Рус. Люб. двухголосый"
  ],
  "subtitle": [],
  "parts": []
}
