{
  "id": 22775,
  "name": "Идиллия",
  "name_eng": "Idila",
  "year": 2015,
  "slogan": "—",
  "age": null,
  "type": "film",
  "quality": "SD",
  "imdb": "5.1",
  "imdb_id": "4895910",
  "kinopoisk": null,
  "kinopoisk_id": "948776",
  "world_art": null,
  "world_art_id": null,
  "time": "83 мин. / 01:23",
  "ads": false,
  "premier": "2015-10-01",
  "premier_rus": "2015-10-02",
  "availability": "2015-10-03",
  "activate_time": "2020-06-24 21:10:00",
  "budget": "€220 000",
  "fees_use": null,
  "fees_world": null,
  "fees_rus": null,
  "rate_mpaa": null,
  "description": "После бурной ночи фотомодель Зина отправляется на съемки на природе в сопровождении амбициозной Миа, апатичной Драгицы и чванливого фотографа Блитца. На идиллическом лугу, который они выбрали для съемок, они были атакованы ее предполагаемыми владельцами Франклом и Винтрлом. И обычная фотосессия на природе превращается в яростную борьбу за выживание..",
  "iframe_url": "",
  "iframe_poster": null,
  "poster": "https://img.imgilall.me/movies/franchise/2/2/7/7/5/0/0/0/0/0/610x900_22775.jpg",
  "country": {
    "52": "Словения"
  },
  "collection": [],
  "genre": {
    "26": "Ужасы",
    "17": "Боевик",
    "13": "Триллер"
  },
  "director": [
    "Tomaz Gorkic"
  ],
  "screenwriter": [
    "Tomaz Gorkic"
  ],
  "producer": [
    "Zoran Dzeverdanovic"
  ],
  "operator": [
    "Nejc Saje"
  ],
  "composer": [
    "Давор Херцег"
  ],
  "design": [
    "Gregor Nartnik",
    "Sanja Grcic"
  ],
  "editor": [
    "Tomaz Gorkic"
  ],
  "actors": [
    "Нина Иванисин",
    "Lotos Sparovec",
    "Nika Rozman",
    "Себастьян Кавацца",
    "Юрий Древенсек",
    "Manca Ogorevc",
    "Дамьяна Серн",
    "Matic Bobnar",
    "Damir Leventic",
    "Ajda Smrekar"
  ],
  "actors_dubl": [],
  "trivia": [],
  "trailers": [],
  "seasons": [],
  "voiceActing": [
    "Хихикающий доктор"
  ],
  "subtitle": [],
  "parts": []
}
