{
  "id": 22902,
  "name": "Синхронность",
  "name_eng": "Synchronicity",
  "year": 2015,
  "slogan": "«To save his future he must alter his past»",
  "age": null,
  "type": "film",
  "quality": "FHD (1080p)",
  "imdb": "5.5",
  "imdb_id": "2049543",
  "kinopoisk": "5.4",
  "kinopoisk_id": "623788",
  "world_art": null,
  "world_art_id": null,
  "time": "101 мин. / 01:41",
  "ads": true,
  "premier": "2015-07-22",
  "premier_rus": "2015-07-23",
  "availability": "2015-07-24",
  "activate_time": "2020-06-11 21:38:00",
  "budget": null,
  "fees_use": "$4 505",
  "fees_world": null,
  "fees_rus": null,
  "rate_mpaa": "R",
  "description": "Команда физиков во главе с Джимом Билом строит маленькую копию Большого адронного коллайдера и открывает червоточину в пространственно-временном континууме, делающую путешествия во времени реальностью. Заветное словосочетание будоражит умы корпоративных магнатов, но создатель машины времени, как водится, не хочет, чтобы грязными сапогами топтались по благородному делу. В попытках сохранить права на свое изобретение он встречается с загадочной девушкой Эбби, но невольно выдает ей все свои секреты. Незадачливый ученый уверен что девушка заодно с одним из толстосумов, поэтому отправляется в прошлое, чтобы исправить ошибки.",
  "iframe_url": "",
  "iframe_poster": null,
  "poster": "https://img.imgilall.me/movies/franchise/2/2/9/0/2/0/0/0/0/0/610x900_22902.jpg",
  "country": {
    "1": "США"
  },
  "collection": {
    "21": "Для молодёжи"
  },
  "genre": {
    "11": "Фантастика",
    "24": "Детектив",
    "7": "Драма"
  },
  "director": [
    "Джейкоб Гентри"
  ],
  "screenwriter": [
    "Джейкоб Гентри",
    "Алекс Орр"
  ],
  "producer": [
    "Кристофер Алендер",
    "Александр Мотла",
    "Алекс Орр"
  ],
  "operator": [
    "Эрик Маддисон"
  ],
  "composer": [
    "Бен Ловетт"
  ],
  "design": [
    "Джеффри Прэтт Гордон",
    "Дженн Мой",
    "Steven Ruback"
  ],
  "editor": [
    "Джейкоб Гентри"
  ],
  "actors": [
    "Чад МакНайт",
    "Брианна Дэвис",
    "Эй Джей Боуэн",
    "Скотт Пойтресс",
    "Майкл Айронсайд",
    "Вэйд Тилтон",
    "Клер Бронсон",
    "Эшли Дрейтон",
    "Дерек Райан Дьюк",
    "Andrew Shelton"
  ],
  "actors_dubl": [],
  "trivia": [],
  "trailers": [],
  "seasons": [],
  "voiceActing": [
    "Рус. Люб. двухголосый",
    "Eng.Original"
  ],
  "subtitle": [
    "Рус. форсированные"
  ],
  "parts": []
}
