{
  "id": 23036,
  "name": "Возвращение в Бургундию",
  "name_eng": "Ce qui nous lie",
  "year": 2016,
  "slogan": "—",
  "age": "16+",
  "type": "film",
  "quality": "HD (720p)",
  "imdb": "6.9",
  "imdb_id": "5247704",
  "kinopoisk": "6.9",
  "kinopoisk_id": "952593",
  "world_art": null,
  "world_art_id": null,
  "time": "113 мин. / 01:53",
  "ads": false,
  "premier": "2017-05-16",
  "premier_rus": "2017-05-17",
  "availability": "2017-05-18",
  "activate_time": "2020-10-09 04:39:00",
  "budget": "€7 870 000",
  "fees_use": "$257 610",
  "fees_world": "+ $11 368 274 = $11 625 884",
  "fees_rus": null,
  "rate_mpaa": null,
  "description": "Три наследника после смерти отца должны восстановить поместье и вернуть виноградникам былую славу. Они будут ссориться и мириться, собирать виноград и делать вино. И конечно же пить, наслаждаясь каждой каплей.",
  "iframe_url": "",
  "iframe_poster": null,
  "poster": "https://img.imgilall.me/movies/franchise/2/3/0/3/6/0/0/0/0/0/610x900_23036.jpg",
  "country": {
    "9": "Франция"
  },
  "collection": {
    "21": "Для молодёжи",
    "18": "Про животных"
  },
  "genre": {
    "19": "Комедия",
    "7": "Драма"
  },
  "director": [
    "Седрик Клапиш"
  ],
  "screenwriter": [
    "Седрик Клапиш",
    "Сантьяго Амигорена",
    "Жан-Марк Руле"
  ],
  "producer": [
    "Седрик Клапиш",
    "Бруно Леви"
  ],
  "operator": [
    "Алексис Кавиршин"
  ],
  "composer": [
    "Лоик Дюри",
    "Кристоф Минк"
  ],
  "design": [
    "Мари Шеминаль",
    "Валери Розанес",
    "Анн Скотт"
  ],
  "editor": [
    "Анна-Софи Бьён"
  ],
  "actors": [
    "Пио Мармай",
    "Ана Жирардо",
    "Франсуа Сивиль",
    "Жан-Марк Руле",
    "Мария Вальверде",
    "Йаме Кутюр",
    "Жан-Мари Винлин",
    "Флоранс Пернель",
    "Эрик Каравака",
    "Тауфик Жаллаб"
  ],
  "actors_dubl": [],
  "trivia": [],
  "trailers": [],
  "seasons": [],
  "voiceActing": [
    "Diva Universal"
  ],
  "subtitle": [],
  "parts": []
}
