{
  "id": 23042,
  "name": "Винни Пух и Слонотоп: Хэллоуин",
  "name_eng": "Pooh's Heffalump Halloween Movie",
  "year": 2005,
  "slogan": "—",
  "age": null,
  "type": "cartoon",
  "quality": "SD",
  "imdb": "6.6",
  "imdb_id": "0457437",
  "kinopoisk": "6.4",
  "kinopoisk_id": "229859",
  "world_art": null,
  "world_art_id": null,
  "time": "67 мин. / 01:07",
  "ads": false,
  "premier": "2005-09-13",
  "premier_rus": "2005-09-14",
  "availability": "2005-09-15",
  "activate_time": "2020-07-22 10:07:00",
  "budget": null,
  "fees_use": null,
  "fees_world": null,
  "fees_rus": null,
  "rate_mpaa": "G",
  "description": "Герои празднуют веселый Хэллоуин в Сказочном Лесу с новыми приятелями Кенгуру и Слонотопом. Но веселье продолжается до тех пор, пока Тигра не предупредит их о страшном злом волшебнике, если он поймает их, то превратит во что-нибудь странное. Но если они найдут его первым, то смогут загадать желания...",
  "iframe_url": "",
  "iframe_poster": null,
  "poster": "https://img.imgilall.me/movies/franchise/2/3/0/4/2/0/0/0/0/0/610x900_23042.jpg",
  "country": {
    "1": "США"
  },
  "collection": [],
  "genre": {
    "6": "Фэнтези",
    "38": "Мюзикл",
    "33": "Семейный",
    "19": "Комедия"
  },
  "director": [
    "Сауль Эндрю Блинкофф",
    "Эллиот М. Бур"
  ],
  "screenwriter": [
    "Брайан Холфельд",
    "Эван Спилиотопулос",
    "Алан Милн"
  ],
  "producer": [
    "Джон А. Смит"
  ],
  "operator": [],
  "composer": [
    "Марк Уоттерс"
  ],
  "design": [
    "Тони Пулэм"
  ],
  "editor": [
    "Артур Д. Нода"
  ],
  "actors": [
    "Джимми Беннетт",
    "Питер Каллен",
    "Джим Каммингс",
    "Джон Фидлер",
    "Кен Сэнсом",
    "Кэт Суси",
    "Кайл Стэнджер",
    "Дэвид Огден Стайерз",
    "Трэвис Оутс",
    "Майкл Гоф"
  ],
  "actors_dubl": [],
  "trivia": [
    "Фильм снят по мотивам произведений Алана Милна ."
  ],
  "trailers": [
    {
      "name": "трейлер №1",
      "number": 1,
      "iframe_poster": null,
      "season": null,
      "iframe_url": ""
    }
  ],
  "seasons": [],
  "voiceActing": [
    "Е. Гранкин",
    "Рус. Люб. одноголосый",
    "Укр. Дубльований",
    "Eng.Original"
  ],
  "subtitle": [],
  "parts": []
}
