{
  "id": 23064,
  "name": "Уничтожающий",
  "name_eng": "Scathing",
  "year": 2016,
  "slogan": "««Cujo» meets «The Strangers»»",
  "age": null,
  "type": "film",
  "quality": "SD",
  "imdb": "3.1",
  "imdb_id": "4229948",
  "kinopoisk": null,
  "kinopoisk_id": "886607",
  "world_art": null,
  "world_art_id": null,
  "time": "83 мин. / 01:23",
  "ads": false,
  "premier": "2016-11-15",
  "premier_rus": "2016-11-16",
  "availability": "2016-11-17",
  "activate_time": "2020-10-08 23:50:00",
  "budget": "$75 000",
  "fees_use": null,
  "fees_world": null,
  "fees_rus": null,
  "rate_mpaa": null,
  "description": "Молодая пара застряла в лесу на несколько дней без еды и воды. Однако они не одни: некий верзила неустанно следит за каждым их шагом, давая понять, что невредимыми им оттуда не выбраться.",
  "iframe_url": "",
  "iframe_poster": null,
  "poster": "https://img.imgilall.me/movies/franchise/2/3/0/6/4/0/0/0/0/0/610x900_23064.jpg",
  "country": {
    "1": "США"
  },
  "collection": [],
  "genre": {
    "26": "Ужасы",
    "13": "Триллер"
  },
  "director": [
    "Джозеф Маццаферро"
  ],
  "screenwriter": [
    "Джозеф Маццаферро"
  ],
  "producer": [
    "Mazz Appeal",
    "Джозеф Маццаферро",
    "Вайль Джорджи"
  ],
  "operator": [
    "Carlos Borges",
    "Джозеф Маццаферро"
  ],
  "composer": [],
  "design": [],
  "editor": [
    "Джозеф Маццаферро"
  ],
  "actors": [
    "Джон Кайл",
    "Allie Sparks",
    "Майкл Фраскино",
    "Крис Шепардсон",
    "Paola Duque",
    "Уильям Хэйз",
    "Lori Katz",
    "Лиза Аркаро",
    "Herb Dorsey",
    "Джордж Петрик"
  ],
  "actors_dubl": [],
  "trivia": [],
  "trailers": [],
  "seasons": [],
  "voiceActing": [
    "Рус. Люб. многоголосый"
  ],
  "subtitle": [],
  "parts": []
}
