{
  "id": 23195,
  "name": "Бумажная луна",
  "name_eng": "Paper Moon",
  "year": 1973,
  "slogan": "«These aren't everyday people and this is no ordinary movie»",
  "age": "12+",
  "type": "film",
  "quality": "SD",
  "imdb": "8.1",
  "imdb_id": "0070510",
  "kinopoisk": "8.1",
  "kinopoisk_id": "5033",
  "world_art": null,
  "world_art_id": null,
  "time": "102 мин. / 01:42",
  "ads": false,
  "premier": "1973-04-09",
  "premier_rus": "1973-04-10",
  "availability": "1973-04-11",
  "activate_time": "2020-06-12 13:28:00",
  "budget": "$2 500 000",
  "fees_use": "$30 933 743",
  "fees_world": null,
  "fees_rus": null,
  "rate_mpaa": "PG",
  "description": "Авантюрный тандем случайных попутчиков колесит по маленьким городкам Канзаса во времена Великой депрессии и промышляет мелкими, почти невинными махинациями, чтобы хоть как-то заработать на хлеб.Он - мошенник-неудачник по имени Мозэс, продающий Библии одиноким вдовам, поблескивая фальшивым золотым зубом.Она - девятилетняя девочка-сирота с недюжинной склонностью к авантюрам и практически не расстающаяся с сигаретой.",
  "iframe_url": "",
  "iframe_poster": null,
  "poster": "https://img.imgilall.me/movies/franchise/2/3/1/9/5/0/0/0/0/0/610x900_23195.jpg",
  "country": {
    "1": "США"
  },
  "collection": {
    "19": "Про ограбления, аферы и мошенников"
  },
  "genre": {
    "19": "Комедия",
    "10": "Зарубежный",
    "7": "Драма"
  },
  "director": [
    "Питер Богданович"
  ],
  "screenwriter": [
    "Элвин Сарджент",
    "Джо Дэвид Браун"
  ],
  "producer": [
    "Питер Богданович",
    "Фрэнк Маршалл",
    "Фрэнсис Форд Коппола"
  ],
  "operator": [
    "Ласло Ковач"
  ],
  "composer": [],
  "design": [
    "Полли Плэтт",
    "Джон П. Остин"
  ],
  "editor": [
    "Верна Филдс"
  ],
  "actors": [
    "Райан О’Нил",
    "Татум О’Нил",
    "Мэдлин Кан",
    "Джон Хиллерман",
    "П.Дж. Джонсон",
    "Джесси Ли Фултон",
    "Джеймс Н. Харрелл",
    "Лайла Уотерс",
    "Ноубл Уиллингэм",
    "Боб Янг"
  ],
  "actors_dubl": [],
  "trivia": [
    "Первоначально главные роли должны были сыграть Пол Ньюман и его дочь Нелл Поттс.",
    "Сигареты, которые по ходу фильма курила героиня Татум О’Нил, были изготовлены не из табака, а из салата-латука.",
    "Благодаря этому фильму Татум О’Нил стала самой юной в истории обладательницей премии «Оскар».",
    "Экранизация романа Джо Дэвида Брауна «Эдди Прэй»."
  ],
  "trailers": [],
  "seasons": [],
  "voiceActing": [
    "Рус. Проф. многоголосый",
    "Рус. Проф. двухголосый",
    "Eng.Original"
  ],
  "subtitle": [],
  "parts": []
}
