{
  "id": 23206,
  "name": "Необычайная отвага",
  "name_eng": "Uncommon Valor",
  "year": 1983,
  "slogan": "««C'mon... we're going home.»»",
  "age": "16+",
  "type": "film",
  "quality": "SD",
  "imdb": "6.4",
  "imdb_id": "0086508",
  "kinopoisk": "6.4",
  "kinopoisk_id": "2000",
  "world_art": null,
  "world_art_id": null,
  "time": "105 мин. / 01:45",
  "ads": false,
  "premier": "1983-12-16",
  "premier_rus": "1983-12-17",
  "availability": "1983-12-18",
  "activate_time": "2020-06-12 16:48:00",
  "budget": "$14 500 000",
  "fees_use": "$30 503 151",
  "fees_world": null,
  "fees_rus": null,
  "rate_mpaa": "R",
  "description": "Вот уже более 10 лет, как Родос живет в кошмаре - он ищет своего сына, имя которого было внесено в список «пропавших без вести» во Вьетнаме. После безнадежных обращений к правительству, Родос решает самостоятельно раскрыть тайну исчезновения сына.После изнурительных недель обучения, он отправляется в Лаос. С этого момента и начинается самый сложный Вьетнамский конфликт.",
  "iframe_url": "",
  "iframe_poster": null,
  "poster": "https://img.imgilall.me/movies/franchise/2/3/2/0/6/0/0/0/0/0/610x900_23206.jpg",
  "country": {
    "1": "США"
  },
  "collection": {
    "12": "Для мужчин"
  },
  "genre": {
    "32": "Военный",
    "17": "Боевик",
    "13": "Триллер",
    "10": "Зарубежный",
    "7": "Драма"
  },
  "director": [
    "Тед Котчефф"
  ],
  "screenwriter": [
    "Джо Гэйтон",
    "Уингз Хаузер"
  ],
  "producer": [
    "Базз Фейтшанс",
    "Джон Милиус",
    "Бертон Елиас"
  ],
  "operator": [
    "Стивен Х. Бёрум"
  ],
  "composer": [
    "Джеймс Хорнер"
  ],
  "design": [
    "Джеймс Л. Шоппе",
    "Джек Дж. Тейлор мл.",
    "Джон Х. Андерсон"
  ],
  "editor": [
    "Марк Мельник"
  ],
  "actors": [
    "Джин Хэкмен",
    "Роберт Стэк",
    "Фред Уорд",
    "Рэб Браун",
    "Рэндал «Текс» Кобб",
    "Патрик Суэйзи",
    "Гарольд Сильвестр",
    "Тим Томерсон",
    "Лау Нга Лаи",
    "Кван Хи Лим"
  ],
  "actors_dubl": [],
  "trivia": [],
  "trailers": [],
  "seasons": [],
  "voiceActing": [
    "Рус. Проф. многоголосый",
    "Рус. Проф. двухголосый",
    "Eng.Original"
  ],
  "subtitle": [],
  "parts": []
}
