{
  "id": 2320,
  "name": "Джек - Механическое сердце / Механика сердца",
  "name_eng": "Jack et la mécanique du coeur",
  "year": 2013,
  "slogan": null,
  "age": "12+",
  "type": "cartoon",
  "quality": "FHD (1080p)",
  "imdb": "7.0",
  "imdb_id": "1181840",
  "kinopoisk": "7.2",
  "kinopoisk_id": "505897",
  "world_art": null,
  "world_art_id": null,
  "time": "90 мин. / 01:30",
  "ads": false,
  "premier": "2013-11-17",
  "premier_rus": null,
  "availability": null,
  "activate_time": "2018-09-14 14:15:29",
  "budget": "$33 746 302",
  "fees_use": null,
  "fees_world": "$3 445 000",
  "fees_rus": null,
  "rate_mpaa": "PG",
  "description": "Джек родился в Эдинбурге, в «самый холодный день на свете», и сердце его мгновенно оледенело. Брошенного матерью мальчика усыновляет акушерка-волшебница, Докторша Мадлен. Она вставляет ему в грудь часы, которые помогают сердцу биться, но влюбляться Джеку нельзя — такого пылкого чувства хрупкая сердечная механика не выдержит. Однако подросший Джек невольно нарушает запрет, увидев на прогулке маленькую уличную певицу…",
  "iframe_url": "",
  "iframe_poster": null,
  "poster": "https://img.imgilall.me/movies/franchise/2/3/2/0/0/0/0/0/0/0/610x900_2320.jpg",
  "country": {
    "9": "Франция",
    "29": "Бельгия"
  },
  "collection": [],
  "genre": {
    "9": "Приключения",
    "6": "Фэнтези",
    "38": "Мюзикл",
    "37": "Детский",
    "34": "Полнометражный",
    "10": "Зарубежный",
    "7": "Драма"
  },
  "director": [
    "Стефан Берла",
    "Матиас Мальзьё"
  ],
  "screenwriter": [
    "Матиас Мальзьё"
  ],
  "producer": [
    "Виржини Силла",
    "Жереми Бюрдек",
    "Эрик Гуссенс"
  ],
  "operator": [],
  "composer": [
    "Dionysos"
  ],
  "design": [
    "Frederic Perrin Fredleew"
  ],
  "editor": [
    "Солин Гийонно"
  ],
  "actors": [
    "Матиас Мальзьё",
    "Оливия Руис",
    "Гран Кор Маляд",
    "Жан Рошфор",
    "Росси де Пальма",
    "Бабет",
    "Мари Винсент",
    "Эмили Луазо",
    "Артур Аш",
    "Дани"
  ],
  "actors_dubl": [],
  "trivia": [],
  "trailers": [],
  "seasons": [],
  "voiceActing": [
    "Рус. Дублированный",
    "Fr. Original"
  ],
  "subtitle": [
    "Рус. форсированные"
  ],
  "parts": []
}
