{
  "id": 23350,
  "name": "Доктор Джекилл и Мисс Хайд",
  "name_eng": "Dr. Jekyll and Ms. Hyde",
  "year": 1995,
  "slogan": "«A comedy about an experiment that got WAY OUT of control!»",
  "age": "16+",
  "type": "film",
  "quality": "SD",
  "imdb": "4.5",
  "imdb_id": "0112895",
  "kinopoisk": "6.4",
  "kinopoisk_id": "2866",
  "world_art": null,
  "world_art_id": null,
  "time": "100 мин. / 01:40",
  "ads": true,
  "premier": "1995-08-25",
  "premier_rus": "1995-08-26",
  "availability": "1995-08-27",
  "activate_time": "2020-06-13 15:02:00",
  "budget": "$8 000 000",
  "fees_use": "$2 763 020",
  "fees_world": null,
  "fees_rus": null,
  "rate_mpaa": "PG-13",
  "description": "Дела у Ричарда Джекса идут не важно. Никто не признает, что он - гениальный биолог. Ричард мечтает о крупном открытии, которое изменит его жизнь. Когда к нему в руки попадает генетическая формула его знаменитого предка доктора Джекилла, Ричард добавляет в нее кое-что от себя и, выпив полученное зелье, превращается… в коварную и обольстительную Хелен Хайд. Красотка Хелен тут же начинает строить глазки начальству, и дело принимает опасный оборот. Ричард должен совершить невозможное: отвергнуть ухаживания своего босса, найти противоядие от собственного открытия и убедить невесту, что он не извращенец. Раз за разом Ричард пытается одолеть Хелен, но в результате его эксперимент все больше выходит из-под контроля…",
  "iframe_url": "",
  "iframe_poster": null,
  "poster": "https://img.imgilall.me/movies/franchise/2/3/3/5/0/0/0/0/0/0/610x900_23350.jpg",
  "country": {
    "7": "Канада",
    "1": "США",
    "2": "Великобритания"
  },
  "collection": {
    "36": "Романтические комедии"
  },
  "genre": {
    "19": "Комедия",
    "8": "Мелодрама"
  },
  "director": [
    "Дэвид Прайс"
  ],
  "screenwriter": [
    "Тим Джон",
    "Оливер Батчер",
    "Уильям Дэвис"
  ],
  "producer": [
    "Джерри Лейдер",
    "Роберт Шапиро",
    "Фрэнк К. Исаак"
  ],
  "operator": [
    "Том Пристли мл."
  ],
  "composer": [
    "Марк МакКензи"
  ],
  "design": [
    "Грегори Мелтон",
    "Гай Лаланд",
    "Молли Мэгиннис"
  ],
  "editor": [
    "Тони Ломбардо"
  ],
  "actors": [
    "Шон Янг",
    "Тим Дейли",
    "Лизетт Энтони",
    "Стивен Тоболовски",
    "Харви Файерстин",
    "Теа Видале",
    "Джереми Пивен",
    "Полли Берген",
    "Стивен Шеллен",
    "Шина Ларкин"
  ],
  "actors_dubl": [],
  "trivia": [
    "Фильм снят по мотивам повести Роберта Льюиса Стивенсона «Странная история доктора Джекила и мистера Хайда» (Strange Case of Dr. Jekyll and Mr. Hyde, 1886)."
  ],
  "trailers": [],
  "seasons": [],
  "voiceActing": [
    "Рус. Проф. двухголосый",
    "Eng.Original"
  ],
  "subtitle": [],
  "parts": []
}
