{
  "id": 23390,
  "name": "Воздушная гимнастка",
  "name_eng": "The Aerialist",
  "year": 2020,
  "slogan": "—",
  "age": null,
  "type": "film",
  "quality": "HD (720p)",
  "imdb": "5.9",
  "imdb_id": "9158416",
  "kinopoisk": null,
  "kinopoisk_id": "1203057",
  "world_art": null,
  "world_art_id": null,
  "time": "—",
  "ads": true,
  "premier": null,
  "premier_rus": null,
  "availability": null,
  "activate_time": "2020-06-15 12:24:00",
  "budget": null,
  "fees_use": null,
  "fees_world": null,
  "fees_rus": null,
  "rate_mpaa": null,
  "description": "Джейн, воздушная гимнастка, готовится к танцевальному турне с певицей Авророй. Ей мешают возраст, травмы и молодой режиссёр, который своими попытками сделать отлаженную программу лучше сеет раздор в труппе.",
  "iframe_url": "",
  "iframe_poster": null,
  "poster": "https://img.imgilall.me/movies/franchise/2/3/3/9/0/0/0/0/0/0/610x900_23390.jpg",
  "country": {
    "1": "США"
  },
  "collection": {
    "76": "Про спорт"
  },
  "genre": {
    "10": "Зарубежный",
    "7": "Драма"
  },
  "director": [
    "Нед Фарр"
  ],
  "screenwriter": [
    "Нед Фарр"
  ],
  "producer": [
    "Нед Фарр",
    "Дрея Вебер",
    "Джарретт Ферст"
  ],
  "operator": [
    "Александр Нофел"
  ],
  "composer": [
    "Роберт Манн"
  ],
  "design": [
    "Пэрис П. Пиккард"
  ],
  "editor": [
    "Нед Фарр",
    "Кристин МакФерсон"
  ],
  "actors": [
    "Дрея Вебер",
    "Морган Брэдли",
    "Келли Маркус",
    "Трэйси Динвидди",
    "Вики Миде",
    "Грейсан Кингсберри",
    "Надин Эллис",
    "Viet Dang",
    "Шеннон Бич",
    "Кэндис Коук"
  ],
  "actors_dubl": [],
  "trivia": [],
  "trailers": [],
  "seasons": [],
  "voiceActing": [
    "Рус. Люб. многоголосый"
  ],
  "subtitle": [],
  "parts": []
}
