{
  "id": 23392,
  "name": "Полный улёт",
  "name_eng": "Dhamaka",
  "year": 2020,
  "slogan": "—",
  "age": null,
  "type": "film",
  "quality": "HD (720p)",
  "imdb": "5.2",
  "imdb_id": "10692994",
  "kinopoisk": null,
  "kinopoisk_id": "1295867",
  "world_art": null,
  "world_art_id": null,
  "time": "121 мин. / 02:01",
  "ads": true,
  "premier": "2020-01-02",
  "premier_rus": "2020-01-03",
  "availability": "2020-01-04",
  "activate_time": "2020-06-17 18:18:00",
  "budget": "",
  "fees_use": "",
  "fees_world": "",
  "fees_rus": "",
  "rate_mpaa": "",
  "description": "Хитрый отец женит своего сына-недотёпу, Ийо, на разведенной миллионерше. Проблемы начинаются, когда в первую брачную ночь Ийо узнаёт, что у него эректильная дисфункция.",
  "iframe_url": "",
  "iframe_poster": null,
  "poster": "https://img.imgilall.me/movies/franchise/2/3/3/9/2/0/0/0/0/0/610x900_23392.jpg",
  "country": {
    "26": "Индия"
  },
  "collection": [],
  "genre": {
    "19": "Комедия",
    "10": "Зарубежный"
  },
  "director": [
    "Омар"
  ],
  "screenwriter": [
    "Саранг Джаяпракаш",
    "Kiran Lal M.",
    "Venu O.V."
  ],
  "producer": [
    "M.K. Nassar"
  ],
  "operator": [
    "Sinoj P. Ayyappan"
  ],
  "composer": [
    "Гопи Сундар",
    "Sajith Thomas"
  ],
  "design": [
    "Jithu Sebastian",
    "Sameera Saneesh"
  ],
  "editor": [
    "Дилип Деннис"
  ],
  "actors": [
    "Сабумон Абдусамад",
    "Idavela Babu",
    "Дхармаджан Болгатти",
    "Nikki Galrani",
    "Innocent",
    "Хариш Перуманна",
    "Arun Kumar",
    "Салим Кумар",
    "Мукеш",
    "Нурин Шериф"
  ],
  "actors_dubl": [],
  "trivia": [],
  "trailers": [],
  "seasons": [],
  "voiceActing": [
    "Рус. Люб. многоголосый"
  ],
  "subtitle": [],
  "parts": []
}
