{
  "id": 23622,
  "name": "Амстердам",
  "name_eng": "AmStarDam",
  "year": 2016,
  "slogan": "—",
  "age": null,
  "type": "film",
  "quality": "HD (720p)",
  "imdb": "4.8",
  "imdb_id": "3235880",
  "kinopoisk": null,
  "kinopoisk_id": "803720",
  "world_art": null,
  "world_art_id": null,
  "time": "105 мин. / 01:45",
  "ads": false,
  "premier": "2016-08-19",
  "premier_rus": "2016-08-20",
  "availability": "2016-08-21",
  "activate_time": "2020-06-18 11:26:00",
  "budget": null,
  "fees_use": null,
  "fees_world": null,
  "fees_rus": null,
  "rate_mpaa": null,
  "description": "Джек приезжает в Амстердам, чтоб увидеться с отцом. В результате случайной встречи парень находит секретное оружие, которое может помочь захудалому магазинчику марихуаны, который держит его родитель.",
  "iframe_url": "",
  "iframe_poster": null,
  "poster": "https://img.imgilall.me/movies/franchise/2/3/6/2/2/0/0/0/0/0/610x900_23622.jpg",
  "country": {
    "2": "Великобритания"
  },
  "collection": [],
  "genre": {
    "19": "Комедия"
  },
  "director": [
    "Ли Леннокс",
    "Уэйн Леннокс"
  ],
  "screenwriter": [
    "Уэйн Леннокс",
    "Ли Леннокс"
  ],
  "producer": [
    "Зорана Пигготт",
    "Майкл С. Констебл",
    "Джелани Исаак"
  ],
  "operator": [
    "Энди Парсонс"
  ],
  "composer": [
    "Пол Арнольд",
    "Эндрю Барнабас"
  ],
  "design": [
    "Miren Marañón",
    "Грег Хьюит",
    "Йен Фулчер"
  ],
  "editor": [
    "Каллум Росс"
  ],
  "actors": [
    "Джонатан Ридвин",
    "Шон Пауэр",
    "Элайн Пауэлл",
    "Эрик Лёмпарт",
    "Кеннет Коллар",
    "Ховард Маркс",
    "Элис Лоу",
    "Билли Бойд",
    "Джевон Принц",
    "Даниэль Брент"
  ],
  "actors_dubl": [],
  "trivia": [],
  "trailers": [],
  "seasons": [],
  "voiceActing": [
    "Рус. Люб. многоголосый"
  ],
  "subtitle": [],
  "parts": []
}
