{
  "id": 23715,
  "name": "Книга мертвых",
  "name_eng": "Necronomicon",
  "year": 1993,
  "slogan": "«Древний фолиант, написанный кровью на человеческой коже, отправит вас в самое пекло ада»",
  "age": "16+",
  "type": "film",
  "quality": "HD (720p)",
  "imdb": "5.8",
  "imdb_id": "0107664",
  "kinopoisk": "6.3",
  "kinopoisk_id": "31925",
  "world_art": null,
  "world_art_id": null,
  "time": "93 мин. / 01:33",
  "ads": false,
  "premier": "1994-04-23",
  "premier_rus": "1994-04-24",
  "availability": "1994-04-25",
  "activate_time": "2020-06-16 12:33:00",
  "budget": "$4 000 000",
  "fees_use": null,
  "fees_world": null,
  "fees_rus": null,
  "rate_mpaa": "R",
  "description": "В поисках вдохновения Говард Филлипс Лавкрафт (классик литературы мистики и ужасов) отправляется в зловещее книгохранилище, где находится Некрономикон — легендарная книга мертвых.В ней писатель находит три истории: «Утопленница» — мрачную повесть первой любви и воскрешения; «Холод» — о гибельных поисках врача, жаждущего открыть секрет бессмертия; «Шепот» — о внеземных контактах «смертельного вида».Когда же Лавкрафт пытается уйти, оказывается, что хранители Некрономикона охотно делятся секретами своей книги только за очень высокую цену.",
  "iframe_url": "",
  "iframe_poster": null,
  "poster": "https://img.imgilall.me/movies/franchise/2/3/7/1/5/0/0/0/0/0/610x900_23715.jpg",
  "country": {
    "1": "США",
    "9": "Франция",
    "18": "Япония"
  },
  "collection": [],
  "genre": {
    "26": "Ужасы"
  },
  "director": [
    "Кристоф Ганс",
    "Сюсукэ Канэко",
    "Брайан Юзна"
  ],
  "screenwriter": [
    "Брент В. Фридман",
    "Кристоф Ганс",
    "Кадзунори Ито"
  ],
  "producer": [
    "Сэмюэл Хадида",
    "Брайан Юзна",
    "Такасигэ Итисэ"
  ],
  "operator": [
    "Расс Брандт",
    "Джерри Лайвли"
  ],
  "composer": [],
  "design": [
    "Энтони Тремблэ",
    "Айда Джирон"
  ],
  "editor": [
    "Крис Рот",
    "Кит Х. Саутер"
  ],
  "actors": [
    "Джеффри Комбс",
    "Тони Азито",
    "Хуан Фернандес",
    "Брайан Юзна",
    "Брюс Пэйн",
    "Белинда Бауэр",
    "Ричард Линч",
    "Мария Форд",
    "Питер Ясенский",
    "Денис Д. Льюис"
  ],
  "actors_dubl": [],
  "trivia": [
    "Японский режиссёр Сюскэ Канэко в момент съёмок совсем не разговаривал по-английски.",
    "Другой режиссёр ленты, Брайан Юзна, использовал служебное положение и снялся в прологе картины в роли кэбмана.",
    "Для французского режиссёра Кристофа Ганса это был дебют в большом кино в качестве постановщика.",
    "В телевизионных версиях на спутниковых каналах и кабельной сети в России фильм шёл под названием «Некрономикон. Книга мёртвых»."
  ],
  "trailers": [],
  "seasons": [],
  "voiceActing": [
    "Diva Universal"
  ],
  "subtitle": [],
  "parts": []
}
