{
  "id": 23830,
  "name": "Миссия Лондон",
  "name_eng": "Mission London",
  "year": 2010,
  "slogan": "—",
  "age": null,
  "type": "film",
  "quality": "HD (720p)",
  "imdb": "7.2",
  "imdb_id": "1127702",
  "kinopoisk": "5.9",
  "kinopoisk_id": "441835",
  "world_art": null,
  "world_art_id": null,
  "time": "104 мин. / 01:44",
  "ads": false,
  "premier": "2010-04-16",
  "premier_rus": "2010-04-17",
  "availability": "2010-04-18",
  "activate_time": "2020-06-16 16:38:00",
  "budget": "€1 400 000",
  "fees_use": null,
  "fees_world": null,
  "fees_rus": null,
  "rate_mpaa": null,
  "description": "Варадин, недавно назначенный послом Болгарии в Англии, прибывает на новое место работы и обнаруживает, что в посольстве царит настоящий хаос. Варадину поручают устроить так, чтобы концерт в честь вступления Болгарии в Евросоюз посетила сама английская королева. Он обращается за помощью в PR-агентство «Знаменитые связи», не подозревая, что, на самом деле, это агентство эскорт услуг. В это же самое время работающий в посольстве повар помогает бандитам из Сербии спрятать в холодильнике на кухне в посольстве дюжину уток, похищенных из Ричмонд парка – никто из них не догадывается, что Скотланд Ярд уже идет по следу похитителей. Тем временем, Варадин влюбляется в Кати – девушку, ведущую двойную жизнь: днем она работает в посольстве уборщицей, а ночью – стриптизершей.",
  "iframe_url": "",
  "iframe_poster": null,
  "poster": "https://img.imgilall.me/movies/franchise/2/3/8/3/0/0/0/0/0/0/610x900_23830.jpg",
  "country": {
    "2": "Великобритания",
    "28": "Швеция",
    "32": "Венгрия",
    "33": "Болгария",
    "59": "Македония"
  },
  "collection": {
    "19": "Про ограбления, аферы и мошенников"
  },
  "genre": {
    "19": "Комедия",
    "10": "Зарубежный"
  },
  "director": [
    "Димитар Митовски"
  ],
  "screenwriter": [
    "Дельяна Манева",
    "Димитар Митовски",
    "Алек Попов"
  ],
  "producer": [
    "Иван Дойков",
    "Димитар Митовски",
    "Майкл Кауэн"
  ],
  "operator": [
    "Ненад Бороевич"
  ],
  "composer": [
    "Константин Цеков",
    "Балаж Жагер"
  ],
  "design": [
    "Россица Бакева",
    "Габриелла Шимон",
    "Мина Кэй"
  ],
  "editor": [
    "Марко Глушац"
  ],
  "actors": [
    "Алан Форд",
    "Ральф Браун",
    "Томас Арана",
    "Ник Неверн",
    "Розмари Лич",
    "Андреа",
    "Дэвид Коллингс",
    "Юлиан Вергов",
    "Атанас Сребрев",
    "Джонатан Райланд"
  ],
  "actors_dubl": [],
  "trivia": [],
  "trailers": [],
  "seasons": [],
  "voiceActing": [
    "Рус. Люб. одноголосый",
    "Eng.Original"
  ],
  "subtitle": [],
  "parts": []
}
