{
  "id": 23869,
  "name": "Золотое путешествие Синдбада",
  "name_eng": "The Golden Voyage of Sinbad",
  "year": 1973,
  "slogan": "«Dynarama Means Supreme Adventure!»",
  "age": "0+",
  "type": "film",
  "quality": "FHD (1080p)",
  "imdb": "6.8",
  "imdb_id": "0071569",
  "kinopoisk": "7.2",
  "kinopoisk_id": "48697",
  "world_art": null,
  "world_art_id": null,
  "time": "105 мин. / 01:45",
  "ads": false,
  "premier": "1973-12-20",
  "premier_rus": "1973-12-21",
  "availability": "1973-12-22",
  "activate_time": "2020-06-16 20:04:00",
  "budget": "$982 351",
  "fees_use": null,
  "fees_world": null,
  "fees_rus": null,
  "rate_mpaa": "G",
  "description": "О подвигах знаменитого морехода и искателя приключений Востока Синдбада сложено немало легенд. Перед вами - самая удивительная и захватывающая из них. В ней Синдбад становится обладателем золотой таблички, части магической карты, загадку которой он жаждет разгадать.На пути к цели герой и его команда встретит множество опасностей: шестирукую живую статую, гигантского грифона, одноглазого кентавра. Жестокие бури, великие чудеса, а также злая воля колдуна Кура, отметят собой странствие морехода. Какая же награда ждет героя в конце его славного, полного великих приключений пути?",
  "iframe_url": "",
  "iframe_poster": null,
  "poster": "https://img.imgilall.me/movies/franchise/2/3/8/6/9/0/0/0/0/0/610x900_23869.jpg",
  "country": {
    "1": "США",
    "2": "Великобритания"
  },
  "collection": [],
  "genre": {
    "9": "Приключения",
    "6": "Фэнтези",
    "17": "Боевик"
  },
  "director": [
    "Гордон Хесслер"
  ],
  "screenwriter": [
    "Брайан Клеменс",
    "Рэй Харрихаузен"
  ],
  "producer": [
    "Рэй Харрихаузен",
    "Чарльз Х. Шнеер"
  ],
  "operator": [
    "Тед Мур"
  ],
  "composer": [
    "Миклош Рожа"
  ],
  "design": [
    "Джон Столл",
    "Фернандо Гонсалес",
    "Верена Коулмэн"
  ],
  "editor": [
    "Рой Уоттс"
  ],
  "actors": [
    "Джон Филлип Ло",
    "Кэролайн Манро",
    "Том Бэйкер",
    "Дуглас Уилмер",
    "Мартин Шоу",
    "Грегуар Аслан",
    "Курт Кристиан",
    "Такис Эммануэль",
    "Дэвид Гарфилд",
    "Альдо Самбрель"
  ],
  "actors_dubl": [
    "Владимир Герасимов",
    "Юрий Пузырёв",
    "Марина Тарасова",
    "Ольга Григорьева",
    "Александр Новиков"
  ],
  "trivia": [
    "Занимает 71-е место по посещаемости среди зарубежных фильмов в советском кинопрокате."
  ],
  "trailers": [],
  "seasons": [],
  "voiceActing": [
    "Рус. Дублированный",
    "Рус. Проф. многоголосый",
    "Ю. Живов",
    "Л. Володарский",
    "Рус. Одноголосый",
    "Eng.Original"
  ],
  "subtitle": [
    "Рус. полные"
  ],
  "parts": []
}
