{
  "id": 23985,
  "name": "Договор между ангелами",
  "name_eng": "Le pacte des anges",
  "year": 2016,
  "slogan": "—",
  "age": null,
  "type": "film",
  "quality": "HD (720p)",
  "imdb": "6.7",
  "imdb_id": "5059826",
  "kinopoisk": null,
  "kinopoisk_id": "939272",
  "world_art": null,
  "world_art_id": null,
  "time": "95 мин. / 01:35",
  "ads": true,
  "premier": "2016-10-02",
  "premier_rus": "2016-10-03",
  "availability": "2016-10-04",
  "activate_time": "2020-06-16 19:09:00",
  "budget": null,
  "fees_use": null,
  "fees_world": null,
  "fees_rus": null,
  "rate_mpaa": null,
  "description": "Главный герой — мужчина, который оказывается не в то время и не в том месте и становится свидетелем преступления, совершенного двумя братьями-подростками. Братья его похищают, навлекая на себя ещё большие неприятности. Причудливое трио отправляется в путешествие, которое покажет истинное лицо каждого из них.",
  "iframe_url": "",
  "iframe_poster": null,
  "poster": "https://img.imgilall.me/movies/franchise/2/3/9/8/5/0/0/0/0/0/610x900_23985.jpg",
  "country": {
    "7": "Канада"
  },
  "collection": {
    "29": "Психологические"
  },
  "genre": {
    "7": "Драма"
  },
  "director": [
    "Richard Angers"
  ],
  "screenwriter": [
    "Richard Angers"
  ],
  "producer": [
    "Женевьева Лавуа"
  ],
  "operator": [
    "Жан-Франсуа Лорд"
  ],
  "composer": [
    "Serge Nakauchi Pelletier"
  ],
  "design": [],
  "editor": [
    "Доминик Шампейн"
  ],
  "actors": [
    "Lenni-Kim Lalande",
    "Марк Мессье",
    "Эмиль Шнайдер"
  ],
  "actors_dubl": [],
  "trivia": [],
  "trailers": [],
  "seasons": [],
  "voiceActing": [
    "GreenРай Studio"
  ],
  "subtitle": [],
  "parts": []
}
