{
  "id": 24004,
  "name": "Охота на индюшек",
  "name_eng": "Turkey Shoot",
  "year": 2014,
  "slogan": "«It's live... with death»",
  "age": null,
  "type": "film",
  "quality": "HD (720p)",
  "imdb": "3.6",
  "imdb_id": "3816614",
  "kinopoisk": "3.3",
  "kinopoisk_id": "843127",
  "world_art": null,
  "world_art_id": null,
  "time": "90 мин. / 01:30",
  "ads": false,
  "premier": "2014-12-04",
  "premier_rus": "2014-12-05",
  "availability": "2014-12-06",
  "activate_time": "2020-06-18 12:23:00",
  "budget": null,
  "fees_use": null,
  "fees_world": null,
  "fees_rus": null,
  "rate_mpaa": null,
  "description": "В результате шокирующих убийств гражданских в зоне боевых действий, Рика Тайлера приговаривают к заключению и отправляют гнить в тюрьму для военных. Там ему предлагают принять участие в игре, в роли дичи. Ставка в игре, его жизнь или свобода.",
  "iframe_url": "",
  "iframe_poster": null,
  "poster": "https://img.imgilall.me/movies/franchise/2/4/0/0/4/0/0/0/0/0/610x900_24004.jpg",
  "country": {
    "4": "Австралия"
  },
  "collection": [],
  "genre": {
    "17": "Боевик"
  },
  "director": [
    "Джон Хьюит"
  ],
  "screenwriter": [
    "Белинда МакКлори",
    "Джон Хьюит"
  ],
  "producer": [
    "Энтони И. Гиннэйн",
    "Лиззетт Аткинс",
    "Питер ДеРауч"
  ],
  "operator": [
    "Уорвик Филд"
  ],
  "composer": [
    "Цезари Скубижевски"
  ],
  "design": [
    "Тео Бентон",
    "Elle Kallista"
  ],
  "editor": [
    "Jes Simpson"
  ],
  "actors": [
    "Доминик Пёрселл",
    "Вива Бьянка",
    "Роберт Тейлор",
    "Белинда МакКлори",
    "Николас Хэммонд",
    "Кармен Дункан",
    "Роджер Уорд",
    "Сюзанна МакДональд",
    "Juan Jackson",
    "Стефен Филлипс"
  ],
  "actors_dubl": [],
  "trivia": [],
  "trailers": [],
  "seasons": [],
  "voiceActing": [
    "Хихикающий доктор"
  ],
  "subtitle": [],
  "parts": []
}
