{
  "id": 24155,
  "name": "Генерал",
  "name_eng": "The General",
  "year": 1998,
  "slogan": "«The extraordinary true story of the rise and fall of the gangster, Martin Cahill»",
  "age": "12+",
  "type": "film",
  "quality": "FHD (1080p)",
  "imdb": "7.3",
  "imdb_id": "0120706",
  "kinopoisk": "7.2",
  "kinopoisk_id": "3452",
  "world_art": null,
  "world_art_id": null,
  "time": "124 мин. / 02:04",
  "ads": false,
  "premier": "1998-05-19",
  "premier_rus": "1998-05-20",
  "availability": "1998-05-21",
  "activate_time": "2020-06-17 14:22:00",
  "budget": null,
  "fees_use": "$1 214 198",
  "fees_world": null,
  "fees_rus": null,
  "rate_mpaa": "R",
  "description": "Мартин Кэхилл был одним из самых известных людей в Ирландии. Под его окнами дежурили полицейские машины, за ним охотились фоторепортеры, фанаты носили его на руках. Мартин был профессиональным вором. За 20 лет он нажил 60 миллионов, ограбил одну из крупнейших британских ювелирных компаний и вывез несколько десятков картин из музея в Рассборо.Несмотря на то, что 90 полицейских вели круглосуточное наблюдение за всеми членами его банды, властям так ни разу и не удалось доказать его виновность. За непревзойденный талант в планировании операций и несгибаемую волю его прозвали Генералом.",
  "iframe_url": "",
  "iframe_poster": null,
  "poster": "https://img.imgilall.me/movies/franchise/2/4/1/5/5/0/0/0/0/0/610x900_24155.jpg",
  "country": {
    "2": "Великобритания",
    "21": "Ирландия"
  },
  "collection": {
    "39": "На реальных событиях"
  },
  "genre": {
    "25": "Криминал",
    "27": "Биографический",
    "13": "Триллер",
    "7": "Драма"
  },
  "director": [
    "Джон Бурмен"
  ],
  "screenwriter": [
    "Джон Бурмен",
    "Пол Уильямс"
  ],
  "producer": [
    "Джон Бурмен",
    "Киран Корригэн",
    "Бетси Дэвис"
  ],
  "operator": [
    "Шеймас Дизи"
  ],
  "composer": [
    "Ричи Бакли"
  ],
  "design": [
    "Дерек Уоллес",
    "Джим Фурлонг",
    "Маив Патерсон"
  ],
  "editor": [
    "Рон Дэвис"
  ],
  "actors": [
    "Брендан Глисон",
    "Джон Войт",
    "Эдриан Данбар",
    "Шон МакГинли",
    "Мария Дойл Кеннеди",
    "Анджелин Болл",
    "Инна МакЛиэм",
    "Том Мерфи",
    "Пол Хикки",
    "Томми О’Нил"
  ],
  "actors_dubl": [],
  "trivia": [
    "Фильм снят по книге с одноимённым названием ирландского журналиста Пола Уильямса."
  ],
  "trailers": [],
  "seasons": [],
  "voiceActing": [
    "Рус. хардсаб"
  ],
  "subtitle": [
    "Рус. форсированные"
  ],
  "parts": []
}
