{
  "id": 24171,
  "name": "Соммерсби",
  "name_eng": "Sommersby",
  "year": 1993,
  "slogan": "«She knew his face. His touch. His voice. She knew everything about him... But the truth»",
  "age": "16+",
  "type": "film",
  "quality": "FHD (1080p)",
  "imdb": "6.2",
  "imdb_id": "0108185",
  "kinopoisk": "7.5",
  "kinopoisk_id": "8801",
  "world_art": null,
  "world_art_id": null,
  "time": "114 мин. / 01:54",
  "ads": false,
  "premier": "1993-02-05",
  "premier_rus": "1994-02-21",
  "availability": "1994-02-22",
  "activate_time": "2020-06-17 17:54:00",
  "budget": null,
  "fees_use": "$50 081 992",
  "fees_world": "+ $90 000 000 = $140 081 992",
  "fees_rus": null,
  "rate_mpaa": "PG-13",
  "description": "После окончания Гражданской войны в США Джек Соммерсби, которого все считали погибшим, возвращается в родной городок. Джек налаживает хозяйство, восстанавливает отношения с женой, однако у неё появляются подозрения: действительно ли этот человек - её муж?",
  "iframe_url": "",
  "iframe_poster": null,
  "poster": "https://img.imgilall.me/movies/franchise/2/4/1/7/1/0/0/0/0/0/610x900_24171.jpg",
  "country": {
    "1": "США",
    "9": "Франция"
  },
  "collection": [],
  "genre": {
    "24": "Детектив",
    "8": "Мелодрама",
    "7": "Драма"
  },
  "director": [
    "Джон Эмиел"
  ],
  "screenwriter": [
    "Николас Мейер",
    "Даниэль Винь",
    "Жан-Клод Каррьер"
  ],
  "producer": [
    "Арнон Милчен",
    "Стивен Ретер",
    "Ричард Гир"
  ],
  "operator": [
    "Филипп Русло"
  ],
  "composer": [
    "Дэнни Элфман"
  ],
  "design": [
    "Бруно Рубео",
    "П. Майкл Джонстон",
    "Мэрлин Вэнс"
  ],
  "editor": [
    "Питер Бойл"
  ],
  "actors": [
    "Ричард Гир",
    "Джоди Фостер",
    "Лэнни Флаэрти",
    "Уенделл Веллман",
    "Билл Пуллман",
    "Бретт Келли",
    "Уильям Уиндом",
    "Клариса Тейлор",
    "Фрэнки Фэйзон",
    "Р. Ли Эрми"
  ],
  "actors_dubl": [
    "Геннадий Богачёв",
    "Татьяна Иванова",
    "Олег Куликович",
    "Валерий Захарьев"
  ],
  "trivia": [
    "Автор первоначального сценария Николас Мейер выбыл из проекта после того как киностудия отказалась предоставить ему право стать также режиссёром картины. Для переработки сценария была приглашена Сара Керночен, которая была сильно удивлена, увидев перед собой американизированную версию французского фильма «Возвращение Марина Герра» (1982). Киностудия Warner Bros., очевидно, не желая покупать права на ремейк, вначале всячески отрицала это, но сценаристка продолжала настаивать, поскольку сходство оказалось слишком очевидным. В конечном счёте, киностудия сдалась и также согласилась признать авторство уволенного Николаса Мейера.",
    "Корову в фильме зовут Кларисса, также как героиню Джоди Фостер в вышедшем годом ранее «Молчании ягнят».",
    "Съёмки сцен судебного процесса проходили в здании суда округа Шарлот, Виргиния. Перед этим здание было заново покрашено и отремонтировано, а многим местным жителям было разрешено присутствовать в зале суда во время съёмок в качестве публики на судебном заседании."
  ],
  "trailers": [],
  "seasons": [],
  "voiceActing": [
    "НТВ",
    "R5",
    "А. Михалев",
    "Eng.Original"
  ],
  "subtitle": [
    "Рус. полные"
  ],
  "parts": []
}
