{
  "id": 24358,
  "name": "Река",
  "name_eng": "",
  "year": 2002,
  "slogan": "—",
  "age": "12+",
  "type": "film",
  "quality": "HD (720p)",
  "imdb": "6.7",
  "imdb_id": "1606324",
  "kinopoisk": "6.9",
  "kinopoisk_id": "428720",
  "world_art": null,
  "world_art_id": null,
  "time": "50 мин.",
  "ads": false,
  "premier": "2003-02-28",
  "premier_rus": "2003-03-01",
  "availability": "2003-03-02",
  "activate_time": "2020-06-18 09:58:00",
  "budget": null,
  "fees_use": null,
  "fees_world": null,
  "fees_rus": null,
  "rate_mpaa": null,
  "description": "Конец XIX века, крохотная колония прокажённых в глухой якутской тайге. Случайно попавшая сюда здоровая девушка — воровка и охотница — влюбляется в одного из больных, молодого ещё парня, и теперь ждёт от него ребёнка. Но внезапно к нему с большой земли приезжает жена.",
  "iframe_url": "",
  "iframe_poster": null,
  "poster": "https://img.imgilall.me/movies/franchise/2/4/3/5/8/0/0/0/0/0/610x900_24358.jpg",
  "country": {
    "5": "Россия"
  },
  "collection": [],
  "genre": {
    "7": "Драма"
  },
  "director": [
    "Алексей Балабанов"
  ],
  "screenwriter": [
    "Алексей Балабанов",
    "Эверт Паязат",
    "Вацлав Серошевский"
  ],
  "producer": [
    "Сергей Сельянов"
  ],
  "operator": [
    "Сергей Астахов"
  ],
  "composer": [],
  "design": [
    "Павел Пархоменко"
  ],
  "editor": [],
  "actors": [
    "Туйара Свинобоева",
    "Михаил Скрябин",
    "Василий Борисов",
    "Анна Флегонтова",
    "Мария Кычкина",
    "Мария Канаева",
    "Спартак Федотов"
  ],
  "actors_dubl": [],
  "trivia": [],
  "trailers": [],
  "seasons": [],
  "voiceActing": [
    "Original"
  ],
  "subtitle": [],
  "parts": []
}
