{
  "id": 24425,
  "name": "Slove. Прямо в сердце",
  "name_eng": "",
  "year": 2011,
  "slogan": "«Теперь твой позывной – «SLOVE»...»",
  "age": "16+",
  "type": "film",
  "quality": "FHD (1080p)",
  "imdb": "3.5",
  "imdb_id": "1822308",
  "kinopoisk": "3.8",
  "kinopoisk_id": "566743",
  "world_art": null,
  "world_art_id": null,
  "time": "90 мин. / 01:30",
  "ads": true,
  "premier": "2012-03-16",
  "premier_rus": "2011-02-22",
  "availability": "2011-02-23",
  "activate_time": "2020-06-18 16:02:00",
  "budget": "$2 000 000",
  "fees_use": null,
  "fees_world": "$180 000",
  "fees_rus": "$2 625 945",
  "rate_mpaa": null,
  "description": "«SLOVE» - soldieroflove. Он был солдатом чести, а стал солдатом удачи. Он хотел справедливости, а стал оружием в руках коррупционеров. Он хотел любви, но любовь не может быть рядом со смертью.«SLOVE»  - оперативный позывной Алексея Ронина, младшего из трех братьев, выросших в семье военного. Руководствуясь обостренным чувством справедливости, которое воспитал в них отец,  братья решили посвятить себя борьбе с преступностью. Старший Григорий погиб во время операции по ликвидации канала наркотрафика,  Сергей и Алексей  решили продолжить дело брата. Они стали  бороться с преступностью под личиной МВД...",
  "iframe_url": "",
  "iframe_poster": null,
  "poster": "https://img.imgilall.me/movies/franchise/2/4/4/2/5/0/0/0/0/0/610x900_24425.jpg",
  "country": {
    "1": "США",
    "20": "Германия",
    "5": "Россия"
  },
  "collection": {
    "21": "Для молодёжи"
  },
  "genre": {
    "17": "Боевик",
    "13": "Триллер",
    "8": "Мелодрама"
  },
  "director": [
    "Юрий Стааль"
  ],
  "screenwriter": [
    "Юрий Стааль"
  ],
  "producer": [
    "Алексей Подсохин",
    "Кирилл Балмин"
  ],
  "operator": [
    "Александр Кузнецов"
  ],
  "composer": [
    "Юрий Алябов"
  ],
  "design": [
    "Виктор Дроздов",
    "Сергей Николаев",
    "Людмила Спиридонова"
  ],
  "editor": [
    "Евгений Сердюковский"
  ],
  "actors": [
    "Алексей Чадов",
    "Андрей Чадов",
    "Вячеслав Чичиварин",
    "Карина Хидэкель",
    "Сергей Юшкевич",
    "Игорь Жижикин",
    "Олег Шеремет",
    "Герман Стааль",
    "Максим Юдин",
    "Игорь Буроличев"
  ],
  "actors_dubl": [],
  "trivia": [],
  "trailers": [],
  "seasons": [],
  "voiceActing": [
    "Рус. Оригинальный"
  ],
  "subtitle": [],
  "parts": []
}
