{
  "id": 24437,
  "name": "Враг мой",
  "name_eng": "Enemy Mine",
  "year": 1985,
  "slogan": "«Он друг или враг?»",
  "age": "12+",
  "type": "film",
  "quality": "FHD (1080p)",
  "imdb": "6.9",
  "imdb_id": "0089092",
  "kinopoisk": "7.7",
  "kinopoisk_id": "2702",
  "world_art": null,
  "world_art_id": null,
  "time": "108 мин. / 01:48",
  "ads": false,
  "premier": "1985-12-12",
  "premier_rus": "1985-12-13",
  "availability": "1985-12-14",
  "activate_time": "2020-06-18 15:12:00",
  "budget": "$40 000 000",
  "fees_use": "$12 303 411",
  "fees_world": null,
  "fees_rus": null,
  "rate_mpaa": "PG-13",
  "description": "В глубинах нашей галактики, на огромном расстоянии от Земли люди ведут кровопролитную войну с расой рептилий. Войну, которой Земля отдает последние силы, войну на полное уничтожение.В одной из жестоких схваток в окрестностях гористой планеты в системе двойной звезды пилот Виллис Дэвидж сбивает машину чужого, но тут же получает несколько попаданий и выходит из боя.Единственное место, где можно выжить после падения - та самая планета. Но упав, он обнаруживает, что сбитый им чужой не погиб. Смертельные враги оказываются заперты в одной клетке, и выбор прост - уничтожить друг друга или заключить перемирие и попытаться спастись.Что окажется сильнее: желание жить или ненависть и боль за погибших?",
  "iframe_url": "",
  "iframe_poster": null,
  "poster": "https://img.imgilall.me/movies/franchise/2/4/4/3/7/0/0/0/0/0/610x900_24437.jpg",
  "country": {
    "1": "США",
    "38": "Германия (ФРГ)"
  },
  "collection": [],
  "genre": {
    "9": "Приключения",
    "11": "Фантастика",
    "17": "Боевик",
    "7": "Драма"
  },
  "director": [
    "Вольфганг Петерсен"
  ],
  "screenwriter": [
    "Эдвард Хмара",
    "Барри Лонгиер"
  ],
  "producer": [
    "Стефен Дж. Фридман",
    "Стэнли О’Тул"
  ],
  "operator": [
    "Тони Айми"
  ],
  "composer": [
    "Морис Жарр"
  ],
  "design": [
    "Рольф Цехетбауэр",
    "Вернер Ахманн",
    "Херберт Штрабель"
  ],
  "editor": [
    "Ханнес Никель"
  ],
  "actors": [
    "Деннис Куэйд",
    "Луис Госсет мл.",
    "Брайон Джеймс",
    "Ричард Маркус",
    "Кэролин МакКормик",
    "Бампер Робинсон",
    "Джим Мапп",
    "Лэнс Кервин",
    "Скотт Крафт",
    "Лу Майклс"
  ],
  "actors_dubl": [
    "Вадим Ледогоров",
    "Борис Быстров",
    "Александра Назарова",
    "Александр Рыжков"
  ],
  "trivia": [
    "Прямо перед нападением существа на его ногу, Дэвидж поёт песню «Полуночный экспресс».",
    "Фильм был очень популярен в бывшем Советском Союзе, так как он был в первой волне американских фильмов, легально разрешённых к показу. «Враг мой» был афиширован как первый американский фильм ужасов и имел огромный успех.",
    "«Враг мой» вдохновил на создание песни «Неразлучные враги» (Inseparable Enemies) группы Star One в альбоме Space Metal.",
    "Актёры Куэйд и Луис Госсетт-младший ранее несколько лет вместе работали в фильме «Челюсти 3».",
    "В начале фильма на пролетающем грузовом судне можно увидеть буквы BTA (Bilateral Terran Alliance — двусторонний земной альянс).",
    "Действие фильма проходит с 2092 до 2096 гг. Ближе к концу фильма даты исчезновения и спасения Дэвиджа видны, когда высокопоставленный офицер просматривает его файл.",
    "В том же 1985 году Лонгиер, в соавторстве с Дэвидом Герролдом, написал одноименный роман-новелизацию.",
    "Озеро, возле которого происходит первая встреча человека и драка, было изготовлено для съемок фильма Петерсена «Лодка» (1981). Также при съемках «Врага моего» использовались декорации, сделанные для другого фильма Петерсена — «Бесконечная история» (1984).",
    "На режиссерское место прочили Терри Гиллиама, но тот отказался, предпочтя поработать над собственным проектом — «Бразилией».",
    "Во время сражения в начале фильма бортовой компьютер корабля драков показывает на мониторе структуру белка.",
    "Первоначально фильм был снят на Вестманнаейаре (мелком островном архипелаге возле южного побережья Исландии). В результате трений между режиссером и продюсерами, проект был закрыт. Через год Петерсен заново отснял весь фильм. Съемки проходили на баварской киностудии (г. Мюнхен. Часть декораций сохранилась до сих пор, их можно увидеть во время экскурсии по киностудии), но некоторые сцены были отсняты на пленэре — на одном из Канарских островов (вулканические ландшафты и зеленое озеро. Эти пейзажи можно увидеть, посетив национальный парк в Ланзароте).",
    "Луи Госсет, сыгравший инопланетянина, сам придумал странный «акцент». Он полоскал слюну в горле так, как это делают грудные дети.",
    "Снять фильм предлагали Дэвиду Линчу. В конце концов, выбрали Ричарда Лонкрэйна. Но тут появилась более подходящая, по мнению продюсеров, кандидатура — Вольфганг Петерсен.",
    "У фильма мог быть более длинный финал. По-крайней мере, Петерсен отснял сцену, в которой Замус представляет Дэвиджа своим родственникам на родной планете."
  ],
  "trailers": [],
  "seasons": [],
  "voiceActing": [
    "Рус. Дублированный",
    "Рус. Проф. многоголосый",
    "Ю. Живов",
    "Укр. Проф. багатоголосий",
    "Eng.Original"
  ],
  "subtitle": [],
  "parts": []
}
