{
  "id": 24446,
  "name": "Боулинг для Колумбины",
  "name_eng": "Bowling for Columbine",
  "year": 2002,
  "slogan": "«One Nation Under The Gun»",
  "age": "16+",
  "type": "film",
  "quality": "HD (720p)",
  "imdb": "7.9",
  "imdb_id": "0310793",
  "kinopoisk": "7.7",
  "kinopoisk_id": "620",
  "world_art": null,
  "world_art_id": null,
  "time": "120 мин. / 02:00",
  "ads": false,
  "premier": "2002-05-16",
  "premier_rus": "2004-02-26",
  "availability": "2004-02-27",
  "activate_time": "2020-06-18 16:54:00",
  "budget": "$4 000 000",
  "fees_use": "$21 576 018",
  "fees_world": "+ $36 432 405 = $58 008 423",
  "fees_rus": "$13 500",
  "rate_mpaa": "R",
  "description": "США лидируют в мире по числу убийств с применением огнестрельного оружия. Стволов в стране больше, чем телевизоров. Американцы не могут жить без оружия или просто сошли с ума? Кто или что стоит за этим? Расовые проблемы, которые ещё предстоит решить? Голливуд, рок-н-ролл, Интернет? А может, историческая предрасположенность к насилию? В центре фильма – трагический инцидент: перестрелка в колледже Колумбины. Спорный, глубокий, порой ехидный взгляд на взаимосвязь насилия и страха в современной Америке.",
  "iframe_url": "",
  "iframe_poster": null,
  "poster": "https://img.imgilall.me/movies/franchise/2/4/4/4/6/0/0/0/0/0/610x900_24446.jpg",
  "country": {
    "7": "Канада",
    "1": "США",
    "20": "Германия"
  },
  "collection": [],
  "genre": {
    "25": "Криминал",
    "54": "Документальный",
    "7": "Драма"
  },
  "director": [
    "Майкл Мур"
  ],
  "screenwriter": [
    "Майкл Мур"
  ],
  "producer": [
    "Чарльз Бишоп",
    "Джим Чарнеки",
    "Майкл Донован"
  ],
  "operator": [],
  "composer": [
    "Джефф Гиббс"
  ],
  "design": [],
  "editor": [
    "Курт Энгфер"
  ],
  "actors": [
    "Майкл Мур",
    "Сальвадор Альенде",
    "Майк Брэдли",
    "Артур А. Буш",
    "Майкл Колдуэлл",
    "Ричард Кастальдо",
    "Дик Кларк",
    "Стив Дэвис",
    "Нго Динь Дьем",
    "Майк Эпштейн"
  ],
  "actors_dubl": [],
  "trivia": [
    "На международном Каннском кинофестивале зрители устроили фильму 13-минутную овацию.",
    "Картина не вписывалась в существующие номинации, так что получила специальный приз 55-го Каннского кинофестиваля.",
    "Интервью с Джеймсом Николсом вошло в окончательный вариант не полностью. В фильм не попали слова о том, как в день массового убийства сам он волею случая оказался в Литлтоне и как убийцы действовали не слишком успешно. Этот эпизод полностью показали на предварительном просмотре, чтобы оценить реакцию публики. Выяснилось, что большинство зрителей этим словам Николса просто отказались верить."
  ],
  "trailers": [],
  "seasons": [],
  "voiceActing": [
    "Рус. Проф. двухголосый",
    "Eng.Original"
  ],
  "subtitle": [
    "Рус. полные"
  ],
  "parts": []
}
