{
  "id": 24478,
  "name": "Одни в Берлине",
  "name_eng": "Alone in Berlin",
  "year": 2016,
  "slogan": "«In the heart of terror, they resist everyday life»",
  "age": null,
  "type": "film",
  "quality": "HD (720p)",
  "imdb": "6.5",
  "imdb_id": "3026488",
  "kinopoisk": "6.3",
  "kinopoisk_id": "776996",
  "world_art": null,
  "world_art_id": null,
  "time": "103 мин. / 01:43",
  "ads": false,
  "premier": "2016-02-15",
  "premier_rus": "2016-02-16",
  "availability": "2016-02-17",
  "activate_time": "2020-06-23 15:03:00",
  "budget": null,
  "fees_use": "$33 125",
  "fees_world": "+ $1 172 473 = $1 205 598",
  "fees_rus": null,
  "rate_mpaa": "R",
  "description": "Берлин, 1940 год. Отто и Анна Квангель, пара из рабочего класса, узнают, что их единственный сын погиб на поле боя и решают самостоятельно противостоять нацистскому режиму. Вскоре гестапо начинает охоту на эту «угрозу».",
  "iframe_url": "",
  "iframe_poster": null,
  "poster": "https://img.imgilall.me/movies/franchise/2/4/4/7/8/0/0/0/0/0/610x900_24478.jpg",
  "country": {
    "2": "Великобритания",
    "9": "Франция",
    "20": "Германия"
  },
  "collection": [],
  "genre": {
    "32": "Военный",
    "28": "Исторический",
    "7": "Драма"
  },
  "director": [
    "Венсан Перес"
  ],
  "screenwriter": [
    "Ахим фон Боррис",
    "Венсан Перес",
    "Беттин фон Боррис"
  ],
  "producer": [
    "Штефан Арндт",
    "Кристиан Грасс",
    "Марко Паккиони"
  ],
  "operator": [
    "Кристоф Бокарн"
  ],
  "composer": [
    "Александр Деспла"
  ],
  "design": [
    "Жан-Венсан Пюзо",
    "Ютта Хаген",
    "Аня Мюллер"
  ],
  "editor": [
    "Франсуа Гедижье"
  ],
  "actors": [
    "Даниэль Брюль",
    "Брендан Глисон",
    "Эмма Томпсон",
    "Микаэл Персбрандт",
    "Луис Хофманн",
    "Катарина Шюттлер",
    "Якоб Маченц",
    "Годехард Гизе",
    "Рафаэль Гарайзен",
    "Уве Пройсс"
  ],
  "actors_dubl": [],
  "trivia": [],
  "trailers": [],
  "seasons": [],
  "voiceActing": [
    "Рус. Люб. многоголосый"
  ],
  "subtitle": [],
  "parts": []
}
