{
  "id": 24527,
  "name": "Королевы",
  "name_eng": "Reinas",
  "year": 2005,
  "slogan": "«Here come the grooms...and their mothers!»",
  "age": "18+",
  "type": "film",
  "quality": "HD (720p)",
  "imdb": "6.5",
  "imdb_id": "0434304",
  "kinopoisk": "6.9",
  "kinopoisk_id": "106234",
  "world_art": null,
  "world_art_id": null,
  "time": "107 мин. / 01:47",
  "ads": false,
  "premier": "2005-04-08",
  "premier_rus": "2005-04-09",
  "availability": "2005-04-10",
  "activate_time": "2020-10-16 20:16:00",
  "budget": null,
  "fees_use": "$140 417",
  "fees_world": null,
  "fees_rus": null,
  "rate_mpaa": "R",
  "description": "За несколько дней до коллективной гей-свадьбы сплетаются судьбы пятерых женщин, чьи сыновья готовятся вступить в брак. Судья Элена отвечает за церемонию, хозяйка гостиницы Магда — за прием гостей и банкет. Правда, свадьба под угрозой срыва из-за забастовки в отеле. Другим матерям тоже не сладко: нимфоманка Райс больна, состоятельная Рейс сходит с ума по жениху ее сына, Офелия на грани банкротства. Три дня жизни этого блистательного женского ансамбля, такого разного, но в чем-то похожего...",
  "iframe_url": "",
  "iframe_poster": null,
  "poster": "https://img.imgilall.me/movies/franchise/2/4/5/2/7/0/0/0/0/0/610x900_24527.jpg",
  "country": {
    "31": "Нидерланды",
    "3": "Испания",
    "8": "Италия"
  },
  "collection": {
    "14": "Для взрослых"
  },
  "genre": {
    "19": "Комедия",
    "8": "Мелодрама"
  },
  "director": [
    "Мануэль Гомес Перейра"
  ],
  "screenwriter": [
    "Иоланда Гарсия Серрано",
    "Мануэль Гомес Перейра",
    "Хоакин Ористрель"
  ],
  "producer": [
    "Хосе Луис Эсколар"
  ],
  "operator": [
    "Хуан Аморос"
  ],
  "composer": [
    "Бинхен Мендисабаль"
  ],
  "design": [
    "Карлос Конти",
    "Барбара Перес-Солеро",
    "Пако Дельгадо"
  ],
  "editor": [
    "Хосе Сальседо"
  ],
  "actors": [
    "Вероника Форке",
    "Кармен Маура",
    "Мариса Паредес",
    "Мерседес Сампьетро",
    "Бетиана Блум",
    "Густаво Сальмерон",
    "Унакс Угальде",
    "Уго Сильва",
    "Даниэль Хендлер",
    "Пако Леон"
  ],
  "actors_dubl": [],
  "trivia": [],
  "trailers": [],
  "seasons": [],
  "voiceActing": [
    "Diva Universal"
  ],
  "subtitle": [],
  "parts": []
}
