{
  "id": 24537,
  "name": "Черная орхидея",
  "name_eng": "The Black Dahlia",
  "year": 2005,
  "slogan": "«Inspired by the most notorious unsolved murder in California history»",
  "age": "16+",
  "type": "film",
  "quality": "HD (720p)",
  "imdb": "5.6",
  "imdb_id": "0387877",
  "kinopoisk": "6.5",
  "kinopoisk_id": "64012",
  "world_art": null,
  "world_art_id": null,
  "time": "121 мин. / 02:01",
  "ads": false,
  "premier": "2006-08-09",
  "premier_rus": "2006-09-28",
  "availability": "2006-09-29",
  "activate_time": "2020-10-17 04:16:00",
  "budget": "$50 000 000",
  "fees_use": "$22 545 080",
  "fees_world": "+ $26 787 162 = $49 332 242",
  "fees_rus": "$1 497 600",
  "rate_mpaa": "R",
  "description": "Конец 40-х годов. Двое полицейских расследуют жестокое убийство голливудской старлетки, разрезанный пополам труп которой найден на заброшенном пустыре. По мере того, как давление со стороны политиков усиливается, напарники обнаруживают, что слишком многие известные люди замешаны в этом деле.Различные нити расследования приводят их в одну из самых влиятельных семей Нью-Йорка, в сердце полицейского департамента Лос-Анджелеса и даже к собственным возлюбленным.",
  "iframe_url": "",
  "iframe_poster": null,
  "poster": "https://img.imgilall.me/movies/franchise/2/4/5/3/7/0/0/0/0/0/610x900_24537.jpg",
  "country": {
    "1": "США",
    "9": "Франция",
    "20": "Германия"
  },
  "collection": {
    "57": "Про мафию, банды"
  },
  "genre": {
    "25": "Криминал",
    "24": "Детектив",
    "13": "Триллер",
    "7": "Драма"
  },
  "director": [
    "Брайан Де Пальма"
  ],
  "screenwriter": [
    "Джош Фридман",
    "Джеймс Эллрой"
  ],
  "producer": [
    "Руди Коэн",
    "Моше Дайамант",
    "Ави Лернер"
  ],
  "operator": [
    "Вилмош Жигмонд"
  ],
  "composer": [
    "Марк Айшем"
  ],
  "design": [
    "Данте Ферретти",
    "Кристофер Тандон",
    "Дженни Беван"
  ],
  "editor": [
    "Билл Панкоу"
  ],
  "actors": [
    "Джош Хартнетт",
    "Скарлетт Йоханссон",
    "Аарон Экхарт",
    "Хилари Суэнк",
    "Миа Киршнер",
    "Майк Старр",
    "Фиона Шоу",
    "Патрик Фишлер",
    "Джеймс Отис",
    "Джон Кэвэна"
  ],
  "actors_dubl": [
    "Денис Беспалый",
    "Людмила Шувалова",
    "Игорь Ливанов",
    "Елена Ивасишина",
    "Александр Новиков"
  ],
  "trivia": [
    "Фильм снят по мотивам романа Джеймса Эллроя «Черная орхидея» (The Black Dahlia, 1987).",
    "Мэгги Джиленхол была предложена роль Элизабет Шорт, однако актриса отвергла данное предложение. В свою очередь, певица Гвен Стефани отказалась от роли Кей Лэйк (Скарлетт Йоханссон).",
    "До прихода в проект Брайана Де Пальмы режиссерские функции планировал взять на себя Дэвид Финчер.",
    "Роль Мэдлин предназначалась для Евы Грин. Очередное олицетворение образа «роковой женщины» не входило в планы актрисы, что повлекло за собой отказ. В конечном итоге роль досталась Хилари Суэнк.",
    "Марк Айшем заменил Джеймса Хорнера на посту композитора фильма.",
    "Дэвид Финчер изначально планировал снять 3-часовой черно-белый фильм. Впоследствии Финчер покинул проект, частично из-за возникших сомнений в том, что он сможет снять все именно так, как он задумал.",
    "Фильм «Черная Орхидея» открывал 63-й Венецианский Кинофестиваль в 2006 году.",
    "Прототипом персонажа Роуз МакГоун (Шэрил Сэддон) является реальный человек, Шерил Мейлонд, которая делила комнату с Элизабет Шорт и шестью другими девушками.",
    "Все съёмки проходили в павильонах Болгарии и Лос-Анджелеса.",
    "История о «Черной орхидее» была одним из эпизодов компьютерной игры «L.A. Noire».",
    "На 18-минуте фильма, Дуайт, Кэй и Ли смотрят в кинотеатре фильм «Человек, который смеется» (1928)."
  ],
  "trailers": [],
  "seasons": [],
  "voiceActing": [
    "Cartoon Network"
  ],
  "subtitle": [],
  "parts": []
}
