{
  "id": 24647,
  "name": "Ангелы вселенной",
  "name_eng": "Englar alheimsins",
  "year": 2000,
  "slogan": "«Never fall in love because you will become a madman»",
  "age": "16+",
  "type": "film",
  "quality": "SD",
  "imdb": "7.5",
  "imdb_id": "0233651",
  "kinopoisk": "7.2",
  "kinopoisk_id": "23544",
  "world_art": null,
  "world_art_id": null,
  "time": "100 мин. / 01:40",
  "ads": true,
  "premier": "2000-01-01",
  "premier_rus": "2000-01-02",
  "availability": "2000-01-03",
  "activate_time": "2020-06-19 12:11:00",
  "budget": null,
  "fees_use": null,
  "fees_world": null,
  "fees_rus": null,
  "rate_mpaa": null,
  "description": "Пол влюбился в девушку, но ее родители запрещают им встречаться. У Пола – шизофрения, он попадает в психиатрическую лечебницу. Будучи наделен талантами художника и поэта. Он отождествляет себя с героями Шекспира и Ван Гогом. Друзья Пола по клинике – Оли, у которого телепатический контакт с «Битлз» и эрудит Виктор, которому временами кажется, что он – Гитлер.Пытаясь скрасить ужас холодной исландской жизни, троица время от времени сбегает из больницы и наведывается то в гости к президенту, то в самый фешенебельный ресторан Рейкьявика.",
  "iframe_url": "",
  "iframe_poster": null,
  "poster": "https://img.imgilall.me/movies/franchise/2/4/6/4/7/0/0/0/0/0/610x900_24647.jpg",
  "country": {
    "11": "Исландия",
    "20": "Германия",
    "25": "Дания",
    "28": "Швеция",
    "53": "Норвегия"
  },
  "collection": {
    "39": "На реальных событиях"
  },
  "genre": {
    "27": "Биографический",
    "7": "Драма"
  },
  "director": [
    "Фридрик Тоур Фридрикссон"
  ],
  "screenwriter": [
    "Эйнар Гудмундссон"
  ],
  "producer": [
    "Анна Мария Карлсдоттир",
    "Эгиль Одегард",
    "Александр Бор"
  ],
  "operator": [
    "Харальд Гуннар Паалгард"
  ],
  "composer": [
    "Хильмар Эдн Хильмарссон"
  ],
  "design": [
    "Джон Стейнар Рагнарссон",
    "Хельга И. Стефансдоттир"
  ],
  "editor": [
    "Скуле Эриксен",
    "Сигвальди Й. Каурасон"
  ],
  "actors": [
    "Ингвар Эггерт Сигюрдссон",
    "Бальтасар Кормакур",
    "Хильмир Снайр Гвюднасон",
    "Бьёдн Йёрюндюр Фридбьёднссон",
    "Маргрет Хельга Йоханнсдоттир",
    "Теодор Юлиуссон",
    "Фридрик Штейн Фридрикссон",
    "Сара Маргрет Микаэльсдоттир",
    "Халльдоура Гейрхардсдоуттир",
    "Тор Тулиниус"
  ],
  "actors_dubl": [],
  "trivia": [
    "Фильм основан на одноименной новелле Эйнара Гудмундссона, которая является частично биографической, так как судьба её главного героя повторяет судьбу брата писателя."
  ],
  "trailers": [],
  "seasons": [],
  "voiceActing": [
    "Рус. Проф. многоголосый"
  ],
  "subtitle": [],
  "parts": []
}
