{
  "id": 24699,
  "name": "Синоптик",
  "name_eng": "The Weather Man",
  "year": 2004,
  "slogan": "«...захватите зонтик»",
  "age": "18+",
  "type": "film",
  "quality": "HD (720p)",
  "imdb": "6.5",
  "imdb_id": "0384680",
  "kinopoisk": "6.3",
  "kinopoisk_id": "77538",
  "world_art": null,
  "world_art_id": null,
  "time": "102 мин. / 01:42",
  "ads": false,
  "premier": "2005-10-20",
  "premier_rus": "2005-10-21",
  "availability": "2005-10-22",
  "activate_time": "2020-06-19 13:20:00",
  "budget": "$22 000 000",
  "fees_use": "$12 482 775",
  "fees_world": "+ $6 535 972 = $19 018 747",
  "fees_rus": null,
  "rate_mpaa": "R",
  "description": "Дэйв Спиртс - один из тех счастливчиков, которым принято завидовать. Популярный ведущий прогноза погоды, он получает приглашение работать в крупном нью-йоркском телешоу. Деньги, признание, отличные перспективы - удача явно на его стороне. Но мысль об этом почему-то больше не греет.Пока «глашатай морозов и дождей» покорял профессиональные вершины, его личная жизнь полностью расстроилась. Из-за тяжелого развода, болезни отца и проблем с детьми Дэйв - на грани нервного срыва. И чем упорней он пытается контролировать ситуацию, тем больше понимает: жизнь так же непредсказуема, как и погода…",
  "iframe_url": "",
  "iframe_poster": null,
  "poster": "https://img.imgilall.me/movies/franchise/2/4/6/9/9/0/0/0/0/0/610x900_24699.jpg",
  "country": {
    "1": "США",
    "20": "Германия"
  },
  "collection": [],
  "genre": {
    "19": "Комедия",
    "7": "Драма"
  },
  "director": [
    "Гор Вербински"
  ],
  "screenwriter": [
    "Стивен Конрад"
  ],
  "producer": [
    "Тодд Блэк",
    "Джейсон Блюменталь",
    "Стив Тиш"
  ],
  "operator": [
    "Фидон Папамайкл"
  ],
  "composer": [
    "Джеймс С. Левайн",
    "Ханс Циммер"
  ],
  "design": [
    "Том Даффилд",
    "Патрик М. Салливан мл.",
    "Пенни Роуз"
  ],
  "editor": [
    "Крэйг Вуд"
  ],
  "actors": [
    "Николас Кейдж",
    "Майкл Кейн",
    "Хоуп Дэвис",
    "Джеменн де ла Пенья",
    "Николас Холт",
    "Майкл Рисполи",
    "Гил Беллоуз",
    "Джудит МакКоннелл",
    "Крис Маррс",
    "Дина Фэклис"
  ],
  "actors_dubl": [],
  "trivia": [
    "Все свои внутренние монологи Николас Кейдж записал в местной студии звукозаписи ещё до начала съёмок.",
    "Пластмассовая ложка, которая застряла на отвороте пиджака Николаса Кейджа, на самом деле была металлической, специально покрашенной под пластик, и удерживалась на месте с помощью магнита.",
    "Техническим советником съёмочной группы был известный синоптик из Чикаго Том Скиллинг, который также появляется в камео в качестве руководителя телестудии.",
    "Киностудия Paramount Pictures предполагала снять фильм в канадском Торонто вместо Чикаго, где происходят события в картине, но режиссёр Гор Вербински и Николас Кейдж настояли на проведении съёмок именно в Чикаго из соображений аутентичности.",
    "Различные остатки пищи, которые кидают в героя Николаса Кейджа на протяжении фильма, бросал в актёра режиссёр Гор Вербински.",
    "Режиссёр Гор Вербински самолично сыграл на гитаре для саундтрека Ханса Циммера.",
    "Съёмки фильма проходили с 23 февраля по начало мая 2004 года. Несмотря на зимнее время в первые дни погода была очень тёплой, и не было никакого снега. Поскольку по сценарию действие происходило зимой, художникам-постановщикам пришлось создавать заснеженные лужайки и сугробы буквально на ровном месте.",
    "Фильм, который смотрит Майк, в то время как его родители выясняют отношения, это «Прямая и явная угроза» (1994)."
  ],
  "trailers": [],
  "seasons": [],
  "voiceActing": [
    "Diva Universal"
  ],
  "subtitle": [],
  "parts": []
}
