{
  "id": 24787,
  "name": "Двадцатый век",
  "name_eng": "Novecento",
  "year": 1976,
  "slogan": "«Europe's most important, powerful and forceful motion picture ever...!»",
  "age": "18+",
  "type": "series",
  "quality": "SD",
  "imdb": "7.7",
  "imdb_id": "0074084",
  "kinopoisk": "7.9",
  "kinopoisk_id": "6264",
  "world_art": null,
  "world_art_id": null,
  "time": "318 мин. / 05:18",
  "ads": false,
  "premier": "1976-05-21",
  "premier_rus": "1976-05-22",
  "availability": "1976-05-23",
  "serial_status": "offline",
  "activate_time": "2021-09-21 13:42:00",
  "budget": "$9 000 000",
  "fees_use": null,
  "fees_world": null,
  "fees_rus": null,
  "rate_mpaa": "R",
  "description": "Прекрасным летним утром 1900 года в итальянской провинции Эмилия появляются на свет два мальчика. Олмо - еще один рот в многодетной семье бедного крестьянина. Альфредо - отпрыск богатых помещиков. Несмотря на столь различное социальное положение, мальчики не только подружатся, но пронесут дружбу через всю свою жизнь.Они - дети страшных лет Европы, чье отрочество придется на годы Первой мировой войны, а зрелость вступит в свои права под грохот гитлеровских орудий. Да и в промежутке событий будет предостаточно. Фашистская Италия - страна неспокойная. Меняется вековой уклад общества, народ все больше узнает от социалистов о своих правах, Муссолини использует смуту для захвата власти.Ветер перемен врывается и в провинцию Эмилия. Обостряются отношения крестьян и землевладельцев, но Олмо и Альфредо остаются друзьями. Сплетение судеб - близких и бесконечно далеких, сплетение жизни личности и жизни страны.",
  "iframe_url": "",
  "poster": "https://img.imgilall.me/movies/franchise/2/4/7/8/7/0/0/0/0/0/610x900_24787.jpg",
  "country": {
    "8": "Италия",
    "9": "Франция",
    "38": "Германия (ФРГ)"
  },
  "collection": {
    "39": "На реальных событиях"
  },
  "genre": {
    "28": "Исторический",
    "7": "Драма"
  },
  "director": [
    "Бернардо Бертолуччи"
  ],
  "screenwriter": [
    "Франко Аркалли",
    "Джузеппе Бертолуччи",
    "Бернардо Бертолуччи"
  ],
  "producer": [
    "Альберто Гримальди",
    "H.F. Di Mauro"
  ],
  "operator": [
    "Витторио Стораро"
  ],
  "composer": [
    "Эннио Морриконе"
  ],
  "design": [
    "Мария Паола Майно",
    "Джанни Кваранта",
    "Эцио Фриджерио"
  ],
  "editor": [
    "Франко Аркалли"
  ],
  "actors": [
    "Роберт Де Ниро",
    "Жерар Депардье",
    "Доминик Санда",
    "Дональд Сазерленд",
    "Лаура Бетти",
    "Берт Ланкастер",
    "Стерлинг Хейден",
    "Стефания Сандрелли",
    "Франческа Бертини",
    "Вернер Брунс"
  ],
  "actors_dubl": [],
  "trivia": [
    "Бертолуччи хотел, чтобы в роли Альфредо Берлингьери снялся Джек Николсон.",
    "Оригинальная версия фильма длилась 5 часов 17 минут и включала в себя сцены убийства животных, а также эротические сцены с участием Роберта Де Ниро, Жерара Депардье и Стефании Казини.",
    "Дональд Сазерленд так невзлюбил воплощённый им на экране образ, что впоследствии не мог смотреть этот фильм много лет.",
    "В фильме было занято свыше 1 200 актёров массовки."
  ],
  "trailers": [],
  "seasons": [
    {
      "poster": null,
      "release_ru": null,
      "release_world": null,
      "availability": null,
      "iframe_url": "",
      "season": 1,
      "episodes": [
        {
          "episode": 1,
          "name": null,
          "iframe_url": "",
          "iframe_poster": null,
          "release_ru": null,
          "release_world": null,
          "availability": null,
          "voiceActing": [
            "Рус. Проф. многоголосый",
            "Ю. Сербин",
            "Original"
          ],
          "ads": false,
          "subtitle": [
            "Рус. полные"
          ]
        },
        {
          "episode": 2,
          "name": null,
          "iframe_url": "",
          "iframe_poster": null,
          "release_ru": null,
          "release_world": null,
          "availability": null,
          "voiceActing": [
            "Рус. Проф. многоголосый",
            "Ю. Сербин",
            "Original"
          ],
          "ads": false,
          "subtitle": [
            "Рус. полные"
          ]
        }
      ]
    }
  ],
  "voiceActing": [
    "Рус. Проф. многоголосый",
    "Ю. Сербин",
    "Original"
  ],
  "subtitle": [
    "Рус. полные"
  ],
  "parts": []
}
