{
  "id": 24918,
  "name": "Чистыми руками",
  "name_eng": "Cu mâinile curate",
  "year": 1972,
  "slogan": "—",
  "age": "12+",
  "type": "film",
  "quality": "SD",
  "imdb": "7.8",
  "imdb_id": "0068431",
  "kinopoisk": "7.0",
  "kinopoisk_id": "101353",
  "world_art": null,
  "world_art_id": null,
  "time": "95 мин. / 01:35",
  "ads": false,
  "premier": "1972-10-30",
  "premier_rus": "1972-10-31",
  "availability": "1972-11-01",
  "activate_time": "2020-06-22 11:07:00",
  "budget": null,
  "fees_use": null,
  "fees_world": null,
  "fees_rus": null,
  "rate_mpaa": null,
  "description": "Апрель 1945 года. Бухарест потрясают известия о новых и новых преступлениях, совершенных бандой неуловимого Семаки, короля уголовного мира румынской столицы. В это время на службу в полицию приходит Михай Роман.Его новый коллега и напарник - человек совершенно иных взглядов, иного темперамента и воспитания комиссар Миклован. Он ни в чем не сходятся, как Жеглов и Шарапов, но, тем не менее, борьба противоположностей приводит к потрясающему результату - уничтожению банды Семаки.",
  "iframe_url": "",
  "iframe_poster": null,
  "poster": "https://img.imgilall.me/movies/franchise/2/4/9/1/8/0/0/0/0/0/610x900_24918.jpg",
  "country": {
    "38": "Германия (ФРГ)",
    "50": "Румыния"
  },
  "collection": [],
  "genre": {
    "25": "Криминал",
    "17": "Боевик",
    "13": "Триллер"
  },
  "director": [
    "Серджиу Николаеску"
  ],
  "screenwriter": [
    "Титус Попович",
    "Петре Сэлкудяну"
  ],
  "producer": [],
  "operator": [
    "Санду Дэвид"
  ],
  "composer": [
    "Рихард Ошаницки"
  ],
  "design": [
    "Раду Боруцеску",
    "Мируна Боруцеску",
    "Tudor Frîncu"
  ],
  "editor": [
    "Иоланда Минтулеску"
  ],
  "actors": [
    "Иларион Чобану",
    "Александру Добреску",
    "Серджиу Николаеску",
    "Георге Диникэ",
    "Джордже Константин",
    "Штефан Михэилеску-Брэила",
    "Себастьян Папаяни",
    "Эме Якобеску",
    "Моника Гиута",
    "Корина Кириак"
  ],
  "actors_dubl": [
    "Александр Белявский",
    "Валерий Малышев",
    "Лариса Данилина",
    "Николай Граббе",
    "Владимир Балашов"
  ],
  "trivia": [],
  "trailers": [],
  "seasons": [],
  "voiceActing": [
    "Cartoon Network"
  ],
  "subtitle": [],
  "parts": []
}
