{
  "id": 25011,
  "name": "Алекс Лютый",
  "name_eng": "",
  "year": 2020,
  "slogan": "—",
  "age": "16+",
  "type": "series",
  "quality": "FHD (1080p)",
  "imdb": null,
  "imdb_id": null,
  "kinopoisk": "6.5",
  "kinopoisk_id": "1266998",
  "world_art": null,
  "world_art_id": null,
  "time": "47 мин",
  "ads": false,
  "premier": null,
  "premier_rus": "2020-06-22",
  "availability": "2020-06-23",
  "serial_status": "offline",
  "activate_time": "2020-06-22 16:49:00",
  "budget": null,
  "fees_use": null,
  "fees_world": null,
  "fees_rus": null,
  "rate_mpaa": null,
  "description": "1975 год. На своей подмосковной даче убит писатель, готовящий к выпуску книгу о гитлеровском палаче Алексе Лютом. Прямо перед смертью он успевает сообщить своему другу – начальнику спецотдела МВД по розыску военных преступников, генералу Петру Сомову – невероятную новость: Лютый, который считался погибшим с 1944 года, жив! Сомов даёт задание разобраться в этом деле своему лучшему следователю – полковнику Егору Сухареву. В этом ему помогает новый сотрудник спецотдела – старший лейтенант Борис Касьянов.",
  "iframe_url": "",
  "poster": "https://img.imgilall.me/movies/franchise/2/5/0/1/1/0/0/0/0/0/610x900_25011.jpg",
  "country": {
    "5": "Россия"
  },
  "collection": [],
  "genre": {
    "28": "Исторический",
    "24": "Детектив"
  },
  "director": [
    "Леонид Белозорович"
  ],
  "screenwriter": [
    "Егор Головенкин",
    "Рамиль Ямалеев",
    "Алексей Сашин"
  ],
  "producer": [
    "Тимур Вайнштейн",
    "Леонард Блаватник",
    "Вадим Островский"
  ],
  "operator": [
    "Светлана Кругликова"
  ],
  "composer": [
    "Игорь Бабаев"
  ],
  "design": [
    "Сергей Филенко",
    "Татьяна Пояркова"
  ],
  "editor": [
    "Андрей Зозуля"
  ],
  "actors": [
    "Дмитрий Муляр",
    "Сергей Пускепалис",
    "Владислав Коноплёв",
    "Алексей Кирсанов",
    "Юрий Ицков",
    "Анастасия Мытражик",
    "Екатерина Решетникова",
    "Дирк Мартенс",
    "Геннадий Смирнов",
    "Андрей Зибров"
  ],
  "actors_dubl": [],
  "trivia": [],
  "trailers": [],
  "seasons": [
    {
      "poster": null,
      "release_ru": null,
      "release_world": null,
      "availability": null,
      "iframe_url": "",
      "season": 1,
      "episodes": [
        {
          "episode": 1,
          "name": null,
          "iframe_url": "",
          "iframe_poster": null,
          "release_ru": null,
          "release_world": null,
          "availability": null,
          "voiceActing": [
            "Рус. Оригинальный"
          ],
          "ads": false,
          "subtitle": []
        },
        {
          "episode": 2,
          "name": null,
          "iframe_url": "",
          "iframe_poster": null,
          "release_ru": null,
          "release_world": null,
          "availability": null,
          "voiceActing": [
            "Рус. Оригинальный"
          ],
          "ads": false,
          "subtitle": []
        },
        {
          "episode": 3,
          "name": null,
          "iframe_url": "",
          "iframe_poster": null,
          "release_ru": null,
          "release_world": null,
          "availability": null,
          "voiceActing": [
            "Рус. Оригинальный"
          ],
          "ads": false,
          "subtitle": []
        },
        {
          "episode": 4,
          "name": null,
          "iframe_url": "",
          "iframe_poster": null,
          "release_ru": null,
          "release_world": null,
          "availability": null,
          "voiceActing": [
            "Рус. Оригинальный"
          ],
          "ads": false,
          "subtitle": []
        },
        {
          "episode": 5,
          "name": null,
          "iframe_url": "",
          "iframe_poster": null,
          "release_ru": null,
          "release_world": null,
          "availability": null,
          "voiceActing": [
            "Рус. Оригинальный"
          ],
          "ads": false,
          "subtitle": []
        },
        {
          "episode": 6,
          "name": null,
          "iframe_url": "",
          "iframe_poster": null,
          "release_ru": null,
          "release_world": null,
          "availability": null,
          "voiceActing": [
            "Рус. Оригинальный"
          ],
          "ads": false,
          "subtitle": []
        },
        {
          "episode": 7,
          "name": null,
          "iframe_url": "",
          "iframe_poster": null,
          "release_ru": null,
          "release_world": null,
          "availability": null,
          "voiceActing": [
            "Рус. Оригинальный"
          ],
          "ads": false,
          "subtitle": []
        },
        {
          "episode": 8,
          "name": null,
          "iframe_url": "",
          "iframe_poster": null,
          "release_ru": null,
          "release_world": null,
          "availability": null,
          "voiceActing": [
            "Рус. Оригинальный"
          ],
          "ads": false,
          "subtitle": []
        },
        {
          "episode": 9,
          "name": null,
          "iframe_url": "",
          "iframe_poster": null,
          "release_ru": null,
          "release_world": null,
          "availability": null,
          "voiceActing": [
            "Рус. Оригинальный"
          ],
          "ads": false,
          "subtitle": []
        },
        {
          "episode": 10,
          "name": null,
          "iframe_url": "",
          "iframe_poster": null,
          "release_ru": null,
          "release_world": null,
          "availability": null,
          "voiceActing": [
            "Рус. Оригинальный"
          ],
          "ads": false,
          "subtitle": []
        },
        {
          "episode": 11,
          "name": null,
          "iframe_url": "",
          "iframe_poster": null,
          "release_ru": null,
          "release_world": null,
          "availability": null,
          "voiceActing": [
            "Рус. Оригинальный"
          ],
          "ads": false,
          "subtitle": []
        },
        {
          "episode": 12,
          "name": null,
          "iframe_url": "",
          "iframe_poster": null,
          "release_ru": null,
          "release_world": null,
          "availability": null,
          "voiceActing": [
            "Рус. Оригинальный"
          ],
          "ads": false,
          "subtitle": []
        }
      ]
    }
  ],
  "voiceActing": [
    "Рус. Оригинальный"
  ],
  "subtitle": [],
  "parts": []
}
