{
  "id": 2510,
  "name": "Константин",
  "name_eng": "Constantine",
  "year": 2014,
  "slogan": "«Giving Hell... hell»",
  "age": "16+",
  "type": "series",
  "quality": "FHD (1080p)",
  "imdb": "7.5",
  "imdb_id": "3489184",
  "kinopoisk": "6.9",
  "kinopoisk_id": "822704",
  "world_art": null,
  "world_art_id": null,
  "time": "43 мин.",
  "ads": false,
  "premier": "2014-10-24",
  "premier_rus": null,
  "availability": null,
  "serial_status": "offline",
  "activate_time": "2018-09-25 09:13:20",
  "budget": null,
  "fees_use": null,
  "fees_world": null,
  "fees_rus": null,
  "rate_mpaa": null,
  "description": "Бывалый охотник на демонов и оккультист Джон Константин специализируется на задании жару аду. Вооруженный таинственными знаниями темных искусств и своим острым умом, он ведет неравную борьбу…ну или по крайней мере вел. Так как его душа уже все равно проклята и попадет в ад, он решает оставить жизнь борца за добро, но когда демоны нацеливаются на Лив, дочь одного из самых давних друзей Константина, он неохотно возвращается, и он сделает все возможное, чтобы спасти ее.",
  "iframe_url": "",
  "poster": "https://img.imgilall.me/movies/franchise/2/5/1/0/0/0/0/0/0/0/610x900_2510.jpg",
  "country": {
    "1": "США"
  },
  "collection": {
    "21": "Для молодёжи",
    "2": "DC"
  },
  "genre": {
    "26": "Ужасы",
    "6": "Фэнтези",
    "13": "Триллер",
    "10": "Зарубежный",
    "7": "Драма"
  },
  "director": [
    "Ромео Тироне",
    "Нил Маршалл",
    "Джон Бэдэм"
  ],
  "screenwriter": [
    "Дэниэл Церон",
    "Дэвид С. Гойер",
    "Снеха Курс"
  ],
  "producer": [
    "Дэниэл Церон",
    "Дитер Исмаджил",
    "Камерон Уэлш"
  ],
  "operator": [
    "Эванс Браун",
    "Скотт Кеван",
    "Ромео Тироне"
  ],
  "composer": [
    "Беар Маккрири"
  ],
  "design": [
    "Дэвид Бласс",
    "Аарон Осборн",
    "Хьюго Сантьяго"
  ],
  "editor": [
    "Стюарт Шилл",
    "Николас Эрасмус",
    "Нона Ходай"
  ],
  "actors": [
    "Мэтт Райан",
    "Люси Гриффитс",
    "Хэролд Перрино",
    "Чарльз Халфорд",
    "Анхелика Селая",
    "Майкл Джеймс Шоу",
    "Манн Альфонсо",
    "Джонджо О’Нил",
    "Джереми Дэвис",
    "Клер ван дер Бом"
  ],
  "actors_dubl": [
    "Александр Койгеров",
    "Мария Цветкова-Овсянникова",
    "Дмитрий Стрелков",
    "Борис Хасанов",
    "Светлана Кузнецова"
  ],
  "trivia": [
    "Телефонный номер Константина ((404) 248-7182) является реальным, код 404 зарегистрирован в Атланте, где снимался фильм."
  ],
  "trailers": [],
  "seasons": [
    {
      "poster": "https://img.imgilall.me/movies/season/1/3/3/2/0/0/0/0/0/0/610x900_1332.jpg",
      "release_ru": "2014-10-25",
      "release_world": "2014-10-24",
      "availability": "2014-10-26",
      "iframe_url": "",
      "season": 1,
      "episodes": [
        {
          "episode": 1,
          "name": "Non Est Asylum",
          "iframe_url": "",
          "iframe_poster": null,
          "release_ru": "2014-10-25",
          "release_world": "2014-10-24",
          "availability": "2014-10-26",
          "voiceActing": [
            "LostFilm",
            "Eng.Original"
          ],
          "ads": false,
          "subtitle": []
        },
        {
          "episode": 2,
          "name": "The Darkness Beneath",
          "iframe_url": "",
          "iframe_poster": null,
          "release_ru": "2014-11-01",
          "release_world": "2014-10-31",
          "availability": "2014-11-02",
          "voiceActing": [
            "LostFilm",
            "Eng.Original"
          ],
          "ads": false,
          "subtitle": []
        },
        {
          "episode": 3,
          "name": "The Devil's Vinyl",
          "iframe_url": "",
          "iframe_poster": null,
          "release_ru": "2014-11-08",
          "release_world": "2014-11-07",
          "availability": "2014-11-09",
          "voiceActing": [
            "LostFilm",
            "Eng.Original"
          ],
          "ads": false,
          "subtitle": []
        },
        {
          "episode": 4,
          "name": "A Feast of Friends",
          "iframe_url": "",
          "iframe_poster": null,
          "release_ru": "2014-11-15",
          "release_world": "2014-11-14",
          "availability": "2014-11-16",
          "voiceActing": [
            "LostFilm",
            "Eng.Original"
          ],
          "ads": false,
          "subtitle": []
        },
        {
          "episode": 5,
          "name": "Danse Vaudou",
          "iframe_url": "",
          "iframe_poster": null,
          "release_ru": "2014-11-22",
          "release_world": "2014-11-21",
          "availability": "2014-11-23",
          "voiceActing": [
            "LostFilm",
            "Eng.Original"
          ],
          "ads": false,
          "subtitle": []
        },
        {
          "episode": 6,
          "name": "The Rage of Caliban",
          "iframe_url": "",
          "iframe_poster": null,
          "release_ru": "2014-11-29",
          "release_world": "2014-11-28",
          "availability": "2014-11-30",
          "voiceActing": [
            "LostFilm",
            "Eng.Original"
          ],
          "ads": false,
          "subtitle": []
        },
        {
          "episode": 7,
          "name": "Blessed Are the Damned",
          "iframe_url": "",
          "iframe_poster": null,
          "release_ru": "2014-12-06",
          "release_world": "2014-12-05",
          "availability": "2014-12-07",
          "voiceActing": [
            "LostFilm",
            "Eng.Original"
          ],
          "ads": false,
          "subtitle": []
        },
        {
          "episode": 8,
          "name": "The Saint of Last Resorts",
          "iframe_url": "",
          "iframe_poster": null,
          "release_ru": "2014-12-13",
          "release_world": "2014-12-12",
          "availability": "2014-12-14",
          "voiceActing": [
            "LostFilm",
            "Eng.Original"
          ],
          "ads": false,
          "subtitle": []
        },
        {
          "episode": 9,
          "name": "The Saint of Last Resorts: Part Two",
          "iframe_url": "",
          "iframe_poster": null,
          "release_ru": "2015-01-17",
          "release_world": "2015-01-16",
          "availability": "2015-01-18",
          "voiceActing": [
            "LostFilm",
            "Eng.Original"
          ],
          "ads": false,
          "subtitle": []
        },
        {
          "episode": 10,
          "name": "Quid Pro Quo",
          "iframe_url": "",
          "iframe_poster": null,
          "release_ru": "2015-01-24",
          "release_world": "2015-01-23",
          "availability": "2015-01-25",
          "voiceActing": [
            "LostFilm",
            "Eng.Original"
          ],
          "ads": false,
          "subtitle": []
        },
        {
          "episode": 11,
          "name": "A Whole World Out There",
          "iframe_url": "",
          "iframe_poster": null,
          "release_ru": "2015-01-31",
          "release_world": "2015-01-30",
          "availability": "2015-02-01",
          "voiceActing": [
            "LostFilm",
            "Eng.Original"
          ],
          "ads": false,
          "subtitle": []
        },
        {
          "episode": 12,
          "name": "Angels and Ministers of Grace",
          "iframe_url": "",
          "iframe_poster": null,
          "release_ru": "2015-02-07",
          "release_world": "2015-02-06",
          "availability": "2015-02-08",
          "voiceActing": [
            "LostFilm",
            "Eng.Original"
          ],
          "ads": false,
          "subtitle": []
        },
        {
          "episode": 13,
          "name": "Waiting for the Man",
          "iframe_url": "",
          "iframe_poster": null,
          "release_ru": "2015-02-14",
          "release_world": "2015-02-13",
          "availability": "2015-02-15",
          "voiceActing": [
            "LostFilm",
            "Eng.Original"
          ],
          "ads": false,
          "subtitle": []
        }
      ]
    }
  ],
  "voiceActing": [
    "LostFilm",
    "Eng.Original"
  ],
  "subtitle": [],
  "parts": []
}
