{
  "id": 25140,
  "name": "Янковский",
  "name_eng": "",
  "year": 2014,
  "slogan": "—",
  "age": "12+",
  "type": "film",
  "quality": "HD (720p)",
  "imdb": null,
  "imdb_id": null,
  "kinopoisk": "7.3",
  "kinopoisk_id": "851995",
  "world_art": null,
  "world_art_id": null,
  "time": "72 мин. / 01:12",
  "ads": false,
  "premier": null,
  "premier_rus": "2015-02-19",
  "availability": "2015-02-20",
  "activate_time": "2020-06-23 13:48:00",
  "budget": null,
  "fees_use": null,
  "fees_world": null,
  "fees_rus": null,
  "rate_mpaa": null,
  "description": "Этот фильм не об Олеге Янковском в привычном понимании: не биография великого актера, не обзор ролей. И не острые факты из его личной жизни. Хотя это все в фильме есть: драматичная судьба, неизвестные страницы биографии. Как любой большой актер, он обладал тайной - недоговаривал и в кино, и в жизни. Но главным его даром было даже не лицедейство. Янковский талантливо влюблял в себя людей. На него хотелось смотреть снова и снова: оттого его любили и любят до сих пор.",
  "iframe_url": "",
  "iframe_poster": null,
  "poster": "https://img.imgilall.me/movies/franchise/2/5/1/4/0/0/0/0/0/0/610x900_25140.jpg",
  "country": {
    "5": "Россия"
  },
  "collection": {
    "39": "На реальных событиях"
  },
  "genre": {
    "54": "Документальный"
  },
  "director": [
    "Аркадий Коган"
  ],
  "screenwriter": [
    "Аркадий Коган"
  ],
  "producer": [
    "Михаил Зильберман",
    "Владимир Репников",
    "Филипп Янковский"
  ],
  "operator": [
    "Ирина Уральская",
    "Анатолий Петрига"
  ],
  "composer": [
    "Руслан Муратов"
  ],
  "design": [
    "Алексей Ермолаев"
  ],
  "editor": [],
  "actors": [
    "Ростислав Янковский",
    "Николай Янковский",
    "Филипп Янковский",
    "Иван Янковский",
    "Наина Ельцина",
    "Галина Волчек",
    "Инна Чурикова",
    "Ирина Купченко",
    "Лора Гуэрра",
    "Татьяна Друбич"
  ],
  "actors_dubl": [],
  "trivia": [],
  "trailers": [],
  "seasons": [],
  "voiceActing": [
    "Original"
  ],
  "subtitle": [],
  "parts": []
}
