{
  "id": 25177,
  "name": "Дворянское гнездо",
  "name_eng": "",
  "year": 1969,
  "slogan": "—",
  "age": "12+",
  "type": "film",
  "quality": "SD",
  "imdb": "6.7",
  "imdb_id": "0064268",
  "kinopoisk": "6.9",
  "kinopoisk_id": "44359",
  "world_art": null,
  "world_art_id": null,
  "time": "111 мин. / 01:51",
  "ads": true,
  "premier": "1969-08-25",
  "premier_rus": "1969-08-26",
  "availability": "1969-08-27",
  "activate_time": "2020-06-23 20:46:00",
  "budget": null,
  "fees_use": null,
  "fees_world": null,
  "fees_rus": null,
  "rate_mpaa": null,
  "description": "Дворянин Лаврецкий возвращается из-за границы в Россию, в свое «родовое гнездо», где его всегда ждут и по-прежнему любят.",
  "iframe_url": "",
  "iframe_poster": null,
  "poster": "https://img.imgilall.me/movies/franchise/2/5/1/7/7/0/0/0/0/0/610x900_25177.jpg",
  "country": {
    "24": "СССР"
  },
  "collection": {
    "38": "Про любовь"
  },
  "genre": {
    "8": "Мелодрама",
    "7": "Драма"
  },
  "director": [
    "Андрей Кончаловский"
  ],
  "screenwriter": [
    "Валентин Ежов",
    "Андрей Кончаловский",
    "Иван Тургенев"
  ],
  "producer": [],
  "operator": [
    "Георгий Рерберг"
  ],
  "composer": [
    "Вячеслав Овчинников"
  ],
  "design": [
    "Александр Бойм",
    "Николай Двигубский",
    "Михаил Ромадин"
  ],
  "editor": [
    "Л. Покровская"
  ],
  "actors": [
    "Ирина Купченко",
    "Леонид Кулагин",
    "Беата Тышкевич",
    "Тамара Чернова",
    "Виктор Сергачев",
    "Василий Меркурьев",
    "Александр Костомолоцкий",
    "Мария Дурасова",
    "Владимир Кочурихин",
    "Сергей Никоненко"
  ],
  "actors_dubl": [],
  "trivia": [
    "Фильм снят по одноименному роману Ивана Тургенева."
  ],
  "trailers": [],
  "seasons": [],
  "voiceActing": [
    "Рус. Оригинальный"
  ],
  "subtitle": [],
  "parts": []
}
