{
  "id": 25185,
  "name": "Восставший из ада 7: Армия мертвецов",
  "name_eng": "Hellraiser: Deader",
  "year": 2003,
  "slogan": "«Квинтэссенция зла»",
  "age": "18+",
  "type": "film",
  "quality": "HD (720p)",
  "imdb": "4.5",
  "imdb_id": "0337636",
  "kinopoisk": "4.6",
  "kinopoisk_id": "103498",
  "world_art": null,
  "world_art_id": null,
  "time": "88 мин. / 01:28",
  "ads": false,
  "premier": "2005-06-07",
  "premier_rus": "2005-06-08",
  "availability": "2005-06-09",
  "activate_time": "2020-06-23 20:56:00",
  "budget": "$4 000 000",
  "fees_use": null,
  "fees_world": null,
  "fees_rus": null,
  "rate_mpaa": "R",
  "description": "Журналистка лондонской газеты Эми Кляйн отправляется в Бухарест, чтобы расследовать там действия тайной секты, члены которой добровольно расстаются с жизнью путем самоубийства. Она с легкостью проникает в мрачный мир секты, но вскоре понимает, что теперь у нее нет другого пути кроме как присоединиться к ее участникам в приготовлениях к пришествию их божества...",
  "iframe_url": "",
  "iframe_poster": null,
  "poster": "https://img.imgilall.me/movies/franchise/2/5/1/8/5/0/0/0/0/0/610x900_25185.jpg",
  "country": {
    "1": "США",
    "50": "Румыния"
  },
  "collection": {
    "26": "Про монстров"
  },
  "genre": {
    "26": "Ужасы",
    "24": "Детектив",
    "13": "Триллер"
  },
  "director": [
    "Рик Бота"
  ],
  "screenwriter": [
    "Нил Маршал Стивенс",
    "Тим Дэй",
    "Клайв Баркер"
  ],
  "producer": [
    "Дэвид С. Грейтхаус",
    "Рон Шмидт",
    "Стэн Уинстон"
  ],
  "operator": [
    "Виви Драган Василь"
  ],
  "composer": [
    "Хеннинг Лонер"
  ],
  "design": [
    "Сербан Порупко",
    "Дан Тоадер"
  ],
  "editor": [
    "Энтони Адлер"
  ],
  "actors": [
    "Кари Вурер",
    "Пол Рис",
    "Саймон Кунц",
    "Марк Уоррен",
    "Джорджина Райлэнс",
    "Даг Брэдли",
    "Ионут Черменски",
    "Хью Джорджин",
    "Линда Марлоу",
    "Мадалина Константин"
  ],
  "actors_dubl": [],
  "trivia": [
    "Картина снималась одновременно с восьмым фильмом.",
    "Первоначальный сценарий не имел ничего общего с предысторией саги Клайва Баркера, но когда продюсеры сумели приобрести права на использование прибыльного названия, сценарист Тим Дэй переписал сценарий и добавил в него Пинхеда и сенобитов."
  ],
  "trailers": [],
  "seasons": [],
  "voiceActing": [
    "Рус. Проф. многоголосый",
    "Рус. Проф. двухголосый",
    "А. Гаврилов",
    "Eng.Original"
  ],
  "subtitle": [
    "Eng. full"
  ],
  "parts": [
    25133,
    25137,
    21782,
    17136,
    25216,
    25185,
    25183,
    25143,
    25139,
    25222
  ]
}
