{
  "id": 25187,
  "name": "Жизнь",
  "name_eng": "The Living",
  "year": 2014,
  "slogan": "—",
  "age": null,
  "type": "film",
  "quality": "SD",
  "imdb": "6.1",
  "imdb_id": "2950236",
  "kinopoisk": "5.7",
  "kinopoisk_id": "767908",
  "world_art": null,
  "world_art_id": null,
  "time": "89 мин. / 01:29",
  "ads": true,
  "premier": "2014-06-26",
  "premier_rus": "2014-06-27",
  "availability": "2014-06-28",
  "activate_time": "2020-06-23 21:17:00",
  "budget": "$500 000",
  "fees_use": "$5 514",
  "fees_world": null,
  "fees_rus": null,
  "rate_mpaa": "R",
  "description": "Мужчина нанимает бывшего заключенного, чтобы убить жестокого мужа его сестры, но отчаянные меры начинают двигаться в шокирующем направлении.",
  "iframe_url": "",
  "iframe_poster": null,
  "poster": "https://img.imgilall.me/movies/franchise/2/5/1/8/7/0/0/0/0/0/610x900_25187.jpg",
  "country": {
    "1": "США"
  },
  "collection": {
    "38": "Про любовь",
    "21": "Для молодёжи"
  },
  "genre": {
    "25": "Криминал",
    "24": "Детектив",
    "13": "Триллер",
    "7": "Драма"
  },
  "director": [
    "Джек Брайан"
  ],
  "screenwriter": [
    "Джек Брайан"
  ],
  "producer": [
    "Джек Брайан",
    "Лаура Дюбуа",
    "Джон Снайдер"
  ],
  "operator": [
    "Aleksandar Kosutic"
  ],
  "composer": [
    "Мэттью Де Люка",
    "Нил Де Люка"
  ],
  "design": [
    "Челси Майклс",
    "Доминик Галеано",
    "Jackie Alyeshmerni"
  ],
  "editor": [
    "Фрэнк Рейнольдс"
  ],
  "actors": [
    "Фрэн Кранц",
    "Джоселин Донахью",
    "Кенни Вормолд",
    "Крис Малки",
    "Джоэль Картер",
    "Эрин Каммингс",
    "Николь Робинсон",
    "Энди Сандберг",
    "Brian McMinimee",
    "Jesse Ruser"
  ],
  "actors_dubl": [],
  "trivia": [],
  "trailers": [],
  "seasons": [],
  "voiceActing": [
    "Рус. Люб. двухголосый"
  ],
  "subtitle": [],
  "parts": []
}
