{
  "id": 25211,
  "name": "Король страданий",
  "name_eng": "Mr. Hurt",
  "year": 2017,
  "slogan": "—",
  "age": null,
  "type": "film",
  "quality": "HD (720p)",
  "imdb": "6.2",
  "imdb_id": "6138706",
  "kinopoisk": null,
  "kinopoisk_id": "1104962",
  "world_art": null,
  "world_art_id": null,
  "time": "129 мин. / 02:09",
  "ads": false,
  "premier": "2017-02-02",
  "premier_rus": "2017-02-03",
  "availability": "2017-02-04",
  "activate_time": "2020-06-24 16:01:00",
  "budget": "$850 000",
  "fees_use": null,
  "fees_world": null,
  "fees_rus": null,
  "rate_mpaa": null,
  "description": null,
  "iframe_url": "",
  "iframe_poster": null,
  "poster": "https://img.imgilall.me/movies/franchise/2/5/2/1/1/0/0/0/0/0/610x900_25211.jpg",
  "country": {
    "66": "Таиланд"
  },
  "collection": {
    "36": "Романтические комедии",
    "76": "Про спорт"
  },
  "genre": {
    "23": "Спортивный",
    "19": "Комедия",
    "8": "Мелодрама"
  },
  "director": [
    "Ittisak Eusunthornwattana"
  ],
  "screenwriter": [
    "Ittisak Eusunthornwattana"
  ],
  "producer": [
    "Сангар Чатчаирунгруанг"
  ],
  "operator": [],
  "composer": [],
  "design": [],
  "editor": [
    "Nitipod Kositngamdeewongse"
  ],
  "actors": [
    "Санни Суванметханонт",
    "Mashannoad Suvalmas",
    "Marie Broenner",
    "Понгсаторн Джонгвилак",
    "Маркус Вальдов"
  ],
  "actors_dubl": [],
  "trivia": [],
  "trailers": [],
  "seasons": [],
  "voiceActing": [
    "Рус. Люб. многоголосый"
  ],
  "subtitle": [],
  "parts": []
}
