{
  "id": 2529,
  "name": "Проклятие: Кукла ведьмы",
  "name_eng": "Curse of the Witch's Doll",
  "year": 2018,
  "slogan": null,
  "age": "18+",
  "type": "film",
  "quality": "HD (720p)",
  "imdb": "3.2",
  "imdb_id": "6578228",
  "kinopoisk": "4.0",
  "kinopoisk_id": "1092466",
  "world_art": null,
  "world_art_id": null,
  "time": "95 мин. / 01:35",
  "ads": false,
  "premier": "2018-01-12",
  "premier_rus": "2018-08-30",
  "availability": null,
  "activate_time": "2018-09-26 11:01:24",
  "budget": null,
  "fees_use": null,
  "fees_world": null,
  "fees_rus": "$38 836",
  "rate_mpaa": null,
  "description": "После исчезновения дочери Аделина Грей сталкивается с полным безразличием новых соседей. Никто не верит в то, что дочь еще можно спасти. Она начинает подозревать, что инцидент связан с ужасной куклой, в которой заключено настоящее зло — в ней обитает дух ведьмы.",
  "iframe_url": "",
  "iframe_poster": "https://img.imgilall.me/movies/video/1/0/9/1/6/5/0/0/0/0/800x450_109165.jpeg",
  "poster": "https://img.imgilall.me/movies/franchise/2/5/2/9/0/0/0/0/0/0/610x900_2529.jpg",
  "country": {
    "2": "Великобритания"
  },
  "collection": {
    "22": "Про призраков",
    "21": "Для молодёжи"
  },
  "genre": {
    "26": "Ужасы",
    "10": "Зарубежный"
  },
  "director": [
    "Лоуренс Фаулер"
  ],
  "screenwriter": [
    "Лоуренс Фаулер"
  ],
  "producer": [
    "Джофф Фаулер",
    "Лоуренс Фаулер",
    "Дэвид Уэр"
  ],
  "operator": [],
  "composer": [],
  "design": [
    "Руби Роулингс",
    "Лиз Фаулер"
  ],
  "editor": [],
  "actors": [
    "Хелен Кревел",
    "Филип Риду",
    "Лайла Уоттс",
    "Нил Хоббс",
    "Клер Карреньо",
    "Мишель Арчер",
    "Роберт Анселл",
    "Уильям Фрейзер",
    "Лаура Джейнс",
    "Итан Тейлор"
  ],
  "actors_dubl": [
    "Полина Щербакова",
    "Александр Хотченков",
    "Ольга Мешкова",
    "Владимир Рыбальченко",
    "Ольга Сирина"
  ],
  "trivia": [],
  "trailers": [],
  "seasons": [],
  "voiceActing": [
    "Рус. Дублированный",
    "Eng.Original"
  ],
  "subtitle": [],
  "parts": []
}
