{
  "id": 25390,
  "name": "Будущее",
  "name_eng": "The Future",
  "year": 2010,
  "slogan": "—",
  "age": "16+",
  "type": "film",
  "quality": "SD",
  "imdb": "6.2",
  "imdb_id": "1235170",
  "kinopoisk": "5.9",
  "kinopoisk_id": "418743",
  "world_art": null,
  "world_art_id": null,
  "time": "91 мин. / 01:31",
  "ads": false,
  "premier": "2011-01-21",
  "premier_rus": "2011-11-10",
  "availability": "2011-11-11",
  "activate_time": "2020-10-17 02:57:00",
  "budget": "$1 000 000",
  "fees_use": "$568 662",
  "fees_world": null,
  "fees_rus": "$18 593",
  "rate_mpaa": "R",
  "description": "Когда пара решает взять бездомного кота, их жизненная перспектива меняется, буквально искажая пространство и время и проверяя их веру в себя и друг друга на прочность.",
  "iframe_url": "",
  "iframe_poster": null,
  "poster": "https://img.imgilall.me/movies/franchise/2/5/3/9/0/0/0/0/0/0/610x900_25390.jpg",
  "country": {
    "1": "США",
    "9": "Франция",
    "20": "Германия"
  },
  "collection": {
    "38": "Про любовь"
  },
  "genre": {
    "6": "Фэнтези",
    "8": "Мелодрама",
    "7": "Драма"
  },
  "director": [
    "Миранда Джулай"
  ],
  "screenwriter": [
    "Миранда Джулай"
  ],
  "producer": [
    "Джина Вонг",
    "Герхард Майкснер",
    "Роман Пауль"
  ],
  "operator": [
    "Николай фон Гревениц"
  ],
  "composer": [
    "Джон Брайон"
  ],
  "design": [
    "Эллиотт Хостеттер",
    "Рут Де Йонг",
    "Кристи Уиттенборн"
  ],
  "editor": [
    "Эндрю Бёрд"
  ],
  "actors": [
    "Хамиш Линклейтер",
    "Миранда Джулай",
    "Дэвид Уоршофски",
    "Изабелла Акрес",
    "Джо Паттерлик",
    "Анджела Тримбур",
    "Мэри Пассери",
    "Элла",
    "Кэтлин Гати",
    "Клемент Сейнт-Джордж"
  ],
  "actors_dubl": [],
  "trivia": [],
  "trailers": [],
  "seasons": [],
  "voiceActing": [
    "Diva Universal"
  ],
  "subtitle": [],
  "parts": []
}
