{
  "id": 25436,
  "name": "Живи легендой",
  "name_eng": "Living Legends",
  "year": 2014,
  "slogan": "—",
  "age": null,
  "type": "film",
  "quality": "FHD (1080p)",
  "imdb": "7.4",
  "imdb_id": "3316384",
  "kinopoisk": null,
  "kinopoisk_id": "807820",
  "world_art": null,
  "world_art_id": null,
  "time": "100 мин. / 01:40",
  "ads": false,
  "premier": "2014-02-14",
  "premier_rus": "2014-02-15",
  "availability": "2014-02-16",
  "activate_time": "2020-06-26 10:52:00",
  "budget": "$280 000",
  "fees_use": null,
  "fees_world": "$461 421",
  "fees_rus": null,
  "rate_mpaa": null,
  "description": "Спустя 13 лет после выпускного друзья собираются вновь. Они встретились, чтобы помочь приятелю, не надеясь, что появится шанс сделать то, что все это время откладывали «на потом».",
  "iframe_url": "",
  "iframe_poster": null,
  "poster": "https://img.imgilall.me/movies/franchise/2/5/4/3/6/0/0/0/0/0/610x900_25436.jpg",
  "country": {
    "33": "Болгария"
  },
  "collection": [],
  "genre": {
    "19": "Комедия",
    "8": "Мелодрама",
    "7": "Драма"
  },
  "director": [
    "Ники Илиев"
  ],
  "screenwriter": [
    "Саня Борисова",
    "Ники Илиев",
    "Николай Василевски"
  ],
  "producer": [
    "Ян Янев",
    "Бойко Илиев",
    "Ники Илиев"
  ],
  "operator": [
    "Григор Кумитски"
  ],
  "composer": [
    "Борислав-Борче Бояджиев"
  ],
  "design": [
    "Евгений Генчев"
  ],
  "editor": [
    "Александр Етимов"
  ],
  "actors": [
    "Орлин Павлов",
    "Ники Илиев",
    "Саня Борисова",
    "Димо Алексиев",
    "Любомир Коватчев",
    "Джорджи Кадурин",
    "Яна Маринова",
    "Юлиан Ковалевски",
    "Микеле Плачидо",
    "Анна Мария Петрова-Жузелева"
  ],
  "actors_dubl": [],
  "trivia": [],
  "trailers": [],
  "seasons": [],
  "voiceActing": [
    "Рус. Проф. многоголосый"
  ],
  "subtitle": [],
  "parts": []
}
