{
  "id": 25457,
  "name": "Подставная лошадь",
  "name_eng": "The Fiddling Horse",
  "year": 2019,
  "slogan": "—",
  "age": null,
  "type": "film",
  "quality": "HD (720p)",
  "imdb": "5.2",
  "imdb_id": "8115798",
  "kinopoisk": null,
  "kinopoisk_id": "1116369",
  "world_art": null,
  "world_art_id": null,
  "time": "72 мин. / 01:12",
  "ads": true,
  "premier": "2019-09-28",
  "premier_rus": "2019-09-29",
  "availability": "2019-09-30",
  "activate_time": "2020-06-26 17:16:00",
  "budget": null,
  "fees_use": null,
  "fees_world": null,
  "fees_rus": null,
  "rate_mpaa": null,
  "description": null,
  "iframe_url": "",
  "iframe_poster": null,
  "poster": "https://img.imgilall.me/movies/franchise/2/5/4/5/7/0/0/0/0/0/610x900_25457.jpg",
  "country": {
    "1": "США"
  },
  "collection": [],
  "genre": {
    "19": "Комедия",
    "10": "Зарубежный"
  },
  "director": [
    "С.Дж. Уоллис"
  ],
  "screenwriter": [
    "С.Дж. Уоллис"
  ],
  "producer": [
    "Mallory Kennedy",
    "С.Дж. Уоллис",
    "Cindie Coghlan"
  ],
  "operator": [
    "John B Sovie II",
    "С.Дж. Уоллис"
  ],
  "composer": [
    "Фортес"
  ],
  "design": [
    "Donna Vanderbeek"
  ],
  "editor": [
    "С.Дж. Уоллис"
  ],
  "actors": [
    "Хизер Матараццо",
    "Дэвид Джонс",
    "Элли Миллс",
    "Энди Кайндлер",
    "Паула Линдберг",
    "Лауро Чартрэнд",
    "Дж. Элвис Вайнштейн",
    "Билли Митчелл",
    "Клэй Ст. Томас",
    "С.Дж. Уоллис"
  ],
  "actors_dubl": [],
  "trivia": [],
  "trailers": [],
  "seasons": [],
  "voiceActing": [
    "Рус. Люб. многоголосый"
  ],
  "subtitle": [],
  "parts": []
}
