{
  "id": 25560,
  "name": "Последствия",
  "name_eng": "Aftermath",
  "year": 2014,
  "slogan": "«You are NOT safe»",
  "age": "16+",
  "type": "film",
  "quality": "HD (720p)",
  "imdb": "4.7",
  "imdb_id": "1564368",
  "kinopoisk": "5.1",
  "kinopoisk_id": "493350",
  "world_art": null,
  "world_art_id": null,
  "time": "92 мин. / 01:32",
  "ads": false,
  "premier": "2014-07-18",
  "premier_rus": "2014-07-19",
  "availability": "2014-07-20",
  "activate_time": "2020-07-07 06:28:00",
  "budget": "$2 500 000",
  "fees_use": null,
  "fees_world": null,
  "fees_rus": null,
  "rate_mpaa": null,
  "description": "История девяти незнакомцев оказавшихся в результате цепочки ужасных событий и стихийных бедствий в погребе сельского дома в Техасе. Вместе они пытаются перенести последствия ядерного удара, а также справиться со своими эмоциями и противоречиями.",
  "iframe_url": "",
  "iframe_poster": null,
  "poster": "https://img.imgilall.me/movies/franchise/2/5/5/6/0/0/0/0/0/0/610x900_25560.jpg",
  "country": {
    "1": "США"
  },
  "collection": [],
  "genre": {
    "26": "Ужасы",
    "11": "Фантастика",
    "13": "Триллер"
  },
  "director": [
    "Петер Энгерт"
  ],
  "screenwriter": [
    "Кристиан МакДональд"
  ],
  "producer": [
    "Захари Ривз",
    "Джеймс Брюс IV",
    "Том Конильяро"
  ],
  "operator": [
    "Скотт Виниг"
  ],
  "composer": [
    "Остин Уинтори"
  ],
  "design": [
    "Питер Кордова",
    "Джеймс Д. МакДональд"
  ],
  "editor": [
    "Нэйтан Безнер",
    "Никки Виниг"
  ],
  "actors": [
    "С.Дж. Томасон",
    "Моника Кина",
    "Эдвард Ферлонг",
    "Андре Ройо",
    "Кри Келли",
    "Джесси Русу",
    "Росс Бритс",
    "Тоди Бернард",
    "Кеннон Кеппер",
    "Уильям Болдуин"
  ],
  "actors_dubl": [],
  "trivia": [],
  "trailers": [],
  "seasons": [],
  "voiceActing": [
    "Хихикающий доктор"
  ],
  "subtitle": [],
  "parts": []
}
