{
  "id": 25696,
  "name": "Мадемуазель Си",
  "name_eng": "Mademoiselle C",
  "year": 2013,
  "slogan": "—",
  "age": "12+",
  "type": "film",
  "quality": "HD (720p)",
  "imdb": "5.7",
  "imdb_id": "2506388",
  "kinopoisk": "6.0",
  "kinopoisk_id": "789947",
  "world_art": null,
  "world_art_id": null,
  "time": "93 мин. / 01:33",
  "ads": false,
  "premier": "2013-09-11",
  "premier_rus": "2013-09-12",
  "availability": "2013-09-13",
  "activate_time": "2020-06-26 19:23:00",
  "budget": null,
  "fees_use": "$48 668",
  "fees_world": "+ $27 953 = $76 621",
  "fees_rus": null,
  "rate_mpaa": "R",
  "description": "История об одной из самых влиятельных фигур мира моды – бывшем главном редакторе парижского журнала Vogue Карин Ройтфельд, пробывшей на этом посту десять успешных и скандальных лет. Калейдоскоп сюжетов из реальной жизни глянцевого закулисья с fashion-бэкстейджа и комментариев модных персон.",
  "iframe_url": "",
  "iframe_poster": null,
  "poster": "https://img.imgilall.me/movies/franchise/2/5/6/9/6/0/0/0/0/0/610x900_25696.jpg",
  "country": {
    "9": "Франция"
  },
  "collection": [],
  "genre": {
    "54": "Документальный"
  },
  "director": [
    "Фабьен Констант"
  ],
  "screenwriter": [],
  "producer": [
    "Фабьен Констант",
    "Эрик Ханнецо",
    "Гийом Лакруа"
  ],
  "operator": [
    "Мэтт Элкинд",
    "Рафаэль Ласки"
  ],
  "composer": [
    "The Shoes"
  ],
  "design": [],
  "editor": [
    "Stephanie Drean"
  ],
  "actors": [
    "Карин Ройтфельд",
    "Анна Винтур",
    "Марион Котийяр",
    "Джеймс Франко",
    "Кирстен Данст",
    "Линда Евангелиста",
    "Лив Тайлер",
    "Жан-Поль Готье",
    "Хайди Клум",
    "Бейонсе"
  ],
  "actors_dubl": [],
  "trivia": [],
  "trailers": [],
  "seasons": [],
  "voiceActing": [
    "Diva Universal"
  ],
  "subtitle": [],
  "parts": []
}
