{
  "id": 25704,
  "name": "Проказники",
  "name_eng": "Paavada",
  "year": 2016,
  "slogan": "—",
  "age": "16+",
  "type": "film",
  "quality": "HD (720p)",
  "imdb": "6.2",
  "imdb_id": "5068280",
  "kinopoisk": null,
  "kinopoisk_id": "958386",
  "world_art": null,
  "world_art_id": null,
  "time": "147 мин. / 02:27",
  "ads": false,
  "premier": "2016-01-15",
  "premier_rus": "2016-01-16",
  "availability": "2016-01-17",
  "activate_time": "2020-07-08 08:42:00",
  "budget": null,
  "fees_use": null,
  "fees_world": null,
  "fees_rus": null,
  "rate_mpaa": null,
  "description": "Джой и Бабу знакомятся в наркологическом центре, где их лечат от алкоголизма. Через несколько дней они сбегают из клиники и становятся закадычными друзьями. Но вскоре обнаруживается, что они связаны друг с другом гораздо теснее, чем можно было предполагать. Джой находит в доме Бабу коробку с кинопленкой фильма, который некогда разрушил жизнь их обоих...",
  "iframe_url": "",
  "iframe_poster": null,
  "poster": "https://img.imgilall.me/movies/franchise/2/5/7/0/4/0/0/0/0/0/610x900_25704.jpg",
  "country": {
    "26": "Индия"
  },
  "collection": [],
  "genre": {
    "19": "Комедия",
    "7": "Драма"
  },
  "director": [
    "G. Marthandan"
  ],
  "screenwriter": [
    "Бипин Чандран",
    "Shibin Francis"
  ],
  "producer": [
    "Манияпилла Раджу"
  ],
  "operator": [
    "Прадип Нэйр"
  ],
  "composer": [
    "Aby Tom Cyriac",
    "Гопи Сундар"
  ],
  "design": [
    "Sameera Saneesh"
  ],
  "editor": [
    "John Kutty"
  ],
  "actors": [
    "Притхвирадж Сукумаран",
    "Ануп",
    "Миа Джордж",
    "Аша Шаратх",
    "Калабхаван Шаджон",
    "Binu Adimali",
    "Мурали Гопи",
    "Калабхаван Ханиф",
    "Джаякришнан",
    "Чимбан Винод Джозе"
  ],
  "actors_dubl": [],
  "trivia": [],
  "trailers": [],
  "seasons": [],
  "voiceActing": [
    "Diva Universal"
  ],
  "subtitle": [],
  "parts": []
}
