{
  "id": 25765,
  "name": "Демоны 2",
  "name_eng": "Dèmoni 2... l'incubo ritorna",
  "year": 1986,
  "slogan": "«The Ultimate Horror Exerience!»",
  "age": "16+",
  "type": "film",
  "quality": "HD (720p)",
  "imdb": "6.0",
  "imdb_id": "0090930",
  "kinopoisk": "6.8",
  "kinopoisk_id": "35741",
  "world_art": null,
  "world_art_id": null,
  "time": "91 мин. / 01:31",
  "ads": false,
  "premier": "1986-10-09",
  "premier_rus": "1986-10-10",
  "availability": "1986-10-11",
  "activate_time": "2020-07-08 03:45:00",
  "budget": "$1 500 000",
  "fees_use": null,
  "fees_world": null,
  "fees_rus": null,
  "rate_mpaa": "R",
  "description": "У девушки по имени Салли сегодня вечеринка - друзья, музыка, выпивка. Но вот в самый разгар веселья, кто-то включает телевизор, по которому идет передача о демонах. Дальше происходит невероятное - демон из фильма проникает в дом Салли через экран телевизора.",
  "iframe_url": "",
  "iframe_poster": null,
  "poster": "https://img.imgilall.me/movies/franchise/2/5/7/6/5/0/0/0/0/0/610x900_25765.jpg",
  "country": {
    "8": "Италия"
  },
  "collection": [],
  "genre": {
    "26": "Ужасы"
  },
  "director": [
    "Ламберто Бава"
  ],
  "screenwriter": [
    "Дарио Ардженто",
    "Ламберто Бава",
    "Франко Феррини"
  ],
  "producer": [
    "Дарио Ардженто",
    "Фердинандо Капуто"
  ],
  "operator": [
    "Джанлоренцо Батталья"
  ],
  "composer": [
    "Саймон Босуэлл"
  ],
  "design": [
    "Давиде Бассан",
    "Никола Труссарди"
  ],
  "editor": [
    "Пьеро Боцца",
    "Франко Фратичелли"
  ],
  "actors": [
    "Дэвид Эдвин Найт",
    "Нэнси Брилли",
    "Коралина Катальди-Тассони",
    "Бобби Родс",
    "Азия Ардженто",
    "Вирджиния Брайант",
    "Анита Бартолуччи",
    "Антонио Кантафора",
    "Луиза Пассега",
    "Давиде Маротта"
  ],
  "actors_dubl": [],
  "trivia": [
    "В этом фильме дебютировала самая младшая дочь Ардженто — десятилетняя Азия Ардженто."
  ],
  "trailers": [],
  "seasons": [],
  "voiceActing": [
    "Diva Universal"
  ],
  "subtitle": [],
  "parts": []
}
