{
  "id": 25785,
  "name": "Пять ночей в Мэне",
  "name_eng": "Five Nights in Maine",
  "year": 2015,
  "slogan": "—",
  "age": null,
  "type": "film",
  "quality": "HD (720p)",
  "imdb": "4.7",
  "imdb_id": "3352034",
  "kinopoisk": null,
  "kinopoisk_id": "812028",
  "world_art": null,
  "world_art_id": null,
  "time": "82 мин. / 01:22",
  "ads": false,
  "premier": "2015-09-13",
  "premier_rus": "2015-09-14",
  "availability": "2015-09-15",
  "activate_time": "2020-07-18 11:50:00",
  "budget": null,
  "fees_use": "$15 587",
  "fees_world": null,
  "fees_rus": null,
  "rate_mpaa": null,
  "description": "После гибели жены в трагической автокатастрофе Шервина приглашает в Мэн его смертельно больная тёща Люсинда. Пытаясь преодолеть старые разногласия, Люсинде и Шервину приходится справляться с собственными неудачами и горем на пути сострадания, сочувствия и исцеления.",
  "iframe_url": "",
  "iframe_poster": null,
  "poster": "https://img.imgilall.me/movies/franchise/2/5/7/8/5/0/0/0/0/0/610x900_25785.jpg",
  "country": {
    "1": "США"
  },
  "collection": [],
  "genre": {
    "7": "Драма"
  },
  "director": [
    "Марис Каррен"
  ],
  "screenwriter": [
    "Марис Каррен"
  ],
  "producer": [
    "Марис Каррен",
    "Карли Хьюго",
    "Дэвид Ойелоуо"
  ],
  "operator": [
    "Софиан Эль Фани"
  ],
  "composer": [],
  "design": [
    "Сара К. Уайт",
    "Сэлли Леви",
    "Майли Лафайетт"
  ],
  "editor": [
    "Жунь Дулинь"
  ],
  "actors": [
    "Дэвид Ойелоуо",
    "Хани Фюрстенберг",
    "Нил Лернер",
    "Тейона Паррис",
    "Youness Zakaria",
    "Рози Перес",
    "Дайэнн Уист",
    "Билл Рэймонд",
    "Бобби Морено",
    "Graham Hults"
  ],
  "actors_dubl": [],
  "trivia": [],
  "trailers": [],
  "seasons": [],
  "voiceActing": [
    "Рус. Люб. многоголосый"
  ],
  "subtitle": [],
  "parts": []
}
