{
  "id": 26050,
  "name": "Гость",
  "name_eng": "",
  "year": 2013,
  "slogan": "—",
  "age": "16+",
  "type": "film",
  "quality": "HD (720p)",
  "imdb": null,
  "imdb_id": "2819250",
  "kinopoisk": "6.1",
  "kinopoisk_id": "731986",
  "world_art": null,
  "world_art_id": null,
  "time": "90 мин. / 01:30",
  "ads": false,
  "premier": null,
  "premier_rus": "2013-02-17",
  "availability": "2013-02-18",
  "activate_time": "2020-07-18 13:38:00",
  "budget": "р. 5 000 000",
  "fees_use": null,
  "fees_world": null,
  "fees_rus": null,
  "rate_mpaa": null,
  "description": "Сбежавшему из следственного изолятора рецидивисту Кольцову судьба неожиданно подбрасывает шанс. Случайный водитель, подвозивший Кольцова до вокзала, гибнет в перестрелке с полицией, спровоцированной опасным попутчиком. Перед этим водитель рассказывает ему о своей дочери Вере, которую он не видел с рождения и собирался навестить после двадцатипятилетней разлуки и смерти ее матери.",
  "iframe_url": "",
  "iframe_poster": null,
  "poster": "https://img.imgilall.me/movies/franchise/2/6/0/5/0/0/0/0/0/0/610x900_26050.jpg",
  "country": {
    "5": "Россия"
  },
  "collection": [],
  "genre": {
    "25": "Криминал",
    "13": "Триллер",
    "7": "Драма"
  },
  "director": [
    "Игорь Копылов"
  ],
  "screenwriter": [
    "Игорь Копылов",
    "Анна Лекарева"
  ],
  "producer": [
    "Инесса Юрченко",
    "Сергей Щеглов",
    "Игорь Копылов"
  ],
  "operator": [
    "Димитрий Масс"
  ],
  "composer": [],
  "design": [
    "Ольга Вуеретельник"
  ],
  "editor": [],
  "actors": [
    "Александр Аравушкин",
    "Александра Мареева",
    "Илья Носков",
    "Роман Агеев",
    "Станислав Казаку",
    "Наталья Высочанская",
    "Олег Малышев",
    "Алла Вербицкая",
    "Сергей Сафронов",
    "Владимир Богданов"
  ],
  "actors_dubl": [],
  "trivia": [],
  "trailers": [],
  "seasons": [],
  "voiceActing": [
    "Original"
  ],
  "subtitle": [],
  "parts": []
}
