{
  "id": 26243,
  "name": "Вверх ногами",
  "name_eng": "Down Under",
  "year": 2016,
  "slogan": "«The first comedy to be set during a race riot»",
  "age": null,
  "type": "film",
  "quality": "HD (720p)",
  "imdb": "5.8",
  "imdb_id": "4463120",
  "kinopoisk": null,
  "kinopoisk_id": "897409",
  "world_art": null,
  "world_art_id": null,
  "time": "90 мин. / 01:30",
  "ads": false,
  "premier": "2016-06-15",
  "premier_rus": "2016-06-16",
  "availability": "2016-06-17",
  "activate_time": "2020-07-18 07:07:00",
  "budget": "A$ 2 000 000",
  "fees_use": null,
  "fees_world": null,
  "fees_rus": null,
  "rate_mpaa": null,
  "description": "Действие разворачивается вскоре после беспорядков на австралийском Корнулла Бич. Зритель знакомится с двумя группами отчаянных парней, которые находятся по разные стороны баррикад и которым рано или поздно суждено столкнуться лицом к лицу.",
  "iframe_url": "",
  "iframe_poster": null,
  "poster": "https://img.imgilall.me/movies/franchise/2/6/2/4/3/0/0/0/0/0/610x900_26243.jpg",
  "country": {
    "4": "Австралия"
  },
  "collection": [],
  "genre": {
    "25": "Криминал",
    "19": "Комедия",
    "7": "Драма"
  },
  "director": [
    "Эйб Форсайт"
  ],
  "screenwriter": [
    "Эйб Форсайт"
  ],
  "producer": [
    "Джоди Маттерсон",
    "Барбара Гиббс",
    "Грег МакЛин"
  ],
  "operator": [
    "Лачлан Милн"
  ],
  "composer": [
    "Пьерс Бёрбрук де Вир"
  ],
  "design": [
    "Николас ДаРе",
    "Билл Гудс",
    "Леон Кразенштайн"
  ],
  "editor": [
    "Дрю Томпсон"
  ],
  "actors": [
    "Линкольн Юн",
    "Рахель Абдулрахман",
    "Майкл Денкха",
    "Файсаль Баззи",
    "Александр Инглэнд",
    "Дэймон Херриман",
    "Джастин Росниак",
    "Крис Бантон",
    "Харриет Дайер",
    "Дэвид Филд"
  ],
  "actors_dubl": [],
  "trivia": [],
  "trailers": [],
  "seasons": [],
  "voiceActing": [
    "Рус. Люб. многоголосый"
  ],
  "subtitle": [],
  "parts": []
}
