{
  "id": 26253,
  "name": "Dом Zомби",
  "name_eng": "Wicked Little Things",
  "year": 2006,
  "slogan": "«Этот лес хранит страшную тайну...»",
  "age": "18+",
  "type": "film",
  "quality": "HD (720p)",
  "imdb": "5.1",
  "imdb_id": "0470000",
  "kinopoisk": "5.0",
  "kinopoisk_id": "195350",
  "world_art": null,
  "world_art_id": null,
  "time": "94 мин. / 01:34",
  "ads": false,
  "premier": "2006-11-17",
  "premier_rus": "2006-11-18",
  "availability": "2006-11-19",
  "activate_time": "2020-07-08 04:26:00",
  "budget": null,
  "fees_use": null,
  "fees_world": null,
  "fees_rus": null,
  "rate_mpaa": "R",
  "description": "Карен и ее дочерям Саре и Эмме досталось в наследство небольшое поместье в окрестностях маленького шахтерского городка в Пенсильвании. Дом оказался просторным и милым, но Карен и девочек не оставляет чувство необъяснимой тревоги. В первую же ночь Карен просыпается в холодном поту: ей приснились умершие дети, будто бы не из нашего времени... В подвале дома женщина находит старые газетные вырезки и фотографии. 1913 год. Произошла страшная трагедия; сто лет назад здесь была шахта, на которой работали дети. Однажды прогремел взрыв, и шахта обвалилась, заживо похоронив маленьких рабочих... Карен понимает, что в своих кошмарах она видит их лица... Но чего хотят несчастные дети? В это время маленькая Эмма, увидев за деревьями странную тень, следует за ней, уходя все дальше в прекрасный и таинственный лес... Карен узнает, что дочка нашла себе новую подружку Мэри. И она - зомби!..",
  "iframe_url": "",
  "iframe_poster": null,
  "poster": "https://img.imgilall.me/movies/franchise/2/6/2/5/3/0/0/0/0/0/610x900_26253.jpg",
  "country": {
    "1": "США"
  },
  "collection": [],
  "genre": {
    "26": "Ужасы",
    "6": "Фэнтези",
    "7": "Драма"
  },
  "director": [
    "Дж.С. Кардоне"
  ],
  "screenwriter": [
    "Бен Недиви",
    "Боаз Дэвидсон"
  ],
  "producer": [
    "Дж.С. Кардоне",
    "Боаз Дэвидсон",
    "Дэнни Димборт"
  ],
  "operator": [
    "Эмиль Топузов"
  ],
  "composer": [
    "Тим Джонс"
  ],
  "design": [
    "Карлос Силва Да Силва",
    "Соня Савова",
    "Джанина Байкучева"
  ],
  "editor": [
    "Ален Якубович"
  ],
  "actors": [
    "Лори Хёринг",
    "Скаут Тэйлор-Комптон",
    "Хлоя Грейс Морец",
    "Джеффри Льюис",
    "Бен Кросс",
    "Крэйг Вай",
    "Крис Джамба",
    "Джули Роджерс",
    "Мартин МакДугалл",
    "Майкл МакКой"
  ],
  "actors_dubl": [],
  "trivia": [
    "Фильм снимался в Болгарии, в Витоше и на киностудии «Boyana Film» в Софии.",
    "Съемочные дни 28 октября — 6 декабря 2005 года.",
    "Первоначально режиссером фильма хотели пригласить Тоба Хупера."
  ],
  "trailers": [],
  "seasons": [],
  "voiceActing": [
    "Diva Universal"
  ],
  "subtitle": [],
  "parts": []
}
