{
  "id": 2628,
  "name": "Оставленные / Остатки",
  "name_eng": "The Leftovers",
  "year": 2014,
  "slogan": "«Grace period is over»",
  "age": "18+",
  "type": "series",
  "quality": "FHD (1080p)",
  "imdb": "8.3",
  "imdb_id": "2699128",
  "kinopoisk": "7.8",
  "kinopoisk_id": "737589",
  "world_art": null,
  "world_art_id": null,
  "time": "60 мин.",
  "ads": false,
  "premier": "2014-06-29",
  "premier_rus": "2014-06-30",
  "availability": null,
  "serial_status": "offline",
  "activate_time": "2018-09-28 12:40:14",
  "budget": null,
  "fees_use": null,
  "fees_world": null,
  "fees_rus": null,
  "rate_mpaa": null,
  "description": "Действие разворачивается вокруг группы оставшихся людей в пригородной общине городка Мейплтон. Они должны начать заново строить свои жизни после внезапного и загадочного исчезновения более ста миллионов человек.",
  "iframe_url": "",
  "poster": "https://img.imgilall.me/movies/franchise/2/6/2/8/0/0/0/0/0/0/610x900_2628.jpg",
  "country": {
    "1": "США"
  },
  "collection": {
    "33": "Экранизация книг",
    "97": "HBO"
  },
  "genre": {
    "6": "Фэнтези",
    "24": "Детектив",
    "10": "Зарубежный",
    "7": "Драма"
  },
  "director": [
    "Мими Ледер",
    "Карл Франклин",
    "Кит Гордон"
  ],
  "screenwriter": [
    "Дэймон Линделоф",
    "Том Перротта",
    "Ник Кьюз"
  ],
  "producer": [
    "Сара Обри",
    "Питер Берг",
    "Альберт Бергер"
  ],
  "operator": [
    "Тодд МакМаллен",
    "Майкл Грэйди",
    "Джон Грилло"
  ],
  "composer": [
    "Макс Рихтер"
  ],
  "design": [
    "Джон Пэйно",
    "Дайан Ледерман",
    "Кристи Зиа"
  ],
  "editor": [
    "Дэвид Эйзенберг",
    "Хенк Ван Эген",
    "Майкл Руссо"
  ],
  "actors": [
    "Джастин Теру",
    "Эми Бреннеман",
    "Кристофер Экклстон",
    "Лив Тайлер",
    "Крис Зилка",
    "Маргарет Куэлли",
    "Кэрри Кун",
    "Эмили Мид",
    "Аманда Уоррен",
    "Энн Дауд"
  ],
  "actors_dubl": [],
  "trivia": [
    "Сериал снят по мотивам романа Тома Перротты \"Оставленные\" (The Leftovers, 2011)."
  ],
  "trailers": [],
  "seasons": [
    {
      "poster": "https://img.imgilall.me/movies/season/1/5/0/2/0/0/0/0/0/0/610x900_1502.jpg",
      "release_ru": "2014-06-30",
      "release_world": "2014-06-29",
      "availability": "2014-07-01",
      "iframe_url": "",
      "season": 1,
      "episodes": [
        {
          "episode": 1,
          "name": "Pilot",
          "iframe_url": "",
          "iframe_poster": null,
          "release_ru": "2014-06-30",
          "release_world": "2014-06-29",
          "availability": "2014-07-01",
          "voiceActing": [
            "NewStudio",
            "SDI Media",
            "Baibako",
            "Eng.Original"
          ],
          "ads": false,
          "subtitle": [
            "Рус. полные"
          ]
        },
        {
          "episode": 2,
          "name": "Penguin One, Us Zero",
          "iframe_url": "",
          "iframe_poster": null,
          "release_ru": "2014-07-07",
          "release_world": "2014-07-06",
          "availability": "2014-07-08",
          "voiceActing": [
            "NewStudio",
            "SDI Media",
            "Baibako",
            "Eng.Original"
          ],
          "ads": false,
          "subtitle": [
            "Рус. полные"
          ]
        },
        {
          "episode": 3,
          "name": "Two Boats and a Helicopter",
          "iframe_url": "",
          "iframe_poster": null,
          "release_ru": "2014-07-14",
          "release_world": "2014-07-13",
          "availability": "2014-07-15",
          "voiceActing": [
            "NewStudio",
            "SDI Media",
            "Baibako",
            "Eng.Original"
          ],
          "ads": false,
          "subtitle": [
            "Рус. полные"
          ]
        },
        {
          "episode": 4,
          "name": "B.J. and the A.C.",
          "iframe_url": "",
          "iframe_poster": null,
          "release_ru": "2014-07-21",
          "release_world": "2014-07-20",
          "availability": "2014-07-22",
          "voiceActing": [
            "NewStudio",
            "SDI Media",
            "Baibako",
            "Eng.Original"
          ],
          "ads": false,
          "subtitle": [
            "Рус. полные"
          ]
        },
        {
          "episode": 5,
          "name": "Gladys",
          "iframe_url": "",
          "iframe_poster": null,
          "release_ru": "2014-07-28",
          "release_world": "2014-07-27",
          "availability": "2014-07-29",
          "voiceActing": [
            "NewStudio",
            "SDI Media",
            "Baibako",
            "Eng.Original"
          ],
          "ads": false,
          "subtitle": [
            "Рус. полные"
          ]
        },
        {
          "episode": 6,
          "name": "Guest",
          "iframe_url": "",
          "iframe_poster": null,
          "release_ru": "2014-08-04",
          "release_world": "2014-08-03",
          "availability": "2014-08-05",
          "voiceActing": [
            "NewStudio",
            "SDI Media",
            "Baibako",
            "Eng.Original"
          ],
          "ads": false,
          "subtitle": [
            "Рус. полные"
          ]
        },
        {
          "episode": 7,
          "name": "Solace for Tired Feet",
          "iframe_url": "",
          "iframe_poster": null,
          "release_ru": "2014-08-11",
          "release_world": "2014-08-10",
          "availability": "2014-08-12",
          "voiceActing": [
            "NewStudio",
            "SDI Media",
            "Baibako",
            "Eng.Original"
          ],
          "ads": false,
          "subtitle": [
            "Рус. полные"
          ]
        },
        {
          "episode": 8,
          "name": "Cairo",
          "iframe_url": "",
          "iframe_poster": null,
          "release_ru": "2014-08-18",
          "release_world": "2014-08-17",
          "availability": "2014-08-19",
          "voiceActing": [
            "NewStudio",
            "SDI Media",
            "Baibako",
            "Eng.Original"
          ],
          "ads": false,
          "subtitle": [
            "Рус. полные"
          ]
        },
        {
          "episode": 9,
          "name": "The Garveys at Their Best",
          "iframe_url": "",
          "iframe_poster": null,
          "release_ru": "2014-08-25",
          "release_world": "2014-08-24",
          "availability": "2014-08-26",
          "voiceActing": [
            "NewStudio",
            "SDI Media",
            "Baibako",
            "Eng.Original"
          ],
          "ads": false,
          "subtitle": [
            "Рус. полные"
          ]
        },
        {
          "episode": 10,
          "name": "The Prodigal Son Returns",
          "iframe_url": "",
          "iframe_poster": null,
          "release_ru": "2014-09-08",
          "release_world": "2014-09-07",
          "availability": "2014-09-09",
          "voiceActing": [
            "NewStudio",
            "SDI Media",
            "Baibako",
            "Eng.Original"
          ],
          "ads": false,
          "subtitle": [
            "Рус. полные"
          ]
        }
      ]
    },
    {
      "poster": "https://img.imgilall.me/movies/season/1/4/4/8/0/0/0/0/0/0/610x900_1448.jpg",
      "release_ru": "2015-10-05",
      "release_world": "2015-10-04",
      "availability": "2015-10-06",
      "iframe_url": "",
      "season": 2,
      "episodes": [
        {
          "episode": 1,
          "name": "Axis Mundi",
          "iframe_url": "",
          "iframe_poster": null,
          "release_ru": "2015-10-05",
          "release_world": "2015-10-04",
          "availability": "2015-10-06",
          "voiceActing": [
            "Amedia",
            "Eng.Original"
          ],
          "ads": false,
          "subtitle": [
            "Рус. полные"
          ]
        },
        {
          "episode": 2,
          "name": "A Matter of Geography",
          "iframe_url": "",
          "iframe_poster": null,
          "release_ru": "2015-10-12",
          "release_world": "2015-10-11",
          "availability": "2015-10-13",
          "voiceActing": [
            "Amedia",
            "Eng.Original"
          ],
          "ads": false,
          "subtitle": [
            "Рус. полные"
          ]
        },
        {
          "episode": 3,
          "name": "Off Ramp",
          "iframe_url": "",
          "iframe_poster": null,
          "release_ru": "2015-10-19",
          "release_world": "2015-10-18",
          "availability": "2015-10-20",
          "voiceActing": [
            "Amedia",
            "Eng.Original"
          ],
          "ads": false,
          "subtitle": [
            "Рус. полные"
          ]
        },
        {
          "episode": 4,
          "name": "Orange Sticker",
          "iframe_url": "",
          "iframe_poster": null,
          "release_ru": "2015-10-26",
          "release_world": "2015-10-25",
          "availability": "2015-10-27",
          "voiceActing": [
            "Amedia",
            "Eng.Original"
          ],
          "ads": false,
          "subtitle": [
            "Рус. полные"
          ]
        },
        {
          "episode": 5,
          "name": "No Room at the Inn",
          "iframe_url": "",
          "iframe_poster": null,
          "release_ru": "2015-11-02",
          "release_world": "2015-11-01",
          "availability": "2015-11-03",
          "voiceActing": [
            "Amedia",
            "Eng.Original"
          ],
          "ads": false,
          "subtitle": [
            "Рус. полные"
          ]
        },
        {
          "episode": 6,
          "name": "Lens",
          "iframe_url": "",
          "iframe_poster": null,
          "release_ru": "2015-11-09",
          "release_world": "2015-11-08",
          "availability": "2015-11-10",
          "voiceActing": [
            "Amedia",
            "Eng.Original"
          ],
          "ads": false,
          "subtitle": [
            "Рус. полные"
          ]
        },
        {
          "episode": 7,
          "name": "A Most Powerful Adversary",
          "iframe_url": "",
          "iframe_poster": null,
          "release_ru": "2015-11-16",
          "release_world": "2015-11-15",
          "availability": "2015-11-17",
          "voiceActing": [
            "Amedia",
            "Eng.Original"
          ],
          "ads": false,
          "subtitle": [
            "Рус. полные"
          ]
        },
        {
          "episode": 8,
          "name": "International Assassin",
          "iframe_url": "",
          "iframe_poster": null,
          "release_ru": "2015-11-23",
          "release_world": "2015-11-22",
          "availability": "2015-11-24",
          "voiceActing": [
            "Amedia",
            "Eng.Original"
          ],
          "ads": false,
          "subtitle": [
            "Рус. полные"
          ]
        },
        {
          "episode": 9,
          "name": "Ten Thirteen",
          "iframe_url": "",
          "iframe_poster": null,
          "release_ru": "2015-11-30",
          "release_world": "2015-11-29",
          "availability": "2015-12-01",
          "voiceActing": [
            "Amedia",
            "Eng.Original"
          ],
          "ads": false,
          "subtitle": [
            "Рус. полные"
          ]
        },
        {
          "episode": 10,
          "name": "I Live Here Now",
          "iframe_url": "",
          "iframe_poster": null,
          "release_ru": "2015-12-07",
          "release_world": "2015-12-06",
          "availability": "2015-12-08",
          "voiceActing": [
            "Amedia",
            "Eng.Original"
          ],
          "ads": false,
          "subtitle": [
            "Рус. полные"
          ]
        }
      ]
    },
    {
      "poster": "https://img.imgilall.me/movies/season/1/4/4/9/0/0/0/0/0/0/610x900_1449.jpg",
      "release_ru": "2017-04-17",
      "release_world": "2017-04-16",
      "availability": "2017-04-18",
      "iframe_url": "",
      "season": 3,
      "episodes": [
        {
          "episode": 1,
          "name": "The Book of Kevin",
          "iframe_url": "",
          "iframe_poster": null,
          "release_ru": "2017-04-17",
          "release_world": "2017-04-16",
          "availability": "2017-04-18",
          "voiceActing": [
            "Amedia",
            "Eng.Original"
          ],
          "ads": false,
          "subtitle": [
            "Рус. полные"
          ]
        },
        {
          "episode": 2,
          "name": "Don't Be Ridiculous",
          "iframe_url": "",
          "iframe_poster": null,
          "release_ru": "2017-04-24",
          "release_world": "2017-04-23",
          "availability": "2017-04-25",
          "voiceActing": [
            "Amedia",
            "Eng.Original"
          ],
          "ads": false,
          "subtitle": [
            "Рус. полные"
          ]
        },
        {
          "episode": 3,
          "name": "Crazy Whitefella Thinking",
          "iframe_url": "",
          "iframe_poster": null,
          "release_ru": "2017-05-01",
          "release_world": "2017-04-30",
          "availability": "2017-05-02",
          "voiceActing": [
            "Amedia",
            "Eng.Original"
          ],
          "ads": false,
          "subtitle": [
            "Рус. полные"
          ]
        },
        {
          "episode": 4,
          "name": "G'Day Melbourne",
          "iframe_url": "",
          "iframe_poster": null,
          "release_ru": "2017-05-08",
          "release_world": "2017-05-07",
          "availability": "2017-05-09",
          "voiceActing": [
            "Amedia",
            "Eng.Original"
          ],
          "ads": false,
          "subtitle": [
            "Рус. полные"
          ]
        },
        {
          "episode": 5,
          "name": "It's a Matt, Matt, Matt, Matt World",
          "iframe_url": "",
          "iframe_poster": null,
          "release_ru": "2017-05-15",
          "release_world": "2017-05-14",
          "availability": "2017-05-16",
          "voiceActing": [
            "Amedia",
            "Eng.Original"
          ],
          "ads": false,
          "subtitle": [
            "Рус. полные"
          ]
        },
        {
          "episode": 6,
          "name": "Certified",
          "iframe_url": "",
          "iframe_poster": null,
          "release_ru": "2017-05-22",
          "release_world": "2017-05-21",
          "availability": "2017-05-23",
          "voiceActing": [
            "Amedia",
            "Eng.Original"
          ],
          "ads": false,
          "subtitle": [
            "Рус. полные"
          ]
        },
        {
          "episode": 7,
          "name": "The Most Powerful Man in the World (and His Identical Twin Brother)",
          "iframe_url": "",
          "iframe_poster": null,
          "release_ru": "2017-05-29",
          "release_world": "2017-05-28",
          "availability": "2017-05-30",
          "voiceActing": [
            "Amedia",
            "Eng.Original"
          ],
          "ads": false,
          "subtitle": [
            "Рус. полные"
          ]
        },
        {
          "episode": 8,
          "name": "The Book of Nora",
          "iframe_url": "",
          "iframe_poster": null,
          "release_ru": "2017-06-05",
          "release_world": "2017-06-04",
          "availability": "2017-06-06",
          "voiceActing": [
            "Amedia",
            "Eng.Original"
          ],
          "ads": false,
          "subtitle": [
            "Рус. полные"
          ]
        }
      ]
    }
  ],
  "voiceActing": [
    "NewStudio",
    "SDI Media",
    "Baibako",
    "Eng.Original",
    "Amedia"
  ],
  "subtitle": [
    "Рус. полные"
  ],
  "parts": []
}
