{
  "id": 26364,
  "name": "Любовь или секс",
  "name_eng": "The Bounceback",
  "year": 2013,
  "slogan": "—",
  "age": "16+",
  "type": "film",
  "quality": "HD (720p)",
  "imdb": "5.2",
  "imdb_id": "2388759",
  "kinopoisk": "5.0",
  "kinopoisk_id": "680595",
  "world_art": null,
  "world_art_id": null,
  "time": "91 мин. / 01:31",
  "ads": false,
  "premier": "2013-03-09",
  "premier_rus": "2015-04-23",
  "availability": "2015-04-24",
  "activate_time": "2020-07-08 07:50:00",
  "budget": null,
  "fees_use": "$6 047",
  "fees_world": null,
  "fees_rus": "$1 417",
  "rate_mpaa": null,
  "description": "Когда отчаявшийся Стэн летит в Остин на выходные в надежде «случайно» встретить свою бывшую девушку Кэти. Приехав, он узнает, что его лучшие друзья, Джефф и Кара, находятся на грани расставания. Но все еще можно исправить...",
  "iframe_url": "",
  "iframe_poster": null,
  "poster": "https://img.imgilall.me/movies/franchise/2/6/3/6/4/0/0/0/0/0/610x900_26364.jpg",
  "country": {
    "1": "США"
  },
  "collection": [],
  "genre": {
    "19": "Комедия",
    "8": "Мелодрама"
  },
  "director": [
    "Брайан Пойсер"
  ],
  "screenwriter": [
    "Брайан Пойсер",
    "Дэвид ДеГроу Шотуэлл",
    "Стивен Уолтерс"
  ],
  "producer": [
    "Меган Гилбрайд",
    "Трейс Шиэн",
    "Росс М. Динерштейн"
  ],
  "operator": [
    "П.Дж. Раваль"
  ],
  "composer": [],
  "design": [
    "Майкл Брикер",
    "Мэдисон Фиск",
    "Кэролайн Карлен"
  ],
  "editor": [
    "Дон Свэйнос"
  ],
  "actors": [
    "Эшли Белл",
    "Зак Креггер",
    "Сара Пэкстон",
    "Майкл Сталь-Дэвид",
    "Эддисон Тимлин",
    "Маршалл Оллман",
    "Джастин Арнольд",
    "Дебора Эбботт",
    "Саманта Баньон",
    "Гопал Бидари"
  ],
  "actors_dubl": [],
  "trivia": [],
  "trailers": [],
  "seasons": [],
  "voiceActing": [
    "Diva Universal"
  ],
  "subtitle": [],
  "parts": []
}
