{
  "id": 26382,
  "name": "Дилер 2",
  "name_eng": "Pusher II",
  "year": 2004,
  "slogan": "—",
  "age": "18+",
  "type": "film",
  "quality": "FHD (1080p)",
  "imdb": "7.4",
  "imdb_id": "0396184",
  "kinopoisk": "7.1",
  "kinopoisk_id": "81692",
  "world_art": null,
  "world_art_id": null,
  "time": "96 мин. / 01:36",
  "ads": false,
  "premier": "2004-12-25",
  "premier_rus": "2004-12-26",
  "availability": "2004-12-27",
  "activate_time": "2020-06-27 12:37:00",
  "budget": null,
  "fees_use": null,
  "fees_world": "$34 113",
  "fees_rus": null,
  "rate_mpaa": null,
  "description": "Освободившись после очередной отсидки, Тонни узнает, что у него есть ребенок. Он отчаянно пытается поправить свое положение и имидж неудачника. Он хочет завоевать уважение своего отца, самого злобного гангстера Копенгагена, которому он должен крупную сумму. Но как бы он ни старался, из-за его непроходимой тупости дела всё становится только хуже.",
  "iframe_url": "",
  "iframe_poster": null,
  "poster": "https://img.imgilall.me/movies/franchise/2/6/3/8/2/0/0/0/0/0/610x900_26382.jpg",
  "country": {
    "2": "Великобритания",
    "25": "Дания"
  },
  "collection": [],
  "genre": {
    "25": "Криминал",
    "17": "Боевик",
    "7": "Драма"
  },
  "director": [
    "Николас Виндинг Рефн"
  ],
  "screenwriter": [
    "Николас Виндинг Рефн"
  ],
  "producer": [
    "Хенрик Данструп",
    "Николас Виндинг Рефн",
    "Джонни Андерсен"
  ],
  "operator": [
    "Мортен Сёборг"
  ],
  "composer": [
    "Питер Питер"
  ],
  "design": [
    "Расмус Тьеллесен",
    "Яне Виттакер"
  ],
  "editor": [
    "Янус Биллесков Янсен",
    "Анне Эстеруд"
  ],
  "actors": [
    "Мадс Миккельсен",
    "Лейф Сильвестр",
    "Энн Серенсен",
    "Ойвинд Хаген-Траберг",
    "Курт Нилсен",
    "Карстен Шрёдер",
    "Мария Эрвольтер",
    "Дэн Доммер",
    "Свен Эрик Эскеланд Ларсен",
    "Жан Пьер Пёлев"
  ],
  "actors_dubl": [],
  "trivia": [
    "Как рассказывал впоследствии режиссёр Николас Виндинг Рефн, работавшая в тюрьме съёмочная группа была настолько небольшой, что заключенные не сразу поняли, что это съёмки, а не настоящая драка.",
    "Мадс Миккельсен и Златко Бурич — единственные из актёрского состава первого фильма, кто вернулся к исполнению своих ролей в этом продолжении.",
    "Лейф Сильвестр уже не снимался свыше 7 лет, но вернулся в профессию ради того, чтобы сыграть Герцога."
  ],
  "trailers": [],
  "seasons": [],
  "voiceActing": [
    "Рус. Дублированный"
  ],
  "subtitle": [],
  "parts": []
}
