{
  "id": 26392,
  "name": "Ультрамарины",
  "name_eng": "Ultramarines: A Warhammer 40,000 Movie",
  "year": 2010,
  "slogan": "«In the grim darkness of the far future there is only war»",
  "age": null,
  "type": "cartoon",
  "quality": "HD (720p)",
  "imdb": "5.6",
  "imdb_id": "1679332",
  "kinopoisk": "6.1",
  "kinopoisk_id": "532903",
  "world_art": null,
  "world_art_id": null,
  "time": "76 мин. / 01:16",
  "ads": false,
  "premier": "2010-11-29",
  "premier_rus": "2010-11-30",
  "availability": "2010-12-01",
  "activate_time": "2020-07-18 07:50:00",
  "budget": null,
  "fees_use": null,
  "fees_world": null,
  "fees_rus": null,
  "rate_mpaa": "R",
  "description": "Это 41-ое тысячелетие, дикое и мрачное темное будущее, время, в котором Человечество борется за выживание в галактике, расколотой кровопролитием и разрушением. Человечество находится на грани исчезновения, окружаемое со всех сторон ненавистными врагами — чужими, мутантами и предателями. И только колоссальное число Имперских Гвардейцев и несгибаемая сила Космических Десантников, генетически усовершенствованных элитных воинов, способно дать отпор пришельцам. Из всех древних и почетных орденов Космического Десанта, Ультрамарины — возможно, самый могущественный, уважаемый и бесстрашный. Чистые в помыслах и верности Императору, Ультрамарины считаются наиболее мобильными, строгими, дисциплинированными и бесстрашными воинами. Капитан Северус (Severus), почитаемый ветеран-воин с внушительной репутацией, получил безотлагательную просьбу о помощи с далекой планеты Митрон (Mithron). Ничем не примечательная, Митрон имеет только одну стратегически важную ценность — святыню, защищавшуюся множество раз бесчисленными поколениями Космических Десантников из ордена Имперских Кулаков. Какая напасть могла заставить их просить помощи?",
  "iframe_url": "",
  "iframe_poster": null,
  "poster": "https://img.imgilall.me/movies/franchise/2/6/3/9/2/0/0/0/0/0/610x900_26392.jpg",
  "country": {
    "2": "Великобритания"
  },
  "collection": [],
  "genre": {
    "11": "Фантастика",
    "17": "Боевик"
  },
  "director": [
    "Мартин Пик"
  ],
  "screenwriter": [
    "Дэн Абнетт"
  ],
  "producer": [
    "Дэвид Керни",
    "Боб Томпсон",
    "Майкл Картер"
  ],
  "operator": [
    "Darren Lovell"
  ],
  "composer": [
    "Адам Харви"
  ],
  "design": [],
  "editor": [
    "Дэвид Льюис Смит"
  ],
  "actors": [
    "Теренс Стэмп",
    "Джон Хёрт",
    "Шон Пертуи",
    "Стивен Вэддингтон",
    "Дональд Самптер",
    "Джонни Харрис",
    "Бен Бишоп",
    "Крис Финни",
    "Гари Мартин"
  ],
  "actors_dubl": [],
  "trivia": [],
  "trailers": [
    {
      "name": "трейлер №1",
      "number": 1,
      "iframe_poster": null,
      "season": null,
      "iframe_url": ""
    }
  ],
  "seasons": [],
  "voiceActing": [
    "Cartoon Network"
  ],
  "subtitle": [],
  "parts": []
}
