{
  "id": 26399,
  "name": "Монстры 2: Тёмный континент",
  "name_eng": "Monsters: Dark Continent",
  "year": 2014,
  "slogan": "«Fear has evolved»",
  "age": "16+",
  "type": "film",
  "quality": "HD (720p)",
  "imdb": "4.3",
  "imdb_id": "1935302",
  "kinopoisk": "4.6",
  "kinopoisk_id": "684469",
  "world_art": null,
  "world_art_id": null,
  "time": "119 мин. / 01:59",
  "ads": false,
  "premier": "2014-09-26",
  "premier_rus": "2014-09-27",
  "availability": "2014-09-28",
  "activate_time": "2020-07-08 03:42:00",
  "budget": null,
  "fees_use": null,
  "fees_world": null,
  "fees_rus": null,
  "rate_mpaa": "R",
  "description": "Прошло 10 лет после событий первой части, и «зараженные зоны» распространились по всему миру. Теперь человечество борется за выживание.",
  "iframe_url": "",
  "iframe_poster": null,
  "poster": "https://img.imgilall.me/movies/franchise/2/6/3/9/9/0/0/0/0/0/610x900_26399.jpg",
  "country": {
    "2": "Великобритания"
  },
  "collection": [],
  "genre": {
    "26": "Ужасы",
    "11": "Фантастика",
    "32": "Военный",
    "17": "Боевик",
    "13": "Триллер",
    "7": "Драма"
  },
  "director": [
    "Том Грин"
  ],
  "screenwriter": [
    "Джей Басу",
    "Том Грин",
    "Джесси Атлас"
  ],
  "producer": [
    "Рори Аиткен",
    "Тим Коул",
    "JT Diaz"
  ],
  "operator": [
    "Кристофер Росс"
  ],
  "composer": [
    "Нил Дэвидж"
  ],
  "design": [
    "Кристиан Милстед",
    "Марван Хейр",
    "Джои Острандер"
  ],
  "editor": [
    "Ричард Грэхэм"
  ],
  "actors": [
    "Джонни Харрис",
    "Сэм Кили",
    "Джозеф Демпси",
    "Кайл Соллер",
    "Николас Пиннок",
    "Паркер Сойерс",
    "Филип Ардитти",
    "София Бутелла",
    "Михаэла Коэл",
    "Hassan Sha'er"
  ],
  "actors_dubl": [],
  "trivia": [],
  "trailers": [],
  "seasons": [],
  "voiceActing": [
    "Diva Universal"
  ],
  "subtitle": [],
  "parts": []
}
