{
  "id": 26440,
  "name": "Танцуй ради шанса",
  "name_eng": "Chance Pe Dance",
  "year": 2010,
  "slogan": "—",
  "age": null,
  "type": "film",
  "quality": "HD (720p)",
  "imdb": "4.7",
  "imdb_id": "1392744",
  "kinopoisk": "8.0",
  "kinopoisk_id": "451983",
  "world_art": null,
  "world_art_id": null,
  "time": "121 мин. / 02:01",
  "ads": false,
  "premier": "2010-01-15",
  "premier_rus": "2010-01-16",
  "availability": "2010-01-17",
  "activate_time": "2020-06-27 08:46:00",
  "budget": null,
  "fees_use": "$168 643",
  "fees_world": "+ $24 271 = $192 914",
  "fees_rus": null,
  "rate_mpaa": null,
  "description": "Самоуверенный и энергичный Самир берётся за любую работу, чтобы удержаться на плаву. Но это всё ради его единственной мечты. Стать звездой! На этом пути у Самира много взлётов и падений, надежд и разочарований. Он борется с каждым препятствием на своём пути, потому что он знает, что путь к осуществлению своей самой большой мечты тернист и не лёгок...",
  "iframe_url": "",
  "iframe_poster": null,
  "poster": "https://img.imgilall.me/movies/franchise/2/6/4/4/0/0/0/0/0/0/610x900_26440.jpg",
  "country": {
    "26": "Индия"
  },
  "collection": [],
  "genre": {
    "38": "Мюзикл",
    "8": "Мелодрама"
  },
  "director": [
    "Кен Гхош"
  ],
  "screenwriter": [
    "Напур Астхана",
    "Кен Гхош",
    "Киран Котриал"
  ],
  "producer": [
    "Ронни Скривала",
    "Сидхарт Рой Капур",
    "Деван Кхоте"
  ],
  "operator": [
    "Хари Вендантам"
  ],
  "composer": [
    "Аднан Сами",
    "Сендип Широдкар"
  ],
  "design": [
    "Шашикант Кхамкар"
  ],
  "editor": [
    "Шаджу Чандран"
  ],
  "actors": [
    "Шахид Капур",
    "Дженелия Д’Суза",
    "Мохниш Бехл",
    "Сатиш Шах",
    "Парикшит Сахни",
    "Викас Бхалла",
    "Prince Rodde",
    "Куруш Дебу",
    "Бизз Канварпал",
    "Манну Риши"
  ],
  "actors_dubl": [],
  "trivia": [],
  "trailers": [],
  "seasons": [],
  "voiceActing": [
    "Cartoon Network"
  ],
  "subtitle": [],
  "parts": []
}
