{
  "id": 26457,
  "name": "Время приключений",
  "name_eng": "Le temps de l'aventure",
  "year": 2013,
  "slogan": "—",
  "age": "16+",
  "type": "film",
  "quality": "HD (720p)",
  "imdb": "6.4",
  "imdb_id": "2659190",
  "kinopoisk": "6.4",
  "kinopoisk_id": "733382",
  "world_art": null,
  "world_art_id": null,
  "time": "104 мин. / 01:44",
  "ads": false,
  "premier": "2013-04-10",
  "premier_rus": "2013-04-11",
  "availability": "2013-04-12",
  "activate_time": "2020-07-24 13:16:00",
  "budget": null,
  "fees_use": "$75 531",
  "fees_world": "+ $1 200 000 = $1 275 531",
  "fees_rus": null,
  "rate_mpaa": null,
  "description": "Во сколько же надо встать, чтобы успеть на поезд в 6.50 утра? Аликс – не самой молодой и не самой успешной актрисе – пришлось пойти на такой подвиг, несмотря на неминуемые мешки под красными от недосыпания глазами. Иначе никак не успеть из Кале, где она играет на сцене, в Париж, где её ждут на кинопробы.",
  "iframe_url": "",
  "iframe_poster": null,
  "poster": "https://img.imgilall.me/movies/franchise/2/6/4/5/7/0/0/0/0/0/610x900_26457.jpg",
  "country": {
    "9": "Франция",
    "21": "Ирландия",
    "29": "Бельгия"
  },
  "collection": [],
  "genre": {
    "8": "Мелодрама",
    "7": "Драма"
  },
  "director": [
    "Жером Боннел"
  ],
  "screenwriter": [
    "Жером Боннел"
  ],
  "producer": [
    "Эдуард Вейл",
    "Ален-Жиль Вьельвуа"
  ],
  "operator": [
    "Паскаль Лагрифул"
  ],
  "composer": [
    "Раф Кюнен"
  ],
  "design": [
    "Анна Башала",
    "Кэрол Жерар"
  ],
  "editor": [
    "Джули ДюПре"
  ],
  "actors": [
    "Эммануэль Дево",
    "Гэбриел Бирн",
    "Жиль Приват",
    "Орелия Пети",
    "Лорен Капеллуто",
    "Франсуаза Лебрун",
    "Дени Меноше",
    "Себастьен Пудеру",
    "Оливье Брош",
    "Эдди Киньяра"
  ],
  "actors_dubl": [],
  "trivia": [],
  "trailers": [],
  "seasons": [],
  "voiceActing": [
    "AB Video"
  ],
  "subtitle": [],
  "parts": []
}
