{
  "id": 26476,
  "name": "Джорнимен",
  "name_eng": "Journeyman",
  "year": 2017,
  "slogan": "«A snapshot into the life of a struggling boxer»",
  "age": null,
  "type": "film",
  "quality": "HD (720p)",
  "imdb": "7.1",
  "imdb_id": "5314118",
  "kinopoisk": "6.4",
  "kinopoisk_id": "957607",
  "world_art": null,
  "world_art_id": null,
  "time": "92 мин. / 01:32",
  "ads": false,
  "premier": "2017-10-12",
  "premier_rus": "2017-10-13",
  "availability": "2017-10-14",
  "activate_time": "2020-07-08 04:01:00",
  "budget": null,
  "fees_use": null,
  "fees_world": "$220 353",
  "fees_rus": null,
  "rate_mpaa": null,
  "description": null,
  "iframe_url": "",
  "iframe_poster": null,
  "poster": "https://img.imgilall.me/movies/franchise/2/6/4/7/6/0/0/0/0/0/610x900_26476.jpg",
  "country": {
    "2": "Великобритания"
  },
  "collection": [],
  "genre": {
    "23": "Спортивный",
    "7": "Драма"
  },
  "director": [
    "Пэдди Консидайн"
  ],
  "screenwriter": [
    "Пэдди Консидайн"
  ],
  "producer": [
    "Дермид Скримшо",
    "Роуз Гарнетт",
    "Марк Гудер"
  ],
  "operator": [
    "Лори Роуз"
  ],
  "composer": [
    "Гарри Эскотт"
  ],
  "design": [
    "Саймон Роджерс",
    "Сюзанн Кейв",
    "Лаура Марш"
  ],
  "editor": [
    "Пиа Ди Чаула"
  ],
  "actors": [
    "Пэдди Консидайн",
    "Джоди Уиттакер",
    "Пол Попплуэлл",
    "Brendan Ingle",
    "Тони Питтс",
    "Matt Insley",
    "Lexie Duffy",
    "Lainie Duffy",
    "Энтони Уэльс",
    "Francis Warren"
  ],
  "actors_dubl": [],
  "trivia": [
    "Джорнимен — опытный профессионал, всегда готовый принять вызов более сильного соперника, т. к. он совершенно не заботится о собственном послужном списке (боксёрский сленг). Во время съёмок последнего боя раунда массовка начала выкрикивать оскорбления судье. В перерыве между дублями Ричарду Варлею пришлось напомнить актёрам массовки о том, что в настоящих боях с участием джорнименов оскорблять судью не принято."
  ],
  "trailers": [],
  "seasons": [],
  "voiceActing": [
    "Рус. Люб. многоголосый"
  ],
  "subtitle": [],
  "parts": []
}
