{
  "id": 265,
  "name": "Красотки в бегах",
  "name_eng": "Hot Pursuit",
  "year": 2015,
  "slogan": "«Вооружены и типа опасны»",
  "age": "16+",
  "type": "film",
  "quality": "FHD (1080p)",
  "imdb": "5.2",
  "imdb_id": "2967224",
  "kinopoisk": "5.8",
  "kinopoisk_id": "770625",
  "world_art": null,
  "world_art_id": null,
  "time": "87 мин. / 01:27",
  "ads": false,
  "premier": "2015-05-07",
  "premier_rus": "2015-06-11",
  "availability": "2015-06-12",
  "activate_time": "2018-06-07 17:16:52",
  "budget": "$35 000 000",
  "fees_use": "$34 580 201",
  "fees_world": "$51 380 201",
  "fees_rus": "$1 703 363",
  "rate_mpaa": "PG-13",
  "description": "Сверхдобросовестный офицер полиции Купер гордится своим назначением на, казалось бы, простое задание — сопроводить жену мафиози Даниэллу через весь Техас в Даллас, где она и её муж должны дать показания против крупного наркобарона. Однако при встрече с порывистой миссис Рива — колумбийской красоткой с пышными формами, чье упрямство столь же выразительно, как и ее акцент — ей становится ясно, что поездка будет непростой.И прежде чем они успевают договориться о том, сколько туфель на шпильках сможет взять с собой очаровашка Даниэлла, полицейские и мистер Рива попадают под обстрел, превращая жену последнего во вдову, а предполагаемую «легкую прогулку» из Сан-Антонио в Даллас — в прятки на выживание наперегонки с пулями!",
  "iframe_url": "",
  "iframe_poster": null,
  "poster": "https://img.imgilall.me/movies/franchise/2/6/5/0/0/0/0/0/0/0/610x900_265.jpg",
  "country": {
    "1": "США"
  },
  "collection": {
    "82": "Молодежные комедии"
  },
  "genre": {
    "25": "Криминал",
    "19": "Комедия",
    "17": "Боевик",
    "10": "Зарубежный"
  },
  "director": [
    "Энн Флетчер"
  ],
  "screenwriter": [
    "Дэвид Вини",
    "Джон Куинтанс"
  ],
  "producer": [
    "Дэна Фокс",
    "Бруна Папандреа",
    "Sarah Swick"
  ],
  "operator": [
    "Оливер Степлтон"
  ],
  "composer": [
    "Кристоф Бек"
  ],
  "design": [
    "Нельсон Коутс",
    "Джеймс Хинкль",
    "Катрин Мари Томас"
  ],
  "editor": [
    "Присцилла Недд-Френдли"
  ],
  "actors": [
    "Риз Уизерспун",
    "София Вергара",
    "Мэттью Дель Негро",
    "Майкл Мосли",
    "Роберт Казински",
    "Ричард Т. Джонс",
    "Бенни Нивз",
    "Майкл Рэй Эскамиллья",
    "Хоакин Косио",
    "Джон Кэрролл Линч"
  ],
  "actors_dubl": [
    "Варвара Чабан",
    "Ирина Киреева",
    "Денис Некрасов",
    "Даниил Эльдаров",
    "Антон Морозов"
  ],
  "trivia": [
    "Первоначально фильм носил название «Не связывайтесь с Техасом» («Don`t Mess with Texas »).",
    "События фильма разворачиваются в Техасе, однако съемки фильма проходили в Новом Орлеане, штат Луизиана."
  ],
  "trailers": [],
  "seasons": [],
  "voiceActing": [
    "Рус. Дублированный",
    "Укр. Дубльований",
    "Eng.Original",
    "Eng. Orig. with Commentary"
  ],
  "subtitle": [
    "Рус. форсированные"
  ],
  "parts": []
}
