{
  "id": 26535,
  "name": "Игры юрского периода",
  "name_eng": "The Jurassic Games",
  "year": 2018,
  "slogan": "«Win the games. Win your freedom»",
  "age": null,
  "type": "film",
  "quality": "SD",
  "imdb": "3.8",
  "imdb_id": "6710826",
  "kinopoisk": "4.5",
  "kinopoisk_id": "1059688",
  "world_art": null,
  "world_art_id": null,
  "time": "86 мин. / 01:26",
  "ads": false,
  "premier": "2018-09-27",
  "premier_rus": "2018-09-28",
  "availability": "2018-09-29",
  "activate_time": "2020-06-27 04:41:00",
  "budget": null,
  "fees_use": null,
  "fees_world": null,
  "fees_rus": null,
  "rate_mpaa": null,
  "description": "Каждый год 10 самых опасных преступников мира борются за свою свободу в играх «Юрского периода» - телевизионном шоу, где конкурсанты противостоят множеству свирепых древних хищников. Победителю, последнему выжившему, будет дарована не только свобода, но и слава, и богатство.",
  "iframe_url": "",
  "iframe_poster": null,
  "poster": "https://img.imgilall.me/movies/franchise/2/6/5/3/5/0/0/0/0/0/610x900_26535.jpg",
  "country": {
    "1": "США"
  },
  "collection": [],
  "genre": {
    "9": "Приключения",
    "26": "Ужасы",
    "11": "Фантастика",
    "17": "Боевик",
    "13": "Триллер"
  },
  "director": [
    "Райан Беллгардт"
  ],
  "screenwriter": [
    "Райан Беллгардт",
    "Гален Кристи"
  ],
  "producer": [
    "Райан Беллгардт",
    "Крис Хойт",
    "Джош Маккэми"
  ],
  "operator": [
    "Джош Маккэми"
  ],
  "composer": [
    "Дэвид Стоун Хэмилтон"
  ],
  "design": [
    "Крис Хойт",
    "Kris Young"
  ],
  "editor": [
    "Энди Суонсон"
  ],
  "actors": [
    "Райан Мерриман",
    "Перри Ривз",
    "Адам Хэмптон",
    "Кэти Бёрджесс",
    "Кейт Джонс",
    "Люк Уикофф",
    "Эрика Дэйли",
    "Кайл Пенингтон",
    "Ретт Террелл",
    "Тайгер Шью"
  ],
  "actors_dubl": [],
  "trivia": [],
  "trailers": [],
  "seasons": [],
  "voiceActing": [
    "Рус. Люб. многоголосый"
  ],
  "subtitle": [],
  "parts": []
}
