{
  "id": 26566,
  "name": "Я – Али",
  "name_eng": "I Am Ali",
  "year": 2014,
  "slogan": "«Fighter. Brother. Lover. Father»",
  "age": "12+",
  "type": "film",
  "quality": "HD (720p)",
  "imdb": "7.2",
  "imdb_id": "4008652",
  "kinopoisk": "7.1",
  "kinopoisk_id": "842331",
  "world_art": null,
  "world_art_id": null,
  "time": "111 мин. / 01:51",
  "ads": false,
  "premier": "2014-10-10",
  "premier_rus": "2014-10-11",
  "availability": "2014-10-12",
  "activate_time": "2020-06-27 05:19:00",
  "budget": null,
  "fees_use": "$7 205",
  "fees_world": null,
  "fees_rus": null,
  "rate_mpaa": "PG",
  "description": "Документальная кинокартина поведает об известном человеке, талантливом и, без сомнения, гениальном боксере, Мохаммеде Али. Центральной сюжетной линией становится его карьера и личная жизнь.",
  "iframe_url": "",
  "iframe_poster": null,
  "poster": "https://img.imgilall.me/movies/franchise/2/6/5/6/6/0/0/0/0/0/610x900_26566.jpg",
  "country": {
    "1": "США",
    "2": "Великобритания"
  },
  "collection": [],
  "genre": {
    "54": "Документальный",
    "27": "Биографический",
    "23": "Спортивный"
  },
  "director": [
    "Клэр Льюинс"
  ],
  "screenwriter": [
    "Клэр Льюинс"
  ],
  "producer": [
    "Джордж Чигнелл",
    "Грег Хобден",
    "Клэр Льюинс"
  ],
  "operator": [
    "Стюарт Люк"
  ],
  "composer": [],
  "design": [],
  "editor": [
    "Марк «Рэг» Ренч"
  ],
  "actors": [
    "Мухаммед Али",
    "Джин Килрой",
    "Рахаман Али",
    "Одесса Клэй",
    "Cassius Clay Sr.",
    "Joe Martin",
    "Garry Jawish",
    "Анджело Данди",
    "Henry Cooper",
    "Maryum Ali"
  ],
  "actors_dubl": [],
  "trivia": [],
  "trailers": [],
  "seasons": [],
  "voiceActing": [
    "Рус. Проф. многоголосый"
  ],
  "subtitle": [],
  "parts": []
}
