{
  "id": 26614,
  "name": "Благодетель",
  "name_eng": "The Benefactor",
  "year": 2015,
  "slogan": "«His help comes at a price»",
  "age": "16+",
  "type": "film",
  "quality": "HD (720p)",
  "imdb": "5.1",
  "imdb_id": "3165630",
  "kinopoisk": "5.6",
  "kinopoisk_id": "795242",
  "world_art": null,
  "world_art_id": null,
  "time": "93 мин. / 01:33",
  "ads": false,
  "premier": "2015-04-17",
  "premier_rus": "2015-04-18",
  "availability": "2015-04-19",
  "activate_time": "2020-06-27 07:35:00",
  "budget": null,
  "fees_use": null,
  "fees_world": null,
  "fees_rus": null,
  "rate_mpaa": null,
  "description": "Главный герой – филантроп, который, чтобы побороть собственное отчаяние, ставит своей целью наладить отношения молодой пары Оливии и Луки, в которые он отчаянно влезает.",
  "iframe_url": "",
  "iframe_poster": null,
  "poster": "https://img.imgilall.me/movies/franchise/2/6/6/1/4/0/0/0/0/0/610x900_26614.jpg",
  "country": {
    "1": "США"
  },
  "collection": [],
  "genre": {
    "7": "Драма"
  },
  "director": [
    "Эндрю Ренци"
  ],
  "screenwriter": [
    "Эндрю Ренци"
  ],
  "producer": [
    "Джейсон Майкл Берман",
    "Томас Б. Фо",
    "Jay Schuminsky"
  ],
  "operator": [
    "Джо Андерсон"
  ],
  "composer": [
    "Дэнни Бенси",
    "Сондер Юрриаанс"
  ],
  "design": [
    "Этан Тобман",
    "Малгожата Тужаньская",
    "Майкл Бэйкер"
  ],
  "editor": [
    "Д.С. Марсиаль",
    "Мэттью Ранделл"
  ],
  "actors": [
    "Ричард Гир",
    "Дакота Фаннинг",
    "Тео Джеймс",
    "Кларк Питерс",
    "Брайан Энтони Уилсон",
    "Денниша Прэтт",
    "Лиза Робертс",
    "Лерой Уилсон мл.",
    "Мэттью Дэйшер",
    "Майкл Дэйшер"
  ],
  "actors_dubl": [],
  "trivia": [
    "Фильм снят в Пенсильвании, по большей части в Филадельфии, самом населённом городе штата."
  ],
  "trailers": [],
  "seasons": [],
  "voiceActing": [
    "Diva Universal"
  ],
  "subtitle": [],
  "parts": []
}
