{
  "id": 26649,
  "name": "Кафе первой любви",
  "name_eng": "Love Struck Café",
  "year": 2017,
  "slogan": "—",
  "age": null,
  "type": "film",
  "quality": "HD (720p)",
  "imdb": "6.2",
  "imdb_id": "7520274",
  "kinopoisk": null,
  "kinopoisk_id": "1049720",
  "world_art": null,
  "world_art_id": null,
  "time": "84 мин. / 01:24",
  "ads": false,
  "premier": "2017-10-14",
  "premier_rus": "2017-10-15",
  "availability": "2017-10-16",
  "activate_time": "2020-06-27 11:46:00",
  "budget": null,
  "fees_use": null,
  "fees_world": null,
  "fees_rus": null,
  "rate_mpaa": null,
  "description": "Меган сталкивается с необходимостью решать множество проблем. Сначала босс отправляет её в родной город, чтобы убедить несговорчивую миссис Фиггинс продать свой дом, чтобы компания Меган смогла построить там развлекательный комплекс. И от этого зависит, сбудется ли её мечта стать архитектором. А ещё её отец ломает ногу и скидывает на дочь заботы о семейном кафе. Но апогеем всего становится встреча Меган с её первой любовью — Джо, который бросил её когда-то без объяснения причин.",
  "iframe_url": "",
  "iframe_poster": null,
  "poster": "https://img.imgilall.me/movies/franchise/2/6/6/4/9/0/0/0/0/0/610x900_26649.jpg",
  "country": {
    "7": "Канада",
    "1": "США"
  },
  "collection": [],
  "genre": {
    "8": "Мелодрама",
    "7": "Драма"
  },
  "director": [
    "Майк Роуб"
  ],
  "screenwriter": [
    "Майк Роуб",
    "Роберт Тейт Миллер"
  ],
  "producer": [
    "Джон Принц",
    "Ким Арнотт",
    "Айван Хейден"
  ],
  "operator": [
    "Рон Стэннет"
  ],
  "composer": [
    "Кристофер Никел"
  ],
  "design": [
    "Ник Ричардсон",
    "Фрайзер Хэйген",
    "Зора Шахалими"
  ],
  "editor": [
    "Тревор Мирош"
  ],
  "actors": [
    "Сара Моррис",
    "Эндрю У. Уокер",
    "Гари Чок",
    "Кэссиди Наджент",
    "Долорес Дрэйк",
    "Кэйси Мандерсон",
    "Бен Уилкинсон",
    "Джордин Эшли Олсон",
    "Nicholas Bradbury",
    "Дженна Хатингс"
  ],
  "actors_dubl": [],
  "trivia": [],
  "trailers": [],
  "seasons": [],
  "voiceActing": [
    "Рус. Люб. многоголосый"
  ],
  "subtitle": [],
  "parts": []
}
