{
  "id": 26676,
  "name": "Мёртвая пуля",
  "name_eng": "Dead Bullet",
  "year": 2016,
  "slogan": "«Not a shot in hell»",
  "age": null,
  "type": "film",
  "quality": "HD (720p)",
  "imdb": "5.3",
  "imdb_id": "3799926",
  "kinopoisk": null,
  "kinopoisk_id": "877298",
  "world_art": null,
  "world_art_id": null,
  "time": "90 мин. / 01:30",
  "ads": false,
  "premier": "2016-10-08",
  "premier_rus": "2016-10-09",
  "availability": "2016-10-10",
  "activate_time": "2020-07-08 05:47:00",
  "budget": null,
  "fees_use": null,
  "fees_world": null,
  "fees_rus": null,
  "rate_mpaa": null,
  "description": null,
  "iframe_url": "",
  "iframe_poster": null,
  "poster": "https://img.imgilall.me/movies/franchise/2/6/6/7/6/0/0/0/0/0/610x900_26676.jpg",
  "country": {
    "1": "США"
  },
  "collection": [],
  "genre": {
    "25": "Криминал",
    "13": "Триллер",
    "7": "Драма"
  },
  "director": [
    "Дж. Эрик Риз"
  ],
  "screenwriter": [
    "Дж. Эрик Риз"
  ],
  "producer": [
    "Гари Кинг",
    "Кэтерин Кастанеда",
    "Зак Форсман"
  ],
  "operator": [
    "Джошуа Ничке"
  ],
  "composer": [
    "Zach Letts"
  ],
  "design": [],
  "editor": [
    "Дж. Эрик Риз"
  ],
  "actors": [
    "Джон Т. Вудс",
    "Андреа Сикстос",
    "Хосе Росете",
    "Рэй Трикитт",
    "Питер Мендоса",
    "Куэто Йеска",
    "Эмануэл Борриа",
    "Трэвис Ли Эллер",
    "Джонатан Руми",
    "Jon Paul Raniola"
  ],
  "actors_dubl": [],
  "trivia": [],
  "trailers": [],
  "seasons": [],
  "voiceActing": [
    "Рус. Люб. многоголосый"
  ],
  "subtitle": [],
  "parts": []
}
