{
  "id": 26820,
  "name": "Любовники",
  "name_eng": "Two Lovers",
  "year": 2008,
  "slogan": "«Sometimes we leave everything to find ourselves»",
  "age": "18+",
  "type": "film",
  "quality": "HD (720p)",
  "imdb": "7.0",
  "imdb_id": "1103275",
  "kinopoisk": "6.8",
  "kinopoisk_id": "397580",
  "world_art": null,
  "world_art_id": null,
  "time": "110 мин. / 01:50",
  "ads": false,
  "premier": "2008-05-19",
  "premier_rus": "2009-08-06",
  "availability": "2009-08-07",
  "activate_time": "2020-07-18 12:20:00",
  "budget": "$12 000 000",
  "fees_use": "$3 149 034",
  "fees_world": "+ $13 154 609 = $16 303 643",
  "fees_rus": "$59 627",
  "rate_mpaa": "R",
  "description": "После неудачной попытки самоубийства Леонард возвращается в дом своих родителей. Здесь он увлекается красивой и таинственной соседкой Мишель. Однако родители хотят, чтобы он связал свою жизнь с Сандрой, дочерью бизнесмена, который купил их семейный бизнес. Теперь Леонарду необходимо сделать свой нелёгкий выбор.",
  "iframe_url": "",
  "iframe_poster": null,
  "poster": "https://img.imgilall.me/movies/franchise/2/6/8/2/0/0/0/0/0/0/610x900_26820.jpg",
  "country": {
    "1": "США"
  },
  "collection": [],
  "genre": {
    "8": "Мелодрама",
    "7": "Драма"
  },
  "director": [
    "Джеймс Грэй"
  ],
  "screenwriter": [
    "Джеймс Грэй",
    "Рик Менелло",
    "Фёдор Достоевский"
  ],
  "producer": [
    "Донна Джильотти",
    "Джеймс Грэй",
    "Энтони Катагас"
  ],
  "operator": [
    "Хоакин Бака-Асай"
  ],
  "composer": [],
  "design": [
    "Хэппи Масси",
    "Марк Бенасерраф",
    "Питер Зумба"
  ],
  "editor": [
    "Джон Экселрэд"
  ],
  "actors": [
    "Хоакин Феникс",
    "Гвинет Пэлтроу",
    "Винесса Шоу",
    "Элиас Котеас",
    "Изабелла Росселлини",
    "Энн Джойс",
    "Эллиотт Виллар",
    "Крэйг Уолкер",
    "Кармен М. Херлихи",
    "Дон Хьюит мл."
  ],
  "actors_dubl": [],
  "trivia": [
    "Сюжет фильма основан на повести Ф. М. Достоевского «Белые ночи»."
  ],
  "trailers": [],
  "seasons": [],
  "voiceActing": [
    "Diva Universal"
  ],
  "subtitle": [],
  "parts": []
}
