{
  "id": 26928,
  "name": "Спроси у меня свое имя",
  "name_eng": "Bana Adini Sor",
  "year": 2015,
  "slogan": "—",
  "age": null,
  "type": "film",
  "quality": "SD",
  "imdb": "5.7",
  "imdb_id": "4437212",
  "kinopoisk": null,
  "kinopoisk_id": "898360",
  "world_art": null,
  "world_art_id": null,
  "time": "110 мин. / 01:50",
  "ads": false,
  "premier": "2015-03-13",
  "premier_rus": "2015-03-14",
  "availability": "2015-03-15",
  "activate_time": "2020-07-24 16:24:00",
  "budget": "$1 000 000",
  "fees_use": null,
  "fees_world": null,
  "fees_rus": null,
  "rate_mpaa": null,
  "description": null,
  "iframe_url": "",
  "iframe_poster": null,
  "poster": "https://img.imgilall.me/movies/franchise/2/6/9/2/8/0/0/0/0/0/610x900_26928.jpg",
  "country": {
    "36": "Турция"
  },
  "collection": [],
  "genre": {
    "8": "Мелодрама",
    "7": "Драма"
  },
  "director": [
    "Танер Гюндёнер"
  ],
  "screenwriter": [
    "Oben Aras"
  ],
  "producer": [
    "Джим Кокрейн",
    "Merve Harzadin",
    "Хакан Йылдыз"
  ],
  "operator": [
    "Özer Kiziltan"
  ],
  "composer": [],
  "design": [
    "Умит Джихан Джанполат",
    "Sinem Bilsel",
    "Сечил Гюлджю"
  ],
  "editor": [
    "Ахмет Джан Чакырджа"
  ],
  "actors": [
    "Энгин Хепилери",
    "Озге Борак",
    "Башак Парлак",
    "Джихат Тамер",
    "Ипек Тенолджай",
    "Ата Берк Мутлу",
    "Бахар Акча",
    "Барыш Хайта",
    "Yaprak Bahar",
    "Левент Сюлюн"
  ],
  "actors_dubl": [],
  "trivia": [],
  "trailers": [],
  "seasons": [],
  "voiceActing": [
    "Важенин (BadBajo)"
  ],
  "subtitle": [],
  "parts": []
}
