{
  "id": 26971,
  "name": "Асса",
  "name_eng": "",
  "year": 1987,
  "slogan": "—",
  "age": "12+",
  "type": "film",
  "quality": "HD (720p)",
  "imdb": "7.8",
  "imdb_id": "0094683",
  "kinopoisk": "7.8",
  "kinopoisk_id": "43545",
  "world_art": null,
  "world_art_id": null,
  "time": "153 мин. / 02:33",
  "ads": false,
  "premier": "1988-09-16",
  "premier_rus": "2019-03-28",
  "availability": "2019-03-29",
  "activate_time": "2020-07-23 07:22:00",
  "budget": null,
  "fees_use": null,
  "fees_world": null,
  "fees_rus": null,
  "rate_mpaa": null,
  "description": "Юная девушка, истосковавшись по яркой и безбедной жизни, связывает свою судьбу с крупным бандитским «авторитетом». Но есть и другая жизнь - птичья, полетная, просквозенная ветром и музыкой, жизнь мальчика Бананана. И две эти жизни трагически сталкиваются...",
  "iframe_url": "",
  "iframe_poster": null,
  "poster": "https://img.imgilall.me/movies/franchise/2/6/9/7/1/0/0/0/0/0/610x900_26971.jpg",
  "country": {
    "24": "СССР"
  },
  "collection": [],
  "genre": {
    "25": "Криминал",
    "28": "Исторический",
    "8": "Мелодрама",
    "7": "Драма"
  },
  "director": [
    "Сергей Соловьев"
  ],
  "screenwriter": [
    "Сергей Ливнев",
    "Сергей Соловьев",
    "Натан Эйдельман"
  ],
  "producer": [],
  "operator": [
    "Павел Лебешев"
  ],
  "composer": [
    "Борис Гребенщиков"
  ],
  "design": [
    "Марксэн Гаухман-Свердлов",
    "Тимур Новиков",
    "Ирина Гинно"
  ],
  "editor": [
    "Вера Круглова"
  ],
  "actors": [
    "Сергей Бугаев",
    "Татьяна Друбич",
    "Станислав Говорухин",
    "Натан Эйдельман",
    "Анатолий Сливников",
    "Герман Шорр",
    "Илья Иванов",
    "Александр Баширов",
    "Виктор Цой",
    "Сергей Рыженко"
  ],
  "actors_dubl": [],
  "trivia": [
    "Фраза Бананана «Не для денег родившийся футурист Владимир Маяковский» — это упоминание малоизвестного и не сохранившегося фильма с участием Маяковского «Не для денег родившийся».",
    "Крымов цитирует Пушкина.",
    "Основные съемки фильма проходили на натуре в Крыму, в Ялте, часть — в Москве.",
    "Эпизод зимнего купания Крымова и Бананана на самом деле снимался летом. Лед на воде и снег на берегу — искусственные.",
    "Это был первый советский фильм, премьера которого сопровождалась грандиозной театрализованной презентацией, прошедшей в московском ДК МЭЛЗ.",
    "Виниловая пластинка с песнями из фильма, вышедшая на фирме «Мелодия» в 1987 году, стала одним из первых советских официальных изданий отечественной рок-музыки.",
    "Песни «Иду на ты», «Мочалкин блюз» и «Старик Козлодоев», в фильме спетые Сергеем Рыженко, на пластинке звучат в оригинальном исполнении Бориса Гребенщикова.",
    "Монолог «Майора» о Гагарине — чистая импровизация актёра Александра Баширова.",
    "В кинотеатре Алика и Бананан смотрят фильм «Тихая улица» с участием Чарли Чаплина.",
    "Название фильма предложено Сергеем Бугаевым, исполнителем роли Бананана.",
    "Сам лозунг «Асса» в рок-среду ввёл художник Олег Котельников, этот лозунг широко использовался в среде, связанной с «Камчаткой».",
    "Крымов и Бананан едут из Ялты на Симферопольский ипподром. События фильма происходят в 1980 году, тогда как в Симферополе ипподром прекратил существование ещё в начале 1970-х годов. Эпизод снимали на московском ипподроме.",
    "Эпизод с исполнением песни «Хочу перемен» снимался в Зелёном театре ЦПКиО им. Горького в Москве. Вместо оплаты массовки съёмочная группа организовала бесплатный концерт «Кино», в ходе которого и был снят эпизод. В связи со съёмочной спецификой песня исполнялась под фонограмму. Остальной концерт был отыгран вживую. Публика, пришедшая на бесплатный концерт, была так возмущена долгой подготовкой к съёмке сцены, что перевернула пожарную машину, стоявшую наготове по соображениям техники безопасности.",
    "Исторические сцены снимались в Михайловском замке в Ленинграде.",
    "Рабочее название фильма — «Здравствуй, мальчик Бананан!» Под этим названием проходили кинопробы. Имя главного героя фильма «Бананан» было у персонажа песни «Здравствуй, мальчик Бананан» (прозвучавшей в фильме), сочинённой и исполненной Юрием Чернавским на его рок-альбоме «Банановые острова», который был записан в феврале 1983 года.",
    "Главную героиню зовут Алика — так автор сценария Сергей Ливнев, у которого в то время был роман с актрисой Аликой Смеховой, решил запечатлеть имя возлюбленной, впоследствии ставшей его женой.",
    "Артисты театра лилипутов исполняют отрывки из оперетты «Сильва» Имре Кальмана.",
    "Отказ администрации гостиницы «Ореанда» в проведении съёмок удалось уладить только после телеграммы, в отчаянии отправленной Сергеем Соловьёвым на адрес генсека Михаила Горбачёва. Дошедшая по воле случая непосредственно до адресата, телеграмма привела его в такую ярость, что вопрос был немедленно улажен.",
    "Портрет Брежнева, мимо которого идут персонажи фильма, изготовлен специально для съёмок местным художником. Появление портрета на набережной спустя несколько лет после смерти генсека вызвало у местного населения самые невероятные предположения.",
    "Идею поместить пальму на вращающийся проигрыватель у Бананана авторы фильма взяли, побывав на шоу-концерте группы «Кабинет», первой группы в СССР, игравшей в стиле ска в середине 1980-х годов."
  ],
  "trailers": [],
  "seasons": [],
  "voiceActing": [
    "Original"
  ],
  "subtitle": [],
  "parts": []
}
