{
  "id": 27081,
  "name": "Я обслуживал английского короля",
  "name_eng": "Obsluhoval jsem anglického krále",
  "year": 2006,
  "slogan": "«Ambition will get you anywhere»",
  "age": "16+",
  "type": "film",
  "quality": "HD (720p)",
  "imdb": "7.4",
  "imdb_id": "0284363",
  "kinopoisk": "7.4",
  "kinopoisk_id": "265664",
  "world_art": null,
  "world_art_id": null,
  "time": "113 мин. / 01:53",
  "ads": false,
  "premier": "2006-12-18",
  "premier_rus": "2006-12-19",
  "availability": "2006-12-20",
  "activate_time": "2020-07-24 16:47:00",
  "budget": "CZK 84 450 000",
  "fees_use": "$617 403",
  "fees_world": "+ $4 591 266 = $5 208 669",
  "fees_rus": "$100 550",
  "rate_mpaa": "R",
  "description": "История взлета и падения карьеры одного пражского официанта в первой половине двадцатого века. Амбициозный молодой человек из официанта в гостинице маленького чешского приграничного городка попадает в огромный отель в центре Праги, и даже удостаивается награды от императора Абиссинии. Но настоящий взлет карьеры официанта случается после захвата Чехословакии немецкими войсками.",
  "iframe_url": "",
  "iframe_poster": null,
  "poster": "https://img.imgilall.me/movies/franchise/2/7/0/8/1/0/0/0/0/0/610x900_27081.jpg",
  "country": {
    "51": "Чехия",
    "101": "Словакия"
  },
  "collection": [],
  "genre": {
    "32": "Военный",
    "19": "Комедия",
    "8": "Мелодрама",
    "7": "Драма"
  },
  "director": [
    "Иржи Мензель"
  ],
  "screenwriter": [
    "Иржи Мензель",
    "Богумил Грабал"
  ],
  "producer": [
    "Рудольф Бирманн",
    "Петр Дворак",
    "Luba Féglová"
  ],
  "operator": [
    "Яромир Шофр"
  ],
  "composer": [
    "Алеш Бржезина"
  ],
  "design": [
    "Милан Быцек",
    "Милан Корба"
  ],
  "editor": [
    "Иржи Брожек"
  ],
  "actors": [
    "Иван Барнев",
    "Ольдржих Кайзер",
    "Юлия Йенч",
    "Мариан Лабуда",
    "Милан Ласица",
    "Зузана Фиалова",
    "Мартин Губа",
    "Йозеф Абргам",
    "Иржи Лабус",
    "Рудольф Грушинский"
  ],
  "actors_dubl": [],
  "trivia": [
    "Фильм снят по одноимённому роману Богумила Грабала."
  ],
  "trailers": [],
  "seasons": [],
  "voiceActing": [
    "Diva Universal"
  ],
  "subtitle": [],
  "parts": []
}
