{
  "id": 27212,
  "name": "Из глубины сердца",
  "name_eng": "Gundello Godari",
  "year": 2013,
  "slogan": "—",
  "age": "18+",
  "type": "film",
  "quality": "SD",
  "imdb": "4.7",
  "imdb_id": "2327170",
  "kinopoisk": null,
  "kinopoisk_id": "696773",
  "world_art": null,
  "world_art_id": null,
  "time": "129 мин. / 02:09",
  "ads": false,
  "premier": "2013-03-08",
  "premier_rus": "2013-03-09",
  "availability": "2013-03-10",
  "activate_time": "2020-06-27 08:43:00",
  "budget": null,
  "fees_use": null,
  "fees_world": null,
  "fees_rus": null,
  "rate_mpaa": null,
  "description": "Фильм рассказывает о разрушительном наводнении 1986 года, обрушившемся на штат Андра Прадеш. Молодожены Малли и Читра оказываются посреди наводнения. Потеряв надежду спастись, они решают рассказать друг другу о своей жизни до свадьбы. И что окажется сложнее – пережить наводнение или сохранить отношения после открывшейся правды?",
  "iframe_url": "",
  "iframe_poster": null,
  "poster": "https://img.imgilall.me/movies/franchise/2/7/2/1/2/0/0/0/0/0/610x900_27212.jpg",
  "country": {
    "26": "Индия"
  },
  "collection": [],
  "genre": {
    "9": "Приключения",
    "8": "Мелодрама",
    "7": "Драма"
  },
  "director": [
    "Kumar Nagendra"
  ],
  "screenwriter": [
    "Kumar Nagendra"
  ],
  "producer": [
    "Лакшми Манчу"
  ],
  "operator": [
    "Palanikumar M R"
  ],
  "composer": [
    "Илайараджа"
  ],
  "design": [
    "Murali Kondeti",
    "Ganesh Nallari"
  ],
  "editor": [
    "М.Р. Варма"
  ],
  "actors": [
    "Аадхи",
    "Сундип Кишан",
    "Лакшми Манчу",
    "Таапси Панну",
    "Pammi Sai"
  ],
  "actors_dubl": [],
  "trivia": [],
  "trailers": [],
  "seasons": [],
  "voiceActing": [
    "Рус. Люб. одноголосый"
  ],
  "subtitle": [],
  "parts": []
}
