{
  "id": 27283,
  "name": "Американский ниндзя 5",
  "name_eng": "American Ninja 5",
  "year": 1992,
  "slogan": "«The Magic Power of the Ninja Is About to Reveal Itself...»",
  "age": "16+",
  "type": "film",
  "quality": "SD",
  "imdb": "3.0",
  "imdb_id": "0106257",
  "kinopoisk": "3.8",
  "kinopoisk_id": "83140",
  "world_art": null,
  "world_art_id": null,
  "time": "102 мин. / 01:42",
  "ads": false,
  "premier": "1993-03-29",
  "premier_rus": "1993-03-30",
  "availability": "1993-03-31",
  "activate_time": "2020-07-18 08:00:00",
  "budget": null,
  "fees_use": null,
  "fees_world": null,
  "fees_rus": null,
  "rate_mpaa": "PG-13",
  "description": "Искусству восточных рукопашных поединков американец Джо учится у Мастера Тетсу, но однажды Джо и самому приходится стать наставником: он должен временно присматривать за племянником своего учителя, а Хиро — парнишка, помешанный на компьютерах — и знать ничего не хочет ни о каких ниндзя, нунчаках, тэквондо и кикбоксерах.Когда Джо и Хиро приняли приглашение юной девушки Лизы вместе пообедать, они не предполагали, что ее скоро похитят злодеи, жаждущие пошантажировать ее отца, известного ученого. И тут появился Джо...",
  "iframe_url": "",
  "iframe_poster": null,
  "poster": "https://img.imgilall.me/movies/franchise/2/7/2/8/3/0/0/0/0/0/610x900_27283.jpg",
  "country": {
    "1": "США"
  },
  "collection": [],
  "genre": {
    "19": "Комедия",
    "17": "Боевик",
    "8": "Мелодрама"
  },
  "director": [
    "Боб Бралвер"
  ],
  "screenwriter": [
    "Джордж Саундерс",
    "Джон Брайант",
    "Грег Лэттер"
  ],
  "producer": [
    "Овидио Г. Ассонитис",
    "Боб Бралвер",
    "Кауполикан Овальес"
  ],
  "operator": [
    "Роберто Форгес Давандзати"
  ],
  "composer": [
    "Дэниэл Мэй"
  ],
  "design": [
    "Давиде Бассан",
    "Эудженио Улисси",
    "Мэри Уолбридж"
  ],
  "editor": [
    "Клаудио М. Катри"
  ],
  "actors": [
    "Дэвид Брэдли",
    "Ли Рейес",
    "Энн Дюпон",
    "Пэт Морита",
    "Джеймс Лью",
    "Клемент Сейнт-Джордж",
    "Марко Фьорини",
    "Аарон Ипале",
    "Норман Бёртон",
    "Тадаси Ямасита"
  ],
  "actors_dubl": [],
  "trivia": [],
  "trailers": [],
  "seasons": [],
  "voiceActing": [
    "Важенин (BadBajo)"
  ],
  "subtitle": [],
  "parts": []
}
