{
  "id": 27332,
  "name": "Лавкрафт: Страх неизведанного",
  "name_eng": "Lovecraft: Fear of the Unknown",
  "year": 2008,
  "slogan": "—",
  "age": null,
  "type": "film",
  "quality": "SD",
  "imdb": "7.2",
  "imdb_id": "1261900",
  "kinopoisk": "7.6",
  "kinopoisk_id": "672367",
  "world_art": null,
  "world_art_id": null,
  "time": "90 мин. / 01:30",
  "ads": false,
  "premier": "2008-07-24",
  "premier_rus": "2008-07-25",
  "availability": "2008-07-26",
  "activate_time": "2020-07-18 10:55:00",
  "budget": null,
  "fees_use": null,
  "fees_world": null,
  "fees_rus": null,
  "rate_mpaa": null,
  "description": "Документальный фильм представляет собой увлекательный рассказ о жизни Говарда Филлипса Лавкрафта. Своими мыслями о творчестве писателя делятся прославленные авторы, работающие в жанре литературы сверхъестественного ужаса, а также известные кинорежиссёры, чьё становление было бы невозможно без увлечения прозой Лавкрафта. В картине достаточно подробно освещается биография писателя, а также разбираются веховые произведения, ставшие основой Мифов Ктхулху.",
  "iframe_url": "",
  "iframe_poster": null,
  "poster": "https://img.imgilall.me/movies/franchise/2/7/3/3/2/0/0/0/0/0/610x900_27332.jpg",
  "country": {
    "1": "США"
  },
  "collection": [],
  "genre": {
    "54": "Документальный"
  },
  "director": [
    "Фрэнк Х. Вудворд"
  ],
  "screenwriter": [
    "Фрэнк Х. Вудворд"
  ],
  "producer": [
    "Уильям Янчевский",
    "Джеймс Б. Майерс",
    "Фрэнк Х. Вудворд"
  ],
  "operator": [],
  "composer": [
    "Марс"
  ],
  "design": [],
  "editor": [
    "Richard Thurber"
  ],
  "actors": [
    "Робин Аткин Даунс",
    "Нил Гейман",
    "Питер Страуб",
    "Гильермо дель Торо",
    "Рэмси Кэмпбелл",
    "Стюарт Гордон",
    "Caitlin R. Kiernan",
    "С.Т. Джоши",
    "Джон Карпентер",
    "Роберт М. Прайс"
  ],
  "actors_dubl": [],
  "trivia": [],
  "trailers": [],
  "seasons": [],
  "voiceActing": [
    "Важенин (BadBajo)"
  ],
  "subtitle": [],
  "parts": []
}
