{
  "id": 27340,
  "name": "Алые паруса",
  "name_eng": "",
  "year": 1961,
  "slogan": "—",
  "age": "12+",
  "type": "film",
  "quality": "SD",
  "imdb": "7.1",
  "imdb_id": "0054618",
  "kinopoisk": "7.8",
  "kinopoisk_id": "43474",
  "world_art": null,
  "world_art_id": null,
  "time": "88 мин. / 01:28",
  "ads": false,
  "premier": "1961-06-07",
  "premier_rus": "1961-06-08",
  "availability": "1961-06-09",
  "activate_time": "2020-07-18 04:57:00",
  "budget": null,
  "fees_use": null,
  "fees_world": null,
  "fees_rus": null,
  "rate_mpaa": null,
  "description": "В небольшом рыбацком поселке отшельниками жили Лонгрен с дочерью. Бывалый моряк оставил службу и один растил маленькую Ассоль.Соседи обходили стороной дом Лонгрена, считая его нелюдимым и злым человеком. Между тем отец с дочерью просто не были похожи на окружающих, но понять это смог лишь один человек.Им оказался отважный моряк Грей, осуществивший заветную мечту Ассоль: с детских лет она ждала человека, который приедет за ней на корабле под алыми парусами…",
  "iframe_url": "",
  "iframe_poster": null,
  "poster": "https://img.imgilall.me/movies/franchise/2/7/3/4/0/0/0/0/0/0/610x900_27340.jpg",
  "country": {
    "24": "СССР"
  },
  "collection": [],
  "genre": {
    "6": "Фэнтези",
    "8": "Мелодрама",
    "7": "Драма"
  },
  "director": [
    "Александр Птушко"
  ],
  "screenwriter": [
    "Алексей Нагорный",
    "Александр Юровский",
    "Александр Грин"
  ],
  "producer": [],
  "operator": [
    "Геннадий Цекавый",
    "Виктор Якушев"
  ],
  "composer": [
    "Игорь Морозов"
  ],
  "design": [
    "Леван Шенгелия",
    "Ольга Кручинина"
  ],
  "editor": [
    "И. Моронов"
  ],
  "actors": [
    "Анастасия Вертинская",
    "Василий Лановой",
    "Елена Черемшанова",
    "Александр Лупенко",
    "Иван Переверзев",
    "Сергей Мартинсон",
    "Николай Волков",
    "Сергей Ромоданов",
    "Олег Анофриев",
    "Павел Волков"
  ],
  "actors_dubl": [
    "Нина Гуляева"
  ],
  "trivia": [
    "Первая роль Анастасии Вертинской.",
    "Съёмки фильма проходили в Коктебеле, Ялте, Баку и Пицунде.",
    "Экранизация одноимённой повести-феерии Александра Грина.",
    "В съёмках фильма принимала участие баркентина «Альфа»."
  ],
  "trailers": [],
  "seasons": [],
  "voiceActing": [
    "Original"
  ],
  "subtitle": [],
  "parts": []
}
