{
  "id": 27353,
  "name": "Антибумер",
  "name_eng": "",
  "year": 2004,
  "slogan": "—",
  "age": "16+",
  "type": "film",
  "quality": "SD",
  "imdb": null,
  "imdb_id": null,
  "kinopoisk": "4.0",
  "kinopoisk_id": "430442",
  "world_art": null,
  "world_art_id": null,
  "time": "73 мин. / 01:13",
  "ads": false,
  "premier": null,
  "premier_rus": null,
  "availability": null,
  "activate_time": "2020-07-09 08:12:00",
  "budget": null,
  "fees_use": null,
  "fees_world": null,
  "fees_rus": null,
  "rate_mpaa": null,
  "description": "По бескрайним просторам России мчится жертва отечественного автосервиса — черный бумер с движком от Запорожца. Четверо друзей, яростные фанаты футбола, мечтают попасть в Португалию — на Евро-2004. И даже цепь роковых встреч с угрюмыми оборотнями в погонах, озверевшими любителями филармонии и оборзевшими звездами провинциального шоу-бизнеса не может им помешать. Полный вперед, глобус Португалии верно укажет путь! И неважно, какую дорогу выбирать. Земля-то круглая.",
  "iframe_url": "",
  "iframe_poster": null,
  "poster": "https://img.imgilall.me/movies/franchise/2/7/3/5/3/0/0/0/0/0/610x900_27353.jpg",
  "country": {
    "5": "Россия"
  },
  "collection": [],
  "genre": {
    "19": "Комедия"
  },
  "director": [
    "Петр Буслов",
    "Дмитрий Пучков"
  ],
  "screenwriter": [
    "Дмитрий Пучков"
  ],
  "producer": [],
  "operator": [
    "Даниил Гуревич"
  ],
  "composer": [],
  "design": [],
  "editor": [],
  "actors": [
    "Владимир Вдовиченков",
    "Андрей Мерзликин",
    "Максим Коновалов",
    "Сергей Горобченко",
    "Дмитрий Пучков",
    "Кирилл Болтаев",
    "Михаил Калинкин",
    "Василий Устюжанин",
    "Яна Шивкова"
  ],
  "actors_dubl": [],
  "trivia": [],
  "trailers": [],
  "seasons": [],
  "voiceActing": [
    "Original"
  ],
  "subtitle": [],
  "parts": []
}
