{
  "id": 27388,
  "name": "Сделано во Франции",
  "name_eng": "Made in France",
  "year": 2015,
  "slogan": "—",
  "age": "16+",
  "type": "film",
  "quality": "HD (720p)",
  "imdb": "6.2",
  "imdb_id": "4601102",
  "kinopoisk": "5.8",
  "kinopoisk_id": "901024",
  "world_art": null,
  "world_art_id": null,
  "time": "89 мин. / 01:29",
  "ads": false,
  "premier": "2015-10-04",
  "premier_rus": "2015-10-05",
  "availability": "2015-10-06",
  "activate_time": "2020-06-27 13:02:00",
  "budget": null,
  "fees_use": "$9 956",
  "fees_world": null,
  "fees_rus": null,
  "rate_mpaa": "R",
  "description": "Независимый журналист решает воспользоваться своей принадлежностью к мусульманской культуре с целью внедрения в группировку исламских фундаменталистов, обосновавшихся в окрестностях Парижа. Он сближается с четырьмя молодыми людьми, которым было поручено создать ячейку джихадистов и ждать сигнала к активным действиям.",
  "iframe_url": "",
  "iframe_poster": null,
  "poster": "https://img.imgilall.me/movies/franchise/2/7/3/8/8/0/0/0/0/0/610x900_27388.jpg",
  "country": {
    "9": "Франция"
  },
  "collection": [],
  "genre": {
    "25": "Криминал",
    "13": "Триллер",
    "7": "Драма"
  },
  "director": [
    "Николя Бухриф"
  ],
  "screenwriter": [
    "Николя Бухриф",
    "Эрик Беснард"
  ],
  "producer": [
    "Клеман Мисерез",
    "Матье Вартер",
    "Джеймс Велайс"
  ],
  "operator": [
    "Патрик Гирингелли"
  ],
  "composer": [
    "Робин Кудер"
  ],
  "design": [],
  "editor": [],
  "actors": [
    "Малик Зиди",
    "Дмитрий Сторож",
    "Франсуа Сивиль",
    "Нассим Си Ахмед",
    "Наиля Арзун",
    "Николас Грэндхомм",
    "Ассаад Буаб",
    "М. Уджай",
    "Лорент Александр",
    "Франк Гастамбид"
  ],
  "actors_dubl": [],
  "trivia": [
    "В связи с серией террористических актов в Париже 13 ноября 2015 года решением прокатчика Pretty Pictures и кинокомпании Radar Films французский релиз фильма, назначенный на 18 ноября, был отложен на неопределенный срок."
  ],
  "trailers": [],
  "seasons": [],
  "voiceActing": [
    "Victory-Films"
  ],
  "subtitle": [],
  "parts": []
}
