{
  "id": 27641,
  "name": "История Антуана Фишера",
  "name_eng": "Antwone Fisher",
  "year": 2002,
  "slogan": "«Fight fear. Face truth. Embrace life»",
  "age": "12+",
  "type": "film",
  "quality": "HD (720p)",
  "imdb": "7.3",
  "imdb_id": "0168786",
  "kinopoisk": "7.6",
  "kinopoisk_id": "6987",
  "world_art": null,
  "world_art_id": null,
  "time": "115 мин. / 01:55",
  "ads": false,
  "premier": "2002-09-12",
  "premier_rus": "2002-09-13",
  "availability": "2002-09-14",
  "activate_time": "2020-07-18 13:32:00",
  "budget": "$12 500 000",
  "fees_use": "$21 078 145",
  "fees_world": "+ $2 289 441 = $23 367 586",
  "fees_rus": null,
  "rate_mpaa": "PG-13",
  "description": "Антуан Фишер - охранник компании «Сони Пикчерс», который прославился, став известным сценаристом. Однако раньше он был моряком, списанным на берег из-за своего слишком агрессивного поведения.Тут Фишер решает круто поменять свою жизнь и найти родителей, которые бросили его еще в младенчестве. Но в ходе поисков он начинает понимать, что его жизнь меняется отнюдь не в лучшую сторону.",
  "iframe_url": "",
  "iframe_poster": null,
  "poster": "https://img.imgilall.me/movies/franchise/2/7/6/4/1/0/0/0/0/0/610x900_27641.jpg",
  "country": {
    "1": "США"
  },
  "collection": [],
  "genre": {
    "27": "Биографический",
    "7": "Драма"
  },
  "director": [
    "Дензел Вашингтон"
  ],
  "screenwriter": [
    "Антуан Фишер"
  ],
  "producer": [
    "Тодд Блэк",
    "Рэнда Хейнс",
    "Дензел Вашингтон"
  ],
  "operator": [
    "Филипп Русло"
  ],
  "composer": [
    "Майкл Дэнна"
  ],
  "design": [
    "Нельсон Коутс",
    "Дэвид Лазан",
    "Шэрен Дэвис"
  ],
  "editor": [
    "Конрад Бафф IV"
  ],
  "actors": [
    "Дерек Люк",
    "Дензел Вашингтон",
    "Джой Брайант",
    "Кевин Коннолли",
    "Салли Ричардсон-Уитфилд",
    "Верни Уотсон",
    "Виола Дэвис",
    "Малкольм Дэвид Келли",
    "Кори Ходжес",
    "Леонард Эрл Хауз"
  ],
  "actors_dubl": [],
  "trivia": [
    "Фильм стал режиссёрским дебютом для Дензела Вашингтона, и актёрским для Дерека Люка.",
    "Сценарий фильма был написан Антуаном Фишером с подачи продюсера Тодда Блэка в 1993 году, заинтересовавшимся его историей. Дензел Вашингтон проявил интерес к этому проекту в качестве режиссёра в 1996 году, после прихода Блэка со сценарием и предложением сыграть психолога. Вашингтон встречался с Фишером, долгое время обсуждал с ним проект фильма, после чего решился приступить к съёмкам.",
    "В 1996 году, во время работы в сувенирном магазине Sony Pictures Studios, начинающий актёр Дерек Люк встретил Фишера, работающего там охранником, подружился с ним и узнал о проекте съёмок фильма по его сценарию, познакомившись с самим Вашингтоном, спутавшим его с Фишером. После нескольких прослушиваний, Люк был утвержден на главную роль.",
    "Съёмки проходили в естественной обстановке в окрестностях Кливленда и заняли две недели, также захватив его окрестности — Гленвилл, пять недель в Сан-Диего, в том числе на базе ВМС США на 32-й улице, станции Норт-Айленд и пригороде Пойнт-Лома, на борту корабля USS Belleau Wood.",
    "Антуан Фишер следил за съёмками, находился на площадке каждый день и участвовал в монтаже."
  ],
  "trailers": [],
  "seasons": [],
  "voiceActing": [
    "Diva Universal"
  ],
  "subtitle": [],
  "parts": []
}
