{
  "id": 27686,
  "name": "Благодарю тебя",
  "name_eng": "Thank You",
  "year": 2011,
  "slogan": "«Husbands will be sorry...Wives say thank you!»",
  "age": null,
  "type": "film",
  "quality": "HD (720p)",
  "imdb": "4.7",
  "imdb_id": "1720254",
  "kinopoisk": "7.5",
  "kinopoisk_id": "566125",
  "world_art": null,
  "world_art_id": null,
  "time": "125 мин. / 02:05",
  "ads": false,
  "premier": "2011-04-07",
  "premier_rus": "2011-04-08",
  "availability": "2011-04-09",
  "activate_time": "2020-07-24 17:26:00",
  "budget": null,
  "fees_use": "$463 540",
  "fees_world": "+ $4 988 000 = $5 451 540",
  "fees_rus": null,
  "rate_mpaa": null,
  "description": "Радж, Йоги и Викрам - лучшие друзья, деловые партнеры, заядлые бабники и счастливо женаты мужчины. Счастливо, потому что их прекрасные жены понятия не имеют, что их мужья обманывают их с каждой встречной девушкой. Этот идеальный мир рушится, когда жена Раджа начинает подозревать своего мужа в неверности и нанимает учтивого частного детектива, Кишана. Кишан имеет репутацию человека, который спасает браки, наставляя мужей на на путь истинный.",
  "iframe_url": "",
  "iframe_poster": null,
  "poster": "https://img.imgilall.me/movies/franchise/2/7/6/8/6/0/0/0/0/0/610x900_27686.jpg",
  "country": {
    "26": "Индия"
  },
  "collection": [],
  "genre": {
    "19": "Комедия"
  },
  "director": [
    "Анис Базми"
  ],
  "screenwriter": [
    "Раджан Аггарвал",
    "Икрам Ахтар",
    "Нисар Ахтар"
  ],
  "producer": [
    "Твинкл Кханна",
    "Акшай Кумар",
    "Ронни Скривала"
  ],
  "operator": [
    "Рави Ядав"
  ],
  "composer": [
    "Притам Чакраборти",
    "Сендип Широдкар"
  ],
  "design": [
    "Ашок Локаре",
    "Светлана Якленец",
    "Рамакант Махаджан"
  ],
  "editor": [
    "Стивен Х. Бернард"
  ],
  "actors": [
    "Акшай Кумар",
    "Бобби Деол",
    "Сонам Капур",
    "Сунил Шетти",
    "Селина Джейтли",
    "Ирфан Кхан",
    "Рими Сен",
    "Малика Шерават",
    "Видья Балан",
    "Piyush Bassi"
  ],
  "actors_dubl": [],
  "trivia": [],
  "trailers": [],
  "seasons": [],
  "voiceActing": [
    "Рус. Проф. многоголосый"
  ],
  "subtitle": [],
  "parts": []
}
