{
  "id": 27722,
  "name": "Ряска",
  "name_eng": "Cheng feng po lang",
  "year": 2017,
  "slogan": "—",
  "age": null,
  "type": "film",
  "quality": "HD (720p)",
  "imdb": "6.4",
  "imdb_id": "6461514",
  "kinopoisk": "5.9",
  "kinopoisk_id": "1008550",
  "world_art": null,
  "world_art_id": null,
  "time": "102 мин. / 01:42",
  "ads": false,
  "premier": "2017-01-28",
  "premier_rus": "2017-01-29",
  "availability": "2017-01-30",
  "activate_time": "2020-07-18 07:34:00",
  "budget": null,
  "fees_use": "$471 575",
  "fees_world": "+ $152 422 689 = $152 894 264",
  "fees_rus": null,
  "rate_mpaa": null,
  "description": "Раллийный гонщик Сюй Тайлан после победного финиша произносит благодарственную речь. Он благодарит присутствующего там отца за то, что тот никогда не понимал сына, не поддерживал и заставлял заниматься нелюбимым делом, и это закалило характер будущего чемпиона. Затем он сажает отца машину, чтобы прокатить, начинает лихачить и попадает в аварию. Вся жизнь проносится перед глазами Тайлана, и вдруг он приходит в себя в 1998 году, где и встречает отца, своего ровесника.",
  "iframe_url": "",
  "iframe_poster": null,
  "poster": "https://img.imgilall.me/movies/franchise/2/7/7/2/2/0/0/0/0/0/610x900_27722.jpg",
  "country": {
    "19": "Китай"
  },
  "collection": [],
  "genre": {
    "11": "Фантастика",
    "19": "Комедия",
    "7": "Драма"
  },
  "director": [
    "Хань Хань"
  ],
  "screenwriter": [
    "Хань Хань"
  ],
  "producer": [],
  "operator": [
    "Chengma Zhiyuan"
  ],
  "composer": [
    "Пэн Фэй"
  ],
  "design": [],
  "editor": [],
  "actors": [
    "Дэн Чао",
    "Эдди Пэн",
    "Чжао Лиин",
    "Дун Цзыцзянь",
    "Цзинь Шицзя",
    "Чэн Чэн",
    "Лесли Чун",
    "Энджи Чи",
    "Чоу Юнь-Фат",
    "Гао Хуаян"
  ],
  "actors_dubl": [],
  "trivia": [],
  "trailers": [],
  "seasons": [],
  "voiceActing": [
    "Рус. Люб. многоголосый"
  ],
  "subtitle": [],
  "parts": []
}
