{
  "id": 27826,
  "name": "Аромат",
  "name_eng": "Ganginam",
  "year": 2012,
  "slogan": "«A Woman in Mystery. A Man in Jeopardy»",
  "age": null,
  "type": "film",
  "quality": "SD",
  "imdb": "5.8",
  "imdb_id": "2365847",
  "kinopoisk": "6.5",
  "kinopoisk_id": "678212",
  "world_art": null,
  "world_art_id": null,
  "time": "118 мин. / 01:58",
  "ads": false,
  "premier": "2012-04-11",
  "premier_rus": "2012-04-12",
  "availability": "2012-04-13",
  "activate_time": "2020-07-24 13:15:00",
  "budget": null,
  "fees_use": null,
  "fees_world": null,
  "fees_rus": null,
  "rate_mpaa": null,
  "description": "Детектив Кан подрабатывает как частный детектив, специализирующийся на супружеских изменах, и дела идут в гору, поскольку он славится своей прозорливостью и проницательностью. Но однажды к нему приходит прекрасная женщина Ким Су-джин. Она нанимает его, чтобы он сфотографировал её мужа во время измены. Отчаявшаяся женщина соблазняет детектива в номере мотеля, где предается разврату ее муж. Кан просыпается среди ночи и обнаруживает, что Су-джин мертва, как и ее муж.",
  "iframe_url": "",
  "iframe_poster": null,
  "poster": "https://img.imgilall.me/movies/franchise/2/7/8/2/6/0/0/0/0/0/610x900_27826.jpg",
  "country": {
    "16": "Корея Южная"
  },
  "collection": [],
  "genre": {
    "25": "Криминал",
    "24": "Детектив",
    "19": "Комедия",
    "13": "Триллер",
    "7": "Драма"
  },
  "director": [
    "Ким Хён-джун"
  ],
  "screenwriter": [
    "Ким Хён-джун",
    "Хван Сон-гу"
  ],
  "producer": [],
  "operator": [],
  "composer": [],
  "design": [],
  "editor": [
    "Ким Сон-мин"
  ],
  "actors": [
    "Пак Хи-сун",
    "Пак Щи-ён",
    "Чу Сан-ук",
    "Ким Джон-тхэ",
    "Ли Хан-ви",
    "Ли Гван-су",
    "Чха Су-ён",
    "Ким Юн-сон",
    "Чо Вон-хи",
    "Ким Гён-нён"
  ],
  "actors_dubl": [],
  "trivia": [],
  "trailers": [],
  "seasons": [],
  "voiceActing": [
    "Рус. Люб. многоголосый"
  ],
  "subtitle": [],
  "parts": []
}
