{
  "id": 27827,
  "name": "Последнее поручение",
  "name_eng": "Last Pickup",
  "year": 2015,
  "slogan": "«This was never the plan»",
  "age": null,
  "type": "film",
  "quality": "SD",
  "imdb": "6.4",
  "imdb_id": "3895838",
  "kinopoisk": null,
  "kinopoisk_id": "857226",
  "world_art": null,
  "world_art_id": null,
  "time": "72 мин. / 01:12",
  "ads": false,
  "premier": "2015-09-24",
  "premier_rus": "2015-09-25",
  "availability": "2015-09-26",
  "activate_time": "2020-07-17 21:35:00",
  "budget": null,
  "fees_use": null,
  "fees_world": null,
  "fees_rus": null,
  "rate_mpaa": null,
  "description": null,
  "iframe_url": "",
  "iframe_poster": null,
  "poster": "https://img.imgilall.me/movies/franchise/2/7/8/2/7/0/0/0/0/0/610x900_27827.jpg",
  "country": {
    "1": "США"
  },
  "collection": [],
  "genre": {
    "25": "Криминал",
    "24": "Детектив",
    "19": "Комедия",
    "17": "Боевик",
    "13": "Триллер",
    "7": "Драма"
  },
  "director": [
    "Maggie Surovell"
  ],
  "screenwriter": [
    "Courtney J. Camerota",
    "Чак Инглиш"
  ],
  "producer": [
    "Courtney J. Camerota",
    "Чак Инглиш"
  ],
  "operator": [
    "Сон Су-бом"
  ],
  "composer": [],
  "design": [],
  "editor": [],
  "actors": [
    "Николас Луна",
    "Чак Инглиш",
    "Дэйв Бобб",
    "Emma Craig",
    "Mick Gyure",
    "Паскаль Йен Пфистер",
    "Ким Парк",
    "Аманда Грир",
    "Йен Маккуиллан-Грэйс",
    "Рэйчел Филсуф"
  ],
  "actors_dubl": [],
  "trivia": [],
  "trailers": [],
  "seasons": [],
  "voiceActing": [
    "Рус. Люб. многоголосый"
  ],
  "subtitle": [],
  "parts": []
}
