{
  "id": 27882,
  "name": "Блюз больного кота",
  "name_eng": "Cat Sick Blues",
  "year": 2015,
  "slogan": "«All he needs is 9 lives»",
  "age": null,
  "type": "film",
  "quality": "HD (720p)",
  "imdb": "5.4",
  "imdb_id": "4185862",
  "kinopoisk": null,
  "kinopoisk_id": "907767",
  "world_art": null,
  "world_art_id": null,
  "time": "101 мин. / 01:41",
  "ads": false,
  "premier": "2015-10-29",
  "premier_rus": "2015-10-30",
  "availability": "2015-10-31",
  "activate_time": "2020-07-09 14:18:00",
  "budget": null,
  "fees_use": null,
  "fees_world": null,
  "fees_rus": null,
  "rate_mpaa": null,
  "description": "Смерть любимого кота вызывает у Теда умственное расстройство. Его поврежденный мозг рождает следующую мысль: для возвращения его кошачьего друга обратно —  нужно девять человеческих жизней.",
  "iframe_url": "",
  "iframe_poster": null,
  "poster": "https://img.imgilall.me/movies/franchise/2/7/8/8/2/0/0/0/0/0/610x900_27882.jpg",
  "country": {
    "4": "Австралия"
  },
  "collection": [],
  "genre": {
    "26": "Ужасы"
  },
  "director": [
    "Д.А. Джексон"
  ],
  "screenwriter": [
    "Эндрю Галлахер",
    "Д.А. Джексон"
  ],
  "producer": [
    "Harley Hoshi",
    "Д.А. Джексон",
    "Matthew C. Vaughan"
  ],
  "operator": [
    "Дэниэл Кауэн"
  ],
  "composer": [
    "Matthew Revert"
  ],
  "design": [
    "Harley Hoshi"
  ],
  "editor": [
    "Д.А. Джексон"
  ],
  "actors": [
    "Matthew C. Vaughan",
    "Шиан Дэнован",
    "Noah Moon",
    "Рэйчел Рай",
    "Хви Холл",
    "Cat Commander",
    "Дэней Суинбёрн",
    "Мэг Спенсер",
    "Jeni Bezuidenhout",
    "Эндрю Галлахер"
  ],
  "actors_dubl": [],
  "trivia": [],
  "trailers": [],
  "seasons": [],
  "voiceActing": [
    "Хихикающий доктор"
  ],
  "subtitle": [],
  "parts": []
}
