{
  "id": 28006,
  "name": "Какраки",
  "name_eng": "",
  "year": 2009,
  "slogan": "—",
  "age": "16+",
  "type": "film",
  "quality": "SD",
  "imdb": "6.2",
  "imdb_id": "1500724",
  "kinopoisk": "6.4",
  "kinopoisk_id": "451300",
  "world_art": null,
  "world_art_id": null,
  "time": "105 мин. / 01:45",
  "ads": false,
  "premier": "2009-09-04",
  "premier_rus": "2009-10-15",
  "availability": "2009-10-16",
  "activate_time": "2020-07-18 12:27:00",
  "budget": null,
  "fees_use": null,
  "fees_world": "$244 706",
  "fees_rus": "$246 119",
  "rate_mpaa": null,
  "description": "Когда-то Михал Михалыч хотел стать поэтом, а стал чиновником. Теперь у него есть жизненный опыт, семья, деньги, статус, власть. Но нет ощущения детской радости, когда человек бывает счастлив только от того, что наступило утро или идет дождь. И вдруг он встречает Настю, которая никогда не ела «какраков»…",
  "iframe_url": "",
  "iframe_poster": null,
  "poster": "https://img.imgilall.me/movies/franchise/2/8/0/0/6/0/0/0/0/0/610x900_28006.jpg",
  "country": {
    "5": "Россия"
  },
  "collection": [],
  "genre": {
    "19": "Комедия",
    "7": "Драма"
  },
  "director": [
    "Илья Демичев"
  ],
  "screenwriter": [
    "Илья Демичев"
  ],
  "producer": [
    "Андрей Клишас",
    "Нана Геташвили",
    "Саида Медведева"
  ],
  "operator": [
    "Михаил Агранович"
  ],
  "composer": [
    "Эдуард Артемьев"
  ],
  "design": [
    "Эдуард Галкин",
    "Светлана Вольтер",
    "Константин Ляхов"
  ],
  "editor": [
    "Сергей Иванов",
    "Ольга Прошкина"
  ],
  "actors": [
    "Михаил Ефремов",
    "Наталия Вдовина",
    "Елена Сафонова",
    "Сергей Колтаков",
    "Сергей Газаров",
    "Ольга Сунн",
    "Александр Самойленко",
    "Александр Баширов",
    "Татьяна Кравченко",
    "Леонид Михайловский"
  ],
  "actors_dubl": [],
  "trivia": [],
  "trailers": [],
  "seasons": [],
  "voiceActing": [
    "Original"
  ],
  "subtitle": [],
  "parts": []
}
