{
  "id": 28082,
  "name": "Радости и печали маленького лорда",
  "name_eng": "",
  "year": 2003,
  "slogan": "—",
  "age": null,
  "type": "film",
  "quality": "SD",
  "imdb": "7.2",
  "imdb_id": "0372484",
  "kinopoisk": "7.9",
  "kinopoisk_id": "40699",
  "world_art": null,
  "world_art_id": null,
  "time": "105 мин. / 01:45",
  "ads": false,
  "premier": null,
  "premier_rus": null,
  "availability": null,
  "activate_time": "2020-07-09 09:30:00",
  "budget": null,
  "fees_use": null,
  "fees_world": null,
  "fees_rus": null,
  "rate_mpaa": null,
  "description": "Маленький американский городок позапрошлого века. Седрик - восьмилетний мальчик, сын скромной учительницы музыки. Он добр и справедлив, его уважают друзья. Мать и ее рассказы об отце - и есть вся его семья.Однажды он узнает, что за океаном, в огромном английском поместье живет старый граф, в доме которого есть такой же портрет молодого офицера, как и на столе у его матери…",
  "iframe_url": "",
  "iframe_poster": null,
  "poster": "https://img.imgilall.me/movies/franchise/2/8/0/8/2/0/0/0/0/0/610x900_28082.jpg",
  "country": {
    "5": "Россия"
  },
  "collection": [],
  "genre": {
    "33": "Семейный"
  },
  "director": [
    "Иван Попов"
  ],
  "screenwriter": [
    "Фрэнсис Ходжсон Бёрнетт"
  ],
  "producer": [
    "Александр Атанесян"
  ],
  "operator": [],
  "composer": [
    "Вадим Биберган"
  ],
  "design": [],
  "editor": [],
  "actors": [
    "Станислав Говорухин",
    "Алексей Весёлкин",
    "Ольга Будина",
    "Олег Шкловский",
    "Николай Волков мл.",
    "Сергей Газаров",
    "Алёна Хмельницкая",
    "Екатерина Васильева",
    "Ярослав Бойко",
    "Михаил Палатник"
  ],
  "actors_dubl": [],
  "trivia": [],
  "trailers": [],
  "seasons": [],
  "voiceActing": [
    "Original"
  ],
  "subtitle": [],
  "parts": []
}
