{
  "id": 28168,
  "name": "СуперБоб",
  "name_eng": "SuperBob",
  "year": 2015,
  "slogan": "—",
  "age": null,
  "type": "film",
  "quality": "HD (720p)",
  "imdb": "5.7",
  "imdb_id": "3055402",
  "kinopoisk": "5.3",
  "kinopoisk_id": "779352",
  "world_art": null,
  "world_art_id": null,
  "time": "82 мин. / 01:22",
  "ads": false,
  "premier": "2015-10-01",
  "premier_rus": "2015-10-02",
  "availability": "2015-10-03",
  "activate_time": "2020-07-09 15:40:00",
  "budget": "£ 1 000 000",
  "fees_use": null,
  "fees_world": null,
  "fees_rus": null,
  "rate_mpaa": null,
  "description": "Один день из жизни единственного в Лондоне (и во всём мире) супергероя — застенчивого бывшего почтальона, а ныне госслужащего Боба Кеннера.  Его первое за 6 лет свидание рискует быть сорванным, потому что личная жизнь никак не вяжется со спасением мира.",
  "iframe_url": "",
  "iframe_poster": null,
  "poster": "https://img.imgilall.me/movies/franchise/2/8/1/6/8/0/0/0/0/0/610x900_28168.jpg",
  "country": {
    "2": "Великобритания"
  },
  "collection": [],
  "genre": {
    "19": "Комедия",
    "17": "Боевик",
    "8": "Мелодрама"
  },
  "director": [
    "Джон Древер"
  ],
  "screenwriter": [
    "Уильям Бриджес",
    "Бретт Голдстин",
    "Джон Древер"
  ],
  "producer": [
    "Джон Древер",
    "Уэйн Марк Годфри",
    "Роберт Джонс"
  ],
  "operator": [
    "Маттиас Нюберг"
  ],
  "composer": [
    "Rupert Christie"
  ],
  "design": [
    "Дженис Флинт",
    "Chuckie McEwan",
    "Линдсэй Паг"
  ],
  "editor": [
    "Кэти Брайер"
  ],
  "actors": [
    "Бретт Голдстин",
    "Кэтрин Тейт",
    "Наталия Тена",
    "Лора Хэддок",
    "Рут Шин",
    "Чеслав Балон",
    "Джейсон Барнетт",
    "Камилла Бипут",
    "Дэвид Бротон",
    "Пэт Карни"
  ],
  "actors_dubl": [],
  "trivia": [],
  "trailers": [],
  "seasons": [],
  "voiceActing": [
    "Ozz"
  ],
  "subtitle": [],
  "parts": []
}
