{
  "id": 2829,
  "name": "Куинси",
  "name_eng": "Quincy",
  "year": 2018,
  "slogan": "«A Life Beyond Measure»",
  "age": "12+",
  "type": "film",
  "quality": "FHD (1080p)",
  "imdb": "7.6",
  "imdb_id": "7440432",
  "kinopoisk": "7.5",
  "kinopoisk_id": "1183610",
  "world_art": null,
  "world_art_id": null,
  "time": "124 мин. / 02:04",
  "ads": false,
  "premier": "2018-09-09",
  "premier_rus": null,
  "availability": null,
  "activate_time": "2018-10-12 11:26:00",
  "budget": null,
  "fees_use": null,
  "fees_world": null,
  "fees_rus": null,
  "rate_mpaa": null,
  "description": "Интимный взгляд на жизнь Куинси Джонса, чья история неразрывно вплетена в ткань Америки.",
  "iframe_url": "",
  "iframe_poster": null,
  "poster": "https://img.imgilall.me/movies/franchise/2/8/2/9/0/0/0/0/0/0/610x900_2829.jpg",
  "country": {
    "1": "США"
  },
  "collection": {
    "40": "Netflix"
  },
  "genre": {
    "54": "Документальный",
    "27": "Биографический",
    "10": "Зарубежный"
  },
  "director": [
    "Алан Хикс",
    "Рашида Джонс"
  ],
  "screenwriter": [
    "Алан Хикс",
    "Рашида Джонс"
  ],
  "producer": [
    "Паула ДюПре Песмен",
    "Бен Котнер",
    "Кристан Крокер-Райлли"
  ],
  "operator": [
    "Рори Маркс Андерсон"
  ],
  "composer": [],
  "design": [],
  "editor": [
    "Эндрю МакАллистер",
    "Уилл Знидарич"
  ],
  "actors": [
    "Куинси Джонс",
    "Рашида Джонс",
    "Карим Абдул-Джаббар",
    "Кларенс Авант",
    "Хлоя Бэйли",
    "Холли Бэйли",
    "Тони Беннетт",
    "Бейонсе",
    "Lina Bielsten",
    "Мэри Джей Блайдж"
  ],
  "actors_dubl": [],
  "trivia": [],
  "trailers": [],
  "seasons": [],
  "voiceActing": [
    "HDRezka Studio"
  ],
  "subtitle": [],
  "parts": []
}
