{
  "id": 28340,
  "name": "Игра в смерть",
  "name_eng": "The Dead Pool",
  "year": 1988,
  "slogan": "«Dirty Harry Just Learned A New Game»",
  "age": "16+",
  "type": "film",
  "quality": "HD (720p)",
  "imdb": "6.3",
  "imdb_id": "0094963",
  "kinopoisk": "6.6",
  "kinopoisk_id": "6043",
  "world_art": null,
  "world_art_id": null,
  "time": "91 мин. / 01:31",
  "ads": false,
  "premier": "1988-07-13",
  "premier_rus": "1988-07-14",
  "availability": "1988-07-15",
  "activate_time": "2020-07-09 12:40:00",
  "budget": "$31 000 000",
  "fees_use": "$37 903 295",
  "fees_world": null,
  "fees_rus": null,
  "rate_mpaa": "R",
  "description": "Быть известным не входит в планы детектива Гарри Кэллахана из Сан-Франциско. Его не радует перспектива оказаться в одной компании с рок-звездой, кинокритиком и известным телевизионным ведущим. К тому же все трое уже мертвы.Эти знаменитости были в тайном, так называемом «Списке мертвецов», из-за которого заключались пари и делались ставки. А теперь Гарри обнаружил, что в этом списке еще одно хорошо знакомое ему имя: его собственное.",
  "iframe_url": "",
  "iframe_poster": null,
  "poster": "https://img.imgilall.me/movies/franchise/2/8/3/4/0/0/0/0/0/0/610x900_28340.jpg",
  "country": {
    "1": "США"
  },
  "collection": [],
  "genre": {
    "25": "Криминал",
    "24": "Детектив",
    "17": "Боевик",
    "13": "Триллер"
  },
  "director": [
    "Бадди Ван Хорн"
  ],
  "screenwriter": [
    "Стив Шэрон",
    "Хэрри Джулиан Финк",
    "Рита М. Финк"
  ],
  "producer": [
    "Дэвид Валдес"
  ],
  "operator": [
    "Джек Н. Грин"
  ],
  "composer": [
    "Лало Шифрин"
  ],
  "design": [
    "Эдвард С. Карфаньо",
    "Томас Л. Ройсден"
  ],
  "editor": [
    "Рон Спанг"
  ],
  "actors": [
    "Клинт Иствуд",
    "Патриша Кларксон",
    "Лиам Нисон",
    "Ивэн С. Ким",
    "Дэвид Хант",
    "Майкл Карри",
    "Майкл Гудвин",
    "Дарвин Джиллетт",
    "Энтони Чарнота",
    "Кристофер П. Бил"
  ],
  "actors_dubl": [
    "Виктор Петров",
    "Ольга Плетнёва",
    "Леонид Белозорович",
    "Василий Куприянов",
    "Юрий Маляров"
  ],
  "trivia": [
    "Джим Керри в те годы был никому не известен, и в титрах его указали как «Джеймс Керри»."
  ],
  "trailers": [],
  "seasons": [],
  "voiceActing": [
    "Diva Universal"
  ],
  "subtitle": [],
  "parts": []
}
