{
  "id": 28449,
  "name": "Роковой выбор",
  "name_eng": "Blackout",
  "year": 2007,
  "slogan": "«Когда умирает последняя надежда...»",
  "age": "18+",
  "type": "film",
  "quality": "HD (720p)",
  "imdb": "5.0",
  "imdb_id": "0844666",
  "kinopoisk": "5.6",
  "kinopoisk_id": "261030",
  "world_art": null,
  "world_art_id": null,
  "time": "82 мин. / 01:22",
  "ads": false,
  "premier": "2008-06-04",
  "premier_rus": "2008-05-29",
  "availability": "2008-05-30",
  "activate_time": "2020-06-27 09:48:00",
  "budget": null,
  "fees_use": null,
  "fees_world": null,
  "fees_rus": "$296 411",
  "rate_mpaa": "R",
  "description": "Клодия торопится в больницу, где умирает ее бабушка. Томми торопится к своей девушке с намерением помочь ей убежать из дома от пьющего и терроризирующего ее отца. Карл должен успеть домой до приезда его подруги и дочери, чтобы устранить следы того, что происходило дома в их отсутствие.Другими словами все трое торопятся в разных направления, но оказываются в застрявшем лифте абсолютно пустого здания. Сначала это походит на неловкое неудобство, но затем превращается в настоящий кошмар. Неожиданно двое из них обнаруживают, что третий - серийный убийца…",
  "iframe_url": "",
  "iframe_poster": null,
  "poster": "https://img.imgilall.me/movies/franchise/2/8/4/4/9/0/0/0/0/0/610x900_28449.jpg",
  "country": {
    "1": "США"
  },
  "collection": [],
  "genre": {
    "26": "Ужасы",
    "24": "Детектив",
    "13": "Триллер"
  },
  "director": [
    "Ригоберто Кастаньеда"
  ],
  "screenwriter": [
    "Эд Догерти"
  ],
  "producer": [
    "Валерио Морабито",
    "Дэвид Бергштейн",
    "Джузеппе Чоккарелли"
  ],
  "operator": [
    "Алехандро Мартинес"
  ],
  "composer": [
    "Райнхольд Хайль",
    "Джонни Клаймек"
  ],
  "design": [
    "Бернардо Трухильо",
    "Эльза Фишер"
  ],
  "editor": [
    "Хорхе Макая"
  ],
  "actors": [
    "Эмбер Тэмблин",
    "Эйдан Гиллен",
    "Арми Хаммер",
    "Кэти Стюарт",
    "Мабель Ривера",
    "Клаудия Бассольс",
    "Кейт Дженнингс Грант",
    "Эмма Прескотт",
    "Эрин Гузовски",
    "Джим Арнольд"
  ],
  "actors_dubl": [
    "Мария Овчинникова",
    "Иван Агапов",
    "Василий Зотов",
    "Людмила Ильина",
    "Светлана Старикова"
  ],
  "trivia": [],
  "trailers": [],
  "seasons": [],
  "voiceActing": [
    "Cartoon Network"
  ],
  "subtitle": [],
  "parts": []
}
