{
  "id": 28595,
  "name": "Мне с вами по пути",
  "name_eng": "",
  "year": 2017,
  "slogan": "—",
  "age": "12+",
  "type": "film",
  "quality": "FHD (1080p)",
  "imdb": null,
  "imdb_id": null,
  "kinopoisk": "6.3",
  "kinopoisk_id": "1103820",
  "world_art": null,
  "world_art_id": null,
  "time": "—",
  "ads": false,
  "premier": null,
  "premier_rus": "2017-12-09",
  "availability": "2017-12-10",
  "activate_time": "2020-10-22 15:12:00",
  "budget": null,
  "fees_use": null,
  "fees_world": null,
  "fees_rus": null,
  "rate_mpaa": null,
  "description": "Надя училась в медицинском, но стать врачом не смогла. Девушка вынуждена работать в продуктовом магазине. Хозяин магазина пристает к Наде с ухаживаниями, но она отвергает назойливого жениха. Однажды вертолетчик Артем заступается в магазине за честь Нади и, в результате, разбивает витрину с дорогими спиртными напитками. Долг за испорченный товар хозяин вешает на Надю.Артем вскоре попадает в аварию и оказывается в инвалидном кресле. Его бросает любимая девушка. А Надя, чтобы выплатить хозяину магазина деньги, устраивается на вторую работу - патронажной медсестрой. Ее первым подопечным становится Артем, который винит ее во всех своих бедах…",
  "iframe_url": "",
  "iframe_poster": null,
  "poster": "https://img.imgilall.me/movies/franchise/2/8/5/9/5/0/0/0/0/0/610x900_28595.jpg",
  "country": {
    "5": "Россия"
  },
  "collection": [],
  "genre": {
    "8": "Мелодрама"
  },
  "director": [
    "Александр Высоковский"
  ],
  "screenwriter": [
    "Василий Абдрашитов",
    "Александр Высоковский",
    "Валерий Дейцев"
  ],
  "producer": [
    "Владимир Игнатьев",
    "Евгений Арендаревич",
    "Ольга Шалик"
  ],
  "operator": [
    "Михаил Онипенко"
  ],
  "composer": [
    "Игорь Щербаков"
  ],
  "design": [
    "Наталья Гурьянова",
    "Ирина Гришан",
    "Антон Харченко"
  ],
  "editor": [
    "Юрий Бутько"
  ],
  "actors": [
    "Елена Полянская",
    "Илья Ермолов",
    "Аделина Шарипова",
    "Олег Гарбуз",
    "Евгений Казакевич",
    "Сергей Власов",
    "Дмитрий Кравчук",
    "Зоя Фромичева-Корсакова",
    "Сергей Кравец",
    "Даниил Черник"
  ],
  "actors_dubl": [],
  "trivia": [],
  "trailers": [],
  "seasons": [],
  "voiceActing": [
    "Рус. Оригинальный"
  ],
  "subtitle": [],
  "parts": []
}
