{
  "id": 28719,
  "name": "Судья",
  "name_eng": "",
  "year": 2015,
  "slogan": "«Общество, у которого нет шансов»",
  "age": "18+",
  "type": "film",
  "quality": "HD (720p)",
  "imdb": null,
  "imdb_id": null,
  "kinopoisk": "6.5",
  "kinopoisk_id": "923504",
  "world_art": null,
  "world_art_id": null,
  "time": "22 мин.",
  "ads": false,
  "premier": null,
  "premier_rus": null,
  "availability": null,
  "activate_time": "2020-06-27 11:15:00",
  "budget": null,
  "fees_use": null,
  "fees_world": null,
  "fees_rus": null,
  "rate_mpaa": null,
  "description": "Крепкая как бетон и устоявшаяся правоохранительная система дала трещину, когда обычный парень взял в руки оружие и отомстил продажной судье за то, что она вынесла несправедливый уголовный приговор его отцу, который позже умер в тюрьме.",
  "iframe_url": "",
  "iframe_poster": null,
  "poster": "https://img.imgilall.me/movies/franchise/2/8/7/1/9/0/0/0/0/0/610x900_28719.jpg",
  "country": {
    "5": "Россия"
  },
  "collection": [],
  "genre": {
    "53": "Короткометражный",
    "7": "Драма"
  },
  "director": [
    "Ийли Нэйа"
  ],
  "screenwriter": [
    "Ийли Нэйа"
  ],
  "producer": [],
  "operator": [
    "Кирилл Князев"
  ],
  "composer": [],
  "design": [
    "Анна Козина"
  ],
  "editor": [
    "Ийли Нэйа",
    "Кирилл Князев"
  ],
  "actors": [
    "Светлана Демьянова",
    "Дмитрий Андросов",
    "Евгений Дементьев",
    "Ийли Нэйа",
    "Анна Козина"
  ],
  "actors_dubl": [],
  "trivia": [],
  "trailers": [],
  "seasons": [],
  "voiceActing": [
    "Original"
  ],
  "subtitle": [],
  "parts": []
}
