{
  "id": 28779,
  "name": "Солдатики",
  "name_eng": "Small Soldiers",
  "year": 1998,
  "slogan": "«Smart, Funny and Action-Packed»",
  "age": "12+",
  "type": "film",
  "quality": "HD (720p)",
  "imdb": "6.2",
  "imdb_id": "0",
  "kinopoisk": "7.4",
  "kinopoisk_id": "1676",
  "world_art": null,
  "world_art_id": null,
  "time": "108 мин. / 01:48",
  "ads": false,
  "premier": "1998-07-10",
  "premier_rus": "1998-07-11",
  "availability": "1998-07-12",
  "activate_time": "2020-07-18 10:20:00",
  "budget": "$40 000 000",
  "fees_use": "$54 682 547",
  "fees_world": null,
  "fees_rus": null,
  "rate_mpaa": "PG-13",
  "description": "Корпорация «Глоботек» задействовала в производстве игрушек военные технологии, один из разработчиков вставил в новую серию солдатиков сверхсовременные самообучающиеся микропроцессоры. В результате в магазин поступили злые десантники, запрограммированные воевать с добрыми фантастическими существами гаргонитами. Первым с ними столкнулся сын владельца маленького магазина игрушек, принявший сторону гаргонитов. Десантники, поначалу не трогавшие «гражданских лиц» вскоре перешли на совсем неигрушечные боевые действия и против людей. Мальчику, соседской девочке, а затем и их родителям пришлось вступить в бой. К ним присоединились и горе-разработчики, слишком поздно уразумевшие, каких бед они натворили.Даже мирные гаргониты, запрограммированные на то, чтобы прятаться, не выдержали и взялись за оружие.",
  "iframe_url": "",
  "iframe_poster": null,
  "poster": "https://img.imgilall.me/movies/franchise/2/8/7/7/9/0/0/0/0/0/610x900_28779.jpg",
  "country": {
    "1": "США"
  },
  "collection": [],
  "genre": {
    "9": "Приключения",
    "11": "Фантастика",
    "33": "Семейный",
    "19": "Комедия",
    "17": "Боевик"
  },
  "director": [
    "Джо Данте"
  ],
  "screenwriter": [
    "Гэвин Скотт",
    "Адам Рифкин",
    "Тед Эллиот"
  ],
  "producer": [
    "Майкл Финнелл",
    "Колин Уилсон",
    "Пол Дисон"
  ],
  "operator": [
    "Джейми Андерсон"
  ],
  "composer": [
    "Джерри Голдсмит"
  ],
  "design": [
    "Уильям Сэнделл",
    "Марк В. Мэнсбридж",
    "Брэд Рикер"
  ],
  "editor": [
    "Маршалл Харви",
    "Майкл Тау"
  ],
  "actors": [
    "Дэвид Кросс",
    "Джей Мор",
    "Александра Уилсон",
    "Дэнис Лири",
    "Грегори Смит",
    "Дик Миллер",
    "Кирстен Данст",
    "Джейкоб Смит",
    "Джонатан Боак",
    "Кевин Данн"
  ],
  "actors_dubl": [],
  "trivia": [
    "В фильме звучит музыка группы Led Zeppelin, участники которой с неохотой дают разрешение на использование своей музыки в фильмах и играх.",
    "На роль Линка вначале утвердили Ричарда Джэкела, но во время съёмок 14 июня 1997 актёр умер в возрасте 70 лет.",
    "Переключая телевизионные каналы, горгониты натыкаются на старый фильм ужасов — «Ужас Тролленберга» (Квентин Лоуренс, 1958).",
    "Фильм посвящен Филу Хартмену."
  ],
  "trailers": [],
  "seasons": [],
  "voiceActing": [
    "Diva Universal"
  ],
  "subtitle": [],
  "parts": []
}
