{
  "id": 288,
  "name": "Неудержимые 3",
  "name_eng": "The Expendables 3",
  "year": 2014,
  "slogan": "«Сборная Голливуда снова в игре»",
  "age": "12+",
  "type": "film",
  "quality": "FHD (1080p)",
  "imdb": "6.1",
  "imdb_id": "2333784",
  "kinopoisk": "6.0",
  "kinopoisk_id": "696813",
  "world_art": null,
  "world_art_id": null,
  "time": "126 мин. / 02:06",
  "ads": false,
  "premier": "2014-08-04",
  "premier_rus": "2014-08-14",
  "availability": null,
  "activate_time": "2018-06-07 17:45:35",
  "budget": "$90 000 000",
  "fees_use": "$39 322 544",
  "fees_world": "$214 657 577",
  "fees_rus": "$7 364 302",
  "rate_mpaa": "PG-13",
  "description": "Барни, Кристмас и остальные члены команды сходятся лицом к лицу с Конрадом Стоунбэнксом, многие годы назад основавшем вместе с Барни команду «Неудержимых». Впоследствии Стоунбэнкс становится безжалостным торговцем оружием и тем самым превращается в человека, которого Барни было поручено убить. Или по крайней мере он сам так считал. Теперь Стоунбэнкс, один раз уже сумевший обмануть смерть, поставил себе цель покончить с «Неудержимыми» — но у Барни на этот счет свои планы. Барни решает, что в его борьбе «свежий» подход можно противопоставить старым методам, и пополняет ряды людьми, которые моложе, быстрее и технически более подкованные. Так у членов команды «Неудержимых» начинается новая эра. Последняя миссия превращается в столкновение между представителями классической старой школы и экспертами в высоких технологиях.",
  "iframe_url": "",
  "iframe_poster": null,
  "poster": "https://img.imgilall.me/movies/franchise/2/8/8/0/0/0/0/0/0/0/610x900_288.jpg",
  "country": {
    "1": "США",
    "9": "Франция",
    "33": "Болгария"
  },
  "collection": [],
  "genre": {
    "9": "Приключения",
    "41": "Блокбастер",
    "17": "Боевик",
    "13": "Триллер",
    "10": "Зарубежный"
  },
  "director": [
    "Патрик Хьюз"
  ],
  "screenwriter": [
    "Сильвестр Сталлоне",
    "Крейтон Ротенбергер",
    "Кэтрин Бенедикт"
  ],
  "producer": [
    "Ави Лернер",
    "Дэнни Лернер",
    "Джон Томпсон"
  ],
  "operator": [
    "Питер Мензиес мл."
  ],
  "composer": [
    "Брайан Тайлер"
  ],
  "design": [
    "Дэниэл Т. Доррэнс",
    "Кристен Адамс",
    "Том Браун"
  ],
  "editor": [
    "Шон Албертсон",
    "Пол Харб"
  ],
  "actors": [
    "Сильвестр Сталлоне",
    "Джейсон Стэйтем",
    "Мэл Гибсон",
    "Харрисон Форд",
    "Антонио Бандерас",
    "Уэсли Снайпс",
    "Дольф Лундгрен",
    "Терри Крюс",
    "Арнольд Шварценеггер",
    "Рэнди Кутюр"
  ],
  "actors_dubl": [
    "Владимир Антоник",
    "Владимир Зайцев",
    "Александр Рахленко",
    "Владимир Левашёв",
    "Всеволод Кузнецов"
  ],
  "trivia": [
    "Планировалось участие Жан-Клода Ван Дамма в роли брата-близнеца Жана Вилена — Клода Вилена.",
    "Клинту Иствуду предлагали одну из ролей, но он отказался.",
    "Дуэйн Джонсон и Халк Хоган были согласны сыграть в фильме, но им отказали.",
    "В фильме мог сыграть Стивен Сигал.",
    "Брюс Уиллис должен был сыграть роль Чёрча за гонорар в $ 3 миллиона (по $ 750,000 за каждый из четырех съемочных дней). Когда он потребовал $ 1 миллион в день, Сильвестр Сталлоне и продюсеры фильма отказали ему, после чего он покинул проект. Буквально через 3 дня Сталлоне заполучил на схожую роль Харрисона Форда.",
    "Сильвестр Сталлоне предлагал роль второго плана Джеки Чану, но тот отказался, потому что хотел сыграть одну из главных ролей.",
    "Во время съемок сцены в грузовике с Джейсоном Стэйтемом произошла авария — из-за того, что отказали тормоза, грузовик упал в море. Актер не пострадал.",
    "Николас Кейдж рассматривался на роль Бонапарта, прежде чем эту роль получил Келси Грэммер.",
    "Микки Рурку предлагали вновь сыграть роль Тула.",
    "На роль Камиллы рассматривалась Милла Йовович, но в итоге она покинула проект.",
    "Съёмочный период Арнольда Шварценеггера составил чуть больше недели.",
    "Лукас Тилл пробовался на роль Смайли, которую позже получил Келлан Латс.",
    "Когда у Дока (Уэсли Снайпс) спрашивают, за что он попал в тюрьму, тот отвечает, что за неуплату налогов. Снайпс действительно был осужден на три года и отсидел в тюрьме за неуплату налогов.",
    "Когда Барни Росс допрашивал Конрада Стоунбэнкса в фургоне, на заднем плане висит костюм N7 (фото), который принадлежит капитану Шепарду, главному герою компьютерной игры Mass Effect.",
    "В этой части «Неудержимые» летают на перекрашенном в цвета своей команды советском военно-транспортном самолете Ан-26. Обозначения типа самолета сохранены на киле и в носовой части фюзеляжа. В некоторых сценах в кабине (в частности, за спиной первого пилота) можно заметить надписи на русском.",
    "Мэлу Гибсону предлагали не только роль главного злодея, но еще и место режиссера проекта, но от последней должности он все же отказался."
  ],
  "trailers": [],
  "seasons": [],
  "voiceActing": [
    "Рус. Дублированный",
    "Д. Есарев",
    "Eng.Original",
    "Eng. Orig. with Commentary"
  ],
  "subtitle": [
    "Eng. full"
  ],
  "parts": [
    288,
    289,
    290
  ]
}
