{
  "id": 29023,
  "name": "Ма Ма",
  "name_eng": "Ma ma",
  "year": 2015,
  "slogan": "—",
  "age": "18+",
  "type": "film",
  "quality": "HD (720p)",
  "imdb": "6.4",
  "imdb_id": "0",
  "kinopoisk": "7.0",
  "kinopoisk_id": "821465",
  "world_art": null,
  "world_art_id": null,
  "time": "111 мин. / 01:51",
  "ads": false,
  "premier": "2015-09-11",
  "premier_rus": "2015-12-03",
  "availability": "2015-12-04",
  "activate_time": "2020-07-24 14:33:00",
  "budget": null,
  "fees_use": "$47 258",
  "fees_world": "+ $1 090 163 = $1 137 421",
  "fees_rus": "$27 087",
  "rate_mpaa": "R",
  "description": "Двое мужчин, одна женщина и один десятилетний ребенок переживают потери и триумфы, спорят о футболе, борются со смертью и до смерти любят друг друга. Магда - талантливая учительница и любящая мама, собирает все силы, чтобы победить болезнь и вернуть себе право жить и быть счастливой.",
  "iframe_url": "",
  "iframe_poster": null,
  "poster": "https://img.imgilall.me/movies/franchise/2/9/0/2/3/0/0/0/0/0/610x900_29023.jpg",
  "country": {
    "3": "Испания",
    "9": "Франция"
  },
  "collection": [],
  "genre": {
    "7": "Драма"
  },
  "director": [
    "Хулио Медем"
  ],
  "screenwriter": [
    "Хулио Медем"
  ],
  "producer": [
    "Пенелопа Крус",
    "Альваро Лонгория",
    "Хулио Медем"
  ],
  "operator": [
    "Кико де ла Рика"
  ],
  "composer": [
    "Альберто Иглесиас"
  ],
  "design": [
    "Монце Санс",
    "Карлос Диас"
  ],
  "editor": [
    "Иван Аледо",
    "Хулио Медем"
  ],
  "actors": [
    "Пенелопа Крус",
    "Луис Тосар",
    "Асьер Эчеандиа",
    "Тео Планель",
    "Алекс Брендемюль",
    "Анна Хименес",
    "Елена Карранса",
    "Nico de Vicente",
    "Сильвия Абаскаль",
    "Мигель Мота"
  ],
  "actors_dubl": [],
  "trivia": [],
  "trailers": [],
  "seasons": [],
  "voiceActing": [
    "Diva Universal"
  ],
  "subtitle": [],
  "parts": []
}
