{
  "id": 29039,
  "name": "Пир",
  "name_eng": "Feast",
  "year": 2005,
  "slogan": "«Они голодны. Вы их обед»",
  "age": "18+",
  "type": "film",
  "quality": "HD (720p)",
  "imdb": "6.3",
  "imdb_id": "0",
  "kinopoisk": "5.8",
  "kinopoisk_id": "85553",
  "world_art": null,
  "world_art_id": null,
  "time": "83 мин. / 01:23",
  "ads": false,
  "premier": "2005-10-14",
  "premier_rus": "2005-10-15",
  "availability": "2005-10-16",
  "activate_time": "2020-07-18 07:06:00",
  "budget": "$3 200 000",
  "fees_use": "$56 131",
  "fees_world": "+ $285 677 = $341 808",
  "fees_rus": null,
  "rate_mpaa": "R",
  "description": "Захудалый бар в пустыне, в котором в этот момент оказались актёр, модель, тренер, официантка и несколько странных личностей, подвергается нападению неизвестных кровожадных существ. Веская причина, чтобы покинуть это место, но для начала нужно хотя бы остаться в живых.",
  "iframe_url": "",
  "iframe_poster": null,
  "poster": "https://img.imgilall.me/movies/franchise/2/9/0/3/9/0/0/0/0/0/610x900_29039.jpg",
  "country": {
    "1": "США"
  },
  "collection": [],
  "genre": {
    "26": "Ужасы",
    "19": "Комедия",
    "17": "Боевик",
    "13": "Триллер"
  },
  "director": [
    "Джон Гулагер"
  ],
  "screenwriter": [
    "Патрик Мелтон",
    "Маркус Данстэн"
  ],
  "producer": [
    "Майкл Лихи",
    "Джоэль Сойзон",
    "Бен Аффлек"
  ],
  "operator": [
    "Томас Л. Колэуэй"
  ],
  "composer": [
    "Стивен Эдвардс"
  ],
  "design": [
    "Кларк Хантер",
    "Майкл Бартон",
    "Джулия Бартоломью"
  ],
  "editor": [
    "Кирк М. Морри"
  ],
  "actors": [
    "Дуан Уайтакер",
    "Бальтазар Гетти",
    "Чойней Дейвис",
    "Ханна Шик",
    "Дайан Голднер",
    "Джош Цуккерман",
    "Генри Роллинз",
    "Айлин Райан",
    "Джейсон Мьюз",
    "Джуда Фридландер"
  ],
  "actors_dubl": [],
  "trivia": [],
  "trailers": [],
  "seasons": [],
  "voiceActing": [
    "Diva Universal"
  ],
  "subtitle": [],
  "parts": []
}
