{
  "id": 29324,
  "name": "Крутая Джорджия",
  "name_eng": "Georgia Rule",
  "year": 2007,
  "slogan": "«In this family, attitude doesn't skip a generation»",
  "age": "16+",
  "type": "film",
  "quality": "HD (720p)",
  "imdb": "5.9",
  "imdb_id": "0",
  "kinopoisk": "6.8",
  "kinopoisk_id": "259590",
  "world_art": null,
  "world_art_id": null,
  "time": "113 мин. / 01:53",
  "ads": false,
  "premier": "2007-05-10",
  "premier_rus": "2007-05-10",
  "availability": "2007-05-11",
  "activate_time": "2020-06-28 13:44:00",
  "budget": "$20 000 000",
  "fees_use": "$19 103 072",
  "fees_world": "+ $5 888 095 = $24 991 167",
  "fees_rus": "$794 150",
  "rate_mpaa": "R",
  "description": "Избалованную городскую девчонку на лето отправляют в ссылку к строгой бабушке в штат Айдахо. Оказавшись в захолустье, она не собирается скучать и быстро ставит провинциальный городишко Халл на уши. Хамит бабушке, безуспешно домогается до местного доктора и соблазняет невинного юношу, собиравшегося стать мормонским проповедником.Причиной столь вызывающего поведения оказывается тяжелая детская травма. Девушка неожиданно признается, что с двенадцати лет ее регулярно насиловал отчим. Однако никто не может с уверенностью сказать, правда это или всего лишь очередная жестокая попытка насолить окружающим...",
  "iframe_url": "",
  "iframe_poster": null,
  "poster": "https://img.imgilall.me/movies/franchise/2/9/3/2/4/0/0/0/0/0/610x900_29324.jpg",
  "country": {
    "1": "США"
  },
  "collection": [],
  "genre": {
    "19": "Комедия",
    "7": "Драма"
  },
  "director": [
    "Гэрри Маршалл"
  ],
  "screenwriter": [
    "Марк Эндрус"
  ],
  "producer": [
    "Дэвид С. Робинсон",
    "Джеймс Дж. Робинсон",
    "Майкл Бесман"
  ],
  "operator": [
    "Карл Вальтер Линденлауб"
  ],
  "composer": [
    "Джон Дебни"
  ],
  "design": [
    "Альберт Бреннер",
    "Норман Ньюберри",
    "Гари Джонс"
  ],
  "editor": [
    "Брюс Грин",
    "Тара Тимпоне"
  ],
  "actors": [
    "Джейн Фонда",
    "Линдси Лохан",
    "Фелисити Хаффман",
    "Дермот Малруни",
    "Кэри Элвес",
    "Гаррет Хедлунд",
    "Гектор Элизондо",
    "Дилан МакЛафлин",
    "Захари Гордан",
    "Лори Меткаф"
  ],
  "actors_dubl": [
    "Ирина Пономарева",
    "Татьяна Шитова",
    "Елена Соловьева",
    "Василий Дахненко",
    "Илья Бледный"
  ],
  "trivia": [
    "По словам Джейн Фонды, за всю её многолетнюю карьеру, никто не вёл себя по отношению к работе и коллегам настолько наплевательски, как Линдсей Лохан во время съёмок.",
    "Съёмки проходили с июня по август 2006 года в 7 разных точках США.",
    "Для съемок в данном фильме природной шатенке Фелисити Хаффман дважды пришлось перекрашиваться в блондинку."
  ],
  "trailers": [],
  "seasons": [],
  "voiceActing": [
    "Cartoon Network"
  ],
  "subtitle": [],
  "parts": []
}
