{
  "id": 29441,
  "name": "Последние семь",
  "name_eng": "The Last Seven",
  "year": 2013,
  "slogan": "«London Population: 7 Million. Until Today»",
  "age": null,
  "type": "film",
  "quality": "HD (720p)",
  "imdb": "3.9",
  "imdb_id": "1274273",
  "kinopoisk": "4.7",
  "kinopoisk_id": "422356",
  "world_art": null,
  "world_art_id": null,
  "time": "84 мин. / 01:24",
  "ads": false,
  "premier": "2013-08-27",
  "premier_rus": "2013-08-28",
  "availability": "2013-08-29",
  "activate_time": "2020-09-08 18:44:00",
  "budget": "£ 1 200 000",
  "fees_use": null,
  "fees_world": null,
  "fees_rus": null,
  "rate_mpaa": null,
  "description": "Часы остановились. Человек просыпается. Он ничего не помнит. И Лондон полностью стоит. В живых осталось только семеро человек. События принимают опасную и тревожную ситуацию. И надо попытаться из всех сил вспомнить последние моменты жизни и остаться в живых несмотря ни на что, это - миссия Последних Семи.",
  "iframe_url": "",
  "iframe_poster": null,
  "poster": "https://img.imgilall.me/movies/franchise/2/9/4/4/1/0/0/0/0/0/610x900_29441.jpg",
  "country": {
    "2": "Великобритания"
  },
  "collection": [],
  "genre": {
    "26": "Ужасы",
    "11": "Фантастика",
    "13": "Триллер",
    "7": "Драма"
  },
  "director": [
    "Имран Накви",
    "Саймон Филлипс"
  ],
  "screenwriter": [
    "Джон Стэнли"
  ],
  "producer": [
    "Тоби Мередит",
    "Саймон Филлипс",
    "Рыбарчик Рибарчик"
  ],
  "operator": [
    "Дэвид Маки"
  ],
  "composer": [
    "Мэтью Уильямс"
  ],
  "design": [
    "Стюарт Кернс",
    "Сарка Киндлова",
    "Натали Эглтон"
  ],
  "editor": [
    "Ричард Колтон",
    "Джасдип Сагар"
  ],
  "actors": [
    "Тамер Хассан",
    "Саймон Филлипс",
    "Дэйзи Хэд",
    "Себастьян Стрит",
    "Рита Рамнани",
    "Джон Моусон",
    "Дэнни Дайер",
    "Ронан Вайберт",
    "Идалина Леандро",
    "Белль Хассан"
  ],
  "actors_dubl": [],
  "trivia": [],
  "trailers": [],
  "seasons": [],
  "voiceActing": [
    "JoyStudio"
  ],
  "subtitle": [],
  "parts": []
}
