{
  "id": 29563,
  "name": "Экспериментатор",
  "name_eng": "Experimenter",
  "year": 2015,
  "slogan": "«Illusion sets the stage. Deception reveals the truth»",
  "age": null,
  "type": "film",
  "quality": "HD (720p)",
  "imdb": "6.6",
  "imdb_id": "0",
  "kinopoisk": "6.5",
  "kinopoisk_id": "840590",
  "world_art": null,
  "world_art_id": null,
  "time": "98 мин. / 01:38",
  "ads": false,
  "premier": "2015-01-25",
  "premier_rus": "2015-01-26",
  "availability": "2015-01-27",
  "activate_time": "2020-07-10 00:00:00",
  "budget": null,
  "fees_use": "$155 575",
  "fees_world": "+ $68 570 = $224 145",
  "fees_rus": null,
  "rate_mpaa": "PG-13",
  "description": "Знаменитый психолог Стенли Милграм в 1961 году провел ряд радикальных поведенческих экспериментов, в процессе которых проверялась готовность обычных людей подчиняться власти.",
  "iframe_url": "",
  "iframe_poster": null,
  "poster": "https://img.imgilall.me/movies/franchise/2/9/5/6/3/0/0/0/0/0/610x900_29563.jpg",
  "country": {
    "1": "США"
  },
  "collection": [],
  "genre": {
    "28": "Исторический",
    "27": "Биографический",
    "7": "Драма"
  },
  "director": [
    "Майкл Алмерейда"
  ],
  "screenwriter": [
    "Майкл Алмерейда"
  ],
  "producer": [
    "Дэнни А. Абекейзер",
    "Майкл Алмерейда",
    "Фабио Голомбек"
  ],
  "operator": [
    "Райан Самул"
  ],
  "composer": [
    "Брайан Санти"
  ],
  "design": [
    "Деана Сидни",
    "Энди Эклунд",
    "Кама К. Ройз"
  ],
  "editor": [
    "Кэтрин Дж. Шуберт"
  ],
  "actors": [
    "Питер Сарсгаард",
    "Вайнона Райдер",
    "Эдоардо Баллерини",
    "Джим Гэффиган",
    "Энтони Эдвардс",
    "Джон Палладино",
    "Нед Эйзенберг",
    "Лори Сингер",
    "Тэрин Мэннинг",
    "Антон Ельчин"
  ],
  "actors_dubl": [],
  "trivia": [
    "В 2004 году на экраны вышла драма Билла Кондона «Доктор Кинси», в которой тоже сыграл Питер Сарсгаард. В фильме рассказывается о жизни Альфреда Кинси (1894-1956), пионера в области сексологических исследований.",
    "Второй проект, в котором вместе играют Джон Легуизамо и Эдоардо Баллерини. Они уже снимались вместе в комедии «Вредитель» Пола Миллера (1997).",
    "Питер Сарсгаард и Джон Легуизамо впервые встретились на съёмочной площадке после работы в фильме Франка Рейеса «Империя» (2002). В обеих картинах герой Сарсгаарда так или иначе обманывает персонажа в исполнении Легуизамо."
  ],
  "trailers": [],
  "seasons": [],
  "voiceActing": [
    "JoyStudio"
  ],
  "subtitle": [],
  "parts": []
}
