{
  "id": 29621,
  "name": "Святая кровь",
  "name_eng": "Sacred Blood",
  "year": 2015,
  "slogan": "«From the Vine to the Vein»",
  "age": "12+",
  "type": "film",
  "quality": "HD (720p)",
  "imdb": "5.8",
  "imdb_id": "5081618",
  "kinopoisk": null,
  "kinopoisk_id": "937155",
  "world_art": null,
  "world_art_id": null,
  "time": "93 мин. / 01:33",
  "ads": false,
  "premier": "2015-10-16",
  "premier_rus": "2015-10-17",
  "availability": "2015-10-18",
  "activate_time": "2020-09-10 21:17:00",
  "budget": null,
  "fees_use": null,
  "fees_world": null,
  "fees_rus": null,
  "rate_mpaa": null,
  "description": null,
  "iframe_url": "",
  "iframe_poster": null,
  "poster": "https://img.imgilall.me/movies/franchise/2/9/6/2/1/0/0/0/0/0/610x900_29621.jpg",
  "country": {
    "1": "США"
  },
  "collection": [],
  "genre": {
    "7": "Драма"
  },
  "director": [
    "Кристофер Коппола"
  ],
  "screenwriter": [
    "Ален Сильвер",
    "Кристофер Коппола"
  ],
  "producer": [
    "Кристофер Коппола",
    "Ален Сильвер",
    "Росс Энджел"
  ],
  "operator": [
    "Эндрю Джаннетта",
    "Мэтт Скала"
  ],
  "composer": [
    "Джозеф Купер"
  ],
  "design": [
    "Джейсон Кузия",
    "Георгий Масхарашвили",
    "Giorgi Megrelidze"
  ],
  "editor": [
    "Marian Wallace"
  ],
  "actors": [
    "Anna Luca Biani",
    "Бай Лин",
    "Майкл Мэдсен",
    "Константин Крюков",
    "Роб Нилссон",
    "Като Каелин",
    "Бэйли Коппола",
    "Bayra Bela",
    "Nino Bugeshashvili",
    "Miranda Butskhrikhidze"
  ],
  "actors_dubl": [],
  "trivia": [],
  "trailers": [],
  "seasons": [],
  "voiceActing": [
    "Diva Universal"
  ],
  "subtitle": [],
  "parts": []
}
