{
  "id": 29638,
  "name": "Тусовщики",
  "name_eng": "Swingers",
  "year": 1996,
  "slogan": "«cocktails first. questions later»",
  "age": "16+",
  "type": "film",
  "quality": "HD (720p)",
  "imdb": "7.2",
  "imdb_id": "0",
  "kinopoisk": "6.6",
  "kinopoisk_id": "4449",
  "world_art": null,
  "world_art_id": null,
  "time": "96 мин. / 01:36",
  "ads": false,
  "premier": "1996-08-31",
  "premier_rus": "1996-09-01",
  "availability": "1996-09-02",
  "activate_time": "2020-06-28 10:03:00",
  "budget": "$200 000",
  "fees_use": "$4 555 020",
  "fees_world": null,
  "fees_rus": null,
  "rate_mpaa": "R",
  "description": "Майк Смит полгода назад расстался с возлюбленной, с которой вместе учился в колледже, чтобы двинуться в Голливуд. Он никак не может найти себе новую подружку.Он продолжает поиски, бродя по улицам, заходя в ночные клубы, наполненные свингом, и в конце концов, знакомится с парнями, которые дают ему советы, как наладить свою жизнь.",
  "iframe_url": "",
  "iframe_poster": null,
  "poster": "https://img.imgilall.me/movies/franchise/2/9/6/3/8/0/0/0/0/0/610x900_29638.jpg",
  "country": {
    "1": "США"
  },
  "collection": [],
  "genre": {
    "19": "Комедия",
    "7": "Драма"
  },
  "director": [
    "Даг Лайман"
  ],
  "screenwriter": [
    "Джон Фавро"
  ],
  "producer": [
    "Виктор Симпкинс",
    "Джон Фавро",
    "Николь ЛаЛоджия"
  ],
  "operator": [
    "Даг Лайман"
  ],
  "composer": [
    "Джастин Рейнхарт"
  ],
  "design": [
    "Брэд Хэлворсон",
    "Женевьева Тиррелл"
  ],
  "editor": [
    "Стивен Миррионе"
  ],
  "actors": [
    "Джон Фавро",
    "Винс Вон",
    "Рон Ливингстон",
    "Патрик Ван Хорн",
    "Алекс Десерт",
    "Хизер Грэм",
    "Дина Мартин",
    "Кэтрин Кендалл",
    "Брук Лэнгтон",
    "Блейк Линдсли"
  ],
  "actors_dubl": [],
  "trivia": [],
  "trailers": [],
  "seasons": [],
  "voiceActing": [
    "Diva Universal"
  ],
  "subtitle": [],
  "parts": []
}
