{
  "id": 2966,
  "name": "Земля До Начала Времен 2: Приключения в Великой Долине",
  "name_eng": "The Land Before Time II: The Great Valley Adventure",
  "year": 1994,
  "slogan": null,
  "age": "6+",
  "type": "cartoon",
  "quality": "HD (720p)",
  "imdb": "5.9",
  "imdb_id": "0110300",
  "kinopoisk": "7.6",
  "kinopoisk_id": "81210",
  "world_art": null,
  "world_art_id": null,
  "time": "73 мин. / 01:13",
  "ads": false,
  "premier": "1994-12-23",
  "premier_rus": null,
  "availability": null,
  "activate_time": "2018-10-19 10:57:29",
  "budget": null,
  "fees_use": null,
  "fees_world": null,
  "fees_rus": null,
  "rate_mpaa": "G",
  "description": "Действие второй части происходит в знакомой Вам миролюбивой Великой Долине, где резвятся малыши — динозаврики под присмотром своих родителей. Но однажды непоседливые ребята ускользнули из-под бдительного ока своих родных и оказались именно там, где неопытных детишек подстерегают неожиданности и опасности.Приключения начинаются! Динозавриков ждут встречи с новыми знакомыми: воришками Оззи и Стратом, со страшными Острозубами и… таинственным яйцом!",
  "iframe_url": "",
  "iframe_poster": "https://img.imgilall.me/movies/video/2/7/6/2/5/0/0/0/0/0/800x450_27625.jpeg",
  "poster": "https://img.imgilall.me/movies/franchise/2/9/6/6/0/0/0/0/0/0/610x900_2966.jpg",
  "country": {
    "1": "США"
  },
  "collection": {
    "91": "Про динозавров",
    "71": "Про путешествия"
  },
  "genre": {
    "9": "Приключения",
    "38": "Мюзикл",
    "33": "Семейный",
    "10": "Зарубежный"
  },
  "director": [
    "Рой Аллен Смит"
  ],
  "screenwriter": [
    "Дев Росс",
    "Джон Лой",
    "Джон Лудин"
  ],
  "producer": [
    "Рой Аллен Смит",
    "Захра Дулатабади",
    "Нельсон Шин"
  ],
  "operator": [],
  "composer": [
    "Майкл Тавера"
  ],
  "design": [],
  "editor": [
    "Джей Бикссен"
  ],
  "actors": [
    "Скотт МакЭфи",
    "Кендес Хатсон",
    "Хезер Хоган",
    "Джефф Беннетт",
    "Роб Полсен",
    "Линда Гэри",
    "Кеннет Марс",
    "Джон Ингл",
    "Тресс МакНилл"
  ],
  "actors_dubl": [
    "Татьяна Весёлкина",
    "Ольга Кузнецова",
    "Людмила Ильина",
    "Леонид Белозорович",
    "Андрей Ярославцев"
  ],
  "trivia": [],
  "trailers": [
    {
      "name": "трейлер №1",
      "number": 1,
      "iframe_poster": null,
      "season": null,
      "iframe_url": ""
    }
  ],
  "seasons": [],
  "voiceActing": [
    "Рус. Дублированный",
    "Рус. Проф. многоголосый",
    "Ю. Живов",
    "Л. Володарский",
    "Eng.Original"
  ],
  "subtitle": [],
  "parts": [
    8975,
    2965,
    2966,
    2967,
    8976,
    8977,
    8978,
    8979,
    8980,
    8981,
    8982,
    8983,
    8984,
    8985
  ]
}
