{
  "id": 29791,
  "name": "Жизнь во всех красках",
  "name_eng": "Dolly Parton's Coat of Many Colors",
  "year": 2015,
  "slogan": "«An inspiring true story about the power of love, faith, and family»",
  "age": "6+",
  "type": "film",
  "quality": "HD (720p)",
  "imdb": "7.9",
  "imdb_id": "4767274",
  "kinopoisk": null,
  "kinopoisk_id": "926278",
  "world_art": null,
  "world_art_id": null,
  "time": "81 мин. / 01:21",
  "ads": false,
  "premier": "2015-12-10",
  "premier_rus": "2015-12-11",
  "availability": "2015-12-12",
  "activate_time": "2020-09-10 15:24:00",
  "budget": null,
  "fees_use": null,
  "fees_world": null,
  "fees_rus": null,
  "rate_mpaa": null,
  "description": "Основанный на реальной истории живой легенды  Долли Партон этот фильм переносит нас в дружною семью Партонов, когда они стойко пытаются пережить страшную трагедию и открыть исцеляющую силу любви, веры и изношенного лоскутного пальто, которое помогло Долли стать той, кем она является сейчас. Наконец-то можно проникнуться отважностью 9-тилетней девочки из Теннесси и её любящей семьи, которая научила её внутренней стойкости.",
  "iframe_url": "",
  "iframe_poster": null,
  "poster": "https://img.imgilall.me/movies/franchise/2/9/7/9/1/0/0/0/0/0/610x900_29791.jpg",
  "country": {
    "1": "США"
  },
  "collection": [],
  "genre": {
    "33": "Семейный",
    "7": "Драма"
  },
  "director": [
    "Стивен Херек"
  ],
  "screenwriter": [
    "Памела К. Лонг"
  ],
  "producer": [
    "Хадсон Хикман",
    "Сэм Хэскелл",
    "Стефани Джонсон"
  ],
  "operator": [
    "Брайан Дж. Рейнольдс"
  ],
  "composer": [
    "Велтон Рэй Банч",
    "Марк Леггетт"
  ],
  "design": [
    "Томас Валентайн",
    "Гентри Л. Акенс II",
    "Майкл Т. Бойд"
  ],
  "editor": [
    "Мэйзи Хой"
  ],
  "actors": [
    "Аливия Элин Линд",
    "Дженнифер Неттлз",
    "Рик Шродер",
    "Джералд МакРэйни",
    "Карсон Мейер",
    "Ханна Нордберг",
    "Мэри Лэйн Хэскелл",
    "Стелла Партон",
    "Parker Sack",
    "Дилан Роуэн"
  ],
  "actors_dubl": [],
  "trivia": [],
  "trailers": [],
  "seasons": [],
  "voiceActing": [
    "Cartoon Network"
  ],
  "subtitle": [],
  "parts": []
}
