{
  "id": 29827,
  "name": "Единственный выстрел",
  "name_eng": "A Single Shot",
  "year": 2013,
  "slogan": "«One Chance»",
  "age": "18+",
  "type": "film",
  "quality": "HD (720p)",
  "imdb": "5.8",
  "imdb_id": "1540741",
  "kinopoisk": "5.8",
  "kinopoisk_id": "489469",
  "world_art": null,
  "world_art_id": null,
  "time": "116 мин. / 01:56",
  "ads": false,
  "premier": "2013-02-09",
  "premier_rus": "2013-02-10",
  "availability": "2013-02-11",
  "activate_time": "2020-09-10 18:19:00",
  "budget": null,
  "fees_use": "$18 642",
  "fees_world": null,
  "fees_rus": null,
  "rate_mpaa": "R",
  "description": "История о том, как Джон Мун пошел охотиться на оленя и случайно застрелил молодую женщину, у которой затем он нашел письмо и большую сумму денег. И в итоге паническое сокрытие несчастного случая превратилось в бесконечный кошмар.",
  "iframe_url": "",
  "iframe_poster": null,
  "poster": "https://img.imgilall.me/movies/franchise/2/9/8/2/7/0/0/0/0/0/610x900_29827.jpg",
  "country": {
    "7": "Канада",
    "1": "США",
    "2": "Великобритания"
  },
  "collection": [],
  "genre": {
    "25": "Криминал",
    "13": "Триллер",
    "7": "Драма"
  },
  "director": [
    "Дэвид М. Розенталь"
  ],
  "screenwriter": [
    "Мэттью Ф. Джонс"
  ],
  "producer": [
    "Крис Коэн",
    "Аарон Л. Гилберт",
    "Кет Кьярвал"
  ],
  "operator": [
    "Эдуард Грау"
  ],
  "composer": [
    "Атли Эрварссон"
  ],
  "design": [
    "Дэвид Брисбин",
    "Шерил Мэрион",
    "Беверли Вовчук"
  ],
  "editor": [
    "Дэн Робинсон"
  ],
  "actors": [
    "Сэм Рокуэлл",
    "Джеффри Райт",
    "Келли Райлли",
    "Джейсон Айзекс",
    "Джо Андерсон",
    "Офелия Ловибонд",
    "Тед Левайн",
    "Уильям Х. Мэйси",
    "Эми Слоун",
    "У. Эрл Браун"
  ],
  "actors_dubl": [
    "Сергей Чихачёв"
  ],
  "trivia": [
    "Фильм снят по книге Мэттью Ф. Джонса «Единственный выстрел» (1996).",
    "Майкл Фассбендер, Томас Хейден Чёрч, Форест Уитакер, Алессандро Нивола, Эмили Мортимер, Джульетт Льюис, Дженнифер Джейсон Ли, Терренс Ховард, Джеймс Бэдж Дэйл, Джуно Темпл и Лесли Манн рассматривались на различные роли, но в итоге отказались от участия в проекте."
  ],
  "trailers": [],
  "seasons": [],
  "voiceActing": [
    "Важенин (BadBajo)"
  ],
  "subtitle": [],
  "parts": []
}
