{
  "id": 29856,
  "name": "Наследие викингов",
  "name_eng": "Viking Legacy",
  "year": 2016,
  "slogan": "«You can't escape your fate»",
  "age": null,
  "type": "film",
  "quality": "HD (720p)",
  "imdb": "2.4",
  "imdb_id": "0",
  "kinopoisk": "3.3",
  "kinopoisk_id": "970623",
  "world_art": null,
  "world_art_id": null,
  "time": "83 мин. / 01:23",
  "ads": false,
  "premier": "2016-09-19",
  "premier_rus": "2016-09-20",
  "availability": "2016-09-21",
  "activate_time": "2020-07-24 14:26:00",
  "budget": null,
  "fees_use": null,
  "fees_world": null,
  "fees_rus": null,
  "rate_mpaa": null,
  "description": "В древние времена, по преданию, семь священных свитков несли силу и процветание их обладателю. Пророчество гласит, что одному ребёнку чистых королевских кровей удастся однажды овладеть всей могучей силой священных свитков и встать во главе всех народов! В бесконечной борьбе за обладание свитками Европа оказалась на грани войны...",
  "iframe_url": "",
  "iframe_poster": null,
  "poster": "https://img.imgilall.me/movies/franchise/2/9/8/5/6/0/0/0/0/0/610x900_29856.jpg",
  "country": {
    "2": "Великобритания"
  },
  "collection": [],
  "genre": {
    "9": "Приключения",
    "17": "Боевик"
  },
  "director": [
    "Tom Barker",
    "Виктор Моуэр"
  ],
  "screenwriter": [
    "Виктор Моуэр"
  ],
  "producer": [
    "Энтони Смит",
    "Дэвид Шиллито"
  ],
  "operator": [
    "Tom Barker"
  ],
  "composer": [
    "Шон Моусли"
  ],
  "design": [
    "Mathew Thomas",
    "Ким Тизард-Ли"
  ],
  "editor": [
    "Риз Уорлоу"
  ],
  "actors": [
    "Холли Берроуз",
    "Джеймс Уильям Кук",
    "Liam Dascombe",
    "Дарен Эллиот Холмс",
    "Eirian Evans",
    "Mark Fry",
    "Джулиан Гиллард",
    "Neil Harris",
    "Эбби Хирст",
    "Wolfie Hughes"
  ],
  "actors_dubl": [],
  "trivia": [],
  "trailers": [],
  "seasons": [],
  "voiceActing": [
    "Victory-Films"
  ],
  "subtitle": [],
  "parts": []
}
