{
  "id": 29938,
  "name": "Не смотри вниз",
  "name_eng": "No mires para abajo",
  "year": 2008,
  "slogan": "«When sexual fantasies come true»",
  "age": null,
  "type": "film",
  "quality": "SD",
  "imdb": "6.0",
  "imdb_id": "0",
  "kinopoisk": "6.6",
  "kinopoisk_id": "426460",
  "world_art": null,
  "world_art_id": null,
  "time": "85 мин. / 01:25",
  "ads": false,
  "premier": "2008-10-18",
  "premier_rus": "2008-10-19",
  "availability": "2008-10-20",
  "activate_time": "2020-08-26 13:10:00",
  "budget": null,
  "fees_use": null,
  "fees_world": null,
  "fees_rus": null,
  "rate_mpaa": "R",
  "description": "19-летний парень Элой сквозь открывшиеся ворота в пространстве проваливается в мир, где живет сексуально привлекательная Эльвира со своей бабушкой. Эльвира обучает Элоя сексу во всех проявлениях от тантрического до Кама Сутры. Путешествуя по дебрям оргазма, он время от времени оказывается в разных местах планеты.",
  "iframe_url": "",
  "iframe_poster": null,
  "poster": "https://img.imgilall.me/movies/franchise/2/9/9/3/8/0/0/0/0/0/610x900_29938.jpg",
  "country": {
    "22": "Аргентина",
    "9": "Франция"
  },
  "collection": [],
  "genre": {
    "8": "Мелодрама",
    "7": "Драма"
  },
  "director": [
    "Элисео Субьела"
  ],
  "screenwriter": [
    "Элисео Субьела"
  ],
  "producer": [
    "Дэниэл Пенса",
    "Паскуаль Кондито",
    "Элиза Жалладо"
  ],
  "operator": [
    "Сол Лопатин"
  ],
  "composer": [
    "Педро Аснар"
  ],
  "design": [
    "Кристина Нигро",
    "Гризельда Видал"
  ],
  "editor": [
    "Марсела Саэнс"
  ],
  "actors": [
    "Антонелла Коста",
    "Леандро Стивельман",
    "Уго Арана",
    "Моника Галан",
    "Октавио Борро",
    "Мария Элина Руас",
    "Марженка Новак",
    "Вивиана Пикколо"
  ],
  "actors_dubl": [],
  "trivia": [],
  "trailers": [],
  "seasons": [],
  "voiceActing": [
    "Рус. Люб. одноголосый",
    "Spanish Original"
  ],
  "subtitle": [],
  "parts": []
}
