{
  "id": 29942,
  "name": "Братство: Взлет геймеров",
  "name_eng": "Rise of the Fellowship",
  "year": 2013,
  "slogan": "«During their quest to become Lord of the Ring video game champs, a group of geeks become a true fellowship and learns that there's a little bit of geek-and hero-in all of us»",
  "age": "12+",
  "type": "film",
  "quality": "HD (720p)",
  "imdb": "4.1",
  "imdb_id": "1669814",
  "kinopoisk": "4.7",
  "kinopoisk_id": "550602",
  "world_art": null,
  "world_art_id": null,
  "time": "92 мин. / 01:32",
  "ads": false,
  "premier": "2013-12-03",
  "premier_rus": "2013-12-04",
  "availability": "2013-12-05",
  "activate_time": "2020-09-10 20:55:00",
  "budget": "$3 100 000",
  "fees_use": null,
  "fees_world": null,
  "fees_rus": null,
  "rate_mpaa": null,
  "description": "Сюжет картины заключается в том, что группа игроков, решивших принять участие в чемпионате по игре «Властелин Колец Онлайн» оказываются в «шкуре» любимых героев...",
  "iframe_url": "",
  "iframe_poster": null,
  "poster": "https://img.imgilall.me/movies/franchise/2/9/9/4/2/0/0/0/0/0/610x900_29942.jpg",
  "country": {
    "1": "США"
  },
  "collection": [],
  "genre": {
    "9": "Приключения",
    "6": "Фэнтези",
    "19": "Комедия"
  },
  "director": [
    "Рон Ньюком"
  ],
  "screenwriter": [
    "Кристофер Банн",
    "Скотт Матайас",
    "Рон Ньюком"
  ],
  "producer": [
    "Michel Aboudib",
    "Скотт Матайас",
    "Шэйн МакКланг"
  ],
  "operator": [
    "Брайан Пеннингтон"
  ],
  "composer": [
    "Дэйл Клэй"
  ],
  "design": [
    "Элисон Хайт",
    "Доун Ньюкоум"
  ],
  "editor": [
    "Джастин Мо",
    "Брайан Пеннингтон"
  ],
  "actors": [
    "Джастин Мо",
    "Джейми Белл",
    "Коул Мэтсон",
    "Эмма Эрнест",
    "Вульф Дж. Шерилл",
    "Jason Krznarich",
    "Aaron Bowman-Fields",
    "Эрик Гарнер",
    "Даг Хендерсон",
    "Дрю Трементоззи"
  ],
  "actors_dubl": [],
  "trivia": [],
  "trailers": [],
  "seasons": [],
  "voiceActing": [
    "НТВ"
  ],
  "subtitle": [],
  "parts": []
}
