{
  "id": 30025,
  "name": "Автор",
  "name_eng": "El autor",
  "year": 2017,
  "slogan": "—",
  "age": null,
  "type": "film",
  "quality": "HD (720p)",
  "imdb": "6.5",
  "imdb_id": "0",
  "kinopoisk": "6.4",
  "kinopoisk_id": "1000815",
  "world_art": null,
  "world_art_id": null,
  "time": "112 мин. / 01:52",
  "ads": false,
  "premier": "2017-09-08",
  "premier_rus": "2017-09-09",
  "availability": "2017-09-10",
  "activate_time": "2020-07-10 16:53:00",
  "budget": null,
  "fees_use": null,
  "fees_world": "$772 690",
  "fees_rus": null,
  "rate_mpaa": null,
  "description": "Альваро - небогатый человек, одержимый идеей написать великий шедевр. Он начинает намеренно провоцировать конфликты между соседями, делая их героями своего романа. Полное погружение в заговор с вероятным убийством в конце не позволяет ему видеть самого главного: реальность не так управляема, как роман.",
  "iframe_url": "",
  "iframe_poster": null,
  "poster": "https://img.imgilall.me/movies/franchise/3/0/0/2/5/0/0/0/0/0/610x900_30025.jpg",
  "country": {
    "17": "Мексика",
    "3": "Испания"
  },
  "collection": [],
  "genre": {
    "19": "Комедия",
    "7": "Драма"
  },
  "director": [
    "Мануэль Мартин Куенка"
  ],
  "screenwriter": [
    "Алехандро Эрнандес",
    "Мануэль Мартин Куенка",
    "Хавьер Серкас"
  ],
  "producer": [
    "Моника Лосано Серрано",
    "David Naranjo",
    "Гонсало Саласар-Симпсон"
  ],
  "operator": [
    "Пау Эстеве"
  ],
  "composer": [
    "Pablo Perales Carrasco",
    "Хосе Луис Пералес"
  ],
  "design": [
    "Соня Нойя",
    "Педро Морено",
    "Эстер Вакеро"
  ],
  "editor": [
    "Анхель Эрнандес Соидо"
  ],
  "actors": [
    "Хавьер Гутьеррес",
    "Мария Леон",
    "Адельфа Кальво",
    "Адриана Пас",
    "Теноч Уэрта",
    "Рафаэль Тельес",
    "Антонио де ла Торре",
    "Domi del Postigo",
    "Хосе Карлос Кармона",
    "Альберто Гонсалес"
  ],
  "actors_dubl": [],
  "trivia": [],
  "trailers": [],
  "seasons": [],
  "voiceActing": [
    "Рус. Люб. многоголосый"
  ],
  "subtitle": [],
  "parts": []
}
