{
  "id": 30100,
  "name": "Поворот не туда: Побег",
  "name_eng": "Scarce",
  "year": 2008,
  "slogan": "«How will anyone find you when you've been eaten?»",
  "age": "18+",
  "type": "film",
  "quality": "SD",
  "imdb": "4.1",
  "imdb_id": "0",
  "kinopoisk": "4.3",
  "kinopoisk_id": "426787",
  "world_art": null,
  "world_art_id": null,
  "time": "93 мин. / 01:33",
  "ads": false,
  "premier": "2008-10-01",
  "premier_rus": "2008-10-02",
  "availability": "2008-10-03",
  "activate_time": "2020-07-11 07:11:00",
  "budget": "$500 000",
  "fees_use": null,
  "fees_world": null,
  "fees_rus": null,
  "rate_mpaa": null,
  "description": "Трое сноубордеров попадают в лесную хижину, отрезанную ото всего мира, но самое страшное не в этом... Самое страшное, это хозяева хижины - два психически ненормальных человека, которые живут тем, что делают заготовки оленины. Но для своего стола они готовят совсем не оленину - они любят побаловать себя человеческой плотью, предварительно развлекая себя тем, что устраивают на своих жертв кровавую охоту...",
  "iframe_url": "",
  "iframe_poster": null,
  "poster": "https://img.imgilall.me/movies/franchise/3/0/1/0/0/0/0/0/0/0/610x900_30100.jpg",
  "country": {
    "7": "Канада"
  },
  "collection": [],
  "genre": {
    "26": "Ужасы",
    "13": "Триллер"
  },
  "director": [
    "Джесси Т. Кук",
    "Джон Геддес"
  ],
  "screenwriter": [
    "Джон Геддес",
    "Джесси Т. Кук"
  ],
  "producer": [
    "Джесси Т. Кук",
    "Джон Геддес",
    "Труди Эйнли"
  ],
  "operator": [
    "Джон Лесавадж"
  ],
  "composer": [
    "Дэн Барнс",
    "Джон Геддес",
    "Джейкоб МаНил"
  ],
  "design": [
    "Коуди Кэлахан",
    "Адам Уилльям Уилсон"
  ],
  "editor": [
    "Джесси Т. Кук",
    "Джон Геддес",
    "Джейкоб МаНил"
  ],
  "actors": [
    "Стив Уоррен",
    "Гари Фишер",
    "Крис Уоррилоу",
    "Том Уэбб",
    "Джон Геддес",
    "Джесси Т. Кук",
    "Стефани Бантинг",
    "Гэвин Пикок",
    "Мэтт Гриффин",
    "Джеки Пампалон"
  ],
  "actors_dubl": [],
  "trivia": [],
  "trailers": [],
  "seasons": [],
  "voiceActing": [
    "Diva Universal"
  ],
  "subtitle": [],
  "parts": []
}
