{
  "id": 30107,
  "name": "Конвой",
  "name_eng": "Le convoi",
  "year": 2015,
  "slogan": "—",
  "age": "16+",
  "type": "film",
  "quality": "HD (720p)",
  "imdb": "5.4",
  "imdb_id": "0",
  "kinopoisk": "5.5",
  "kinopoisk_id": "875602",
  "world_art": null,
  "world_art_id": null,
  "time": "102 мин. / 01:42",
  "ads": false,
  "premier": "2016-01-20",
  "premier_rus": "2016-01-21",
  "availability": "2016-01-22",
  "activate_time": "2020-07-11 07:19:00",
  "budget": null,
  "fees_use": null,
  "fees_world": null,
  "fees_rus": null,
  "rate_mpaa": null,
  "description": "Всего 24 часа есть у этого конвоя на перевозку запрещенного груза из Испании к северу от Парижа. Но типичная доставка груза оказалась роковой для его сопровождающих.",
  "iframe_url": "",
  "iframe_poster": null,
  "poster": "https://img.imgilall.me/movies/franchise/3/0/1/0/7/0/0/0/0/0/610x900_30107.jpg",
  "country": {
    "9": "Франция"
  },
  "collection": [],
  "genre": {
    "17": "Боевик",
    "13": "Триллер"
  },
  "director": [
    "Фредерик Шёндёрфер"
  ],
  "screenwriter": [
    "Янн Брион",
    "Фредерик Шёндёрфер"
  ],
  "producer": [
    "Эрик Нивё",
    "Фредерик Шёндёрфер",
    "Béatrice Bizet"
  ],
  "operator": [
    "Венсан Галло"
  ],
  "composer": [
    "Тибо Килье"
  ],
  "design": [
    "Франк Бенезек",
    "Арно Боньорт",
    "Клер Лаказе"
  ],
  "editor": [
    "Софи Фурдринуа"
  ],
  "actors": [
    "Бенуа Мажимель",
    "Рем Кериси",
    "Тауфик Жаллаб",
    "Mahdi Belemlih",
    "Амир Эль Касем",
    "Léon Garel",
    "Софиан Каммес",
    "Foëd Amara",
    "Ален Фиглаж",
    "Карин Мартан-Превель"
  ],
  "actors_dubl": [],
  "trivia": [],
  "trailers": [],
  "seasons": [],
  "voiceActing": [
    "Карповский"
  ],
  "subtitle": [],
  "parts": []
}
