{
  "id": 30112,
  "name": "Сказ о розовом зайце",
  "name_eng": "",
  "year": 2010,
  "slogan": "—",
  "age": null,
  "type": "film",
  "quality": "SD",
  "imdb": "6.5",
  "imdb_id": "0",
  "kinopoisk": "7.5",
  "kinopoisk_id": "479698",
  "world_art": null,
  "world_art_id": null,
  "time": "105 мин. / 01:45",
  "ads": false,
  "premier": "2010-08-26",
  "premier_rus": "2010-08-27",
  "availability": "2010-08-28",
  "activate_time": "2020-07-25 04:14:00",
  "budget": "$550 000",
  "fees_use": null,
  "fees_world": null,
  "fees_rus": null,
  "rate_mpaa": null,
  "description": "Провинциальный парень Ерлан, студент 3 курса одного из алматинских ВУЗов. Он приехал в город в надежде добиться успеха в будущем. Среда «золотой молодежи» куда он попадает, оказалось непростой. У нее свои законы, собственные порядки, и для того, чтобы сохранить свои моральные принципы, многое придется заново пережить и испытать.",
  "iframe_url": "",
  "iframe_poster": null,
  "poster": "https://img.imgilall.me/movies/franchise/3/0/1/1/2/0/0/0/0/0/610x900_30112.jpg",
  "country": {
    "58": "Казахстан"
  },
  "collection": [],
  "genre": {
    "25": "Криминал",
    "7": "Драма"
  },
  "director": [
    "Фархат Шарипов"
  ],
  "screenwriter": [
    "Фархат Шарипов"
  ],
  "producer": [
    "Ермек Аманшаев",
    "Серик Жубандыков"
  ],
  "operator": [
    "Александр Плотников"
  ],
  "composer": [],
  "design": [],
  "editor": [
    "Сергей Вильковиский"
  ],
  "actors": [
    "Ануар Нурпеисов",
    "Максим Акбаров",
    "Карлыгаш Мухамеджанова",
    "Фархад Абдраимов",
    "Бахтияр Кожа",
    "Мурат Бисенбин",
    "Саят Исембаев",
    "Санжар Мади",
    "Антон Фот",
    "Райхан Айткожанова"
  ],
  "actors_dubl": [],
  "trivia": [
    "Кандидатами на главную роль были Ануар Нурпеисов и Арыстан Мырзагереев."
  ],
  "trailers": [],
  "seasons": [],
  "voiceActing": [
    "Original"
  ],
  "subtitle": [],
  "parts": []
}
