{
  "id": 30207,
  "name": "Белая девушка",
  "name_eng": "White Girl",
  "year": 2016,
  "slogan": "—",
  "age": null,
  "type": "film",
  "quality": "HD (720p)",
  "imdb": "5.7",
  "imdb_id": "0",
  "kinopoisk": "5.3",
  "kinopoisk_id": "867057",
  "world_art": null,
  "world_art_id": null,
  "time": "88 мин. / 01:28",
  "ads": false,
  "premier": "2016-01-23",
  "premier_rus": "2016-01-24",
  "availability": "2016-01-25",
  "activate_time": "2020-06-28 08:00:00",
  "budget": null,
  "fees_use": "$200 242",
  "fees_world": null,
  "fees_rus": null,
  "rate_mpaa": null,
  "description": "Улыбчивая блондинка Лиа живет на полную катушку, не упуская возможности лишний раз зажечь и оторваться. За пару недель до экзамена Лия встречает парня своей мечты, смазливого пуэрториканского дилера. С ним жизнь становится еще ярче и интереснее. Сумасшедшая любовь, быстрые деньги и веселые ночи внезапно заканчиваются, когда дилера арестовывают, а Лия оказывается обладательницей крупной партии кокаина.",
  "iframe_url": "",
  "iframe_poster": null,
  "poster": "https://img.imgilall.me/movies/franchise/3/0/2/0/7/0/0/0/0/0/610x900_30207.jpg",
  "country": {
    "1": "США"
  },
  "collection": [],
  "genre": {
    "25": "Криминал",
    "7": "Драма"
  },
  "director": [
    "Элизабет Эшли Вуд"
  ],
  "screenwriter": [
    "Элизабет Эшли Вуд"
  ],
  "producer": [
    "Гэбриел Нуссбаум",
    "Мэтт Ахтерберг",
    "Petra Ahmann"
  ],
  "operator": [
    "Майкл Симмондс"
  ],
  "composer": [],
  "design": [
    "Флетчер Ченси",
    "Крис Трухильо",
    "Стив Грайс"
  ],
  "editor": [
    "Майкл Тейлор"
  ],
  "actors": [
    "Морган Сэйлор",
    "Брайан «Сене» Марк",
    "Джастин Барта",
    "Крис Нот",
    "Адриан Мартинес",
    "Бобби Сальвор Менуэз",
    "Энтони Рамос",
    "Ральф Йован Родригез",
    "Аннабелль Декстер-Джонс",
    "Иден Меришоу"
  ],
  "actors_dubl": [],
  "trivia": [],
  "trailers": [],
  "seasons": [],
  "voiceActing": [
    "Рус. Люб. двухголосый"
  ],
  "subtitle": [],
  "parts": []
}
