{
  "id": 30227,
  "name": "Верую в любовь",
  "name_eng": "",
  "year": 1986,
  "slogan": "—",
  "age": null,
  "type": "film",
  "quality": "SD",
  "imdb": "5.4",
  "imdb_id": "0",
  "kinopoisk": "5.0",
  "kinopoisk_id": "45734",
  "world_art": null,
  "world_art_id": null,
  "time": "85 мин. / 01:25",
  "ads": false,
  "premier": "1987-01-19",
  "premier_rus": "1987-01-20",
  "availability": "1987-01-21",
  "activate_time": "2020-06-28 08:38:00",
  "budget": null,
  "fees_use": null,
  "fees_world": null,
  "fees_rus": null,
  "rate_mpaa": null,
  "description": "Дружно живет семья Лукониных. Глава семейства Сергей Ильич, генерал-майор в отставке, работает военкомом. Его жена Варвара Андреевна — известная театральная актриса. Старший сын Константин, капитан дальнего плавания, часто звонит домой из разных концов света. В конструкторском бюро трудится младший сын Алексей. В геологических экспедициях «пропадает» их дочь Наталья. Старики живут вместе с внуками. Однажды, в день рождения внучки Катеньки, Варвара Андреевна из телепередачи о ветеранах узнает шокирующую новость. Престарелая женщина Анна Михайловна уже сорок лет разыскивает двоих сыновей, потерявшихся во время войны. Ими и оказываются Алексей и Константин — приемные дети Сергея Ильича и Варвары Андреевны. Они спасли братьев и вырастили как своих детей, будучи уверенными, что их родная мать погибла во время бомбежки. Варваре Андреевне и Сергею Ильичу потребовалось много выдержки и сил, чтобы сообщить Анне Михайловне о ее взрослых сыновьях. Когда состоялось знакомство, семья Лукониных пополнилась еще на одного человека.",
  "iframe_url": "",
  "iframe_poster": null,
  "poster": "https://img.imgilall.me/movies/franchise/3/0/2/2/7/0/0/0/0/0/610x900_30227.jpg",
  "country": {
    "24": "СССР"
  },
  "collection": [],
  "genre": {
    "8": "Мелодрама"
  },
  "director": [
    "Елена Михайлова"
  ],
  "screenwriter": [
    "Серафима Шелестова"
  ],
  "producer": [],
  "operator": [
    "Анатолий Кузнецов"
  ],
  "composer": [
    "Александр Гольдштейн"
  ],
  "design": [
    "Василий Щербак",
    "Тамара Каспарова"
  ],
  "editor": [
    "Елена Клименко"
  ],
  "actors": [
    "Николай Крючков",
    "Лидия Смирнова",
    "Александр Голобородько",
    "Любовь Соколова",
    "Владимир Канделаки",
    "Валентина Титова",
    "Лилия Захарова",
    "Алексей Поляков",
    "Елена Валюшкина",
    "Олег Штефанко"
  ],
  "actors_dubl": [],
  "trivia": [],
  "trailers": [],
  "seasons": [],
  "voiceActing": [
    "Original"
  ],
  "subtitle": [],
  "parts": []
}
