{
  "id": 30229,
  "name": "Рождественский фестиваль льда",
  "name_eng": "Christmas Festival of Ice",
  "year": 2017,
  "slogan": "—",
  "age": null,
  "type": "film",
  "quality": "HD (720p)",
  "imdb": "6.0",
  "imdb_id": "0",
  "kinopoisk": null,
  "kinopoisk_id": "1051098",
  "world_art": null,
  "world_art_id": null,
  "time": "120 мин. / 02:00",
  "ads": false,
  "premier": "2017-11-04",
  "premier_rus": "2017-11-05",
  "availability": "2017-11-06",
  "activate_time": "2020-07-11 10:12:00",
  "budget": null,
  "fees_use": null,
  "fees_world": null,
  "fees_rus": null,
  "rate_mpaa": null,
  "description": "Начинающий адвокат Эмма намерена собрать деньги, чтобы вернуть конкурс ледяных скульптур в программу ежегодного рождественского фестиваля. Это заново знакомит её с семейной традицией и открывает возможность для новой любви.",
  "iframe_url": "",
  "iframe_poster": null,
  "poster": "https://img.imgilall.me/movies/franchise/3/0/2/2/9/0/0/0/0/0/610x900_30229.jpg",
  "country": {
    "1": "США"
  },
  "collection": [],
  "genre": {
    "8": "Мелодрама"
  },
  "director": [
    "Брэдли Уолш"
  ],
  "screenwriter": [
    "Дэвид Голден",
    "Дэймон Хилл"
  ],
  "producer": [
    "Хейден Баптисте",
    "Эндрю С. Эрин",
    "Тим Джонсон"
  ],
  "operator": [],
  "composer": [
    "Расс Ховард III"
  ],
  "design": [
    "Шэйн Бучер",
    "Дженнифер Страуд"
  ],
  "editor": [],
  "actors": [
    "Тейлор Коул",
    "Дэймон Рунян",
    "Венди Крюсон",
    "Джонатан Уитэйкер",
    "Тиган Винс",
    "Джанпаоло Венута",
    "Тони Эллванд",
    "Паула Макферсон",
    "Родригез А. Уильямс",
    "Меган Хупл"
  ],
  "actors_dubl": [],
  "trivia": [],
  "trailers": [],
  "seasons": [],
  "voiceActing": [
    "Рус. Люб. многоголосый"
  ],
  "subtitle": [],
  "parts": []
}
