{
  "id": 30311,
  "name": "Теккен 2",
  "name_eng": "Tekken: A Man Called X",
  "year": 2014,
  "slogan": "«Survival Is No Game»",
  "age": null,
  "type": "film",
  "quality": "HD (720p)",
  "imdb": "2.8",
  "imdb_id": "0",
  "kinopoisk": "3.1",
  "kinopoisk_id": "819488",
  "world_art": null,
  "world_art_id": null,
  "time": "90 мин. / 01:30",
  "ads": false,
  "premier": "2014-08-06",
  "premier_rus": "2014-08-07",
  "availability": "2014-08-08",
  "activate_time": "2020-07-11 06:23:00",
  "budget": null,
  "fees_use": null,
  "fees_world": null,
  "fees_rus": null,
  "rate_mpaa": "PG-13",
  "description": "Страдающего амнезией молодого парня, пытающегося выяснить — кто он есть на самом деле, похищает подпольная преступная организация и превращает в безжалостного убийцу.",
  "iframe_url": "",
  "iframe_poster": null,
  "poster": "https://img.imgilall.me/movies/franchise/3/0/3/1/1/0/0/0/0/0/610x900_30311.jpg",
  "country": {
    "1": "США"
  },
  "collection": [],
  "genre": {
    "17": "Боевик"
  },
  "director": [
    "Вич Каосаянанда"
  ],
  "screenwriter": [
    "Nicole Jones-Dion",
    "Стивен Пол"
  ],
  "producer": [
    "Стивен Пол",
    "Pimol Srivikorn",
    "Шеннон Гарднер"
  ],
  "operator": [
    "Вич Каосаянанда"
  ],
  "composer": [
    "Миша Сегал"
  ],
  "design": [
    "Рачата Панпаяк"
  ],
  "editor": [
    "Роберт А. Ферретти",
    "Вэнс Нуль"
  ],
  "actors": [
    "Кейн Косуги",
    "Кэри-Хироюки Тагава",
    "Раде Шербеджия",
    "Гэри Дэниелс",
    "Келли Венхам",
    "Пейдж Линдквист",
    "Шарлотта Кирк",
    "Бильяна Мишич",
    "Сахаяк Бунтханакит",
    "Рон Смуренбург"
  ],
  "actors_dubl": [],
  "trivia": [],
  "trailers": [],
  "seasons": [],
  "voiceActing": [
    "JoyStudio"
  ],
  "subtitle": [],
  "parts": []
}
