{
  "id": 30326,
  "name": "Невеста моего брата",
  "name_eng": "Mere Brother Ki Dulhan",
  "year": 2011,
  "slogan": "—",
  "age": "16+",
  "type": "film",
  "quality": "HD (720p)",
  "imdb": "5.8",
  "imdb_id": "0",
  "kinopoisk": "7.9",
  "kinopoisk_id": "568708",
  "world_art": null,
  "world_art_id": null,
  "time": "139 мин. / 02:19",
  "ads": false,
  "premier": "2011-09-08",
  "premier_rus": "2011-09-09",
  "availability": "2011-09-10",
  "activate_time": "2020-07-11 10:44:00",
  "budget": null,
  "fees_use": "$496 172",
  "fees_world": null,
  "fees_rus": null,
  "rate_mpaa": null,
  "description": "Куш Агнихотри ищет идеальную индийскую невесту для своего брата Лува, живущего в Лондоне. В своих поисках Куш проходит через множество дурацких встреч с семьями, пока он, наконец, находит отличную девчонку Димпл Диксит, самую сумасбродную и дурашливую, которую он когда-либо встречал. Обе семьи встречаются. Формальности завершены. Подготовка в полном разгаре. И тут наш герой Куш влюбляется в Димпл... невесту своего брата.",
  "iframe_url": "",
  "iframe_poster": null,
  "poster": "https://img.imgilall.me/movies/franchise/3/0/3/2/6/0/0/0/0/0/610x900_30326.jpg",
  "country": {
    "26": "Индия"
  },
  "collection": [],
  "genre": {
    "33": "Семейный",
    "19": "Комедия",
    "8": "Мелодрама"
  },
  "director": [
    "Али Аббас Зафар"
  ],
  "screenwriter": [
    "Али Аббас Зафар"
  ],
  "producer": [
    "Адитья Чопра",
    "Яш Чопра",
    "Падам Бхушан"
  ],
  "operator": [
    "Судип Чаттерджи"
  ],
  "composer": [
    "Сохаил Сен"
  ],
  "design": [
    "Шрути Гуптэ",
    "Снехал Пхадтаре",
    "Неха Бхатнагар"
  ],
  "editor": [
    "Ритиш Сони"
  ],
  "actors": [
    "Имран Кхан",
    "Катрина Каиф",
    "Али Зафар",
    "Тара Д’Суза",
    "Парикшит Сахни",
    "Канвалджит Сингх",
    "Махру Шейх",
    "Супарна Марва",
    "Арфин Кхан",
    "Мохаммед Зишан Айюб"
  ],
  "actors_dubl": [],
  "trivia": [],
  "trailers": [],
  "seasons": [],
  "voiceActing": [
    "Рус. Люб. многоголосый"
  ],
  "subtitle": [],
  "parts": []
}
