{
  "id": 30383,
  "name": "Возврат",
  "name_eng": "Cashback",
  "year": 2005,
  "slogan": "«Life's what you make it»",
  "age": "16+",
  "type": "film",
  "quality": "HD (720p)",
  "imdb": "7.1",
  "imdb_id": "0",
  "kinopoisk": "7.2",
  "kinopoisk_id": "105878",
  "world_art": null,
  "world_art_id": null,
  "time": "102 мин. / 01:42",
  "ads": false,
  "premier": "2006-09-10",
  "premier_rus": "2006-09-11",
  "availability": "2006-09-12",
  "activate_time": "2020-07-11 06:35:00",
  "budget": null,
  "fees_use": "$25 343",
  "fees_world": "+ $2 268 948 = $2 294 291",
  "fees_rus": null,
  "rate_mpaa": "R",
  "description": "Переживая болезненное расставание с любимой, Бен впадает в бессонницу. В освободившиеся 8 часов он начинает работать в ночную смену местного супермаркета, где главной задачей сотрудников является убивание времени. Неожиданно Бен обнаруживает в себе необычную способность останавливать время, что даёт толчок его художественному таланту.",
  "iframe_url": "",
  "iframe_poster": null,
  "poster": "https://img.imgilall.me/movies/franchise/3/0/3/8/3/0/0/0/0/0/610x900_30383.jpg",
  "country": {
    "2": "Великобритания"
  },
  "collection": [],
  "genre": {
    "19": "Комедия",
    "8": "Мелодрама",
    "7": "Драма"
  },
  "director": [
    "Шон Эллис"
  ],
  "screenwriter": [
    "Шон Эллис"
  ],
  "producer": [
    "Лене Босейджер",
    "Шон Эллис",
    "Дафна Гиннесс"
  ],
  "operator": [
    "Энгус Хадсон"
  ],
  "composer": [
    "Гай Фарли"
  ],
  "design": [
    "Морган Кеннеди",
    "Эмма Джонс",
    "Виктория Расселл"
  ],
  "editor": [
    "Карлос Домеке",
    "Скотт Томас"
  ],
  "actors": [
    "Шон Биггерстаф",
    "Эмилия Фокс",
    "Стюарт Гудвин",
    "Майкл Лэмбурн",
    "Майкл Диксон",
    "Мишель Райан",
    "Эрика Эллис",
    "Джей Бауэн",
    "Шон Эванс",
    "Кеннет Фахи"
  ],
  "actors_dubl": [],
  "trivia": [
    "Фильм практически в полном объёме вобрал в себя одноимённую 18-минутную короткометражку, удостоенную в 2006 году номинации на Оскар.",
    "Производство полнометражной картины началось более чем через год после окончания работы над короткометражкой. В декабре 2004 года режиссёр и сценарист Шон Эллис решил развить сюжет и за семь дней написал сценарий фильма. В марте 2005 года он добился договорённости со всеми ключевыми актёрами, затем решил вопрос с источниками финансирования, и в мае того же года начались уложившиеся в 25 дней съёмки.",
    "Бюджет не позволял приобрести униформу работникам супермаркета, так что актёры снимались в своей собственной одежде.",
    "В конце фильма (титры) звучит популярная (1 место в чарте UK Dance Chart 2005г.) песня «What Else Is There?» норвежской группы Röyksopp.",
    "Шампунь, который Барри и Мэтт называли «помощью для женщин» (так как он был фаллической формы), — это настоящий бренд Umberto Giannini."
  ],
  "trailers": [],
  "seasons": [],
  "voiceActing": [
    "Diva Universal"
  ],
  "subtitle": [],
  "parts": []
}
