{
  "id": 30485,
  "name": "Предмет красоты",
  "name_eng": "The Object of Beauty",
  "year": 1991,
  "slogan": "«Stylish, selfish and broke. They lost everything and found each other»",
  "age": null,
  "type": "film",
  "quality": "HD (720p)",
  "imdb": "5.7",
  "imdb_id": "0",
  "kinopoisk": "6.1",
  "kinopoisk_id": "16906",
  "world_art": null,
  "world_art_id": null,
  "time": "103 мин. / 01:43",
  "ads": false,
  "premier": "1991-04-12",
  "premier_rus": "1991-04-13",
  "availability": "1991-04-14",
  "activate_time": "2020-06-28 09:12:00",
  "budget": null,
  "fees_use": "$5 136 759",
  "fees_world": null,
  "fees_rus": null,
  "rate_mpaa": "R",
  "description": "Язвительная, острая комедия об оставшихся без средств супружеской чете, которая решается продать свою самую ценную вещицу - маленькую скульптуру Генри Мура. Когда же решение принято, они с ужасом обнаруживают, что скульптура украдена. В этот отчаянный момент их любовь и доверие друг к другу проходят испытание на прочность.",
  "iframe_url": "",
  "iframe_poster": null,
  "poster": "https://img.imgilall.me/movies/franchise/3/0/4/8/5/0/0/0/0/0/610x900_30485.jpg",
  "country": {
    "1": "США",
    "2": "Великобритания"
  },
  "collection": [],
  "genre": {
    "25": "Криминал",
    "19": "Комедия",
    "7": "Драма"
  },
  "director": [
    "Майкл Линдсей-Хогг"
  ],
  "screenwriter": [
    "Майкл Линдсей-Хогг"
  ],
  "producer": [
    "Джон С. Денни",
    "Кэри Брокау",
    "Алекс Гоарина"
  ],
  "operator": [
    "Дэвид Уоткин"
  ],
  "composer": [
    "Том Балер"
  ],
  "design": [
    "Дерек Додд",
    "Лес Лэнсдаун"
  ],
  "editor": [
    "Рут Фостер"
  ],
  "actors": [
    "Джон Малкович",
    "Энди МакДауэлл",
    "Лолита Давидович",
    "Руди Дейвис",
    "Джосс Экленд",
    "Билл Патерсон",
    "Ricci Harnett",
    "Питер Ригерт",
    "Джек Шепард",
    "Розмари Мартин"
  ],
  "actors_dubl": [],
  "trivia": [],
  "trailers": [],
  "seasons": [],
  "voiceActing": [
    "НТВ"
  ],
  "subtitle": [],
  "parts": []
}
