{
  "id": 30505,
  "name": "Террордактиль",
  "name_eng": "Terrordactyl",
  "year": 2016,
  "slogan": "«Get ready to kick some past»",
  "age": null,
  "type": "film",
  "quality": "SD",
  "imdb": "4.3",
  "imdb_id": "0",
  "kinopoisk": null,
  "kinopoisk_id": "837549",
  "world_art": null,
  "world_art_id": null,
  "time": "95 мин. / 01:35",
  "ads": false,
  "premier": "2016-04-16",
  "premier_rus": "2016-04-17",
  "availability": "2016-04-18",
  "activate_time": "2020-07-11 04:24:00",
  "budget": null,
  "fees_use": null,
  "fees_world": null,
  "fees_rus": null,
  "rate_mpaa": null,
  "description": "Когда древние летающие рептилии нападают на Лос-Анджелес, это становится поводом для двух друзей провести день с пользой.",
  "iframe_url": "",
  "iframe_poster": null,
  "poster": "https://img.imgilall.me/movies/franchise/3/0/5/0/5/0/0/0/0/0/610x900_30505.jpg",
  "country": {
    "1": "США"
  },
  "collection": [],
  "genre": {
    "9": "Приключения",
    "26": "Ужасы",
    "11": "Фантастика",
    "19": "Комедия",
    "17": "Боевик",
    "13": "Триллер"
  },
  "director": [
    "Дон Биттерс III",
    "Джофф Райснер"
  ],
  "screenwriter": [
    "Дон Биттерс III"
  ],
  "producer": [
    "Эрик Эдмондс",
    "Дон Биттерс III",
    "Джон Бошер"
  ],
  "operator": [
    "Джофф Райснер"
  ],
  "composer": [
    "Мэтт Парра"
  ],
  "design": [
    "Chewie K. Darsow",
    "Аарон Арнольд"
  ],
  "editor": [
    "Джофф Райснер"
  ],
  "actors": [
    "Jack Curenton",
    "Бьянка Хаазе",
    "Кристофер Джон Дженнингс",
    "Кевин Китор",
    "Адам Ки",
    "Дэвид Ландри",
    "Кэндис Нюнес",
    "Леонэль Олива",
    "Виктория Саммер",
    "Джейсон Тобиаш"
  ],
  "actors_dubl": [],
  "trivia": [],
  "trailers": [],
  "seasons": [],
  "voiceActing": [
    "Рус. Проф. многоголосый"
  ],
  "subtitle": [],
  "parts": []
}
