{
  "id": 30521,
  "name": "На пляже",
  "name_eng": "Beaches",
  "year": 2017,
  "slogan": "—",
  "age": null,
  "type": "film",
  "quality": "HD (720p)",
  "imdb": "5.3",
  "imdb_id": "0",
  "kinopoisk": null,
  "kinopoisk_id": "997300",
  "world_art": null,
  "world_art_id": null,
  "time": "87 мин. / 01:27",
  "ads": false,
  "premier": "2017-01-21",
  "premier_rus": "2017-01-22",
  "availability": "2017-01-23",
  "activate_time": "2020-07-11 06:38:00",
  "budget": null,
  "fees_use": null,
  "fees_world": null,
  "fees_rus": null,
  "rate_mpaa": null,
  "description": "История о дружбе двух девушек из разных социальных слоев, случайно познакомившихся на пляже в Калифорнии. Одна — не очень обеспеченная Си-Си Блум, мечтающая о карьере звезды, а вторая —  богатая аристократка Хилари Уитни.",
  "iframe_url": "",
  "iframe_poster": null,
  "poster": "https://img.imgilall.me/movies/franchise/3/0/5/2/1/0/0/0/0/0/610x900_30521.jpg",
  "country": {
    "1": "США"
  },
  "collection": [],
  "genre": {
    "7": "Драма"
  },
  "director": [
    "Эллисон Андерс"
  ],
  "screenwriter": [
    "Мэри Агнес Донохью",
    "Барт Бэйкер",
    "Айрис Рэйнер Дарт"
  ],
  "producer": [
    "Харви Кан",
    "Дениз Ди Нови",
    "Элисон Гринспен"
  ],
  "operator": [
    "Джон Броуили"
  ],
  "composer": [
    "Лесли Барбер"
  ],
  "design": [
    "Рона Мейерс",
    "Brant Lindroos"
  ],
  "editor": [
    "Марк Буржуа"
  ],
  "actors": [
    "Идина Мензел",
    "Ниа Лонг",
    "Антонио Цупо",
    "Карди Вонг",
    "Колин Лоуренс",
    "Кэтрин Айзек",
    "Ребекка Хусейн",
    "Джеки Блэкмор",
    "Барбара Билл",
    "Санай Виктория"
  ],
  "actors_dubl": [],
  "trivia": [],
  "trailers": [],
  "seasons": [],
  "voiceActing": [
    "Рус. Люб. многоголосый"
  ],
  "subtitle": [],
  "parts": []
}
