{
  "id": 30667,
  "name": "Исповедь молодого свидетеля: Не нужен мне ваш Иисус",
  "name_eng": "Confessions of a Teenage Jesus Jerk",
  "year": 2017,
  "slogan": "—",
  "age": null,
  "type": "film",
  "quality": "HD (720p)",
  "imdb": "6.0",
  "imdb_id": "0",
  "kinopoisk": null,
  "kinopoisk_id": "973348",
  "world_art": null,
  "world_art_id": null,
  "time": "95 мин. / 01:35",
  "ads": false,
  "premier": null,
  "premier_rus": null,
  "availability": null,
  "activate_time": "2020-07-11 08:49:00",
  "budget": null,
  "fees_use": null,
  "fees_world": null,
  "fees_rus": null,
  "rate_mpaa": null,
  "description": "Гейб вырос в семье свидетелей Иеговы, и религия нисколько ему не мешала, пока он не начал взрослеть. Не только обычный подростковый образ жизни с желанием встречаться с девушками и ходить на вечеринки, но и проблески критического мышления заставляют Гейба задаться вопросами об искренности своей веры и правильности выбранного пути.",
  "iframe_url": "",
  "iframe_poster": null,
  "poster": "https://img.imgilall.me/movies/franchise/3/0/6/6/7/0/0/0/0/0/610x900_30667.jpg",
  "country": {
    "1": "США"
  },
  "collection": [],
  "genre": {
    "19": "Комедия",
    "8": "Мелодрама",
    "7": "Драма"
  },
  "director": [
    "Эрик Столц"
  ],
  "screenwriter": [
    "Tony DuShane"
  ],
  "producer": [
    "Крэйг Дау",
    "Леа Стайгер",
    "Эрик Столц"
  ],
  "operator": [
    "Гэвин Фишер"
  ],
  "composer": [
    "Брайан Бирн"
  ],
  "design": [
    "Эми Кастеллано",
    "Nikki Fosmore",
    "Адриана Ламбарри"
  ],
  "editor": [
    "Даррен Эйрс",
    "Дарольд Кротзер"
  ],
  "actors": [
    "Саша Фельдман",
    "Николас Харсин",
    "Kit DeZolt",
    "Лорен Лакис",
    "Пол Адельштейн",
    "Тара Саммерс",
    "Рид Даймонд",
    "Джеймс Карен",
    "Шари Белафонте",
    "Сэм Беренс"
  ],
  "actors_dubl": [],
  "trivia": [],
  "trailers": [],
  "seasons": [],
  "voiceActing": [
    "Рус. Люб. многоголосый"
  ],
  "subtitle": [],
  "parts": []
}
