{
  "id": 30687,
  "name": "Войны бессмертных",
  "name_eng": "The Immortal Wars",
  "year": 2018,
  "slogan": "«May the strongest win»",
  "age": null,
  "type": "film",
  "quality": "SD",
  "imdb": "3.6",
  "imdb_id": "0",
  "kinopoisk": null,
  "kinopoisk_id": "960460",
  "world_art": null,
  "world_art_id": null,
  "time": "92 мин. / 01:32",
  "ads": false,
  "premier": "2018-07-03",
  "premier_rus": "2018-07-04",
  "availability": "2018-07-05",
  "activate_time": "2020-07-11 04:59:00",
  "budget": null,
  "fees_use": null,
  "fees_world": null,
  "fees_rus": null,
  "rate_mpaa": null,
  "description": "События фильма разворачиваются в постапокалиптическом мире, где территории были поделены между десятью странами, которые назвали секторами. Самым могущественным из них был признан сектор США. Но в результате облучения появилась и ещё одна раса – девианты, обладающие сверхспособностями.Для развлечения зрителей сумасшедший Доминион Харви создаёт шоу-программу Immortal Wars. Войны Бессмертных транслируются на всю планету. Смертельный турнир между девиантами неизменно привлекает внимание зрителей. Но в сердцах самих девиантов давно зреют мысли о сопротивлении. И однажды Олав – единственный за всю историю турнира девиант десятой категории — принимает судьбоносное решение разорвать существующий порочный круг и, заручившись поддержкой других девиантов, избавиться от своих угнетателей.",
  "iframe_url": "",
  "iframe_poster": null,
  "poster": "https://img.imgilall.me/movies/franchise/3/0/6/8/7/0/0/0/0/0/610x900_30687.jpg",
  "country": {
    "1": "США"
  },
  "collection": [],
  "genre": {
    "17": "Боевик"
  },
  "director": [
    "Джо Луйан"
  ],
  "screenwriter": [
    "Джо Луйан"
  ],
  "producer": [
    "Шон Жерардо",
    "Бен Стоббер",
    "Donna Fischer"
  ],
  "operator": [
    "July Castillo"
  ],
  "composer": [
    "Эрик Дайер"
  ],
  "design": [
    "Джо Луйан",
    "Jose Lujan"
  ],
  "editor": [
    "Джо Луйан"
  ],
  "actors": [
    "Эрик Робертс",
    "Том Сайзмор",
    "Билл Оберст мл.",
    "Шон Жерардо",
    "Jackie Gerhardy",
    "Тейлор Килгор",
    "Линдси Крус",
    "Марк Джастис",
    "James Bahm",
    "Кристина Буэнавентура"
  ],
  "actors_dubl": [],
  "trivia": [],
  "trailers": [],
  "seasons": [],
  "voiceActing": [
    "Рус. Люб. многоголосый"
  ],
  "subtitle": [],
  "parts": []
}
