{
  "id": 3074,
  "name": "Частная жизнь",
  "name_eng": "Private Life",
  "year": 2018,
  "slogan": null,
  "age": "16+",
  "type": "film",
  "quality": "HD (720p)",
  "imdb": "7.2",
  "imdb_id": "5536610",
  "kinopoisk": "6.7",
  "kinopoisk_id": "1028104",
  "world_art": null,
  "world_art_id": null,
  "time": "123 мин. / 02:03",
  "ads": false,
  "premier": "2018-01-18",
  "premier_rus": null,
  "availability": null,
  "activate_time": "2018-10-31 09:59:18",
  "budget": null,
  "fees_use": null,
  "fees_world": null,
  "fees_rus": null,
  "rate_mpaa": "R",
  "description": "Ричард и Рэйчел — семейная пара, переживающая кризис из-за бездетности. В надежде завести потомство и сохранить брак, который незаметно трещит по швам, они используют все возможные способы оплодотворения. Очередная попытка заканчивается неудачей, и, кажется, что всё потеряно, когда в их жизни вновь появляется девушка Сэди. Она помогает Ричарду и Рэйчел по-новому взглянуть на жизнь.",
  "iframe_url": "",
  "iframe_poster": "https://img.imgilall.me/movies/video/2/8/5/1/1/0/0/0/0/0/800x450_28511.jpeg",
  "poster": "https://img.imgilall.me/movies/franchise/3/0/7/4/0/0/0/0/0/0/610x900_3074.jpg",
  "country": {
    "1": "США"
  },
  "collection": {
    "40": "Netflix"
  },
  "genre": {
    "10": "Зарубежный",
    "7": "Драма"
  },
  "director": [
    "Тамара Дженкинс"
  ],
  "screenwriter": [
    "Тамара Дженкинс"
  ],
  "producer": [
    "Стефани Аспиазу",
    "Энтони Брегман",
    "Тамара Дженкинс"
  ],
  "operator": [
    "Христос Вудурис"
  ],
  "composer": [],
  "design": [
    "Форд Вилер",
    "Энди Эклунд",
    "Леа Кацнелсон"
  ],
  "editor": [
    "Брайан А. Кейтс"
  ],
  "actors": [
    "Кэтрин Хан",
    "Пол Джаматти",
    "Gabrielle Reid",
    "Эми Русс",
    "Кэролайн Мартин",
    "Ник Салливан",
    "Эттьенн Парк",
    "Дэнис О’Хэр",
    "Молли Шеннон",
    "Джон Кэрролл Линч"
  ],
  "actors_dubl": [],
  "trivia": [],
  "trailers": [],
  "seasons": [],
  "voiceActing": [
    "HDRezka Studio",
    "Eng.Original"
  ],
  "subtitle": [],
  "parts": []
}
