{
  "id": 3076,
  "name": "Солнце",
  "name_eng": "Solis",
  "year": 2018,
  "slogan": "«The Mission: Survival»",
  "age": "12+",
  "type": "film",
  "quality": "FHD (1080p)",
  "imdb": "4.7",
  "imdb_id": "6134274",
  "kinopoisk": "4.6",
  "kinopoisk_id": "1014067",
  "world_art": null,
  "world_art_id": null,
  "time": "92 мин. / 01:32",
  "ads": false,
  "premier": "2018-06-27",
  "premier_rus": null,
  "availability": null,
  "activate_time": "2018-10-31 10:02:42",
  "budget": null,
  "fees_use": null,
  "fees_world": null,
  "fees_rus": null,
  "rate_mpaa": null,
  "description": "Очнувшись, Трой Холлоуэй осознает, что находится в шаттле, направляющемся в сторону Солнца. Командир Робертс вместе с командой уже мчится ему на помощь, однако Холлоуэй после недавней потери сына не особо жаждет спасения. Тем не менее командир не позволяет ему спокойно ждать смерти и всячески поддерживает его с помощью слабой радиосвязи, полный решимости вытащить Троя из этого ада.",
  "iframe_url": "",
  "iframe_poster": null,
  "poster": "https://img.imgilall.me/movies/franchise/3/0/7/6/0/0/0/0/0/0/610x900_3076.jpg",
  "country": {
    "2": "Великобритания"
  },
  "collection": {
    "28": "Про космос"
  },
  "genre": {
    "11": "Фантастика",
    "10": "Зарубежный",
    "7": "Драма"
  },
  "director": [
    "Carl Strathie"
  ],
  "screenwriter": [
    "Carl Strathie"
  ],
  "producer": [
    "Шарлетт Килби",
    "Алан Лэтэм",
    "Carl Strathie"
  ],
  "operator": [
    "Бартломей Сенкевич"
  ],
  "composer": [
    "Дэвид Стоун Хэмилтон"
  ],
  "design": [
    "Тони Ноубл",
    "Charles De La Mare",
    "Frances Collier"
  ],
  "editor": [
    "Chris Timson"
  ],
  "actors": [
    "Стивен Огг",
    "Элис Лоу",
    "Сид Феникс",
    "Генри Даутуэйт",
    "Кейт Куган",
    "Шарлетт Килби",
    "Jonathan Calloway"
  ],
  "actors_dubl": [],
  "trivia": [],
  "trailers": [],
  "seasons": [],
  "voiceActing": [
    "HDRezka Studio"
  ],
  "subtitle": [],
  "parts": []
}
