{
  "id": 30790,
  "name": "Гора 2",
  "name_eng": "Dag II",
  "year": 2016,
  "slogan": "«One dies, a thousand rises»",
  "age": null,
  "type": "film",
  "quality": "HD (720p)",
  "imdb": "8.7",
  "imdb_id": "0",
  "kinopoisk": "5.9",
  "kinopoisk_id": "1007934",
  "world_art": null,
  "world_art_id": null,
  "time": "135 мин. / 02:15",
  "ads": false,
  "premier": "2016-11-04",
  "premier_rus": "2016-11-05",
  "availability": "2016-11-06",
  "activate_time": "2020-07-12 07:58:00",
  "budget": "TRL 2 000 000",
  "fees_use": null,
  "fees_world": "$11 378 898",
  "fees_rus": null,
  "rate_mpaa": null,
  "description": "Группа турецких спецназовцев отправляется в Ирак для спасения оппозиционной журналистки, известной своей критикой армии. Террористы, захватившие ее в плен, планируют транслировать показательную казнь женщины на весь мир. В процессе миссии спасения спецотряду придется не только оказаться в глубоком тылу противника, но и дать бой превосходящему по численности отряду, защищая брошенную на произвол судьбы туркменскую деревню.",
  "iframe_url": "",
  "iframe_poster": null,
  "poster": "https://img.imgilall.me/movies/franchise/3/0/7/9/0/0/0/0/0/0/610x900_30790.jpg",
  "country": {
    "36": "Турция"
  },
  "collection": [],
  "genre": {
    "32": "Военный",
    "17": "Боевик",
    "7": "Драма"
  },
  "director": [
    "Алпер Каглар"
  ],
  "screenwriter": [
    "Алпер Каглар"
  ],
  "producer": [
    "Дорук Акар",
    "Selda Acar",
    "Эрдем Алтинбилек"
  ],
  "operator": [
    "Мехмет Басбаран"
  ],
  "composer": [
    "Пол Инглишбай"
  ],
  "design": [],
  "editor": [
    "Алпер Каглар"
  ],
  "actors": [
    "Чаглар Эртугрул",
    "Уфук Байрактар",
    "Аху Тюркпенче",
    "Мурат Серезли",
    "Atilgan Gümüs",
    "Мурат Аркин",
    "Армаган Огуз",
    "Ahmet Pinar",
    "Ачелья Озджан",
    "Бедии Акын"
  ],
  "actors_dubl": [],
  "trivia": [
    "В фильме играют настоящие военнослужащие. Один из них, Юнус Эмре Укар, впоследствии погиб на задании.",
    "Семеро актёров, исполняющих роли спецназовцев, прошли 4-месячный курс боевой подготовки.",
    "Первый фильм турецкого производства, созданный при поддержке Вооружённых сил Турции. Все показанные в фильме виды оружия созданы в Турции и применяются армией Турецкой Республики."
  ],
  "trailers": [],
  "seasons": [],
  "voiceActing": [
    "Рус. Люб. многоголосый"
  ],
  "subtitle": [],
  "parts": []
}
