{
  "id": 3079,
  "name": "Покупатель, бойся!",
  "name_eng": "Gat nguk",
  "year": 2018,
  "slogan": null,
  "age": "16+",
  "type": "film",
  "quality": "HD (720p)",
  "imdb": "5.1",
  "imdb_id": "8541440",
  "kinopoisk": null,
  "kinopoisk_id": "1138896",
  "world_art": null,
  "world_art_id": null,
  "time": "98 мин. / 01:38",
  "ads": true,
  "premier": "2018-06-28",
  "premier_rus": null,
  "availability": null,
  "activate_time": "2018-10-31 10:12:28",
  "budget": null,
  "fees_use": null,
  "fees_world": null,
  "fees_rus": null,
  "rate_mpaa": null,
  "description": "Молодой принципиальный риэлтор Чарли желает моментально обогатиться и ради этого устраивается на службу в учреждение с запятнанной репутацией. Но скоро Чарли осознает, что его новые руководители не только часто вступают в сделку с совестью, однако еще и действуют с потусторонними силами.",
  "iframe_url": "",
  "iframe_poster": "https://img.imgilall.me/movies/video/2/8/7/8/1/0/0/0/0/0/800x450_28781.jpeg",
  "poster": "https://img.imgilall.me/movies/franchise/3/0/7/9/0/0/0/0/0/0/610x900_3079.jpg",
  "country": {
    "12": "Гонконг"
  },
  "collection": {
    "22": "Про призраков",
    "21": "Для молодёжи",
    "50": "Про агентов"
  },
  "genre": {
    "26": "Ужасы",
    "10": "Зарубежный"
  },
  "director": [
    "Джеффри Чиан"
  ],
  "screenwriter": [],
  "producer": [],
  "operator": [],
  "composer": [],
  "design": [],
  "editor": [],
  "actors": [
    "Карлос Чан",
    "Кармен Тун",
    "Мими Кун",
    "Квок Кюн Чун",
    "Брайант Мак"
  ],
  "actors_dubl": [],
  "trivia": [],
  "trailers": [],
  "seasons": [],
  "voiceActing": [
    "Рус. Люб. многоголосый"
  ],
  "subtitle": [],
  "parts": []
}
