{
  "id": 30857,
  "name": "Летучий отряд Скотланд-Ярда",
  "name_eng": "The Sweeney",
  "year": 2012,
  "slogan": "«Чтобы поймать преступника - действуй как преступник»",
  "age": "16+",
  "type": "film",
  "quality": "HD (720p)",
  "imdb": "6.1",
  "imdb_id": "0",
  "kinopoisk": "6.3",
  "kinopoisk_id": "648929",
  "world_art": null,
  "world_art_id": null,
  "time": "112 мин. / 01:52",
  "ads": false,
  "premier": "2012-08-01",
  "premier_rus": "2012-08-02",
  "availability": "2012-08-03",
  "activate_time": "2020-07-23 09:37:00",
  "budget": "£ 3 000 000",
  "fees_use": "$26 650",
  "fees_world": "+ $7 681 662 = $7 708 312",
  "fees_rus": null,
  "rate_mpaa": "R",
  "description": "Британская полиция прикладывает максимум усилий, чтобы преступники были наказаны. Но детектив Джек Риген борется с преступностью по-своему: грязными, незаконными и жестокими методами.",
  "iframe_url": "",
  "iframe_poster": null,
  "poster": "https://img.imgilall.me/movies/franchise/3/0/8/5/7/0/0/0/0/0/610x900_30857.jpg",
  "country": {
    "2": "Великобритания"
  },
  "collection": [],
  "genre": {
    "25": "Криминал",
    "17": "Боевик",
    "7": "Драма"
  },
  "director": [
    "Ник Лав"
  ],
  "screenwriter": [
    "Ник Лав",
    "Джон Ходж",
    "Йен Кеннеди Мартин"
  ],
  "producer": [
    "Аллан Нибло",
    "Руперт Престон",
    "Джеймс Ричардсон"
  ],
  "operator": [
    "Саймон Дэннис"
  ],
  "composer": [
    "Лорн Бэлф"
  ],
  "design": [
    "Морган Кеннеди",
    "Герард Брайан",
    "Эндрю Кокс"
  ],
  "editor": [
    "Джеймс Херберт"
  ],
  "actors": [
    "Рэй Уинстон",
    "Бен Дрю",
    "Хейли Этвелл",
    "Стивен Макинтош",
    "Пол Андерсон",
    "Алан Форд",
    "Дэмиэн Льюис",
    "Кэролайн Чикези",
    "Аллен Лич",
    "Ронни Фокс"
  ],
  "actors_dubl": [],
  "trivia": [],
  "trailers": [],
  "seasons": [],
  "voiceActing": [
    "Diva Universal"
  ],
  "subtitle": [],
  "parts": []
}
