{
  "id": 31068,
  "name": "1+Эверест",
  "name_eng": "L'ascension",
  "year": 2017,
  "slogan": "—",
  "age": null,
  "type": "film",
  "quality": "HD (720p)",
  "imdb": "6.9",
  "imdb_id": "0",
  "kinopoisk": "6.4",
  "kinopoisk_id": "949055",
  "world_art": null,
  "world_art_id": null,
  "time": "103 мин. / 01:43",
  "ads": false,
  "premier": "2017-01-18",
  "premier_rus": "2017-01-19",
  "availability": "2017-01-20",
  "activate_time": "2020-07-17 20:59:00",
  "budget": "€6 000 000",
  "fees_use": null,
  "fees_world": null,
  "fees_rus": null,
  "rate_mpaa": null,
  "description": "История темнокожего француза Сами, который находит беспроигрышный путь к сердцу прекрасной возлюбленной – вверх по Эвересту. Невзирая на отсутствие опыта, он взбирается на вершину мира, привлекая внимание не только своей подруги, но и всей Франции.",
  "iframe_url": "",
  "iframe_poster": null,
  "poster": "https://img.imgilall.me/movies/franchise/3/1/0/6/8/0/0/0/0/0/610x900_31068.jpg",
  "country": {
    "9": "Франция"
  },
  "collection": [],
  "genre": {
    "9": "Приключения",
    "19": "Комедия",
    "8": "Мелодрама"
  },
  "director": [
    "Людовик Бернард"
  ],
  "screenwriter": [
    "Людовик Бернард",
    "Nadir Dendoune",
    "Olivier Ducray"
  ],
  "producer": [
    "Laurence Lascary",
    "Adoum Djibrine-Peterman",
    "Julie Meyer"
  ],
  "operator": [
    "Янник Рессижеак"
  ],
  "composer": [
    "Люсьен Папалу",
    "Лорен Саваньяк"
  ],
  "design": [
    "Себастьен Инизан",
    "Патрик Шмитт",
    "Клер Лаказе"
  ],
  "editor": [
    "Romain Rioult"
  ],
  "actors": [
    "Ахмед Силла",
    "Алис Белаиди",
    "Кевин Рази",
    "Николас Ваншицкий",
    "Waly Dia",
    "Маймуна Гуйе",
    "Денис М’Пунга",
    "Фадила Белкебла",
    "Мусса Мааскри",
    "Умеш Таманг"
  ],
  "actors_dubl": [],
  "trivia": [],
  "trailers": [],
  "seasons": [],
  "voiceActing": [
    "Рус. Люб. многоголосый"
  ],
  "subtitle": [],
  "parts": []
}
