{
  "id": 31086,
  "name": "Потерянные девушки Мэнсона",
  "name_eng": "Manson's Lost Girls",
  "year": 2016,
  "slogan": "«Follow the leader»",
  "age": null,
  "type": "film",
  "quality": "HD (720p)",
  "imdb": "5.2",
  "imdb_id": "0",
  "kinopoisk": null,
  "kinopoisk_id": "917769",
  "world_art": null,
  "world_art_id": null,
  "time": "120 мин. / 02:00",
  "ads": false,
  "premier": "2016-02-06",
  "premier_rus": "2016-02-07",
  "availability": "2016-02-08",
  "activate_time": "2020-06-28 09:40:00",
  "budget": null,
  "fees_use": null,
  "fees_world": null,
  "fees_rus": null,
  "rate_mpaa": null,
  "description": "Линда Касабиан поддается гипнотическим чарам Чарли Мэнсона и его самопровозглашенной секты или «семьи». События разворачиваются летом 1969 года.",
  "iframe_url": "",
  "iframe_poster": null,
  "poster": "https://img.imgilall.me/movies/franchise/3/1/0/8/6/0/0/0/0/0/610x900_31086.jpg",
  "country": {
    "1": "США"
  },
  "collection": [],
  "genre": {
    "25": "Криминал",
    "13": "Триллер",
    "7": "Драма"
  },
  "director": [
    "Лесли Либман"
  ],
  "screenwriter": [
    "Мэттью Табак",
    "Стивен Крониш"
  ],
  "producer": [
    "Майк Шульц",
    "Нэнси Беннетт",
    "Кайл А. Кларк"
  ],
  "operator": [
    "Антонио Кальваче"
  ],
  "composer": [
    "Дэнни Люкс"
  ],
  "design": [
    "Синтия Е. Хилл",
    "Дороти Амос",
    "Линда Сфирис"
  ],
  "editor": [
    "Josh Hegard"
  ],
  "actors": [
    "Маккензи Мози",
    "Иден Бролин",
    "Грэйс Виктория Кокс",
    "Грир Грэммер",
    "Кристиан Мэдсен",
    "Изабель Шилл",
    "Гаррет Коффи",
    "Морган Кранц",
    "Джефф Уорд",
    "Джон Ф. Гофф"
  ],
  "actors_dubl": [],
  "trivia": [],
  "trailers": [],
  "seasons": [],
  "voiceActing": [
    "Рус. Люб. многоголосый"
  ],
  "subtitle": [],
  "parts": []
}
