{
  "id": 31172,
  "name": "Барби: Волшебство Пегаса",
  "name_eng": "Barbie and the Magic of Pegasus 3-D",
  "year": 2005,
  "slogan": "—",
  "age": null,
  "type": "cartoon",
  "quality": "SD",
  "imdb": "6.5",
  "imdb_id": "0",
  "kinopoisk": "6.3",
  "kinopoisk_id": "230853",
  "world_art": null,
  "world_art_id": null,
  "time": "83 мин. / 01:23",
  "ads": false,
  "premier": "2005-09-30",
  "premier_rus": "2005-10-01",
  "availability": "2005-10-02",
  "activate_time": "2020-07-11 17:30:00",
  "budget": null,
  "fees_use": null,
  "fees_world": null,
  "fees_rus": null,
  "rate_mpaa": null,
  "description": "Приключения принцессы Анники начинаются с того момента, как она подружилась с Бриттой, чудесным крылатым конем, который уносит ее в сказочное Королевство Облаков. У Анники есть всего три дня, чтобы разрушить чары злого колдуна Венлока, превратившего ее семью в камень.На пути к победе над Венлоком Анника встречает новых друзей и вместе с ними путешествует по заколдованным лесам, скользит в ледяных пещерах и летает над облаками, чтобы создать волшебную палочку, которая разрушит колдовство.",
  "iframe_url": "",
  "iframe_poster": null,
  "poster": "https://img.imgilall.me/movies/franchise/3/1/1/7/2/0/0/0/0/0/610x900_31172.jpg",
  "country": {
    "1": "США"
  },
  "collection": [],
  "genre": {
    "33": "Семейный",
    "8": "Мелодрама"
  },
  "director": [
    "Грег Ричардсон"
  ],
  "screenwriter": [
    "Элана Лессер",
    "Клифф Руби",
    "Рут Хэндлер"
  ],
  "producer": [
    "Люк Кэрролл",
    "Джесика К. Дарчин",
    "Ким Дент-Вайлдер"
  ],
  "operator": [],
  "composer": [
    "Арни Рот"
  ],
  "design": [
    "Уолтер П. Мартишиус"
  ],
  "editor": [
    "Логан МакФерсон"
  ],
  "actors": [
    "Келли Шеридан",
    "Кэтлин Барр",
    "Лалаиниа Линдбьерг",
    "Колин Мёрдок",
    "Марк Хилдрет",
    "Брайан Драммонд",
    "Расселл Робертс",
    "Джон ДеСантис",
    "Чантал Страндт",
    "Джессика Эмли"
  ],
  "actors_dubl": [],
  "trivia": [],
  "trailers": [],
  "seasons": [],
  "voiceActing": [
    "Cartoon Network"
  ],
  "subtitle": [],
  "parts": []
}
