{
  "id": 3134,
  "name": "Письма к М.",
  "name_eng": "Listy do M.",
  "year": 2011,
  "slogan": null,
  "age": "12+",
  "type": "film",
  "quality": "HD (720p)",
  "imdb": "7.1",
  "imdb_id": "1927077",
  "kinopoisk": "7.7",
  "kinopoisk_id": "589087",
  "world_art": null,
  "world_art_id": null,
  "time": "110 мин. / 01:50",
  "ads": false,
  "premier": "2011-11-11",
  "premier_rus": null,
  "availability": null,
  "activate_time": "2018-10-31 22:53:07",
  "budget": null,
  "fees_use": null,
  "fees_world": null,
  "fees_rus": null,
  "rate_mpaa": null,
  "description": "Главный герой успешный диджей на радио — Миколай. Ему звонят в эфир, чтобы поделиться своим несчастьем и для каждого у Миколая найдутся слова поддержки. Вот только себе помочь он не может: уже долгое время он справляет Рождество на студии в компании помощника. А его сын Костек в одиночестве с магнитофоном, который настроен на папину волну.",
  "iframe_url": "",
  "iframe_poster": "https://img.imgilall.me/movies/video/2/8/8/0/1/0/0/0/0/0/800x450_28801.jpeg",
  "poster": "https://img.imgilall.me/movies/franchise/3/1/3/4/0/0/0/0/0/0/610x900_3134.jpg",
  "country": {
    "14": "Польша"
  },
  "collection": {
    "36": "Романтические комедии",
    "38": "Про любовь",
    "3": "Рождественские",
    "11": "Для женщин"
  },
  "genre": {
    "19": "Комедия",
    "10": "Зарубежный",
    "8": "Мелодрама"
  },
  "director": [
    "Митя Окорн"
  ],
  "screenwriter": [
    "Сэм Акина",
    "Марчин Бачиньский",
    "Karolina Szablewska"
  ],
  "producer": [
    "Жариуш Гащёровски",
    "Изабела Лопуч"
  ],
  "operator": [
    "Мариан Прокоп"
  ],
  "composer": [
    "Лукаш Таргос"
  ],
  "design": [
    "Джоэнна Качиньска",
    "Магдалена Беджицка"
  ],
  "editor": [
    "Ярослав Барзан"
  ],
  "actors": [
    "Мачей Штур",
    "Рома Гонщёровска",
    "Томаш Кароляк",
    "Агнешка Дигант",
    "Петр Адамчик",
    "Катажина Зелиньска",
    "Павел Малашинский",
    "Катажина Буякевич",
    "Агнешка Вагнер",
    "Войчех Малайкат"
  ],
  "actors_dubl": [],
  "trivia": [],
  "trailers": [],
  "seasons": [],
  "voiceActing": [
    "Рус. Одноголосый"
  ],
  "subtitle": [],
  "parts": []
}
