{
  "id": 31362,
  "name": "Несколько слов о любви",
  "name_eng": "Dhaai Akshar Prem Ke",
  "year": 2000,
  "slogan": "«Love is the only inspiration...»",
  "age": "12+",
  "type": "film",
  "quality": "SD",
  "imdb": "3.7",
  "imdb_id": "0",
  "kinopoisk": "7.6",
  "kinopoisk_id": "69417",
  "world_art": null,
  "world_art_id": null,
  "time": "167 мин. / 02:47",
  "ads": false,
  "premier": "2000-09-29",
  "premier_rus": "2000-09-30",
  "availability": "2000-10-01",
  "activate_time": "2020-07-12 07:06:00",
  "budget": null,
  "fees_use": null,
  "fees_world": null,
  "fees_rus": null,
  "rate_mpaa": null,
  "description": "Капитан Карам влюблен в потрясающую красавицу Нишу. Однажды он приезжает в родной город в отпуск. На вокзале Каран встречает и спасает от нападения бандитов студентку колледжа Сахибу. Каран соглашается проводить Сахибу до дома, где его принимают за жениха девушки.Каран пытается прояснить ситуацию, однако его никто не слушает. Тогда он решает уехать тайком, но дома его ждет неожиданный сюрприз... Случайная встреча соединила их сердца!",
  "iframe_url": "",
  "iframe_poster": null,
  "poster": "https://img.imgilall.me/movies/franchise/3/1/3/6/2/0/0/0/0/0/610x900_31362.jpg",
  "country": {
    "26": "Индия"
  },
  "collection": [],
  "genre": {
    "8": "Мелодрама",
    "7": "Драма"
  },
  "director": [
    "Радж Канвар"
  ],
  "screenwriter": [
    "Джайнендра Джайн",
    "Радж Канвар",
    "Ратна Раджаиа"
  ],
  "producer": [
    "Радж Канвар",
    "К. Паппу",
    "Амардип Сингх"
  ],
  "operator": [
    "Ишвар Бидри"
  ],
  "composer": [
    "Джатин Пандит",
    "Лалит Пандит",
    "Нареш Шарма"
  ],
  "design": [
    "Р. Верман Шетти",
    "Анита Канвар",
    "Нита Лулла"
  ],
  "editor": [
    "Кулдип К. Механ"
  ],
  "actors": [
    "Абхишек Баччан",
    "Айшвария Рай Баччан",
    "Амриш Пури",
    "Анупам Кхер",
    "Шакти Капур",
    "Сушма Сетх",
    "Хариш Патель",
    "Далип Тахил",
    "Нина Кулкарни",
    "Танви Азми"
  ],
  "actors_dubl": [],
  "trivia": [],
  "trailers": [],
  "seasons": [],
  "voiceActing": [
    "Diva Universal"
  ],
  "subtitle": [],
  "parts": []
}
