{
  "id": 31373,
  "name": "Афтерпати",
  "name_eng": "After",
  "year": 2009,
  "slogan": "«Конечная остановка, последний открытый бар...»",
  "age": "18+",
  "type": "film",
  "quality": "SD",
  "imdb": "5.6",
  "imdb_id": "0",
  "kinopoisk": "6.3",
  "kinopoisk_id": "419191",
  "world_art": null,
  "world_art_id": null,
  "time": "116 мин. / 01:56",
  "ads": false,
  "premier": "2009-10-17",
  "premier_rus": "2011-06-02",
  "availability": "2011-06-03",
  "activate_time": "2020-07-12 08:38:00",
  "budget": null,
  "fees_use": null,
  "fees_world": null,
  "fees_rus": null,
  "rate_mpaa": null,
  "description": "Трое друзей не видели друг друга почти год. За ужином они обсуждают недавние события, а после ужина – прямая дорога по барам и клубам. На первый взгляд, той ночью они будут совершенно счастливы - ведь они все еще молоды, успешны и как будто не одиноки, но фильм сделает нас свидетелями разных версий бурной и насыщенной приключениями ночи.",
  "iframe_url": "",
  "iframe_poster": null,
  "poster": "https://img.imgilall.me/movies/franchise/3/1/3/7/3/0/0/0/0/0/610x900_31373.jpg",
  "country": {
    "3": "Испания"
  },
  "collection": [],
  "genre": {
    "7": "Драма"
  },
  "director": [
    "Альберто Родригес"
  ],
  "screenwriter": [
    "Рафаэль Кобос",
    "Альберто Родригес"
  ],
  "producer": [
    "Хосе Антонио Фелес",
    "Хервасио Иглесиас"
  ],
  "operator": [
    "Алекс Каталан"
  ],
  "composer": [
    "Хулио де ла Роса"
  ],
  "design": [
    "Пепе Домингес дель Олмо",
    "Фернандо Гарсия"
  ],
  "editor": [
    "Хосе М. Х. Мойано"
  ],
  "actors": [
    "Валерия Алонсо",
    "Пабло Баэна",
    "Рикардо де Баррейро",
    "Хесус Карроса",
    "Антонио Делла Каса",
    "Кристина Домингез",
    "Ксавьер Эстевес",
    "Даниэль Грао",
    "Эстебан Гарридо",
    "Хуан Мануэль Эрнандес"
  ],
  "actors_dubl": [],
  "trivia": [],
  "trailers": [],
  "seasons": [],
  "voiceActing": [
    "Важенин (BadBajo)"
  ],
  "subtitle": [],
  "parts": []
}
