{
  "id": 31427,
  "name": "Наши сумасшедшие годы",
  "name_eng": "Nos années folles",
  "year": 2017,
  "slogan": "—",
  "age": null,
  "type": "film",
  "quality": "HD (720p)",
  "imdb": "5.6",
  "imdb_id": "0",
  "kinopoisk": "6.0",
  "kinopoisk_id": "1000356",
  "world_art": null,
  "world_art_id": null,
  "time": "103 мин. / 01:43",
  "ads": false,
  "premier": "2017-05-22",
  "premier_rus": "2017-05-23",
  "availability": "2017-05-24",
  "activate_time": "2020-07-17 21:35:00",
  "budget": null,
  "fees_use": null,
  "fees_world": null,
  "fees_rus": null,
  "rate_mpaa": null,
  "description": "Основанная на реальных событиях история о дезертире Первой мировой войны, который с помощью жены проводит десять лет под видом женщины. После объявления амнистии он пытается вернуться к жизни в качестве мужчины.",
  "iframe_url": "",
  "iframe_poster": null,
  "poster": "https://img.imgilall.me/movies/franchise/3/1/4/2/7/0/0/0/0/0/610x900_31427.jpg",
  "country": {
    "9": "Франция"
  },
  "collection": [],
  "genre": {
    "7": "Драма"
  },
  "director": [
    "Андре Тешине"
  ],
  "screenwriter": [
    "Седрик Анже",
    "Андре Тешине",
    "Фабрис Вирджили"
  ],
  "producer": [
    "Лоран Петен",
    "Мишель Петен"
  ],
  "operator": [
    "Жюльен Хирш"
  ],
  "composer": [
    "Алексис Ро"
  ],
  "design": [
    "Катя Вышкоп",
    "Паскалин Шаванн"
  ],
  "editor": [
    "Альбертина Ластера"
  ],
  "actors": [
    "Пьер Деладоншам",
    "Селин Саллетт",
    "Грегуар Лепренс-Ренге",
    "Мишель Фо",
    "Вирджиния Прадаль",
    "Мама Прассино",
    "Axelle Equinet",
    "Петер Бонке",
    "Тамара Де Линер",
    "Clotilde Le Roy"
  ],
  "actors_dubl": [],
  "trivia": [],
  "trailers": [],
  "seasons": [],
  "voiceActing": [
    "Колобок"
  ],
  "subtitle": [],
  "parts": []
}
