{
  "id": 31490,
  "name": "На краю",
  "name_eng": "Cut Bank",
  "year": 2014,
  "slogan": "«Good Folks. Bad Deeds»",
  "age": null,
  "type": "film",
  "quality": "HD (720p)",
  "imdb": "6.1",
  "imdb_id": "0",
  "kinopoisk": "5.8",
  "kinopoisk_id": "678432",
  "world_art": null,
  "world_art_id": null,
  "time": "93 мин. / 01:33",
  "ads": false,
  "premier": "2014-06-16",
  "premier_rus": "2014-06-17",
  "availability": "2014-06-18",
  "activate_time": "2020-07-12 11:10:00",
  "budget": "$5 000 000",
  "fees_use": null,
  "fees_world": null,
  "fees_rus": null,
  "rate_mpaa": "R",
  "description": "Дуэйн МакЛарен живет в городе Кат Бэнк, штат Монтана, работает в автомастерской, но в школе был звездой футбола. Поскольку городок буквально застрял во времени, Дуэйну очень хочется вырваться из него. Он предпринимает все возможное, чтобы покинуть Кат Бэнк, тем самым запуская череду событий, которые изменят не только его жизнь, но и сам город.",
  "iframe_url": "",
  "iframe_poster": null,
  "poster": "https://img.imgilall.me/movies/franchise/3/1/4/9/0/0/0/0/0/0/610x900_31490.jpg",
  "country": {
    "1": "США"
  },
  "collection": [],
  "genre": {
    "25": "Криминал",
    "13": "Триллер",
    "7": "Драма"
  },
  "director": [
    "Мэтт Шекман"
  ],
  "screenwriter": [
    "Роберто Патино"
  ],
  "producer": [
    "Мики Барольд",
    "Дэн Коэн",
    "Тед О’Нил"
  ],
  "operator": [
    "Бен Ричардсон"
  ],
  "composer": [
    "Джеймс Ньютон Ховард"
  ],
  "design": [
    "Лаура Фокс",
    "Майрон Хайрак",
    "Чарльз Варга"
  ],
  "editor": [
    "Крэйг Вуд",
    "Кэрол Литтлтон"
  ],
  "actors": [
    "Лиам Хемсворт",
    "Тереза Палмер",
    "Билли Боб Торнтон",
    "Брюс Дерн",
    "Джон Малкович",
    "Майкл Стулбарг",
    "Джойс Роббинс",
    "Кристиан Дистефано",
    "Эйден Лонгуорт",
    "Чилтон Крэйн"
  ],
  "actors_dubl": [],
  "trivia": [
    "Съёмки фильма заняли 2 года. Они проходили в городах Эдмонтон и Иннисфри в канадской провинции Альберта."
  ],
  "trailers": [],
  "seasons": [],
  "voiceActing": [
    "Важенин (BadBajo)"
  ],
  "subtitle": [],
  "parts": []
}
