{
  "id": 31656,
  "name": "Мой кровавый Валентин 3D",
  "name_eng": "My Bloody Valentine",
  "year": 2009,
  "slogan": "«Он разобьет тебе сердце»",
  "age": "18+",
  "type": "film",
  "quality": "HD (720p)",
  "imdb": "5.4",
  "imdb_id": "0",
  "kinopoisk": "6.1",
  "kinopoisk_id": "409071",
  "world_art": null,
  "world_art_id": null,
  "time": "101 мин. / 01:41",
  "ads": false,
  "premier": "2009-01-08",
  "premier_rus": "2009-04-09",
  "availability": "2009-04-10",
  "activate_time": "2020-07-14 13:10:00",
  "budget": "$15 000 000",
  "fees_use": "$51 545 952",
  "fees_world": "+ $49 188 766 = $100 734 718",
  "fees_rus": "$2 093 298",
  "rate_mpaa": "R",
  "description": "Том возвращается в родной городок спустя 10 лет после ужасных событий, произошедших в День святого Валентина. С приездом молодого человека жители города начинают умирать от рук неизвестного маньяка, и подозрения сразу же падают на Тома. Вместе с девушкой Сарой, в которую он когда-то был влюблен, Том обязан найти неуловимого убийцу.",
  "iframe_url": "",
  "iframe_poster": null,
  "poster": "https://img.imgilall.me/movies/franchise/3/1/6/5/6/0/0/0/0/0/610x900_31656.jpg",
  "country": {
    "7": "Канада",
    "1": "США"
  },
  "collection": [],
  "genre": {
    "26": "Ужасы",
    "24": "Детектив",
    "13": "Триллер"
  },
  "director": [
    "Патрик Люссье"
  ],
  "screenwriter": [
    "Тодд Фармер",
    "Зейн Смит",
    "Джон Бейярд"
  ],
  "producer": [
    "Джек Л. Мюррэй",
    "Джон Даннинг",
    "Андре Линк"
  ],
  "operator": [
    "Брайан Пирсон"
  ],
  "composer": [
    "Майкл Вандмахер"
  ],
  "design": [
    "Зак Гроблер",
    "Эндрю Мёрдок",
    "Лиэнн Радека"
  ],
  "editor": [
    "Синтия Людвиг",
    "Патрик Люссье"
  ],
  "actors": [
    "Дженсен Эклс",
    "Джейми Кинг",
    "Керр Смит",
    "Бетси Ру",
    "Эди Гатеги",
    "Том Аткинс",
    "Кевин Тай",
    "Меган Бун",
    "Карен Баумм",
    "Джой де ла Пас"
  ],
  "actors_dubl": [
    "Пётр Иващенко",
    "Ольга Зубкова",
    "Василий Дахненко",
    "Людмила Шувалова",
    "Александр Рахленко"
  ],
  "trivia": [
    "Данный фильм — ремейк оригинальной ленты 1981 года."
  ],
  "trailers": [],
  "seasons": [],
  "voiceActing": [
    "Cartoon Network"
  ],
  "subtitle": [],
  "parts": []
}
