{
  "id": 3168,
  "name": "Человек будущего / Уборщик",
  "name_eng": "Future Man",
  "year": 2017,
  "slogan": "«Time travel has never made less sense »",
  "age": "18+",
  "type": "series",
  "quality": "FHD (1080p)",
  "imdb": "7.7",
  "imdb_id": "4975856",
  "kinopoisk": "7.4",
  "kinopoisk_id": "958578",
  "world_art": null,
  "world_art_id": null,
  "time": "30 мин.",
  "ads": false,
  "premier": "2017-11-14",
  "premier_rus": "2019-03-11",
  "availability": "2019-03-12",
  "serial_status": "offline",
  "activate_time": "2018-11-01 17:19:50",
  "budget": null,
  "fees_use": null,
  "fees_world": null,
  "fees_rus": null,
  "rate_mpaa": null,
  "description": "Джош Футтурман застрял на бесперспективной работе в должности уборщика, но большую часть своего времени он посвящает игре Biotic Wars, в которой ещё никто не побеждал. Когда Джош проходит игру до конца, ему наносят визит персонажи Biotic Wars, утверждающие, что они из будущего, в котором мир находится в опасности, и только Джош может его спасти.",
  "iframe_url": "",
  "poster": "https://img.imgilall.me/movies/franchise/3/1/6/8/0/0/0/0/0/0/610x900_3168.jpg",
  "country": {
    "1": "США"
  },
  "collection": {
    "96": "Про путешествия во времени",
    "118": "Hulu",
    "21": "Для молодёжи"
  },
  "genre": {
    "11": "Фантастика",
    "19": "Комедия",
    "10": "Зарубежный"
  },
  "director": [
    "Ниша Ганатра",
    "Эван Голдберг",
    "Сет Роген"
  ],
  "screenwriter": [
    "Кайл Хантер",
    "Эриель Шаффир"
  ],
  "producer": [
    "Джейсон Савилл",
    "Мишель Дешам",
    "Эван Голдберг"
  ],
  "operator": [
    "Корт Феи",
    "Брэндон Трост"
  ],
  "composer": [
    "Халли Котэри"
  ],
  "design": [
    "Джессика Кендер",
    "Крис Л. Спэллман",
    "Брайан Грего"
  ],
  "editor": [
    "Кристиан Хоффман",
    "Йен Кезбом",
    "Тирса Хэкшоу"
  ],
  "actors": [
    "Джош Хатчерсон",
    "Дерек Уилсон",
    "Элиза Куп",
    "Гленн Хедли",
    "Эд Бегли мл.",
    "Дрю Джеймс",
    "Mary Manofsky",
    "Роберт Крэйгхед",
    "Джейсон Скотт Дженкинс",
    "Бриттни Лоуэр"
  ],
  "actors_dubl": [],
  "trivia": [
    "Фамилия главного героя Джоша Футтурмана (Futturman) повторяет название сериала на английском языке Future Man.",
    "Сериал посвящён памяти Гленн Хедли, которая сыграла Дайан Фаттерман. 8 июня 2017 года актриса скончалась от осложнений тромбоэмболии лёгочной артерии на 63-м году жизни."
  ],
  "trailers": [
    {
      "name": "трейлер №1",
      "number": 1,
      "iframe_poster": "https://img.imgilall.me/movies/trailer/4/4/0/0/0/0/0/0/0/0/800x450_44.jpeg",
      "season": 2,
      "iframe_url": ""
    },
    {
      "name": "трейлер №1",
      "number": 1,
      "iframe_poster": null,
      "season": 3,
      "iframe_url": ""
    }
  ],
  "seasons": [
    {
      "poster": "https://img.imgilall.me/movies/season/1/7/5/6/0/0/0/0/0/0/610x900_1756.jpg",
      "release_ru": "2017-11-15",
      "release_world": "2017-11-14",
      "availability": "2017-11-16",
      "iframe_url": "",
      "season": 1,
      "episodes": [
        {
          "episode": 1,
          "name": "Pilot",
          "iframe_url": "",
          "iframe_poster": null,
          "release_ru": "2017-11-15",
          "release_world": "2017-11-14",
          "availability": "2017-11-16",
          "voiceActing": [
            "Кубик в кубе",
            "NewStudio",
            "LostFilm",
            "Baibako",
            "Eng.Original"
          ],
          "ads": false,
          "subtitle": [
            "Рус. форсированные"
          ]
        },
        {
          "episode": 2,
          "name": "Herpe: Fully Loaded",
          "iframe_url": "",
          "iframe_poster": null,
          "release_ru": "2017-11-15",
          "release_world": "2017-11-14",
          "availability": "2017-11-16",
          "voiceActing": [
            "Кубик в кубе",
            "NewStudio",
            "LostFilm",
            "Baibako",
            "Eng.Original"
          ],
          "ads": false,
          "subtitle": [
            "Рус. форсированные"
          ]
        },
        {
          "episode": 3,
          "name": "A Riphole in Time",
          "iframe_url": "",
          "iframe_poster": null,
          "release_ru": "2017-11-15",
          "release_world": "2017-11-14",
          "availability": "2017-11-16",
          "voiceActing": [
            "Кубик в кубе",
            "NewStudio",
            "LostFilm",
            "Baibako",
            "Eng.Original"
          ],
          "ads": false,
          "subtitle": [
            "Рус. форсированные"
          ]
        },
        {
          "episode": 4,
          "name": "A Fuel's Errand",
          "iframe_url": "",
          "iframe_poster": null,
          "release_ru": "2017-11-15",
          "release_world": "2017-11-14",
          "availability": "2017-11-16",
          "voiceActing": [
            "Кубик в кубе",
            "NewStudio",
            "LostFilm",
            "Baibako",
            "Eng.Original"
          ],
          "ads": false,
          "subtitle": [
            "Рус. форсированные"
          ]
        },
        {
          "episode": 5,
          "name": "Justice Desserts",
          "iframe_url": "",
          "iframe_poster": null,
          "release_ru": "2017-11-15",
          "release_world": "2017-11-14",
          "availability": "2017-11-16",
          "voiceActing": [
            "Кубик в кубе",
            "NewStudio",
            "LostFilm",
            "Baibako",
            "Eng.Original"
          ],
          "ads": false,
          "subtitle": [
            "Рус. форсированные"
          ]
        },
        {
          "episode": 6,
          "name": "A Blowjob Before Dying",
          "iframe_url": "",
          "iframe_poster": null,
          "release_ru": "2017-11-15",
          "release_world": "2017-11-14",
          "availability": "2017-11-16",
          "voiceActing": [
            "Кубик в кубе",
            "NewStudio",
            "LostFilm",
            "Baibako",
            "Eng.Original"
          ],
          "ads": false,
          "subtitle": [
            "Рус. форсированные"
          ]
        },
        {
          "episode": 7,
          "name": "Pandora's Mailbox",
          "iframe_url": "",
          "iframe_poster": null,
          "release_ru": "2017-11-15",
          "release_world": "2017-11-14",
          "availability": "2017-11-16",
          "voiceActing": [
            "Кубик в кубе",
            "NewStudio",
            "LostFilm",
            "Baibako",
            "Eng.Original"
          ],
          "ads": false,
          "subtitle": [
            "Рус. форсированные"
          ]
        },
        {
          "episode": 8,
          "name": "Girth, Wind & Fire",
          "iframe_url": "",
          "iframe_poster": null,
          "release_ru": "2017-11-15",
          "release_world": "2017-11-14",
          "availability": "2017-11-16",
          "voiceActing": [
            "Кубик в кубе",
            "NewStudio",
            "LostFilm",
            "Baibako",
            "Eng.Original"
          ],
          "ads": false,
          "subtitle": [
            "Рус. форсированные"
          ]
        },
        {
          "episode": 9,
          "name": "Operation: Fatal Attraction",
          "iframe_url": "",
          "iframe_poster": null,
          "release_ru": "2017-11-15",
          "release_world": "2017-11-14",
          "availability": "2017-11-16",
          "voiceActing": [
            "Кубик в кубе",
            "NewStudio",
            "LostFilm",
            "Baibako",
            "Eng.Original"
          ],
          "ads": false,
          "subtitle": [
            "Рус. форсированные"
          ]
        },
        {
          "episode": 10,
          "name": "Operation: Natal Attraction",
          "iframe_url": "",
          "iframe_poster": null,
          "release_ru": "2017-11-15",
          "release_world": "2017-11-14",
          "availability": "2017-11-16",
          "voiceActing": [
            "Кубик в кубе",
            "NewStudio",
            "LostFilm",
            "Baibako",
            "Eng.Original"
          ],
          "ads": false,
          "subtitle": [
            "Рус. форсированные"
          ]
        },
        {
          "episode": 11,
          "name": "Beyond the Truffledome",
          "iframe_url": "",
          "iframe_poster": null,
          "release_ru": "2017-11-15",
          "release_world": "2017-11-14",
          "availability": "2017-11-16",
          "voiceActing": [
            "Кубик в кубе",
            "NewStudio",
            "LostFilm",
            "Baibako",
            "Eng.Original"
          ],
          "ads": false,
          "subtitle": [
            "Рус. форсированные"
          ]
        },
        {
          "episode": 12,
          "name": "Prelude to an Apocalypse",
          "iframe_url": "",
          "iframe_poster": null,
          "release_ru": "2017-11-15",
          "release_world": "2017-11-14",
          "availability": "2017-11-16",
          "voiceActing": [
            "Кубик в кубе",
            "NewStudio",
            "LostFilm",
            "Baibako",
            "Eng.Original"
          ],
          "ads": false,
          "subtitle": [
            "Рус. форсированные"
          ]
        },
        {
          "episode": 13,
          "name": "A Date with Destiny",
          "iframe_url": "",
          "iframe_poster": null,
          "release_ru": "2017-11-15",
          "release_world": "2017-11-14",
          "availability": "2017-11-16",
          "voiceActing": [
            "Кубик в кубе",
            "NewStudio",
            "LostFilm",
            "Baibako",
            "Eng.Original"
          ],
          "ads": false,
          "subtitle": [
            "Рус. форсированные"
          ]
        }
      ]
    },
    {
      "poster": "https://img.imgilall.me/movies/season/3/0/5/4/0/0/0/0/0/0/610x900_3054.jpg",
      "release_ru": "2019-01-12",
      "release_world": "2019-01-11",
      "availability": "2019-01-13",
      "iframe_url": "",
      "season": 2,
      "episodes": [
        {
          "episode": 1,
          "name": "Countdown to a Prologue",
          "iframe_url": "",
          "iframe_poster": null,
          "release_ru": "2019-01-12",
          "release_world": "2019-01-11",
          "availability": "2019-01-13",
          "voiceActing": [
            "JASKIER",
            "NewStudio",
            "LostFilm",
            "Eng.Original"
          ],
          "ads": false,
          "subtitle": [
            "Eng. SDH"
          ]
        },
        {
          "episode": 2,
          "name": "The I of the Tiger",
          "iframe_url": "",
          "iframe_poster": null,
          "release_ru": "2019-01-12",
          "release_world": "2019-01-11",
          "availability": "2019-01-13",
          "voiceActing": [
            "JASKIER",
            "NewStudio",
            "LostFilm",
            "Eng.Original"
          ],
          "ads": false,
          "subtitle": [
            "Eng. SDH"
          ]
        },
        {
          "episode": 3,
          "name": "A Wolf in the Torque House",
          "iframe_url": "",
          "iframe_poster": null,
          "release_ru": "2019-01-12",
          "release_world": "2019-01-11",
          "availability": "2019-01-13",
          "voiceActing": [
            "JASKIER",
            "NewStudio",
            "LostFilm",
            "Eng.Original"
          ],
          "ads": false,
          "subtitle": [
            "Eng. SDH"
          ]
        },
        {
          "episode": 4,
          "name": "Guess Who's Coming to Lunch",
          "iframe_url": "",
          "iframe_poster": null,
          "release_ru": "2019-01-12",
          "release_world": "2019-01-11",
          "availability": "2019-01-13",
          "voiceActing": [
            "JASKIER",
            "NewStudio",
            "LostFilm",
            "Eng.Original"
          ],
          "ads": false,
          "subtitle": [
            "Eng. SDH"
          ]
        },
        {
          "episode": 5,
          "name": "J1: Judgement Day",
          "iframe_url": "",
          "iframe_poster": null,
          "release_ru": "2019-01-12",
          "release_world": "2019-01-11",
          "availability": "2019-01-13",
          "voiceActing": [
            "JASKIER",
            "NewStudio",
            "LostFilm",
            "Eng.Original"
          ],
          "ads": false,
          "subtitle": [
            "Eng. SDH"
          ]
        },
        {
          "episode": 6,
          "name": "The Binx Ultimatum",
          "iframe_url": "",
          "iframe_poster": null,
          "release_ru": "2019-01-12",
          "release_world": "2019-01-11",
          "availability": "2019-01-13",
          "voiceActing": [
            "JASKIER",
            "NewStudio",
            "Eng.Original"
          ],
          "ads": false,
          "subtitle": [
            "Eng. SDH"
          ]
        },
        {
          "episode": 7,
          "name": "Homicide: Life in the Mons",
          "iframe_url": "",
          "iframe_poster": null,
          "release_ru": "2019-01-12",
          "release_world": "2019-01-11",
          "availability": "2019-01-13",
          "voiceActing": [
            "JASKIER",
            "NewStudio",
            "Eng.Original"
          ],
          "ads": false,
          "subtitle": [
            "Eng. SDH"
          ]
        },
        {
          "episode": 8,
          "name": "The Last Horchata",
          "iframe_url": "",
          "iframe_poster": null,
          "release_ru": "2019-01-12",
          "release_world": "2019-01-11",
          "availability": "2019-01-13",
          "voiceActing": [
            "JASKIER",
            "NewStudio",
            "Eng.Original"
          ],
          "ads": false,
          "subtitle": [
            "Eng. SDH"
          ]
        },
        {
          "episode": 9,
          "name": "The Ballad of PUP-E Q. Barkington",
          "iframe_url": "",
          "iframe_poster": null,
          "release_ru": "2019-01-12",
          "release_world": "2019-01-11",
          "availability": "2019-01-13",
          "voiceActing": [
            "JASKIER",
            "NewStudio",
            "Eng.Original"
          ],
          "ads": false,
          "subtitle": [
            "Eng. SDH"
          ]
        },
        {
          "episode": 10,
          "name": "Exes and OS",
          "iframe_url": "",
          "iframe_poster": null,
          "release_ru": "2019-01-12",
          "release_world": "2019-01-11",
          "availability": "2019-01-13",
          "voiceActing": [
            "JASKIER",
            "NewStudio",
            "Eng.Original"
          ],
          "ads": false,
          "subtitle": [
            "Eng. SDH"
          ]
        },
        {
          "episode": 11,
          "name": "Dia De Los Robots",
          "iframe_url": "",
          "iframe_poster": null,
          "release_ru": "2019-01-12",
          "release_world": "2019-01-11",
          "availability": "2019-01-13",
          "voiceActing": [
            "JASKIER",
            "NewStudio",
            "Eng.Original"
          ],
          "ads": false,
          "subtitle": [
            "Eng. SDH"
          ]
        },
        {
          "episode": 12,
          "name": "The Brain Job",
          "iframe_url": "",
          "iframe_poster": null,
          "release_ru": "2019-01-12",
          "release_world": "2019-01-11",
          "availability": "2019-01-13",
          "voiceActing": [
            "JASKIER",
            "NewStudio",
            "Eng.Original"
          ],
          "ads": false,
          "subtitle": [
            "Eng. SDH"
          ]
        },
        {
          "episode": 13,
          "name": "Ultra-Max",
          "iframe_url": "",
          "iframe_poster": null,
          "release_ru": "2019-01-12",
          "release_world": "2019-01-11",
          "availability": "2019-01-13",
          "voiceActing": [
            "JASKIER",
            "NewStudio",
            "Eng.Original"
          ],
          "ads": false,
          "subtitle": [
            "Eng. SDH"
          ]
        }
      ]
    },
    {
      "poster": null,
      "release_ru": "2020-04-04",
      "release_world": "2020-04-03",
      "availability": "2020-04-05",
      "iframe_url": "",
      "season": 3,
      "episodes": [
        {
          "episode": 1,
          "name": "The Precipice of Yesterday",
          "iframe_url": "",
          "iframe_poster": null,
          "release_ru": "2020-04-04",
          "release_world": "2020-04-03",
          "availability": "2020-04-05",
          "voiceActing": [
            "LostFilm",
            "Eng.Original"
          ],
          "ads": false,
          "subtitle": [
            "Рус. полные"
          ]
        },
        {
          "episode": 2,
          "name": "There Will Be Borscht",
          "iframe_url": "",
          "iframe_poster": null,
          "release_ru": "2020-04-04",
          "release_world": "2020-04-03",
          "availability": "2020-04-05",
          "voiceActing": [
            "LostFilm",
            "Eng.Original"
          ],
          "ads": false,
          "subtitle": [
            "Рус. полные"
          ]
        },
        {
          "episode": 3,
          "name": "Trapper's Delight",
          "iframe_url": "",
          "iframe_poster": null,
          "release_ru": "2020-04-04",
          "release_world": "2020-04-03",
          "availability": "2020-04-05",
          "voiceActing": [
            "LostFilm",
            "Eng.Original"
          ],
          "ads": false,
          "subtitle": [
            "Рус. полные"
          ]
        },
        {
          "episode": 4,
          "name": "The Outlaw Wild Sam Bladden",
          "iframe_url": "",
          "iframe_poster": null,
          "release_ru": "2020-04-04",
          "release_world": "2020-04-03",
          "availability": "2020-04-05",
          "voiceActing": [
            "LostFilm",
            "Eng.Original"
          ],
          "ads": false,
          "subtitle": [
            "Рус. полные"
          ]
        },
        {
          "episode": 5,
          "name": "Haven Is for Real",
          "iframe_url": "",
          "iframe_poster": null,
          "release_ru": "2020-04-04",
          "release_world": "2020-04-03",
          "availability": "2020-04-05",
          "voiceActing": [
            "LostFilm",
            "Eng.Original"
          ],
          "ads": false,
          "subtitle": [
            "Рус. полные"
          ]
        },
        {
          "episode": 6,
          "name": "The Land After Time",
          "iframe_url": "",
          "iframe_poster": null,
          "release_ru": "2020-04-04",
          "release_world": "2020-04-03",
          "availability": "2020-04-05",
          "voiceActing": [
            "LostFilm",
            "Eng.Original"
          ],
          "ads": false,
          "subtitle": [
            "Рус. полные"
          ]
        },
        {
          "episode": 7,
          "name": "Time Rogues III: Escape from Forever",
          "iframe_url": "",
          "iframe_poster": null,
          "release_ru": "2020-04-04",
          "release_world": "2020-04-03",
          "availability": "2020-04-05",
          "voiceActing": [
            "LostFilm",
            "Eng.Original"
          ],
          "ads": false,
          "subtitle": [
            "Рус. полные"
          ]
        },
        {
          "episode": 8,
          "name": "Return of the Present",
          "iframe_url": "",
          "iframe_poster": null,
          "release_ru": "2020-04-04",
          "release_world": "2020-04-03",
          "availability": "2020-04-05",
          "voiceActing": [
            "LostFilm",
            "Eng.Original"
          ],
          "ads": false,
          "subtitle": [
            "Рус. полные"
          ]
        }
      ]
    }
  ],
  "voiceActing": [
    "Кубик в кубе",
    "NewStudio",
    "LostFilm",
    "Baibako",
    "Eng.Original",
    "JASKIER"
  ],
  "subtitle": [
    "Рус. форсированные",
    "Eng. SDH",
    "Рус. полные"
  ],
  "parts": []
}
