{
  "id": 31728,
  "name": "Волшебник",
  "name_eng": "The Wizard",
  "year": 1989,
  "slogan": "«They're on a cross-country adventure to the world's greatest video championship. It's more than a game...it's the chance of a lifetime»",
  "age": null,
  "type": "film",
  "quality": "HD (720p)",
  "imdb": "6.1",
  "imdb_id": "0",
  "kinopoisk": "5.7",
  "kinopoisk_id": "1670",
  "world_art": null,
  "world_art_id": null,
  "time": "96 мин. / 01:36",
  "ads": false,
  "premier": "1989-12-15",
  "premier_rus": "1989-12-16",
  "availability": "1989-12-17",
  "activate_time": "2020-07-13 12:02:00",
  "budget": "$6 000 000",
  "fees_use": "$14 278 900",
  "fees_world": null,
  "fees_rus": null,
  "rate_mpaa": "PG",
  "description": "Троица ребятишек - Хэйли, Кори и Джимми, - едет из Юты в Калифорнию. По дороге выясняется, что Джимми - гениальный игрок в видеоигры, так что компания решает принять участие в проходящем в Лос-Анджелесе игровом конкурсе, а деньги поделить...",
  "iframe_url": "",
  "iframe_poster": null,
  "poster": "https://img.imgilall.me/movies/franchise/3/1/7/2/8/0/0/0/0/0/610x900_31728.jpg",
  "country": {
    "1": "США",
    "30": "Бразилия"
  },
  "collection": [],
  "genre": {
    "9": "Приключения",
    "33": "Семейный",
    "23": "Спортивный",
    "19": "Комедия",
    "8": "Мелодрама",
    "7": "Драма"
  },
  "director": [
    "Тодд Холлэнд"
  ],
  "screenwriter": [
    "Дэвид Чишолм"
  ],
  "producer": [
    "Дэвид Чишолм",
    "Кен Толопски",
    "Линдсли Парсонс мл."
  ],
  "operator": [
    "Роберт Д. Йоумен"
  ],
  "composer": [
    "Дж. Питер Робинсон"
  ],
  "design": [
    "Майкл Л. Майер",
    "Роберт Сиссман",
    "Сцилла Андрин-Эрнандес"
  ],
  "editor": [
    "Том Финэн"
  ],
  "actors": [
    "Люк Эдвардс",
    "Винс Транкина",
    "Уэнди Филлипс",
    "Дея МакАллистер",
    "Сэм МакМюррей",
    "Бо Бриджес",
    "Фред Сэвэдж",
    "Кристиан Слэйтер",
    "Уилл Зельцер",
    "Рой Конрад"
  ],
  "actors_dubl": [],
  "trivia": [
    "Во многих странах Европы фильм шел под названием «Joy Stick Heroes».",
    "По замыслу создателей в фильме должна была быть впервые представлена для американской аудитории очень ожидаемая тогда и впоследствии необыкновенно популярная видеоигра «Супер братья Марио 3». Несмотря на то, что «Волшебник» не стал большим кассовым хитом, его премьера ещё больше подогрела интерес к состоявшемуся вскоре американскому релизу видеоигры.",
    "Ведущий чемпионата по видеоиграм объявляет, что в выбранную для финала игру «Супер братья Марио 3» ещё не играл никто, хотя она была выпущена в продажу и доступна в Японии за год до релиза фильма.",
    "Американские кинотеатры на сеансах картины распространяли номера «Pocket Power», карманной версии журнала о мире видеоигр «Nintendo Power».",
    "Когда Кори с Джимми вызывают пару бизнесменов сыграть на ставку в видеоигру, на боку игрального автомата можно заметить рекламный плакат только что выпущенного тогда альбома известного музыканта Тома Петти «Fool Moon River»."
  ],
  "trailers": [],
  "seasons": [],
  "voiceActing": [
    "Diva Universal"
  ],
  "subtitle": [],
  "parts": []
}
