{
  "id": 31809,
  "name": "Мстители справедливости: и смех, и грех",
  "name_eng": "Avengers of Justice: Farce Wars",
  "year": 2018,
  "slogan": "—",
  "age": null,
  "type": "film",
  "quality": "SD",
  "imdb": "2.2",
  "imdb_id": "0",
  "kinopoisk": null,
  "kinopoisk_id": "1015126",
  "world_art": null,
  "world_art_id": null,
  "time": "87 мин. / 01:27",
  "ads": false,
  "premier": "2018-07-20",
  "premier_rus": "2018-07-21",
  "availability": "2018-07-22",
  "activate_time": "2020-06-28 07:52:00",
  "budget": null,
  "fees_use": null,
  "fees_world": null,
  "fees_rus": null,
  "rate_mpaa": null,
  "description": "Супербэт и мстители справедливости выходят из отставки, чтобы не позволить Тёмному Джокстеру и Лиспу Лютеру заморозить планету.",
  "iframe_url": "",
  "iframe_poster": null,
  "poster": "https://img.imgilall.me/movies/franchise/3/1/8/0/9/0/0/0/0/0/610x900_31809.jpg",
  "country": {
    "1": "США"
  },
  "collection": [],
  "genre": {
    "33": "Семейный",
    "19": "Комедия",
    "17": "Боевик"
  },
  "director": [
    "Джаррет Тарноль"
  ],
  "screenwriter": [
    "Ричард Дэйн Скотт"
  ],
  "producer": [
    "Шон С. Сангани",
    "Spencer W. Brown",
    "Робин Натьё"
  ],
  "operator": [
    "Роберт Фостер"
  ],
  "composer": [
    "Эндрю Морган Смит"
  ],
  "design": [
    "Stephen H. Porter",
    "Dale Johnson",
    "Phillip Joffrion"
  ],
  "editor": [
    "Бенжамин Джекендофф",
    "Джесси Келли"
  ],
  "actors": [
    "Эми Смарт",
    "Шон Майклз",
    "Стефен Раннациси",
    "Саймон Рекс",
    "Тони Кавалеро",
    "Роуз Лэйн Санфилиппо",
    "Джон Д. Хикман",
    "Рэмси Андерсон",
    "Джастин Кармуш",
    "Джастин Кастор"
  ],
  "actors_dubl": [],
  "trivia": [],
  "trailers": [],
  "seasons": [],
  "voiceActing": [
    "Рус. Люб. многоголосый"
  ],
  "subtitle": [],
  "parts": []
}
