{
  "id": 31835,
  "name": "Спектакль",
  "name_eng": "Tamasha",
  "year": 2015,
  "slogan": "—",
  "age": null,
  "type": "film",
  "quality": "HD (720p)",
  "imdb": "7.3",
  "imdb_id": "0",
  "kinopoisk": "7.0",
  "kinopoisk_id": "794276",
  "world_art": null,
  "world_art_id": null,
  "time": "139 мин. / 02:19",
  "ads": false,
  "premier": "2015-11-26",
  "premier_rus": "2015-11-27",
  "availability": "2015-11-28",
  "activate_time": "2020-07-14 10:17:00",
  "budget": null,
  "fees_use": "$2 065 487",
  "fees_world": null,
  "fees_rus": null,
  "rate_mpaa": null,
  "description": "Вед вырос среди историй. В детстве, в Шимла, он собирал и даже воровал деньги, чтобы старый сказочник рассказывал ему истории. Рамайан, Елена Троянская, Лайла Маджну, Хир Ранджа, Аладин, Ромео и Джульетта ... Кто-то мог бы сказать, что все эти истории одинаковы.Вед хочет в его истории с Тарой быть другим. Поэтому они решили не рассказывать друг другу, кто они на самом деле, а только лгать о себе. И уехать с острова, чтобы никогда больше не встретиться друг с другом. Но они встречаются вновь. Вопрос в том, смогут ли они создавать свою историю так, как им захочется? Будет ли муза в состоянии из обычного человека сотворить художника? Получится у Веда разорвать оковы обычного существования и избежать корпоративных «крысиных гонок» и стать таким, каким Тара видит его в его буйных рассказах?Корсика, Шимла, Дели, Калькутта, Япония — весь мир является сценой, где разворачивается драма Веда и Тары. Шалости, ярость, причуды, смех, поражение, победа. Спектакль.",
  "iframe_url": "",
  "iframe_poster": null,
  "poster": "https://img.imgilall.me/movies/franchise/3/1/8/3/5/0/0/0/0/0/610x900_31835.jpg",
  "country": {
    "26": "Индия"
  },
  "collection": [],
  "genre": {
    "19": "Комедия",
    "8": "Мелодрама",
    "7": "Драма"
  },
  "director": [
    "Имтиаз Али"
  ],
  "screenwriter": [
    "Имтиаз Али"
  ],
  "producer": [
    "Саджид Надиадвала",
    "Жан-Патрик Константини",
    "Сандип Лейзелл"
  ],
  "operator": [
    "Рави Варма"
  ],
  "composer": [
    "А.Р. Рахман"
  ],
  "design": [
    "Снигдха Басу",
    "Сумит Басу",
    "Ражниш Хедао"
  ],
  "editor": [
    "Арти Баджадж"
  ],
  "actors": [
    "Дипика Падукон",
    "Ранбир Капур",
    "Пиюш Мишра",
    "Naila Grewal",
    "Джавед Шейх",
    "Arushi Sharma",
    "Сушма Сетх",
    "Ishwak Singh",
    "Вивек Мушран",
    "Svetlana Tulasi"
  ],
  "actors_dubl": [],
  "trivia": [],
  "trailers": [],
  "seasons": [],
  "voiceActing": [
    "Victory-Films"
  ],
  "subtitle": [],
  "parts": []
}
