{
  "id": 31944,
  "name": "Нарды",
  "name_eng": "Backgammon",
  "year": 2015,
  "slogan": "—",
  "age": null,
  "type": "film",
  "quality": "HD (720p)",
  "imdb": "3.3",
  "imdb_id": "0",
  "kinopoisk": null,
  "kinopoisk_id": "667861",
  "world_art": null,
  "world_art_id": null,
  "time": "89 мин. / 01:29",
  "ads": false,
  "premier": "2015-04-12",
  "premier_rus": "2015-04-13",
  "availability": "2015-04-14",
  "activate_time": "2020-07-14 05:39:00",
  "budget": null,
  "fees_use": null,
  "fees_world": null,
  "fees_rus": null,
  "rate_mpaa": null,
  "description": "Люциан со своей девушкой решает погостить в доме у близкого друга Эндрю, который живёт там с сестрой Мирандой. Влюблённых ожидает долгая разлука, поэтому они хотят насладиться последними днями каникул вместе. Вот только в гостях их поджидает неприятный сюрприз — Джеральд, парень Миранды, претенциозный художник, известный картинами своей обнажённой девушки, его единственной натурщицы и главного источника вдохновения. Отношения Миранды и Джеральда сразу кажутся Люциану очень напряжёнными, вот только их очередная ссора заканчивается совершенно непредсказуемым образом, и Люциан оказывается втянутым в игру, в которой ему едва ли захотелось бы участвовать.",
  "iframe_url": "",
  "iframe_poster": null,
  "poster": "https://img.imgilall.me/movies/franchise/3/1/9/4/4/0/0/0/0/0/610x900_31944.jpg",
  "country": {
    "17": "Мексика",
    "1": "США"
  },
  "collection": [],
  "genre": {
    "24": "Детектив",
    "7": "Драма"
  },
  "director": [
    "Франсиско Орваньянос"
  ],
  "screenwriter": [
    "Тодд Ниеми",
    "Франсиско Орваньянос",
    "Р.Б. Расселл"
  ],
  "producer": [
    "Мигель Анхель Боккалони",
    "Крис Мур",
    "Франсиско Орваньянос"
  ],
  "operator": [
    "Саймон Коулл"
  ],
  "composer": [
    "Брайан Санти"
  ],
  "design": [
    "Эрик Мэтисон",
    "Шарлотта Ройер",
    "Майли Лафайетт"
  ],
  "editor": [
    "Джон ДиМаре",
    "Майкл Р. Фокс"
  ],
  "actors": [
    "Бриттани Аллен",
    "Оливия Крочиккия",
    "Ной Сильвер",
    "Алекс Бе",
    "Кристиан Александр"
  ],
  "actors_dubl": [],
  "trivia": [],
  "trailers": [],
  "seasons": [],
  "voiceActing": [
    "Рус. Люб. многоголосый"
  ],
  "subtitle": [],
  "parts": []
}
