{
  "id": 32050,
  "name": "Взрыв",
  "name_eng": "Yin bao zhe",
  "year": 2017,
  "slogan": "—",
  "age": null,
  "type": "film",
  "quality": "FHD (1080p)",
  "imdb": "5.8",
  "imdb_id": "0",
  "kinopoisk": null,
  "kinopoisk_id": "1046858",
  "world_art": null,
  "world_art_id": null,
  "time": "106 мин. / 01:46",
  "ads": false,
  "premier": "2017-06-26",
  "premier_rus": "2017-06-27",
  "availability": "2017-06-28",
  "activate_time": "2020-07-14 10:36:00",
  "budget": null,
  "fees_use": "$122 700",
  "fees_world": null,
  "fees_rus": null,
  "rate_mpaa": null,
  "description": "Чжао Сюйдун работал взрывником в шахте, где однажды по его вине произошел несчастный случай, и погибло несколько человек. Или совсем не по его вине, разобраться в произошедшем у мужчины не было времени — начальник шахты сразу выдал ему приличную сумму, желая замять происшествие. Но совесть не даёт взрывнику спокойно спать, и он решает разобраться в случившемся.",
  "iframe_url": "",
  "iframe_poster": null,
  "poster": "https://img.imgilall.me/movies/franchise/3/2/0/5/0/0/0/0/0/0/610x900_32050.jpg",
  "country": {
    "19": "Китай"
  },
  "collection": [],
  "genre": {
    "25": "Криминал",
    "17": "Боевик",
    "13": "Триллер"
  },
  "director": [
    "Чан Чжэн"
  ],
  "screenwriter": [
    "Чан Чжэн",
    "Ли Мэн"
  ],
  "producer": [
    "Фу Цзя",
    "Vigo Hsia",
    "Джерри Е"
  ],
  "operator": [
    "Паки Чань"
  ],
  "composer": [
    "Чжан Илинь"
  ],
  "design": [
    "Лю Вэйсинь",
    "Jun Liu"
  ],
  "editor": [
    "Ту Ижань",
    "Чжу Лиюнь"
  ],
  "actors": [
    "Дуань Ихун",
    "Юй Нань",
    "Ван Цзинчунь",
    "Чэнь Тайшэн",
    "Chong Chen",
    "Дун Вэньтэн",
    "Wencai Fang",
    "Jiandong Gao",
    "Xiangkun Gao",
    "Hua Guo"
  ],
  "actors_dubl": [],
  "trivia": [],
  "trailers": [],
  "seasons": [],
  "voiceActing": [
    "Важенин (BadBajo)"
  ],
  "subtitle": [],
  "parts": []
}
