{
  "id": 32323,
  "name": "Вспоминая моих печальных шлюх",
  "name_eng": "Memoria de mis putas tristes",
  "year": 2011,
  "slogan": "—",
  "age": "16+",
  "type": "film",
  "quality": "HD (720p)",
  "imdb": "5.9",
  "imdb_id": "0",
  "kinopoisk": "6.0",
  "kinopoisk_id": "620992",
  "world_art": null,
  "world_art_id": null,
  "time": "90 мин. / 01:30",
  "ads": false,
  "premier": "2011-10-13",
  "premier_rus": "2012-04-05",
  "availability": "2012-04-06",
  "activate_time": "2020-07-14 10:04:00",
  "budget": null,
  "fees_use": null,
  "fees_world": "$304 877",
  "fees_rus": "$148 163",
  "rate_mpaa": null,
  "description": "Главный герой — журналист, человек преклонного возраста, который ни разу не испытывал настоящего глубокого чувства к женщине, предпочитая платить за секс. И теперь, встретившись с юной девушкой, он понял, что впервые полюбил. Это открытие заставляет его вспомнить всю свою жизнь.",
  "iframe_url": "",
  "iframe_poster": null,
  "poster": "https://img.imgilall.me/movies/franchise/3/2/3/2/3/0/0/0/0/0/610x900_32323.jpg",
  "country": {
    "17": "Мексика",
    "1": "США",
    "3": "Испания",
    "25": "Дания"
  },
  "collection": [],
  "genre": {
    "19": "Комедия",
    "8": "Мелодрама",
    "7": "Драма"
  },
  "director": [
    "Хеннинг Карлсен"
  ],
  "screenwriter": [
    "Жан-Клод Каррьер",
    "Хеннинг Карлсен",
    "Габриэль Гарсия Маркес"
  ],
  "producer": [
    "Висенте Альдапе",
    "Нина Кроне",
    "Энрике Фернандес Аюсо"
  ],
  "operator": [
    "Алехандро Мартинес"
  ],
  "composer": [],
  "design": [
    "Роберто Бонелли",
    "Франсиско Бланк",
    "Хильда Наварро"
  ],
  "editor": [
    "Андерс Рефн"
  ],
  "actors": [
    "Эмилио Эчеваррия",
    "Джеральдин Чаплин",
    "Анхела Молина",
    "Луис Мигель Ломбана",
    "Diego Zinker",
    "Оливия Молина",
    "Эванхелина Соса",
    "Эванхелина Мартинес",
    "Алехандра Баррос",
    "Артуро Беристайн"
  ],
  "actors_dubl": [],
  "trivia": [],
  "trailers": [],
  "seasons": [],
  "voiceActing": [
    "Diva Universal"
  ],
  "subtitle": [],
  "parts": []
}
