{
  "id": 32443,
  "name": "У двери",
  "name_eng": "At the Door",
  "year": 2018,
  "slogan": "—",
  "age": null,
  "type": "film",
  "quality": "HD (720p)",
  "imdb": "5.0",
  "imdb_id": "10515340",
  "kinopoisk": null,
  "kinopoisk_id": "1284119",
  "world_art": null,
  "world_art_id": null,
  "time": "99 мин. / 01:39",
  "ads": false,
  "premier": "2018-04-06",
  "premier_rus": "2018-04-07",
  "availability": "2018-04-08",
  "activate_time": "2020-07-15 04:35:00",
  "budget": null,
  "fees_use": null,
  "fees_world": null,
  "fees_rus": null,
  "rate_mpaa": null,
  "description": null,
  "iframe_url": "",
  "iframe_poster": null,
  "poster": "https://img.imgilall.me/movies/franchise/3/2/4/4/3/0/0/0/0/0/610x900_32443.jpg",
  "country": {
    "1": "США"
  },
  "collection": [],
  "genre": {
    "26": "Ужасы"
  },
  "director": [
    "Мод Мико"
  ],
  "screenwriter": [],
  "producer": [],
  "operator": [],
  "composer": [],
  "design": [],
  "editor": [],
  "actors": [
    "Алекс Голдрич",
    "Шеннон Лэрк",
    "Dega Lazare"
  ],
  "actors_dubl": [],
  "trivia": [],
  "trailers": [],
  "seasons": [],
  "voiceActing": [
    "Рус. Люб. многоголосый"
  ],
  "subtitle": [],
  "parts": []
}
