{
  "id": 32517,
  "name": "Герой с плаката",
  "name_eng": "Phata Poster Nikhla Hero",
  "year": 2013,
  "slogan": "—",
  "age": null,
  "type": "film",
  "quality": "FHD (1080p)",
  "imdb": "4.8",
  "imdb_id": "0",
  "kinopoisk": "7.1",
  "kinopoisk_id": "730645",
  "world_art": null,
  "world_art_id": null,
  "time": "146 мин. / 02:26",
  "ads": false,
  "premier": "2013-09-19",
  "premier_rus": "2013-09-20",
  "availability": "2013-09-21",
  "activate_time": "2020-07-15 06:07:00",
  "budget": null,
  "fees_use": "$410 526",
  "fees_world": null,
  "fees_rus": null,
  "rate_mpaa": null,
  "description": "Мать Вишваса Рао хочет в будущем видеть своего сына полицейским. Но у Вишваса на будущее совсем другие планы. Он мечтает стать киногероем.",
  "iframe_url": "",
  "iframe_poster": null,
  "poster": "https://img.imgilall.me/movies/franchise/3/2/5/1/7/0/0/0/0/0/610x900_32517.jpg",
  "country": {
    "26": "Индия"
  },
  "collection": [],
  "genre": {
    "19": "Комедия",
    "17": "Боевик"
  },
  "director": [
    "Раджкумар Сантоши"
  ],
  "screenwriter": [
    "Раджкумар Сантоши"
  ],
  "producer": [
    "Рамеш Садхурам Таурани",
    "Chandru Bakhtiani",
    "Sampat Barola"
  ],
  "operator": [
    "Рави Ядав"
  ],
  "composer": [
    "Притам Чакраборти",
    "Раджу Сингх"
  ],
  "design": [
    "Сандип Суварна",
    "Таня Гхаври",
    "Кунал Раваль"
  ],
  "editor": [
    "Стивен Х. Бернард"
  ],
  "actors": [
    "Шахид Капур",
    "Илеана Д’Крус",
    "Падмини Колхапуре",
    "Мукеш Тивари",
    "Даршан Джаривала",
    "Саурабх Шукла",
    "Закир Хуссэйн",
    "Санджай Мишра",
    "Шива Нтраджан",
    "Рана Юнг Бахадур"
  ],
  "actors_dubl": [],
  "trivia": [],
  "trailers": [],
  "seasons": [],
  "voiceActing": [
    "Diva Universal"
  ],
  "subtitle": [],
  "parts": []
}
