{
  "id": 32592,
  "name": "Каникулы",
  "name_eng": "Hollidei",
  "year": 2006,
  "slogan": "—",
  "age": null,
  "type": "film",
  "quality": "SD",
  "imdb": "6.5",
  "imdb_id": "0",
  "kinopoisk": "7.1",
  "kinopoisk_id": "253262",
  "world_art": null,
  "world_art_id": null,
  "time": "122 мин. / 02:02",
  "ads": false,
  "premier": "2006-01-19",
  "premier_rus": "2006-01-20",
  "availability": "2006-01-21",
  "activate_time": "2020-07-15 05:55:00",
  "budget": null,
  "fees_use": null,
  "fees_world": null,
  "fees_rus": null,
  "rate_mpaa": null,
  "description": "В октябре 1988 года 12 заключенных сумели сбежать из перевозившего их автозака, захватив с собой оружие с полным боекомплектом. 6 человек вскоре были пойманы, остальные сумели ускользнуть от стражей порядка и на протяжении 9 дней, захватив свои собственные семьи в заложники, укрывались в доме одного из заключенных.",
  "iframe_url": "",
  "iframe_poster": null,
  "poster": "https://img.imgilall.me/movies/franchise/3/2/5/9/2/0/0/0/0/0/610x900_32592.jpg",
  "country": {
    "16": "Корея Южная"
  },
  "collection": [],
  "genre": {
    "25": "Криминал",
    "17": "Боевик",
    "7": "Драма"
  },
  "director": [
    "Ян Юн-хо"
  ],
  "screenwriter": [
    "Ян Юн-хо",
    "Ким Хи-джэ",
    "Чон Джэ-хо"
  ],
  "producer": [],
  "operator": [],
  "composer": [],
  "design": [],
  "editor": [],
  "actors": [
    "Ли Сон-джэ",
    "Чхве Мин-су",
    "Хьюн Донг",
    "Чан Сэ-джин",
    "Чо Ан",
    "Ли Бон-гю",
    "Ли Оль",
    "Ли Хён-у",
    "Ён-тон Мун",
    "Ён-ро Пак"
  ],
  "actors_dubl": [],
  "trivia": [],
  "trailers": [],
  "seasons": [],
  "voiceActing": [
    "Рус. Люб. двухголосый"
  ],
  "subtitle": [],
  "parts": []
}
