{
  "id": 32637,
  "name": "Накойкаци",
  "name_eng": "Naqoyqatsi",
  "year": 2002,
  "slogan": "«Test-drive the future»",
  "age": "12+",
  "type": "film",
  "quality": "HD (720p)",
  "imdb": null,
  "imdb_id": null,
  "kinopoisk": "7.0",
  "kinopoisk_id": "18297",
  "world_art": null,
  "world_art_id": null,
  "time": "89 мин. / 01:29",
  "ads": false,
  "premier": "2002-09-02",
  "premier_rus": "2003-07-17",
  "availability": "2003-07-18",
  "activate_time": "2020-07-15 07:18:00",
  "budget": null,
  "fees_use": "$133 058",
  "fees_world": null,
  "fees_rus": null,
  "rate_mpaa": "PG",
  "description": "Название фильма переводится с языка хопи «война, как образ жизни». Необычность этого языка в том, что он, в частности, не различает категорий времени и множественного числа. (ХОПИ — индейский народ общей численностью 6 тыс. чел, проживающий на территории США.)",
  "iframe_url": "",
  "iframe_poster": null,
  "poster": "https://img.imgilall.me/movies/franchise/3/2/6/3/7/0/0/0/0/0/610x900_32637.jpg",
  "country": {
    "1": "США"
  },
  "collection": [],
  "genre": {
    "54": "Документальный"
  },
  "director": [
    "Годфри Реджио"
  ],
  "screenwriter": [
    "Годфри Реджио"
  ],
  "producer": [
    "Джо Бирн",
    "Годфри Реджио",
    "Лоуренс Тауб"
  ],
  "operator": [
    "Рассел Ли Файн"
  ],
  "composer": [
    "Филип Гласс"
  ],
  "design": [],
  "editor": [
    "Джон Кэйн"
  ],
  "actors": [
    "Белладонна",
    "Марлон Брандо",
    "Элтон Джон",
    "Джулия Луис-Дрейфус",
    "Мадонна",
    "Бхагван Мирчадани",
    "Джек Шэмблин",
    "Стивен Содерберг",
    "Трой Айкман",
    "The Beatles"
  ],
  "actors_dubl": [],
  "trivia": [],
  "trailers": [],
  "seasons": [],
  "voiceActing": [
    "Original"
  ],
  "subtitle": [],
  "parts": []
}
