{
  "id": 32655,
  "name": "Воющий",
  "name_eng": "Haulling",
  "year": 2012,
  "slogan": "—",
  "age": null,
  "type": "film",
  "quality": "HD (720p)",
  "imdb": "6.2",
  "imdb_id": "0",
  "kinopoisk": "6.5",
  "kinopoisk_id": "661829",
  "world_art": null,
  "world_art_id": null,
  "time": "114 мин. / 01:54",
  "ads": false,
  "premier": "2012-02-16",
  "premier_rus": "2012-02-17",
  "availability": "2012-02-18",
  "activate_time": "2020-07-15 04:46:00",
  "budget": null,
  "fees_use": null,
  "fees_world": null,
  "fees_rus": null,
  "rate_mpaa": null,
  "description": "Опытному детективу Сан-гилю и новенькой в убойном отделе Ын-ён предстоит расследовать серию убийств, где на телах жертв были обнаружены следы от укусов крупного животного.",
  "iframe_url": "",
  "iframe_poster": null,
  "poster": "https://img.imgilall.me/movies/franchise/3/2/6/5/5/0/0/0/0/0/610x900_32655.jpg",
  "country": {
    "16": "Корея Южная"
  },
  "collection": [],
  "genre": {
    "24": "Детектив",
    "13": "Триллер",
    "7": "Драма"
  },
  "director": [
    "Ю Ха"
  ],
  "screenwriter": [
    "Ю Ха",
    "Аса Нонами"
  ],
  "producer": [
    "Ли Тхэ-хон",
    "Кэтрин Ким"
  ],
  "operator": [
    "Кон Пхён-джэ"
  ],
  "composer": [
    "Ким Джун-сок"
  ],
  "design": [
    "Ли Джи-ён"
  ],
  "editor": [
    "Пак Кок-чи"
  ],
  "actors": [
    "Сон Кан-хо",
    "Ли На-ён",
    "Щин Джон-гын",
    "Ли Сон-мин",
    "Лим Хён-сон",
    "Чон Джин",
    "Чан Ин-хо",
    "Чо Ён-джин",
    "Нам Бо-ра",
    "Квон Тхэ-вон"
  ],
  "actors_dubl": [],
  "trivia": [],
  "trailers": [],
  "seasons": [],
  "voiceActing": [
    "JoyStudio"
  ],
  "subtitle": [],
  "parts": []
}
