{
  "id": 32666,
  "name": "Шатл",
  "name_eng": "Shuttle",
  "year": 2008,
  "slogan": "«Never ride with a stranger»",
  "age": "18+",
  "type": "film",
  "quality": "SD",
  "imdb": "5.6",
  "imdb_id": "0",
  "kinopoisk": "5.7",
  "kinopoisk_id": "271827",
  "world_art": null,
  "world_art_id": null,
  "time": "107 мин. / 01:47",
  "ads": false,
  "premier": "2008-03-08",
  "premier_rus": "2008-03-09",
  "availability": "2008-03-10",
  "activate_time": "2020-06-28 12:47:00",
  "budget": "$2 400 000",
  "fees_use": "$1 925",
  "fees_world": null,
  "fees_rus": null,
  "rate_mpaa": "R",
  "description": "Мэл и Джулз возвращаются из Мексики, проведя там отличный отдых. Уже далеко за полночь, и они решают поймать маршрутку, чтобы доехать домой. Их попутчиками оказываются нервный бухгалтер и два парня, один из которых пристает к Джулз. Внезапно они оказываются на незнакомых, пустынных улицах - как говорит водитель, чтобы избежать пробок...Но что на самом деле происходит и куда они направляются?...",
  "iframe_url": "",
  "iframe_poster": null,
  "poster": "https://img.imgilall.me/movies/franchise/3/2/6/6/6/0/0/0/0/0/610x900_32666.jpg",
  "country": {
    "1": "США"
  },
  "collection": [],
  "genre": {
    "25": "Криминал",
    "24": "Детектив",
    "13": "Триллер",
    "7": "Драма"
  },
  "director": [
    "Эдвард Андерсон"
  ],
  "screenwriter": [
    "Эдвард Андерсон"
  ],
  "producer": [
    "Марк Донадио",
    "Аллан Джонс",
    "Тодд Лемли"
  ],
  "operator": [
    "Майкл Фимоньяри"
  ],
  "composer": [
    "Хеннинг Лонер"
  ],
  "design": [
    "Роджер Данчик",
    "Вирджиния Джонсон"
  ],
  "editor": [
    "Уильям Йе"
  ],
  "actors": [
    "Тони Кёрран",
    "Пейтон Лист",
    "Камерон Гудман",
    "Каллен Дуглас",
    "Дэйв Пауэр",
    "Джеймс Снайдер",
    "Том Кемп",
    "Кэйлан Трэйси",
    "Джен Элисон Льюис",
    "Джеймс Райен"
  ],
  "actors_dubl": [],
  "trivia": [],
  "trailers": [],
  "seasons": [],
  "voiceActing": [
    "Diva Universal"
  ],
  "subtitle": [],
  "parts": []
}
