{
  "id": 32837,
  "name": "Чемпион",
  "name_eng": "Pentathlon",
  "year": 1994,
  "slogan": "«Play to win, if you lose, you die»",
  "age": "16+",
  "type": "film",
  "quality": "HD (720p)",
  "imdb": "4.4",
  "imdb_id": "0",
  "kinopoisk": "5.9",
  "kinopoisk_id": "24946",
  "world_art": null,
  "world_art_id": null,
  "time": "101 мин. / 01:41",
  "ads": false,
  "premier": "1994-06-04",
  "premier_rus": "1994-06-05",
  "availability": "1994-06-06",
  "activate_time": "2020-07-14 15:07:00",
  "budget": "$4 000 000",
  "fees_use": null,
  "fees_world": null,
  "fees_rus": null,
  "rate_mpaa": "R",
  "description": "Дольф Лундгрен в роли чемпиона Олимпийских Игр из ГДР Эрика Брогара, сбежавшего в Америку за два месяца до крушения Берлинской стены. Его отца убили агенты штази, а за ним самим они устраивают охоту в Америке. Навыки спортсмена-пятиборца ему очень пригодились.",
  "iframe_url": "",
  "iframe_poster": null,
  "poster": "https://img.imgilall.me/movies/franchise/3/2/8/3/7/0/0/0/0/0/610x900_32837.jpg",
  "country": {
    "1": "США"
  },
  "collection": [],
  "genre": {
    "17": "Боевик",
    "13": "Триллер",
    "7": "Драма"
  },
  "director": [
    "Брюс Мэлмат"
  ],
  "screenwriter": [
    "Уильям Стэдием",
    "Гари Т. МакДональд",
    "Гэри ДеВор"
  ],
  "producer": [
    "Мартин Э. Каан",
    "Джейсон Кларк",
    "Дебора Гилелс"
  ],
  "operator": [
    "Михаил Суслов"
  ],
  "composer": [
    "Дэвид Спир"
  ],
  "design": [
    "Джеймс Хинкль",
    "Дэвид В. Форд",
    "Александра Уэлкер"
  ],
  "editor": [
    "Джозеф Гутовски",
    "Ричард Норд"
  ],
  "actors": [
    "Дольф Лундгрен",
    "Дэвид Соул",
    "Рени Коулмэн",
    "Роджер Э. Мосли",
    "Ивэн Джеймс",
    "Дэвид Драммонд",
    "Дэниэл Риордан",
    "Филип Брунс",
    "Джералд Хопкинс",
    "Эрик Холланд"
  ],
  "actors_dubl": [],
  "trivia": [
    "Перевод оригинального названия — «Пятиборье»."
  ],
  "trailers": [],
  "seasons": [],
  "voiceActing": [
    "Diva Universal"
  ],
  "subtitle": [],
  "parts": []
}
