{
  "id": 3295,
  "name": "Операция «С новым годом»",
  "name_eng": "",
  "year": 1996,
  "slogan": null,
  "age": "0+",
  "type": "film",
  "quality": "SD",
  "imdb": "5.7",
  "imdb_id": "0117254",
  "kinopoisk": "6.4",
  "kinopoisk_id": "79452",
  "world_art": null,
  "world_art_id": null,
  "time": "93 мин. / 01:33",
  "ads": false,
  "premier": null,
  "premier_rus": "1996-12-31",
  "availability": null,
  "activate_time": "2018-11-08 12:05:13",
  "budget": null,
  "fees_use": null,
  "fees_world": null,
  "fees_rus": null,
  "rate_mpaa": null,
  "description": "В канун Нового года в отделение травмы при разных обстоятельствах попадают несколько человек, включая генерала. С травмой половых органов и с вывихнутой челюстью привозят бизнесмена, благодаря которому в больнице появляются шикарная выпивка и закуска. Из женского отделения приглашаются травмированные дамы, на территории выкапывается и наряжается ёлка, появляется милиционер с задержанным, проглотившим медаль блюстителя закона…",
  "iframe_url": "",
  "iframe_poster": null,
  "poster": "https://img.imgilall.me/movies/franchise/3/2/9/5/0/0/0/0/0/0/610x900_3295.jpg",
  "country": {
    "5": "Россия"
  },
  "collection": [],
  "genre": {
    "22": "Русский",
    "19": "Комедия"
  },
  "director": [
    "Александр Рогожкин"
  ],
  "screenwriter": [
    "Александр Рогожкин"
  ],
  "producer": [
    "Игорь Каленов",
    "Михаил Кирилюк",
    "Сергей Сельянов"
  ],
  "operator": [
    "Андрей Жегалов"
  ],
  "composer": [
    "Владислав Панченко"
  ],
  "design": [
    "Вера Зелинская"
  ],
  "editor": [
    "Николай Астахов",
    "Александр Рогожкин"
  ],
  "actors": [
    "Алексей Булдаков",
    "Сергей Маковецкий",
    "Леонид Ярмольник",
    "Семён Стругачев",
    "Сергей Русскин",
    "Зоя Буряк",
    "Александр Лыков",
    "Екатерина Дронова",
    "Андрей Краско",
    "Кирилл Ульянов"
  ],
  "actors_dubl": [
    "Александр Половцев"
  ],
  "trivia": [
    "Телеверсия имеет хронометраж 112 минут."
  ],
  "trailers": [],
  "seasons": [],
  "voiceActing": [
    "Рус. Оригинальный"
  ],
  "subtitle": [],
  "parts": []
}
