{
  "id": 32979,
  "name": "Девять в списке мертвых",
  "name_eng": "Nine Dead",
  "year": 2010,
  "slogan": "«It doesn't have to end this way»",
  "age": "18+",
  "type": "film",
  "quality": "HD (720p)",
  "imdb": null,
  "imdb_id": null,
  "kinopoisk": "5.9",
  "kinopoisk_id": "418726",
  "world_art": null,
  "world_art_id": null,
  "time": "86 мин. / 01:26",
  "ads": false,
  "premier": "2011-03-09",
  "premier_rus": "2011-03-10",
  "availability": "2011-03-11",
  "activate_time": "2020-07-15 06:33:00",
  "budget": "$2 000 000",
  "fees_use": null,
  "fees_world": null,
  "fees_rus": null,
  "rate_mpaa": "R",
  "description": "Это триллер о выживании девяти незнакомцев, которые были похищены вооруженным в маске, который сказал им, что он будет убивать каждого из них через каждые десять минут, пока они будут узнавать, как все они связаны. Кто из девяти останется в живых и кто умрет?",
  "iframe_url": "",
  "iframe_poster": null,
  "poster": "https://img.imgilall.me/movies/franchise/3/2/9/7/9/0/0/0/0/0/610x900_32979.jpg",
  "country": {
    "1": "США"
  },
  "collection": [],
  "genre": {
    "25": "Криминал",
    "26": "Ужасы",
    "24": "Детектив",
    "13": "Триллер",
    "7": "Драма"
  },
  "director": [
    "Крис Шэдли"
  ],
  "screenwriter": [
    "Патрик Вехе Махони"
  ],
  "producer": [
    "Паула Харт",
    "Ник Турлоу",
    "Адам Барт"
  ],
  "operator": [
    "Марк Варго"
  ],
  "composer": [
    "Дэнни Люкс"
  ],
  "design": [
    "Моника Шампань",
    "Шерил Уильямс-Барт",
    "Эндрю В. Бофингер"
  ],
  "editor": [
    "Шон Финдли"
  ],
  "actors": [
    "Мелисса Джоан Харт",
    "Уильям Ли Скотт",
    "Джон Терри",
    "Джеймс С. Виктор",
    "Марк Маколей",
    "Люсиль Сунг",
    "Чип Бент",
    "Эдрик Браун",
    "Дэниэл Болдуин",
    "Эндрю Сенсениг"
  ],
  "actors_dubl": [],
  "trivia": [
    "В тюрьме у Кугана был номер В-33920, он показан в личном деле прямо перед похищением Кугана. В реальности таким был номер Чарльза Мэнсона (1934-2017) в калифорнийской тюрьме."
  ],
  "trailers": [],
  "seasons": [],
  "voiceActing": [
    "Рус. Проф. многоголосый"
  ],
  "subtitle": [],
  "parts": []
}
