{
  "id": 33124,
  "name": "Особые приметы: красавчик",
  "name_eng": "Segni particolari: bellissimo",
  "year": 1983,
  "slogan": "—",
  "age": null,
  "type": "film",
  "quality": "FHD (1080p)",
  "imdb": "6.0",
  "imdb_id": "0",
  "kinopoisk": "7.4",
  "kinopoisk_id": "146421",
  "world_art": null,
  "world_art_id": null,
  "time": "95 мин. / 01:35",
  "ads": false,
  "premier": "1983-12-22",
  "premier_rus": "1983-12-23",
  "availability": "1983-12-24",
  "activate_time": "2020-07-15 15:58:00",
  "budget": null,
  "fees_use": null,
  "fees_world": null,
  "fees_rus": null,
  "rate_mpaa": null,
  "description": "Писатель Матиа - неотразимый красавец, на которого вешаются все женщины. Он платит своей соседке, прекрасной и юной Микаэле, чтобы та под видом его дочери забраковывала всех, кто хочет затащить его под венец...",
  "iframe_url": "",
  "iframe_poster": null,
  "poster": "https://img.imgilall.me/movies/franchise/3/3/1/2/4/0/0/0/0/0/610x900_33124.jpg",
  "country": {
    "8": "Италия"
  },
  "collection": [],
  "genre": {
    "19": "Комедия"
  },
  "director": [
    "Франко Кастеллано",
    "Джузеппе Моччиа"
  ],
  "screenwriter": [
    "Франко Кастеллано",
    "Джузеппе Моччиа"
  ],
  "producer": [
    "Джованни Ди Клементе"
  ],
  "operator": [
    "Данило Дезидери"
  ],
  "composer": [
    "Джино Сантерколе"
  ],
  "design": [
    "Бруно Амальфитано",
    "Маурицио Тоналини"
  ],
  "editor": [
    "Антонио Сичильяно"
  ],
  "actors": [
    "Адриано Челентано",
    "Федерика Моро",
    "Джанни Бонагура",
    "Симона Мариани",
    "Анна Канакис",
    "Тиберио Мурджа",
    "Кэтлин Квуае",
    "Джакомо Росселли",
    "Мишела Альбанезе",
    "Антонелла Робустелли"
  ],
  "actors_dubl": [],
  "trivia": [],
  "trailers": [],
  "seasons": [],
  "voiceActing": [
    "Рус. Одноголосый"
  ],
  "subtitle": [],
  "parts": []
}
