{
  "id": 33133,
  "name": "Поймать мечту",
  "name_eng": "Tarok",
  "year": 2013,
  "slogan": "«Grib drømmen mens du kan»",
  "age": null,
  "type": "film",
  "quality": "SD",
  "imdb": "5.5",
  "imdb_id": "0",
  "kinopoisk": null,
  "kinopoisk_id": "805919",
  "world_art": null,
  "world_art_id": null,
  "time": "135 мин. / 02:15",
  "ads": false,
  "premier": "2013-10-20",
  "premier_rus": "2013-10-21",
  "availability": "2013-10-22",
  "activate_time": "2020-07-16 04:42:00",
  "budget": "DKK 26 000 000",
  "fees_use": null,
  "fees_world": null,
  "fees_rus": null,
  "rate_mpaa": null,
  "description": "Семейная сага протяжённостью в три десятилетия, основанная на легендарной истории самой известной скаковой лошади в Дании.  Лошади, которая сотворила невозможное и обозначила маленькую Данию на карте мира через свои великие победы.  Фильм о семье владельцев, которая владела Тароком и верила в его силу.  Семье, которая вопреки всему дала Дании надежду и веру в мечту.",
  "iframe_url": "",
  "iframe_poster": null,
  "poster": "https://img.imgilall.me/movies/franchise/3/3/1/3/3/0/0/0/0/0/610x900_33133.jpg",
  "country": {
    "25": "Дания"
  },
  "collection": [],
  "genre": {
    "7": "Драма"
  },
  "director": [
    "Анне-Грете Бьяруп Риис"
  ],
  "screenwriter": [
    "Торвальд Лервад",
    "Джеспер Н. Кристиансен"
  ],
  "producer": [
    "Регнер Грастен"
  ],
  "operator": [
    "Мортен Брюус"
  ],
  "composer": [
    "Симон Раун"
  ],
  "design": [],
  "editor": [
    "Андри Штейн"
  ],
  "actors": [
    "Бьярне Хенриксен",
    "Керстен Лефельдт",
    "Хенрик Вестергаард Нилсен",
    "Ибен Дорнер Эстергорд",
    "Томас Эрнст",
    "Фредерик Мельдаль Нёргор",
    "Клаус Риис Эстергор",
    "Michelle Bercon",
    "Gaia Maria Jørgensen",
    "Крестен Андерсен"
  ],
  "actors_dubl": [],
  "trivia": [],
  "trailers": [],
  "seasons": [],
  "voiceActing": [
    "Рус. Люб. одноголосый"
  ],
  "subtitle": [],
  "parts": []
}
