{
  "id": 33182,
  "name": "Без мужчин",
  "name_eng": "",
  "year": 2010,
  "slogan": null,
  "age": "16+",
  "type": "film",
  "quality": "SD",
  "imdb": null,
  "imdb_id": null,
  "kinopoisk": "4.5",
  "kinopoisk_id": "468280",
  "world_art": null,
  "world_art_id": null,
  "time": "73 мин. / 01:13",
  "ads": false,
  "premier": "2011-09-01",
  "premier_rus": "2011-09-01",
  "availability": "2011-09-02",
  "activate_time": "2020-07-15 12:37:00",
  "budget": null,
  "fees_use": null,
  "fees_world": null,
  "fees_rus": "$131 112",
  "rate_mpaa": null,
  "description": "Пассажиры вечернего рейса пристегнули ремни и приготовились к взлету.Но полет отложили до утра. Пассажиры отстегнули ремни и вышли из аэропорта. Под светом фонаря поблескивали капли косого дождя. В луже отразились два женских силуэта. Две женщины, две случайные попутчицы отправились в путешествие длиной в московскую ночь…Они меняют машины и настроение, мчатся по кольцевым и бульварам, смеются и плачут. Кажется, они могут позволить себе все в эту странную ночь, словно выпавшую из реальной жизни. Они могут все: страдать, любить, ненавидеть. Они не могут только одного — разойтись. Ими движет одна идея, одна мысль, одна страсть, и имя ее МУЖЧИНА.",
  "iframe_url": "",
  "iframe_poster": null,
  "poster": "https://img.imgilall.me/movies/franchise/3/3/1/8/2/0/0/0/0/0/610x900_33182.jpg",
  "country": {
    "5": "Россия"
  },
  "collection": [],
  "genre": {
    "19": "Комедия",
    "8": "Мелодрама"
  },
  "director": [
    "Алиса Хмельницкая",
    "Резо Гигинеишвили"
  ],
  "screenwriter": [
    "Алиса Хмельницкая"
  ],
  "producer": [
    "Резо Гигинеишвили",
    "Максим Королев",
    "Геннадий Островский"
  ],
  "operator": [
    "Максим Осадчий"
  ],
  "composer": [
    "Дато Евгенидзе"
  ],
  "design": [
    "Григорий Пушкин",
    "Юлия Субботина",
    "Денис Николаенко"
  ],
  "editor": [
    "Игорь Литонинский"
  ],
  "actors": [
    "Вера Воронкова",
    "Надежда Михалкова",
    "Артур Смольянинов",
    "Александр Сирин",
    "Сергей Газаров",
    "Пётр Фёдоров",
    "Антон Шагин",
    "Федор Лавров",
    "Михаил Пореченков",
    "Анна Михалкова"
  ],
  "actors_dubl": [],
  "trivia": [],
  "trailers": [],
  "seasons": [],
  "voiceActing": [
    "Original"
  ],
  "subtitle": [],
  "parts": []
}
