{
  "id": 33217,
  "name": "Кристин",
  "name_eng": "Christine",
  "year": 2016,
  "slogan": "«The shocking true story that changed the face of television»",
  "age": null,
  "type": "film",
  "quality": "HD (720p)",
  "imdb": "6.9",
  "imdb_id": "0",
  "kinopoisk": "6.6",
  "kinopoisk_id": "910812",
  "world_art": null,
  "world_art_id": null,
  "time": "119 мин. / 01:59",
  "ads": false,
  "premier": "2016-01-23",
  "premier_rus": "2016-01-24",
  "availability": "2016-01-25",
  "activate_time": "2020-07-15 15:20:00",
  "budget": null,
  "fees_use": "$298 525",
  "fees_world": "+ $14 940 = $313 465",
  "fees_rus": null,
  "rate_mpaa": "R",
  "description": "Кристин Чаббак очень хочет сделать карьеру телерепортёра, но вынуждена прозябать на маленькой телестудии новостей в заштатном городишке. Женщина из кожи вон лезет, чтобы снять сенсационный репортаж, но с новостями в глуши не густо, да ещё и с начальником найти общий язык не удаётся. Масла в огонь подливает приезд владельца телестанции, который хочет выбрать лучшего работника и с повышением отправить его в Балтимор.",
  "iframe_url": "",
  "iframe_poster": null,
  "poster": "https://img.imgilall.me/movies/franchise/3/3/2/1/7/0/0/0/0/0/610x900_33217.jpg",
  "country": {
    "1": "США",
    "2": "Великобритания"
  },
  "collection": [],
  "genre": {
    "27": "Биографический",
    "7": "Драма"
  },
  "director": [
    "Антонио Кампос"
  ],
  "screenwriter": [
    "Крэйг Шилович"
  ],
  "producer": [
    "Мика Блумберг",
    "Ник Кейс",
    "Шон Дуркин"
  ],
  "operator": [
    "Джо Андерсон"
  ],
  "composer": [
    "Дэнни Бенси",
    "Сондер Юрриаанс"
  ],
  "design": [
    "Скотт Кузио",
    "Молли Бэйли",
    "Эмма Поттер"
  ],
  "editor": [
    "София Сюберкасо"
  ],
  "actors": [
    "Ребекка Холл",
    "Майкл С. Холл",
    "Трэйси Леттс",
    "Мария Диззия",
    "Дж. Смит-Камерон",
    "Тимоти С. Саймонс",
    "Ким Шоу",
    "Джон Каллам",
    "Морган Спектор",
    "Джэйсон Уорнер Смит"
  ],
  "actors_dubl": [],
  "trivia": [
    "Исполнительница главной роли Ребекка Холл замужем за Морганом Спектором, который играет врача.",
    "Трейлер к фильму выпустила компания In Sync Advertising, глава которой Роберт «Смитти» Смит когда-то работал на том же канале, что и Кристин Чаббак, и даже был с ней дружен. Смит сам обратился к создателям фильма. Они ещё до начала съёмок неоднократно пытались его разыскать и привлечь в качестве консультанта, однако ни одна их попытка успехом не увенчалась. У Смита оказалось очень распространённое имя.",
    "В одном из эпизодов фильма показаны сразу два работающих видеомагнитофона, использующих поперечно-строчную запись.",
    "«Тёплые» приглушённые краски фильма характерны для фильмов 1970-х годов. Сюжет фильма разворачивается в начале этого десятилетия, так что авторы специально стремились достичь этого эффекта для большей правдоподобности. Прежде этот эффект достигался освещением и использованием особой плёнки (Ektachrome, 16-мм плёнка производства фирмы Kodak). В эпоху цифровых технологий он достигается применением специальных компьютерных фильтров и графических накладок.",
    "Как и Кристина Чаббак, автор сценария Крэйг Шилович в молодости был подвержен приступам глубочайшей депрессии.",
    "В фильме Кристин Чаббак показана довольно замкнутым человеком, хотя в реальности на работе её знали очень общительной и дружелюбной. Кристин очень любила детей и в нерабочее время даже участвовала в постановке кукольных представлений для умственно отсталых детей. О глубине её приступов депрессии знали только близкие родственники.",
    "На национальном американском фестивале независимого кино «Сандэнс» в 2016 году прошли премьерные показы двух фильмов о Кристин Чаббак, телеведущей, совершившей 15 июля 1974 года самоубийство в прямом эфире, — фильм-биография «Кристин» Антонио Кампос и художественно-документальный фильм «Кейт играет Кристину» Роберта Грина."
  ],
  "trailers": [],
  "seasons": [],
  "voiceActing": [
    "Рус. Люб. многоголосый"
  ],
  "subtitle": [],
  "parts": []
}
