{
  "id": 33364,
  "name": "Ангар 10",
  "name_eng": "Hangar 10",
  "year": 2014,
  "slogan": "—",
  "age": null,
  "type": "film",
  "quality": "HD (720p)",
  "imdb": "3.7",
  "imdb_id": "0",
  "kinopoisk": "3.4",
  "kinopoisk_id": "806345",
  "world_art": null,
  "world_art_id": null,
  "time": "87 мин. / 01:27",
  "ads": false,
  "premier": "2014-10-22",
  "premier_rus": "2014-10-23",
  "availability": "2014-10-24",
  "activate_time": "2020-07-16 05:37:00",
  "budget": null,
  "fees_use": null,
  "fees_world": null,
  "fees_rus": null,
  "rate_mpaa": null,
  "description": "Через 33 года после печально известного инцидента с НЛО в Рендлшем Форест, трое энтузиастов отправляются на поиски золота в ту же область…",
  "iframe_url": "",
  "iframe_poster": null,
  "poster": "https://img.imgilall.me/movies/franchise/3/3/3/6/4/0/0/0/0/0/610x900_33364.jpg",
  "country": {
    "2": "Великобритания"
  },
  "collection": [],
  "genre": {
    "26": "Ужасы",
    "11": "Фантастика",
    "13": "Триллер"
  },
  "director": [
    "Дэниэл Симпсон"
  ],
  "screenwriter": [
    "Адам Престон",
    "Дэниэл Симпсон"
  ],
  "producer": [
    "Уилл Кларк",
    "Лори Кук",
    "Пол Хиггинс"
  ],
  "operator": [
    "Дэниэл Симпсон"
  ],
  "composer": [],
  "design": [],
  "editor": [
    "Эндрю Хьюм",
    "Masa Skalec"
  ],
  "actors": [
    "Роберт Кертис",
    "Эбби Солт",
    "Дэнни Шейлер"
  ],
  "actors_dubl": [],
  "trivia": [],
  "trailers": [],
  "seasons": [],
  "voiceActing": [
    "Хихикающий доктор"
  ],
  "subtitle": [],
  "parts": []
}
