{
  "id": 33362,
  "name": "Гороскоп на удачу",
  "name_eng": "",
  "year": 2015,
  "slogan": "«Следуй за мечтой»",
  "age": "12+",
  "type": "film",
  "quality": "HD (720p)",
  "imdb": "4.4",
  "imdb_id": "0",
  "kinopoisk": "5.8",
  "kinopoisk_id": "840231",
  "world_art": null,
  "world_art_id": null,
  "time": "96 мин. / 01:36",
  "ads": false,
  "premier": "2015-07-17",
  "premier_rus": "2015-07-16",
  "availability": "2015-07-17",
  "activate_time": "2020-06-28 08:13:00",
  "budget": "$2 800 000",
  "fees_use": null,
  "fees_world": "$51 803",
  "fees_rus": "$964 206",
  "rate_mpaa": null,
  "description": "В руки Макса попадает «счастливый» гороскоп, которому он должен следовать 30 дней, выполняя все его безумные предписания, чтобы добиться расположения недоступной прежде красавицы и удачи во всех делах. Но в один прекрасный день гороскоп Макса подменяют…",
  "iframe_url": "",
  "iframe_poster": null,
  "poster": "https://img.imgilall.me/movies/franchise/3/3/3/6/2/0/0/0/0/0/610x900_33362.jpg",
  "country": {
    "5": "Россия"
  },
  "collection": [],
  "genre": {
    "19": "Комедия",
    "8": "Мелодрама"
  },
  "director": [
    "Арман Геворгян"
  ],
  "screenwriter": [
    "Андрей Курейчик"
  ],
  "producer": [
    "Валерий Оня",
    "Сергей Торчилин",
    "Сергей Куликов"
  ],
  "operator": [
    "Дмитрий Яшонков"
  ],
  "composer": [
    "Дмитрий Носков"
  ],
  "design": [
    "Екатерина Залетаева"
  ],
  "editor": [
    "Дмитрий Слобцов"
  ],
  "actors": [
    "Дмитрий Ендальцев",
    "Светлана Ходченкова",
    "Аня Чиповская",
    "Тимур Батрутдинов",
    "Борис Смолкин",
    "Виталий Хаев",
    "Гоша Куценко",
    "Дмитрий Нагиев",
    "Дмитрий Хрусталев",
    "Лилия Разакова"
  ],
  "actors_dubl": [],
  "trivia": [],
  "trailers": [],
  "seasons": [],
  "voiceActing": [
    "Original"
  ],
  "subtitle": [],
  "parts": []
}
