{
  "id": 3337,
  "name": "В поисках Санты",
  "name_eng": "Desperately Seeking Santa",
  "year": 2011,
  "slogan": null,
  "age": "16+",
  "type": "film",
  "quality": "SD",
  "imdb": "6.0",
  "imdb_id": "1967688",
  "kinopoisk": "6.2",
  "kinopoisk_id": "603427",
  "world_art": null,
  "world_art_id": null,
  "time": "87 мин. / 01:27",
  "ads": false,
  "premier": "2011-11-27",
  "premier_rus": null,
  "availability": null,
  "activate_time": "2018-11-09 10:17:56",
  "budget": null,
  "fees_use": null,
  "fees_world": null,
  "fees_rus": null,
  "rate_mpaa": "PG-13",
  "description": "Амбициозная Дженнифер работает менеджером в одном из крупнейших торговых центров города. В преддверии Рождества девушка объявляет конкурс на самого красивого Санта Клауса, который будет встречать посетителей у дверей шоппинг-центра. Дженнифер рассчитывает на то, что эта идея поможет привлечь покупательниц в магазин.",
  "iframe_url": "",
  "iframe_poster": "https://img.imgilall.me/movies/video/3/1/4/1/2/0/0/0/0/0/800x450_31412.jpeg",
  "poster": "https://img.imgilall.me/movies/franchise/3/3/3/7/0/0/0/0/0/0/610x900_3337.jpg",
  "country": {
    "7": "Канада"
  },
  "collection": [],
  "genre": {
    "19": "Комедия",
    "10": "Зарубежный"
  },
  "director": [
    "Крэйг Прайс"
  ],
  "screenwriter": [
    "Майкл Дж. Мюррэй"
  ],
  "producer": [
    "Ирен Драйер",
    "Джесси Прупас",
    "Jonas Prupas"
  ],
  "operator": [
    "Джон Берри"
  ],
  "composer": [
    "Джеймс Гелфэнд"
  ],
  "design": [
    "Тим Бидер",
    "Мэри Пэртридж-Рэйнор"
  ],
  "editor": [
    "Дона Нога"
  ],
  "actors": [
    "Лора Вандервурт",
    "Ник Зано",
    "Пола Бранкати",
    "Джон Брегар",
    "Патрик Гэрроу",
    "Натали Крилл",
    "Джерри Мендичино",
    "Крис Вайолетт",
    "Кэти Гриффин",
    "Шамир Андерсон"
  ],
  "actors_dubl": [],
  "trivia": [],
  "trailers": [],
  "seasons": [],
  "voiceActing": [
    "Рус. Проф. многоголосый"
  ],
  "subtitle": [],
  "parts": []
}
