{
  "id": 33561,
  "name": "Сексуальный злой гений",
  "name_eng": "Sexy Evil Genius",
  "year": 2011,
  "slogan": "—",
  "age": "18+",
  "type": "film",
  "quality": "HD (720p)",
  "imdb": "5.7",
  "imdb_id": "0",
  "kinopoisk": "5.6",
  "kinopoisk_id": "577845",
  "world_art": null,
  "world_art_id": null,
  "time": "91 мин. / 01:31",
  "ads": false,
  "premier": "2013-04-09",
  "premier_rus": "2013-04-10",
  "availability": "2013-04-11",
  "activate_time": "2020-07-16 07:18:00",
  "budget": "$3 000 000",
  "fees_use": null,
  "fees_world": null,
  "fees_rus": null,
  "rate_mpaa": "R",
  "description": "Группу парней завлекает в один бар в центре Лос-Анджелеса их общая бывшая девушка.",
  "iframe_url": "",
  "iframe_poster": null,
  "poster": "https://img.imgilall.me/movies/franchise/3/3/5/6/1/0/0/0/0/0/610x900_33561.jpg",
  "country": {
    "1": "США"
  },
  "collection": [],
  "genre": {
    "24": "Детектив",
    "19": "Комедия",
    "13": "Триллер",
    "7": "Драма"
  },
  "director": [
    "Шон Пиллер"
  ],
  "screenwriter": [
    "Скотт Лью"
  ],
  "producer": [
    "Марк Эмин",
    "Дэвид Хиггинс",
    "Ллойд Сеган"
  ],
  "operator": [
    "Жуль Лабарте"
  ],
  "composer": [
    "Патрик Кэйрд"
  ],
  "design": [
    "Кори Лорензен",
    "Линз Радзимински",
    "Джарри Шварц"
  ],
  "editor": [
    "Дэвид В. Хагар"
  ],
  "actors": [
    "Сет Грин",
    "Кэти Сакхофф",
    "Уильям Болдуин",
    "Мишель Трахтенберг",
    "Хэролд Перрино",
    "Энтони Майкл Холл",
    "Нора Киркпатрик",
    "Аликс Гиттер",
    "Дерек Мио",
    "Чад Герреро"
  ],
  "actors_dubl": [],
  "trivia": [],
  "trailers": [],
  "seasons": [],
  "voiceActing": [
    "Важенин (BadBajo)"
  ],
  "subtitle": [],
  "parts": []
}
