{
  "id": 33584,
  "name": "Клэр в движении",
  "name_eng": "Claire in Motion",
  "year": 2016,
  "slogan": "—",
  "age": null,
  "type": "film",
  "quality": "HD (720p)",
  "imdb": "4.4",
  "imdb_id": "0",
  "kinopoisk": null,
  "kinopoisk_id": "959842",
  "world_art": null,
  "world_art_id": null,
  "time": "83 мин. / 01:23",
  "ads": false,
  "premier": "2016-03-15",
  "premier_rus": "2016-03-16",
  "availability": "2016-03-17",
  "activate_time": "2020-07-15 15:19:00",
  "budget": null,
  "fees_use": null,
  "fees_world": null,
  "fees_rus": null,
  "rate_mpaa": null,
  "description": "Клэр была уверена в себе, своей работе и семье. Всё рухнуло, когда исчез муж героини, оставив лишь цепь загадок и вопросов. Ответы на них навсегда уничтожат привычную реальность Клэр.",
  "iframe_url": "",
  "iframe_poster": null,
  "poster": "https://img.imgilall.me/movies/franchise/3/3/5/8/4/0/0/0/0/0/610x900_33584.jpg",
  "country": {
    "1": "США"
  },
  "collection": [],
  "genre": {
    "7": "Драма"
  },
  "director": [
    "Энни Хауэлл",
    "Лиза Робинсон"
  ],
  "screenwriter": [
    "Энни Хауэлл",
    "Лиза Робинсон"
  ],
  "producer": [
    "Энни Хауэлл",
    "Лиза Робинсон",
    "Райан Каннингэм"
  ],
  "operator": [
    "Андреас Бёрджесс"
  ],
  "composer": [
    "Ксандер Дюэл"
  ],
  "design": [
    "Эммелин Уилкс-Дюпуаз",
    "Ирина Жигалюк",
    "Наоми Фолфф"
  ],
  "editor": [
    "Джим Ислер"
  ],
  "actors": [
    "Бетси Брандт",
    "Крис Битем",
    "Zev Haworth",
    "Анна Маргарет Холлиман",
    "Сакина Джэффри",
    "Abraham Adams",
    "Daniel Aguera",
    "Бедир Семих",
    "Merri Biechler",
    "Joe Brenckle"
  ],
  "actors_dubl": [],
  "trivia": [],
  "trailers": [],
  "seasons": [],
  "voiceActing": [
    "Рус. Люб. многоголосый"
  ],
  "subtitle": [],
  "parts": []
}
