{
  "id": 33664,
  "name": "Летний дом",
  "name_eng": "Les estivants",
  "year": 2018,
  "slogan": "—",
  "age": null,
  "type": "film",
  "quality": "HD (720p)",
  "imdb": "5.3",
  "imdb_id": "0",
  "kinopoisk": null,
  "kinopoisk_id": "1049948",
  "world_art": null,
  "world_art_id": null,
  "time": "127 мин. / 02:07",
  "ads": false,
  "premier": "2018-09-05",
  "premier_rus": "2018-09-06",
  "availability": "2018-09-07",
  "activate_time": "2020-07-16 07:09:00",
  "budget": null,
  "fees_use": null,
  "fees_world": null,
  "fees_rus": null,
  "rate_mpaa": null,
  "description": null,
  "iframe_url": "",
  "iframe_poster": null,
  "poster": "https://img.imgilall.me/movies/franchise/3/3/6/6/4/0/0/0/0/0/610x900_33664.jpg",
  "country": {
    "8": "Италия",
    "9": "Франция"
  },
  "collection": [],
  "genre": {
    "19": "Комедия",
    "7": "Драма"
  },
  "director": [
    "Валерия Бруни-Тедески"
  ],
  "screenwriter": [
    "Валерия Бруни-Тедески",
    "Каролина Деруа-Гаррель",
    "Ноэми Львовски"
  ],
  "producer": [
    "Анджело Барбагалло",
    "Александра Хеношсберг",
    "Патрик Собельман"
  ],
  "operator": [
    "Жанна Лапуари"
  ],
  "composer": [
    "Паоло Буонвино"
  ],
  "design": [
    "Эммануэль Дюпле",
    "Сесиль Арлет Колин"
  ],
  "editor": [
    "Энн Вейл"
  ],
  "actors": [
    "Валерия Бруни-Тедески",
    "Пьер Ардити",
    "Валерия Голино",
    "Ноэми Львовски",
    "Иоланда Моро",
    "Лоран Стокер",
    "Риккардо Скамарчо",
    "Бруно Раффаэлли",
    "Мариса Бруни-Тедески",
    "Oumy Bruni Garrel"
  ],
  "actors_dubl": [],
  "trivia": [],
  "trailers": [],
  "seasons": [],
  "voiceActing": [
    "und0"
  ],
  "subtitle": [],
  "parts": []
}
