{
  "id": 33684,
  "name": "Капоне",
  "name_eng": "Capone",
  "year": 1975,
  "slogan": "«From Underworld To Empire»",
  "age": "16+",
  "type": "film",
  "quality": "HD (720p)",
  "imdb": "5.7",
  "imdb_id": "0",
  "kinopoisk": "6.3",
  "kinopoisk_id": "32329",
  "world_art": null,
  "world_art_id": null,
  "time": "101 мин. / 01:41",
  "ads": false,
  "premier": "1975-04-16",
  "premier_rus": "1975-04-17",
  "availability": "1975-04-18",
  "activate_time": "2020-07-15 15:49:00",
  "budget": null,
  "fees_use": null,
  "fees_world": null,
  "fees_rus": null,
  "rate_mpaa": "R",
  "description": "В 1918 году крупнейшим мафиози был Торрио. Он учил Капоне общаться с политиками, судьями и адвокатами, учил его красиво говорить, одеваться и правильно вести себя в высшем обществе, чтобы никто не мог заподозрить, что он - из шпаны. Постепенно Капоне приспособился к своим новым обязанностям и стал правой рукой Торрио. В городе учащались вооруженные мафиозные разборки. Соперники Торрио вынуждали его поделиться бизнесом. Капоне не мог с этим смириться и, понимая, что босса не переубедить, решил убить его и возглавить его мафиозную организацию.",
  "iframe_url": "",
  "iframe_poster": null,
  "poster": "https://img.imgilall.me/movies/franchise/3/3/6/8/4/0/0/0/0/0/610x900_33684.jpg",
  "country": {
    "1": "США"
  },
  "collection": [],
  "genre": {
    "25": "Криминал",
    "27": "Биографический",
    "7": "Драма"
  },
  "director": [
    "Стив Карвер"
  ],
  "screenwriter": [
    "Ховард Браун"
  ],
  "producer": [
    "Роджер Корман",
    "Джон С. Бродерик"
  ],
  "operator": [
    "Вилис Лапеникс"
  ],
  "composer": [
    "Девид Гризман"
  ],
  "design": [
    "Уорд Престон",
    "Нед Парсонс"
  ],
  "editor": [
    "Ричард С. Мейер"
  ],
  "actors": [
    "Бен Газзара",
    "Гарри Гуардино",
    "Сьюзан Блейкли",
    "Сильвестр Сталлоне",
    "Джон Кассаветис",
    "Фрэнк Кампанелла",
    "Джон Орхард",
    "Кармен Ардженциано",
    "Джордж Чандлер",
    "Джон Дэвис Чэндлер"
  ],
  "actors_dubl": [],
  "trivia": [],
  "trailers": [],
  "seasons": [],
  "voiceActing": [
    "Diva Universal"
  ],
  "subtitle": [],
  "parts": []
}
