{
  "id": 33804,
  "name": "Симран",
  "name_eng": "Simran",
  "year": 2017,
  "slogan": "—",
  "age": null,
  "type": "film",
  "quality": "HD (720p)",
  "imdb": "5.1",
  "imdb_id": "0",
  "kinopoisk": null,
  "kinopoisk_id": "1029381",
  "world_art": null,
  "world_art_id": null,
  "time": "124 мин. / 02:04",
  "ads": false,
  "premier": "2017-09-14",
  "premier_rus": "2017-09-15",
  "availability": "2017-09-16",
  "activate_time": "2020-07-15 14:31:00",
  "budget": null,
  "fees_use": null,
  "fees_world": null,
  "fees_rus": null,
  "rate_mpaa": null,
  "description": null,
  "iframe_url": "",
  "iframe_poster": null,
  "poster": "https://img.imgilall.me/movies/franchise/3/3/8/0/4/0/0/0/0/0/610x900_33804.jpg",
  "country": {
    "26": "Индия"
  },
  "collection": [],
  "genre": {
    "25": "Криминал",
    "13": "Триллер",
    "7": "Драма"
  },
  "director": [
    "Хансал Мехта"
  ],
  "screenwriter": [
    "Апурва Асрани"
  ],
  "producer": [
    "Amit Agarwal",
    "Бхушан Кумар",
    "Кришан Кумар"
  ],
  "operator": [
    "Анудж Дхаван"
  ],
  "composer": [
    "Хитеш Модак",
    "Сачин Сангхви",
    "Джигар"
  ],
  "design": [
    "Паял Гхош",
    "Тия Теджпал",
    "Shivank Kapoor"
  ],
  "editor": [
    "Антара Лахири"
  ],
  "actors": [
    "Кангана Ранаут",
    "Сохам Шах",
    "Эша Тевари",
    "Джейсон Лодер",
    "Аниша Джоши",
    "Марк Джастис",
    "Рапиндер Награ",
    "Катрин Дайер",
    "James Cole",
    "Робин Дайк"
  ],
  "actors_dubl": [],
  "trivia": [],
  "trailers": [],
  "seasons": [],
  "voiceActing": [
    "Рус. Люб. многоголосый"
  ],
  "subtitle": [],
  "parts": []
}
