{
  "id": 33815,
  "name": "Пиво моим лошадям",
  "name_eng": "Beer for My Horses",
  "year": 2008,
  "slogan": "«Безумное правосудие... Настоящее рубилово!»",
  "age": "16+",
  "type": "film",
  "quality": "HD (720p)",
  "imdb": "4.9",
  "imdb_id": "0",
  "kinopoisk": "5.8",
  "kinopoisk_id": "404234",
  "world_art": null,
  "world_art_id": null,
  "time": "86 мин. / 01:26",
  "ads": false,
  "premier": "2008-08-08",
  "premier_rus": "2008-08-09",
  "availability": "2008-08-10",
  "activate_time": "2020-07-16 06:51:00",
  "budget": null,
  "fees_use": "$666 045",
  "fees_world": null,
  "fees_rus": null,
  "rate_mpaa": "PG-13",
  "description": "«Пиво для моих лошадей» — это история о двух помощниках шерифа из небольшого городка. Рэк и Лони бросают вызов своему начальнику и отправляются в головокружительное путешествие для того, чтобы спасти девушку из рук похитителей, нанятых наркобароном.",
  "iframe_url": "",
  "iframe_poster": null,
  "poster": "https://img.imgilall.me/movies/franchise/3/3/8/1/5/0/0/0/0/0/610x900_33815.jpg",
  "country": {
    "1": "США"
  },
  "collection": [],
  "genre": {
    "25": "Криминал",
    "19": "Комедия",
    "17": "Боевик"
  },
  "director": [
    "Майкл Саломон"
  ],
  "screenwriter": [
    "Родни Керрингтон",
    "Тоби Кит"
  ],
  "producer": [
    "Тоби Кит",
    "Дональд Цуккерман",
    "Лесли Белзберг"
  ],
  "operator": [
    "Пол Эллиот"
  ],
  "composer": [
    "Джефф Кардони"
  ],
  "design": [
    "Томас А. Уолш",
    "Густав Алсина",
    "Кейт Хили"
  ],
  "editor": [
    "Пол Трехо"
  ],
  "actors": [
    "Тоби Кит",
    "Родни Керрингтон",
    "Клэр Форлани",
    "Тед Ньюджент",
    "Бэрри Корбин",
    "Грег Серано",
    "Том Скеррит",
    "Джина Гершон",
    "Уилли Нельсон",
    "Крис Браунинг"
  ],
  "actors_dubl": [],
  "trivia": [
    "Название фильма происходит из тоста, неоднократно произносимого во время фильма: Whisky for my men beer for my horses! То есть: Виски моим людям, пиво моим лошадям!"
  ],
  "trailers": [],
  "seasons": [],
  "voiceActing": [
    "Diva Universal"
  ],
  "subtitle": [],
  "parts": []
}
