{
  "id": 3389,
  "name": "Драконы: Всадники Олуха",
  "name_eng": "Dragons: Riders of Berk",
  "year": 2012,
  "slogan": "«Live to train, train to live!»",
  "age": "6+",
  "type": "cartoon-series",
  "quality": "FHD (1080p)",
  "imdb": "8.0",
  "imdb_id": "2325846",
  "kinopoisk": "7.7",
  "kinopoisk_id": "707366",
  "world_art": null,
  "world_art_id": null,
  "time": "22 мин.",
  "ads": false,
  "premier": "2012-08-07",
  "premier_rus": "2013-03-01",
  "availability": "2013-03-02",
  "serial_status": "offline",
  "activate_time": "2018-11-09 17:48:26",
  "budget": null,
  "fees_use": null,
  "fees_world": null,
  "fees_rus": null,
  "rate_mpaa": null,
  "description": "Викинги Олуха и их бывшие враги — драконы — теперь живут вместе в мире и покое, однако такое соседство всё равно не так уж гармонично, как хотелось бы. Несмотря на мирное сосуществование, драконы всё-таки остаются существами непредсказуемыми и опасными, реагирующими на многие вещи совершенно неожиданно. Иккинг решается открыть Школу для дрессировки драконов на Олухе, чтобы помочь драконам влиться в общество людей.",
  "iframe_url": "",
  "poster": "https://img.imgilall.me/movies/franchise/3/3/8/9/0/0/0/0/0/0/610x900_3389.jpg",
  "country": {
    "1": "США"
  },
  "collection": {
    "98": "DreamWorks",
    "18": "Про животных",
    "99": "Про драконов"
  },
  "genre": {
    "9": "Приключения",
    "6": "Фэнтези",
    "33": "Семейный",
    "19": "Комедия",
    "10": "Зарубежный"
  },
  "director": [
    "Энтони Белл",
    "Джон Санфорд",
    "Луи дель Кармен"
  ],
  "screenwriter": [
    "Арт Эдлер Браун",
    "Сэмюэл Черингтон",
    "Джим Купер"
  ],
  "producer": [
    "Дуглас Слоун",
    "Арт Эдлер Браун",
    "Чед Хаммес"
  ],
  "operator": [],
  "composer": [
    "Джон Песано"
  ],
  "design": [
    "Кевин Конран",
    "Майкл Роуз"
  ],
  "editor": [
    "Джон Лаус",
    "Линн Хобсон",
    "Питер Томашевич"
  ],
  "actors": [
    "Америка Феррера",
    "Джей Барушель",
    "ТиДжей Миллер",
    "Зак Перлман",
    "Кристофер Минц-Плассе",
    "Нолан Норт",
    "Крис Эджерли",
    "Джули Ариелла Маркус",
    "Андре Вермюлен",
    "Стивен Рут"
  ],
  "actors_dubl": [
    "Софья Ануфриева",
    "Андрей Лёвин",
    "Александр Разбаш",
    "Михаил Хрусталёв",
    "Игорь Виноградов"
  ],
  "trivia": [],
  "trailers": [
    {
      "name": "трейлер №1",
      "number": 1,
      "iframe_poster": null,
      "season": 1,
      "iframe_url": ""
    }
  ],
  "seasons": [
    {
      "poster": "https://img.imgilall.me/movies/season/1/9/2/7/0/0/0/0/0/0/610x900_1927.jpg",
      "release_ru": "2012-08-08",
      "release_world": "2012-08-07",
      "availability": "2012-08-09",
      "iframe_url": "",
      "season": 1,
      "episodes": [
        {
          "episode": 1,
          "name": "How to Start a Dragon Academy",
          "iframe_url": "",
          "iframe_poster": null,
          "release_ru": "2012-08-08",
          "release_world": "2012-08-07",
          "availability": "2012-08-09",
          "voiceActing": [
            "Рус. Дублированный",
            "Eng.Original"
          ],
          "ads": false,
          "subtitle": [
            "Рус. полные"
          ]
        },
        {
          "episode": 2,
          "name": "Viking for Hire",
          "iframe_url": "",
          "iframe_poster": null,
          "release_ru": "2012-08-08",
          "release_world": "2012-08-07",
          "availability": "2012-08-09",
          "voiceActing": [
            "Рус. Дублированный",
            "Eng.Original"
          ],
          "ads": false,
          "subtitle": [
            "Рус. полные"
          ]
        },
        {
          "episode": 3,
          "name": "Animal House",
          "iframe_url": "",
          "iframe_poster": null,
          "release_ru": "2012-09-05",
          "release_world": "2012-09-04",
          "availability": "2012-09-06",
          "voiceActing": [
            "Рус. Дублированный",
            "Eng.Original"
          ],
          "ads": false,
          "subtitle": [
            "Рус. полные"
          ]
        },
        {
          "episode": 4,
          "name": "The Terrible Twos",
          "iframe_url": "",
          "iframe_poster": null,
          "release_ru": "2012-09-12",
          "release_world": "2012-09-11",
          "availability": "2012-09-13",
          "voiceActing": [
            "Рус. Дублированный",
            "Eng.Original"
          ],
          "ads": false,
          "subtitle": [
            "Рус. полные"
          ]
        },
        {
          "episode": 5,
          "name": "In Dragons We Trust",
          "iframe_url": "",
          "iframe_poster": null,
          "release_ru": "2012-09-19",
          "release_world": "2012-09-18",
          "availability": "2012-09-20",
          "voiceActing": [
            "Рус. Дублированный",
            "Eng.Original"
          ],
          "ads": false,
          "subtitle": [
            "Рус. полные"
          ]
        },
        {
          "episode": 6,
          "name": "Alvin and the Outcasts",
          "iframe_url": "",
          "iframe_poster": null,
          "release_ru": "2012-09-26",
          "release_world": "2012-09-25",
          "availability": "2012-09-27",
          "voiceActing": [
            "Рус. Дублированный",
            "Eng.Original"
          ],
          "ads": false,
          "subtitle": [
            "Рус. полные"
          ]
        },
        {
          "episode": 7,
          "name": "How to Pick Your Dragon",
          "iframe_url": "",
          "iframe_poster": null,
          "release_ru": "2012-10-04",
          "release_world": "2012-10-03",
          "availability": "2012-10-05",
          "voiceActing": [
            "Рус. Дублированный",
            "Eng.Original"
          ],
          "ads": false,
          "subtitle": [
            "Рус. полные"
          ]
        },
        {
          "episode": 8,
          "name": "Portrait of Hiccup as a Buff Young Man",
          "iframe_url": "",
          "iframe_poster": null,
          "release_ru": "2012-10-11",
          "release_world": "2012-10-10",
          "availability": "2012-10-12",
          "voiceActing": [
            "Рус. Дублированный",
            "Eng.Original"
          ],
          "ads": false,
          "subtitle": [
            "Рус. полные"
          ]
        },
        {
          "episode": 9,
          "name": "Dragon Flower",
          "iframe_url": "",
          "iframe_poster": null,
          "release_ru": "2012-10-18",
          "release_world": "2012-10-17",
          "availability": "2012-10-19",
          "voiceActing": [
            "Рус. Дублированный",
            "Eng.Original"
          ],
          "ads": false,
          "subtitle": [
            "Рус. полные"
          ]
        },
        {
          "episode": 10,
          "name": "Heather Report (Part 1)",
          "iframe_url": "",
          "iframe_poster": null,
          "release_ru": "2012-11-15",
          "release_world": "2012-11-14",
          "availability": "2012-11-16",
          "voiceActing": [
            "Рус. Дублированный",
            "Eng.Original"
          ],
          "ads": false,
          "subtitle": [
            "Рус. полные"
          ]
        },
        {
          "episode": 11,
          "name": "Heather Report (Part II)",
          "iframe_url": "",
          "iframe_poster": null,
          "release_ru": "2012-11-22",
          "release_world": "2012-11-21",
          "availability": "2012-11-23",
          "voiceActing": [
            "Рус. Дублированный",
            "Eng.Original"
          ],
          "ads": false,
          "subtitle": [
            "Рус. полные"
          ]
        },
        {
          "episode": 12,
          "name": "Thawfest",
          "iframe_url": "",
          "iframe_poster": null,
          "release_ru": "2012-11-29",
          "release_world": "2012-11-28",
          "availability": "2012-11-30",
          "voiceActing": [
            "Рус. Дублированный",
            "Eng.Original"
          ],
          "ads": false,
          "subtitle": [
            "Рус. полные"
          ]
        },
        {
          "episode": 13,
          "name": "When Lightning Strikes",
          "iframe_url": "",
          "iframe_poster": null,
          "release_ru": "2012-12-06",
          "release_world": "2012-12-05",
          "availability": "2012-12-07",
          "voiceActing": [
            "Рус. Дублированный",
            "Eng.Original"
          ],
          "ads": false,
          "subtitle": [
            "Рус. полные"
          ]
        },
        {
          "episode": 14,
          "name": "What Flies Beneath",
          "iframe_url": "",
          "iframe_poster": null,
          "release_ru": "2013-02-07",
          "release_world": "2013-02-06",
          "availability": "2013-02-08",
          "voiceActing": [
            "Рус. Дублированный",
            "Eng.Original"
          ],
          "ads": false,
          "subtitle": [
            "Рус. полные"
          ]
        },
        {
          "episode": 15,
          "name": "Twinsanity",
          "iframe_url": "",
          "iframe_poster": null,
          "release_ru": "2013-02-14",
          "release_world": "2013-02-13",
          "availability": "2013-02-15",
          "voiceActing": [
            "Рус. Дублированный",
            "Eng.Original"
          ],
          "ads": false,
          "subtitle": [
            "Рус. полные"
          ]
        },
        {
          "episode": 16,
          "name": "Defiant One",
          "iframe_url": "",
          "iframe_poster": null,
          "release_ru": "2013-02-21",
          "release_world": "2013-02-20",
          "availability": "2013-02-22",
          "voiceActing": [
            "Рус. Дублированный",
            "Eng.Original"
          ],
          "ads": false,
          "subtitle": [
            "Рус. полные"
          ]
        },
        {
          "episode": 17,
          "name": "Breakneck Bog",
          "iframe_url": "",
          "iframe_poster": null,
          "release_ru": "2013-02-28",
          "release_world": "2013-02-27",
          "availability": "2013-03-01",
          "voiceActing": [
            "Рус. Дублированный",
            "Eng.Original"
          ],
          "ads": false,
          "subtitle": [
            "Рус. полные"
          ]
        },
        {
          "episode": 18,
          "name": "Gem of a Different Color",
          "iframe_url": "",
          "iframe_poster": null,
          "release_ru": "2013-03-07",
          "release_world": "2013-03-06",
          "availability": "2013-03-08",
          "voiceActing": [
            "Рус. Дублированный",
            "Eng.Original"
          ],
          "ads": false,
          "subtitle": [
            "Рус. полные"
          ]
        },
        {
          "episode": 19,
          "name": "We Are a Family (Part 1)",
          "iframe_url": "",
          "iframe_poster": null,
          "release_ru": "2013-03-14",
          "release_world": "2013-03-13",
          "availability": "2013-03-15",
          "voiceActing": [
            "Рус. Дублированный",
            "Eng.Original"
          ],
          "ads": false,
          "subtitle": [
            "Рус. полные"
          ]
        },
        {
          "episode": 20,
          "name": "We Are a Family (Part 2)",
          "iframe_url": "",
          "iframe_poster": null,
          "release_ru": "2013-03-21",
          "release_world": "2013-03-20",
          "availability": "2013-03-22",
          "voiceActing": [
            "Рус. Дублированный",
            "Eng.Original"
          ],
          "ads": false,
          "subtitle": [
            "Рус. полные"
          ]
        }
      ]
    },
    {
      "poster": "https://img.imgilall.me/movies/season/1/9/2/8/0/0/0/0/0/0/610x900_1928.jpg",
      "release_ru": "2013-09-20",
      "release_world": "2013-09-19",
      "availability": "2013-09-21",
      "iframe_url": "",
      "season": 2,
      "episodes": [
        {
          "episode": 1,
          "name": "Live and Let Fly",
          "iframe_url": "",
          "iframe_poster": null,
          "release_ru": "2013-09-20",
          "release_world": "2013-09-19",
          "availability": "2013-09-21",
          "voiceActing": [
            "Рус. Дублированный",
            "Eng.Original"
          ],
          "ads": false,
          "subtitle": [
            "Рус. полные"
          ]
        },
        {
          "episode": 2,
          "name": "The Iron Gronckle",
          "iframe_url": "",
          "iframe_poster": null,
          "release_ru": "2013-09-27",
          "release_world": "2013-09-26",
          "availability": "2013-09-28",
          "voiceActing": [
            "Рус. Дублированный",
            "Eng.Original"
          ],
          "ads": false,
          "subtitle": [
            "Рус. полные"
          ]
        },
        {
          "episode": 3,
          "name": "The Night and the Fury",
          "iframe_url": "",
          "iframe_poster": null,
          "release_ru": "2013-10-04",
          "release_world": "2013-10-03",
          "availability": "2013-10-05",
          "voiceActing": [
            "Рус. Дублированный",
            "Eng.Original"
          ],
          "ads": false,
          "subtitle": [
            "Рус. полные"
          ]
        },
        {
          "episode": 4,
          "name": "Tunnel Vision",
          "iframe_url": "",
          "iframe_poster": null,
          "release_ru": "2013-10-11",
          "release_world": "2013-10-10",
          "availability": "2013-10-12",
          "voiceActing": [
            "Рус. Дублированный",
            "Eng.Original"
          ],
          "ads": false,
          "subtitle": [
            "Рус. полные"
          ]
        },
        {
          "episode": 5,
          "name": "Race to Fireworm Island",
          "iframe_url": "",
          "iframe_poster": null,
          "release_ru": "2013-10-18",
          "release_world": "2013-10-17",
          "availability": "2013-10-19",
          "voiceActing": [
            "Рус. Дублированный",
            "Eng.Original"
          ],
          "ads": false,
          "subtitle": [
            "Рус. полные"
          ]
        },
        {
          "episode": 6,
          "name": "Fright of Passage",
          "iframe_url": "",
          "iframe_poster": null,
          "release_ru": "2013-10-25",
          "release_world": "2013-10-24",
          "availability": "2013-10-26",
          "voiceActing": [
            "Рус. Дублированный",
            "Eng.Original"
          ],
          "ads": false,
          "subtitle": [
            "Рус. полные"
          ]
        },
        {
          "episode": 7,
          "name": "Worst in Show",
          "iframe_url": "",
          "iframe_poster": null,
          "release_ru": "2013-11-08",
          "release_world": "2013-11-07",
          "availability": "2013-11-09",
          "voiceActing": [
            "Рус. Дублированный",
            "Eng.Original"
          ],
          "ads": false,
          "subtitle": [
            "Рус. полные"
          ]
        },
        {
          "episode": 8,
          "name": "Appetite for Destruction",
          "iframe_url": "",
          "iframe_poster": null,
          "release_ru": "2013-11-15",
          "release_world": "2013-11-14",
          "availability": "2013-11-16",
          "voiceActing": [
            "Рус. Дублированный",
            "Eng.Original"
          ],
          "ads": false,
          "subtitle": [
            "Рус. полные"
          ]
        },
        {
          "episode": 9,
          "name": "Zippleback Down",
          "iframe_url": "",
          "iframe_poster": null,
          "release_ru": "2013-11-22",
          "release_world": "2013-11-21",
          "availability": "2013-11-23",
          "voiceActing": [
            "Рус. Дублированный",
            "Eng.Original"
          ],
          "ads": false,
          "subtitle": [
            "Рус. полные"
          ]
        },
        {
          "episode": 10,
          "name": "A View to a Skrill (Part I)",
          "iframe_url": "",
          "iframe_poster": null,
          "release_ru": "2013-12-06",
          "release_world": "2013-12-05",
          "availability": "2013-12-07",
          "voiceActing": [
            "Рус. Дублированный",
            "Eng.Original"
          ],
          "ads": false,
          "subtitle": [
            "Рус. полные"
          ]
        },
        {
          "episode": 11,
          "name": "A View to a Skrill (Part II)",
          "iframe_url": "",
          "iframe_poster": null,
          "release_ru": "2013-12-06",
          "release_world": "2013-12-05",
          "availability": "2013-12-07",
          "voiceActing": [
            "Рус. Дублированный",
            "Eng.Original"
          ],
          "ads": false,
          "subtitle": [
            "Рус. полные"
          ]
        },
        {
          "episode": 12,
          "name": "The Flight Stuff",
          "iframe_url": "",
          "iframe_poster": null,
          "release_ru": "2014-01-09",
          "release_world": "2014-01-08",
          "availability": "2014-01-10",
          "voiceActing": [
            "Рус. Дублированный",
            "Eng.Original"
          ],
          "ads": false,
          "subtitle": [
            "Рус. полные"
          ]
        },
        {
          "episode": 13,
          "name": "Free Scauldy",
          "iframe_url": "",
          "iframe_poster": null,
          "release_ru": "2014-01-16",
          "release_world": "2014-01-15",
          "availability": "2014-01-17",
          "voiceActing": [
            "Рус. Дублированный",
            "Eng.Original"
          ],
          "ads": false,
          "subtitle": [
            "Рус. полные"
          ]
        },
        {
          "episode": 14,
          "name": "Frozen",
          "iframe_url": "",
          "iframe_poster": null,
          "release_ru": "2014-01-23",
          "release_world": "2014-01-22",
          "availability": "2014-01-24",
          "voiceActing": [
            "Рус. Дублированный",
            "Eng.Original"
          ],
          "ads": false,
          "subtitle": [
            "Рус. полные"
          ]
        },
        {
          "episode": 15,
          "name": "A Tale of Two Dragons",
          "iframe_url": "",
          "iframe_poster": null,
          "release_ru": "2014-01-30",
          "release_world": "2014-01-29",
          "availability": "2014-01-31",
          "voiceActing": [
            "Рус. Дублированный",
            "Eng.Original"
          ],
          "ads": false,
          "subtitle": [
            "Рус. полные"
          ]
        },
        {
          "episode": 16,
          "name": "The Eel Effect",
          "iframe_url": "",
          "iframe_poster": null,
          "release_ru": "2014-02-06",
          "release_world": "2014-02-05",
          "availability": "2014-02-07",
          "voiceActing": [
            "Рус. Дублированный",
            "Eng.Original"
          ],
          "ads": false,
          "subtitle": [
            "Рус. полные"
          ]
        },
        {
          "episode": 17,
          "name": "Smoke Gets in Your Eyes",
          "iframe_url": "",
          "iframe_poster": null,
          "release_ru": "2014-02-13",
          "release_world": "2014-02-12",
          "availability": "2014-02-14",
          "voiceActing": [
            "Рус. Дублированный",
            "Eng.Original"
          ],
          "ads": false,
          "subtitle": [
            "Рус. полные"
          ]
        },
        {
          "episode": 18,
          "name": "Bing! Bang! Boom!",
          "iframe_url": "",
          "iframe_poster": null,
          "release_ru": "2014-02-20",
          "release_world": "2014-02-19",
          "availability": "2014-02-21",
          "voiceActing": [
            "Рус. Дублированный",
            "Eng.Original"
          ],
          "ads": false,
          "subtitle": [
            "Рус. полные"
          ]
        },
        {
          "episode": 19,
          "name": "Cast Out (Part I)",
          "iframe_url": "",
          "iframe_poster": null,
          "release_ru": "2014-02-27",
          "release_world": "2014-02-26",
          "availability": "2014-02-28",
          "voiceActing": [
            "Рус. Дублированный",
            "Eng.Original"
          ],
          "ads": false,
          "subtitle": [
            "Рус. полные"
          ]
        },
        {
          "episode": 20,
          "name": "Cast Out (Part II)",
          "iframe_url": "",
          "iframe_poster": null,
          "release_ru": "2014-03-06",
          "release_world": "2014-03-05",
          "availability": "2014-03-07",
          "voiceActing": [
            "Рус. Дублированный",
            "Eng.Original"
          ],
          "ads": false,
          "subtitle": [
            "Рус. полные"
          ]
        }
      ]
    },
    {
      "poster": "https://img.imgilall.me/movies/season/1/9/2/9/0/0/0/0/0/0/610x900_1929.jpg",
      "release_ru": null,
      "release_world": null,
      "availability": null,
      "iframe_url": "",
      "season": 3,
      "episodes": [
        {
          "episode": 1,
          "name": null,
          "iframe_url": "",
          "iframe_poster": null,
          "release_ru": null,
          "release_world": null,
          "availability": null,
          "voiceActing": [
            "Рус. Дублированный",
            "Eng.Original"
          ],
          "ads": false,
          "subtitle": [
            "Eng. full"
          ]
        },
        {
          "episode": 2,
          "name": null,
          "iframe_url": "",
          "iframe_poster": null,
          "release_ru": null,
          "release_world": null,
          "availability": null,
          "voiceActing": [
            "Рус. Дублированный",
            "Eng.Original"
          ],
          "ads": false,
          "subtitle": [
            "Eng. full"
          ]
        },
        {
          "episode": 3,
          "name": null,
          "iframe_url": "",
          "iframe_poster": null,
          "release_ru": null,
          "release_world": null,
          "availability": null,
          "voiceActing": [
            "Рус. Дублированный",
            "Eng.Original"
          ],
          "ads": false,
          "subtitle": [
            "Eng. full"
          ]
        },
        {
          "episode": 4,
          "name": null,
          "iframe_url": "",
          "iframe_poster": null,
          "release_ru": null,
          "release_world": null,
          "availability": null,
          "voiceActing": [
            "Рус. Дублированный",
            "Eng.Original"
          ],
          "ads": false,
          "subtitle": [
            "Eng. full"
          ]
        },
        {
          "episode": 5,
          "name": null,
          "iframe_url": "",
          "iframe_poster": null,
          "release_ru": null,
          "release_world": null,
          "availability": null,
          "voiceActing": [
            "Рус. Дублированный",
            "Eng.Original"
          ],
          "ads": false,
          "subtitle": [
            "Рус. форсированные"
          ]
        },
        {
          "episode": 6,
          "name": null,
          "iframe_url": "",
          "iframe_poster": null,
          "release_ru": null,
          "release_world": null,
          "availability": null,
          "voiceActing": [
            "Рус. Дублированный",
            "Eng.Original"
          ],
          "ads": false,
          "subtitle": [
            "Eng. full"
          ]
        },
        {
          "episode": 7,
          "name": null,
          "iframe_url": "",
          "iframe_poster": null,
          "release_ru": null,
          "release_world": null,
          "availability": null,
          "voiceActing": [
            "Рус. Дублированный",
            "Eng.Original"
          ],
          "ads": false,
          "subtitle": [
            "Рус. форсированные"
          ]
        },
        {
          "episode": 8,
          "name": null,
          "iframe_url": "",
          "iframe_poster": null,
          "release_ru": null,
          "release_world": null,
          "availability": null,
          "voiceActing": [
            "Рус. Дублированный",
            "Eng.Original"
          ],
          "ads": false,
          "subtitle": [
            "Eng. full"
          ]
        },
        {
          "episode": 9,
          "name": null,
          "iframe_url": "",
          "iframe_poster": null,
          "release_ru": null,
          "release_world": null,
          "availability": null,
          "voiceActing": [
            "Рус. Дублированный",
            "Eng.Original"
          ],
          "ads": false,
          "subtitle": [
            "Eng. full"
          ]
        },
        {
          "episode": 10,
          "name": null,
          "iframe_url": "",
          "iframe_poster": null,
          "release_ru": null,
          "release_world": null,
          "availability": null,
          "voiceActing": [
            "Рус. Дублированный",
            "Eng.Original"
          ],
          "ads": false,
          "subtitle": [
            "Eng. full"
          ]
        },
        {
          "episode": 11,
          "name": null,
          "iframe_url": "",
          "iframe_poster": null,
          "release_ru": null,
          "release_world": null,
          "availability": null,
          "voiceActing": [
            "Рус. Дублированный",
            "Eng.Original"
          ],
          "ads": false,
          "subtitle": [
            "Рус. форсированные"
          ]
        },
        {
          "episode": 12,
          "name": null,
          "iframe_url": "",
          "iframe_poster": null,
          "release_ru": null,
          "release_world": null,
          "availability": null,
          "voiceActing": [
            "Рус. Дублированный",
            "Eng.Original"
          ],
          "ads": false,
          "subtitle": [
            "Eng. full"
          ]
        },
        {
          "episode": 13,
          "name": null,
          "iframe_url": "",
          "iframe_poster": null,
          "release_ru": null,
          "release_world": null,
          "availability": null,
          "voiceActing": [
            "Рус. Дублированный",
            "Eng.Original"
          ],
          "ads": false,
          "subtitle": [
            "Eng. full"
          ]
        }
      ]
    },
    {
      "poster": "https://img.imgilall.me/movies/season/1/9/3/0/0/0/0/0/0/0/610x900_1930.jpg",
      "release_ru": null,
      "release_world": null,
      "availability": null,
      "iframe_url": "",
      "season": 4,
      "episodes": [
        {
          "episode": 1,
          "name": null,
          "iframe_url": "",
          "iframe_poster": null,
          "release_ru": null,
          "release_world": null,
          "availability": null,
          "voiceActing": [
            "Рус. Дублированный",
            "Eng.Original"
          ],
          "ads": false,
          "subtitle": [
            "Eng. full"
          ]
        },
        {
          "episode": 2,
          "name": null,
          "iframe_url": "",
          "iframe_poster": null,
          "release_ru": null,
          "release_world": null,
          "availability": null,
          "voiceActing": [
            "Рус. Дублированный",
            "Eng.Original"
          ],
          "ads": false,
          "subtitle": [
            "Eng. full"
          ]
        },
        {
          "episode": 3,
          "name": null,
          "iframe_url": "",
          "iframe_poster": null,
          "release_ru": null,
          "release_world": null,
          "availability": null,
          "voiceActing": [
            "Рус. Дублированный",
            "Eng.Original"
          ],
          "ads": false,
          "subtitle": [
            "Рус. форсированные"
          ]
        },
        {
          "episode": 4,
          "name": null,
          "iframe_url": "",
          "iframe_poster": null,
          "release_ru": null,
          "release_world": null,
          "availability": null,
          "voiceActing": [
            "Рус. Дублированный",
            "Eng.Original"
          ],
          "ads": false,
          "subtitle": [
            "Рус. форсированные"
          ]
        },
        {
          "episode": 5,
          "name": null,
          "iframe_url": "",
          "iframe_poster": null,
          "release_ru": null,
          "release_world": null,
          "availability": null,
          "voiceActing": [
            "Рус. Дублированный",
            "Eng.Original"
          ],
          "ads": false,
          "subtitle": [
            "Eng. full"
          ]
        },
        {
          "episode": 6,
          "name": null,
          "iframe_url": "",
          "iframe_poster": null,
          "release_ru": null,
          "release_world": null,
          "availability": null,
          "voiceActing": [
            "Рус. Дублированный",
            "Eng.Original"
          ],
          "ads": false,
          "subtitle": [
            "Рус. форсированные"
          ]
        },
        {
          "episode": 7,
          "name": null,
          "iframe_url": "",
          "iframe_poster": null,
          "release_ru": null,
          "release_world": null,
          "availability": null,
          "voiceActing": [
            "Рус. Дублированный",
            "Eng.Original"
          ],
          "ads": false,
          "subtitle": [
            "Рус. форсированные"
          ]
        },
        {
          "episode": 8,
          "name": null,
          "iframe_url": "",
          "iframe_poster": null,
          "release_ru": null,
          "release_world": null,
          "availability": null,
          "voiceActing": [
            "Рус. Дублированный",
            "Eng.Original"
          ],
          "ads": false,
          "subtitle": []
        },
        {
          "episode": 9,
          "name": null,
          "iframe_url": "",
          "iframe_poster": null,
          "release_ru": null,
          "release_world": null,
          "availability": null,
          "voiceActing": [
            "Рус. Дублированный",
            "Eng.Original"
          ],
          "ads": false,
          "subtitle": [
            "Рус. форсированные"
          ]
        },
        {
          "episode": 10,
          "name": null,
          "iframe_url": "",
          "iframe_poster": null,
          "release_ru": null,
          "release_world": null,
          "availability": null,
          "voiceActing": [
            "Рус. Дублированный",
            "Eng.Original"
          ],
          "ads": false,
          "subtitle": [
            "Eng. full"
          ]
        },
        {
          "episode": 11,
          "name": null,
          "iframe_url": "",
          "iframe_poster": null,
          "release_ru": null,
          "release_world": null,
          "availability": null,
          "voiceActing": [
            "Рус. Дублированный",
            "Eng.Original"
          ],
          "ads": false,
          "subtitle": [
            "Eng. full"
          ]
        },
        {
          "episode": 12,
          "name": null,
          "iframe_url": "",
          "iframe_poster": null,
          "release_ru": null,
          "release_world": null,
          "availability": null,
          "voiceActing": [
            "Рус. Дублированный",
            "Eng.Original"
          ],
          "ads": false,
          "subtitle": [
            "Рус. форсированные"
          ]
        },
        {
          "episode": 13,
          "name": null,
          "iframe_url": "",
          "iframe_poster": null,
          "release_ru": null,
          "release_world": null,
          "availability": null,
          "voiceActing": [
            "Рус. Дублированный",
            "Eng.Original"
          ],
          "ads": false,
          "subtitle": [
            "Рус. форсированные"
          ]
        }
      ]
    },
    {
      "poster": "https://img.imgilall.me/movies/season/1/9/3/1/0/0/0/0/0/0/610x900_1931.jpg",
      "release_ru": null,
      "release_world": null,
      "availability": null,
      "iframe_url": "",
      "season": 5,
      "episodes": [
        {
          "episode": 1,
          "name": null,
          "iframe_url": "",
          "iframe_poster": null,
          "release_ru": null,
          "release_world": null,
          "availability": null,
          "voiceActing": [
            "Рус. Дублированный",
            "Eng.Original"
          ],
          "ads": false,
          "subtitle": [
            "Eng. full"
          ]
        },
        {
          "episode": 2,
          "name": null,
          "iframe_url": "",
          "iframe_poster": null,
          "release_ru": null,
          "release_world": null,
          "availability": null,
          "voiceActing": [
            "Рус. Дублированный",
            "Eng.Original"
          ],
          "ads": false,
          "subtitle": [
            "Рус. форсированные"
          ]
        },
        {
          "episode": 3,
          "name": null,
          "iframe_url": "",
          "iframe_poster": null,
          "release_ru": null,
          "release_world": null,
          "availability": null,
          "voiceActing": [
            "Рус. Дублированный",
            "Eng.Original"
          ],
          "ads": false,
          "subtitle": [
            "Рус. форсированные"
          ]
        },
        {
          "episode": 4,
          "name": null,
          "iframe_url": "",
          "iframe_poster": null,
          "release_ru": null,
          "release_world": null,
          "availability": null,
          "voiceActing": [
            "Рус. Дублированный",
            "Eng.Original"
          ],
          "ads": false,
          "subtitle": [
            "Рус. форсированные"
          ]
        },
        {
          "episode": 5,
          "name": null,
          "iframe_url": "",
          "iframe_poster": null,
          "release_ru": null,
          "release_world": null,
          "availability": null,
          "voiceActing": [
            "Рус. Дублированный",
            "Eng.Original"
          ],
          "ads": false,
          "subtitle": [
            "Рус. форсированные"
          ]
        },
        {
          "episode": 6,
          "name": null,
          "iframe_url": "",
          "iframe_poster": null,
          "release_ru": null,
          "release_world": null,
          "availability": null,
          "voiceActing": [
            "Рус. Дублированный",
            "Eng.Original"
          ],
          "ads": false,
          "subtitle": [
            "Рус. форсированные"
          ]
        },
        {
          "episode": 7,
          "name": null,
          "iframe_url": "",
          "iframe_poster": null,
          "release_ru": null,
          "release_world": null,
          "availability": null,
          "voiceActing": [
            "Рус. Дублированный",
            "Eng.Original"
          ],
          "ads": false,
          "subtitle": [
            "Eng. full"
          ]
        },
        {
          "episode": 8,
          "name": null,
          "iframe_url": "",
          "iframe_poster": null,
          "release_ru": null,
          "release_world": null,
          "availability": null,
          "voiceActing": [
            "Рус. Дублированный",
            "Eng.Original"
          ],
          "ads": false,
          "subtitle": [
            "Рус. форсированные"
          ]
        },
        {
          "episode": 9,
          "name": null,
          "iframe_url": "",
          "iframe_poster": null,
          "release_ru": null,
          "release_world": null,
          "availability": null,
          "voiceActing": [
            "Рус. Дублированный",
            "Eng.Original"
          ],
          "ads": false,
          "subtitle": [
            "Eng. full"
          ]
        },
        {
          "episode": 10,
          "name": null,
          "iframe_url": "",
          "iframe_poster": null,
          "release_ru": null,
          "release_world": null,
          "availability": null,
          "voiceActing": [
            "Рус. Дублированный",
            "Eng.Original"
          ],
          "ads": false,
          "subtitle": [
            "Рус. форсированные"
          ]
        },
        {
          "episode": 11,
          "name": null,
          "iframe_url": "",
          "iframe_poster": null,
          "release_ru": null,
          "release_world": null,
          "availability": null,
          "voiceActing": [
            "Рус. Дублированный",
            "Eng.Original"
          ],
          "ads": false,
          "subtitle": [
            "Eng. full"
          ]
        },
        {
          "episode": 12,
          "name": null,
          "iframe_url": "",
          "iframe_poster": null,
          "release_ru": null,
          "release_world": null,
          "availability": null,
          "voiceActing": [
            "Рус. Дублированный",
            "Eng.Original"
          ],
          "ads": false,
          "subtitle": [
            "Рус. форсированные"
          ]
        },
        {
          "episode": 13,
          "name": null,
          "iframe_url": "",
          "iframe_poster": null,
          "release_ru": null,
          "release_world": null,
          "availability": null,
          "voiceActing": [
            "Рус. Дублированный",
            "Eng.Original"
          ],
          "ads": false,
          "subtitle": [
            "Рус. форсированные"
          ]
        }
      ]
    },
    {
      "poster": null,
      "release_ru": null,
      "release_world": null,
      "availability": null,
      "iframe_url": "",
      "season": 6,
      "episodes": [
        {
          "episode": 1,
          "name": null,
          "iframe_url": "",
          "iframe_poster": null,
          "release_ru": null,
          "release_world": null,
          "availability": null,
          "voiceActing": [
            "Рус. Дублированный",
            "Eng.Original"
          ],
          "ads": false,
          "subtitle": [
            "Рус. форсированные"
          ]
        },
        {
          "episode": 2,
          "name": null,
          "iframe_url": "",
          "iframe_poster": null,
          "release_ru": null,
          "release_world": null,
          "availability": null,
          "voiceActing": [
            "Рус. Дублированный",
            "Eng.Original"
          ],
          "ads": false,
          "subtitle": [
            "Рус. форсированные"
          ]
        },
        {
          "episode": 3,
          "name": null,
          "iframe_url": "",
          "iframe_poster": null,
          "release_ru": null,
          "release_world": null,
          "availability": null,
          "voiceActing": [
            "Рус. Дублированный",
            "Eng.Original"
          ],
          "ads": false,
          "subtitle": [
            "Рус. форсированные"
          ]
        },
        {
          "episode": 4,
          "name": null,
          "iframe_url": "",
          "iframe_poster": null,
          "release_ru": null,
          "release_world": null,
          "availability": null,
          "voiceActing": [
            "Рус. Дублированный",
            "Eng.Original"
          ],
          "ads": false,
          "subtitle": [
            "Eng. full"
          ]
        },
        {
          "episode": 5,
          "name": null,
          "iframe_url": "",
          "iframe_poster": null,
          "release_ru": null,
          "release_world": null,
          "availability": null,
          "voiceActing": [
            "Рус. Дублированный",
            "Eng.Original"
          ],
          "ads": false,
          "subtitle": [
            "Eng. full"
          ]
        },
        {
          "episode": 6,
          "name": null,
          "iframe_url": "",
          "iframe_poster": null,
          "release_ru": null,
          "release_world": null,
          "availability": null,
          "voiceActing": [
            "Рус. Дублированный",
            "Eng.Original"
          ],
          "ads": false,
          "subtitle": [
            "Eng. full"
          ]
        },
        {
          "episode": 7,
          "name": null,
          "iframe_url": "",
          "iframe_poster": null,
          "release_ru": null,
          "release_world": null,
          "availability": null,
          "voiceActing": [
            "Рус. Дублированный",
            "Eng.Original"
          ],
          "ads": false,
          "subtitle": [
            "Рус. форсированные"
          ]
        },
        {
          "episode": 8,
          "name": null,
          "iframe_url": "",
          "iframe_poster": null,
          "release_ru": null,
          "release_world": null,
          "availability": null,
          "voiceActing": [
            "Рус. Дублированный",
            "Eng.Original"
          ],
          "ads": false,
          "subtitle": [
            "Рус. форсированные"
          ]
        },
        {
          "episode": 9,
          "name": null,
          "iframe_url": "",
          "iframe_poster": null,
          "release_ru": null,
          "release_world": null,
          "availability": null,
          "voiceActing": [
            "Рус. Дублированный",
            "Eng.Original"
          ],
          "ads": false,
          "subtitle": [
            "Eng. full"
          ]
        },
        {
          "episode": 10,
          "name": null,
          "iframe_url": "",
          "iframe_poster": null,
          "release_ru": null,
          "release_world": null,
          "availability": null,
          "voiceActing": [
            "Рус. Дублированный",
            "Eng.Original"
          ],
          "ads": false,
          "subtitle": [
            "Рус. форсированные"
          ]
        },
        {
          "episode": 11,
          "name": null,
          "iframe_url": "",
          "iframe_poster": null,
          "release_ru": null,
          "release_world": null,
          "availability": null,
          "voiceActing": [
            "Рус. Дублированный",
            "Eng.Original"
          ],
          "ads": false,
          "subtitle": [
            "Eng. full"
          ]
        },
        {
          "episode": 12,
          "name": null,
          "iframe_url": "",
          "iframe_poster": null,
          "release_ru": null,
          "release_world": null,
          "availability": null,
          "voiceActing": [
            "Рус. Дублированный",
            "Eng.Original"
          ],
          "ads": false,
          "subtitle": [
            "Рус. форсированные"
          ]
        },
        {
          "episode": 13,
          "name": null,
          "iframe_url": "",
          "iframe_poster": null,
          "release_ru": null,
          "release_world": null,
          "availability": null,
          "voiceActing": [
            "Рус. Дублированный",
            "Eng.Original"
          ],
          "ads": false,
          "subtitle": [
            "Eng. full"
          ]
        }
      ]
    },
    {
      "poster": null,
      "release_ru": null,
      "release_world": null,
      "availability": null,
      "iframe_url": "",
      "season": 7,
      "episodes": [
        {
          "episode": 1,
          "name": null,
          "iframe_url": "",
          "iframe_poster": null,
          "release_ru": null,
          "release_world": null,
          "availability": null,
          "voiceActing": [
            "Рус. Дублированный",
            "Eng.Original"
          ],
          "ads": false,
          "subtitle": [
            "Eng. full"
          ]
        },
        {
          "episode": 2,
          "name": null,
          "iframe_url": "",
          "iframe_poster": null,
          "release_ru": null,
          "release_world": null,
          "availability": null,
          "voiceActing": [
            "Рус. Дублированный",
            "Eng.Original"
          ],
          "ads": false,
          "subtitle": [
            "Eng. full"
          ]
        },
        {
          "episode": 3,
          "name": null,
          "iframe_url": "",
          "iframe_poster": null,
          "release_ru": null,
          "release_world": null,
          "availability": null,
          "voiceActing": [
            "Рус. Дублированный",
            "Eng.Original"
          ],
          "ads": false,
          "subtitle": [
            "Eng. full"
          ]
        },
        {
          "episode": 4,
          "name": null,
          "iframe_url": "",
          "iframe_poster": null,
          "release_ru": null,
          "release_world": null,
          "availability": null,
          "voiceActing": [
            "Рус. Дублированный",
            "Eng.Original"
          ],
          "ads": false,
          "subtitle": [
            "Eng. full"
          ]
        },
        {
          "episode": 5,
          "name": null,
          "iframe_url": "",
          "iframe_poster": null,
          "release_ru": null,
          "release_world": null,
          "availability": null,
          "voiceActing": [
            "Рус. Дублированный",
            "Eng.Original"
          ],
          "ads": false,
          "subtitle": [
            "Eng. full"
          ]
        },
        {
          "episode": 6,
          "name": null,
          "iframe_url": "",
          "iframe_poster": null,
          "release_ru": null,
          "release_world": null,
          "availability": null,
          "voiceActing": [
            "Рус. Дублированный",
            "Eng.Original"
          ],
          "ads": false,
          "subtitle": [
            "Eng. full"
          ]
        },
        {
          "episode": 7,
          "name": null,
          "iframe_url": "",
          "iframe_poster": null,
          "release_ru": null,
          "release_world": null,
          "availability": null,
          "voiceActing": [
            "Рус. Дублированный",
            "Eng.Original"
          ],
          "ads": false,
          "subtitle": [
            "Eng. full"
          ]
        },
        {
          "episode": 8,
          "name": null,
          "iframe_url": "",
          "iframe_poster": null,
          "release_ru": null,
          "release_world": null,
          "availability": null,
          "voiceActing": [
            "Рус. Дублированный",
            "Eng.Original"
          ],
          "ads": false,
          "subtitle": [
            "Eng. full"
          ]
        },
        {
          "episode": 9,
          "name": null,
          "iframe_url": "",
          "iframe_poster": null,
          "release_ru": null,
          "release_world": null,
          "availability": null,
          "voiceActing": [
            "Рус. Дублированный",
            "Eng.Original"
          ],
          "ads": false,
          "subtitle": [
            "Eng. full"
          ]
        },
        {
          "episode": 10,
          "name": null,
          "iframe_url": "",
          "iframe_poster": null,
          "release_ru": null,
          "release_world": null,
          "availability": null,
          "voiceActing": [
            "Рус. Дублированный",
            "Eng.Original"
          ],
          "ads": false,
          "subtitle": [
            "Eng. full"
          ]
        },
        {
          "episode": 11,
          "name": null,
          "iframe_url": "",
          "iframe_poster": null,
          "release_ru": null,
          "release_world": null,
          "availability": null,
          "voiceActing": [
            "Рус. Дублированный",
            "Eng.Original"
          ],
          "ads": false,
          "subtitle": [
            "Eng. full"
          ]
        },
        {
          "episode": 12,
          "name": null,
          "iframe_url": "",
          "iframe_poster": null,
          "release_ru": null,
          "release_world": null,
          "availability": null,
          "voiceActing": [
            "Рус. Дублированный",
            "Eng.Original"
          ],
          "ads": false,
          "subtitle": [
            "Eng. full"
          ]
        },
        {
          "episode": 13,
          "name": null,
          "iframe_url": "",
          "iframe_poster": null,
          "release_ru": null,
          "release_world": null,
          "availability": null,
          "voiceActing": [
            "Рус. Дублированный",
            "Eng.Original"
          ],
          "ads": false,
          "subtitle": [
            "Eng. full"
          ]
        }
      ]
    },
    {
      "poster": null,
      "release_ru": null,
      "release_world": null,
      "availability": null,
      "iframe_url": "",
      "season": 8,
      "episodes": [
        {
          "episode": 1,
          "name": null,
          "iframe_url": "",
          "iframe_poster": null,
          "release_ru": null,
          "release_world": null,
          "availability": null,
          "voiceActing": [
            "Рус. Дублированный",
            "Eng.Original"
          ],
          "ads": false,
          "subtitle": [
            "Eng. full"
          ]
        },
        {
          "episode": 2,
          "name": null,
          "iframe_url": "",
          "iframe_poster": null,
          "release_ru": null,
          "release_world": null,
          "availability": null,
          "voiceActing": [
            "Рус. Дублированный",
            "Eng.Original"
          ],
          "ads": false,
          "subtitle": [
            "Eng. full"
          ]
        },
        {
          "episode": 3,
          "name": null,
          "iframe_url": "",
          "iframe_poster": null,
          "release_ru": null,
          "release_world": null,
          "availability": null,
          "voiceActing": [
            "Рус. Дублированный",
            "Eng.Original"
          ],
          "ads": false,
          "subtitle": [
            "Eng. full"
          ]
        },
        {
          "episode": 4,
          "name": null,
          "iframe_url": "",
          "iframe_poster": null,
          "release_ru": null,
          "release_world": null,
          "availability": null,
          "voiceActing": [
            "Рус. Дублированный",
            "Eng.Original"
          ],
          "ads": false,
          "subtitle": [
            "Eng. full"
          ]
        },
        {
          "episode": 5,
          "name": null,
          "iframe_url": "",
          "iframe_poster": null,
          "release_ru": null,
          "release_world": null,
          "availability": null,
          "voiceActing": [
            "Рус. Дублированный",
            "Eng.Original"
          ],
          "ads": false,
          "subtitle": [
            "Eng. full"
          ]
        },
        {
          "episode": 6,
          "name": null,
          "iframe_url": "",
          "iframe_poster": null,
          "release_ru": null,
          "release_world": null,
          "availability": null,
          "voiceActing": [
            "Рус. Дублированный",
            "Eng.Original"
          ],
          "ads": false,
          "subtitle": [
            "Eng. full"
          ]
        },
        {
          "episode": 7,
          "name": null,
          "iframe_url": "",
          "iframe_poster": null,
          "release_ru": null,
          "release_world": null,
          "availability": null,
          "voiceActing": [
            "Рус. Дублированный",
            "Eng.Original"
          ],
          "ads": false,
          "subtitle": [
            "Eng. full"
          ]
        },
        {
          "episode": 8,
          "name": null,
          "iframe_url": "",
          "iframe_poster": null,
          "release_ru": null,
          "release_world": null,
          "availability": null,
          "voiceActing": [
            "Рус. Дублированный",
            "Eng.Original"
          ],
          "ads": false,
          "subtitle": [
            "Eng. full"
          ]
        },
        {
          "episode": 9,
          "name": null,
          "iframe_url": "",
          "iframe_poster": null,
          "release_ru": null,
          "release_world": null,
          "availability": null,
          "voiceActing": [
            "Рус. Дублированный",
            "Eng.Original"
          ],
          "ads": false,
          "subtitle": [
            "Eng. full"
          ]
        },
        {
          "episode": 10,
          "name": null,
          "iframe_url": "",
          "iframe_poster": null,
          "release_ru": null,
          "release_world": null,
          "availability": null,
          "voiceActing": [
            "Рус. Дублированный",
            "Eng.Original"
          ],
          "ads": false,
          "subtitle": [
            "Eng. full"
          ]
        },
        {
          "episode": 11,
          "name": null,
          "iframe_url": "",
          "iframe_poster": null,
          "release_ru": null,
          "release_world": null,
          "availability": null,
          "voiceActing": [
            "Рус. Дублированный",
            "Eng.Original"
          ],
          "ads": false,
          "subtitle": [
            "Eng. full"
          ]
        },
        {
          "episode": 12,
          "name": null,
          "iframe_url": "",
          "iframe_poster": null,
          "release_ru": null,
          "release_world": null,
          "availability": null,
          "voiceActing": [
            "Рус. Дублированный",
            "Eng.Original"
          ],
          "ads": false,
          "subtitle": [
            "Eng. full"
          ]
        },
        {
          "episode": 13,
          "name": null,
          "iframe_url": "",
          "iframe_poster": null,
          "release_ru": null,
          "release_world": null,
          "availability": null,
          "voiceActing": [
            "Рус. Дублированный",
            "Eng.Original"
          ],
          "ads": false,
          "subtitle": [
            "Eng. full"
          ]
        }
      ]
    }
  ],
  "voiceActing": [
    "Рус. Дублированный",
    "Eng.Original"
  ],
  "subtitle": [
    "Рус. полные",
    "Eng. full",
    "Рус. форсированные"
  ],
  "parts": [
    5180,
    12825,
    13360,
    231,
    230,
    3389
  ]
}
