{
  "id": 33960,
  "name": "Глубокая вера",
  "name_eng": "Faith Like Potatoes",
  "year": 2006,
  "slogan": "«Where there's love. There's hope»",
  "age": null,
  "type": "film",
  "quality": "SD",
  "imdb": "6.7",
  "imdb_id": "0",
  "kinopoisk": "7.9",
  "kinopoisk_id": "322903",
  "world_art": null,
  "world_art_id": null,
  "time": "97 мин. / 01:37",
  "ads": false,
  "premier": "2006-10-27",
  "premier_rus": "2006-10-28",
  "availability": "2006-10-29",
  "activate_time": "2020-07-17 05:25:00",
  "budget": "ZAR 10 000 000",
  "fees_use": null,
  "fees_world": null,
  "fees_rus": null,
  "rate_mpaa": "PG",
  "description": "История из жизни фермера Энгеса Бахена, вынужденного в поисках лучшей жизни переехать со своей семьёй из Замбии в КваЗулу-Натал. Однако он быстро замечает, что жизнь в новой стране не очень отличается от жизни в Замбии. Тут господствует такое же противостояние черных и белых. Незнание языка усугубляет его положение. Встречая все новые трудности, Энгес погружается в пучину страха и депрессии. Когда силы Энгеса иссякли, — он доверяет свою жизнь Иисусу Христу. Различные удары судьбы испытывают его веру на стойкость, укрепляют его упование на Бога. Во время сильнейшей и продолжительной засухи Энгес сеет семя веры — картофель. Если картофель не вырастет, — он лишится фермы. Она отдана под залог банку... Вознаградит ли Бог его доверие Ему?..",
  "iframe_url": "",
  "iframe_poster": null,
  "poster": "https://img.imgilall.me/movies/franchise/3/3/9/6/0/0/0/0/0/0/610x900_33960.jpg",
  "country": {
    "27": "ЮАР"
  },
  "collection": [],
  "genre": {
    "7": "Драма"
  },
  "director": [
    "Регхардт ван дер Берг"
  ],
  "screenwriter": [
    "Регхардт ван дер Берг",
    "Энгус Бачан"
  ],
  "producer": [
    "Франс Кронже",
    "Kirstin Barwise"
  ],
  "operator": [
    "Dave Aenmey"
  ],
  "composer": [
    "Грант МакЛахлан"
  ],
  "design": [
    "Клаудия Литтлфилд",
    "Саймон Джойнер"
  ],
  "editor": [
    "Ронелле Луц"
  ],
  "actors": [
    "Фрэнк Раутенбах",
    "Жанна Вильгельм",
    "Хэмилтон Дламини",
    "Кэндис Д’Арси",
    "Шон Майкл",
    "Регхардт ван дер Берг",
    "Антон Тройрних",
    "Морн Теуниссен",
    "Рошелль Бачан",
    "Каспер Баденхорст"
  ],
  "actors_dubl": [],
  "trivia": [],
  "trailers": [],
  "seasons": [],
  "voiceActing": [
    "Diva Universal"
  ],
  "subtitle": [],
  "parts": []
}
