{
  "id": 34040,
  "name": "Боже, помоги девушке",
  "name_eng": "God Help the Girl",
  "year": 2012,
  "slogan": "—",
  "age": "18+",
  "type": "film",
  "quality": "HD (720p)",
  "imdb": "6.4",
  "imdb_id": "0",
  "kinopoisk": "6.7",
  "kinopoisk_id": "655769",
  "world_art": null,
  "world_art_id": null,
  "time": "112 мин. / 01:52",
  "ads": false,
  "premier": "2014-01-18",
  "premier_rus": "2014-10-31",
  "availability": "2014-11-01",
  "activate_time": "2020-07-17 05:48:00",
  "budget": "$1 850 000",
  "fees_use": "$102 757",
  "fees_world": null,
  "fees_rus": null,
  "rate_mpaa": null,
  "description": "Ева - девушка, проходящая курс лечения собственных эмоциональных проблем. Но в больнице она находит способ помочь себе - Ева начинает писать песни.",
  "iframe_url": "",
  "iframe_poster": null,
  "poster": "https://img.imgilall.me/movies/franchise/3/4/0/4/0/0/0/0/0/0/610x900_34040.jpg",
  "country": {
    "2": "Великобритания"
  },
  "collection": [],
  "genre": {
    "8": "Мелодрама",
    "7": "Драма"
  },
  "director": [
    "Стюарт Мердок"
  ],
  "screenwriter": [
    "Стюарт Мердок"
  ],
  "producer": [
    "Бэрри Мендел",
    "Бет Аллан",
    "Крис Кёрлинг"
  ],
  "operator": [
    "Джиллз Натгенс"
  ],
  "composer": [],
  "design": [
    "Марк Лиз",
    "Кэролайн Греббелл",
    "Денис Кумбз"
  ],
  "editor": [
    "Дэвид Артур"
  ],
  "actors": [
    "Эмили Браунинг",
    "Олли Александр",
    "Ханна Мюррэй",
    "Пьер Буланжер",
    "Кора Биссет",
    "Сара Суайр",
    "Mark Radcliffe",
    "Stuart Maconie",
    "Энн Скотт-Джонс",
    "Джози Лонг"
  ],
  "actors_dubl": [],
  "trivia": [
    "Эль Фаннинг была выбрана на роль Кэсси, но ей пришлось отказаться от участия в проекте из-за несогласованности съемочных графиков. Позже ее заменила Ханна Мюррэй.",
    "Во время песни «Pretty Eve in the tub» на моменте, где у двери выстроилась очередь из молодых людей, среди них можно заметить актрису Ханну Мюррэй с приклеенными усами, которая исполняет в этом фильме роль Кэсси."
  ],
  "trailers": [],
  "seasons": [],
  "voiceActing": [
    "Важенин (BadBajo)"
  ],
  "subtitle": [],
  "parts": []
}
