{
  "id": 34082,
  "name": "Сицилийская история призраков",
  "name_eng": "Sicilian Ghost Story",
  "year": 2017,
  "slogan": "—",
  "age": null,
  "type": "film",
  "quality": "SD",
  "imdb": "6.4",
  "imdb_id": "0",
  "kinopoisk": null,
  "kinopoisk_id": "1045232",
  "world_art": null,
  "world_art_id": null,
  "time": "122 мин. / 02:02",
  "ads": false,
  "premier": "2017-05-18",
  "premier_rus": "2017-05-19",
  "availability": "2017-05-20",
  "activate_time": "2020-06-28 04:44:00",
  "budget": null,
  "fees_use": "$15 285",
  "fees_world": "+ $189 607 = $204 892",
  "fees_rus": null,
  "rate_mpaa": null,
  "description": "В маленькой сицилийской деревушке на краю леса пропадает 13-летний Джузеппе. Влюблённая в него одноклассница Луна отказывается принять это таинственное исчезновение. Девочка восстаёт против молчаливого сочувствия окружающих и отправляется на поиски Джузеппе.",
  "iframe_url": "",
  "iframe_poster": null,
  "poster": "https://img.imgilall.me/movies/franchise/3/4/0/8/2/0/0/0/0/0/610x900_34082.jpg",
  "country": {
    "8": "Италия",
    "9": "Франция",
    "10": "Швейцария"
  },
  "collection": [],
  "genre": {
    "25": "Криминал",
    "6": "Фэнтези",
    "24": "Детектив",
    "8": "Мелодрама",
    "7": "Драма"
  },
  "director": [
    "Фабио Грассадония",
    "Антонио Пьяцца"
  ],
  "screenwriter": [
    "Фабио Грассадония",
    "Антонио Пьяцца",
    "Marco Mancassola"
  ],
  "producer": [
    "Карлотта Калори",
    "Франческа Чима",
    "Массимо Кристальди"
  ],
  "operator": [
    "Лука Бигацци"
  ],
  "composer": [
    "Anton Spielmann"
  ],
  "design": [
    "Марко Дентичи",
    "Лаура Казалини"
  ],
  "editor": [
    "Кристьяно Травальоли"
  ],
  "actors": [
    "Julia Jedlikowska",
    "Gaetano Fernandez",
    "Corinne Musallari",
    "Andrea Falzone",
    "Federico Finocchiaro",
    "Lorenzo Curcio",
    "Винченцо Амато",
    "Сабина Тимотео",
    "Филиппо Луна",
    "Baldassare Tre Re"
  ],
  "actors_dubl": [],
  "trivia": [],
  "trailers": [],
  "seasons": [],
  "voiceActing": [
    "Рус. Люб. многоголосый"
  ],
  "subtitle": [],
  "parts": []
}
