{
  "id": 34122,
  "name": "Огонь и лед",
  "name_eng": "Fire and Ice",
  "year": 1983,
  "slogan": "«Heroic, Fantasy Adventure!»",
  "age": null,
  "type": "cartoon",
  "quality": "HD (720p)",
  "imdb": "6.6",
  "imdb_id": "0",
  "kinopoisk": "6.9",
  "kinopoisk_id": "33503",
  "world_art": null,
  "world_art_id": null,
  "time": "81 мин. / 01:21",
  "ads": false,
  "premier": "1983-03-25",
  "premier_rus": "1983-03-26",
  "availability": "1983-03-27",
  "activate_time": "2020-07-17 05:40:00",
  "budget": "$1 200 000",
  "fees_use": "$760 883",
  "fees_world": null,
  "fees_rus": null,
  "rate_mpaa": "PG",
  "description": "Давным-давно, в незапамятные времена, в мире разразилась война между королевством льда и царством огня. Под натиском черной магии повелителя льдов Некрона, силы Джарела, повелителя огня, отступают все дальше на юг. Доблестный воитель Ларн и его таинственный спутник Черная Маска встают на защиту добра и справедливости. Они должны спасти прекрасную принцессу Тигру и избавить народы от злобного Некрона.",
  "iframe_url": "",
  "iframe_poster": null,
  "poster": "https://img.imgilall.me/movies/franchise/3/4/1/2/2/0/0/0/0/0/610x900_34122.jpg",
  "country": {
    "1": "США"
  },
  "collection": [],
  "genre": {
    "9": "Приключения",
    "6": "Фэнтези"
  },
  "director": [
    "Ральф Бакши",
    "Том Татаранович"
  ],
  "screenwriter": [
    "Рой Томас",
    "Джерри Конуэй",
    "Ральф Бакши"
  ],
  "producer": [
    "Ральф Бакши",
    "Фрэнк Фразетта",
    "Линн Бетнер"
  ],
  "operator": [
    "Френсис Груманн"
  ],
  "composer": [
    "Уильям Крафт"
  ],
  "design": [
    "Фрэнк Фразетта"
  ],
  "editor": [
    "А. Дэвид Маршалл"
  ],
  "actors": [
    "Рэнди Нортон",
    "Синди Лик",
    "Стив Сэндор",
    "Шон Хэннон",
    "Лео Гордон",
    "Уильям Острандер",
    "Эйлин О’Нилл",
    "Элизабет Ллойд Шоу",
    "Мики Мортон",
    "Тамара Парк"
  ],
  "actors_dubl": [],
  "trivia": [],
  "trailers": [],
  "seasons": [],
  "voiceActing": [
    "Diva Universal"
  ],
  "subtitle": [],
  "parts": []
}
