{
  "id": 34181,
  "name": "Любовь и милосердие",
  "name_eng": "Love & Mercy",
  "year": 2015,
  "slogan": "«The Life, Love and Genius of Brian Wilson»",
  "age": null,
  "type": "film",
  "quality": "HD (720p)",
  "imdb": "7.4",
  "imdb_id": "0",
  "kinopoisk": "6.6",
  "kinopoisk_id": "462215",
  "world_art": null,
  "world_art_id": null,
  "time": "121 мин. / 02:01",
  "ads": false,
  "premier": "2014-09-07",
  "premier_rus": "2014-09-08",
  "availability": "2014-09-09",
  "activate_time": "2020-07-17 11:20:00",
  "budget": "$10 000 000",
  "fees_use": "$12 551 031",
  "fees_world": "+ $16 090 745 = $28 641 776",
  "fees_rus": null,
  "rate_mpaa": "PG-13",
  "description": "История затворнического автора песен Beach Boys и музыканта Брайана Уилсона, от его успехов с чрезвычайно влиятельными оркестровыми популярными альбомами к его нервному срыву и последующему столкновению с врачом, доктором Юджином Лэнди.",
  "iframe_url": "",
  "iframe_poster": null,
  "poster": "https://img.imgilall.me/movies/franchise/3/4/1/8/1/0/0/0/0/0/610x900_34181.jpg",
  "country": {
    "1": "США"
  },
  "collection": [],
  "genre": {
    "27": "Биографический",
    "7": "Драма"
  },
  "director": [
    "Уильям Полад"
  ],
  "screenwriter": [
    "Орен Муверман",
    "Майкл А. Лернер",
    "Брайан Уилсон"
  ],
  "producer": [
    "Уильям Полад",
    "Клер Радник Полштейн",
    "Джон Уэллс"
  ],
  "operator": [
    "Роберт Д. Йоумен"
  ],
  "composer": [
    "Аттикус Росс"
  ],
  "design": [
    "Кит П. Каннингэм",
    "Эндрю Макс Кан",
    "Люк Фриборн"
  ],
  "editor": [
    "Дино Йонсетер"
  ],
  "actors": [
    "Пол Дано",
    "Джон Кьюсак",
    "Элизабет Бэнкс",
    "Пол Джаматти",
    "Джейк Эйбел",
    "Кенни Вормолд",
    "Бретт Даверн",
    "Грэм Роджерс",
    "Эрин Майя Дарк",
    "Билл Кэмп"
  ],
  "actors_dubl": [
    "Данил Щебланов",
    "Иван Калинин",
    "Пётр Иващенко",
    "Ольга Голованова",
    "Татьяна Шитова"
  ],
  "trivia": [
    "Фраза героя в исполнении Пола Дано «Как думаешь, можно будет сюда лошадь притащить?» взята дословно с сессионной записи группы The Beach Boys. Брайан Уилсон планировал привести в студию лошадь и там её сфотографировать на обложку альбома.",
    "Настоящий Брайан Уилсон признался после просмотра фильма, что испытал некое диссоциативное расстройство. При просмотре он иногда принимал актёра Пола Джаматти за настоящего психотерапевта Юджина Ленди.",
    "Сцены в студии снимали без репетиций живьём на ручные 16-мм камеры. Пол Дано, который сам когда-то играл в группе на гитаре, взял на себя роль распорядителя и активно подсказывал всем подряд, кому и как надо играть, хотя в студии снимались настоящие музыканты. Все эти сцены были чистейшей воды импровизацией, за исключением реплик Уилсона, которые были взяты из сессионных записей.",
    "Братья Уилсона упоминают пеcню The Girl (1965) с альбома Rubber Soul группы The Beatles.",
    "Период в 1970-х, который Брайан Уилсон провёл в постели, в фильме показывать не стали..",
    "Во время съёмок Пол Дано и Джон Кьюсак друг с другом не общались. Это было сделано по просьбе режиссёра, который хотел, чтобы актёры сами вживались в роль без возможно подсознательного подражания партнёру.",
    "Готовясь к роли Брайана Уилсона, Пол Дано потреблял по 4 500 калорий в день и набрал в весе почти 16 кг.",
    "В фильме Пол Дано то поёт сам, то лишь открывает рот под оригинальные фонограммы Брайана Уилсона.",
    "«Любовь и милосердие» — название песни, написанной Брайаном Уилсоном. Ей начинается его сольный альбом Brian Wilson, вышедший в июле 1988 года."
  ],
  "trailers": [],
  "seasons": [],
  "voiceActing": [
    "Рус. Дублированный"
  ],
  "subtitle": [],
  "parts": []
}
