{
  "id": 34210,
  "name": "Остров лемуров: Мадагаскар",
  "name_eng": "Island of Lemurs: Madagascar",
  "year": 2014,
  "slogan": "«A real place you could never imagine. Strange creatures you will never forget»",
  "age": null,
  "type": "film",
  "quality": "HD (720p)",
  "imdb": "7.0",
  "imdb_id": "0",
  "kinopoisk": "7.1",
  "kinopoisk_id": "808181",
  "world_art": null,
  "world_art_id": null,
  "time": "39 мин.",
  "ads": false,
  "premier": "2014-04-04",
  "premier_rus": "2014-08-24",
  "availability": "2014-08-25",
  "activate_time": "2020-07-17 11:26:00",
  "budget": null,
  "fees_use": "$11 272 213",
  "fees_world": "+ $2 794 321 = $14 066 534",
  "fees_rus": null,
  "rate_mpaa": "G",
  "description": "Лемуры оказались на острове миллионы лет назад и постепенно эволюционировали в сотни различных видов. Сегодня эти уникальные животные оказались под угрозой исчезновения. Последуйте примеру ученого-новатора Патрисии Райт, которая всю жизнь оказывает помощь лемурам, сохраняя это чудо природы в современном мире.",
  "iframe_url": "",
  "iframe_poster": null,
  "poster": "https://img.imgilall.me/movies/franchise/3/4/2/1/0/0/0/0/0/0/610x900_34210.jpg",
  "country": {
    "7": "Канада",
    "1": "США"
  },
  "collection": [],
  "genre": {
    "9": "Приключения",
    "54": "Документальный",
    "53": "Короткометражный",
    "33": "Семейный",
    "27": "Биографический"
  },
  "director": [
    "Дэвид Дуглас"
  ],
  "screenwriter": [
    "Дрю Фелмэн"
  ],
  "producer": [
    "Дрю Фелмэн",
    "Джилл Фергюсон",
    "Дайан Робертс"
  ],
  "operator": [
    "Дэвид Дуглас"
  ],
  "composer": [
    "Марк Мазерсбо"
  ],
  "design": [],
  "editor": [
    "Бет Шпигель"
  ],
  "actors": [
    "Морган Фриман",
    "Hantanirina Rasamimanana",
    "Патриция Райт"
  ],
  "actors_dubl": [
    "Сергей Гармаш"
  ],
  "trivia": [],
  "trailers": [],
  "seasons": [],
  "voiceActing": [
    "Diva Universal"
  ],
  "subtitle": [],
  "parts": []
}
