{
  "id": 34372,
  "name": "Земля Ван Дьемена",
  "name_eng": "Van Diemen's Land",
  "year": 2009,
  "slogan": "«Hunger is a strange silence»",
  "age": null,
  "type": "film",
  "quality": "HD (720p)",
  "imdb": "6.0",
  "imdb_id": "0",
  "kinopoisk": "6.1",
  "kinopoisk_id": "445307",
  "world_art": null,
  "world_art_id": null,
  "time": "104 мин. / 01:44",
  "ads": false,
  "premier": "2009-02-26",
  "premier_rus": "2009-02-27",
  "availability": "2009-02-28",
  "activate_time": "2020-07-17 06:40:00",
  "budget": null,
  "fees_use": null,
  "fees_world": null,
  "fees_rus": null,
  "rate_mpaa": null,
  "description": "В 1822 году в окрестностях гавани Маккуори-Харбур восемь осужденных сбежали из исправительной колонии. Во главе с бывшим моряком и опытным навигатором Робертом Гринхилом им приходится выживать в местности с одними из самых жестких природных условий — на Земле Ван-Димена (ныне известной как Тасмания). По мере истощения запасов в группе растёт напряжение.",
  "iframe_url": "",
  "iframe_poster": null,
  "poster": "https://img.imgilall.me/movies/franchise/3/4/3/7/2/0/0/0/0/0/610x900_34372.jpg",
  "country": {
    "4": "Австралия"
  },
  "collection": [],
  "genre": {
    "28": "Исторический",
    "27": "Биографический",
    "7": "Драма"
  },
  "director": [
    "Джонатан Ауф Дер Хайди"
  ],
  "screenwriter": [
    "Джонатан Ауф Дер Хайди",
    "Оскар Реддинг"
  ],
  "producer": [
    "Мэгги Майлз",
    "Джонатан Ауф Дер Хайди",
    "Рэйчел Деллер-Пинкотт"
  ],
  "operator": [
    "Эллери Райан"
  ],
  "composer": [
    "Джетро Вудворд"
  ],
  "design": [
    "Лиэнн Каруана"
  ],
  "editor": [
    "Синди Кларксон"
  ],
  "actors": [
    "Оскар Реддинг",
    "Артур Энджел",
    "Пол Эшкрофт",
    "Томас М. Райт",
    "Марк Леонард Винтер",
    "Грег Стоун",
    "Джон Френсис Ховард",
    "Торквил Нилсон",
    "Мэтт Уилсон",
    "Адриан Мулрани"
  ],
  "actors_dubl": [],
  "trivia": [
    "Фильм основан на призаниях пресловутого арестанта Александра Пирса, который в 1824 году был повешен за убийство и каннибализм.",
    "«Земля Ван-Димена» — первый полнометражный фильм Джонатана Ауф Дер Хайди, который сам является уроженцем Тасмании."
  ],
  "trailers": [],
  "seasons": [],
  "voiceActing": [
    "Важенин (BadBajo)"
  ],
  "subtitle": [],
  "parts": []
}
