{
  "id": 34495,
  "name": "Теневой заговор",
  "name_eng": "Shadow Conspiracy",
  "year": 1996,
  "slogan": "«Life, liberty, and the pursuit of absolute power»",
  "age": "16+",
  "type": "film",
  "quality": "HD (720p)",
  "imdb": "4.9",
  "imdb_id": "0",
  "kinopoisk": "5.8",
  "kinopoisk_id": "4980",
  "world_art": null,
  "world_art_id": null,
  "time": "98 мин. / 01:38",
  "ads": false,
  "premier": "1997-01-25",
  "premier_rus": "1997-01-26",
  "availability": "1997-01-27",
  "activate_time": "2020-07-17 07:32:00",
  "budget": "$45 000 000",
  "fees_use": "$2 312 463",
  "fees_world": null,
  "fees_rus": null,
  "rate_mpaa": "R",
  "description": "Советника Президента Соединенных Штатов Бобби Бишопа неожиданно превращают в живую мишень. Его преследуют по пятам наемные убийцы и пытаются убрать. За что? Для ответа на этот вопрос Бишопу отпущено всего 12 часов.",
  "iframe_url": "",
  "iframe_poster": null,
  "poster": "https://img.imgilall.me/movies/franchise/3/4/4/9/5/0/0/0/0/0/610x900_34495.jpg",
  "country": {
    "1": "США"
  },
  "collection": [],
  "genre": {
    "17": "Боевик",
    "13": "Триллер"
  },
  "director": [
    "Джордж П. Косматос"
  ],
  "screenwriter": [
    "Ади Хасак",
    "Рик Гиббс"
  ],
  "producer": [
    "Терри Коллис",
    "Базз Фейтшанс",
    "Ади Хасак"
  ],
  "operator": [
    "Базз Фейтшанс IV"
  ],
  "composer": [
    "Брюс Бротон"
  ],
  "design": [
    "Джо Элвс",
    "Уильям Хайни",
    "Эйприл Ферри"
  ],
  "editor": [
    "Роберт А. Ферретти"
  ],
  "actors": [
    "Чарли Шин",
    "Дональд Сазерленд",
    "Линда Хэмилтон",
    "Стивен Лэнг",
    "Бен Газзара",
    "Николас Туртурро",
    "Стенли Андерсон",
    "Теодор Бикел",
    "Чарльз Чоффи",
    "Пол Глисон"
  ],
  "actors_dubl": [],
  "trivia": [],
  "trailers": [],
  "seasons": [],
  "voiceActing": [
    "Первый Канал"
  ],
  "subtitle": [],
  "parts": []
}
