{
  "id": 34516,
  "name": "Ужасно до чёртиков",
  "name_eng": "Fugly",
  "year": 2014,
  "slogan": "—",
  "age": null,
  "type": "film",
  "quality": "HD (720p)",
  "imdb": "4.7",
  "imdb_id": "0",
  "kinopoisk": null,
  "kinopoisk_id": "839741",
  "world_art": null,
  "world_art_id": null,
  "time": "134 мин. / 02:14",
  "ads": false,
  "premier": "2014-06-12",
  "premier_rus": "2014-06-13",
  "availability": "2014-06-14",
  "activate_time": "2020-07-17 07:44:00",
  "budget": null,
  "fees_use": null,
  "fees_world": null,
  "fees_rus": null,
  "rate_mpaa": null,
  "description": "Четыре друга: Дев, Деви, Гаурав и Адитья недавно закончили колледж и стоят на пороге своей жизни... Их мечты и ожидания рушатся в одночасье, когда однажды ночью они сталкиваются с воплощением зла, экстремально бесстрашным полицейским Чаутала...",
  "iframe_url": "",
  "iframe_poster": null,
  "poster": "https://img.imgilall.me/movies/franchise/3/4/5/1/6/0/0/0/0/0/610x900_34516.jpg",
  "country": {
    "26": "Индия"
  },
  "collection": [],
  "genre": {
    "13": "Триллер",
    "7": "Драма"
  },
  "director": [
    "Кабир Садананд"
  ],
  "screenwriter": [
    "Раджвир Ахуджа",
    "Рахул Ханда"
  ],
  "producer": [
    "Ашвини Ярди",
    "Раджвир Ахуджа",
    "Sohaib Hasan"
  ],
  "operator": [
    "Милинд Джог"
  ],
  "composer": [
    "Дипанджан Гуха"
  ],
  "design": [
    "Винти Бансал",
    "Taaneeyaa Oak"
  ],
  "editor": [
    "Shounok Ghosh"
  ],
  "actors": [
    "Джимми Шергилл",
    "Мохит Марвах",
    "Киара Адвани",
    "Виджендра Сингх",
    "Арфи Ламба",
    "Аншуман Джха",
    "Сана Саид",
    "Раджвир Ахуджа",
    "Mansha Bahl",
    "Карим Хаджи"
  ],
  "actors_dubl": [],
  "trivia": [],
  "trailers": [],
  "seasons": [],
  "voiceActing": [
    "JoyStudio"
  ],
  "subtitle": [],
  "parts": []
}
