{
  "id": 3455,
  "name": "Миллион на Рождество",
  "name_eng": "Christmas in Wonderland",
  "year": 2007,
  "slogan": "«Two kids, a mall, a million in cash, ...what could go wrong?»",
  "age": "12+",
  "type": "film",
  "quality": "SD",
  "imdb": "4.8",
  "imdb_id": "0991150",
  "kinopoisk": "5.7",
  "kinopoisk_id": "281029",
  "world_art": null,
  "world_art_id": null,
  "time": "95 мин. / 01:35",
  "ads": false,
  "premier": "2007-11-09",
  "premier_rus": "2007-12-27",
  "availability": null,
  "activate_time": "2018-11-13 17:40:32",
  "budget": null,
  "fees_use": "$689",
  "fees_world": "$694 509",
  "fees_rus": "$554 845",
  "rate_mpaa": "PG",
  "description": "Довольно-таки грустное вырисовывается Рождество для семейства Саундерс. Они только что переехали из Лос-Анджелеса в новый городишко, где у них нет ни друзей, ни денег, ни рождественского настроения. А тут еще их мама «застревает» в аэропорту из-за отложенного рейса и рождественский шопинг падает на плечи папы и детей… \n\nИ вдруг 12-летний Брайан и 6-летняя Мэри находят сумку с миллионом долларов! Жизнь налаживается? Как бы не так! За ними начинают охотиться двое воришек, намеренных вернуть награбленные деньги. Они не остановятся ни перед чем в битком набитом покупателями магазине. Двое детей. Огромный магазин. И миллион в кармане. Что может пойти не так?",
  "iframe_url": "",
  "iframe_poster": "https://img.imgilall.me/movies/video/3/2/9/3/5/0/0/0/0/0/800x450_32935.jpeg",
  "poster": "https://img.imgilall.me/movies/franchise/3/4/5/5/0/0/0/0/0/0/610x900_3455.jpg",
  "country": {
    "7": "Канада",
    "1": "США"
  },
  "collection": [],
  "genre": {
    "25": "Криминал",
    "33": "Семейный",
    "19": "Комедия",
    "10": "Зарубежный"
  },
  "director": [
    "Джеймс Орр"
  ],
  "screenwriter": [
    "Ванда Бердсонг Шоуп",
    "Джеймс Орр",
    "Джим Крукшэнк"
  ],
  "producer": [
    "Лоретт Бурасса",
    "Кирк Шоу",
    "Даг Стиден"
  ],
  "operator": [
    "Дуан Мэнуиллер"
  ],
  "composer": [
    "Терри Фрюэр"
  ],
  "design": [
    "Крэйг Лэтроп",
    "Рик Уиллогби",
    "Мэри Хайд-Керр"
  ],
  "editor": [
    "Яна Фритш"
  ],
  "actors": [
    "Мэттью Найт",
    "Крис Кэттэн",
    "Камерон Брайт",
    "Престон Лэси",
    "Эми Шлагель",
    "Зои Шлагель",
    "Кармен Электра",
    "Тим Карри",
    "Патрик Суэйзи",
    "Мэттью Уолкер"
  ],
  "actors_dubl": [
    "Томас Шлеккер",
    "Андрей Бархударов",
    "Александр Комлев",
    "Пётр Иващенко",
    "Александра Остроухова"
  ],
  "trivia": [
    "Действие фильма разворачивается в супермаркете West Edmonton Mall, там же в основном проходили и съёмки с 23 апреля по 8 июня 2007 года. Это крупнейший супермаркет во всей Северной Америке и один из самых больших в мире общей площадью около 570 000 кв. метров со своим аквапарком, катком, кинотеатром, полем для гольфа и другими увеселительными зонами.",
    "Жители города и другие посетители супермаркета ничего не знали о съёмках фильма, и многие сильно удивлялись, замечая, что рождественские декорации и украшения продолжали оставаться на своих местах через много дней после завершения праздников.",
    "Полицейского инспектора МакЛуша должен был сыграть Лесли Нильсен, который позднее выбыл из проекта, и на смену ему пригласили Тима Карри."
  ],
  "trailers": [],
  "seasons": [],
  "voiceActing": [
    "Рус. Дублированный"
  ],
  "subtitle": [],
  "parts": []
}
