{
  "id": 34640,
  "name": "Принцесса Марса",
  "name_eng": "Princess of Mars",
  "year": 2009,
  "slogan": "—",
  "age": "16+",
  "type": "film",
  "quality": "HD (720p)",
  "imdb": "3.1",
  "imdb_id": "0",
  "kinopoisk": "2.8",
  "kinopoisk_id": "482045",
  "world_art": null,
  "world_art_id": null,
  "time": "90 мин. / 01:30",
  "ads": false,
  "premier": "2009-12-18",
  "premier_rus": "2009-12-19",
  "availability": "2009-12-20",
  "activate_time": "2020-07-17 05:51:00",
  "budget": null,
  "fees_use": null,
  "fees_world": null,
  "fees_rus": null,
  "rate_mpaa": null,
  "description": "Джон Картер - капитан армии Конфедеративных штатов парализован в битве за Аризону. Получив новое тело в секретной лаборатории, он по заданию командования телепортируется на Марс. Его миссия - спасти планету от беспощадной тирании Тарков и передать власть истинным правителям Марса...",
  "iframe_url": "",
  "iframe_poster": null,
  "poster": "https://img.imgilall.me/movies/franchise/3/4/6/4/0/0/0/0/0/0/610x900_34640.jpg",
  "country": {
    "1": "США"
  },
  "collection": [],
  "genre": {
    "11": "Фантастика",
    "32": "Военный",
    "13": "Триллер"
  },
  "director": [
    "Марк Аткинс"
  ],
  "screenwriter": [
    "Эдгар Райс Берроуз",
    "Марк Аткинс"
  ],
  "producer": [
    "Дэвид Майкл Лэтт",
    "Пол Бейлс",
    "Энтони Фанкхаузер"
  ],
  "operator": [
    "Марк Аткинс"
  ],
  "composer": [
    "Крис Риденауа"
  ],
  "design": [
    "Эрика Стил",
    "Грегори П. Смит"
  ],
  "editor": [
    "Марк Аткинс"
  ],
  "actors": [
    "Антонио Сабато мл.",
    "Трейси Лордс",
    "Мэтт Ласки",
    "Чако Вадакет",
    "Митчелл Гордон",
    "Ноэль Перрис",
    "Мэтт Лаган",
    "Кимберли Эйблс Джиндра",
    "Tomas Boykin",
    "Роб Уллетт"
  ],
  "actors_dubl": [],
  "trivia": [],
  "trailers": [],
  "seasons": [],
  "voiceActing": [
    "Diva Universal"
  ],
  "subtitle": [],
  "parts": []
}
