{
  "id": 34700,
  "name": "Гордая Мэри",
  "name_eng": "Proud Mary",
  "year": 2018,
  "slogan": "«Execute with style»",
  "age": "18+",
  "type": "film",
  "quality": "HD (720p)",
  "imdb": "5.0",
  "imdb_id": "0",
  "kinopoisk": "4.8",
  "kinopoisk_id": "1039816",
  "world_art": null,
  "world_art_id": null,
  "time": "89 мин. / 01:29",
  "ads": false,
  "premier": "2018-01-12",
  "premier_rus": "2018-01-13",
  "availability": "2018-01-14",
  "activate_time": "2020-07-17 07:38:00",
  "budget": "$14 000 000",
  "fees_use": "$20 877 013",
  "fees_world": "+ $876 352 = $21 753 365",
  "fees_rus": null,
  "rate_mpaa": "R",
  "description": "У наёмной убийцы Мэри есть гордость и принципы, поэтому во время выполнения очередного задания она оставляет в живых сына-подростка жертвы, Дэнни. Год спустя парень занимается доставкой наркотиков для русской бандитской группировки Нью-Йорка. Ему приходится несладко, и после очередной порции побоев Дэнни приходит в себя в квартире Мэри. Весь год женщина терзалась чувством вины и теперь решила взять на себя заботу о сироте, но немного перестаралась - убила нескольких членов русской мафии, тем самым развязав войну между преступными группировками.",
  "iframe_url": "",
  "iframe_poster": null,
  "poster": "https://img.imgilall.me/movies/franchise/3/4/7/0/0/0/0/0/0/0/610x900_34700.jpg",
  "country": {
    "1": "США"
  },
  "collection": [],
  "genre": {
    "25": "Криминал",
    "17": "Боевик",
    "13": "Триллер",
    "7": "Драма"
  },
  "director": [
    "Бабак Наджафи"
  ],
  "screenwriter": [
    "Джон С. Ньюман",
    "Кристиан Суигал",
    "Стив Энтин"
  ],
  "producer": [
    "Таи Дункан",
    "Марк Энтони Литтл",
    "Пол Шифф"
  ],
  "operator": [
    "Дан Лаустсен"
  ],
  "composer": [
    "Филь Эйслер"
  ],
  "design": [
    "Карл Спрэг",
    "Дебора Ньюхолл",
    "Дженнифер Энджел"
  ],
  "editor": [
    "Ивэн Шифф"
  ],
  "actors": [
    "Тараджи П. Хенсон",
    "Билли Браун",
    "Джахи Диалло Уинстон",
    "Нил МакДонаф",
    "Маргарет Эйвери",
    "Ксандер Беркли",
    "Раде Шербеджия",
    "Эрик Ларей Харви",
    "Дэнни Гловер",
    "Adobuere Ebiama"
  ],
  "actors_dubl": [],
  "trivia": [],
  "trailers": [],
  "seasons": [],
  "voiceActing": [
    "Рус. Проф. многоголосый"
  ],
  "subtitle": [],
  "parts": []
}
