{
  "id": 34791,
  "name": "Снайпер 3",
  "name_eng": "Sniper 3",
  "year": 2004,
  "slogan": "«Каждый является целью»",
  "age": "18+",
  "type": "film",
  "quality": "SD",
  "imdb": "5.3",
  "imdb_id": "0",
  "kinopoisk": "5.4",
  "kinopoisk_id": "85158",
  "world_art": null,
  "world_art_id": null,
  "time": "90 мин. / 01:30",
  "ads": false,
  "premier": "2004-10-19",
  "premier_rus": "2004-10-20",
  "availability": "2004-10-21",
  "activate_time": "2020-07-17 09:39:00",
  "budget": null,
  "fees_use": null,
  "fees_world": null,
  "fees_rus": null,
  "rate_mpaa": "R",
  "description": "«Снайпер ошибается лишь дважды в жизни. Второй раз, когда не ошибается другой снайпер. А первый - когда выбирает свою профессию». Легендарный стрелок, ветеран тайных операций Том Бекетт усвоил эту жестокую истину в неоднократных дуэлях со Смертью и часто давал клятву бросить свое страшное ремесло. Но всегда возвращался в строй, как сейчас, когда его просят устранить опаснейшего террориста в мире.Вот только новая миссия сразу идет наперекосяк: герой внезапно узнает в своей «мишени»... старого друга! Похоже, агенты спецслужб многого ему недоговаривают. И единственный способ для Бекетта узнать правду и остаться в живых - перестать играть по правилам, которые, к тому же, ему неизвестны...",
  "iframe_url": "",
  "iframe_poster": null,
  "poster": "https://img.imgilall.me/movies/franchise/3/4/7/9/1/0/0/0/0/0/610x900_34791.jpg",
  "country": {
    "1": "США"
  },
  "collection": [],
  "genre": {
    "32": "Военный",
    "17": "Боевик",
    "13": "Триллер",
    "7": "Драма"
  },
  "director": [
    "П.Дж. Пеше"
  ],
  "screenwriter": [
    "Дж.С. Кардоне",
    "Росс Хелфорд",
    "Майкл Фрост Бекнер"
  ],
  "producer": [
    "Дж.С. Кардоне",
    "Скотт Эйнбиндер",
    "Кэрол Коттенбрук"
  ],
  "operator": [
    "Майкл Бонвилейн"
  ],
  "composer": [
    "Тим Джонс"
  ],
  "design": [
    "Сучартанун «Кай» Кулади",
    "Понгсак Сривилай",
    "Бонни Штаух"
  ],
  "editor": [
    "Аманда И. Кирпол"
  ],
  "actors": [
    "Том Беренджер",
    "Байрон Манн",
    "Джон Доумен",
    "Дэнис Арндт",
    "Трой Уинбуш",
    "Жанетта Арнетт",
    "Уильям Даффи",
    "Нопханд Буньяй",
    "Дом Хетракул",
    "Говит Ваттанакул"
  ],
  "actors_dubl": [],
  "trivia": [],
  "trailers": [],
  "seasons": [],
  "voiceActing": [
    "Diva Universal"
  ],
  "subtitle": [],
  "parts": []
}
