{
  "id": 34884,
  "name": "Потеряшки",
  "name_eng": "",
  "year": 2020,
  "slogan": "—",
  "age": "16+",
  "type": "series",
  "quality": "SD",
  "imdb": null,
  "imdb_id": null,
  "kinopoisk": null,
  "kinopoisk_id": "1115826",
  "world_art": null,
  "world_art_id": null,
  "time": "95 мин. / 01:35",
  "ads": false,
  "premier": null,
  "premier_rus": "2020-06-29",
  "availability": null,
  "serial_status": "offline",
  "activate_time": "2020-06-29 22:58:00",
  "budget": "",
  "fees_use": "",
  "fees_world": "",
  "fees_rus": "",
  "rate_mpaa": "",
  "description": "Школьники Сережа и Паша влюблены в Аню. Чтобы покорить её, Паша приглашает Аню на свою дачу, говоря, что она проклята. Втроем школьники отправляются на дачу и находят набор юного оккультиста, но во время ссоры и с помощью этой «игры» их души переселяются в своих кумиров.",
  "iframe_url": "",
  "poster": "https://img.imgilall.me/movies/franchise/3/4/8/8/4/0/0/0/0/0/610x900_34884.jpg",
  "country": {
    "5": "Россия"
  },
  "collection": [],
  "genre": {
    "8": "Мелодрама"
  },
  "director": [
    "Владимир Устюгов"
  ],
  "screenwriter": [
    "Марина Дяченко",
    "Сергей Дяченко",
    "Елена Шаталова"
  ],
  "producer": [
    "Александр Роднянский",
    "Сергей Мелькумов",
    "Валерий Спирин"
  ],
  "operator": [
    "Антон Костромин"
  ],
  "composer": [
    "Игорь Бабаев"
  ],
  "design": [
    "Юлия Козлова"
  ],
  "editor": [],
  "actors": [
    "Александр Никитин",
    "Наталья Бардо",
    "Семён Шемес",
    "Наталья Унгард",
    "Владимир Чуприков",
    "Александр Сетейкин",
    "Валерий Сторожик",
    "Родион Галюченко",
    "Ольга Штыркова",
    "Борис Шувалов"
  ],
  "actors_dubl": [],
  "trivia": [],
  "trailers": [],
  "seasons": [
    {
      "poster": null,
      "release_ru": null,
      "release_world": null,
      "availability": null,
      "iframe_url": "",
      "season": 1,
      "episodes": [
        {
          "episode": 1,
          "name": null,
          "iframe_url": "",
          "iframe_poster": null,
          "release_ru": null,
          "release_world": null,
          "availability": null,
          "voiceActing": [
            "Рус. Оригинальный"
          ],
          "ads": false,
          "subtitle": []
        },
        {
          "episode": 2,
          "name": null,
          "iframe_url": "",
          "iframe_poster": null,
          "release_ru": null,
          "release_world": null,
          "availability": null,
          "voiceActing": [
            "Рус. Оригинальный"
          ],
          "ads": false,
          "subtitle": []
        }
      ]
    }
  ],
  "voiceActing": [
    "Рус. Оригинальный"
  ],
  "subtitle": [],
  "parts": []
}
