{
  "id": 34893,
  "name": "Вор сердец / Похититель сердец",
  "name_eng": "Kalp Hirsizi",
  "year": 2014,
  "slogan": "",
  "age": null,
  "type": "series",
  "quality": "HD (720p)",
  "imdb": "6.3",
  "imdb_id": "9641346",
  "kinopoisk": null,
  "kinopoisk_id": null,
  "world_art": null,
  "world_art_id": null,
  "time": "",
  "ads": false,
  "premier": null,
  "premier_rus": null,
  "availability": null,
  "serial_status": "offline",
  "activate_time": "2020-06-30 13:53:00",
  "budget": "",
  "fees_use": "",
  "fees_world": "",
  "fees_rus": "",
  "rate_mpaa": "",
  "description": "Телесериал «Вор сердец» расскажет нам одну историю. Девушку бросил парень в тот момент, когда она узнала, что ждет ребенка. Она была в смятении и долго не могла дать ответ на вопрос, должен ли отец ребенка знать о сыне. И в итоге решила вырастить его самостоятельно. Малыш начал подрастать и его стал беспокоить вопрос, а где же папа. Дефне соврала сыну, сказав, что он живет в другой стране, и стала писать сыну от имени отца. Как - то Дефне познакомилась с молодым человеком, который оказывается простым вором и пытается обокрасть нашу героиню. Но в это время малыш, услышав шум вышел из своей комнаты и подумал, что это его отец, вернувшийся из командировки. Что бы не нанести еще большую психологическую травму сыну, ведь он и так перестал разговаривать, поддерживает его и объявляет, что Текин будет теперь всегда проживать вместе с ними, что именно он его папа.",
  "iframe_url": "",
  "poster": "https://img.imgilall.me/movies/franchise/3/4/8/9/3/0/0/0/0/0/610x900_34893.jpg",
  "country": {
    "36": "Турция"
  },
  "collection": [],
  "genre": [
    ""
  ],
  "director": [
    ""
  ],
  "screenwriter": [],
  "producer": [],
  "operator": [],
  "composer": [],
  "design": [],
  "editor": [],
  "actors": [
    ""
  ],
  "actors_dubl": [],
  "trivia": [],
  "trailers": [],
  "seasons": [
    {
      "poster": null,
      "release_ru": null,
      "release_world": null,
      "availability": null,
      "iframe_url": "",
      "season": 1,
      "episodes": [
        {
          "episode": 1,
          "name": null,
          "iframe_url": "",
          "iframe_poster": null,
          "release_ru": null,
          "release_world": null,
          "availability": null,
          "voiceActing": [
            "Рус. Люб. одноголосый"
          ],
          "ads": false,
          "subtitle": []
        },
        {
          "episode": 2,
          "name": null,
          "iframe_url": "",
          "iframe_poster": null,
          "release_ru": null,
          "release_world": null,
          "availability": null,
          "voiceActing": [
            "Рус. Люб. одноголосый"
          ],
          "ads": false,
          "subtitle": []
        },
        {
          "episode": 3,
          "name": null,
          "iframe_url": "",
          "iframe_poster": null,
          "release_ru": null,
          "release_world": null,
          "availability": null,
          "voiceActing": [
            "Рус. Люб. одноголосый"
          ],
          "ads": false,
          "subtitle": []
        },
        {
          "episode": 4,
          "name": null,
          "iframe_url": "",
          "iframe_poster": null,
          "release_ru": null,
          "release_world": null,
          "availability": null,
          "voiceActing": [
            "Рус. Люб. одноголосый"
          ],
          "ads": false,
          "subtitle": []
        },
        {
          "episode": 5,
          "name": null,
          "iframe_url": "",
          "iframe_poster": null,
          "release_ru": null,
          "release_world": null,
          "availability": null,
          "voiceActing": [
            "Рус. Люб. одноголосый"
          ],
          "ads": false,
          "subtitle": []
        },
        {
          "episode": 6,
          "name": null,
          "iframe_url": "",
          "iframe_poster": null,
          "release_ru": null,
          "release_world": null,
          "availability": null,
          "voiceActing": [
            "Рус. Люб. одноголосый"
          ],
          "ads": false,
          "subtitle": []
        },
        {
          "episode": 7,
          "name": null,
          "iframe_url": "",
          "iframe_poster": null,
          "release_ru": null,
          "release_world": null,
          "availability": null,
          "voiceActing": [
            "Рус. Люб. одноголосый"
          ],
          "ads": false,
          "subtitle": []
        }
      ]
    }
  ],
  "voiceActing": [
    "Рус. Люб. одноголосый"
  ],
  "subtitle": [],
  "parts": []
}
