{
  "id": 34943,
  "name": "Четвёртая республика",
  "name_eng": "4th Republic",
  "year": 2019,
  "slogan": "«Democracy, Justice, and the Nigerian Way!»",
  "age": null,
  "type": "film",
  "quality": "HD (720p)",
  "imdb": "6.3",
  "imdb_id": "10279102",
  "kinopoisk": null,
  "kinopoisk_id": "1384230",
  "world_art": null,
  "world_art_id": null,
  "time": "119 мин. / 01:59",
  "ads": true,
  "premier": "2019-04-12",
  "premier_rus": "2019-04-13",
  "availability": "2019-04-14",
  "activate_time": "2020-07-01 12:15:00",
  "budget": null,
  "fees_use": null,
  "fees_world": "$21 319",
  "fees_rus": null,
  "rate_mpaa": null,
  "description": null,
  "iframe_url": "",
  "iframe_poster": null,
  "poster": "https://img.imgilall.me/movies/franchise/3/4/9/4/3/0/0/0/0/0/610x900_34943.jpg",
  "country": {
    "106": "Нигерия"
  },
  "collection": [],
  "genre": {
    "13": "Триллер"
  },
  "director": [
    "Ishaya Bako"
  ],
  "screenwriter": [
    "Ishaya Bako",
    "Emil B. Garuba",
    "Zainab Omaki"
  ],
  "producer": [
    "Ishaya Bako",
    "Pever Bem",
    "Kemi Lala Akindoju"
  ],
  "operator": [
    "John Njaga Demps"
  ],
  "composer": [
    "Kulanen Ikyo"
  ],
  "design": [],
  "editor": [
    "Шитту Тайво"
  ],
  "actors": [
    "Линда Эджиофор",
    "Кейт Хеншоу-Наттал",
    "Бимбо Мануэль",
    "Sani MU'AZU",
    "Enyinna Nwigwe"
  ],
  "actors_dubl": [],
  "trivia": [],
  "trailers": [],
  "seasons": [],
  "voiceActing": [
    "Рус. Люб. многоголосый"
  ],
  "subtitle": [],
  "parts": []
}
