{
  "id": 34967,
  "name": "Неразгаданные тайны",
  "name_eng": "Unsolved Mysteries",
  "year": 2019,
  "slogan": "«Help solve a mystery»",
  "age": null,
  "type": "series",
  "quality": "HD (720p)",
  "imdb": "7.3",
  "imdb_id": "9642938",
  "kinopoisk": "7.0",
  "kinopoisk_id": "1297656",
  "world_art": null,
  "world_art_id": null,
  "time": "45 мин",
  "ads": false,
  "premier": "2020-07-01",
  "premier_rus": "2020-07-02",
  "availability": "2020-07-03",
  "serial_status": "offline",
  "activate_time": "2020-07-01 20:15:00",
  "budget": "",
  "fees_use": "",
  "fees_world": "",
  "fees_rus": "",
  "rate_mpaa": "",
  "description": "Реальные случаи невероятных исчезновений, жестоких убийств и встреч со сверхъестественным.",
  "iframe_url": "",
  "poster": "https://img.imgilall.me/movies/franchise/3/4/9/6/7/0/0/0/0/0/610x900_34967.jpeg",
  "country": {
    "1": "США"
  },
  "collection": [],
  "genre": {
    "25": "Криминал"
  },
  "director": [
    "Клэй Джетер",
    "Маркус А. Кларк",
    "Боб Уайз"
  ],
  "screenwriter": [],
  "producer": [
    "Джон Косгров",
    "Кортни Эннис",
    "Майкл Лебовитц"
  ],
  "operator": [
    "Джастин Яновиц",
    "Мэттью Чавез",
    "Джаред Альтерман"
  ],
  "composer": [
    "Уэст Дилан Тордсон",
    "Майкл Бойд",
    "Гари Малкин"
  ],
  "design": [
    "Дуг Закман",
    "Nicolas Desmarets",
    "Cory Hinesley"
  ],
  "editor": [
    "Tyler Hubby",
    "Асако Усио",
    "Чарльз Оливье"
  ],
  "actors": [
    "Пистол Блэк",
    "Мертл Картер",
    "Джейн Грин",
    "Teruo Konno",
    "Анна-Софи Мартин",
    "Мэри Мерфи",
    "Брэнди Петерсен",
    "Мария Рамирес",
    "Эллисон Ривера",
    "Ларс Кристиан Вегнер"
  ],
  "actors_dubl": [],
  "trivia": [],
  "trailers": [
    {
      "name": "трейлер №1",
      "number": 1,
      "iframe_poster": null,
      "season": 1,
      "iframe_url": ""
    }
  ],
  "seasons": [
    {
      "poster": null,
      "release_ru": "2020-07-02",
      "release_world": "2020-07-01",
      "availability": "2020-07-03",
      "iframe_url": "",
      "season": 1,
      "episodes": [
        {
          "episode": 1,
          "name": "Mystery on the Rooftop",
          "iframe_url": "",
          "iframe_poster": null,
          "release_ru": "2020-07-02",
          "release_world": "2020-07-01",
          "availability": "2020-07-03",
          "voiceActing": [
            "TVShows"
          ],
          "ads": false,
          "subtitle": []
        },
        {
          "episode": 2,
          "name": "13 Minutes",
          "iframe_url": "",
          "iframe_poster": null,
          "release_ru": "2020-07-02",
          "release_world": "2020-07-01",
          "availability": "2020-07-03",
          "voiceActing": [
            "TVShows"
          ],
          "ads": false,
          "subtitle": []
        },
        {
          "episode": 3,
          "name": "House of Terror",
          "iframe_url": "",
          "iframe_poster": null,
          "release_ru": "2020-07-02",
          "release_world": "2020-07-01",
          "availability": "2020-07-03",
          "voiceActing": [
            "TVShows"
          ],
          "ads": false,
          "subtitle": []
        },
        {
          "episode": 4,
          "name": "No Ride Home",
          "iframe_url": "",
          "iframe_poster": null,
          "release_ru": "2020-07-02",
          "release_world": "2020-07-01",
          "availability": "2020-07-03",
          "voiceActing": [
            "TVShows"
          ],
          "ads": false,
          "subtitle": []
        },
        {
          "episode": 5,
          "name": "Berkshire's UFO",
          "iframe_url": "",
          "iframe_poster": null,
          "release_ru": "2020-07-02",
          "release_world": "2020-07-01",
          "availability": "2020-07-03",
          "voiceActing": [
            "TVShows"
          ],
          "ads": false,
          "subtitle": []
        },
        {
          "episode": 6,
          "name": "Missing Witness",
          "iframe_url": "",
          "iframe_poster": null,
          "release_ru": "2020-07-02",
          "release_world": "2020-07-01",
          "availability": "2020-07-03",
          "voiceActing": [
            "TVShows"
          ],
          "ads": false,
          "subtitle": []
        },
        {
          "episode": 7,
          "name": "Washington Insider Murder",
          "iframe_url": "",
          "iframe_poster": null,
          "release_ru": "2020-10-20",
          "release_world": "2020-10-19",
          "availability": "2020-10-21",
          "voiceActing": [
            "TVShows"
          ],
          "ads": false,
          "subtitle": []
        },
        {
          "episode": 8,
          "name": "A Death in Oslo",
          "iframe_url": "",
          "iframe_poster": null,
          "release_ru": "2020-10-20",
          "release_world": "2020-10-19",
          "availability": "2020-10-21",
          "voiceActing": [
            "TVShows"
          ],
          "ads": false,
          "subtitle": []
        },
        {
          "episode": 9,
          "name": "Death Row Fugitive",
          "iframe_url": "",
          "iframe_poster": null,
          "release_ru": "2020-10-20",
          "release_world": "2020-10-19",
          "availability": "2020-10-21",
          "voiceActing": [
            "TVShows"
          ],
          "ads": false,
          "subtitle": []
        },
        {
          "episode": 10,
          "name": "Tsunami Spirits",
          "iframe_url": "",
          "iframe_poster": null,
          "release_ru": "2020-10-20",
          "release_world": "2020-10-19",
          "availability": "2020-10-21",
          "voiceActing": [
            "TVShows"
          ],
          "ads": false,
          "subtitle": []
        },
        {
          "episode": 11,
          "name": "Lady in the Lake",
          "iframe_url": "",
          "iframe_poster": null,
          "release_ru": "2020-10-20",
          "release_world": "2020-10-19",
          "availability": "2020-10-21",
          "voiceActing": [
            "TVShows"
          ],
          "ads": false,
          "subtitle": []
        },
        {
          "episode": 12,
          "name": "Stolen Kids",
          "iframe_url": "",
          "iframe_poster": null,
          "release_ru": "2020-10-20",
          "release_world": "2020-10-19",
          "availability": "2020-10-21",
          "voiceActing": [
            "TVShows"
          ],
          "ads": false,
          "subtitle": []
        }
      ]
    }
  ],
  "voiceActing": [
    "TVShows"
  ],
  "subtitle": [],
  "parts": []
}
