{
  "id": 34994,
  "name": "Веселые гастроли на Черном море",
  "name_eng": "",
  "year": 2020,
  "slogan": "—",
  "age": "12+",
  "type": "film",
  "quality": "SD",
  "imdb": null,
  "imdb_id": null,
  "kinopoisk": "4.0",
  "kinopoisk_id": "445102",
  "world_art": null,
  "world_art_id": null,
  "time": "76 мин. / 01:16",
  "ads": false,
  "premier": null,
  "premier_rus": "2020-07-30",
  "availability": "2020-07-31",
  "activate_time": "2020-08-10 12:25:00",
  "budget": null,
  "fees_use": null,
  "fees_world": null,
  "fees_rus": null,
  "rate_mpaa": null,
  "description": "На Черное море в Ялту приезжает на гастроли знаменитая эстрадная певица Лариса. Сойдя с трапа самолета, она дает интервью, в котором признается, что ищет своего суженого. С этого момента и закручиваются веселые приключения, основой которых являются коварство, любовь и, конечно, музыка.",
  "iframe_url": "",
  "iframe_poster": null,
  "poster": "https://img.imgilall.me/movies/franchise/3/4/9/9/4/0/0/0/0/0/610x900_34994.jpg",
  "country": {
    "5": "Россия"
  },
  "collection": {
    "21": "Для молодёжи"
  },
  "genre": {
    "22": "Русский",
    "19": "Комедия"
  },
  "director": [
    "Виктор Дюнин"
  ],
  "screenwriter": [
    "Виктор Дюнин"
  ],
  "producer": [
    "Виктор Дюнин",
    "Наталья Банару",
    "Надежда Караваева"
  ],
  "operator": [
    "Евгений Корженков"
  ],
  "composer": [
    "Константин Шевелев"
  ],
  "design": [
    "Юрий Осипенко",
    "Наталья Александрова"
  ],
  "editor": [
    "Виталий Щуров",
    "Татьяна Морозова"
  ],
  "actors": [
    "Лариса Черникова",
    "Аркадий Укупник",
    "Александр Панкратов-Черный",
    "Наталья Крачковская",
    "Михаил Мамаев",
    "Ксения Соломяная",
    "Александр Пятков",
    "Виктория Тарасова"
  ],
  "actors_dubl": [],
  "trivia": [
    "Основная часть материала фильма была снята к 2002 году, после чего фильм считался незавершённым и не готовым к выходу."
  ],
  "trailers": [],
  "seasons": [],
  "voiceActing": [
    "Рус. Оригинальный"
  ],
  "subtitle": [],
  "parts": []
}
