{
  "id": 35037,
  "name": "Перерожденный",
  "name_eng": "Chong sheng",
  "year": 2020,
  "slogan": "—",
  "age": null,
  "type": "series",
  "quality": "HD (720p)",
  "imdb": "7.0",
  "imdb_id": "11932060",
  "kinopoisk": null,
  "kinopoisk_id": "1356445",
  "world_art": null,
  "world_art_id": null,
  "time": "45 мин",
  "ads": true,
  "premier": "2020-03-07",
  "premier_rus": "2020-03-08",
  "availability": "2020-03-09",
  "serial_status": "offline",
  "activate_time": "2020-07-05 13:33:00",
  "budget": "",
  "fees_use": "",
  "fees_world": "",
  "fees_rus": "",
  "rate_mpaa": "",
  "description": "Полицейский Цинь Чи — единственный, кто выжил в ужасной перестрелке. После тяжелого ранения он потерял память и теперь пытается восстановить события того рокового дня, чтобы разобраться в произошедшем.",
  "iframe_url": "",
  "poster": "https://img.imgilall.me/movies/franchise/3/5/0/3/7/0/0/0/0/0/610x900_35037.jpg",
  "country": {
    "19": "Китай"
  },
  "collection": [],
  "genre": {
    "25": "Криминал",
    "24": "Детектив",
    "13": "Триллер",
    "7": "Драма"
  },
  "director": [
    "Ян Дун"
  ],
  "screenwriter": [
    "Чживэнь"
  ],
  "producer": [],
  "operator": [],
  "composer": [],
  "design": [],
  "editor": [],
  "actors": [
    "Чжан И",
    "Чжао Цзыци",
    "Haowei Zhang",
    "Ли Лью",
    "Чэн Сяоцзинь",
    "Чжао Цзиньмай",
    "Tao Jiang",
    "Фэн Хуэй",
    "Лианг Лу",
    "Xiaozhi Ning"
  ],
  "actors_dubl": [],
  "trivia": [],
  "trailers": [],
  "seasons": [
    {
      "poster": null,
      "release_ru": "2020-03-08",
      "release_world": "2020-03-07",
      "availability": "2020-03-09",
      "iframe_url": "",
      "season": 1,
      "episodes": [
        {
          "episode": 1,
          "name": null,
          "iframe_url": "",
          "iframe_poster": null,
          "release_ru": "2020-03-08",
          "release_world": "2020-03-07",
          "availability": "2020-03-09",
          "voiceActing": [
            "Octopus"
          ],
          "ads": true,
          "subtitle": []
        },
        {
          "episode": 2,
          "name": null,
          "iframe_url": "",
          "iframe_poster": null,
          "release_ru": "2020-03-08",
          "release_world": "2020-03-07",
          "availability": "2020-03-09",
          "voiceActing": [
            "Octopus"
          ],
          "ads": true,
          "subtitle": []
        },
        {
          "episode": 3,
          "name": null,
          "iframe_url": "",
          "iframe_poster": null,
          "release_ru": "2020-03-08",
          "release_world": "2020-03-07",
          "availability": "2020-03-09",
          "voiceActing": [
            "Octopus"
          ],
          "ads": true,
          "subtitle": []
        },
        {
          "episode": 4,
          "name": null,
          "iframe_url": "",
          "iframe_poster": null,
          "release_ru": "2020-03-08",
          "release_world": "2020-03-07",
          "availability": "2020-03-09",
          "voiceActing": [
            "Octopus"
          ],
          "ads": true,
          "subtitle": []
        },
        {
          "episode": 5,
          "name": null,
          "iframe_url": "",
          "iframe_poster": null,
          "release_ru": "2020-03-08",
          "release_world": "2020-03-07",
          "availability": "2020-03-09",
          "voiceActing": [
            "Octopus"
          ],
          "ads": true,
          "subtitle": []
        },
        {
          "episode": 6,
          "name": null,
          "iframe_url": "",
          "iframe_poster": null,
          "release_ru": "2020-03-13",
          "release_world": "2020-03-12",
          "availability": "2020-03-14",
          "voiceActing": [
            "Octopus"
          ],
          "ads": true,
          "subtitle": []
        },
        {
          "episode": 7,
          "name": null,
          "iframe_url": "",
          "iframe_poster": null,
          "release_ru": "2020-03-13",
          "release_world": "2020-03-12",
          "availability": "2020-03-14",
          "voiceActing": [
            "Octopus"
          ],
          "ads": true,
          "subtitle": []
        },
        {
          "episode": 8,
          "name": null,
          "iframe_url": "",
          "iframe_poster": null,
          "release_ru": "2020-03-13",
          "release_world": "2020-03-12",
          "availability": "2020-03-14",
          "voiceActing": [
            "Octopus"
          ],
          "ads": true,
          "subtitle": []
        },
        {
          "episode": 9,
          "name": null,
          "iframe_url": "",
          "iframe_poster": null,
          "release_ru": "2020-03-13",
          "release_world": "2020-03-12",
          "availability": "2020-03-14",
          "voiceActing": [
            "Octopus"
          ],
          "ads": true,
          "subtitle": []
        },
        {
          "episode": 10,
          "name": null,
          "iframe_url": "",
          "iframe_poster": null,
          "release_ru": "2020-03-13",
          "release_world": "2020-03-12",
          "availability": "2020-03-14",
          "voiceActing": [
            "Octopus"
          ],
          "ads": true,
          "subtitle": []
        },
        {
          "episode": 11,
          "name": null,
          "iframe_url": "",
          "iframe_poster": null,
          "release_ru": "2020-03-20",
          "release_world": "2020-03-19",
          "availability": "2020-03-21",
          "voiceActing": [
            "Octopus"
          ],
          "ads": true,
          "subtitle": []
        },
        {
          "episode": 12,
          "name": null,
          "iframe_url": "",
          "iframe_poster": null,
          "release_ru": "2020-03-20",
          "release_world": "2020-03-19",
          "availability": "2020-03-21",
          "voiceActing": [
            "Octopus"
          ],
          "ads": true,
          "subtitle": []
        },
        {
          "episode": 13,
          "name": null,
          "iframe_url": "",
          "iframe_poster": null,
          "release_ru": "2020-03-20",
          "release_world": "2020-03-19",
          "availability": "2020-03-21",
          "voiceActing": [
            "Octopus"
          ],
          "ads": true,
          "subtitle": []
        },
        {
          "episode": 14,
          "name": null,
          "iframe_url": "",
          "iframe_poster": null,
          "release_ru": "2020-03-20",
          "release_world": "2020-03-19",
          "availability": "2020-03-21",
          "voiceActing": [
            "Octopus"
          ],
          "ads": true,
          "subtitle": []
        },
        {
          "episode": 15,
          "name": null,
          "iframe_url": "",
          "iframe_poster": null,
          "release_ru": "2020-03-20",
          "release_world": "2020-03-19",
          "availability": "2020-03-21",
          "voiceActing": [
            "Octopus"
          ],
          "ads": true,
          "subtitle": []
        },
        {
          "episode": 16,
          "name": null,
          "iframe_url": "",
          "iframe_poster": null,
          "release_ru": "2020-03-27",
          "release_world": "2020-03-26",
          "availability": "2020-03-28",
          "voiceActing": [
            "Octopus"
          ],
          "ads": true,
          "subtitle": []
        },
        {
          "episode": 17,
          "name": null,
          "iframe_url": "",
          "iframe_poster": null,
          "release_ru": "2020-03-27",
          "release_world": "2020-03-26",
          "availability": "2020-03-28",
          "voiceActing": [
            "Octopus"
          ],
          "ads": true,
          "subtitle": []
        },
        {
          "episode": 18,
          "name": null,
          "iframe_url": "",
          "iframe_poster": null,
          "release_ru": "2020-03-27",
          "release_world": "2020-03-26",
          "availability": "2020-03-28",
          "voiceActing": [
            "Octopus"
          ],
          "ads": true,
          "subtitle": []
        },
        {
          "episode": 19,
          "name": null,
          "iframe_url": "",
          "iframe_poster": null,
          "release_ru": "2020-03-27",
          "release_world": "2020-03-26",
          "availability": "2020-03-28",
          "voiceActing": [
            "Octopus"
          ],
          "ads": true,
          "subtitle": []
        },
        {
          "episode": 20,
          "name": null,
          "iframe_url": "",
          "iframe_poster": null,
          "release_ru": "2020-03-27",
          "release_world": "2020-03-26",
          "availability": "2020-03-28",
          "voiceActing": [
            "Octopus"
          ],
          "ads": true,
          "subtitle": []
        },
        {
          "episode": 21,
          "name": null,
          "iframe_url": "",
          "iframe_poster": null,
          "release_ru": "2020-04-03",
          "release_world": "2020-04-02",
          "availability": "2020-04-04",
          "voiceActing": [
            "Octopus"
          ],
          "ads": true,
          "subtitle": []
        },
        {
          "episode": 22,
          "name": null,
          "iframe_url": "",
          "iframe_poster": null,
          "release_ru": "2020-04-03",
          "release_world": "2020-04-02",
          "availability": "2020-04-04",
          "voiceActing": [
            "Octopus"
          ],
          "ads": true,
          "subtitle": []
        },
        {
          "episode": 23,
          "name": null,
          "iframe_url": "",
          "iframe_poster": null,
          "release_ru": "2020-04-03",
          "release_world": "2020-04-02",
          "availability": "2020-04-04",
          "voiceActing": [
            "Octopus"
          ],
          "ads": true,
          "subtitle": []
        },
        {
          "episode": 24,
          "name": null,
          "iframe_url": "",
          "iframe_poster": null,
          "release_ru": "2020-04-03",
          "release_world": "2020-04-02",
          "availability": "2020-04-04",
          "voiceActing": [
            "Octopus"
          ],
          "ads": true,
          "subtitle": []
        },
        {
          "episode": 25,
          "name": null,
          "iframe_url": "",
          "iframe_poster": null,
          "release_ru": "2020-04-03",
          "release_world": "2020-04-02",
          "availability": "2020-04-04",
          "voiceActing": [
            "Octopus"
          ],
          "ads": true,
          "subtitle": []
        },
        {
          "episode": 26,
          "name": null,
          "iframe_url": "",
          "iframe_poster": null,
          "release_ru": "2020-04-10",
          "release_world": "2020-04-09",
          "availability": "2020-04-11",
          "voiceActing": [
            "Octopus"
          ],
          "ads": true,
          "subtitle": []
        },
        {
          "episode": 27,
          "name": null,
          "iframe_url": "",
          "iframe_poster": null,
          "release_ru": "2020-04-10",
          "release_world": "2020-04-09",
          "availability": "2020-04-11",
          "voiceActing": [
            "Octopus"
          ],
          "ads": true,
          "subtitle": []
        },
        {
          "episode": 28,
          "name": null,
          "iframe_url": "",
          "iframe_poster": null,
          "release_ru": "2020-04-10",
          "release_world": "2020-04-09",
          "availability": "2020-04-11",
          "voiceActing": [
            "Octopus"
          ],
          "ads": true,
          "subtitle": []
        }
      ]
    }
  ],
  "voiceActing": [
    "Octopus"
  ],
  "subtitle": [],
  "parts": []
}
