{
  "id": 35077,
  "name": "Гэм Кэм Гёрл",
  "name_eng": "Gam Cam Grrl",
  "year": 2019,
  "slogan": "—",
  "age": null,
  "type": "film",
  "quality": "HD (720p)",
  "imdb": "4.7",
  "imdb_id": "8989416",
  "kinopoisk": null,
  "kinopoisk_id": "1191250",
  "world_art": null,
  "world_art_id": null,
  "time": "111 мин. / 01:51",
  "ads": true,
  "premier": "2019-07-31",
  "premier_rus": "2019-08-01",
  "availability": "2019-08-02",
  "activate_time": "2020-07-06 13:07:00",
  "budget": null,
  "fees_use": null,
  "fees_world": null,
  "fees_rus": null,
  "rate_mpaa": null,
  "description": null,
  "iframe_url": "",
  "iframe_poster": null,
  "poster": "https://img.imgilall.me/movies/franchise/3/5/0/7/7/0/0/0/0/0/610x900_35077.jpg",
  "country": {
    "1": "США"
  },
  "collection": [],
  "genre": {
    "19": "Комедия"
  },
  "director": [
    "Майкл Пол Джирард"
  ],
  "screenwriter": [
    "Майкл Пол Джирард"
  ],
  "producer": [
    "Майкл Пол Джирард"
  ],
  "operator": [
    "Майкл Пол Джирард"
  ],
  "composer": [
    "Майкл Пол Джирард"
  ],
  "design": [
    "Майкл Пол Джирард",
    "Jaya Grace Girard"
  ],
  "editor": [
    "Майкл Пол Джирард"
  ],
  "actors": [
    "Vanessa Bloom",
    "Steve Brio",
    "Аль Бурк",
    "Умберто Челисано",
    "William Patrick Coleman",
    "Джеки Фалкон",
    "Sarah Lynn Furman",
    "Стивен Скотт Гарретсон",
    "Энн Джирард",
    "Tanner Girard"
  ],
  "actors_dubl": [],
  "trivia": [],
  "trailers": [],
  "seasons": [],
  "voiceActing": [
    "Рус. Люб. многоголосый"
  ],
  "subtitle": [],
  "parts": []
}
