{
  "id": 35243,
  "name": "Виолетта",
  "name_eng": "Violetta",
  "year": 2012,
  "slogan": null,
  "age": "12+",
  "type": "series",
  "quality": "SD",
  "imdb": "5.2",
  "imdb_id": "2171665",
  "kinopoisk": "6.6",
  "kinopoisk_id": "692943",
  "world_art": null,
  "world_art_id": null,
  "time": "43 мин.",
  "ads": false,
  "premier": "2012-05-14",
  "premier_rus": "2012-10-15",
  "availability": "2012-10-16",
  "serial_status": "offline",
  "activate_time": "2020-07-15 10:48:00",
  "budget": null,
  "fees_use": null,
  "fees_world": null,
  "fees_rus": null,
  "rate_mpaa": null,
  "description": "В истории юной певицы Виолетты начинается новая глава. Вместе с подругами она создаёт свою первую музыкальную группу и добивается успеха. А вот со своими чувствами девушка так и не может разобраться. Давний друг и первая любовь, Томас, улетел за океан. Пока Виолетта страдает от разлуки, её кавалер Леон тихо празднует победу. Вот только вскоре у него появляется новый соперник в борьбе за сердце Виолетты – испанец Диего. А другая новая студентка – Лара – явно не равнодушна к Леону… Какие ещё приключения и тайны ждут Виолетту на новом жизненном этапе?",
  "iframe_url": "",
  "poster": "https://img.imgilall.me/movies/franchise/3/5/2/4/3/0/0/0/0/0/610x900_35243.jpg",
  "country": {
    "22": "Аргентина"
  },
  "collection": [],
  "genre": {
    "33": "Семейный",
    "19": "Комедия",
    "8": "Мелодрама"
  },
  "director": [
    "Хорхе Ниско",
    "Мартин Саббан",
    "Матиас Риси"
  ],
  "screenwriter": [
    "Соланж Кеолеян",
    "Себастьян Парротта",
    "Ана Пенья"
  ],
  "producer": [
    "Диего Карабелли",
    "Фернандо Бланко",
    "Адриан Суар"
  ],
  "operator": [
    "Пабло Рокко"
  ],
  "composer": [],
  "design": [],
  "editor": [],
  "actors": [
    "Диего Рамос",
    "Мартина Штоссель",
    "Хорхе Бланко",
    "Мерседес Ламбре",
    "Альба Рико",
    "Лодовика Комельо",
    "Канделария Мольфесе",
    "Клара Алонсо",
    "Эсекьель Родригес",
    "Николас Гарнье"
  ],
  "actors_dubl": [
    "Владимир Антоник",
    "Наталья Терешкова",
    "Лина Иванова",
    "Александр Гаврилин",
    "Антон Савенков"
  ],
  "trivia": [
    "В начале съёмок актрисе, певице и танцовщице Мартине Штоссель было 14 лет, остальным участникам актёрского состава – 18 лет и больше.",
    "Мерседес Ламбре не планировала принимать участие в кастинге, она просто пришла за компанию с подругой, но её заметили и попросили прочесть отрывок из роли, после чего утвердили на роль Людмилы.",
    "Во время съёмок 1-го сезона у Мартины Штоссель не хватало во рту одного зуба, так что ей сделали бутафорский.",
    "Актриса, певица и танцовщица Лодовика Комелльо совершенно не знала испанского, а на кинопробы пришла, выучив несколько фраз по-испански в последний момент."
  ],
  "trailers": [],
  "seasons": [
    {
      "poster": null,
      "release_ru": "2012-05-15",
      "release_world": "2012-05-14",
      "availability": "2012-05-16",
      "iframe_url": "",
      "season": 1,
      "episodes": [
        {
          "episode": 1,
          "name": "A Dream, a song",
          "iframe_url": "",
          "iframe_poster": null,
          "release_ru": "2012-05-15",
          "release_world": "2012-05-14",
          "availability": "2012-05-16",
          "voiceActing": [
            "Рус. Дублированный"
          ],
          "ads": false,
          "subtitle": []
        },
        {
          "episode": 2,
          "name": "Un secreto, una canción",
          "iframe_url": "",
          "iframe_poster": null,
          "release_ru": "2012-05-16",
          "release_world": "2012-05-15",
          "availability": "2012-05-17",
          "voiceActing": [
            "Рус. Дублированный"
          ],
          "ads": false,
          "subtitle": []
        },
        {
          "episode": 3,
          "name": "Enamorarse, una canción",
          "iframe_url": "",
          "iframe_poster": null,
          "release_ru": "2012-05-17",
          "release_world": "2012-05-16",
          "availability": "2012-05-18",
          "voiceActing": [
            "Рус. Дублированный"
          ],
          "ads": false,
          "subtitle": []
        },
        {
          "episode": 4,
          "name": "Una desilusión, una canción",
          "iframe_url": "",
          "iframe_poster": null,
          "release_ru": "2012-05-18",
          "release_world": "2012-05-17",
          "availability": "2012-05-19",
          "voiceActing": [
            "Рус. Дублированный"
          ],
          "ads": false,
          "subtitle": []
        },
        {
          "episode": 5,
          "name": "Una sospecha, una canción",
          "iframe_url": "",
          "iframe_poster": null,
          "release_ru": "2012-05-19",
          "release_world": "2012-05-18",
          "availability": "2012-05-20",
          "voiceActing": [
            "Рус. Дублированный"
          ],
          "ads": false,
          "subtitle": []
        },
        {
          "episode": 6,
          "name": null,
          "iframe_url": "",
          "iframe_poster": null,
          "release_ru": "2012-05-22",
          "release_world": "2012-05-21",
          "availability": "2012-05-23",
          "voiceActing": [
            "Рус. Дублированный"
          ],
          "ads": false,
          "subtitle": []
        },
        {
          "episode": 7,
          "name": "Una amenaza, una canción",
          "iframe_url": "",
          "iframe_poster": null,
          "release_ru": "2012-05-23",
          "release_world": "2012-05-22",
          "availability": "2012-05-24",
          "voiceActing": [
            "Рус. Дублированный"
          ],
          "ads": false,
          "subtitle": []
        },
        {
          "episode": 8,
          "name": "Una trampa, una canción",
          "iframe_url": "",
          "iframe_poster": null,
          "release_ru": "2012-05-24",
          "release_world": "2012-05-23",
          "availability": "2012-05-25",
          "voiceActing": [
            "Рус. Дублированный"
          ],
          "ads": false,
          "subtitle": []
        },
        {
          "episode": 9,
          "name": "Una rivalidad,una canción",
          "iframe_url": "",
          "iframe_poster": null,
          "release_ru": "2012-05-25",
          "release_world": "2012-05-24",
          "availability": "2012-05-26",
          "voiceActing": [
            "Рус. Дублированный"
          ],
          "ads": false,
          "subtitle": []
        },
        {
          "episode": 10,
          "name": "Una oportunidad, una canción",
          "iframe_url": "",
          "iframe_poster": null,
          "release_ru": "2012-05-26",
          "release_world": "2012-05-25",
          "availability": "2012-05-27",
          "voiceActing": [
            "Рус. Дублированный"
          ],
          "ads": false,
          "subtitle": []
        },
        {
          "episode": 11,
          "name": "Enamorarse, una canción",
          "iframe_url": "",
          "iframe_poster": null,
          "release_ru": "2012-05-29",
          "release_world": "2012-05-28",
          "availability": "2012-05-30",
          "voiceActing": [
            "Рус. Дублированный"
          ],
          "ads": false,
          "subtitle": []
        },
        {
          "episode": 12,
          "name": null,
          "iframe_url": "",
          "iframe_poster": null,
          "release_ru": "2012-05-30",
          "release_world": "2012-05-29",
          "availability": "2012-05-31",
          "voiceActing": [
            "Рус. Дублированный"
          ],
          "ads": false,
          "subtitle": []
        },
        {
          "episode": 13,
          "name": "Una sospecha, una canción",
          "iframe_url": "",
          "iframe_poster": null,
          "release_ru": "2012-05-31",
          "release_world": "2012-05-30",
          "availability": "2012-06-01",
          "voiceActing": [
            "Рус. Дублированный"
          ],
          "ads": false,
          "subtitle": []
        },
        {
          "episode": 14,
          "name": "Secret",
          "iframe_url": "",
          "iframe_poster": null,
          "release_ru": "2012-06-01",
          "release_world": "2012-05-31",
          "availability": "2012-06-02",
          "voiceActing": [
            "Рус. Дублированный"
          ],
          "ads": false,
          "subtitle": []
        },
        {
          "episode": 15,
          "name": "Her fate is now",
          "iframe_url": "",
          "iframe_poster": null,
          "release_ru": "2012-06-02",
          "release_world": "2012-06-01",
          "availability": "2012-06-03",
          "voiceActing": [
            "Рус. Дублированный"
          ],
          "ads": false,
          "subtitle": []
        },
        {
          "episode": 16,
          "name": "Jealous",
          "iframe_url": "",
          "iframe_poster": null,
          "release_ru": "2012-06-05",
          "release_world": "2012-06-04",
          "availability": "2012-06-06",
          "voiceActing": [
            "Рус. Дублированный"
          ],
          "ads": false,
          "subtitle": []
        },
        {
          "episode": 17,
          "name": "Usually \"dad\"",
          "iframe_url": "",
          "iframe_poster": null,
          "release_ru": "2012-06-06",
          "release_world": "2012-06-05",
          "availability": "2012-06-07",
          "voiceActing": [
            "Рус. Дублированный"
          ],
          "ads": false,
          "subtitle": []
        },
        {
          "episode": 18,
          "name": "Impossible Love",
          "iframe_url": "",
          "iframe_poster": null,
          "release_ru": "2012-06-07",
          "release_world": "2012-06-06",
          "availability": "2012-06-08",
          "voiceActing": [
            "Рус. Дублированный"
          ],
          "ads": false,
          "subtitle": []
        },
        {
          "episode": 19,
          "name": "Singing competition",
          "iframe_url": "",
          "iframe_poster": null,
          "release_ru": "2012-06-08",
          "release_world": "2012-06-07",
          "availability": "2012-06-09",
          "voiceActing": [
            "Рус. Дублированный"
          ],
          "ads": false,
          "subtitle": []
        },
        {
          "episode": 20,
          "name": "Make a friend suffer...",
          "iframe_url": "",
          "iframe_poster": null,
          "release_ru": "2012-06-09",
          "release_world": "2012-06-08",
          "availability": "2012-06-10",
          "voiceActing": [
            "Рус. Дублированный"
          ],
          "ads": false,
          "subtitle": []
        },
        {
          "episode": 21,
          "name": "A song for her",
          "iframe_url": "",
          "iframe_poster": null,
          "release_ru": "2012-06-12",
          "release_world": "2012-06-11",
          "availability": "2012-06-13",
          "voiceActing": [
            "Рус. Дублированный"
          ],
          "ads": false,
          "subtitle": []
        },
        {
          "episode": 22,
          "name": "You was born to dream",
          "iframe_url": "",
          "iframe_poster": null,
          "release_ru": "2012-06-13",
          "release_world": "2012-06-12",
          "availability": "2012-06-14",
          "voiceActing": [
            "Рус. Дублированный"
          ],
          "ads": false,
          "subtitle": []
        },
        {
          "episode": 23,
          "name": "A fatal fruit juice",
          "iframe_url": "",
          "iframe_poster": null,
          "release_ru": "2012-06-14",
          "release_world": "2012-06-13",
          "availability": "2012-06-15",
          "voiceActing": [
            "Рус. Дублированный"
          ],
          "ads": false,
          "subtitle": []
        },
        {
          "episode": 24,
          "name": "Beautiful",
          "iframe_url": "",
          "iframe_poster": null,
          "release_ru": "2012-06-15",
          "release_world": "2012-06-14",
          "availability": "2012-06-16",
          "voiceActing": [
            "Рус. Дублированный"
          ],
          "ads": false,
          "subtitle": []
        },
        {
          "episode": 25,
          "name": "The reaction of Tomas",
          "iframe_url": "",
          "iframe_poster": null,
          "release_ru": "2012-06-16",
          "release_world": "2012-06-15",
          "availability": "2012-06-17",
          "voiceActing": [
            "Рус. Дублированный"
          ],
          "ads": false,
          "subtitle": []
        },
        {
          "episode": 26,
          "name": "Plot",
          "iframe_url": "",
          "iframe_poster": null,
          "release_ru": "2012-06-19",
          "release_world": "2012-06-18",
          "availability": "2012-06-20",
          "voiceActing": [
            "Рус. Дублированный"
          ],
          "ads": false,
          "subtitle": []
        },
        {
          "episode": 27,
          "name": "Meeting really surprised",
          "iframe_url": "",
          "iframe_poster": null,
          "release_ru": "2012-06-20",
          "release_world": "2012-06-19",
          "availability": "2012-06-21",
          "voiceActing": [
            "Рус. Дублированный"
          ],
          "ads": false,
          "subtitle": []
        },
        {
          "episode": 28,
          "name": "Grandmother?",
          "iframe_url": "",
          "iframe_poster": null,
          "release_ru": "2012-06-21",
          "release_world": "2012-06-20",
          "availability": "2012-06-22",
          "voiceActing": [
            "Рус. Дублированный"
          ],
          "ads": false,
          "subtitle": []
        },
        {
          "episode": 29,
          "name": "Model",
          "iframe_url": "",
          "iframe_poster": null,
          "release_ru": "2012-06-22",
          "release_world": "2012-06-21",
          "availability": "2012-06-23",
          "voiceActing": [
            "Рус. Дублированный"
          ],
          "ads": false,
          "subtitle": []
        },
        {
          "episode": 30,
          "name": "Second chance",
          "iframe_url": "",
          "iframe_poster": null,
          "release_ru": "2012-06-23",
          "release_world": "2012-06-22",
          "availability": "2012-06-24",
          "voiceActing": [
            "Рус. Дублированный"
          ],
          "ads": false,
          "subtitle": []
        },
        {
          "episode": 31,
          "name": "Audition",
          "iframe_url": "",
          "iframe_poster": null,
          "release_ru": "2012-06-26",
          "release_world": "2012-06-25",
          "availability": "2012-06-27",
          "voiceActing": [
            "Рус. Дублированный"
          ],
          "ads": false,
          "subtitle": []
        },
        {
          "episode": 32,
          "name": "Goodbye, everybody",
          "iframe_url": "",
          "iframe_poster": null,
          "release_ru": "2012-06-27",
          "release_world": "2012-06-26",
          "availability": "2012-06-28",
          "voiceActing": [
            "Рус. Дублированный"
          ],
          "ads": false,
          "subtitle": []
        },
        {
          "episode": 33,
          "name": "Accidents volunteer",
          "iframe_url": "",
          "iframe_poster": null,
          "release_ru": "2012-06-28",
          "release_world": "2012-06-27",
          "availability": "2012-06-29",
          "voiceActing": [
            "Рус. Дублированный"
          ],
          "ads": false,
          "subtitle": []
        },
        {
          "episode": 34,
          "name": "Kiss",
          "iframe_url": "",
          "iframe_poster": null,
          "release_ru": "2012-06-29",
          "release_world": "2012-06-28",
          "availability": "2012-06-30",
          "voiceActing": [
            "Рус. Дублированный"
          ],
          "ads": false,
          "subtitle": []
        },
        {
          "episode": 35,
          "name": "A work",
          "iframe_url": "",
          "iframe_poster": null,
          "release_ru": "2012-06-30",
          "release_world": "2012-06-29",
          "availability": "2012-07-01",
          "voiceActing": [
            "Рус. Дублированный"
          ],
          "ads": false,
          "subtitle": []
        },
        {
          "episode": 36,
          "name": "Passion",
          "iframe_url": "",
          "iframe_poster": null,
          "release_ru": "2012-07-03",
          "release_world": "2012-07-02",
          "availability": "2012-07-04",
          "voiceActing": [
            "Рус. Дублированный"
          ],
          "ads": false,
          "subtitle": []
        },
        {
          "episode": 37,
          "name": "Jade discovers everything",
          "iframe_url": "",
          "iframe_poster": null,
          "release_ru": "2012-07-04",
          "release_world": "2012-07-03",
          "availability": "2012-07-05",
          "voiceActing": [
            "Рус. Дублированный"
          ],
          "ads": false,
          "subtitle": []
        },
        {
          "episode": 38,
          "name": "I am only a point",
          "iframe_url": "",
          "iframe_poster": null,
          "release_ru": "2012-07-05",
          "release_world": "2012-07-04",
          "availability": "2012-07-06",
          "voiceActing": [
            "Рус. Дублированный"
          ],
          "ads": false,
          "subtitle": []
        },
        {
          "episode": 39,
          "name": "Tomas or Leon?",
          "iframe_url": "",
          "iframe_poster": null,
          "release_ru": "2012-07-06",
          "release_world": "2012-07-05",
          "availability": "2012-07-07",
          "voiceActing": [
            "Рус. Дублированный"
          ],
          "ads": false,
          "subtitle": []
        },
        {
          "episode": 40,
          "name": "Show",
          "iframe_url": "",
          "iframe_poster": null,
          "release_ru": "2012-07-07",
          "release_world": "2012-07-06",
          "availability": "2012-07-08",
          "voiceActing": [
            "Рус. Дублированный"
          ],
          "ads": false,
          "subtitle": []
        },
        {
          "episode": 41,
          "name": "Talk If You Can",
          "iframe_url": null,
          "iframe_poster": null,
          "release_ru": "2012-09-04",
          "release_world": "2012-09-03",
          "availability": "2012-09-05",
          "voiceActing": []
        },
        {
          "episode": 42,
          "name": "The Pact",
          "iframe_url": null,
          "iframe_poster": null,
          "release_ru": "2012-09-05",
          "release_world": "2012-09-04",
          "availability": "2012-09-06",
          "voiceActing": []
        },
        {
          "episode": 43,
          "name": "Bad Partition",
          "iframe_url": null,
          "iframe_poster": null,
          "release_ru": "2012-09-06",
          "release_world": "2012-09-05",
          "availability": "2012-09-07",
          "voiceActing": []
        },
        {
          "episode": 44,
          "name": "Hard luck!",
          "iframe_url": null,
          "iframe_poster": null,
          "release_ru": "2012-09-07",
          "release_world": "2012-09-06",
          "availability": "2012-09-08",
          "voiceActing": []
        },
        {
          "episode": 45,
          "name": "Fright",
          "iframe_url": null,
          "iframe_poster": null,
          "release_ru": "2012-09-08",
          "release_world": "2012-09-07",
          "availability": "2012-09-09",
          "voiceActing": []
        },
        {
          "episode": 46,
          "name": "The Anger of Francesca",
          "iframe_url": null,
          "iframe_poster": null,
          "release_ru": "2012-09-11",
          "release_world": "2012-09-10",
          "availability": "2012-09-12",
          "voiceActing": []
        },
        {
          "episode": 47,
          "name": "Kisses of Birthday",
          "iframe_url": null,
          "iframe_poster": null,
          "release_ru": "2012-09-12",
          "release_world": "2012-09-11",
          "availability": "2012-09-13",
          "voiceActing": []
        },
        {
          "episode": 48,
          "name": "Pirate or Princess?",
          "iframe_url": null,
          "iframe_poster": null,
          "release_ru": "2012-09-13",
          "release_world": "2012-09-12",
          "availability": "2012-09-14",
          "voiceActing": []
        },
        {
          "episode": 49,
          "name": "Misunderstandings",
          "iframe_url": null,
          "iframe_poster": null,
          "release_ru": "2012-09-14",
          "release_world": "2012-09-13",
          "availability": "2012-09-15",
          "voiceActing": []
        },
        {
          "episode": 50,
          "name": "Duets",
          "iframe_url": null,
          "iframe_poster": null,
          "release_ru": "2012-09-15",
          "release_world": "2012-09-14",
          "availability": "2012-09-16",
          "voiceActing": []
        },
        {
          "episode": 51,
          "name": "The Duel",
          "iframe_url": null,
          "iframe_poster": null,
          "release_ru": "2012-09-18",
          "release_world": "2012-09-17",
          "availability": "2012-09-19",
          "voiceActing": []
        },
        {
          "episode": 52,
          "name": "The Official reception of all the dangers",
          "iframe_url": null,
          "iframe_poster": null,
          "release_ru": "2012-09-19",
          "release_world": "2012-09-18",
          "availability": "2012-09-20",
          "voiceActing": []
        },
        {
          "episode": 53,
          "name": "Upside down",
          "iframe_url": null,
          "iframe_poster": null,
          "release_ru": "2012-09-20",
          "release_world": "2012-09-19",
          "availability": "2012-09-21",
          "voiceActing": []
        },
        {
          "episode": 54,
          "name": "Locked",
          "iframe_url": null,
          "iframe_poster": null,
          "release_ru": "2012-09-21",
          "release_world": "2012-09-20",
          "availability": "2012-09-22",
          "voiceActing": []
        },
        {
          "episode": 55,
          "name": "TV reality",
          "iframe_url": null,
          "iframe_poster": null,
          "release_ru": "2012-09-22",
          "release_world": "2012-09-21",
          "availability": "2012-09-23",
          "voiceActing": []
        },
        {
          "episode": 56,
          "name": "Maxata",
          "iframe_url": null,
          "iframe_poster": null,
          "release_ru": "2012-09-25",
          "release_world": "2012-09-24",
          "availability": "2012-09-26",
          "voiceActing": []
        },
        {
          "episode": 57,
          "name": "ederico",
          "iframe_url": null,
          "iframe_poster": null,
          "release_ru": "2012-09-26",
          "release_world": "2012-09-25",
          "availability": "2012-09-27",
          "voiceActing": []
        },
        {
          "episode": 58,
          "name": "Intended to shine",
          "iframe_url": null,
          "iframe_poster": null,
          "release_ru": "2012-09-27",
          "release_world": "2012-09-26",
          "availability": "2012-09-28",
          "voiceActing": []
        },
        {
          "episode": 59,
          "name": "Inscription",
          "iframe_url": null,
          "iframe_poster": null,
          "release_ru": "2012-09-28",
          "release_world": "2012-09-27",
          "availability": "2012-09-29",
          "voiceActing": []
        },
        {
          "episode": 60,
          "name": "Talent 21",
          "iframe_url": null,
          "iframe_poster": null,
          "release_ru": "2012-09-29",
          "release_world": "2012-09-28",
          "availability": "2012-09-30",
          "voiceActing": []
        },
        {
          "episode": 61,
          "name": "Observed by everywhere 1st part",
          "iframe_url": null,
          "iframe_poster": null,
          "release_ru": "2012-10-02",
          "release_world": "2012-10-01",
          "availability": "2012-10-03",
          "voiceActing": []
        },
        {
          "episode": 62,
          "name": "Observed by everywhere 2nd part",
          "iframe_url": null,
          "iframe_poster": null,
          "release_ru": "2012-10-03",
          "release_world": "2012-10-02",
          "availability": "2012-10-04",
          "voiceActing": []
        },
        {
          "episode": 63,
          "name": "Popularity",
          "iframe_url": null,
          "iframe_poster": null,
          "release_ru": "2012-10-04",
          "release_world": "2012-10-03",
          "availability": "2012-10-05",
          "voiceActing": []
        },
        {
          "episode": 64,
          "name": "A vote to change everything",
          "iframe_url": null,
          "iframe_poster": null,
          "release_ru": "2012-10-05",
          "release_world": "2012-10-04",
          "availability": "2012-10-06",
          "voiceActing": []
        },
        {
          "episode": 65,
          "name": "The wheel turns",
          "iframe_url": null,
          "iframe_poster": null,
          "release_ru": "2012-10-06",
          "release_world": "2012-10-05",
          "availability": "2012-10-07",
          "voiceActing": []
        },
        {
          "episode": 66,
          "name": "Taken in his own trap",
          "iframe_url": null,
          "iframe_poster": null,
          "release_ru": "2012-10-09",
          "release_world": "2012-10-08",
          "availability": "2012-10-10",
          "voiceActing": []
        },
        {
          "episode": 67,
          "name": "No flea for Castillo",
          "iframe_url": null,
          "iframe_poster": null,
          "release_ru": "2012-10-10",
          "release_world": "2012-10-09",
          "availability": "2012-10-11",
          "voiceActing": []
        },
        {
          "episode": 68,
          "name": "Manipulation",
          "iframe_url": null,
          "iframe_poster": null,
          "release_ru": "2012-10-11",
          "release_world": "2012-10-10",
          "availability": "2012-10-12",
          "voiceActing": []
        },
        {
          "episode": 69,
          "name": "Dilemma",
          "iframe_url": null,
          "iframe_poster": null,
          "release_ru": "2012-10-12",
          "release_world": "2012-10-11",
          "availability": "2012-10-13",
          "voiceActing": []
        },
        {
          "episode": 70,
          "name": "Violetta is the winner?",
          "iframe_url": null,
          "iframe_poster": null,
          "release_ru": "2012-10-13",
          "release_world": "2012-10-12",
          "availability": "2012-10-14",
          "voiceActing": []
        },
        {
          "episode": 71,
          "name": "The truth comes out on Angie",
          "iframe_url": null,
          "iframe_poster": null,
          "release_ru": "2012-10-16",
          "release_world": "2012-10-15",
          "availability": "2012-10-17",
          "voiceActing": []
        },
        {
          "episode": 72,
          "name": "Memories",
          "iframe_url": null,
          "iframe_poster": null,
          "release_ru": "2012-10-17",
          "release_world": "2012-10-16",
          "availability": "2012-10-18",
          "voiceActing": []
        },
        {
          "episode": 73,
          "name": "\"We can...",
          "iframe_url": null,
          "iframe_poster": null,
          "release_ru": "2012-10-18",
          "release_world": "2012-10-17",
          "availability": "2012-10-19",
          "voiceActing": []
        },
        {
          "episode": 74,
          "name": "Courage and Bitterness",
          "iframe_url": null,
          "iframe_poster": null,
          "release_ru": "2012-10-19",
          "release_world": "2012-10-18",
          "availability": "2012-10-20",
          "voiceActing": []
        },
        {
          "episode": 75,
          "name": "No respites for Jade",
          "iframe_url": null,
          "iframe_poster": null,
          "release_ru": "2012-10-20",
          "release_world": "2012-10-19",
          "availability": "2012-10-21",
          "voiceActing": []
        },
        {
          "episode": 76,
          "name": "A difficult choice has to make",
          "iframe_url": null,
          "iframe_poster": null,
          "release_ru": "2012-10-23",
          "release_world": "2012-10-22",
          "availability": "2012-10-24",
          "voiceActing": []
        },
        {
          "episode": 77,
          "name": "Ultimatum",
          "iframe_url": null,
          "iframe_poster": null,
          "release_ru": "2012-10-24",
          "release_world": "2012-10-23",
          "availability": "2012-10-25",
          "voiceActing": []
        },
        {
          "episode": 78,
          "name": "Goodbye the music...",
          "iframe_url": null,
          "iframe_poster": null,
          "release_ru": "2012-10-25",
          "release_world": "2012-10-24",
          "availability": "2012-10-26",
          "voiceActing": []
        },
        {
          "episode": 79,
          "name": "Violetta and Tomas's kiss",
          "iframe_url": null,
          "iframe_poster": null,
          "release_ru": "2012-10-26",
          "release_world": "2012-10-25",
          "availability": "2012-10-27",
          "voiceActing": []
        },
        {
          "episode": 80,
          "name": "In my own world",
          "iframe_url": null,
          "iframe_poster": null,
          "release_ru": "2012-10-27",
          "release_world": "2012-10-26",
          "availability": "2012-10-28",
          "voiceActing": []
        }
      ]
    },
    {
      "poster": null,
      "release_ru": null,
      "release_world": null,
      "availability": null,
      "iframe_url": "",
      "season": 3,
      "episodes": [
        {
          "episode": 201,
          "name": null,
          "iframe_url": "",
          "iframe_poster": null,
          "release_ru": null,
          "release_world": null,
          "availability": null,
          "voiceActing": [
            "Рус. Дублированный"
          ],
          "ads": false,
          "subtitle": []
        },
        {
          "episode": 202,
          "name": null,
          "iframe_url": "",
          "iframe_poster": null,
          "release_ru": null,
          "release_world": null,
          "availability": null,
          "voiceActing": [
            "Рус. Дублированный"
          ],
          "ads": false,
          "subtitle": []
        },
        {
          "episode": 203,
          "name": null,
          "iframe_url": "",
          "iframe_poster": null,
          "release_ru": null,
          "release_world": null,
          "availability": null,
          "voiceActing": [
            "Рус. Дублированный"
          ],
          "ads": false,
          "subtitle": []
        },
        {
          "episode": 204,
          "name": null,
          "iframe_url": "",
          "iframe_poster": null,
          "release_ru": null,
          "release_world": null,
          "availability": null,
          "voiceActing": [
            "Рус. Дублированный"
          ],
          "ads": false,
          "subtitle": []
        },
        {
          "episode": 205,
          "name": null,
          "iframe_url": "",
          "iframe_poster": null,
          "release_ru": null,
          "release_world": null,
          "availability": null,
          "voiceActing": [
            "Рус. Дублированный"
          ],
          "ads": false,
          "subtitle": []
        },
        {
          "episode": 206,
          "name": null,
          "iframe_url": "",
          "iframe_poster": null,
          "release_ru": null,
          "release_world": null,
          "availability": null,
          "voiceActing": [
            "Рус. Дублированный"
          ],
          "ads": false,
          "subtitle": []
        },
        {
          "episode": 207,
          "name": null,
          "iframe_url": "",
          "iframe_poster": null,
          "release_ru": null,
          "release_world": null,
          "availability": null,
          "voiceActing": [
            "Рус. Дублированный"
          ],
          "ads": false,
          "subtitle": []
        },
        {
          "episode": 208,
          "name": null,
          "iframe_url": "",
          "iframe_poster": null,
          "release_ru": null,
          "release_world": null,
          "availability": null,
          "voiceActing": [
            "Рус. Дублированный"
          ],
          "ads": false,
          "subtitle": []
        },
        {
          "episode": 209,
          "name": null,
          "iframe_url": "",
          "iframe_poster": null,
          "release_ru": null,
          "release_world": null,
          "availability": null,
          "voiceActing": [
            "Рус. Дублированный"
          ],
          "ads": false,
          "subtitle": []
        },
        {
          "episode": 210,
          "name": null,
          "iframe_url": "",
          "iframe_poster": null,
          "release_ru": null,
          "release_world": null,
          "availability": null,
          "voiceActing": [
            "Рус. Дублированный"
          ],
          "ads": false,
          "subtitle": []
        },
        {
          "episode": 211,
          "name": null,
          "iframe_url": "",
          "iframe_poster": null,
          "release_ru": null,
          "release_world": null,
          "availability": null,
          "voiceActing": [
            "Рус. Дублированный"
          ],
          "ads": false,
          "subtitle": []
        },
        {
          "episode": 212,
          "name": null,
          "iframe_url": "",
          "iframe_poster": null,
          "release_ru": null,
          "release_world": null,
          "availability": null,
          "voiceActing": [
            "Рус. Дублированный"
          ],
          "ads": false,
          "subtitle": []
        },
        {
          "episode": 213,
          "name": null,
          "iframe_url": "",
          "iframe_poster": null,
          "release_ru": null,
          "release_world": null,
          "availability": null,
          "voiceActing": [
            "Рус. Дублированный"
          ],
          "ads": false,
          "subtitle": []
        },
        {
          "episode": 214,
          "name": null,
          "iframe_url": "",
          "iframe_poster": null,
          "release_ru": null,
          "release_world": null,
          "availability": null,
          "voiceActing": [
            "Рус. Дублированный"
          ],
          "ads": false,
          "subtitle": []
        },
        {
          "episode": 215,
          "name": null,
          "iframe_url": "",
          "iframe_poster": null,
          "release_ru": null,
          "release_world": null,
          "availability": null,
          "voiceActing": [
            "Рус. Дублированный"
          ],
          "ads": false,
          "subtitle": []
        },
        {
          "episode": 216,
          "name": null,
          "iframe_url": "",
          "iframe_poster": null,
          "release_ru": null,
          "release_world": null,
          "availability": null,
          "voiceActing": [
            "Рус. Дублированный"
          ],
          "ads": false,
          "subtitle": []
        },
        {
          "episode": 217,
          "name": null,
          "iframe_url": "",
          "iframe_poster": null,
          "release_ru": null,
          "release_world": null,
          "availability": null,
          "voiceActing": [
            "Рус. Дублированный"
          ],
          "ads": false,
          "subtitle": []
        },
        {
          "episode": 218,
          "name": null,
          "iframe_url": "",
          "iframe_poster": null,
          "release_ru": null,
          "release_world": null,
          "availability": null,
          "voiceActing": [
            "Рус. Дублированный"
          ],
          "ads": false,
          "subtitle": []
        },
        {
          "episode": 219,
          "name": null,
          "iframe_url": "",
          "iframe_poster": null,
          "release_ru": null,
          "release_world": null,
          "availability": null,
          "voiceActing": [
            "Рус. Дублированный"
          ],
          "ads": false,
          "subtitle": []
        },
        {
          "episode": 220,
          "name": null,
          "iframe_url": "",
          "iframe_poster": null,
          "release_ru": null,
          "release_world": null,
          "availability": null,
          "voiceActing": [
            "Рус. Дублированный"
          ],
          "ads": false,
          "subtitle": []
        },
        {
          "episode": 221,
          "name": null,
          "iframe_url": "",
          "iframe_poster": null,
          "release_ru": null,
          "release_world": null,
          "availability": null,
          "voiceActing": [
            "Рус. Дублированный"
          ],
          "ads": false,
          "subtitle": []
        },
        {
          "episode": 222,
          "name": null,
          "iframe_url": "",
          "iframe_poster": null,
          "release_ru": null,
          "release_world": null,
          "availability": null,
          "voiceActing": [
            "Рус. Дублированный"
          ],
          "ads": false,
          "subtitle": []
        },
        {
          "episode": 223,
          "name": null,
          "iframe_url": "",
          "iframe_poster": null,
          "release_ru": null,
          "release_world": null,
          "availability": null,
          "voiceActing": [
            "Рус. Дублированный"
          ],
          "ads": false,
          "subtitle": []
        },
        {
          "episode": 224,
          "name": null,
          "iframe_url": "",
          "iframe_poster": null,
          "release_ru": null,
          "release_world": null,
          "availability": null,
          "voiceActing": [
            "Рус. Дублированный"
          ],
          "ads": false,
          "subtitle": []
        },
        {
          "episode": 225,
          "name": null,
          "iframe_url": "",
          "iframe_poster": null,
          "release_ru": null,
          "release_world": null,
          "availability": null,
          "voiceActing": [
            "Рус. Дублированный"
          ],
          "ads": false,
          "subtitle": []
        },
        {
          "episode": 226,
          "name": null,
          "iframe_url": "",
          "iframe_poster": null,
          "release_ru": null,
          "release_world": null,
          "availability": null,
          "voiceActing": [
            "Рус. Дублированный"
          ],
          "ads": false,
          "subtitle": []
        },
        {
          "episode": 227,
          "name": null,
          "iframe_url": "",
          "iframe_poster": null,
          "release_ru": null,
          "release_world": null,
          "availability": null,
          "voiceActing": [
            "Рус. Дублированный"
          ],
          "ads": false,
          "subtitle": []
        },
        {
          "episode": 228,
          "name": null,
          "iframe_url": "",
          "iframe_poster": null,
          "release_ru": null,
          "release_world": null,
          "availability": null,
          "voiceActing": [
            "Рус. Дублированный"
          ],
          "ads": false,
          "subtitle": []
        },
        {
          "episode": 229,
          "name": null,
          "iframe_url": "",
          "iframe_poster": null,
          "release_ru": null,
          "release_world": null,
          "availability": null,
          "voiceActing": [
            "Рус. Дублированный"
          ],
          "ads": false,
          "subtitle": []
        },
        {
          "episode": 230,
          "name": null,
          "iframe_url": "",
          "iframe_poster": null,
          "release_ru": null,
          "release_world": null,
          "availability": null,
          "voiceActing": [
            "Рус. Дублированный"
          ],
          "ads": false,
          "subtitle": []
        },
        {
          "episode": 231,
          "name": null,
          "iframe_url": "",
          "iframe_poster": null,
          "release_ru": null,
          "release_world": null,
          "availability": null,
          "voiceActing": [
            "Рус. Дублированный"
          ],
          "ads": false,
          "subtitle": []
        },
        {
          "episode": 232,
          "name": null,
          "iframe_url": "",
          "iframe_poster": null,
          "release_ru": null,
          "release_world": null,
          "availability": null,
          "voiceActing": [
            "Рус. Дублированный"
          ],
          "ads": false,
          "subtitle": []
        },
        {
          "episode": 233,
          "name": null,
          "iframe_url": "",
          "iframe_poster": null,
          "release_ru": null,
          "release_world": null,
          "availability": null,
          "voiceActing": [
            "Рус. Дублированный"
          ],
          "ads": false,
          "subtitle": []
        },
        {
          "episode": 234,
          "name": null,
          "iframe_url": "",
          "iframe_poster": null,
          "release_ru": null,
          "release_world": null,
          "availability": null,
          "voiceActing": [
            "Рус. Дублированный"
          ],
          "ads": false,
          "subtitle": []
        },
        {
          "episode": 235,
          "name": null,
          "iframe_url": "",
          "iframe_poster": null,
          "release_ru": null,
          "release_world": null,
          "availability": null,
          "voiceActing": [
            "Рус. Дублированный"
          ],
          "ads": false,
          "subtitle": []
        },
        {
          "episode": 236,
          "name": null,
          "iframe_url": "",
          "iframe_poster": null,
          "release_ru": null,
          "release_world": null,
          "availability": null,
          "voiceActing": [
            "Рус. Дублированный"
          ],
          "ads": false,
          "subtitle": []
        },
        {
          "episode": 237,
          "name": null,
          "iframe_url": "",
          "iframe_poster": null,
          "release_ru": null,
          "release_world": null,
          "availability": null,
          "voiceActing": [
            "Рус. Дублированный"
          ],
          "ads": false,
          "subtitle": []
        },
        {
          "episode": 238,
          "name": null,
          "iframe_url": "",
          "iframe_poster": null,
          "release_ru": null,
          "release_world": null,
          "availability": null,
          "voiceActing": [
            "Рус. Дублированный"
          ],
          "ads": false,
          "subtitle": []
        },
        {
          "episode": 239,
          "name": null,
          "iframe_url": "",
          "iframe_poster": null,
          "release_ru": null,
          "release_world": null,
          "availability": null,
          "voiceActing": [
            "Рус. Дублированный"
          ],
          "ads": false,
          "subtitle": []
        },
        {
          "episode": 240,
          "name": null,
          "iframe_url": "",
          "iframe_poster": null,
          "release_ru": null,
          "release_world": null,
          "availability": null,
          "voiceActing": [
            "Рус. Дублированный"
          ],
          "ads": false,
          "subtitle": []
        }
      ]
    }
  ],
  "voiceActing": [
    "Рус. Дублированный"
  ],
  "subtitle": [],
  "parts": []
}
