{
  "id": 35289,
  "name": "Кайдзи: Последняя игра",
  "name_eng": "Kaiji Fainaru Gemu",
  "year": 2020,
  "slogan": "—",
  "age": null,
  "type": "film",
  "quality": "TS",
  "imdb": "4.8",
  "imdb_id": "10423160",
  "kinopoisk": null,
  "kinopoisk_id": "1270991",
  "world_art": null,
  "world_art_id": null,
  "time": "128 мин. / 02:08",
  "ads": true,
  "premier": "2020-01-10",
  "premier_rus": "2020-01-11",
  "availability": "2020-01-12",
  "activate_time": "2020-07-15 01:19:00",
  "budget": null,
  "fees_use": null,
  "fees_world": "$17 645 779",
  "fees_rus": null,
  "rate_mpaa": null,
  "description": "Кайдзи ждет самое большое приключение в жизни: ему предстоит сыграть в четыре разные игры.",
  "iframe_url": "",
  "iframe_poster": null,
  "poster": "https://img.imgilall.me/movies/franchise/3/5/2/8/9/0/0/0/0/0/610x900_35289.jpg",
  "country": {
    "18": "Япония"
  },
  "collection": [],
  "genre": {
    "13": "Триллер",
    "7": "Драма"
  },
  "director": [
    "Тоя Сато"
  ],
  "screenwriter": [
    "Нобуюки Фукумото"
  ],
  "producer": [],
  "operator": [],
  "composer": [],
  "design": [],
  "editor": [],
  "actors": [
    "Тацуя Фудзивара",
    "Сота Фукуси",
    "Хирооки Гото",
    "Макэню Арата",
    "Юко Миямото",
    "Mitsunari Sakamoto",
    "Нагиса Сэкимидзу",
    "Котаро Ёсида"
  ],
  "actors_dubl": [],
  "trivia": [],
  "trailers": [],
  "seasons": [],
  "voiceActing": [
    "Колобок"
  ],
  "subtitle": [],
  "parts": []
}
