{
  "id": 35359,
  "name": "Следующий",
  "name_eng": "Sunod",
  "year": 2019,
  "slogan": "—",
  "age": null,
  "type": "film",
  "quality": "HD (720p)",
  "imdb": "5.8",
  "imdb_id": "11531410",
  "kinopoisk": null,
  "kinopoisk_id": "1338072",
  "world_art": null,
  "world_art_id": null,
  "time": "100 мин. / 01:40",
  "ads": true,
  "premier": "2019-12-25",
  "premier_rus": "2019-12-26",
  "availability": "2019-12-27",
  "activate_time": "2020-07-16 14:36:00",
  "budget": null,
  "fees_use": null,
  "fees_world": null,
  "fees_rus": null,
  "rate_mpaa": null,
  "description": "Чтобы вылечить дочь, отчаявшаяся женщина устраивается в колл-центр, а там её начинает преследовать призрак.",
  "iframe_url": "",
  "iframe_poster": null,
  "poster": "https://img.imgilall.me/movies/franchise/3/5/3/5/9/0/0/0/0/0/610x900_35359.jpg",
  "country": {
    "77": "Филиппины"
  },
  "collection": [],
  "genre": {
    "26": "Ужасы"
  },
  "director": [
    "Карло Ледесма"
  ],
  "screenwriter": [
    "Anton Santamaria",
    "Карло Ледесма"
  ],
  "producer": [
    "Carmela Acol",
    "Jaime G. Baltazar",
    "April Batican"
  ],
  "operator": [
    "Мико Давид"
  ],
  "composer": [
    "Арнольд Буэна",
    "Robbie Factoran",
    "Bogs Jugo"
  ],
  "design": [
    "Эриксон Наварро",
    "Gie Jose",
    "Ramil Pineda"
  ],
  "editor": [
    "Gino Delos Reyes"
  ],
  "actors": [
    "Carmina Villaroel",
    "Милен Дизон",
    "Krystal Brimner",
    "Rhed Bustamante",
    "Дж.С. Сантос",
    "Кейт Алехандрино",
    "Сьюзэн Африка",
    "Фредди Уэбб",
    "Roxanne Guinoo",
    "Victor Silayan"
  ],
  "actors_dubl": [],
  "trivia": [],
  "trailers": [],
  "seasons": [],
  "voiceActing": [
    "Колобок"
  ],
  "subtitle": [],
  "parts": []
}
