{
  "id": 35382,
  "name": "Фарт",
  "name_eng": "Luck",
  "year": 2011,
  "slogan": "«Leave nothing to chance»",
  "age": "16+",
  "type": "series",
  "quality": "SD",
  "imdb": "7.5",
  "imdb_id": "1578887",
  "kinopoisk": "7.0",
  "kinopoisk_id": "496900",
  "world_art": null,
  "world_art_id": null,
  "time": "52 мин",
  "ads": false,
  "premier": "2011-12-11",
  "premier_rus": "2011-12-12",
  "availability": "2011-12-13",
  "serial_status": "offline",
  "activate_time": "2020-07-17 11:20:00",
  "budget": null,
  "fees_use": null,
  "fees_world": null,
  "fees_rus": null,
  "rate_mpaa": null,
  "description": "История из мира лошадиных скачек и людей, с ним связанных — владельцев лошадей, игроков, жокеев и участников тотализаторов, а также об изнанке этого спорта — о том, что происходит на учебных заездах и в стойлах лошадей.",
  "iframe_url": "",
  "poster": "https://img.imgilall.me/movies/franchise/3/5/3/8/2/0/0/0/0/0/610x900_35382.jpg",
  "country": {
    "1": "США"
  },
  "collection": [],
  "genre": {
    "23": "Спортивный",
    "7": "Драма"
  },
  "director": [
    "Аллен Култер",
    "Брайан Кирк",
    "Мими Ледер"
  ],
  "screenwriter": [
    "Дэвид Милч",
    "Джон Р. Перротта",
    "Джей Ховди"
  ],
  "producer": [
    "Генри Брончтейн",
    "Дастин Хоффман",
    "Майкл Манн"
  ],
  "operator": [
    "Лукас Штребель",
    "Джон Грилло",
    "Стюарт Драйбёрг"
  ],
  "composer": [
    "Гари Лионелли",
    "Джефф Бил",
    "Дикон Хинчлифф"
  ],
  "design": [
    "Тим Граймс",
    "Лилли Килверт",
    "Джон П. Голдсмит"
  ],
  "editor": [
    "Мишель Тесоро",
    "Лео Тромбетта",
    "Тод Фойермэн"
  ],
  "actors": [
    "Дастин Хоффман",
    "Деннис Фарина",
    "Джон Ортис",
    "Ричард Кайнд",
    "Иэн Харт",
    "Кевин Данн",
    "Ричи Костер",
    "Джейсон Гедрик",
    "Джилл Хеннесси",
    "Ник Нолти"
  ],
  "actors_dubl": [],
  "trivia": [
    "Во время съёмок пострадали две лошади, и животных пришлось усыпить. Общество защиты животных American Humane сделало заявление, что животных осмотрели ветеринары, заявившие, что выздоровление уже невозможно. Различные организации по защите животных и дикой природы обрушились на канал HBO с критикой за смерть лошадей. После гибели третьей лошади канал приостановил съёмки до завершения расследования, которое пришло к выводу, что животное пострадало не во время съёмок. Так или иначе, канал HBO предпочёл завершить 1-й сезон и вообще закрыть проект.",
    "Создатель сериала Дэвид Милч одно время страдал игроманией, и сюжет сериала во многом основан на его собственных воспоминаниях. Однажды он в шутку назвал тот период своей жизни \"самым дорогостоящим сбором материала\" (для будущих проектов). К сожалению, работа над сериалом вновь разбудила в Милче пагубное пристрастие в игре."
  ],
  "trailers": [],
  "seasons": [
    {
      "poster": null,
      "release_ru": null,
      "release_world": null,
      "availability": null,
      "iframe_url": "",
      "season": 1,
      "episodes": [
        {
          "episode": 1,
          "name": null,
          "iframe_url": "",
          "iframe_poster": null,
          "release_ru": null,
          "release_world": null,
          "availability": null,
          "voiceActing": [
            "Пифагор",
            "Eng.Original"
          ],
          "ads": false,
          "subtitle": []
        },
        {
          "episode": 2,
          "name": null,
          "iframe_url": "",
          "iframe_poster": null,
          "release_ru": null,
          "release_world": null,
          "availability": null,
          "voiceActing": [
            "Пифагор",
            "Eng.Original"
          ],
          "ads": false,
          "subtitle": []
        },
        {
          "episode": 3,
          "name": null,
          "iframe_url": "",
          "iframe_poster": null,
          "release_ru": null,
          "release_world": null,
          "availability": null,
          "voiceActing": [
            "Пифагор",
            "Eng.Original"
          ],
          "ads": false,
          "subtitle": []
        },
        {
          "episode": 4,
          "name": null,
          "iframe_url": "",
          "iframe_poster": null,
          "release_ru": null,
          "release_world": null,
          "availability": null,
          "voiceActing": [
            "Пифагор",
            "Eng.Original"
          ],
          "ads": false,
          "subtitle": []
        },
        {
          "episode": 5,
          "name": null,
          "iframe_url": "",
          "iframe_poster": null,
          "release_ru": null,
          "release_world": null,
          "availability": null,
          "voiceActing": [
            "Пифагор",
            "Eng.Original"
          ],
          "ads": false,
          "subtitle": []
        },
        {
          "episode": 6,
          "name": null,
          "iframe_url": "",
          "iframe_poster": null,
          "release_ru": null,
          "release_world": null,
          "availability": null,
          "voiceActing": [
            "Пифагор",
            "Eng.Original"
          ],
          "ads": false,
          "subtitle": []
        },
        {
          "episode": 7,
          "name": null,
          "iframe_url": "",
          "iframe_poster": null,
          "release_ru": null,
          "release_world": null,
          "availability": null,
          "voiceActing": [
            "Пифагор",
            "Eng.Original"
          ],
          "ads": false,
          "subtitle": []
        },
        {
          "episode": 8,
          "name": null,
          "iframe_url": "",
          "iframe_poster": null,
          "release_ru": null,
          "release_world": null,
          "availability": null,
          "voiceActing": [
            "Пифагор",
            "Eng.Original"
          ],
          "ads": false,
          "subtitle": []
        },
        {
          "episode": 9,
          "name": null,
          "iframe_url": "",
          "iframe_poster": null,
          "release_ru": null,
          "release_world": null,
          "availability": null,
          "voiceActing": [
            "Пифагор",
            "Eng.Original"
          ],
          "ads": false,
          "subtitle": []
        }
      ]
    }
  ],
  "voiceActing": [
    "Пифагор",
    "Eng.Original"
  ],
  "subtitle": [],
  "parts": []
}
