{
  "id": 35565,
  "name": "Ромео с обочины",
  "name_eng": "Roadside Romeo",
  "year": 2008,
  "slogan": "«This Diwali, get ready for a barking-good time!»",
  "age": "12+",
  "type": "cartoon",
  "quality": "SD",
  "imdb": "5.2",
  "imdb_id": "1050739",
  "kinopoisk": "6.2",
  "kinopoisk_id": "394528",
  "world_art": null,
  "world_art_id": null,
  "time": "93 мин. / 01:33",
  "ads": false,
  "premier": "2008-10-23",
  "premier_rus": "2008-10-24",
  "availability": "2008-10-25",
  "activate_time": "2020-07-27 12:36:00",
  "budget": null,
  "fees_use": "$55 202",
  "fees_world": "+ $1 922 819 = $1 978 021",
  "fees_rus": null,
  "rate_mpaa": "PG",
  "description": "Это история Ромео, история о том, как домашний Ромео стал беспризорным Ромео. Пса, который жил как бог. У него был особняк, автомобиль, семья, для которой он был любимым животным. Но семья уехала и оставила его на бедных улицах Мумбаи. И нужно было выживать, оказываясь всякий раз в ситуациях, о которых он раньше даже и не подозревал.",
  "iframe_url": "",
  "iframe_poster": null,
  "poster": "https://img.imgilall.me/movies/franchise/3/5/5/6/5/0/0/0/0/0/610x900_35565.jpg",
  "country": {
    "1": "США",
    "26": "Индия"
  },
  "collection": [],
  "genre": {
    "9": "Приключения",
    "6": "Фэнтези",
    "33": "Семейный",
    "19": "Комедия",
    "8": "Мелодрама"
  },
  "director": [
    "Джугал Хансрадж"
  ],
  "screenwriter": [
    "Джугал Хансрадж"
  ],
  "producer": [
    "Адитья Чопра",
    "Яш Чопра",
    "Сваратмика Мишра"
  ],
  "operator": [
    "Аншул Чобей"
  ],
  "composer": [
    "Салим Мерчант"
  ],
  "design": [],
  "editor": [
    "Ариф Ахмед"
  ],
  "actors": [
    "Саиф Али Кхан",
    "Карина Капур",
    "Джавед Джеффри",
    "Враджеш Хирджи",
    "Танааз Куррим",
    "Суреш Менон",
    "Кику Шарда",
    "Санджай Мишра",
    "Бэйкер Бладуорф",
    "Руперт Дегас"
  ],
  "actors_dubl": [],
  "trivia": [],
  "trailers": [],
  "seasons": [],
  "voiceActing": [
    "Рус. Люб. одноголосый",
    "Hindi Original"
  ],
  "subtitle": [
    "Рус. полные"
  ],
  "parts": []
}
