{
  "id": 35658,
  "name": "Ну очень страшное кино",
  "name_eng": "Shriek If You Know What I Did Last Friday the Thirteenth",
  "year": 2000,
  "slogan": "—",
  "age": "16+",
  "type": "film",
  "quality": "SD",
  "imdb": "4.0",
  "imdb_id": "0212235",
  "kinopoisk": "3.5",
  "kinopoisk_id": "94612",
  "world_art": null,
  "world_art_id": null,
  "time": "82 мин. / 01:22",
  "ads": false,
  "premier": "2000-10-17",
  "premier_rus": "2000-10-18",
  "availability": "2000-10-19",
  "activate_time": "2020-07-28 17:51:00",
  "budget": "$5 000 000",
  "fees_use": null,
  "fees_world": null,
  "fees_rus": null,
  "rate_mpaa": "R",
  "description": "В каждом уважающем себя фильме ужасов есть телефон, который вот-вот зазвонит... жертва, которая вот — вот завопит... убийца, который вот — вот нанесет смертельный удар. И единственный способ остаться в живых — это твердо помнить, что надо всегда опережать убийцу на один шаг... даже если он полный кретин!Когда сексуальная репортерша, вечно сующая свой нос, на пару с попадающими во всякие дурацкие истории охранником из супермаркета пытаются остановить убийцу, задумавшего расправиться с самыми видными учениками средней школы Булемия — Фоллз, начинается такое...",
  "iframe_url": "",
  "iframe_poster": null,
  "poster": "https://img.imgilall.me/movies/franchise/3/5/6/5/8/0/0/0/0/0/610x900_35658.jpg",
  "country": {
    "1": "США"
  },
  "collection": [],
  "genre": {
    "26": "Ужасы",
    "19": "Комедия"
  },
  "director": [
    "Джон Бланчард"
  ],
  "screenwriter": [
    "Сью Бэйли",
    "Джо Нелмс"
  ],
  "producer": [
    "Стефен Немет",
    "Эндрю Оои",
    "Даг Блейк"
  ],
  "operator": [
    "Дэвид Дж. Миллер"
  ],
  "composer": [
    "Тайлер Бейтс"
  ],
  "design": [
    "Брайан Ф. МакКейб",
    "Джесси Джеймс",
    "Мерри Лосон"
  ],
  "editor": [
    "Ричард Лябри"
  ],
  "actors": [
    "Джули Бенц",
    "Харли Кросс",
    "Махандра Дельфино",
    "Саймон Рекс",
    "Дэнни Стронг",
    "Кулио",
    "Эйми Грэм",
    "Тиффани Тиссен",
    "Том Арнольд",
    "Ширли Джонс"
  ],
  "actors_dubl": [],
  "trivia": [],
  "trailers": [],
  "seasons": [],
  "voiceActing": [
    "Рус. Проф. многоголосый"
  ],
  "subtitle": [],
  "parts": []
}
