{
  "id": 3572,
  "name": "Антураж",
  "name_eng": "Entourage",
  "year": 2015,
  "slogan": "«The ride ain't over»",
  "age": "16+",
  "type": "film",
  "quality": "FHD (1080p)",
  "imdb": "6.6",
  "imdb_id": "1674771",
  "kinopoisk": "6.4",
  "kinopoisk_id": "535317",
  "world_art": null,
  "world_art_id": null,
  "time": "104 мин. / 01:44",
  "ads": false,
  "premier": "2015-05-27",
  "premier_rus": "2015-07-30",
  "availability": null,
  "activate_time": "2018-11-15 18:03:02",
  "budget": "$30 000 000",
  "fees_use": "$32 363 404",
  "fees_world": "$49 263 404",
  "fees_rus": "$897 905",
  "rate_mpaa": "R",
  "description": "Звезда кино Винс Чейз и его друзья бросают вызов капризному и зачастую жестокому миру Голливуда.",
  "iframe_url": "",
  "iframe_poster": null,
  "poster": "https://img.imgilall.me/movies/franchise/3/5/7/2/0/0/0/0/0/0/610x900_3572.jpg",
  "country": {
    "1": "США"
  },
  "collection": [],
  "genre": {
    "19": "Комедия",
    "10": "Зарубежный"
  },
  "director": [
    "Даг Эллин"
  ],
  "screenwriter": [
    "Даг Эллин",
    "Роб Уайсс"
  ],
  "producer": [
    "Даг Эллин",
    "Стивен Левинсон",
    "Марк Уолберг"
  ],
  "operator": [
    "Стефен Фирберг"
  ],
  "composer": [],
  "design": [
    "Чейз Хэрлан",
    "Чикако Сузуки",
    "Элизабет Тиннес"
  ],
  "editor": [
    "Джефф Грот"
  ],
  "actors": [
    "Кевин Коннолли",
    "Эдриан Гренье",
    "Кевин Диллон",
    "Джерри Феррара",
    "Джереми Пивен",
    "Эммануэль Шрики",
    "Хэйли Джоэл Осмент",
    "Ронда Раузи",
    "Рекс Ли",
    "Билли Боб Торнтон"
  ],
  "actors_dubl": [
    "Андрей Вальц",
    "Сергей Смирнов",
    "Александр Носков",
    "Антон Эльдаров",
    "Илья Исаев"
  ],
  "trivia": [
    "Кевин Коннолли сломал себе ногу во время съемок футбольных сцен с Расселлом Уилсоном.",
    "По словам Дага Эллина изначальная версия фильма получила от MPAA рейтинг «NC-17». И чтобы получить рейтинг «R» Эллин был вынужден удалить некоторые сцены сексуального характера.",
    "События фильма разворачиваются сразу после событий сериала «Красавцы» (2004–2011).",
    "Прообразом для Черепахи стал реальный ассистент Марка Уолберга – Донни «Данки» Карролл (Donnie «Donkey» Carroll), который умер 18 декабря 2005 года от приступа астмы в возрасте 39 лет.",
    "Продюсер фильма Марк Уолберг рассказал, что фильм частично основан на его жизни.",
    "Группа критиков пыталась остановить съемки и организовала сбор средств на сайте Kickstarter. В результате было собрано более 3 миллионов долларов, но фильм все равно завершили, а все эти деньги пошли на оплату медицинской страховки актеров и нужд съемочной группы.",
    "Первые кадры фильма снимались в Майами, а дальнейшие сцены – в Беверли-Хиллз, в известном отеле «Монтаж». Домом Винса, расположенным на Голливудских холмах, послужил особняк Мадонны, а роскошный дом Черепахи расположился в Малибу.",
    "В американском прокате фильм и сериал имеют одинаковое название, на русском же сериал был назван «Красавцы», а фильм сохранил дословный перевод названия.",
    "В одной из сцен Ари Голд называет героя Хейли Джоэла Осмента Форрестом Гампом младшим, актер действительно сыграл эту роль в фильме «Форрест Гамп».",
    "Больница, где у Слоан и Эрика рождается ребенок, это та же самая больница, в которой у героя Роберта Дауни мл. рождался ребенок в фильме «Впритык» (2010).",
    "Когда главные герои встречают на студии Марка Уолберга (чья биография послужила основой для сериала и фильма), он им говорит, что только озвучивал третью часть фильма «Третий лишний».",
    "В кабинете Ари Голда можно заметить пейнтбольное ружье, которое он использовал и в сериале."
  ],
  "trailers": [],
  "seasons": [],
  "voiceActing": [
    "Рус. Дублированный",
    "Укр. Дубльований",
    "Eng.Original"
  ],
  "subtitle": [
    "Рус. форсированные"
  ],
  "parts": []
}
