{
  "id": 35903,
  "name": "Злом за зло",
  "name_eng": "Wronged",
  "year": 2019,
  "slogan": "«There are no heroes in this film»",
  "age": null,
  "type": "film",
  "quality": "HD (720p)",
  "imdb": "5.5",
  "imdb_id": "4561454",
  "kinopoisk": null,
  "kinopoisk_id": "909098",
  "world_art": null,
  "world_art_id": null,
  "time": "91 мин. / 01:31",
  "ads": true,
  "premier": "2019-02-19",
  "premier_rus": "2019-02-20",
  "availability": "2019-02-21",
  "activate_time": "2020-08-07 13:20:00",
  "budget": "$20 000",
  "fees_use": "",
  "fees_world": "",
  "fees_rus": "",
  "rate_mpaa": "",
  "description": "Дэвид и Андреа переживают потерю нерожденного ребенка. Случившееся превратило Дэвида из заботливого и чуткого семьянина в отрешенного и агрессивного мизантропа. По совету семейного психиатра, семья отправляется в поездку на охоту. Но там им предстоит столкнуться с реальной опасностью, угрожающей их жизням.",
  "iframe_url": "",
  "iframe_poster": null,
  "poster": "https://img.imgilall.me/movies/franchise/3/5/9/0/3/0/0/0/0/0/610x900_35903.jpg",
  "country": {
    "1": "США"
  },
  "collection": [],
  "genre": {
    "13": "Триллер"
  },
  "director": [
    "Николас Холлэнд"
  ],
  "screenwriter": [
    "Николас Холлэнд"
  ],
  "producer": [
    "Jim Doyon",
    "Gerald Hoppe",
    "Greg Wilson"
  ],
  "operator": [
    "Emanuel Neculai"
  ],
  "composer": [
    "Isaac Brandon Goss",
    "Энди Прайс"
  ],
  "design": [
    "Joshua Davis"
  ],
  "editor": [
    "Николас Холлэнд"
  ],
  "actors": [
    "Гроувер МакКэнтс",
    "Дебра Харрисон-Лоу",
    "Уэйн Е. Браун",
    "Дэн Дэвис",
    "Гарретт Тьерри",
    "Джо Пьяцца",
    "Николас Холлэнд",
    "Анджела Робертс",
    "Кеф Ли",
    "Зайлия Дженкинс"
  ],
  "actors_dubl": [],
  "trivia": [],
  "trailers": [],
  "seasons": [],
  "voiceActing": [
    "Рус. Люб. многоголосый"
  ],
  "subtitle": [],
  "parts": []
}
