{
  "id": 3601,
  "name": "Пурга",
  "name_eng": "",
  "year": 2018,
  "slogan": "«Любовь,\tкак и стихийное бедствие, предугадать нельзя»",
  "age": "16+",
  "type": "film",
  "quality": "HD (720p)",
  "imdb": null,
  "imdb_id": null,
  "kinopoisk": "5.4",
  "kinopoisk_id": "958591",
  "world_art": null,
  "world_art_id": null,
  "time": "92 мин. / 01:32",
  "ads": false,
  "premier": "2018-01-07",
  "premier_rus": "2018-01-07",
  "availability": null,
  "activate_time": "2018-11-16 10:56:39",
  "budget": null,
  "fees_use": null,
  "fees_world": null,
  "fees_rus": null,
  "rate_mpaa": null,
  "description": "Оперативник криминальной полиции Женя Никифоров\tоднажды\tсделал выбор между долгом и чувством. Спустя год Женя не может решить, что же правильней — быть честным по любви или счастливым по расчету? В канун\tнового года его\tслучайный знакомый Дед Мороз дает ему весьма необычный совет искупаться в снегу и загадать желание. Оно непременно исполнится, но при одном условии — нужно, как в детстве, точно знать, чего ты на самом деле хочешь.",
  "iframe_url": "",
  "iframe_poster": "https://img.imgilall.me/movies/video/3/4/3/3/6/0/0/0/0/0/800x450_34336.jpeg",
  "poster": "https://img.imgilall.me/movies/franchise/3/6/0/1/0/0/0/0/0/0/610x900_3601.jpg",
  "country": {
    "5": "Россия"
  },
  "collection": {
    "11": "Для женщин"
  },
  "genre": {
    "22": "Русский",
    "19": "Комедия"
  },
  "director": [
    "Игорь Зайцев"
  ],
  "screenwriter": [
    "Андрей Кивинов"
  ],
  "producer": [
    "Анатолий Максимов",
    "Анна Асриянц",
    "Макс Олейников"
  ],
  "operator": [
    "Морад Абдель Фаттах"
  ],
  "composer": [
    "Дмитрий Емельянов"
  ],
  "design": [
    "Ульяна Рябова"
  ],
  "editor": [],
  "actors": [
    "Виктор Хориняк",
    "Александра Тюфтей",
    "Юлия Ковалева",
    "Роман Мадянов",
    "Ростислав Бершауэр",
    "Михаил Евланов",
    "Максим Литовченко",
    "Максим Битюков",
    "Наталья Рычкова",
    "Людмила Полякова"
  ],
  "actors_dubl": [],
  "trivia": [],
  "trailers": [],
  "seasons": [],
  "voiceActing": [
    "Рус. Оригинальный"
  ],
  "subtitle": [],
  "parts": []
}
