{
  "id": 36094,
  "name": "Земля монстров",
  "name_eng": "Monsterland",
  "year": 2020,
  "slogan": "«You can't escape what lives within»",
  "age": null,
  "type": "series",
  "quality": "FHD (1080p)",
  "imdb": "5.5",
  "imdb_id": "10404698",
  "kinopoisk": "5.9",
  "kinopoisk_id": "1273277",
  "world_art": null,
  "world_art_id": null,
  "time": "50 мин",
  "ads": false,
  "premier": "2020-10-02",
  "premier_rus": "2020-10-03",
  "availability": "2020-10-04",
  "serial_status": "offline",
  "activate_time": "2020-08-12 17:43:00",
  "budget": null,
  "fees_use": null,
  "fees_world": null,
  "fees_rus": null,
  "rate_mpaa": null,
  "description": "В разных уголках США жители постоянно сталкиваются с разными монстрами, от вампиров до падших ангелов. Эти встречи заставляют местных пересмотреть отношение к собственным сломанным жизням.",
  "iframe_url": "",
  "poster": "https://img.imgilall.me/movies/franchise/3/6/0/9/4/0/0/0/0/0/610x900_36094.jpg",
  "country": {
    "1": "США"
  },
  "collection": {
    "118": "Hulu"
  },
  "genre": {
    "26": "Ужасы",
    "24": "Детектив"
  },
  "director": [
    "Дезире Акхаван",
    "Бабак Анвари",
    "Эгил Эгилссон"
  ],
  "screenwriter": [
    "Эмили Качмарек",
    "Аалия Браун",
    "Мэри Лоус"
  ],
  "producer": [
    "Бабак Анвари",
    "Rachel Jablin",
    "Ali Krug"
  ],
  "operator": [
    "Анетт Хаелльмигк",
    "Анка Малатинска"
  ],
  "composer": [
    "Juan Luqui",
    "Густаво Сантаолалья"
  ],
  "design": [
    "Ола Маслик",
    "Марисса Коцилимбас",
    "Стэйси Гринбаум"
  ],
  "editor": [
    "Джошуа Рэймонд Ли",
    "Артуро Соса",
    "Уильям Генри"
  ],
  "actors": [
    "Кейтлин Дивер",
    "Джонатан Такер",
    "Шарлотта Кэбелл",
    "Вивиан Кэбелл",
    "Ди Думеби Эгбуфор",
    "Kayleigh Shuler",
    "Эринн Анова",
    "Адриа Архона",
    "Николь Бахари",
    "Билл Кэмп"
  ],
  "actors_dubl": [],
  "trivia": [],
  "trailers": [
    {
      "name": "трейлер №1",
      "number": 1,
      "iframe_poster": null,
      "season": 1,
      "iframe_url": ""
    }
  ],
  "seasons": [
    {
      "poster": null,
      "release_ru": null,
      "release_world": null,
      "availability": null,
      "iframe_url": "",
      "season": 1,
      "episodes": [
        {
          "episode": 1,
          "name": null,
          "iframe_url": "",
          "iframe_poster": null,
          "release_ru": null,
          "release_world": null,
          "availability": null,
          "voiceActing": [
            "LostFilm",
            "Eng.Original"
          ],
          "ads": false,
          "subtitle": []
        },
        {
          "episode": 2,
          "name": null,
          "iframe_url": "",
          "iframe_poster": null,
          "release_ru": null,
          "release_world": null,
          "availability": null,
          "voiceActing": [
            "LostFilm",
            "Eng.Original"
          ],
          "ads": false,
          "subtitle": []
        },
        {
          "episode": 3,
          "name": null,
          "iframe_url": "",
          "iframe_poster": null,
          "release_ru": null,
          "release_world": null,
          "availability": null,
          "voiceActing": [
            "LostFilm",
            "Eng.Original"
          ],
          "ads": false,
          "subtitle": []
        },
        {
          "episode": 4,
          "name": null,
          "iframe_url": "",
          "iframe_poster": null,
          "release_ru": null,
          "release_world": null,
          "availability": null,
          "voiceActing": [
            "LostFilm",
            "Eng.Original"
          ],
          "ads": false,
          "subtitle": []
        },
        {
          "episode": 5,
          "name": null,
          "iframe_url": "",
          "iframe_poster": null,
          "release_ru": null,
          "release_world": null,
          "availability": null,
          "voiceActing": [
            "LostFilm",
            "Eng.Original"
          ],
          "ads": false,
          "subtitle": []
        },
        {
          "episode": 6,
          "name": null,
          "iframe_url": "",
          "iframe_poster": null,
          "release_ru": null,
          "release_world": null,
          "availability": null,
          "voiceActing": [
            "LostFilm",
            "Eng.Original"
          ],
          "ads": false,
          "subtitle": []
        },
        {
          "episode": 7,
          "name": null,
          "iframe_url": "",
          "iframe_poster": null,
          "release_ru": null,
          "release_world": null,
          "availability": null,
          "voiceActing": [
            "LostFilm",
            "Eng.Original"
          ],
          "ads": false,
          "subtitle": []
        },
        {
          "episode": 8,
          "name": null,
          "iframe_url": "",
          "iframe_poster": null,
          "release_ru": null,
          "release_world": null,
          "availability": null,
          "voiceActing": [
            "LostFilm",
            "Eng.Original"
          ],
          "ads": false,
          "subtitle": []
        }
      ]
    }
  ],
  "voiceActing": [
    "LostFilm",
    "Eng.Original"
  ],
  "subtitle": [],
  "parts": []
}
