{
  "id": 36528,
  "name": "Время убийственно",
  "name_eng": "Le temps est assassin",
  "year": 2019,
  "slogan": "—",
  "age": "16+",
  "type": "series",
  "quality": "HD (720p)",
  "imdb": "5.3",
  "imdb_id": "10462338",
  "kinopoisk": null,
  "kinopoisk_id": "1274013",
  "world_art": null,
  "world_art_id": null,
  "time": "52 мин",
  "ads": true,
  "premier": "2019-08-21",
  "premier_rus": "2019-08-22",
  "availability": "2019-08-23",
  "serial_status": "offline",
  "activate_time": "2020-08-30 02:28:00",
  "budget": "",
  "fees_use": "",
  "fees_world": "",
  "fees_rus": "",
  "rate_mpaa": "",
  "description": "Лето 2019: Клотильда только что обнаружила безжизненное тело Гарсии. Все указывает на то, что это самоубийство. Жандармы подтверждают это предположение. Однако Клотильда совершенно не верила этому объяснению. Вернувшись домой, она заметила, выходя из душа, листок бумаги, спрятанный за зеркалом в ванной. Это Пресс-релиз, который был 25 лет назад...",
  "iframe_url": "",
  "poster": "https://img.imgilall.me/movies/franchise/3/6/5/2/8/0/0/0/0/0/610x900_36528.jpg",
  "country": {
    "9": "Франция"
  },
  "collection": [],
  "genre": {
    "13": "Триллер"
  },
  "director": [
    "Клод-Мишель Ром"
  ],
  "screenwriter": [
    "Мишель Бюсси",
    "Лорен Монди",
    "Франк Олливье"
  ],
  "producer": [
    "Алин Бессон",
    "Isabelle Drong"
  ],
  "operator": [
    "Alain Ducousset"
  ],
  "composer": [
    "Фридерик Порте"
  ],
  "design": [
    "Мари-Клод Ланг-Бренгюйер",
    "Jacq Eric"
  ],
  "editor": [
    "Жером Брео",
    "Стефани Махе",
    "Мелани Мулен"
  ],
  "actors": [
    "Стэнли Вебер",
    "Грегори Фетусси",
    "Тьерри Годар",
    "Матильда Сенье",
    "Катерина Мурино",
    "Венсан Деньяр",
    "Esther Valding",
    "Дженифер Бартоли",
    "Валерия Кавалли",
    "Серж Рябукин"
  ],
  "actors_dubl": [],
  "trivia": [],
  "trailers": [],
  "seasons": [
    {
      "poster": null,
      "release_ru": "2019-08-30",
      "release_world": "2019-08-29",
      "availability": "2019-08-31",
      "iframe_url": "",
      "season": 1,
      "episodes": [
        {
          "episode": 1,
          "name": null,
          "iframe_url": "",
          "iframe_poster": null,
          "release_ru": "2019-08-30",
          "release_world": "2019-08-29",
          "availability": "2019-08-31",
          "voiceActing": [
            "WestFilm"
          ],
          "ads": true,
          "subtitle": []
        },
        {
          "episode": 2,
          "name": null,
          "iframe_url": "",
          "iframe_poster": null,
          "release_ru": "2019-08-30",
          "release_world": "2019-08-29",
          "availability": "2019-08-31",
          "voiceActing": [
            "WestFilm"
          ],
          "ads": true,
          "subtitle": []
        },
        {
          "episode": 3,
          "name": null,
          "iframe_url": "",
          "iframe_poster": null,
          "release_ru": "2019-09-06",
          "release_world": "2019-09-05",
          "availability": "2019-09-07",
          "voiceActing": [
            "WestFilm"
          ],
          "ads": true,
          "subtitle": []
        },
        {
          "episode": 4,
          "name": null,
          "iframe_url": "",
          "iframe_poster": null,
          "release_ru": "2019-09-06",
          "release_world": "2019-09-05",
          "availability": "2019-09-07",
          "voiceActing": [
            "WestFilm"
          ],
          "ads": true,
          "subtitle": []
        },
        {
          "episode": 5,
          "name": null,
          "iframe_url": "",
          "iframe_poster": null,
          "release_ru": "2019-09-13",
          "release_world": "2019-09-12",
          "availability": "2019-09-14",
          "voiceActing": [
            "WestFilm"
          ],
          "ads": true,
          "subtitle": []
        },
        {
          "episode": 6,
          "name": null,
          "iframe_url": "",
          "iframe_poster": null,
          "release_ru": "2019-09-13",
          "release_world": "2019-09-12",
          "availability": "2019-09-14",
          "voiceActing": [
            "WestFilm"
          ],
          "ads": true,
          "subtitle": []
        },
        {
          "episode": 7,
          "name": null,
          "iframe_url": "",
          "iframe_poster": null,
          "release_ru": "2019-09-20",
          "release_world": "2019-09-19",
          "availability": "2019-09-21",
          "voiceActing": [
            "WestFilm"
          ],
          "ads": true,
          "subtitle": []
        },
        {
          "episode": 8,
          "name": null,
          "iframe_url": "",
          "iframe_poster": null,
          "release_ru": "2019-09-20",
          "release_world": "2019-09-19",
          "availability": "2019-09-21",
          "voiceActing": [
            "WestFilm"
          ],
          "ads": true,
          "subtitle": []
        }
      ]
    }
  ],
  "voiceActing": [
    "WestFilm"
  ],
  "subtitle": [],
  "parts": []
}
