{
  "id": 36690,
  "name": "Кладбищенские истории 2",
  "name_eng": "Graveyard Stories 2",
  "year": 2020,
  "slogan": "«Cult legend George Stover presents four sinister tales of terror!»",
  "age": null,
  "type": "film",
  "quality": "HD (720p)",
  "imdb": "4.3",
  "imdb_id": "12324204",
  "kinopoisk": null,
  "kinopoisk_id": "1381506",
  "world_art": null,
  "world_art_id": null,
  "time": "80 мин. / 01:20",
  "ads": true,
  "premier": "2020-05-16",
  "premier_rus": "2020-05-17",
  "availability": "2020-05-18",
  "activate_time": "2020-09-03 10:52:00",
  "budget": "",
  "fees_use": "",
  "fees_world": "",
  "fees_rus": "",
  "rate_mpaa": "",
  "description": "Три истории, рассказанные в этом фильме, заставят вас похолодеть от ужаса.",
  "iframe_url": "",
  "iframe_poster": null,
  "poster": "https://img.imgilall.me/movies/franchise/3/6/6/9/0/0/0/0/0/0/610x900_36690.jpg",
  "country": {
    "1": "США"
  },
  "collection": [],
  "genre": {
    "26": "Ужасы"
  },
  "director": [
    "James Ian Mair"
  ],
  "screenwriter": [
    "James Ian Mair"
  ],
  "producer": [
    "James Ian Mair",
    "Deron Morgan",
    "James Stevenson"
  ],
  "operator": [
    "James Ian Mair"
  ],
  "composer": [
    "Вирджил Франклин"
  ],
  "design": [],
  "editor": [
    "James Ian Mair"
  ],
  "actors": [
    "Джордж Стоувер",
    "Deron Morgan",
    "C.A. McGregor",
    "Patti Danner",
    "Tara Bixler",
    "Деннис Кроссуайт",
    "Autumn Reed",
    "Tyler Fiscus",
    "Alex Phipps",
    "William Pool"
  ],
  "actors_dubl": [],
  "trivia": [],
  "trailers": [],
  "seasons": [],
  "voiceActing": [
    "Рус. Люб. многоголосый"
  ],
  "subtitle": [],
  "parts": []
}
