{
  "id": 36792,
  "name": "Тиа и Пиуджук",
  "name_eng": "Tia and Piujuq",
  "year": 2018,
  "slogan": "—",
  "age": null,
  "type": "film",
  "quality": "HD (720p)",
  "imdb": "6.8",
  "imdb_id": "8420530",
  "kinopoisk": null,
  "kinopoisk_id": "1159039",
  "world_art": null,
  "world_art_id": null,
  "time": "80 мин. / 01:20",
  "ads": true,
  "premier": "2018-10-18",
  "premier_rus": "2018-10-19",
  "availability": "2018-10-20",
  "activate_time": "2020-09-07 11:41:00",
  "budget": null,
  "fees_use": null,
  "fees_world": null,
  "fees_rus": null,
  "rate_mpaa": null,
  "description": null,
  "iframe_url": "",
  "iframe_poster": null,
  "poster": "https://img.imgilall.me/movies/franchise/3/6/7/9/2/0/0/0/0/0/610x900_36792.jpg",
  "country": {
    "7": "Канада"
  },
  "collection": [],
  "genre": {
    "6": "Фэнтези",
    "33": "Семейный"
  },
  "director": [
    "Люси Тулугарджук"
  ],
  "screenwriter": [
    "Samuel Cohn-Cousineau",
    "Мари-Элен Козино",
    "Люси Тулугарджук"
  ],
  "producer": [
    "Мари-Элен Козино",
    "Susan Avingaq",
    "Мадлен Ивалу"
  ],
  "operator": [
    "John Frantz",
    "Эдит Лаббе"
  ],
  "composer": [
    "Chris Coleman"
  ],
  "design": [],
  "editor": [
    "Джереми Хэйес"
  ],
  "actors": [
    "Tia Bshara",
    "Nuvvija Tulugarjuk",
    "Eiman Aljaber",
    "Ghaiss Gharibet",
    "Khaldoun Abdoulmajeed",
    "Nicolas Abrile",
    "Anjo B. Arson",
    "Jacky Orunnut",
    "Alexandre Apak Cousineau",
    "Люси Тулугарджук"
  ],
  "actors_dubl": [],
  "trivia": [],
  "trailers": [],
  "seasons": [],
  "voiceActing": [
    "Рус. Люб. многоголосый"
  ],
  "subtitle": [],
  "parts": []
}
