{
  "id": 36825,
  "name": "Счастливей некуда",
  "name_eng": "Lyckligare kan ingen vara",
  "year": 2018,
  "slogan": "—",
  "age": null,
  "type": "film",
  "quality": "HD (720p)",
  "imdb": "5.8",
  "imdb_id": "9266608",
  "kinopoisk": null,
  "kinopoisk_id": "1214227",
  "world_art": null,
  "world_art_id": null,
  "time": "113 мин. / 01:53",
  "ads": true,
  "premier": "2018-12-21",
  "premier_rus": "2018-12-22",
  "availability": "2018-12-23",
  "activate_time": "2020-09-08 11:02:00",
  "budget": "",
  "fees_use": "",
  "fees_world": "",
  "fees_rus": "",
  "rate_mpaa": "",
  "description": "История вращается вокруг пяти пар разных поколений. Их жизни связаны как совпадениями, так и осознанно принятыми решениями, в основе которых лежит стремление к любви.",
  "iframe_url": "",
  "iframe_poster": null,
  "poster": "https://img.imgilall.me/movies/franchise/3/6/8/2/5/0/0/0/0/0/610x900_36825.jpg",
  "country": {
    "28": "Швеция"
  },
  "collection": [],
  "genre": {
    "19": "Комедия",
    "8": "Мелодрама"
  },
  "director": [
    "Стаффан Линдберг"
  ],
  "screenwriter": [
    "Стаффан Линдберг"
  ],
  "producer": [
    "Анника Белландер",
    "Linnea Larsdotter",
    "Йохан Мэттон"
  ],
  "operator": [
    "Симон Прамстен"
  ],
  "composer": [
    "Per Ekdahl",
    "Йорген Элофссон"
  ],
  "design": [
    "Тереза Бил"
  ],
  "editor": [
    "Max Arehn",
    "София Линдгрен"
  ],
  "actors": [
    "Хелена Аф Сандеберг",
    "Моника Алборноз",
    "Лиза Петтерссон",
    "Миа Бенсон",
    "Филип Берг",
    "Челль Бергквист",
    "Майя Ханссон-Бергвист",
    "Игл Ай Черри",
    "Ингве Далберг",
    "Petter Egnefors"
  ],
  "actors_dubl": [],
  "trivia": [],
  "trailers": [],
  "seasons": [],
  "voiceActing": [
    "Рус. Люб. многоголосый"
  ],
  "subtitle": [],
  "parts": []
}
