{
  "id": 36902,
  "name": "Он. Она. И другой",
  "name_eng": "Her. Him. The Other",
  "year": 2018,
  "slogan": "—",
  "age": null,
  "type": "film",
  "quality": "HD (720p)",
  "imdb": "6.9",
  "imdb_id": "7583794",
  "kinopoisk": null,
  "kinopoisk_id": "1101357",
  "world_art": null,
  "world_art_id": null,
  "time": "116 мин. / 01:56",
  "ads": true,
  "premier": "2018-02-27",
  "premier_rus": "2018-02-28",
  "availability": "2018-03-01",
  "activate_time": "2020-09-09 10:59:00",
  "budget": null,
  "fees_use": null,
  "fees_world": null,
  "fees_rus": null,
  "rate_mpaa": null,
  "description": null,
  "iframe_url": "",
  "iframe_poster": null,
  "poster": "https://img.imgilall.me/movies/franchise/3/6/9/0/2/0/0/0/0/0/610x900_36902.jpg",
  "country": [
    "Шри-Ланка"
  ],
  "collection": [],
  "genre": {
    "7": "Драма"
  },
  "director": [
    "Асока Хандагама",
    "Вимукти Яясундара",
    "Prasanna Vithanage"
  ],
  "screenwriter": [
    "Асока Хандагама",
    "Вимукти Яясундара",
    "Prasanna Vithanage"
  ],
  "producer": [],
  "operator": [
    "Чанна Дешаприя",
    "M.D. Mahindapala",
    "Eeshit Narain"
  ],
  "composer": [
    "К Кришна Кумар",
    "Kapila Poogalaarachchi"
  ],
  "design": [
    "Buddhi Sanjaya Edirisinghe"
  ],
  "editor": [
    "Saman Alvitigala",
    "Равиндра Гуруге",
    "А. Шрикар Прасад"
  ],
  "actors": [
    "Dharshana Vidya Aravinda",
    "Mohamed Atheef",
    "F. Jules Colin",
    "Juliyan Gaarvith Galindawattha",
    "Асока Хандагама",
    "Krishantha Jayabahu",
    "Malkanthi Jayasinghe",
    "Perlija Jeyaraj",
    "Juliyan Kawshalya Mendis",
    "Kesavarajan Navaratnam"
  ],
  "actors_dubl": [],
  "trivia": [],
  "trailers": [],
  "seasons": [],
  "voiceActing": [
    "Рус. Люб. многоголосый"
  ],
  "subtitle": [],
  "parts": []
}
