{
  "id": 3731,
  "name": "Ночной дозор",
  "name_eng": "",
  "year": 2004,
  "slogan": "«All That Stands Between Light And Darkness Is The Night Watch»",
  "age": "16+",
  "type": "film",
  "quality": "FHD (1080p)",
  "imdb": "6.4",
  "imdb_id": "0403358",
  "kinopoisk": "6.1",
  "kinopoisk_id": "79850",
  "world_art": null,
  "world_art_id": null,
  "time": "115 мин. / 01:55",
  "ads": false,
  "premier": "2004-07-08",
  "premier_rus": "2004-06-27",
  "availability": null,
  "activate_time": "2018-11-21 10:20:41",
  "budget": "$4 200 000",
  "fees_use": "$1 502 188",
  "fees_world": "$33 951 015",
  "fees_rus": "$16 239 819",
  "rate_mpaa": "R",
  "description": "Ночью можно столкнуться с темными магами, вампирами и прочей нечистью. Но по следу «ночных охотников» идет Ночной Дозор. Его предназначение — сохранение равновесия между Добром и Злом, нарушение которого вызывает разрушения, войны, революции, вселенские катастрофы…",
  "iframe_url": "",
  "iframe_poster": null,
  "poster": "https://img.imgilall.me/movies/franchise/3/7/3/1/0/0/0/0/0/0/610x900_3731.jpg",
  "country": {
    "5": "Россия"
  },
  "collection": [],
  "genre": {
    "9": "Приключения",
    "26": "Ужасы",
    "6": "Фэнтези",
    "36": "Мистический",
    "22": "Русский",
    "17": "Боевик",
    "13": "Триллер"
  },
  "director": [
    "Тимур Бекмамбетов"
  ],
  "screenwriter": [
    "Сергей Лукьяненко",
    "Тимур Бекмамбетов"
  ],
  "producer": [
    "Константин Эрнст",
    "Варя Авдюшко",
    "Алексей Кублицкий"
  ],
  "operator": [
    "Сергей Трофимов"
  ],
  "composer": [
    "Юрий Потеенко"
  ],
  "design": [
    "Мухтар Мирзакеев",
    "Валерий Викторов",
    "Екатерина Залетаева"
  ],
  "editor": [
    "Дмитрий Киселёв"
  ],
  "actors": [
    "Константин Хабенский",
    "Владимир Меньшов",
    "Валерий Золотухин",
    "Мария Порошина",
    "Галина Тюнина",
    "Гоша Куценко",
    "Алексей Чадов",
    "Жанна Фриске",
    "Илья Лагутенко",
    "Виктор Вержбицкий"
  ],
  "actors_dubl": [],
  "trivia": [
    "Фильм снят по мотивам романа Сергея Лукьяненко «Ночной дозор» (1998).",
    "Сергей Лукьяненко сыграл в картине небольшую роль мага Руслана.",
    "В ходе производства фильма было отснято более 120 часов и смонтировано 30 разных вариантов картины.",
    "На производство спецэффектов для картины было потрачено 200 000 долларов (в США они бы стоили около 5 миллионов), а на рекламную кампанию — около 1 миллиона долларов.",
    "В начальных титрах к фильму имя продюсера написано с опечаткой — Контстантин Эрнст.",
    "Однажды сценарист фильма и автор одноимённого романа Сергей Лукьяненко высказал идею о создании пародии на свой же фильм. «Перевод» с русского на русский, получивший название «Ночной Базар» (2005), был подготовлен Александром Бачило и озвучен известным закадровым переводчиком Леонидом Володарским. Несмотря на то, что Дмитрий Пучков (Goblin) участия в данном проекте не принимал и не имеет к нему никакого отношения, на обложке DVD написали «специальный (\"гоблинский») перевод». Однако, слово «гоблинский» было написано в кавычках и в скобках, с маленькой буквы. Таким образом коммерческий отдел «ОРТ-видео» хотел подчеркнуть, что не использовал бренд «Гоблин» для прибавления популярности проекту, а написал так потому, что это название уже стало нарицательным.",
    "На 45 минуте фильма, если внимательно присмотреться на расплывчатый фон, можно понять, что этот фон — ничто иное как картина Рембрандта «Ночной дозор».",
    "В «Ночном Дозоре» активно используется «product placement». Объём заработанных средств достиг полумиллиона долларов.",
    "В 2010 году британский журнал Empire опубликовал список ста лучших неанглоязычных фильмов в истории кинематографа. «Ночной Дозор» (2004) занял в нём сотое место.",
    "Егор смотрит мультфильм «Приключения Домовёнка» (1986).",
    "На 34 минуте фильма Гесер звонит Толику с просьбой узнать о будущих происшествиях в Москве. Толик находит информацию об авиакатастрофе самолёта Ил-86, рейс «Москва-Анталия», который упал в 10 км от Внуково (по сценарию фильма). На экране Толиного компьютера показывают настоящие снимки реальной катастрофы ИЛ-86 Пулковских авиалиний (бортовой номер 86060), которая произошла в Шереметьево в июле 2002 года."
  ],
  "trailers": [],
  "seasons": [],
  "voiceActing": [
    "Рус. Оригинальный"
  ],
  "subtitle": [
    "Eng. full"
  ],
  "parts": []
}
