{
  "id": 37364,
  "name": "Внезапная смерть 2",
  "name_eng": "Welcome to Sudden Death",
  "year": 2020,
  "slogan": "—",
  "age": "16+",
  "type": "film",
  "quality": "FHD (1080p)",
  "imdb": "4.3",
  "imdb_id": "10804786",
  "kinopoisk": "4.7",
  "kinopoisk_id": "1292018",
  "world_art": null,
  "world_art_id": null,
  "time": "80 мин. / 01:20",
  "ads": false,
  "premier": "2020-09-29",
  "premier_rus": "2020-09-30",
  "availability": "2020-10-01",
  "activate_time": "2020-09-30 14:27:00",
  "budget": "",
  "fees_use": "",
  "fees_world": "",
  "fees_rus": "",
  "rate_mpaa": "R",
  "description": "Джесси Фриман, бывший офицер специальных сил и эксперт по взрывчатым веществам, теперь работает на обычной работе — охранником на современной баскетбольной арене. Проблемы возникают, когда в вечер торжественного открытия группа технически продвинутых террористов похищает владельца команды и дочь Джесси. Время на исходе, шансы почти нулевые, и только Джесси может спасти их и заодно целый стадион фанатов.",
  "iframe_url": "",
  "iframe_poster": null,
  "poster": "https://img.imgilall.me/movies/franchise/3/7/3/6/4/0/0/0/0/0/610x900_37364.jpg",
  "country": {
    "1": "США"
  },
  "collection": [],
  "genre": {
    "17": "Боевик",
    "13": "Триллер",
    "7": "Драма"
  },
  "director": [
    "Даллас Джексон"
  ],
  "screenwriter": [
    "Даллас Джексон",
    "Джин Квинтано"
  ],
  "producer": [
    "Ронда Бэйкер",
    "Грифф Ферст"
  ],
  "operator": [
    "Марк Ирвин"
  ],
  "composer": [
    "Ховард Дроссин"
  ],
  "design": [
    "Сильвен Жингра",
    "Брюс Кук",
    "Сандра Сок"
  ],
  "editor": [
    "Эрик Поттер",
    "Ирит Раз"
  ],
  "actors": [
    "Майкл Джей Уайт",
    "Майкл Эклунд",
    "Сабрин Рок",
    "Накаи Такавира",
    "Лайрик Джастис",
    "Саджин Семаджусте",
    "Гари Оуэн",
    "Энтони Грант",
    "Кристен Харрис",
    "Биджей Верот"
  ],
  "actors_dubl": [
    "Александр Носков",
    "Дмитрий Поляновский",
    "Анна Киселёва",
    "Татьяна Абрамова",
    "Лариса Брохман"
  ],
  "trivia": [],
  "trailers": [],
  "seasons": [],
  "voiceActing": [
    "Рус. Дублированный",
    "Eng.Original"
  ],
  "subtitle": [
    "Eng. SDH"
  ],
  "parts": []
}
