{
  "id": 37648,
  "name": "Мы собираемся съесть вас",
  "name_eng": "Di yu wu men",
  "year": 1980,
  "slogan": "—",
  "age": null,
  "type": "film",
  "quality": "SD",
  "imdb": "6.5",
  "imdb_id": "0080636",
  "kinopoisk": "6.4",
  "kinopoisk_id": "37080",
  "world_art": null,
  "world_art_id": null,
  "time": "87 мин. / 01:27",
  "ads": false,
  "premier": "1980-04-02",
  "premier_rus": "1980-04-03",
  "availability": "1980-04-04",
  "activate_time": "2020-10-12 13:03:00",
  "budget": null,
  "fees_use": null,
  "fees_world": null,
  "fees_rus": null,
  "rate_mpaa": null,
  "description": "Полицейский преследует сбежавшего убийцу, который решает скрыться в глухой деревне. Но деревня та непростая. Любимое лакомство местных жителей — случайные путники, и коп тут же попадает в засаду.",
  "iframe_url": "",
  "iframe_poster": null,
  "poster": "https://img.imgilall.me/movies/franchise/3/7/6/4/8/0/0/0/0/0/610x900_37648.jpg",
  "country": {
    "12": "Гонконг"
  },
  "collection": [],
  "genre": {
    "9": "Приключения",
    "26": "Ужасы",
    "6": "Фэнтези",
    "19": "Комедия",
    "17": "Боевик",
    "13": "Триллер"
  },
  "director": [
    "Цуй Харк"
  ],
  "screenwriter": [
    "Рой Зето",
    "Цуй Харк"
  ],
  "producer": [
    "Куэнь Чунг",
    "Нг Сиюэнь"
  ],
  "operator": [
    "Лау Хун-Чюн"
  ],
  "composer": [
    "Фрэнки Чан"
  ],
  "design": [
    "Йен-Тай Тинг",
    "Shui-Lin Lo"
  ],
  "editor": [
    "Хунг Пун"
  ],
  "actors": [
    "Норман Чу",
    "Эдди Ко",
    "Мелвин Вон",
    "Хон Квок-Чой",
    "Mo-lin Cheung",
    "Фун Фун",
    "Чи Хунг Линг",
    "Саймон Лун",
    "Кеи Мэй",
    "Yun-Sheng Pan"
  ],
  "actors_dubl": [],
  "trivia": [],
  "trailers": [],
  "seasons": [],
  "voiceActing": [
    "А. Гаврилов"
  ],
  "subtitle": [],
  "parts": []
}
