{
  "id": 37697,
  "name": "Tenali Ramakrishna BA.BL",
  "name_eng": "",
  "year": 2019,
  "slogan": "—",
  "age": null,
  "type": "film",
  "quality": "HD (720p)",
  "imdb": "4.9",
  "imdb_id": "11023720",
  "kinopoisk": null,
  "kinopoisk_id": "1309633",
  "world_art": null,
  "world_art_id": null,
  "time": "128 мин. / 02:08",
  "ads": false,
  "premier": "2019-11-15",
  "premier_rus": "2019-11-16",
  "availability": "2019-11-17",
  "activate_time": "2020-10-12 06:54:00",
  "budget": null,
  "fees_use": null,
  "fees_world": null,
  "fees_rus": null,
  "rate_mpaa": null,
  "description": null,
  "iframe_url": "",
  "iframe_poster": null,
  "poster": "https://img.imgilall.me/movies/franchise/3/7/6/9/7/0/0/0/0/0/610x900_37697.jpg",
  "country": {
    "26": "Индия"
  },
  "collection": [],
  "genre": {
    "19": "Комедия",
    "17": "Боевик",
    "7": "Драма"
  },
  "director": [
    "G. Nageswara Reddy"
  ],
  "screenwriter": [
    "Раджасимха",
    "G. Nageswara Reddy",
    "Vikramraj"
  ],
  "producer": [
    "Sreenivas Indumuri",
    "Rupa Jagadish",
    "Agraharam Nagireddy"
  ],
  "operator": [
    "Сай Шрирам"
  ],
  "composer": [
    "Сай Картик"
  ],
  "design": [
    "Kiran Kumar Manne",
    "Archa Mehta"
  ],
  "editor": [
    "Чота К. Прасад"
  ],
  "actors": [
    "Сундип Кишан",
    "Веннела Кишор",
    "Хансика Мотвани",
    "Варалаксми Сараткумар",
    "Мурли Шарма"
  ],
  "actors_dubl": [],
  "trivia": [],
  "trailers": [],
  "seasons": [],
  "voiceActing": [
    "Рус. Люб. многоголосый"
  ],
  "subtitle": [],
  "parts": []
}
