{
  "id": 37785,
  "name": "Bald Knobber",
  "name_eng": "",
  "year": 2017,
  "slogan": "«True. Tragic. Terrifying»",
  "age": null,
  "type": "film",
  "quality": "HD (720p)",
  "imdb": "5.1",
  "imdb_id": "2919200",
  "kinopoisk": null,
  "kinopoisk_id": "766850",
  "world_art": null,
  "world_art_id": null,
  "time": "177 мин. / 02:57",
  "ads": false,
  "premier": "2017-12-29",
  "premier_rus": "2017-12-30",
  "availability": "2017-12-31",
  "activate_time": "2020-10-12 07:04:00",
  "budget": "$185 000",
  "fees_use": null,
  "fees_world": null,
  "fees_rus": null,
  "rate_mpaa": null,
  "description": null,
  "iframe_url": "",
  "iframe_poster": null,
  "poster": "https://img.imgilall.me/movies/franchise/3/7/7/8/5/0/0/0/0/0/610x900_37785.jpg",
  "country": {
    "1": "США"
  },
  "collection": [],
  "genre": {
    "54": "Документальный",
    "29": "Вестерн",
    "28": "Исторический",
    "7": "Драма"
  },
  "director": [
    "Michael Johnson"
  ],
  "screenwriter": [
    "Кертис Коуплэнд",
    "Michael Johnson"
  ],
  "producer": [
    "Кертис Коуплэнд",
    "Michael Johnson",
    "Angelina Sauber"
  ],
  "operator": [
    "Lonnie Howard"
  ],
  "composer": [],
  "design": [
    "Mary Jo Greer"
  ],
  "editor": [
    "Марк Пархэм"
  ],
  "actors": [
    "Mel Barber",
    "Angelina Sauber",
    "Dale Green",
    "Laura Fogle",
    "Dakota T. Jones",
    "Keith Thurman",
    "Lee Walker",
    "Дэвид Гриффин",
    "Michael Freeman",
    "Randy Greer"
  ],
  "actors_dubl": [],
  "trivia": [],
  "trailers": [],
  "seasons": [],
  "voiceActing": [
    "Рус. Люб. многоголосый"
  ],
  "subtitle": [],
  "parts": []
}
