{
  "id": 37869,
  "name": "Любовь",
  "name_eng": "Issaq",
  "year": 2013,
  "slogan": "—",
  "age": null,
  "type": "film",
  "quality": "SD",
  "imdb": "4.5",
  "imdb_id": "2215163",
  "kinopoisk": null,
  "kinopoisk_id": "666927",
  "world_art": null,
  "world_art_id": null,
  "time": "148 мин. / 02:28",
  "ads": false,
  "premier": "2013-07-26",
  "premier_rus": "2013-07-27",
  "availability": "2013-07-28",
  "activate_time": "2020-10-14 10:48:00",
  "budget": null,
  "fees_use": null,
  "fees_world": null,
  "fees_rus": null,
  "rate_mpaa": null,
  "description": "История разворачивается в Банарасе и его районах, где правит песочная мафия и жестокость наксалитов. Песок не могут поделить две влиятельные семьи Банараси: Кашияпы и Мишра, их бессмысленная вражда губит членов их семей. У Кашияпа есть 18-летняя дочь, красивая и невинная Баччи от его первого брака. С другой стороны, сын Мишры, Рахул — красавец, увлеченный лишь девушками и оружием. Все меняется, когда Рахул и Баччи влюбляются друг в друга…",
  "iframe_url": "",
  "iframe_poster": null,
  "poster": "https://img.imgilall.me/movies/franchise/3/7/8/6/9/0/0/0/0/0/610x900_37869.jpg",
  "country": {
    "26": "Индия"
  },
  "collection": [],
  "genre": {
    "8": "Мелодрама",
    "7": "Драма"
  },
  "director": [
    "Маниш Тивари"
  ],
  "screenwriter": [
    "Паван Сони",
    "Padmaja Thakore",
    "Маниш Тивари"
  ],
  "producer": [
    "Дхавал Гада",
    "Шайлеш Р. Сингх",
    "Salim M. Deraiya"
  ],
  "operator": [
    "Вишал Синха"
  ],
  "composer": [
    "Сачин Гупта",
    "Прашант Пиллаи",
    "Сачин Сангхви"
  ],
  "design": [
    "Ашвини Шривастав",
    "Намрата Джани"
  ],
  "editor": [],
  "actors": [
    "Пратик Баббар",
    "Амира Дастур",
    "Рави Кишан",
    "Прашант Нараянан",
    "Раджешвари Сачдэв",
    "Нина Гупта",
    "Макранд Дешпандэ",
    "Винит Кумар",
    "Амит Сиал",
    "Прашант Кумар"
  ],
  "actors_dubl": [],
  "trivia": [],
  "trailers": [],
  "seasons": [],
  "voiceActing": [
    "Рус. Люб. многоголосый"
  ],
  "subtitle": [],
  "parts": []
}
