{
  "id": 37903,
  "name": "Разыскивается полицией",
  "name_eng": "Wang Jiao de tian kong",
  "year": 1995,
  "slogan": "«If you're an Undercover Cop, you go deep...or you get DEAD»",
  "age": null,
  "type": "film",
  "quality": "SD",
  "imdb": "6.4",
  "imdb_id": "0114891",
  "kinopoisk": null,
  "kinopoisk_id": "36857",
  "world_art": null,
  "world_art_id": null,
  "time": "92 мин. / 01:32",
  "ads": false,
  "premier": "1995-03-16",
  "premier_rus": "1995-03-17",
  "availability": "1995-03-18",
  "activate_time": "2020-10-12 13:41:00",
  "budget": null,
  "fees_use": null,
  "fees_world": null,
  "fees_rus": null,
  "rate_mpaa": null,
  "description": "После того как полицейского под прикрытием разоблачают, ему приходится в одиночку бросить вызов жестокому боссу триады.",
  "iframe_url": "",
  "iframe_poster": null,
  "poster": "https://img.imgilall.me/movies/franchise/3/7/9/0/3/0/0/0/0/0/610x900_37903.jpg",
  "country": {
    "12": "Гонконг"
  },
  "collection": [],
  "genre": {
    "25": "Криминал",
    "17": "Боевик",
    "7": "Драма"
  },
  "director": [
    "Бенни Чан"
  ],
  "screenwriter": [],
  "producer": [
    "Бенни Чан"
  ],
  "operator": [],
  "composer": [],
  "design": [],
  "editor": [
    "Чан Ки-Хоп",
    "Чак-Ман Чэн"
  ],
  "actors": [
    "Кеннет Чан",
    "Чери Чань",
    "Кристи Чунг",
    "Лау Ка-Ин",
    "Эйлин Танг",
    "Пакмен Вонг",
    "Саймон Ям",
    "Юй Жунгуан"
  ],
  "actors_dubl": [],
  "trivia": [],
  "trailers": [],
  "seasons": [],
  "voiceActing": [
    "Ю. Живов"
  ],
  "subtitle": [],
  "parts": []
}
