{
  "id": 37957,
  "name": "Чужаки в монастыре Шаолинь",
  "name_eng": "San chuang Shao Lin",
  "year": 1983,
  "slogan": "—",
  "age": null,
  "type": "film",
  "quality": "FHD (1080p)",
  "imdb": "7.1",
  "imdb_id": "0201060",
  "kinopoisk": null,
  "kinopoisk_id": "239501",
  "world_art": null,
  "world_art_id": null,
  "time": "86 мин. / 01:26",
  "ads": false,
  "premier": "1983-10-06",
  "premier_rus": "1983-10-07",
  "availability": "1983-10-08",
  "activate_time": "2020-10-12 06:48:00",
  "budget": "HK$ 3 440 390",
  "fees_use": null,
  "fees_world": null,
  "fees_rus": null,
  "rate_mpaa": null,
  "description": "При транспортировке драгоценностей был перебит клан «Золотой тигр». Следующим был истреблен клан «Ветер». На месте преступления обнаружены золотой нож, принадлежащей девушке из банды «6 демонов» Е Синьхуа, а также отпечатки ладоней Джинганг — фирменный прием монахов монастыря Шаолинь. Докопаться до истины, кто-же убийцы решают двое: игрок в азартные игры Сяо Юдуо и странствующий боец Лей Сюн...",
  "iframe_url": "",
  "iframe_poster": null,
  "poster": "https://img.imgilall.me/movies/franchise/3/7/9/5/7/0/0/0/0/0/610x900_37957.jpg",
  "country": {
    "12": "Гонконг"
  },
  "collection": [],
  "genre": {
    "17": "Боевик",
    "7": "Драма"
  },
  "director": [
    "Чиа Тан"
  ],
  "screenwriter": [
    "Ke Huang",
    "Юн Линг",
    "Ни Куан"
  ],
  "producer": [
    "Мона Фон",
    "Райли Ип"
  ],
  "operator": [
    "Хуи-Чи Цао"
  ],
  "composer": [
    "Стивен Син",
    "Чои Хао Со"
  ],
  "design": [
    "Чин-Шэнь Чен",
    "Kuang-Hsien Teng",
    "Bao-Ling Wu"
  ],
  "editor": [
    "Чук Мэн Чи",
    "Чунг Йиу Ма",
    "Шао Фенг Ю"
  ],
  "actors": [
    "Дерек И",
    "Джэйсон Пай",
    "Филлип Ко",
    "Юк Лау",
    "Ку Фэн",
    "Фэй Аи",
    "Квок Куэнь Чан",
    "Чань Шэнь",
    "Юнг Чан",
    "Куо Хуа Чанг"
  ],
  "actors_dubl": [],
  "trivia": [],
  "trailers": [],
  "seasons": [],
  "voiceActing": [
    "Diva Universal"
  ],
  "subtitle": [],
  "parts": []
}
