{
  "id": 37970,
  "name": "Юнсертейн",
  "name_eng": "Uncertain",
  "year": 2015,
  "slogan": "—",
  "age": null,
  "type": "film",
  "quality": "FHD (1080p)",
  "imdb": "7.2",
  "imdb_id": "2630352",
  "kinopoisk": null,
  "kinopoisk_id": "748886",
  "world_art": null,
  "world_art_id": null,
  "time": "82 мин. / 01:22",
  "ads": false,
  "premier": "2015-04-16",
  "premier_rus": "2015-04-17",
  "availability": "2015-04-18",
  "activate_time": "2020-10-12 07:13:00",
  "budget": null,
  "fees_use": "$29 736",
  "fees_world": null,
  "fees_rus": null,
  "rate_mpaa": null,
  "description": "Юнсертейн — город, расположенный на берегу озера Каддо в штате Техас на границе со штатом Луизиана. Городок с населением, едва достигающим 100 человек, является любимым местом туристов и рыболовов. Но Юнсертейн также полюбился беглецам из штата Луизиана, которые нарушили закон. В фильме демонстрируются красивейшие пейзажи тех мест, рассказывается о жителях городка и о серьёзной проблеме, с которой они столкнулись.",
  "iframe_url": "",
  "iframe_poster": null,
  "poster": "https://img.imgilall.me/movies/franchise/3/7/9/7/0/0/0/0/0/0/610x900_37970.jpg",
  "country": {
    "1": "США"
  },
  "collection": [],
  "genre": {
    "54": "Документальный",
    "19": "Комедия",
    "7": "Драма"
  },
  "director": [
    "Юэн Макникол",
    "Анна Сэндилэндс"
  ],
  "screenwriter": [
    "Юэн Макникол",
    "Анна Сэндилэндс"
  ],
  "producer": [
    "Юэн Макникол",
    "Эприл Ричардс",
    "Анна Сэндилэндс"
  ],
  "operator": [
    "Юэн Макникол"
  ],
  "composer": [
    "Дэниэл Харт"
  ],
  "design": [],
  "editor": [
    "Юэн Макникол",
    "Марко Перез"
  ],
  "actors": [],
  "actors_dubl": [],
  "trivia": [],
  "trailers": [],
  "seasons": [],
  "voiceActing": [
    "Важенин (BadBajo)"
  ],
  "subtitle": [],
  "parts": []
}
