{
  "id": 38066,
  "name": "Рам и Шиам",
  "name_eng": "Ram Aur Shyam",
  "year": 1967,
  "slogan": "—",
  "age": "12+",
  "type": "film",
  "quality": "SD",
  "imdb": "7.4",
  "imdb_id": "0062177",
  "kinopoisk": "6.1",
  "kinopoisk_id": "89585",
  "world_art": null,
  "world_art_id": null,
  "time": "171 мин. / 02:51",
  "ads": false,
  "premier": "1967-04-07",
  "premier_rus": "1967-04-08",
  "availability": "1967-04-09",
  "activate_time": "2020-10-12 14:09:00",
  "budget": null,
  "fees_use": null,
  "fees_world": null,
  "fees_rus": null,
  "rate_mpaa": null,
  "description": "Это история двух братьев-близнецов, разлученных в детстве. Являясь наследниками большого состояния, они жили в нищете, терпели унижения и издевательства. Только любовь братьев, их родственные узы помогут им спасти свою мать и обрести законное положение в обществе.",
  "iframe_url": "",
  "iframe_poster": null,
  "poster": "https://img.imgilall.me/movies/franchise/3/8/0/6/6/0/0/0/0/0/610x900_38066.jpg",
  "country": {
    "26": "Индия"
  },
  "collection": [],
  "genre": {
    "33": "Семейный",
    "19": "Комедия",
    "7": "Драма"
  },
  "director": [
    "Тапи Чанакья"
  ],
  "screenwriter": [
    "Нараса Раджу Д.В.",
    "Каушал БхарАти"
  ],
  "producer": [
    "Чакрапани",
    "Наги Редди"
  ],
  "operator": [
    "Маркус Бартли"
  ],
  "composer": [
    "Наушад"
  ],
  "design": [
    "С. Кришнарао"
  ],
  "editor": [
    "С.П. Джамбулингам"
  ],
  "actors": [
    "Дилип Кумар",
    "Вахида Рехман",
    "Мумтаз",
    "Баби Фарида",
    "Лаксми Чхая",
    "Лила Мишра",
    "Зебунисса",
    "Нирупа Рой",
    "Канхайялал Чатурведи",
    "Насир Хуссэйн"
  ],
  "actors_dubl": [
    "Всеволод Ларионов",
    "Капитолина Кузьмина",
    "Нелли Витепаш",
    "Нина Никитина",
    "Алексей Полевой"
  ],
  "trivia": [],
  "trailers": [],
  "seasons": [],
  "voiceActing": [
    "Diva Universal"
  ],
  "subtitle": [],
  "parts": []
}
