{
  "id": 38201,
  "name": "Огонь-свидетель",
  "name_eng": "Agni Sakshi",
  "year": 1996,
  "slogan": "—",
  "age": null,
  "type": "film",
  "quality": "SD",
  "imdb": "6.1",
  "imdb_id": "0115484",
  "kinopoisk": null,
  "kinopoisk_id": "36600",
  "world_art": null,
  "world_art_id": null,
  "time": "142 мин. / 02:22",
  "ads": false,
  "premier": "1996-03-15",
  "premier_rus": "1996-03-16",
  "availability": "1996-03-17",
  "activate_time": "2020-10-12 07:26:00",
  "budget": null,
  "fees_use": null,
  "fees_world": null,
  "fees_rus": null,
  "rate_mpaa": null,
  "description": "Наконец-то, женившийся владелец крупной группы промышленных компаний, Сурандж отправляется с молодой супругой Шубханги в свадебное путешествие. Но недолго длится их послесвадебная идиллия.Молодоженов начинает преследовать случайно повстречавшийся им в гостинице предприниматель Вишва-наф, утверждающий, что Шубханги его жена, пропавшая два года тому назад. Причём для такого утверждения он имеет достаточно веские аргументы.",
  "iframe_url": "",
  "iframe_poster": null,
  "poster": "https://img.imgilall.me/movies/franchise/3/8/2/0/1/0/0/0/0/0/610x900_38201.jpg",
  "country": {
    "26": "Индия"
  },
  "collection": [],
  "genre": {
    "38": "Мюзикл",
    "13": "Триллер",
    "8": "Мелодрама"
  },
  "director": [
    "Парто Гхош"
  ],
  "screenwriter": [
    "Ранбир Пушп",
    "Хридай Лани"
  ],
  "producer": [
    "Binda Thackeray",
    "Konark",
    "Prakalp"
  ],
  "operator": [
    "К.В. Раманна"
  ],
  "composer": [
    "Шраван Ратод",
    "Надим Саифи",
    "Нареш Шарма"
  ],
  "design": [
    "Радж Бехл",
    "Р. Верман Шетти",
    "Sahid Ankolkar"
  ],
  "editor": [
    "А.Р. Раджендран"
  ],
  "actors": [
    "Джеки Шрофф",
    "Нана Патекар",
    "Маниша Коирала",
    "Дивья Дутта",
    "Рави Бехл",
    "Алок Нат",
    "Аша Лата",
    "Суббирадж",
    "Автар Гилл",
    "Ачьют Потдар"
  ],
  "actors_dubl": [],
  "trivia": [],
  "trailers": [],
  "seasons": [],
  "voiceActing": [
    "Diva Universal"
  ],
  "subtitle": [],
  "parts": []
}
