{
  "id": 38211,
  "name": "Цветок и змея: Ноль",
  "name_eng": "Hana to hebi: Zero",
  "year": 2014,
  "slogan": "—",
  "age": null,
  "type": "film",
  "quality": "FHD (1080p)",
  "imdb": "4.8",
  "imdb_id": "3421616",
  "kinopoisk": "4.8",
  "kinopoisk_id": "826675",
  "world_art": null,
  "world_art_id": null,
  "time": "113 мин. / 01:53",
  "ads": false,
  "premier": "2014-05-17",
  "premier_rus": "2014-05-18",
  "availability": "2014-05-19",
  "activate_time": "2020-10-14 10:46:00",
  "budget": null,
  "fees_use": null,
  "fees_world": null,
  "fees_rus": null,
  "rate_mpaa": null,
  "description": "Мисаки Амемия, женщина-детектив, вступает в борьбу с подпольным сообществом. Банда похищает женщин и выкладывает мучения на закрытом сайте в прямом эфире. В расследовании она продвигается слишком далеко и сама попадает в ловушку.",
  "iframe_url": "",
  "iframe_poster": null,
  "poster": "https://img.imgilall.me/movies/franchise/3/8/2/1/1/0/0/0/0/0/610x900_38211.jpg",
  "country": {
    "18": "Япония"
  },
  "collection": [],
  "genre": {
    "13": "Триллер"
  },
  "director": [
    "Хадзимэ Хасимото"
  ],
  "screenwriter": [
    "Такэхико Минато",
    "Онироку Дан"
  ],
  "producer": [],
  "operator": [],
  "composer": [],
  "design": [],
  "editor": [],
  "actors": [
    "Маико Амано",
    "Норико Хамада",
    "Рина Сакураги",
    "Наоки Кавано",
    "Юити Кимура",
    "Хидэо Сакаки",
    "Даикити Сугавара",
    "Кандзи Цуда",
    "Юки Цудзимото"
  ],
  "actors_dubl": [],
  "trivia": [],
  "trailers": [],
  "seasons": [],
  "voiceActing": [
    "Рус. Люб. многоголосый"
  ],
  "subtitle": [],
  "parts": []
}
