{
  "id": 38234,
  "name": "Голубые молнии",
  "name_eng": "",
  "year": 1978,
  "slogan": "—",
  "age": "6+",
  "type": "film",
  "quality": "FHD (1080p)",
  "imdb": "4.9",
  "imdb_id": "0314112",
  "kinopoisk": "6.2",
  "kinopoisk_id": "44546",
  "world_art": null,
  "world_art_id": null,
  "time": "86 мин. / 01:26",
  "ads": false,
  "premier": null,
  "premier_rus": null,
  "availability": null,
  "activate_time": "2020-10-12 07:04:00",
  "budget": null,
  "fees_use": null,
  "fees_world": null,
  "fees_rus": null,
  "rate_mpaa": null,
  "description": "Юный столичный пижон, не поступив в престижный институт, оказался в армии. Более того, его призвали в десантные войска. И пришлось избалованному парню привыкать к совсем другой жизни, постигая нелегкую армейскую науку….",
  "iframe_url": "",
  "iframe_poster": null,
  "poster": "https://img.imgilall.me/movies/franchise/3/8/2/3/4/0/0/0/0/0/610x900_38234.jpg",
  "country": {
    "24": "СССР"
  },
  "collection": [],
  "genre": {
    "9": "Приключения",
    "7": "Драма"
  },
  "director": [
    "Исаак Шмарук"
  ],
  "screenwriter": [
    "Александр Кулешов",
    "Кирилл Рапопорт"
  ],
  "producer": [],
  "operator": [
    "Алексей Прокопенко"
  ],
  "composer": [
    "Леонид Афанасьев"
  ],
  "design": [
    "Владимир Агранов"
  ],
  "editor": [],
  "actors": [
    "Андрей Градов",
    "Ольга Жулина",
    "Сергей Подгорный",
    "Виктор Бутов",
    "Юрий Каморный",
    "Николай Воронин"
  ],
  "actors_dubl": [],
  "trivia": [],
  "trailers": [],
  "seasons": [],
  "voiceActing": [
    "Original"
  ],
  "subtitle": [],
  "parts": []
}
