{
  "id": 38482,
  "name": "Фернандо Торрес: последний символ",
  "name_eng": "Fernando Torres: El Último Símbolo",
  "year": 2020,
  "slogan": "",
  "age": null,
  "type": "film",
  "quality": "HD (720p)",
  "imdb": "7.4",
  "imdb_id": "11162304",
  "kinopoisk": null,
  "kinopoisk_id": null,
  "world_art": null,
  "world_art_id": null,
  "time": "",
  "ads": true,
  "premier": null,
  "premier_rus": null,
  "availability": null,
  "activate_time": "2020-10-12 13:16:00",
  "budget": "",
  "fees_use": "",
  "fees_world": "",
  "fees_rus": "",
  "rate_mpaa": "",
  "description": "Взгляд на жизнь и карьеру испанской звезды футбола Фернандо Торреса.\r\n",
  "iframe_url": "",
  "iframe_poster": null,
  "poster": "https://img.imgilall.me/movies/franchise/3/8/4/8/2/0/0/0/0/0/610x900_38482.jpg",
  "country": {
    "3": "Испания"
  },
  "collection": [],
  "genre": {
    "54": "Документальный"
  },
  "director": [
    ""
  ],
  "screenwriter": [],
  "producer": [],
  "operator": [],
  "composer": [],
  "design": [],
  "editor": [],
  "actors": [
    ""
  ],
  "actors_dubl": [],
  "trivia": [],
  "trailers": [],
  "seasons": [],
  "voiceActing": [
    "Рус. Проф. многоголосый"
  ],
  "subtitle": [],
  "parts": []
}
