{
  "id": 38556,
  "name": "Новый протокол",
  "name_eng": "Le nouveau protocole",
  "year": 2008,
  "slogan": "—",
  "age": null,
  "type": "film",
  "quality": "HD (720p)",
  "imdb": "6.1",
  "imdb_id": "0926763",
  "kinopoisk": "5.9",
  "kinopoisk_id": "276368",
  "world_art": null,
  "world_art_id": null,
  "time": "90 мин. / 01:30",
  "ads": false,
  "premier": "2008-03-19",
  "premier_rus": "2008-03-20",
  "availability": "2008-03-21",
  "activate_time": "2020-10-14 01:12:00",
  "budget": null,
  "fees_use": null,
  "fees_world": null,
  "fees_rus": null,
  "rate_mpaa": null,
  "description": "Однажды утром лесник Рауль Крафт узнает о смерти своего 18-летнего сына. Все очень похоже на элементарную автомобильную аварию, но тут из Парижа в провинцию приезжает Диана.Муж Дианы, подобно сыну Рауля, принимал участие в программе по проверке новых фармацевтических препаратов, и молодая женщина убеждена, что их родные погибли именно по этой причине. Крафт сначала не склонен так думать, однако решает все-таки приехать в столицу, где начинает собственное расследование. Истина превосходит все его самые худшие предположения…",
  "iframe_url": "",
  "iframe_poster": null,
  "poster": "https://img.imgilall.me/movies/franchise/3/8/5/5/6/0/0/0/0/0/610x900_38556.jpg",
  "country": {
    "9": "Франция"
  },
  "collection": [],
  "genre": {
    "24": "Детектив",
    "17": "Боевик",
    "13": "Триллер",
    "7": "Драма"
  },
  "director": [
    "Тома Венсан"
  ],
  "screenwriter": [
    "Эрик Беснард",
    "Тома Венсан"
  ],
  "producer": [
    "Эрик Альтмайер",
    "Николас Альтмайер"
  ],
  "operator": [
    "Доминик Буллере"
  ],
  "composer": [
    "Кришна Леви"
  ],
  "design": [
    "Пьер Кефлен",
    "Эмма Пуччи",
    "Селин Гиньяр"
  ],
  "editor": [
    "Полин Деру"
  ],
  "actors": [
    "Кловис Корнийяк",
    "Мари-Жозе Кроз",
    "Доминик Реймон",
    "Стефани Ийель",
    "Жиль Коэн",
    "Ксавьер Буланжер",
    "Фредерик Боке",
    "Сюзанн Воньен",
    "Кароль Ришер",
    "Жаннель"
  ],
  "actors_dubl": [],
  "trivia": [],
  "trailers": [],
  "seasons": [],
  "voiceActing": [
    "А. Дольский"
  ],
  "subtitle": [],
  "parts": []
}
