{
  "id": 38577,
  "name": "Вторая жена",
  "name_eng": "Souten",
  "year": 1983,
  "slogan": "—",
  "age": "16+",
  "type": "film",
  "quality": "SD",
  "imdb": "5.7",
  "imdb_id": "0348078",
  "kinopoisk": null,
  "kinopoisk_id": "254214",
  "world_art": null,
  "world_art_id": null,
  "time": "160 мин. / 02:40",
  "ads": false,
  "premier": "1983-06-03",
  "premier_rus": "1983-06-04",
  "availability": "1983-06-05",
  "activate_time": "2020-10-14 12:17:00",
  "budget": null,
  "fees_use": null,
  "fees_world": null,
  "fees_rus": null,
  "rate_mpaa": null,
  "description": "Однажды к бизнесмену подошел пожилой мужчина и попросил дать работу, потому что дома у него умирает от голода дочь — у них совсем нет денег. Он отличный бухгалтер, но его отказываются принимать на работу, потому что он из касты неприкасаемых. Парень  оказался добрым честным человеком, для которого важен сам человек, а не общественные ярлыки, и вскоре он убедился в правильности своего решения принять старика на работу...",
  "iframe_url": "",
  "iframe_poster": null,
  "poster": "https://img.imgilall.me/movies/franchise/3/8/5/7/7/0/0/0/0/0/610x900_38577.jpg",
  "country": {
    "26": "Индия"
  },
  "collection": [],
  "genre": {
    "38": "Мюзикл",
    "8": "Мелодрама",
    "7": "Драма"
  },
  "director": [
    "Саван Кумар Так"
  ],
  "screenwriter": [
    "Камлешвар",
    "Виджай Кол"
  ],
  "producer": [
    "Саван Кумар Так"
  ],
  "operator": [
    "Манмохан Сингх"
  ],
  "composer": [
    "Уша Ханна"
  ],
  "design": [
    "Т.К. Десаи"
  ],
  "editor": [
    "Дэвид Дхаван"
  ],
  "actors": [
    "Раджеш Кханна",
    "Тина Муним",
    "Падмини Колхапуре",
    "Прем Чопра",
    "Шрирам Лагу",
    "Шашикала",
    "Пран",
    "Виджай Арора",
    "Сатиендра Капур",
    "Рупеш Кумар"
  ],
  "actors_dubl": [],
  "trivia": [],
  "trailers": [],
  "seasons": [],
  "voiceActing": [
    "Diva Universal"
  ],
  "subtitle": [],
  "parts": []
}
