{
  "id": 3860,
  "name": "Холодное торжество",
  "name_eng": "Frozen Fever",
  "year": 2015,
  "slogan": null,
  "age": "6+",
  "type": "cartoon",
  "quality": "HD (720p)",
  "imdb": "6.9",
  "imdb_id": "4007502",
  "kinopoisk": "7.3",
  "kinopoisk_id": "842477",
  "world_art": null,
  "world_art_id": null,
  "time": "8 мин.",
  "ads": false,
  "premier": "2015-03-12",
  "premier_rus": "2015-03-12",
  "availability": null,
  "activate_time": "2018-11-23 11:19:30",
  "budget": null,
  "fees_use": null,
  "fees_world": null,
  "fees_rus": null,
  "rate_mpaa": "G",
  "description": "В день рождения Анны, Эльза и Кристофф полны решимости подарить ей лучший праздник, сделанный когда-либо, но ледяные силы Эльзы могут принести больше вреда, чем организация праздника.",
  "iframe_url": "",
  "iframe_poster": null,
  "poster": "https://img.imgilall.me/movies/franchise/3/8/6/0/0/0/0/0/0/0/610x900_3860.jpg",
  "country": {
    "1": "США"
  },
  "collection": [],
  "genre": {
    "9": "Приключения",
    "6": "Фэнтези",
    "53": "Короткометражный",
    "37": "Детский",
    "19": "Комедия",
    "10": "Зарубежный"
  },
  "director": [
    "Крис Бак",
    "Дженнифер Ли"
  ],
  "screenwriter": [
    "Крис Бак",
    "Дженнифер Ли",
    "Marc Smith"
  ],
  "producer": [
    "Питер Дель Вечо",
    "Джон Лассетер",
    "Айми Скрибнер"
  ],
  "operator": [],
  "composer": [
    "Кристоф Бек"
  ],
  "design": [
    "Майкл Джиаймо"
  ],
  "editor": [
    "Джефф Дрэхейм"
  ],
  "actors": [
    "Кристен Белл",
    "Идина Мензел",
    "Джонатан Грофф",
    "Джош Гад",
    "Сантино Фонтана",
    "Крис Уильямс",
    "Пол Бриггс",
    "Грэйс Кейплесс",
    "Ава ДеМэри",
    "Alexa Shae Niziak"
  ],
  "actors_dubl": [
    "Наталия Быстрова",
    "Анна Бутурлина",
    "Андрей Бирин",
    "Сергей Пенкин",
    "Алексей Фатеев"
  ],
  "trivia": [
    "В самом начале песни «Making Today a Perfect Day» можно уловить отрывок из «Life`s Too Short», песни, которая не вошла в компьютерный анимационный фильм «Холодное сердце» (2013) при окончательном монтаже.",
    "«Холодное торжество» (2015) стал вторым короткометражным мультфильмом «Walt Disney Animation Studios», ставший сиквелом полнометражного фильма. Первым была «Рапунцель: Счастлива навсегда» (2012), короткометражка, вышедшая на волне успеха полнометражного анимационного фильма «Рапунцель: Запутанная история» (2010).",
    "Мультфильм «Холодное торжество» дебютировал в кинотеатрах перед показом «Золушки» Кеннета Брана «(2015).",
    "За исключением Маршмеллоу, или Зефирки, которого в «Холодном сердце» (2013) озвучил Фред Татаскьор, всех остальных персонажей короткометражного мультфильма озвучили те же актёры, чьи голоса звучали в полнометражном приквеле.",
    "Впервые на экране будет петь Окен. В «Холодном сердце» (2013) он не пел.",
    "В честь выхода короткометражного мультфильма MMORPG-игра «Клуб Пингвинов» устроила «Вечеринку Холодного торжества», которая продолжалась с 23 апреля по 6 мая в режиме онлайн и по 20 мая в приложении «Клуба Пингвинов».",
    "Анна отмечает 19-й день рождения.",
    "В песне «Making Today a Perfect Day» есть ссылки на композиции из приквела «Холодное сердце» (2013). Слова Эльзы: «холод-то мне нипочём» перекликаются с композицией «Let It Go». Анна берёт сэндвич, что напоминает зрителю песню «Love Is an Open Door». Эпизод, в котором Эльза с Анной едут по замку на велосипеде, является ссылкой на композицию «Do You Want to Build a Snowman?»",
    "В начале фильма Эльза создаёт ледяную скульптуру, изображающую, как она обнимает застывшую Анну. Это произошло в конце мультфильма «Холодное сердце» (2013).",
    "В полнометражном мультфильме «Холодное сердце» (2013) показано, как Анна будит Эльзу. В сиквеле 2015 года уже Эльза будит Анну.",
    "В короткометражном сиквеле во вселенной «Холодного сердца» появляются новые персонажи — маленькие снеговички, которые появляются, когда Эльза чихает.",
    "Во время шутливого побоища за торт во дворе замка вдали можно заметить поздравительные открытки. При остановке просмотра в определённый момент буквы на них складываются в слова «hairy ant band» или «ансамбль волосатых муравьёв»."
  ],
  "trailers": [],
  "seasons": [],
  "voiceActing": [
    "Рус. Дублированный",
    "Рус. Одноголосый",
    "Eng.Original"
  ],
  "subtitle": [
    "Рус. полные"
  ],
  "parts": []
}
