{
  "id": 38801,
  "name": "Птичий праздник",
  "name_eng": "",
  "year": 1976,
  "slogan": "—",
  "age": null,
  "type": "cartoon",
  "quality": "SD",
  "imdb": "6.6",
  "imdb_id": "9100068",
  "kinopoisk": null,
  "kinopoisk_id": "574050",
  "world_art": null,
  "world_art_id": null,
  "time": "7 мин.",
  "ads": false,
  "premier": null,
  "premier_rus": null,
  "availability": null,
  "activate_time": "2020-10-14 07:03:00",
  "budget": null,
  "fees_use": null,
  "fees_world": null,
  "fees_rus": null,
  "rate_mpaa": null,
  "description": "По сказке Овсея Дриза о дружбе мальчика с птицами.",
  "iframe_url": "",
  "iframe_poster": null,
  "poster": "https://img.imgilall.me/movies/franchise/3/8/8/0/1/0/0/0/0/0/610x900_38801.jpg",
  "country": {
    "24": "СССР"
  },
  "collection": [],
  "genre": {
    "53": "Короткометражный"
  },
  "director": [
    "Анатолий Резников"
  ],
  "screenwriter": [
    "Генрих Сапгир"
  ],
  "producer": [],
  "operator": [
    "Эрнст Гаман"
  ],
  "composer": [],
  "design": [
    "Розалия Зельма"
  ],
  "editor": [],
  "actors": [],
  "actors_dubl": [],
  "trivia": [],
  "trailers": [],
  "seasons": [],
  "voiceActing": [
    "Original"
  ],
  "subtitle": [],
  "parts": []
}
