{
  "id": 39055,
  "name": "Кровавая разборка",
  "name_eng": "Lie xue feng yun",
  "year": 1988,
  "slogan": "—",
  "age": null,
  "type": "film",
  "quality": "SD",
  "imdb": "6.1",
  "imdb_id": "0100019",
  "kinopoisk": null,
  "kinopoisk_id": "196975",
  "world_art": null,
  "world_art_id": null,
  "time": "92 мин. / 01:32",
  "ads": false,
  "premier": "1988-05-12",
  "premier_rus": "1988-05-13",
  "availability": "1988-05-14",
  "activate_time": "2020-10-14 08:32:00",
  "budget": null,
  "fees_use": null,
  "fees_world": null,
  "fees_rus": null,
  "rate_mpaa": null,
  "description": "Кеунг – лучший киллер в международной организации убийц, возглавляемой мистером Чо (Чор Юэнь). Но во время своего последнего дела он случайно убил официантку и теперь решил отойти от дел. Услышав эту новость, мистер Чо приказывает своим людям убить Кеунга – правда, погибает в итоге не он, а его жена и сын. Теперь Кеунг пылает жаждой мести, а тем временем к мистеру Чо с другой стороны подбирается полицейский Фай – друг детства Кеунга.",
  "iframe_url": "",
  "iframe_poster": null,
  "poster": "https://img.imgilall.me/movies/franchise/3/9/0/5/5/0/0/0/0/0/610x900_39055.jpg",
  "country": {
    "12": "Гонконг"
  },
  "collection": [],
  "genre": {
    "17": "Боевик"
  },
  "director": [
    "Уилсон Тун"
  ],
  "screenwriter": [
    "Лаи Линг Чунг"
  ],
  "producer": [
    "Уилсон Тун"
  ],
  "operator": [
    "Tse-Jen Mo",
    "Чак Ян Мок"
  ],
  "composer": [
    "Тан Сиу-Лам"
  ],
  "design": [],
  "editor": [
    "Квок Куэнь Чунг"
  ],
  "actors": [
    "Норман Чу",
    "Гордон Лю",
    "Чан Вэй То",
    "Man-keung Cheung",
    "Бинг Чан Чунг",
    "Бин-Чуэн Чунг",
    "Чо Юэнь",
    "Фун Хак-Он",
    "Сан Нэм Хунг",
    "Квок Чин-Хун"
  ],
  "actors_dubl": [],
  "trivia": [],
  "trailers": [],
  "seasons": [],
  "voiceActing": [
    "Рус. Люб. одноголосый"
  ],
  "subtitle": [],
  "parts": []
}
