{
  "id": 39093,
  "name": "На границе (ТВ)",
  "name_eng": "On the Border",
  "year": 1998,
  "slogan": "«A bank robbery to die for»",
  "age": "16+",
  "type": "film",
  "quality": "FHD (1080p)",
  "imdb": "4.8",
  "imdb_id": "0126568",
  "kinopoisk": "5.3",
  "kinopoisk_id": "34315",
  "world_art": null,
  "world_art_id": null,
  "time": "103 мин. / 01:43",
  "ads": false,
  "premier": "1998-11-19",
  "premier_rus": "1998-11-20",
  "availability": "1998-11-21",
  "activate_time": "2020-10-14 11:02:00",
  "budget": "$3 000 000",
  "fees_use": null,
  "fees_world": null,
  "fees_rus": null,
  "rate_mpaa": "R",
  "description": "Владелец небольшого банка на мексиканской границе - Эд Грэнджер дает охраннику банка Джейку Барнсу дополнительной задание: выяснить, с кем ему изменяет жена.Джейк очень рисковал, так как именно он наставлял рога своему боссу. Больше того, любовники намеривались ограбить свой банк. Но дело было в том, что и этим банком, расположенном в тихом месте, и самим Джейком давно уже заинтересовались профессиональные грабители.",
  "iframe_url": "",
  "iframe_poster": null,
  "poster": "https://img.imgilall.me/movies/franchise/3/9/0/9/3/0/0/0/0/0/610x900_39093.jpg",
  "country": {
    "1": "США"
  },
  "collection": [],
  "genre": {
    "25": "Криминал",
    "13": "Триллер",
    "7": "Драма"
  },
  "director": [
    "Боб Мисиоровски"
  ],
  "screenwriter": [
    "Джош Олсон",
    "Боб Мисиоровски",
    "Кристофер Уэбстер"
  ],
  "producer": [
    "Родни Монтаг",
    "Кристофер Уэбстер",
    "Дэнни Димборт"
  ],
  "operator": [
    "Лоуренс Шер"
  ],
  "composer": [
    "Серж Колбер"
  ],
  "design": [
    "Дон Дэй",
    "Камилль Жумель",
    "Джоэнн Бэйкер"
  ],
  "editor": [
    "Ален Якубович"
  ],
  "actors": [
    "Каспер Ван Дин",
    "Брайан Браун",
    "Дэниэл Болдуин",
    "Рошелль Суонсон",
    "Камилла Овербай Рус",
    "Педро Армендарис мл.",
    "Хайди Джо Маркел",
    "Бентли Митчем",
    "Джон Бишоп",
    "Бриджет Уилкс"
  ],
  "actors_dubl": [],
  "trivia": [],
  "trailers": [],
  "seasons": [],
  "voiceActing": [
    "Diva Universal"
  ],
  "subtitle": [],
  "parts": []
}
