{
  "id": 39106,
  "name": "Входят орлы",
  "name_eng": "Hun shen shi dan",
  "year": 1998,
  "slogan": "—",
  "age": null,
  "type": "film",
  "quality": "SD",
  "imdb": "6.1",
  "imdb_id": "0169863",
  "kinopoisk": "6.6",
  "kinopoisk_id": "36954",
  "world_art": null,
  "world_art_id": null,
  "time": "95 мин. / 01:35",
  "ads": false,
  "premier": "1998-10-15",
  "premier_rus": "1998-10-16",
  "availability": "1998-10-17",
  "activate_time": "2020-10-14 13:04:00",
  "budget": null,
  "fees_use": null,
  "fees_world": null,
  "fees_rus": null,
  "rate_mpaa": null,
  "description": "В музее Праги выставляется бриллиант «Царская призма». Международный аферист Карлоф заказывает украсть его банде Марти. Но его людей опережает парочка карманников китайцев - Томми и Люси. Томми попадает в полицию, а Люси оказывается в группе Марти, ее берет под свою опеку сестра погибшей жены Мартина - Мэнди. \r\rВ крутых разборках с погонями и перестрелками Томми погибает. Люси, Мэнди и Марти мстят убийцам и забирают бриллиант. Марти погибает, освобождая Люси и Мэнди. Разбогатевшие дамочки решают завязать с криминалом и начать новую жизнь…",
  "iframe_url": "",
  "iframe_poster": null,
  "poster": "https://img.imgilall.me/movies/franchise/3/9/1/0/6/0/0/0/0/0/610x900_39106.jpg",
  "country": {
    "12": "Гонконг"
  },
  "collection": [],
  "genre": {
    "17": "Боевик"
  },
  "director": [
    "Кори Юэнь"
  ],
  "screenwriter": [
    "Джеффри Лау"
  ],
  "producer": [
    "Дэвид Чань",
    "Леонард Хо",
    "Tze Hung Lam"
  ],
  "operator": [
    "Чун Мань-По"
  ],
  "composer": [
    "Питер Кам"
  ],
  "design": [
    "Джан Менг Фенг"
  ],
  "editor": [
    "Мей Фенг"
  ],
  "actors": [
    "Шеннон Ли",
    "Майкл Вон",
    "Анита Юэнь",
    "Джордан Чан",
    "Бенни Уркидеc",
    "Дж.Дж. Перри",
    "Майкл Йен Ламберт",
    "Майк Эбботт",
    "Рикардо Александр",
    "Leila Azari"
  ],
  "actors_dubl": [],
  "trivia": [],
  "trailers": [],
  "seasons": [],
  "voiceActing": [
    "Diva Universal"
  ],
  "subtitle": [],
  "parts": []
}
