{
  "id": 39132,
  "name": "Мальчики святого Винсента (ТВ)",
  "name_eng": "The Boys of St. Vincent",
  "year": 1992,
  "slogan": "—",
  "age": "18+",
  "type": "film",
  "quality": "FHD (1080p)",
  "imdb": "7.6",
  "imdb_id": "0106473",
  "kinopoisk": "6.2",
  "kinopoisk_id": "330819",
  "world_art": null,
  "world_art_id": null,
  "time": "90 мин. / 01:30",
  "ads": false,
  "premier": "1992-12-06",
  "premier_rus": "1992-12-07",
  "availability": "1992-12-08",
  "activate_time": "2020-10-14 09:47:00",
  "budget": null,
  "fees_use": "$204 540",
  "fees_world": null,
  "fees_rus": null,
  "rate_mpaa": null,
  "description": "В фильме показывается жизнь католического приюта для мальчиков в середине 70-х годов XX века. Для наставника и руководителя приюта Питера Лэйвина забота о мальчиках — навязанное и нелюбимое занятие, и, что хуже всего, он использует детей, чтобы удовлетворять свои сексуальные желания. И так поступает не только он, но и другие представители взрослого коллектива приюта.",
  "iframe_url": "",
  "iframe_poster": null,
  "poster": "https://img.imgilall.me/movies/franchise/3/9/1/3/2/0/0/0/0/0/610x900_39132.jpg",
  "country": {
    "7": "Канада"
  },
  "collection": [],
  "genre": {
    "7": "Драма"
  },
  "director": [
    "Джон Н. Смит"
  ],
  "screenwriter": [
    "Дес Уолш",
    "Джон Н. Смит",
    "Сэм Грана"
  ],
  "producer": [
    "Сэм Грана",
    "Мартин Аллард",
    "Клаудио Люка"
  ],
  "operator": [
    "Пьер Летар"
  ],
  "composer": [
    "Нил Смолар"
  ],
  "design": [
    "Реал Уеллетт",
    "Дэнис Спердуклис",
    "Клер Алари"
  ],
  "editor": [
    "Вернер Ноулд"
  ],
  "actors": [
    "Генри Черни",
    "Джонни Морина",
    "Брайан Дули",
    "Филип Динн",
    "Брайан Додд",
    "Эшли Биллар",
    "Джереми Киф",
    "Джонатан Льюис",
    "Michael Wade",
    "Грег Томи"
  ],
  "actors_dubl": [],
  "trivia": [],
  "trailers": [],
  "seasons": [],
  "voiceActing": [
    "С. Кузнецов"
  ],
  "subtitle": [],
  "parts": []
}
