{
  "id": 39209,
  "name": "Солдатский долг",
  "name_eng": "",
  "year": 1988,
  "slogan": "—",
  "age": null,
  "type": "cartoon",
  "quality": "SD",
  "imdb": null,
  "imdb_id": null,
  "kinopoisk": null,
  "kinopoisk_id": "581497",
  "world_art": null,
  "world_art_id": null,
  "time": "16 мин.",
  "ads": false,
  "premier": null,
  "premier_rus": null,
  "availability": null,
  "activate_time": "2020-10-14 04:50:00",
  "budget": null,
  "fees_use": null,
  "fees_world": null,
  "fees_rus": null,
  "rate_mpaa": null,
  "description": "По мотивам русских народных сказок о Петре Первом и его верном солдате.",
  "iframe_url": "",
  "iframe_poster": null,
  "poster": "https://img.imgilall.me/movies/franchise/3/9/2/0/9/0/0/0/0/0/610x900_39209.jpg",
  "country": {
    "24": "СССР"
  },
  "collection": [],
  "genre": {
    "53": "Короткометражный"
  },
  "director": [
    "Юрий Трофимов"
  ],
  "screenwriter": [
    "Вадим Курчевский"
  ],
  "producer": [],
  "operator": [
    "Евгений Туревич"
  ],
  "composer": [
    "Владимир Дашкевич"
  ],
  "design": [
    "Юрий Трофимов",
    "Ольга Усачева"
  ],
  "editor": [
    "Татьяна Моргунова"
  ],
  "actors": [],
  "actors_dubl": [],
  "trivia": [],
  "trailers": [],
  "seasons": [],
  "voiceActing": [
    "Original"
  ],
  "subtitle": [],
  "parts": []
}
