{
  "id": 39205,
  "name": "При исполнении 6: Тайный арсенал",
  "name_eng": "Di xia bing gong chang",
  "year": 1991,
  "slogan": "—",
  "age": "18+",
  "type": "film",
  "quality": "SD",
  "imdb": "5.7",
  "imdb_id": "0101723",
  "kinopoisk": null,
  "kinopoisk_id": "60989",
  "world_art": null,
  "world_art_id": null,
  "time": "92 мин. / 01:32",
  "ads": false,
  "premier": "1991-05-30",
  "premier_rus": "1991-05-31",
  "availability": "1991-06-01",
  "activate_time": "2020-10-14 05:51:00",
  "budget": null,
  "fees_use": null,
  "fees_world": null,
  "fees_rus": null,
  "rate_mpaa": null,
  "description": "Гонконгская полицейская объединяется с двумя другими полицейскими, один из Тайваня, а другой с материкового Китая, чтобы обезвредить опасный синдикат, нелегально производящий и продающий оружие.",
  "iframe_url": "",
  "iframe_poster": null,
  "poster": "https://img.imgilall.me/movies/franchise/3/9/2/0/5/0/0/0/0/0/610x900_39205.jpg",
  "country": {
    "12": "Гонконг"
  },
  "collection": [],
  "genre": {
    "17": "Боевик"
  },
  "director": [
    "Алан Чэн",
    "Чун-Мэн Юэнь"
  ],
  "screenwriter": [
    "Тони Люн Хун-Ва",
    "Патрик Юэнь Юк-Гвонг"
  ],
  "producer": [
    "Стефен Шин"
  ],
  "operator": [
    "Ко Чиу-Лам"
  ],
  "composer": [
    "Бон Вонг"
  ],
  "design": [
    "Оливер Вонг"
  ],
  "editor": [
    "Bo Ho Editors Group"
  ],
  "actors": [
    "Синтия Хан",
    "Уайз Ли",
    "Гари Чоу",
    "Робин Шоу",
    "Лолетта Ли",
    "То Сиу-Чунь",
    "Хуэй Сиу-Хун",
    "Филип Квок",
    "Цэ Вай-Кит",
    "Юк-Сан Чунг"
  ],
  "actors_dubl": [],
  "trivia": [],
  "trailers": [],
  "seasons": [],
  "voiceActing": [
    "Рус. Одноголосый"
  ],
  "subtitle": [],
  "parts": []
}
