{
  "id": 39208,
  "name": "Ответ",
  "name_eng": "The Answer",
  "year": 2015,
  "slogan": "—",
  "age": null,
  "type": "film",
  "quality": "HD (720p)",
  "imdb": "6.3",
  "imdb_id": "3197802",
  "kinopoisk": null,
  "kinopoisk_id": "801335",
  "world_art": null,
  "world_art_id": null,
  "time": "108 мин. / 01:48",
  "ads": false,
  "premier": "2015-09-20",
  "premier_rus": "2015-09-21",
  "availability": "2015-09-22",
  "activate_time": "2020-10-14 08:36:00",
  "budget": null,
  "fees_use": null,
  "fees_world": null,
  "fees_rus": null,
  "rate_mpaa": null,
  "description": null,
  "iframe_url": "",
  "iframe_poster": null,
  "poster": "https://img.imgilall.me/movies/franchise/3/9/2/0/8/0/0/0/0/0/610x900_39208.jpg",
  "country": {
    "26": "Индия"
  },
  "collection": [],
  "genre": {
    "33": "Семейный",
    "28": "Исторический",
    "27": "Биографический"
  },
  "director": [
    "Паван Кол"
  ],
  "screenwriter": [
    "Swami Kriyananda"
  ],
  "producer": [
    "Kaveeta OBEROI Kaul",
    "Сунил Садарангани",
    "Alexis Varouxakis"
  ],
  "operator": [
    "Хироо Кешвани"
  ],
  "composer": [],
  "design": [
    "Xylon Jones",
    "Тодд Забо",
    "Marlayna Cherisse"
  ],
  "editor": [
    "Асим Синха"
  ],
  "actors": [
    "Леонидас Гулаптис",
    "Виктор Банерджи",
    "Davin Attia",
    "Jyotish Atwell",
    "Фредрик Р. Брески",
    "Аура Каларашу",
    "Джули Дэниелс",
    "Kevin Gance",
    "Джозеф Майкл Харрис",
    "Мириам Харрис"
  ],
  "actors_dubl": [],
  "trivia": [],
  "trailers": [],
  "seasons": [],
  "voiceActing": [
    "Рус. Люб. многоголосый"
  ],
  "subtitle": [],
  "parts": []
}
