{
  "id": 39220,
  "name": "Волки",
  "name_eng": "Shussho Iwai",
  "year": 1971,
  "slogan": "—",
  "age": null,
  "type": "film",
  "quality": "FHD (1080p)",
  "imdb": "7.2",
  "imdb_id": "0069266",
  "kinopoisk": "6.8",
  "kinopoisk_id": "199518",
  "world_art": null,
  "world_art_id": null,
  "time": "131 мин. / 02:11",
  "ads": false,
  "premier": "1971-10-30",
  "premier_rus": "1971-10-31",
  "availability": "1971-11-01",
  "activate_time": "2020-10-14 12:21:00",
  "budget": null,
  "fees_use": null,
  "fees_world": null,
  "fees_rus": null,
  "rate_mpaa": null,
  "description": "В 1928 году в честь восшествия на престол императора Хирохито в Японии была объявлена тотальная амнистия. Сотни опасных головорезов, обреченных по приговору суда гнить в тюремных застенках на протяжении долгих десятилетий, были выпущены на свободу и смогли вернуться в свои родные места. Для одних эта неожиданная свобода стала счастьем, для других — настоящим проклятием.Сэйдзи Ивахаси из клана Энокия получил десять лет за убийство босса клана Канно. Вернувшись после амнистии домой, он обнаруживает, что за время его отсутствия новый босс Канно полностью подмял под себя клан Энокия. Сэйдзи прекрасно понимает, что уже давно не принадлежит этому кругу и его возвращения никто не ждал. Он осознает, что ему нужно побыстрее собирать вещи и ехать в Маньчжурию воплощать свои мечты о мирной жизни. Но честь не позволяет Сэйдзи сделать это.",
  "iframe_url": "",
  "iframe_poster": null,
  "poster": "https://img.imgilall.me/movies/franchise/3/9/2/2/0/0/0/0/0/0/610x900_39220.jpg",
  "country": {
    "18": "Япония"
  },
  "collection": [],
  "genre": {
    "25": "Криминал",
    "7": "Драма"
  },
  "director": [
    "Хидэо Гося"
  ],
  "screenwriter": [
    "Хидэо Гося",
    "Кэи Тасака"
  ],
  "producer": [
    "Санэдзуми Фудзимото",
    "Масаюки Сато",
    "Хидэюки Сиино"
  ],
  "operator": [
    "Кодзо Окадзаки"
  ],
  "composer": [
    "Масару Сато"
  ],
  "design": [
    "Мотодзи Кодзима"
  ],
  "editor": [
    "Митио Сува"
  ],
  "actors": [
    "Тацуя Накадаи",
    "Нобору Андо",
    "Комаки Курихара",
    "Кёко Энами",
    "Тосио Куросава",
    "Исао Нацуяги",
    "Куниэ Танака",
    "Хироси Танака",
    "Хироси Хасэгава",
    "Кёити Сато"
  ],
  "actors_dubl": [],
  "trivia": [],
  "trailers": [],
  "seasons": [],
  "voiceActing": [
    "С. Кузнецов"
  ],
  "subtitle": [],
  "parts": []
}
