{
  "id": 39378,
  "name": "Пересечение",
  "name_eng": "Keurosing",
  "year": 2008,
  "slogan": "—",
  "age": null,
  "type": "film",
  "quality": "FHD (1080p)",
  "imdb": "7.6",
  "imdb_id": "1133922",
  "kinopoisk": "7.7",
  "kinopoisk_id": "411968",
  "world_art": null,
  "world_art_id": null,
  "time": "106 мин. / 01:46",
  "ads": false,
  "premier": "2008-06-05",
  "premier_rus": "2008-06-06",
  "availability": "2008-06-07",
  "activate_time": "2020-10-14 04:58:00",
  "budget": null,
  "fees_use": null,
  "fees_world": "$5 419 301",
  "fees_rus": null,
  "rate_mpaa": null,
  "description": "Ён-су живёт в шахтёрском посёлке в Северной Корее вместе с женой и маленьким сыном. И хотя семья крайне нуждалась, они были счастливы тем, что имели, пока беременная жена не заболела туберкулёзом. В своей стране Ён-су не только не мог купить лекарство, но даже не в силах был накормить свою семью. Находясь в безвыходной ситуации, он решается бежать в Китай, чтобы заработать немного денег.",
  "iframe_url": "",
  "iframe_poster": null,
  "poster": "https://img.imgilall.me/movies/franchise/3/9/3/7/8/0/0/0/0/0/610x900_39378.jpg",
  "country": {
    "16": "Корея Южная"
  },
  "collection": [],
  "genre": {
    "7": "Драма"
  },
  "director": [
    "Ким Тхэ-гюн"
  ],
  "screenwriter": [
    "Ли Ю-джин"
  ],
  "producer": [
    "Хон Джи-ён",
    "Патрик Д. Че",
    "Чхон Ыи-Сок"
  ],
  "operator": [
    "Чон Хан-чхоль"
  ],
  "composer": [
    "Ким Тхэ-сон"
  ],
  "design": [
    "Ким Хён-ок",
    "Ким Джон-вон",
    "О Сан-джин"
  ],
  "editor": [
    "Ко Им-пхё"
  ],
  "actors": [
    "Чха Ин-пхё",
    "Щин Мён-чхоль",
    "Со Ён-хва",
    "Чон Ин-ги",
    "Чу Да-ён",
    "Сан-хо Ли",
    "Чон Мин-сон",
    "Тхэ Ин-хо",
    "Чон Бэ-су",
    "Чо Джэ-рён"
  ],
  "actors_dubl": [],
  "trivia": [],
  "trailers": [],
  "seasons": [],
  "voiceActing": [
    "Рус. Люб. одноголосый"
  ],
  "subtitle": [],
  "parts": []
}
