{
  "id": 39597,
  "name": "Вечеринка",
  "name_eng": "Swing",
  "year": 2018,
  "slogan": "—",
  "age": null,
  "type": "film",
  "quality": "HD (720p)",
  "imdb": "5.3",
  "imdb_id": "7147414",
  "kinopoisk": null,
  "kinopoisk_id": "1091545",
  "world_art": null,
  "world_art_id": null,
  "time": "104 мин. / 01:44",
  "ads": true,
  "premier": "2018-04-13",
  "premier_rus": "2018-04-14",
  "availability": "2018-04-15",
  "activate_time": "2020-10-20 13:15:00",
  "budget": "",
  "fees_use": "",
  "fees_world": "",
  "fees_rus": "",
  "rate_mpaa": "",
  "description": "Одним вечером компания изрядно выпивших друзей решает устроить секс-вечеринку и поменяться партнёрами. Впоследствии они перестают общаться, но ситуация осложняется тем, что одна из девушек забеременела в тот день.",
  "iframe_url": "",
  "iframe_poster": null,
  "poster": "https://img.imgilall.me/movies/franchise/3/9/5/9/7/0/0/0/0/0/610x900_39597.jpg",
  "country": {
    "54": "Чили"
  },
  "collection": [],
  "genre": {
    "19": "Комедия"
  },
  "director": [
    "Luis Smok"
  ],
  "screenwriter": [
    "Luis Smok"
  ],
  "producer": [
    "Luis Smok",
    "Silvina Dell Occhio",
    "Cynthia García Calvo"
  ],
  "operator": [
    "Jonathan Maldonado"
  ],
  "composer": [
    "Laurent Apffel"
  ],
  "design": [
    "Клаудия Галлардо",
    "Себастьян Муньос"
  ],
  "editor": [
    "Роберто Доверис"
  ],
  "actors": [
    "Элиза Сулуэта",
    "Эктор Моралес",
    "Даниэла Рамирес",
    "Тьяго Корреа",
    "Silvina Dell Occhio",
    "Кока Гуаццини",
    "Koke Santa Ana",
    "Алехандро Трехо",
    "Хосефина Веласко",
    "Федра Вергара"
  ],
  "actors_dubl": [],
  "trivia": [],
  "trailers": [],
  "seasons": [],
  "voiceActing": [
    "Рус. Люб. многоголосый"
  ],
  "subtitle": [],
  "parts": []
}
