{
  "id": 39683,
  "name": "Сезон охоты",
  "name_eng": "Jagtsæson",
  "year": 2019,
  "slogan": "—",
  "age": null,
  "type": "film",
  "quality": "FHD (1080p)",
  "imdb": "4.9",
  "imdb_id": "10006270",
  "kinopoisk": null,
  "kinopoisk_id": "1246523",
  "world_art": null,
  "world_art_id": null,
  "time": "92 мин. / 01:32",
  "ads": true,
  "premier": "2019-10-03",
  "premier_rus": "2019-10-04",
  "availability": "2019-10-05",
  "activate_time": "2020-10-22 22:19:00",
  "budget": "",
  "fees_use": "",
  "fees_world": "",
  "fees_rus": "",
  "rate_mpaa": "",
  "description": "Ева переживает кризис среднего возраста. Причина одна - муж ушёл к молодой успешной девушке, которую, кажется, любят все - и сын Евы, и даже её лучшая подруга Марлен. Сможет ли героиня вернуть гармонию и душевный покой?",
  "iframe_url": "",
  "iframe_poster": null,
  "poster": "https://img.imgilall.me/movies/franchise/3/9/6/8/3/0/0/0/0/0/610x900_39683.jpg",
  "country": {
    "25": "Дания"
  },
  "collection": [],
  "genre": {
    "19": "Комедия"
  },
  "director": [
    "Тильде Харкамп"
  ],
  "screenwriter": [
    "Клаудиа Бодерке",
    "Ларс Меринг"
  ],
  "producer": [
    "Laura Frederikke Kragholm",
    "Томас Радур",
    "Søren Frimodt-Møller"
  ],
  "operator": [
    "Нильс Хансен"
  ],
  "composer": [
    "Йеппе Кос"
  ],
  "design": [
    "Трине Падмо Олсен"
  ],
  "editor": [
    "Аня Фарсиг",
    "Май Тордал"
  ],
  "actors": [
    "Расмус Ботофт",
    "Mathias Bøgelund",
    "Милле Динесен",
    "Lennart Falk",
    "Ладо Хаджич",
    "Кристиан Халкен",
    "Стине Хольм Джонсен",
    "Мортен Броун Йоргенсон",
    "Томми Кентер",
    "Йон Ланге"
  ],
  "actors_dubl": [],
  "trivia": [],
  "trailers": [],
  "seasons": [],
  "voiceActing": [
    "Рус. Люб. многоголосый"
  ],
  "subtitle": [],
  "parts": []
}
