{
  "id": 39855,
  "name": "Музыка и убийство",
  "name_eng": "Music & Murder",
  "year": 2016,
  "slogan": "«Murder was the Case that they gave her»",
  "age": null,
  "type": "series",
  "quality": "HD (720p)",
  "imdb": "8.3",
  "imdb_id": "5881896",
  "kinopoisk": null,
  "kinopoisk_id": "996254",
  "world_art": null,
  "world_art_id": null,
  "time": "—",
  "ads": true,
  "premier": "2016-09-19",
  "premier_rus": "2016-09-20",
  "availability": "2016-09-21",
  "serial_status": "offline",
  "activate_time": "2020-10-30 11:21:00",
  "budget": "$50 000",
  "fees_use": null,
  "fees_world": null,
  "fees_rus": null,
  "rate_mpaa": null,
  "description": null,
  "iframe_url": "",
  "poster": "https://img.imgilall.me/movies/franchise/3/9/8/5/5/0/0/0/0/0/610x900_39855.jpg",
  "country": {
    "1": "США"
  },
  "collection": [],
  "genre": {
    "7": "Драма"
  },
  "director": [
    "Грег Гэлловэй"
  ],
  "screenwriter": [
    "Грег Гэлловэй",
    "Azure Steel Waters",
    "Ranelle Golden"
  ],
  "producer": [
    "Desiree Galloway",
    "Грег Гэлловэй",
    "Ray Hoke"
  ],
  "operator": [
    "Steve Turner"
  ],
  "composer": [
    "Vincent Levy Bryant"
  ],
  "design": [
    "Terre S. Carter"
  ],
  "editor": [
    "Грег Гэлловэй"
  ],
  "actors": [
    "Майк Рэй Андерсон",
    "Дженнифер Ансари",
    "Johnna Jeong",
    "Jeannine Oliver",
    "Sy Sayonara",
    "Mo Clark",
    "Тони Скотт",
    "Haley Eisenhower",
    "Brian Childers",
    "Volnerius Rackley"
  ],
  "actors_dubl": [],
  "trivia": [],
  "trailers": [],
  "seasons": [
    {
      "poster": null,
      "release_ru": null,
      "release_world": null,
      "availability": null,
      "iframe_url": "",
      "season": 1,
      "episodes": [
        {
          "episode": 1,
          "name": null,
          "iframe_url": "",
          "iframe_poster": null,
          "release_ru": null,
          "release_world": null,
          "availability": null,
          "voiceActing": [
            "WestFilm"
          ],
          "ads": true,
          "subtitle": []
        },
        {
          "episode": 2,
          "name": null,
          "iframe_url": "",
          "iframe_poster": null,
          "release_ru": null,
          "release_world": null,
          "availability": null,
          "voiceActing": [
            "WestFilm"
          ],
          "ads": true,
          "subtitle": []
        },
        {
          "episode": 3,
          "name": null,
          "iframe_url": "",
          "iframe_poster": null,
          "release_ru": null,
          "release_world": null,
          "availability": null,
          "voiceActing": [
            "WestFilm"
          ],
          "ads": true,
          "subtitle": []
        },
        {
          "episode": 4,
          "name": null,
          "iframe_url": "",
          "iframe_poster": null,
          "release_ru": null,
          "release_world": null,
          "availability": null,
          "voiceActing": [
            "WestFilm"
          ],
          "ads": true,
          "subtitle": []
        }
      ]
    }
  ],
  "voiceActing": [
    "WestFilm"
  ],
  "subtitle": [],
  "parts": []
}
