{
  "id": 39935,
  "name": "Она носила желтую ленту",
  "name_eng": "She Wore a Yellow Ribbon",
  "year": 1949,
  "slogan": "«JOHN WAYNE'S GREATEST ROLE»",
  "age": "12+",
  "type": "film",
  "quality": "HD (720p)",
  "imdb": "7.3",
  "imdb_id": "0041866",
  "kinopoisk": "6.7",
  "kinopoisk_id": "1373",
  "world_art": null,
  "world_art_id": null,
  "time": "104 мин. / 01:44",
  "ads": false,
  "premier": "1949-07-26",
  "premier_rus": "1949-07-27",
  "availability": "1949-07-28",
  "activate_time": "2020-10-30 18:34:00",
  "budget": "$1 600 000",
  "fees_use": null,
  "fees_world": null,
  "fees_rus": null,
  "rate_mpaa": null,
  "description": "Капитан Нэйтан Бриттлс, кавалерийский офицер, дослуживает последние дни перед вынужденной отставкой. Он получает задание сопроводить двух женщин Оливию и Эбби из форта в местечко Садроу Уоллс, где они должны сесть на дилижанс. В это время местные индейцы, жаждущие отмщения за поражение в недавней схватке с бледнолицыми, вновь встают на тропу войны...",
  "iframe_url": "",
  "iframe_poster": null,
  "poster": "https://img.imgilall.me/movies/franchise/3/9/9/3/5/0/0/0/0/0/610x900_39935.jpg",
  "country": {
    "1": "США"
  },
  "collection": [],
  "genre": {
    "29": "Вестерн"
  },
  "director": [
    "Джон Форд"
  ],
  "screenwriter": [
    "Джеймс Уорнер Белла",
    "Фрэнк С. Наджент",
    "Лоуренс Сталлингс"
  ],
  "producer": [
    "Мериан К. Купер",
    "Лоуелл Дж. Фаррелл",
    "Джон Форд"
  ],
  "operator": [
    "Уинтон С. Хоч"
  ],
  "composer": [
    "Ричард Хейгмен"
  ],
  "design": [
    "Джеймс Басеви",
    "Джозеф Киш"
  ],
  "editor": [
    "Джек Мюррэй"
  ],
  "actors": [
    "Джон Уэйн",
    "Джоэнн Дрю",
    "Джон Агар",
    "Бен Джонсон",
    "Гарри Кэри мл.",
    "Виктор МакЛаглен",
    "Милдред Нэтвик",
    "Джордж О’Брайен",
    "Артур Шилдс",
    "Майкл Дуган"
  ],
  "actors_dubl": [],
  "trivia": [],
  "trailers": [],
  "seasons": [],
  "voiceActing": [
    "Рус. Проф. многоголосый"
  ],
  "subtitle": [],
  "parts": []
}
