{
  "id": 40033,
  "name": "Boots on the Ground",
  "name_eng": "",
  "year": 2017,
  "slogan": "—",
  "age": null,
  "type": "film",
  "quality": "HD (720p)",
  "imdb": "3.6",
  "imdb_id": "3494610",
  "kinopoisk": null,
  "kinopoisk_id": "992143",
  "world_art": null,
  "world_art_id": null,
  "time": "86 мин. / 01:26",
  "ads": false,
  "premier": "2017-08-26",
  "premier_rus": "2017-08-27",
  "availability": "2017-08-28",
  "activate_time": "2020-10-31 06:38:00",
  "budget": null,
  "fees_use": null,
  "fees_world": null,
  "fees_rus": null,
  "rate_mpaa": null,
  "description": null,
  "iframe_url": "",
  "iframe_poster": null,
  "poster": "https://img.imgilall.me/movies/franchise/4/0/0/3/3/0/0/0/0/0/610x900_40033.jpg",
  "country": {
    "2": "Великобритания"
  },
  "collection": [],
  "genre": {
    "26": "Ужасы"
  },
  "director": [
    "Луис Мелвилл"
  ],
  "screenwriter": [
    "Луис Мелвилл"
  ],
  "producer": [
    "Алекс Френсис",
    "Луис Мелвилл",
    "Alistair Kennedy"
  ],
  "operator": [
    "Бойд Скиннер"
  ],
  "composer": [],
  "design": [
    "Stephen Matthews"
  ],
  "editor": [
    "Лукас Рош"
  ],
  "actors": [
    "Том Эйнсли",
    "Йен Вирго",
    "Райан МакПарланд",
    "Valmiky Rampersad",
    "Sally Day",
    "Victoria Hannent"
  ],
  "actors_dubl": [],
  "trivia": [],
  "trailers": [],
  "seasons": [],
  "voiceActing": [
    "Рус. Люб. многоголосый"
  ],
  "subtitle": [],
  "parts": []
}
