{
  "id": 40031,
  "name": "1st Summoning",
  "name_eng": "",
  "year": 2018,
  "slogan": "—",
  "age": null,
  "type": "film",
  "quality": "HD (720p)",
  "imdb": "3.3",
  "imdb_id": "8142044",
  "kinopoisk": null,
  "kinopoisk_id": "1119175",
  "world_art": null,
  "world_art_id": null,
  "time": "97 мин. / 01:37",
  "ads": false,
  "premier": "2018-10-31",
  "premier_rus": "2018-11-01",
  "availability": "2018-11-02",
  "activate_time": "2020-10-31 10:04:00",
  "budget": null,
  "fees_use": null,
  "fees_world": null,
  "fees_rus": null,
  "rate_mpaa": null,
  "description": null,
  "iframe_url": "",
  "iframe_poster": null,
  "poster": "https://img.imgilall.me/movies/franchise/4/0/0/3/1/0/0/0/0/0/610x900_40031.jpg",
  "country": {
    "1": "США"
  },
  "collection": [],
  "genre": {
    "26": "Ужасы"
  },
  "director": [
    "Рэймонд Вуд"
  ],
  "screenwriter": [
    "Chris Piner"
  ],
  "producer": [
    "Рэндолл Близзард",
    "Рэймонд Вуд",
    "Джессика Харни"
  ],
  "operator": [
    "Рэндолл Близзард"
  ],
  "composer": [
    "Джеффри Алан Джонс"
  ],
  "design": [
    "Дженнифер Чэндлер",
    "Adam Brantz"
  ],
  "editor": [],
  "actors": [
    "Хейли Ловитт",
    "Джейсон МакДональд",
    "Брук Тодд",
    "Эйс Харни",
    "ЛаДонна Эллисон",
    "Caitlyn Bailey",
    "Buddy Campbell",
    "Lance J. Gosnell",
    "Dylan Law",
    "Билл Пэйсер"
  ],
  "actors_dubl": [],
  "trivia": [],
  "trailers": [],
  "seasons": [],
  "voiceActing": [
    "Рус. Люб. многоголосый"
  ],
  "subtitle": [],
  "parts": []
}
