{
  "id": 40150,
  "name": "Судья-лучник",
  "name_eng": "Jianshi liu baiyuan",
  "year": 2012,
  "slogan": "—",
  "age": null,
  "type": "film",
  "quality": "SD",
  "imdb": "6.2",
  "imdb_id": "2543698",
  "kinopoisk": null,
  "kinopoisk_id": "720183",
  "world_art": null,
  "world_art_id": null,
  "time": "94 мин. / 01:34",
  "ads": false,
  "premier": "2012-11-22",
  "premier_rus": "2012-11-23",
  "availability": "2012-11-24",
  "activate_time": "2020-11-02 09:15:00",
  "budget": null,
  "fees_use": null,
  "fees_world": null,
  "fees_rus": null,
  "rate_mpaa": "PG-13",
  "description": null,
  "iframe_url": "",
  "iframe_poster": null,
  "poster": "https://img.imgilall.me/movies/franchise/4/0/1/5/0/0/0/0/0/0/610x900_40150.jpg",
  "country": {
    "19": "Китай"
  },
  "collection": [],
  "genre": {
    "17": "Боевик",
    "7": "Драма"
  },
  "director": [
    "Сюй Хаофэн"
  ],
  "screenwriter": [
    "Сюй Хаофэн"
  ],
  "producer": [
    "Ран Се",
    "Hongjun Wang"
  ],
  "operator": [
    "Tony Wang"
  ],
  "composer": [
    "Ань Вэй",
    "Фэн Ванг",
    "Fan Wang"
  ],
  "design": [
    "Yong Xie",
    "Лян Тинтин"
  ],
  "editor": [
    "Сюй Хаофэн"
  ],
  "actors": [
    "Ли Чэнъюань",
    "Yenny Martin",
    "Сун Ян",
    "Юй Чэнхуэй"
  ],
  "actors_dubl": [],
  "trivia": [],
  "trailers": [],
  "seasons": [],
  "voiceActing": [
    "und0"
  ],
  "subtitle": [],
  "parts": []
}
