{
  "id": 40162,
  "name": "Раджа Бабу",
  "name_eng": "Raja Babu",
  "year": 1994,
  "slogan": "—",
  "age": "12+",
  "type": "film",
  "quality": "SD",
  "imdb": "6.3",
  "imdb_id": "0110942",
  "kinopoisk": null,
  "kinopoisk_id": "34939",
  "world_art": null,
  "world_art_id": null,
  "time": "161 мин. / 02:41",
  "ads": false,
  "premier": "1994-01-10",
  "premier_rus": "1994-01-11",
  "availability": "1994-01-12",
  "activate_time": "2020-10-31 03:25:00",
  "budget": null,
  "fees_use": null,
  "fees_world": null,
  "fees_rus": null,
  "rate_mpaa": null,
  "description": "Деревенский парень Раджа влюбляются в Маду из соседней деревни. Раджу хотят лишить наследства. Раджа храбро вступает в борьбу...",
  "iframe_url": "",
  "iframe_poster": null,
  "poster": "https://img.imgilall.me/movies/franchise/4/0/1/6/2/0/0/0/0/0/610x900_40162.jpg",
  "country": {
    "26": "Индия"
  },
  "collection": [],
  "genre": {
    "19": "Комедия",
    "7": "Драма"
  },
  "director": [
    "Дэвид Дхаван"
  ],
  "screenwriter": [
    "К. Бхагьяраджа",
    "Анис Базми"
  ],
  "producer": [
    "Нанду Дж. Толани"
  ],
  "operator": [
    "Раджан Кинаги"
  ],
  "composer": [
    "Ананд Шривастав",
    "Милинд Шривастав",
    "Амар Халдипур"
  ],
  "design": [
    "Р. Верман Шетти"
  ],
  "editor": [
    "А. Мутху"
  ],
  "actors": [
    "Говинда",
    "Каришма Капур",
    "Шакти Капур",
    "Аруна Ирани",
    "Гульшан Гровер",
    "Прем Чопра",
    "Кадер Кхан",
    "Самир Кхакхар",
    "Викас Ананд",
    "Арун Бакши"
  ],
  "actors_dubl": [],
  "trivia": [],
  "trailers": [],
  "seasons": [],
  "voiceActing": [
    "Ю. Живов"
  ],
  "subtitle": [],
  "parts": []
}
