{
  "id": 40225,
  "name": "Превратности женской судьбы",
  "name_eng": "Aurat Aurat Aurat",
  "year": 1996,
  "slogan": "—",
  "age": null,
  "type": "film",
  "quality": "SD",
  "imdb": "6.0",
  "imdb_id": "0358960",
  "kinopoisk": null,
  "kinopoisk_id": "77194",
  "world_art": null,
  "world_art_id": null,
  "time": "—",
  "ads": false,
  "premier": null,
  "premier_rus": null,
  "availability": null,
  "activate_time": "2020-10-31 11:00:00",
  "budget": null,
  "fees_use": null,
  "fees_world": null,
  "fees_rus": null,
  "rate_mpaa": null,
  "description": "Девушка Сита молода и очень красива. Однако красота приносит ей не только счастье, но и горе. Бандиты, нанятые человеком, пытающимся добиться любви Ситы, убивают ее возлюбленного. Несчастная девушка вынуждена выйти замуж за пожилого адвоката, не подозревая, что его сын и есть заказчик убийства…",
  "iframe_url": "",
  "iframe_poster": null,
  "poster": "https://img.imgilall.me/movies/franchise/4/0/2/2/5/0/0/0/0/0/610x900_40225.jpg",
  "country": {
    "26": "Индия"
  },
  "collection": [],
  "genre": {
    "25": "Криминал",
    "7": "Драма"
  },
  "director": [
    "Кашинадхури Вишванатх"
  ],
  "screenwriter": [],
  "producer": [],
  "operator": [],
  "composer": [],
  "design": [],
  "editor": [],
  "actors": [
    "Садашив Амрапуркар",
    "Дилип Дхаван",
    "Аруна Ирани",
    "Т.П. Джайн",
    "Виджу Хоте",
    "Шрирам Лагу",
    "Паван Малхотра",
    "Матур",
    "Винод Мехра",
    "Нита Мехта"
  ],
  "actors_dubl": [],
  "trivia": [],
  "trailers": [],
  "seasons": [],
  "voiceActing": [
    "Рус. Одноголосый"
  ],
  "subtitle": [],
  "parts": []
}
