{
  "id": 40258,
  "name": "Запаска",
  "name_eng": "Seupeeo",
  "year": 2008,
  "slogan": "—",
  "age": null,
  "type": "film",
  "quality": "SD",
  "imdb": "5.8",
  "imdb_id": "3039174",
  "kinopoisk": null,
  "kinopoisk_id": "778641",
  "world_art": null,
  "world_art_id": null,
  "time": "98 мин. / 01:38",
  "ads": false,
  "premier": "2008-08-28",
  "premier_rus": "2008-08-29",
  "availability": "2008-08-30",
  "activate_time": "2020-10-31 04:20:00",
  "budget": "",
  "fees_use": "",
  "fees_world": "",
  "fees_rus": "",
  "rate_mpaa": "",
  "description": "Гван-тэ решает продать печень , чтобы расплатиться с крупным займом и просит своего друга, Гиль-до, о помощи. Но из-за хитрости Гиль-до, Гван-тэ переходит дорогу якудза ...Теперь Гван-тэ нужно спасать не только свою печень, но и жизнь.\r\n",
  "iframe_url": "",
  "iframe_poster": null,
  "poster": "https://img.imgilall.me/movies/franchise/4/0/2/5/8/0/0/0/0/0/610x900_40258.jpg",
  "country": {
    "16": "Корея Южная"
  },
  "collection": [],
  "genre": {
    "17": "Боевик",
    "13": "Триллер"
  },
  "director": [
    "Ли Сон-хан"
  ],
  "screenwriter": [
    "Хэ-чхоль Чхве",
    "Ли Сон-хан"
  ],
  "producer": [
    "Ko Kyung-ho"
  ],
  "operator": [],
  "composer": [],
  "design": [],
  "editor": [],
  "actors": [
    "Lim Jun-Il",
    "Yang Ki-Won",
    "Мики Кога",
    "Чон У",
    "Ян Ги-вон",
    "Квак Чин-сок"
  ],
  "actors_dubl": [],
  "trivia": [],
  "trailers": [],
  "seasons": [],
  "voiceActing": [
    "Колобок"
  ],
  "subtitle": [],
  "parts": []
}
