{
  "id": 40267,
  "name": "Верность и измена",
  "name_eng": "Yaar Gaddar",
  "year": 1994,
  "slogan": "—",
  "age": null,
  "type": "film",
  "quality": "HD (720p)",
  "imdb": "3.8",
  "imdb_id": "0111780",
  "kinopoisk": null,
  "kinopoisk_id": "78621",
  "world_art": null,
  "world_art_id": null,
  "time": "154 мин. / 02:34",
  "ads": false,
  "premier": "1994-11-04",
  "premier_rus": "1994-11-05",
  "availability": "1994-11-06",
  "activate_time": "2020-10-31 10:18:00",
  "budget": null,
  "fees_use": null,
  "fees_world": null,
  "fees_rus": null,
  "rate_mpaa": null,
  "description": "Необычная запутанная история, в которой события сплетены в клубок страстей и судеб. Хитрость и коварство скрываются под женским обликом. Для осуществления дерзкого плана ограбления банка эта женщина готова на измену, предательство и убийства.",
  "iframe_url": "",
  "iframe_poster": null,
  "poster": "https://img.imgilall.me/movies/franchise/4/0/2/6/7/0/0/0/0/0/610x900_40267.jpg",
  "country": {
    "26": "Индия"
  },
  "collection": [],
  "genre": {
    "17": "Боевик"
  },
  "director": [
    "Умеш Мехра"
  ],
  "screenwriter": [],
  "producer": [
    "Парвеш С. Мехра"
  ],
  "operator": [
    "С. Паппу"
  ],
  "composer": [
    "Ану Малик"
  ],
  "design": [],
  "editor": [],
  "actors": [
    "Саиф Али Кхан",
    "Швета",
    "Соми Али",
    "Митхун Чакраборти",
    "Прем Чопра",
    "Гульшан Гровер",
    "Пунит Иссар",
    "Джонни Левер",
    "Анджана Мумтаз",
    "Юнус Парвез"
  ],
  "actors_dubl": [],
  "trivia": [],
  "trailers": [],
  "seasons": [],
  "voiceActing": [
    "Важенин (BadBajo)"
  ],
  "subtitle": [],
  "parts": []
}
