{
  "id": 40344,
  "name": "Убийца",
  "name_eng": "Saat yan faan",
  "year": 2009,
  "slogan": "—",
  "age": null,
  "type": "film",
  "quality": "SD",
  "imdb": "5.4",
  "imdb_id": "1437362",
  "kinopoisk": null,
  "kinopoisk_id": "468303",
  "world_art": null,
  "world_art_id": null,
  "time": "120 мин. / 02:00",
  "ads": false,
  "premier": "2009-07-09",
  "premier_rus": "2009-07-10",
  "availability": "2009-07-11",
  "activate_time": "2020-10-31 11:51:00",
  "budget": null,
  "fees_use": null,
  "fees_world": null,
  "fees_rus": null,
  "rate_mpaa": null,
  "description": null,
  "iframe_url": "",
  "iframe_poster": null,
  "poster": "https://img.imgilall.me/movies/franchise/4/0/3/4/4/0/0/0/0/0/610x900_40344.jpg",
  "country": {
    "12": "Гонконг",
    "1": "США"
  },
  "collection": [],
  "genre": {
    "25": "Криминал",
    "24": "Детектив",
    "7": "Драма"
  },
  "director": [
    "Рой Чоу"
  ],
  "screenwriter": [
    "Рой Чоу",
    "Кристин То"
  ],
  "producer": [
    "Чунг Хонг Тат",
    "Уильям Кун",
    "Чуй По-Чу"
  ],
  "operator": [
    "Марк Ли Пинбин"
  ],
  "composer": [
    "Сигэру Умэбаяси"
  ],
  "design": [
    "Мань Лим-Чун"
  ],
  "editor": [
    "Чун Ка-Фай"
  ],
  "actors": [
    "Аарон Квок",
    "Джанин Чан",
    "Эдди Чун",
    "Чэнь Куаньтай",
    "Чинь Ка-Лок",
    "Вон Ю-Нам",
    "Джози Хо",
    "Ау Хин-вай",
    "Kwok-Wai Cheung",
    "Базз Чунг"
  ],
  "actors_dubl": [],
  "trivia": [],
  "trailers": [],
  "seasons": [],
  "voiceActing": [
    "С. Кузнецов"
  ],
  "subtitle": [],
  "parts": []
}
