{
  "id": 40342,
  "name": "Честь дома",
  "name_eng": "Ghar Ki Izzat",
  "year": 1994,
  "slogan": "—",
  "age": "16+",
  "type": "film",
  "quality": "SD",
  "imdb": "4.8",
  "imdb_id": "0172488",
  "kinopoisk": null,
  "kinopoisk_id": "78619",
  "world_art": null,
  "world_art_id": null,
  "time": "—",
  "ads": false,
  "premier": "1994-12-16",
  "premier_rus": "1994-12-17",
  "availability": "1994-12-18",
  "activate_time": "2020-10-31 09:55:00",
  "budget": null,
  "fees_use": null,
  "fees_world": null,
  "fees_rus": null,
  "rate_mpaa": null,
  "description": "Рам — старший из четырех сыновей вместе с женой Зитой воспитывает троих младших братьев Шьяма, Сохана и Мохана. Вместе с ними в общем доме живет Гита, младшая сестра Зиты. Когда братьям пришла пора жениться, Рам выбрал для них невест. С их приходом, в доме все чаще стали возникать ссоры...",
  "iframe_url": "",
  "iframe_poster": null,
  "poster": "https://img.imgilall.me/movies/franchise/4/0/3/4/2/0/0/0/0/0/610x900_40342.jpg",
  "country": {
    "26": "Индия"
  },
  "collection": [],
  "genre": {
    "38": "Мюзикл",
    "19": "Комедия",
    "8": "Мелодрама"
  },
  "director": [
    "Калпатару"
  ],
  "screenwriter": [],
  "producer": [
    "Каню Чаухан"
  ],
  "operator": [],
  "composer": [
    "Амар Бисвас",
    "Утпал Бисвас"
  ],
  "design": [],
  "editor": [],
  "actors": [
    "Джитендра",
    "Риши Капур",
    "Анита Радж",
    "Аша Парех",
    "Ом Пракаш",
    "Асрани",
    "Сатиш Шах",
    "Бинду",
    "Каню Чаухан",
    "Соника Гилл"
  ],
  "actors_dubl": [],
  "trivia": [],
  "trailers": [],
  "seasons": [],
  "voiceActing": [
    "Diva Universal"
  ],
  "subtitle": [],
  "parts": []
}
