{
  "id": 40437,
  "name": "Кто первый?",
  "name_eng": "",
  "year": 1950,
  "slogan": "—",
  "age": null,
  "type": "cartoon",
  "quality": "SD",
  "imdb": "7.0",
  "imdb_id": "6118508",
  "kinopoisk": "7.3",
  "kinopoisk_id": "258011",
  "world_art": null,
  "world_art_id": null,
  "time": "10 мин.",
  "ads": false,
  "premier": null,
  "premier_rus": null,
  "availability": null,
  "activate_time": "2020-10-31 08:35:00",
  "budget": null,
  "fees_use": null,
  "fees_world": null,
  "fees_rus": null,
  "rate_mpaa": null,
  "description": "Головокружение от успеха не позволило Зайчику выиграть соревнования.",
  "iframe_url": "",
  "iframe_poster": null,
  "poster": "https://img.imgilall.me/movies/franchise/4/0/4/3/7/0/0/0/0/0/610x900_40437.jpg",
  "country": {
    "24": "СССР"
  },
  "collection": [],
  "genre": {
    "53": "Короткометражный",
    "23": "Спортивный"
  },
  "director": [
    "Борис Дежкин",
    "Геннадий Филиппов"
  ],
  "screenwriter": [
    "Климентий Минц"
  ],
  "producer": [],
  "operator": [
    "Елена Петрова"
  ],
  "composer": [
    "Юрий Левитин"
  ],
  "design": [
    "Константин Зотов",
    "Евгений Мигунов"
  ],
  "editor": [],
  "actors": [
    "Вадим Синявский"
  ],
  "actors_dubl": [],
  "trivia": [],
  "trailers": [],
  "seasons": [],
  "voiceActing": [
    "Original"
  ],
  "subtitle": [],
  "parts": []
}
