{
  "id": 40505,
  "name": "Роки",
  "name_eng": "Rocky",
  "year": 2006,
  "slogan": "—",
  "age": "16+",
  "type": "film",
  "quality": "SD",
  "imdb": "4.0",
  "imdb_id": "0814295",
  "kinopoisk": "7.2",
  "kinopoisk_id": "268531",
  "world_art": null,
  "world_art_id": null,
  "time": "125 мин. / 02:05",
  "ads": false,
  "premier": "2006-09-22",
  "premier_rus": "2006-09-23",
  "availability": "2006-09-24",
  "activate_time": "2020-10-31 04:24:00",
  "budget": null,
  "fees_use": null,
  "fees_world": null,
  "fees_rus": null,
  "rate_mpaa": null,
  "description": "У Роки, общительного и кампанейского парня убили его однокурсницу и возлюбленную Неху. Трагедия полностью перевернула его сознание. Из человека, который не мог пройти мимо несправедливости он превратился в бледную тень. Куда исчезла его мятежная душа? В это трудное время в его жизнь входит очаровательная Прийя...",
  "iframe_url": "",
  "iframe_poster": null,
  "poster": "https://img.imgilall.me/movies/franchise/4/0/5/0/5/0/0/0/0/0/610x900_40505.jpg",
  "country": {
    "26": "Индия"
  },
  "collection": [],
  "genre": {
    "17": "Боевик",
    "13": "Триллер",
    "8": "Мелодрама",
    "7": "Драма"
  },
  "director": [
    "Суреш Кришна"
  ],
  "screenwriter": [
    "Hriday Dubey",
    "Янак",
    "Суреш Кришна"
  ],
  "producer": [
    "Нарендра Баджадж",
    "Чираг Баджадж",
    "Варун Баджадж"
  ],
  "operator": [
    "Раджкумар К."
  ],
  "composer": [
    "Химеш Решаммия"
  ],
  "design": [
    "Чокас Бхарадвадж",
    "Викрам Фаднис"
  ],
  "editor": [
    "Санжиб Датта"
  ],
  "actors": [
    "Зайед Кхан",
    "Иша Шарвани",
    "Миниша Ламба",
    "Раджат Беди",
    "Саратх Бабу",
    "Смита Джайкар",
    "Ашвин Каушал",
    "Бридж Гопал",
    "Суреш Менон",
    "Zoe Selah Smith"
  ],
  "actors_dubl": [],
  "trivia": [],
  "trailers": [],
  "seasons": [],
  "voiceActing": [
    "Diva Universal"
  ],
  "subtitle": [],
  "parts": []
}
