{
  "id": 40748,
  "name": "Доблестные воины 2: Возвращение в Тао",
  "name_eng": "Warriors of Virtue: The Return to Tao",
  "year": 2002,
  "slogan": "—",
  "age": "12+",
  "type": "film",
  "quality": "SD",
  "imdb": "3.5",
  "imdb_id": "0316882",
  "kinopoisk": "5.8",
  "kinopoisk_id": "48438",
  "world_art": null,
  "world_art_id": null,
  "time": "93 мин. / 01:33",
  "ads": false,
  "premier": "2002-10-22",
  "premier_rus": "2002-10-23",
  "availability": "2002-10-24",
  "activate_time": "2020-10-31 06:58:00",
  "budget": null,
  "fees_use": null,
  "fees_world": null,
  "fees_rus": null,
  "rate_mpaa": "PG",
  "description": "Приехав в Китай на соревнования по боевым искусствам, 18-летний американец Райан Джефферс и его лучший друг Чаки неожиданно для себя оказались в другом мире — волшебной стране Тао, где живут легенды.Согласно одному из этих преданий, в Тао должен явиться юный воин, который найдет в себе мужество встать на пути сил Зла. Вместе с легендарными «Доблестными Воинами» Райану предстоит сразиться со злодеем Догоном, мечтающим захватить власть в Тао, и подвластными ему силами черной магии...",
  "iframe_url": "",
  "iframe_poster": null,
  "poster": "https://img.imgilall.me/movies/franchise/4/0/7/4/8/0/0/0/0/0/610x900_40748.jpg",
  "country": {
    "4": "Австралия"
  },
  "collection": [],
  "genre": {
    "9": "Приключения",
    "6": "Фэнтези",
    "17": "Боевик"
  },
  "director": [
    "Майкл Викерман"
  ],
  "screenwriter": [
    "Кентуки Робинсон",
    "Дэннис К. Ло",
    "Рекс Пиано"
  ],
  "producer": [
    "Брюс Гордон",
    "Том Паркинсон",
    "Сэт Вайлнсон"
  ],
  "operator": [
    "Цзэн Няньпин"
  ],
  "composer": [],
  "design": [
    "Куанмин Чэн",
    "Ксиньран Ту",
    "Цзяньхуа Лю"
  ],
  "editor": [
    "Синди Кларксон"
  ],
  "actors": [
    "Кевин Смит",
    "Нэйтан Филлипс",
    "Нина Лью",
    "Шедрак Андерсон III",
    "Вэй Ванг",
    "Ли Баочэн",
    "Сунь Цзяолун",
    "Шуньтянь Гуань",
    "Йинг Лианг",
    "Брэндон Лин"
  ],
  "actors_dubl": [],
  "trivia": [],
  "trailers": [],
  "seasons": [],
  "voiceActing": [
    "Diva Universal"
  ],
  "subtitle": [],
  "parts": []
}
