{
  "id": 40771,
  "name": "Hei ying",
  "name_eng": "",
  "year": 1967,
  "slogan": "—",
  "age": null,
  "type": "film",
  "quality": "SD",
  "imdb": "5.8",
  "imdb_id": "0445417",
  "kinopoisk": null,
  "kinopoisk_id": "116586",
  "world_art": null,
  "world_art_id": null,
  "time": "90 мин. / 01:30",
  "ads": false,
  "premier": "1967-04-11",
  "premier_rus": "1967-04-12",
  "availability": "1967-04-13",
  "activate_time": "2020-11-03 15:03:00",
  "budget": null,
  "fees_use": null,
  "fees_world": null,
  "fees_rus": null,
  "rate_mpaa": null,
  "description": null,
  "iframe_url": "",
  "iframe_poster": null,
  "poster": "https://img.imgilall.me/movies/franchise/4/0/7/7/1/0/0/0/0/0/610x900_40771.jpg",
  "country": {
    "12": "Гонконг"
  },
  "collection": [],
  "genre": {
    "17": "Боевик"
  },
  "director": [
    "Такуми Фурукава"
  ],
  "screenwriter": [
    "Такуми Фурукава"
  ],
  "producer": [
    "Ранми Шоу"
  ],
  "operator": [
    "Кун Му-То"
  ],
  "composer": [
    "Фу-Лин Ван"
  ],
  "design": [],
  "editor": [
    "Синг-лунг Чианг"
  ],
  "actors": [
    "Чань Шао-Хун",
    "Пол Чан",
    "Пай Чиен Чин",
    "Дженни Ху",
    "Shirley Huang",
    "Ку Фэн",
    "Йинг Ли",
    "Хелен Ма",
    "Кэм Сиу",
    "Тень Фэн"
  ],
  "actors_dubl": [],
  "trivia": [],
  "trailers": [],
  "seasons": [],
  "voiceActing": [
    "und0"
  ],
  "subtitle": [],
  "parts": []
}
