{
  "id": 40944,
  "name": "Дьявольское искусство 2",
  "name_eng": "Long khong",
  "year": 2005,
  "slogan": "«The Devil never leaves You Alive»",
  "age": null,
  "type": "film",
  "quality": "SD",
  "imdb": "5.9",
  "imdb_id": "0756222",
  "kinopoisk": "5.6",
  "kinopoisk_id": "259425",
  "world_art": null,
  "world_art_id": null,
  "time": "100 мин. / 01:40",
  "ads": false,
  "premier": "2005-12-01",
  "premier_rus": "2005-12-02",
  "availability": "2005-12-03",
  "activate_time": "2020-11-05 13:21:00",
  "budget": null,
  "fees_use": null,
  "fees_world": null,
  "fees_rus": null,
  "rate_mpaa": null,
  "description": "Компания подростков после того, как один парень надругался над их подругой, решила отомстить, прибегнув к помощи колдуна. Негодяй получил по заслугам, но у него нашлась обожательница-ведьма, которая в свою очередь решила прибегнуть к мести.",
  "iframe_url": "",
  "iframe_poster": null,
  "poster": "https://img.imgilall.me/movies/franchise/4/0/9/4/4/0/0/0/0/0/610x900_40944.jpg",
  "country": {
    "66": "Таиланд"
  },
  "collection": [],
  "genre": {
    "26": "Ужасы",
    "6": "Фэнтези",
    "24": "Детектив"
  },
  "director": [
    "Паситх Буранаджан",
    "Конгкиат Кхомсири",
    "Исара Нади"
  ],
  "screenwriter": [
    "Конгкиат Кхомсири",
    "Йосапонг Полсап",
    "Арт Тхамтракул"
  ],
  "producer": [
    "Чароен Ианфунгпорн"
  ],
  "operator": [],
  "composer": [
    "Вутичай Прайван"
  ],
  "design": [],
  "editor": [
    "Суний Асавиникул"
  ],
  "actors": [
    "Напакпапха Накпраситте",
    "Хатайван Нгамсуконпусит",
    "Акарин Сивапорнпитак",
    "Чанида Сурякомпон",
    "Намо Тункомнерд",
    "Паварит Вонгпанич",
    "Коракот Ворамусик"
  ],
  "actors_dubl": [],
  "trivia": [],
  "trailers": [],
  "seasons": [],
  "voiceActing": [
    "Рус. Люб. одноголосый",
    "Eng.Original"
  ],
  "subtitle": [],
  "parts": []
}
