{
  "id": 41049,
  "name": "Неудачная ночь",
  "name_eng": "Mischief Night",
  "year": 2013,
  "slogan": "«The Lucky Ones Die Quickly»",
  "age": null,
  "type": "film",
  "quality": "HD (720p)",
  "imdb": "4.6",
  "imdb_id": "2872810",
  "kinopoisk": "4.8",
  "kinopoisk_id": "760978",
  "world_art": null,
  "world_art_id": null,
  "time": "87 мин. / 01:27",
  "ads": false,
  "premier": "2013-10-30",
  "premier_rus": "2013-10-31",
  "availability": "2013-11-01",
  "activate_time": "2020-11-08 19:39:00",
  "budget": null,
  "fees_use": null,
  "fees_world": null,
  "fees_rus": null,
  "rate_mpaa": null,
  "description": "Слепая девушка Эмили, оставшаяся одна в доме, пытается противостоять злоумышленнику, который пробрался в дом и играет с ней в смертельные кошки-мышки.",
  "iframe_url": "",
  "iframe_poster": null,
  "poster": "https://img.imgilall.me/movies/franchise/4/1/0/4/9/0/0/0/0/0/610x900_41049.jpg",
  "country": {
    "1": "США"
  },
  "collection": [],
  "genre": {
    "26": "Ужасы",
    "13": "Триллер",
    "7": "Драма"
  },
  "director": [
    "Ричард Шенкман"
  ],
  "screenwriter": [
    "Джесси Баже",
    "Ричард Шенкман",
    "Эрик Д. Уилкинсон"
  ],
  "producer": [
    "Джесси Баже",
    "Ричард Шенкман",
    "Эрик Д. Уилкинсон"
  ],
  "operator": [
    "Ричард Дж. Виалет"
  ],
  "composer": [
    "Anastasia Devana"
  ],
  "design": [
    "Глэдис Родригез",
    "Эрика Каррон",
    "Eileen Goh"
  ],
  "editor": [
    "Ана Флорит"
  ],
  "actors": [
    "Йен Бамберг",
    "Ноэлль Коэт",
    "Адам Чизельски",
    "Стефани Эрб",
    "Дэниэл Хью Келли",
    "Эрика Лирсен",
    "Шэннон Маханян",
    "Чарли О’Коннелл",
    "Stephen Rhodes",
    "Ричард Рили"
  ],
  "actors_dubl": [],
  "trivia": [],
  "trailers": [],
  "seasons": [],
  "voiceActing": [
    "Рус. Люб. многоголосый"
  ],
  "subtitle": [],
  "parts": []
}
