{
  "id": 41072,
  "name": "Тарзан: Супер-кар",
  "name_eng": "Taarzan: The Wonder Car",
  "year": 2004,
  "slogan": "«A thriller that will drive you crazy»",
  "age": "12+",
  "type": "film",
  "quality": "SD",
  "imdb": "4.5",
  "imdb_id": "0435437",
  "kinopoisk": "7.1",
  "kinopoisk_id": "86753",
  "world_art": null,
  "world_art_id": null,
  "time": "163 мин. / 02:43",
  "ads": false,
  "premier": "2004-08-06",
  "premier_rus": "2004-08-07",
  "availability": "2004-08-08",
  "activate_time": "2020-11-07 23:25:00",
  "budget": null,
  "fees_use": null,
  "fees_world": null,
  "fees_rus": null,
  "rate_mpaa": null,
  "description": "Имя «Тарзан» ассоциируется с легендарным героем из джунглей. Но автомобиль « Tарзан» — машина, которая борется, переживает, радуется… как человек. В целом история — традиционная сага о мести, с той лишь разницей, что мстит не человек, а машина. Автомобиль делает примерно то же, что и обычный индийский герой, включая наказание виновных.",
  "iframe_url": "",
  "iframe_poster": null,
  "poster": "https://img.imgilall.me/movies/franchise/4/1/0/7/2/0/0/0/0/0/610x900_41072.jpg",
  "country": {
    "26": "Индия"
  },
  "collection": [],
  "genre": {
    "6": "Фэнтези",
    "17": "Боевик",
    "13": "Триллер"
  },
  "director": [
    "Аббас Алибхай Бурмавалла",
    "Мастан Алибхай Бурмавалла"
  ],
  "screenwriter": [
    "Лалит Махаджан"
  ],
  "producer": [
    "Гордхан Танвани"
  ],
  "operator": [
    "Рави Ядав"
  ],
  "composer": [
    "Химеш Решаммия",
    "Сурендра Сингх Содхи"
  ],
  "design": [
    "Тина Дхарамсай",
    "Р. Верман Шетти"
  ],
  "editor": [
    "Хуссэйн А. Бурмавала"
  ],
  "actors": [
    "Ватсал Сетханд",
    "Айеша Такиа",
    "Аджай Девган",
    "Фарида Джалал",
    "Панкадж Дхир",
    "Садашив Амрапуркар",
    "Шакти Капур",
    "Мукеш Тивари",
    "Амриш Пури",
    "Гульшан Гровер"
  ],
  "actors_dubl": [],
  "trivia": [],
  "trailers": [],
  "seasons": [],
  "voiceActing": [
    "Рус. Проф. многоголосый"
  ],
  "subtitle": [],
  "parts": []
}
