{
  "id": 41227,
  "name": "Банда Ольсена где-то там",
  "name_eng": "Olsen-banden deruda'",
  "year": 1977,
  "slogan": "—",
  "age": null,
  "type": "film",
  "quality": "FHD (1080p)",
  "imdb": "6.8",
  "imdb_id": "0076495",
  "kinopoisk": null,
  "kinopoisk_id": "58156",
  "world_art": null,
  "world_art_id": null,
  "time": "105 мин. / 01:45",
  "ads": false,
  "premier": "1977-09-30",
  "premier_rus": "1977-10-01",
  "availability": "1977-10-02",
  "activate_time": "2020-11-10 21:25:00",
  "budget": null,
  "fees_use": null,
  "fees_world": null,
  "fees_rus": null,
  "rate_mpaa": null,
  "description": null,
  "iframe_url": "",
  "iframe_poster": null,
  "poster": "https://img.imgilall.me/movies/franchise/4/1/2/2/7/0/0/0/0/0/610x900_41227.jpg",
  "country": {
    "25": "Дания"
  },
  "collection": [],
  "genre": {
    "25": "Криминал",
    "19": "Комедия"
  },
  "director": [
    "Эрик Баллинг"
  ],
  "screenwriter": [
    "Эрик Баллинг",
    "Хеннинг Бас"
  ],
  "producer": [
    "Бо Кристенсен"
  ],
  "operator": [
    "Клаус Лооф"
  ],
  "composer": [
    "Бент Фабрисиус-Бьерре"
  ],
  "design": [
    "Хеннинг Бас",
    "Лотте Данданелл"
  ],
  "editor": [
    "Оле Стин Нилсен"
  ],
  "actors": [
    "Ове Спрогёе",
    "Мортен Грунвальд",
    "Поуль Бундгор",
    "Кирстен Вальтер",
    "Клаус Рискьяр",
    "Поль Хаген",
    "Ове Вернер Хансен",
    "Аксель Стрёбюе",
    "Дик Кайсё",
    "Хольгер Юль Хансен"
  ],
  "actors_dubl": [],
  "trivia": [],
  "trailers": [],
  "seasons": [],
  "voiceActing": [
    "Важенин (BadBajo)"
  ],
  "subtitle": [],
  "parts": []
}
