{
  "id": 41264,
  "name": "Ирландский маршрут",
  "name_eng": "Route Irish",
  "year": 2010,
  "slogan": "«The most dangerous road in the world conceals an even deadlier secret»",
  "age": null,
  "type": "film",
  "quality": "SD",
  "imdb": "6.4",
  "imdb_id": "1528312",
  "kinopoisk": "6.1",
  "kinopoisk_id": "484746",
  "world_art": null,
  "world_art_id": null,
  "time": "109 мин. / 01:49",
  "ads": false,
  "premier": "2010-05-20",
  "premier_rus": "2010-05-21",
  "availability": "2010-05-22",
  "activate_time": "2020-11-10 08:49:00",
  "budget": null,
  "fees_use": null,
  "fees_world": null,
  "fees_rus": null,
  "rate_mpaa": null,
  "description": "История частного охранника в Ираке, который не принимает официальные объяснения по поводу смерти друга и собирается самостоятельно раскрыть правду.",
  "iframe_url": "",
  "iframe_poster": null,
  "poster": "https://img.imgilall.me/movies/franchise/4/1/2/6/4/0/0/0/0/0/610x900_41264.jpg",
  "country": {
    "2": "Великобритания",
    "3": "Испания",
    "8": "Италия",
    "9": "Франция",
    "29": "Бельгия"
  },
  "collection": [],
  "genre": {
    "32": "Военный",
    "17": "Боевик",
    "13": "Триллер",
    "7": "Драма"
  },
  "director": [
    "Кен Лоуч"
  ],
  "screenwriter": [
    "Пол Лаверти"
  ],
  "producer": [
    "Ребекка О’Брайэн",
    "Кончита Айрольди",
    "Паскаль Кочето"
  ],
  "operator": [
    "Крис Менгис"
  ],
  "composer": [
    "Джордж Фентон"
  ],
  "design": [
    "Фергус Клегг",
    "Грант Армстронг",
    "Сара Райан"
  ],
  "editor": [
    "Джонатан Моррис"
  ],
  "actors": [
    "Марк Вомак",
    "Андреа Лоу",
    "Джон Бишоп",
    "Джофф Белл",
    "Джек Форчун",
    "Талиб Расоол",
    "Крэйг Лундберг",
    "Тревор Уильямс",
    "Расселл Андерсон",
    "Джэми Мичи"
  ],
  "actors_dubl": [],
  "trivia": [],
  "trailers": [],
  "seasons": [],
  "voiceActing": [
    "Рус. Проф. двухголосый"
  ],
  "subtitle": [],
  "parts": []
}
