{
  "id": 41276,
  "name": "Тайны гостевого дома",
  "name_eng": "Qie xiao jin jia de lu guan",
  "year": 2018,
  "slogan": "—",
  "age": "12+",
  "type": "film",
  "quality": "HD (720p)",
  "imdb": "6.1",
  "imdb_id": "8587122",
  "kinopoisk": null,
  "kinopoisk_id": "1125431",
  "world_art": null,
  "world_art_id": null,
  "time": "120 мин. / 02:00",
  "ads": false,
  "premier": "2018-07-06",
  "premier_rus": "2018-07-07",
  "availability": "2018-07-08",
  "activate_time": "2020-11-11 04:28:00",
  "budget": null,
  "fees_use": null,
  "fees_world": null,
  "fees_rus": null,
  "rate_mpaa": null,
  "description": "Трое не особо дружных одноклассников отправляются на каникулы в старый отель, которым заведует бабушка одного из них. Отель мало того, что выглядит жутко, так там еще слышатся страшные звуки, и бабушка, кажется, тоже выжила из ума. Каникулы намечаются интересные.",
  "iframe_url": "",
  "iframe_poster": null,
  "poster": "https://img.imgilall.me/movies/franchise/4/1/2/7/6/0/0/0/0/0/610x900_41276.jpg",
  "country": {
    "13": "Тайвань"
  },
  "collection": [],
  "genre": {
    "19": "Комедия"
  },
  "director": [
    "Линь Гуаньхуэй"
  ],
  "screenwriter": [
    "Линь Гуаньхуэй"
  ],
  "producer": [
    "Happy Hsu",
    "Карен Фу",
    "Olive Ting"
  ],
  "operator": [
    "Син-Хуа Фенг"
  ],
  "composer": [
    "Тердсак Янпан"
  ],
  "design": [
    "Ко Ичунь",
    "Eleven Chen"
  ],
  "editor": [
    "Эрик Квон",
    "Jiaming Tian"
  ],
  "actors": [
    "Чжан Тинху",
    "Син Хом",
    "Линь Хэсюань",
    "Мими Чу",
    "Chin Chi",
    "Лау Ка-Ин",
    "Kai-wei Chiu",
    "Ко Шуяо",
    "Tsu-wu Hsieh",
    "Jade Chia"
  ],
  "actors_dubl": [],
  "trivia": [],
  "trailers": [],
  "seasons": [],
  "voiceActing": [
    "Рус. Люб. двухголосый"
  ],
  "subtitle": [],
  "parts": []
}
