{
  "id": 41408,
  "name": "Закон не властен",
  "name_eng": "Death Toll",
  "year": 2008,
  "slogan": "«Он живет по своим законам»",
  "age": "16+",
  "type": "film",
  "quality": "SD",
  "imdb": "2.4",
  "imdb_id": "0822802",
  "kinopoisk": "3.7",
  "kinopoisk_id": "258968",
  "world_art": null,
  "world_art_id": null,
  "time": "90 мин. / 01:30",
  "ads": false,
  "premier": "2008-01-30",
  "premier_rus": "2008-01-31",
  "availability": "2008-02-01",
  "activate_time": "2020-11-11 02:18:00",
  "budget": "$3 500 000",
  "fees_use": null,
  "fees_world": null,
  "fees_rus": null,
  "rate_mpaa": "R",
  "description": "Новый Орлеан является лидером страны по количеству убийств на душу населения. Десятилетием ранее город получил репутацию криминальной столицы. Наркотики и насилие управляют улицами, в коррупции погрязла верхушка городской администрации. «Список убитых» является иллюстрацией этой тёмной главы в истории города...",
  "iframe_url": "",
  "iframe_poster": null,
  "poster": "https://img.imgilall.me/movies/franchise/4/1/4/0/8/0/0/0/0/0/610x900_41408.jpg",
  "country": {
    "1": "США"
  },
  "collection": [],
  "genre": {
    "25": "Криминал",
    "17": "Боевик",
    "13": "Триллер"
  },
  "director": [
    "Феноменон"
  ],
  "screenwriter": [
    "Дэн Гарсиа",
    "Джейсон Хьюит"
  ],
  "producer": [
    "Дэн Гарсиа",
    "Джейсон Хьюит",
    "DMX"
  ],
  "operator": [
    "Майкл Кэмпбелл"
  ],
  "composer": [],
  "design": [
    "Николь ЛеБланк",
    "Маддесон Гарсиа"
  ],
  "editor": [
    "Дональд Рэй Вашингтон"
  ],
  "actors": [
    "Лу Даймонд Филлипс",
    "DMX",
    "Кешиа Найт Пуллиам",
    "Лайла Арсиери",
    "Алек Рэйми",
    "Дэн Гарсиа",
    "Сулеман Сол Вирани",
    "Лиза Мари Дюпри",
    "Марго Свишер",
    "Онил А. Исаак"
  ],
  "actors_dubl": [],
  "trivia": [],
  "trailers": [],
  "seasons": [],
  "voiceActing": [
    "Diva Universal"
  ],
  "subtitle": [],
  "parts": []
}
