{
  "id": 41438,
  "name": "Как ослик счастье искал",
  "name_eng": "",
  "year": 1971,
  "slogan": "—",
  "age": "6+",
  "type": "cartoon",
  "quality": "SD",
  "imdb": "6.3",
  "imdb_id": "5523672",
  "kinopoisk": "7.1",
  "kinopoisk_id": "489282",
  "world_art": null,
  "world_art_id": null,
  "time": "10 мин.",
  "ads": false,
  "premier": null,
  "premier_rus": null,
  "availability": null,
  "activate_time": "2020-11-10 11:44:00",
  "budget": null,
  "fees_use": null,
  "fees_world": null,
  "fees_rus": null,
  "rate_mpaa": null,
  "description": "Мультфильм про ослика и его друзей, которые искали счастье.",
  "iframe_url": "",
  "iframe_poster": null,
  "poster": "https://img.imgilall.me/movies/franchise/4/1/4/3/8/0/0/0/0/0/610x900_41438.jpg",
  "country": {
    "24": "СССР"
  },
  "collection": [],
  "genre": {
    "53": "Короткометражный",
    "37": "Детский"
  },
  "director": [
    "Владимир Дегтярев"
  ],
  "screenwriter": [
    "Екатерина Карганова"
  ],
  "producer": [],
  "operator": [
    "Михаил Каменецкий"
  ],
  "composer": [
    "Оскар Фельцман"
  ],
  "design": [
    "Анатолий Курицын"
  ],
  "editor": [],
  "actors": [
    "Роза Макагонова",
    "Клара Румянова",
    "Георгий Милляр",
    "Евгения Мельникова",
    "Сергей Мартинсон",
    "Анатолий Папанов"
  ],
  "actors_dubl": [],
  "trivia": [],
  "trailers": [],
  "seasons": [],
  "voiceActing": [
    "Original"
  ],
  "subtitle": [],
  "parts": []
}
