{
  "id": 41452,
  "name": "Когда-нибудь...",
  "name_eng": "Kabhi Na Kabhi",
  "year": 1998,
  "slogan": "—",
  "age": "16+",
  "type": "film",
  "quality": "SD",
  "imdb": "4.3",
  "imdb_id": "0116737",
  "kinopoisk": null,
  "kinopoisk_id": "36590",
  "world_art": null,
  "world_art_id": null,
  "time": "160 мин. / 02:40",
  "ads": false,
  "premier": "1998-04-17",
  "premier_rus": "1998-04-18",
  "availability": "1998-04-19",
  "activate_time": "2020-11-10 17:05:00",
  "budget": null,
  "fees_use": null,
  "fees_world": null,
  "fees_rus": null,
  "rate_mpaa": null,
  "description": "Не просто уживаться друг с другом двум подручным крупного наркоторговца Радже и Джаггу. Они любят одну и ту же девушку, Тину, да и босс для того, чтобы держать их в узде, постоянно поддерживает вражду между ними.Какое-то время Тина выполняет роль мирящей стороны во всех конфликтах. Но пламя вырывается наружу, когда Раджа, занимающиеся поисками киллера своего отца, выясняет, что это не кто иной, как Джаггу…",
  "iframe_url": "",
  "iframe_poster": null,
  "poster": "https://img.imgilall.me/movies/franchise/4/1/4/5/2/0/0/0/0/0/610x900_41452.jpg",
  "country": {
    "26": "Индия"
  },
  "collection": [],
  "genre": {
    "25": "Криминал",
    "17": "Боевик",
    "8": "Мелодрама"
  },
  "director": [
    "Приядаршан"
  ],
  "screenwriter": [
    "Джавед Ахтар"
  ],
  "producer": [],
  "operator": [
    "Рави К. Чандран"
  ],
  "composer": [
    "А.Р. Рахман"
  ],
  "design": [
    "Сабу Сирил"
  ],
  "editor": [
    "Н. Гопалакришнан"
  ],
  "actors": [
    "Джеки Шрофф",
    "Анил Капур",
    "Пуджа Бхатт",
    "Пареш Раваль",
    "Тинну Ананд",
    "Алок Нат",
    "Рохини Хаттангди",
    "Сукумари",
    "Винодини",
    "Даршан Багга"
  ],
  "actors_dubl": [],
  "trivia": [],
  "trailers": [],
  "seasons": [],
  "voiceActing": [
    "Diva Universal"
  ],
  "subtitle": [],
  "parts": []
}
