{
  "id": 41492,
  "name": "Побег из тюрьмы",
  "name_eng": "Dasso yugi",
  "year": 1976,
  "slogan": "—",
  "age": null,
  "type": "film",
  "quality": "FHD (1080p)",
  "imdb": "6.6",
  "imdb_id": "0418623",
  "kinopoisk": null,
  "kinopoisk_id": "81514",
  "world_art": null,
  "world_art_id": null,
  "time": "93 мин. / 01:33",
  "ads": false,
  "premier": "1976-06-19",
  "premier_rus": "1976-06-20",
  "availability": "1976-06-21",
  "activate_time": "2020-11-18 11:30:00",
  "budget": null,
  "fees_use": null,
  "fees_world": null,
  "fees_rus": null,
  "rate_mpaa": null,
  "description": "Преподобный Тадокоро посещает тюрьмы и исповедует заключенных. Под маской священника скрывается бывший уголовник и его цель — найти платежеспособного клиента, готового оплатить побег. В команде Тадокоро всё сплошь профессионалы, и все побеги заканчиваются успешно. Много лет назад подельник Тадокоро Окугаки спрятал бриллианты и теперь отбывает большой срок в тюрьме строгого режима. Окугаки готов рассказать, где спрятан клад, но для этого его нужно вытащить из тюрьмы. Тадокоро разрабатывает хитроумный план.",
  "iframe_url": "",
  "iframe_poster": null,
  "poster": "https://img.imgilall.me/movies/franchise/4/1/4/9/2/0/0/0/0/0/610x900_41492.jpg",
  "country": {
    "18": "Япония"
  },
  "collection": [],
  "genre": {
    "25": "Криминал",
    "17": "Боевик"
  },
  "director": [
    "Косаку Ямасита"
  ],
  "screenwriter": [
    "Киёхидэ Охара",
    "Икуо Сэкимото",
    "Кодзи Такада"
  ],
  "producer": [],
  "operator": [
    "Тосио Масуда"
  ],
  "composer": [
    "Масао Яги"
  ],
  "design": [
    "Токумити Игава"
  ],
  "editor": [
    "Тадао Канда"
  ],
  "actors": [
    "Сонни Тиба",
    "Харуко Ванибути",
    "Эитаро Одзава",
    "Горо Таруми",
    "Willie Dorsey",
    "Эидзи Го",
    "Токуэ Ханадзава",
    "Михоко Накагава",
    "Кадзумаса Нэгиси"
  ],
  "actors_dubl": [],
  "trivia": [],
  "trailers": [],
  "seasons": [],
  "voiceActing": [
    "Рус. Люб. многоголосый"
  ],
  "subtitle": [],
  "parts": []
}
