{
  "id": 41606,
  "name": "Из воспоминаний",
  "name_eng": "The Hero: Love Story of a Spy",
  "year": 2003,
  "slogan": "«Love story of a spy»",
  "age": "12+",
  "type": "film",
  "quality": "FHD (1080p)",
  "imdb": "5.3",
  "imdb_id": "0347167",
  "kinopoisk": "7.8",
  "kinopoisk_id": "36277",
  "world_art": null,
  "world_art_id": null,
  "time": "160 мин. / 02:40",
  "ads": false,
  "premier": "2003-04-09",
  "premier_rus": "2003-04-10",
  "availability": "2003-04-11",
  "activate_time": "2020-11-10 10:12:00",
  "budget": "₹ 530 000 000",
  "fees_use": "$285 394",
  "fees_world": null,
  "fees_rus": null,
  "rate_mpaa": null,
  "description": "Во время выполнения задания в приграничной зоне майор Батра знакомится с местной девушкой Решмой. Решма боготворит Батру, да он и сам вскоре привязывается к ней. Проходит совсем немного времени и молодые люди решают пожениться.Однако террористы, мечтающие отомстить Батре за неудачи последних лет, организовывают теракт во время их помолвки, Батра чудом остается жив, а тела Решмы так и не находят...",
  "iframe_url": "",
  "iframe_poster": null,
  "poster": "https://img.imgilall.me/movies/franchise/4/1/6/0/6/0/0/0/0/0/610x900_41606.jpg",
  "country": {
    "26": "Индия"
  },
  "collection": [],
  "genre": {
    "9": "Приключения",
    "17": "Боевик",
    "13": "Триллер",
    "7": "Драма"
  },
  "director": [
    "Анил Шарма"
  ],
  "screenwriter": [
    "Шактимаан Талвар"
  ],
  "producer": [
    "Дхираджлал Шах",
    "Хасмукх Шах",
    "Правин Шах"
  ],
  "operator": [
    "Кабир Лал"
  ],
  "composer": [
    "Уттам Сингх"
  ],
  "design": [
    "Санджай Дхабаде"
  ],
  "editor": [
    "Суреш Урс"
  ],
  "actors": [
    "Санни Деол",
    "Прити Зинта",
    "Приянка Чопра Джонас",
    "Амриш Пури",
    "Кабир Беди",
    "Парвин Дабас",
    "Раджпал Ядав",
    "Ивонн Маверик",
    "Раджат Беди",
    "Eva Crawford"
  ],
  "actors_dubl": [],
  "trivia": [],
  "trailers": [],
  "seasons": [],
  "voiceActing": [
    "Diva Universal"
  ],
  "subtitle": [],
  "parts": []
}
