{
  "id": 41748,
  "name": "Тайные соперники 2",
  "name_eng": "Nan quan bei tui dou jin hu",
  "year": 1977,
  "slogan": "—",
  "age": null,
  "type": "film",
  "quality": "SD",
  "imdb": "6.3",
  "imdb_id": "0076438",
  "kinopoisk": null,
  "kinopoisk_id": "36943",
  "world_art": null,
  "world_art_id": null,
  "time": "85 мин. / 01:25",
  "ads": false,
  "premier": "1977-04-20",
  "premier_rus": "1977-04-21",
  "availability": "1977-04-22",
  "activate_time": "2020-11-11 17:29:00",
  "budget": null,
  "fees_use": null,
  "fees_world": null,
  "fees_rus": null,
  "rate_mpaa": null,
  "description": "У Серебряного Лиса, оказывается, есть брат-близнец, который узнаёт о смерти брата и спрятанных сокровищах. Но часть карты случайно оказалось у убившего его брата полицейского.",
  "iframe_url": "",
  "iframe_poster": null,
  "poster": "https://img.imgilall.me/movies/franchise/4/1/7/4/8/0/0/0/0/0/610x900_41748.jpg",
  "country": {
    "12": "Гонконг"
  },
  "collection": [],
  "genre": {
    "17": "Боевик"
  },
  "director": [
    "Нг Сиюэнь"
  ],
  "screenwriter": [
    "Нг Сиюэнь",
    "Танг Ло"
  ],
  "producer": [
    "Нг Сиюэнь"
  ],
  "operator": [
    "Чи Чанг"
  ],
  "composer": [
    "Фу Лианг Чоу"
  ],
  "design": [
    "Йен-Тай Тинг",
    "Hsiao-Min Huang"
  ],
  "editor": [
    "Пун Хун"
  ],
  "actors": [
    "Джон Лю",
    "Хван Джан-Ли",
    "Чианг Ванг",
    "Кори Юэнь",
    "Чэнь Чиньхай",
    "Тино Вон",
    "Чарли Чань",
    "Сюй Ся",
    "Тиен Те Хуи",
    "Куо Чу Хуан"
  ],
  "actors_dubl": [],
  "trivia": [],
  "trailers": [],
  "seasons": [],
  "voiceActing": [
    "М. Иванов"
  ],
  "subtitle": [],
  "parts": []
}
