{
  "id": 41821,
  "name": "Куртизанка",
  "name_eng": "Pakeezah",
  "year": 1972,
  "slogan": "—",
  "age": null,
  "type": "film",
  "quality": "SD",
  "imdb": "7.3",
  "imdb_id": "0067546",
  "kinopoisk": "5.5",
  "kinopoisk_id": "96705",
  "world_art": null,
  "world_art_id": null,
  "time": "147 мин. / 02:27",
  "ads": false,
  "premier": "1972-02-04",
  "premier_rus": "1972-02-05",
  "availability": "1972-02-06",
  "activate_time": "2020-11-11 07:59:00",
  "budget": null,
  "fees_use": null,
  "fees_world": null,
  "fees_rus": null,
  "rate_mpaa": null,
  "description": "Действие этого фильма происходит в Индии в конце XIX — начале XX века и рассказывает о таваиф (куртизанке) Сахиб-Джан, дочери куртизанки Наргис. После того, как её отвергла семья возлюбленного, куртизанка Наргис едет на кладбище, где втайне ото всех рожает дочь Сахиб-Джан и умирает. Сестра Наргис, Наваб-Джан — владелица публичного дома в городе Лакхнау — забирает ребёнка и воспитывает девочку. Спустя 17 лет Сахиб-Джан становится известной танцовщицей и певицей, но страдает от того, что вынуждена быть куртизанкой и мечтает о большой любви...",
  "iframe_url": "",
  "iframe_poster": null,
  "poster": "https://img.imgilall.me/movies/franchise/4/1/8/2/1/0/0/0/0/0/610x900_41821.jpg",
  "country": {
    "26": "Индия"
  },
  "collection": [],
  "genre": {
    "38": "Мюзикл",
    "8": "Мелодрама",
    "7": "Драма"
  },
  "director": [
    "Камал Амрохи"
  ],
  "screenwriter": [
    "Аман",
    "Камал Амрохи"
  ],
  "producer": [
    "Камал Амрохи"
  ],
  "operator": [
    "Йозеф Виршинг"
  ],
  "composer": [
    "Гхулам Мохаммед"
  ],
  "design": [
    "Н.Б. Кулкарни",
    "Мина Кумари",
    "С.Д. Наджаф"
  ],
  "editor": [
    "Пай"
  ],
  "actors": [
    "Ашок Кумар",
    "Мина Кумари",
    "Радж Кумар",
    "Вина",
    "Д.К. Сапру",
    "Камал Капур",
    "Виджай Лаксми",
    "Джагдиш Канвал",
    "Надира",
    "Пратима Деви"
  ],
  "actors_dubl": [],
  "trivia": [],
  "trailers": [],
  "seasons": [],
  "voiceActing": [
    "Diva Universal"
  ],
  "subtitle": [],
  "parts": []
}
