{
  "id": 41839,
  "name": "Полнолуние",
  "name_eng": "Chandamama",
  "year": 2007,
  "slogan": "—",
  "age": null,
  "type": "film",
  "quality": "FHD (1080p)",
  "imdb": "6.7",
  "imdb_id": "1601815",
  "kinopoisk": null,
  "kinopoisk_id": "499389",
  "world_art": null,
  "world_art_id": null,
  "time": "—",
  "ads": false,
  "premier": "2007-09-06",
  "premier_rus": "2007-09-07",
  "availability": "2007-09-08",
  "activate_time": "2020-11-10 18:44:00",
  "budget": null,
  "fees_use": null,
  "fees_world": null,
  "fees_rus": null,
  "rate_mpaa": null,
  "description": "Махалакшми, дочь добросердечного и уважаемого главы деревни Ранга Рао, возвращается домой, закончив учебу в городе, и отец устраивает брак своей горячо любимой дочери с хорошим местным парнем. Однако в прошлом Махалакшми уже есть романтическая история с зеленоглазым Кишором, и она еще не закончена...",
  "iframe_url": "",
  "iframe_poster": null,
  "poster": "https://img.imgilall.me/movies/franchise/4/1/8/3/9/0/0/0/0/0/610x900_41839.jpg",
  "country": {
    "26": "Индия"
  },
  "collection": [],
  "genre": {
    "8": "Мелодрама",
    "7": "Драма"
  },
  "director": [
    "Кришна Вамси",
    "Дж. Сатянараяна"
  ],
  "screenwriter": [
    "Lakshmi Bhupala",
    "Кришна Вамси"
  ],
  "producer": [
    "Кальян С."
  ],
  "operator": [
    "Прасад Мурелла"
  ],
  "composer": [
    "Радхакришнан К.М."
  ],
  "design": [
    "Шриниваса Раджу"
  ],
  "editor": [
    "Шанкар Сури"
  ],
  "actors": [
    "Навдип",
    "Шива Баладжи",
    "Каджал Аггарвал",
    "Синду Менон",
    "Abhinayasri",
    "Анантх",
    "Eric Chernoff",
    "Alex Gessner",
    "Джива",
    "Нагендра Бабу"
  ],
  "actors_dubl": [],
  "trivia": [],
  "trailers": [],
  "seasons": [],
  "voiceActing": [
    "Рус. Люб. одноголосый"
  ],
  "subtitle": [],
  "parts": []
}
