{
  "id": 41925,
  "name": "Жуткая девушка",
  "name_eng": "Dalkom, salbeorhan yeonin",
  "year": 2006,
  "slogan": "—",
  "age": null,
  "type": "film",
  "quality": "SD",
  "imdb": "6.4",
  "imdb_id": "0788052",
  "kinopoisk": "6.3",
  "kinopoisk_id": "376045",
  "world_art": null,
  "world_art_id": null,
  "time": "110 мин. / 01:50",
  "ads": false,
  "premier": "2006-04-06",
  "premier_rus": "2006-04-07",
  "availability": "2006-04-08",
  "activate_time": "2020-11-10 17:35:00",
  "budget": null,
  "fees_use": null,
  "fees_world": null,
  "fees_rus": null,
  "rate_mpaa": "R",
  "description": "Никогда не знаешь, где найдёшь, где потеряешь. Преподаватель колледжа Тэ-у таким принципом никогда не руководствовался, у него был другой принцип: не ищи, чтобы не потерять. Всё дело только в нём - он чертовски одинок, и дико застенчив. Но всё меняется с переездом в его дом девушки по имени Ми-на. Любовь - прекрасная штука, и Тэ-у наконец-то может убедиться в этом на личном опыте, и плевать, что Ми-на не знакома с творчеством Достоевского и Мондриана. Наступает счастливый период в жизни Тэ-у, и всё бы хорошо, если бы не одно «но» - вокруг его возлюбленной исчезают люди, которые ей неприятны.",
  "iframe_url": "",
  "iframe_poster": null,
  "poster": "https://img.imgilall.me/movies/franchise/4/1/9/2/5/0/0/0/0/0/610x900_41925.jpg",
  "country": {
    "16": "Корея Южная"
  },
  "collection": [],
  "genre": {
    "25": "Криминал",
    "19": "Комедия",
    "8": "Мелодрама"
  },
  "director": [
    "Сон Джэ-гон"
  ],
  "screenwriter": [
    "Сон Джэ-гон"
  ],
  "producer": [
    "Ким Ми-хи"
  ],
  "operator": [],
  "composer": [],
  "design": [],
  "editor": [
    "Щин Мин-гён"
  ],
  "actors": [
    "Пак Ён-у",
    "Чхве Ган-хи",
    "Чо Ын-джи",
    "Чон Гён-хо",
    "Чон Сэ-хён",
    "Ли Хи-до",
    "О Ю-джин"
  ],
  "actors_dubl": [],
  "trivia": [],
  "trailers": [],
  "seasons": [],
  "voiceActing": [
    "Рус. Люб. одноголосый"
  ],
  "subtitle": [],
  "parts": []
}
