{
  "id": 41954,
  "name": "Лидер банды",
  "name_eng": "Gang Leader",
  "year": 2019,
  "slogan": "—",
  "age": null,
  "type": "film",
  "quality": "HD (720p)",
  "imdb": "7.7",
  "imdb_id": "9675464",
  "kinopoisk": null,
  "kinopoisk_id": "1235414",
  "world_art": null,
  "world_art_id": null,
  "time": "155 мин. / 02:35",
  "ads": false,
  "premier": "2019-09-12",
  "premier_rus": "2019-09-13",
  "availability": "2019-09-14",
  "activate_time": "2020-11-18 11:40:00",
  "budget": null,
  "fees_use": null,
  "fees_world": null,
  "fees_rus": null,
  "rate_mpaa": null,
  "description": "Однажды на пороге дома автора бульварных романов Пенсила появляются пять женщин, ищущих мести за своих родных, убитых при ограблении банка. Они просят у писателя помощи, и он соглашается, ведь по этим безумным событиям можно будет написать настоящую оригинальную историю, не списанную, как другие, с американских фильмов.",
  "iframe_url": "",
  "iframe_poster": null,
  "poster": "https://img.imgilall.me/movies/franchise/4/1/9/5/4/0/0/0/0/0/610x900_41954.jpg",
  "country": {
    "26": "Индия"
  },
  "collection": [],
  "genre": {
    "19": "Комедия",
    "17": "Боевик"
  },
  "director": [
    "Викрам"
  ],
  "screenwriter": [
    "Darling Swamy",
    "Викрам",
    "Мукунд Панде"
  ],
  "producer": [
    "Мохан Черукури",
    "Рави Шанкар Яламанчили",
    "Навин Ернени"
  ],
  "operator": [
    "Мирослав Брожек"
  ],
  "composer": [
    "Анирудх Равичандер"
  ],
  "design": [
    "Радживан",
    "A. Ram Kumar",
    "B. Supriya"
  ],
  "editor": [
    "Navin Nooli"
  ],
  "actors": [
    "Нани",
    "Priyanka Arulmohan",
    "Картикея Гуммаконда",
    "Лакшми Нарайан",
    "Сукумар",
    "Аниш Курувилла",
    "Саранья Понваннан",
    "Веннела Кишор",
    "Приядарши",
    "Сатья"
  ],
  "actors_dubl": [],
  "trivia": [],
  "trailers": [],
  "seasons": [],
  "voiceActing": [
    "Рус. Люб. многоголосый"
  ],
  "subtitle": [],
  "parts": []
}
