{
  "id": 41955,
  "name": "Насмешка",
  "name_eng": "Ridicule",
  "year": 1996,
  "slogan": "«Il n'epargne personne»",
  "age": "16+",
  "type": "film",
  "quality": "SD",
  "imdb": "7.4",
  "imdb_id": "0117477",
  "kinopoisk": "7.2",
  "kinopoisk_id": "57922",
  "world_art": null,
  "world_art_id": null,
  "time": "102 мин. / 01:42",
  "ads": false,
  "premier": "1996-05-09",
  "premier_rus": "1996-05-10",
  "availability": "1996-05-11",
  "activate_time": "2020-11-11 01:09:00",
  "budget": "FRF 50 000 000",
  "fees_use": "$1 979 768",
  "fees_world": null,
  "fees_rus": null,
  "rate_mpaa": "R",
  "description": "Версаль, 1780 год. Двор Людовика XVI. Грегуар де Понселудон прибывает из своего провинциального поместья в Париж, чтобы добиться аудиенции у короля и решить серьезную проблему мелиорации заболоченных земель. Но прежде чем получить доступ к его величеству, приходится преодолевать барьеры, воздвигаемые придворными. Здесь более всего пригоден решительный дух и воля к победе.",
  "iframe_url": "",
  "iframe_poster": null,
  "poster": "https://img.imgilall.me/movies/franchise/4/1/9/5/5/0/0/0/0/0/610x900_41955.jpg",
  "country": {
    "9": "Франция"
  },
  "collection": [],
  "genre": {
    "19": "Комедия",
    "8": "Мелодрама",
    "7": "Драма"
  },
  "director": [
    "Патрис Леконт"
  ],
  "screenwriter": [
    "Реми Уотерхаус",
    "Мишель Фесслер",
    "Эрик Вико"
  ],
  "producer": [
    "Фредерик Брийон",
    "Филипп Каркассон",
    "Жиль Легран"
  ],
  "operator": [
    "Тьерри Арбогаст"
  ],
  "composer": [
    "Антуан Дюамель"
  ],
  "design": [
    "Иван Мосьон",
    "Кристиан Гаск"
  ],
  "editor": [
    "Жоэль Аш"
  ],
  "actors": [
    "Шарль Берлен",
    "Жан Рошфор",
    "Фанни Ардан",
    "Жюдит Годреш",
    "Бернар Жиродо",
    "Бернар Деран",
    "Карло Брандт",
    "Жак Мату",
    "Урбен Канселье",
    "Альбер Дельпи"
  ],
  "actors_dubl": [],
  "trivia": [],
  "trailers": [],
  "seasons": [],
  "voiceActing": [
    "Diva Universal"
  ],
  "subtitle": [],
  "parts": []
}
