{
  "id": 42016,
  "name": "Король обольщения",
  "name_eng": "Abueui wang",
  "year": 2012,
  "slogan": "—",
  "age": null,
  "type": "film",
  "quality": "SD",
  "imdb": "5.5",
  "imdb_id": "2658278",
  "kinopoisk": "6.1",
  "kinopoisk_id": "692531",
  "world_art": null,
  "world_art_id": null,
  "time": "118 мин. / 01:58",
  "ads": false,
  "premier": "2012-06-21",
  "premier_rus": "2012-06-22",
  "availability": "2012-06-23",
  "activate_time": "2020-11-11 05:18:00",
  "budget": null,
  "fees_use": null,
  "fees_world": "$3 050 480",
  "fees_rus": null,
  "rate_mpaa": null,
  "description": "Страховой агент Тон-щик – очень серьезный человек. Он считает, что искренне заботится о безопасности каждого клиента, и клиенты уважают его как профессионала. Вот только для нормальной работы в страховой конторе этого слишком мало. Каждый знает, что главное в профессии - не забота, а объемы продаж, а с этим у нашего героя серьезные проблемы. К сожалению, мать Тон-щика задолжала бандитам, поэтому коллекторы приходят теперь каждый день в гости с претензиями и бейсбольными битами. Единственный выход – начать зарабатывать больше. Однажды Тон-щик случайно заглядывает в рабочий стол лучшего агента их конторы и с удивлением находит там книгу “Искусство обольщения”. «Ах, вот оно что!», - думает Тон-щик и со следующего дня полностью меняет стратегию работы.",
  "iframe_url": "",
  "iframe_poster": null,
  "poster": "https://img.imgilall.me/movies/franchise/4/2/0/1/6/0/0/0/0/0/610x900_42016.jpg",
  "country": {
    "16": "Корея Южная"
  },
  "collection": [],
  "genre": {
    "19": "Комедия"
  },
  "director": [
    "Чон Сын-гу"
  ],
  "screenwriter": [
    "Ким Сон-ён",
    "Квон Сон-хви"
  ],
  "producer": [
    "Ким Джин-ён",
    "Choi Tae Young"
  ],
  "operator": [
    "Пак Хон-ёль"
  ],
  "composer": [],
  "design": [
    "Чи Хён-со"
  ],
  "editor": [
    "Щин Мин-гён"
  ],
  "actors": [
    "Сон Сэ-бёк",
    "Сон Дон-иль",
    "Чха Сын-вон",
    "Хан Чхэ-а",
    "Чон Ханссен",
    "Ки Гук-со",
    "Ким Джон-су",
    "Ким Мин-джэ",
    "Ким Сон-нён",
    "Ко Чхан-сок"
  ],
  "actors_dubl": [],
  "trivia": [],
  "trailers": [],
  "seasons": [],
  "voiceActing": [
    "Рус. Люб. двухголосый"
  ],
  "subtitle": [],
  "parts": []
}
