{
  "id": 42055,
  "name": "Держи ритм! Снова в школу",
  "name_eng": "To the Beat!: Back 2 School",
  "year": 2020,
  "slogan": "«Class is in. Who will win?»",
  "age": null,
  "type": "film",
  "quality": "HD (720p)",
  "imdb": "5.6",
  "imdb_id": "8854392",
  "kinopoisk": null,
  "kinopoisk_id": "1273285",
  "world_art": null,
  "world_art_id": null,
  "time": "92 мин. / 01:32",
  "ads": false,
  "premier": "2020-03-10",
  "premier_rus": "2020-03-11",
  "availability": "2020-03-12",
  "activate_time": "2020-11-11 06:26:00",
  "budget": null,
  "fees_use": null,
  "fees_world": null,
  "fees_rus": null,
  "rate_mpaa": null,
  "description": "Две сестры пытаются разобраться в своих отношениях, ведь у одной появился первый парень, а вторая начала общаться с их общим врагом. Тем временем вся школа готовится к спектаклю.",
  "iframe_url": "",
  "iframe_poster": null,
  "poster": "https://img.imgilall.me/movies/franchise/4/2/0/5/5/0/0/0/0/0/610x900_42055.jpg",
  "country": {
    "1": "США"
  },
  "collection": [],
  "genre": {
    "33": "Семейный",
    "19": "Комедия",
    "7": "Драма"
  },
  "director": [
    "Джиллиан Клер"
  ],
  "screenwriter": [
    "Сьюзэн Бернхард",
    "Джиллиан Клер"
  ],
  "producer": [
    "Сьюзэн Бернхард",
    "Джиллиан Клер",
    "Ryan Armendariz"
  ],
  "operator": [
    "Matthew Wheat"
  ],
  "composer": [
    "Эндрю Скрабутенас"
  ],
  "design": [
    "Jamie Sue Smith"
  ],
  "editor": [
    "Джефф Райт"
  ],
  "actors": [
    "Лаура Кристин",
    "Brisa Lalich",
    "Джейден Бартельс",
    "Хейден Саммеролл",
    "Bryce Xavier",
    "Кэйси Симпсон",
    "Jillian Shea Spaeder",
    "Джейк Бреннан",
    "Джахим Тумбс",
    "Тревор Ларком"
  ],
  "actors_dubl": [],
  "trivia": [],
  "trailers": [],
  "seasons": [],
  "voiceActing": [
    "Рус. Люб. многоголосый"
  ],
  "subtitle": [],
  "parts": []
}
