{
  "id": 42060,
  "name": "При исполнении 5: Посредник",
  "name_eng": "Huang jia shi jie zhi: Zhong jian ren",
  "year": 1990,
  "slogan": "—",
  "age": null,
  "type": "film",
  "quality": "SD",
  "imdb": "5.6",
  "imdb_id": "0094376",
  "kinopoisk": null,
  "kinopoisk_id": "19230",
  "world_art": null,
  "world_art_id": null,
  "time": "94 мин. / 01:34",
  "ads": false,
  "premier": "1990-06-15",
  "premier_rus": "1990-06-16",
  "availability": "1990-06-17",
  "activate_time": "2020-11-10 11:46:00",
  "budget": null,
  "fees_use": null,
  "fees_world": null,
  "fees_rus": null,
  "rate_mpaa": null,
  "description": "Морской пехотинец Дэвид, двоюродный брат крутой полицейской дамы Янг, во время служебного отпуска оказывается втянутым в международный скандал со шпионажем. Сестра помогает ему скрываться от мафии, полиции и ЦРУ, попутно выясняя, чьи грехи повесили на Дэвида.",
  "iframe_url": "",
  "iframe_poster": null,
  "poster": "https://img.imgilall.me/movies/franchise/4/2/0/6/0/0/0/0/0/0/610x900_42060.jpg",
  "country": {
    "12": "Гонконг"
  },
  "collection": [],
  "genre": {
    "17": "Боевик"
  },
  "director": [
    "Ча Чуэнь-И"
  ],
  "screenwriter": [
    "Тони Люн Хун-Ва",
    "Квонг Ким Йип",
    "Патрик Юэнь Юк-Гвонг"
  ],
  "producer": [
    "Стефен Шин",
    "Диксон Пун"
  ],
  "operator": [],
  "composer": [],
  "design": [],
  "editor": [],
  "actors": [
    "Синтия Хан",
    "Брайан Бэйкер",
    "Ча Чуэнь-И",
    "Билли Чоу",
    "Вай-лим Чу",
    "Брюс Фонтейн",
    "Рики Хунг",
    "Марк Кинг",
    "Альвина Кон",
    "Конг Лау"
  ],
  "actors_dubl": [],
  "trivia": [],
  "trailers": [],
  "seasons": [],
  "voiceActing": [
    "LostFilm"
  ],
  "subtitle": [],
  "parts": []
}
