{
  "id": 42070,
  "name": "Предупреждение",
  "name_eng": "Warning",
  "year": 2013,
  "slogan": "«A Thrilling 3D Experience»",
  "age": null,
  "type": "film",
  "quality": "SD",
  "imdb": "4.7",
  "imdb_id": "3138602",
  "kinopoisk": null,
  "kinopoisk_id": "795783",
  "world_art": null,
  "world_art_id": null,
  "time": "109 мин. / 01:49",
  "ads": false,
  "premier": "2013-09-27",
  "premier_rus": "2013-09-28",
  "availability": "2013-09-29",
  "activate_time": "2020-11-10 22:23:00",
  "budget": null,
  "fees_use": null,
  "fees_world": null,
  "fees_rus": null,
  "rate_mpaa": null,
  "description": "Группа приятелей собирается вместе, чтобы отпраздновать долгожданную встречу. На яхте одного из друзей они выходят в открытое море. Они начинают купаться, и только когда все уже попрыгали в воду и накупавшись захотели обратно, обнаружили, что забыли опустить лестницу… Теперь никто не может попасть обратно на яхту, потому что ее борта слишком высоки. Вдобавок ко всему, на борту остаётся крохотный младенец. Битва вокруг жизни и смерти разворачивается на море. Кто же доживет до конца этой страшной поездки?",
  "iframe_url": "",
  "iframe_poster": null,
  "poster": "https://img.imgilall.me/movies/franchise/4/2/0/7/0/0/0/0/0/0/610x900_42070.jpg",
  "country": {
    "26": "Индия"
  },
  "collection": [],
  "genre": {
    "9": "Приключения",
    "13": "Триллер"
  },
  "director": [
    "Гурммит Сингх"
  ],
  "screenwriter": [
    "Раджеш Чавла",
    "Теджпал Сингх Рават"
  ],
  "producer": [
    "Андреа Бискаро",
    "Джитендра Джайн",
    "Ри Найду"
  ],
  "operator": [
    "Франц Паго"
  ],
  "composer": [
    "Мит Брос",
    "Шариб Сабри",
    "Тоши Сабри"
  ],
  "design": [
    "Винти Бансал"
  ],
  "editor": [
    "Черагх Тодивала"
  ],
  "actors": [
    "Santosh Barmola",
    "Jitin Gulati",
    "Самит Сури",
    "Сюзана Родригес",
    "Baby Alita",
    "Манжари Фаднис",
    "Мадхурима Тули",
    "Варун Шарма",
    "Варун Шарма"
  ],
  "actors_dubl": [],
  "trivia": [],
  "trailers": [],
  "seasons": [],
  "voiceActing": [
    "Рус. Люб. двухголосый"
  ],
  "subtitle": [],
  "parts": []
}
