{
  "id": 42107,
  "name": "Буря",
  "name_eng": "The Tempest",
  "year": 1979,
  "slogan": "«We are such stuff as dreams are made on and our little life is rounded with a sleep»",
  "age": "12+",
  "type": "film",
  "quality": "SD",
  "imdb": "6.4",
  "imdb_id": "0081613",
  "kinopoisk": "6.7",
  "kinopoisk_id": "52452",
  "world_art": null,
  "world_art_id": null,
  "time": "95 мин. / 01:35",
  "ads": false,
  "premier": "1979-09-13",
  "premier_rus": "1979-09-14",
  "availability": "1979-09-15",
  "activate_time": "2020-11-10 21:01:00",
  "budget": "£ 150 000",
  "fees_use": null,
  "fees_world": null,
  "fees_rus": null,
  "rate_mpaa": "R",
  "description": "Во время бури гибнет парусник, спасаются немногие, среди которых сын короля Неаполя Фердинанд. Его выхаживают волшебник Просперо (бывший герцог Милана) и его дочь Миранда, когда-то изгнанные королём Неаполя из своих владений.",
  "iframe_url": "",
  "iframe_poster": null,
  "poster": "https://img.imgilall.me/movies/franchise/4/2/1/0/7/0/0/0/0/0/610x900_42107.jpg",
  "country": {
    "2": "Великобритания"
  },
  "collection": [],
  "genre": {
    "6": "Фэнтези",
    "7": "Драма"
  },
  "director": [
    "Дерек Джармен"
  ],
  "screenwriter": [
    "Дерек Джармен",
    "Уильям Шекспир"
  ],
  "producer": [
    "Гай Форд",
    "Мордекай Шрейбер",
    "Дон Бойд"
  ],
  "operator": [
    "Питер Миддлтон"
  ],
  "composer": [
    "Брайан Ходжсон",
    "John Lewis"
  ],
  "design": [
    "Иоланда Зоннабенд",
    "Йен Уитэйкер"
  ],
  "editor": [
    "Лесли Уолкер"
  ],
  "actors": [
    "Питер Булл",
    "Дэвид Мейер",
    "Нил Каннингэм",
    "Хиткоут Уильямс",
    "Тойа Уиллкокс",
    "Ричард Уорвик",
    "Карл Джонсон",
    "Джек Биркетт",
    "Кристофер Биггинс",
    "Питер Тернер"
  ],
  "actors_dubl": [],
  "trivia": [],
  "trailers": [],
  "seasons": [],
  "voiceActing": [
    "LostFilm"
  ],
  "subtitle": [],
  "parts": []
}
