{
  "id": 42236,
  "name": "Свадьба в Нью-Йорке на Рождество",
  "name_eng": "A New York Christmas Wedding",
  "year": 2020,
  "slogan": "«If you knew you could do it over, would you?»",
  "age": null,
  "type": "film",
  "quality": "HD (720p)",
  "imdb": "5.4",
  "imdb_id": "10768194",
  "kinopoisk": null,
  "kinopoisk_id": "1291226",
  "world_art": null,
  "world_art_id": null,
  "time": "88 мин. / 01:28",
  "ads": true,
  "premier": "2020-08-21",
  "premier_rus": "2020-08-22",
  "availability": "2020-08-23",
  "activate_time": "2020-11-13 16:04:00",
  "budget": "",
  "fees_use": "",
  "fees_world": "",
  "fees_rus": "",
  "rate_mpaa": "",
  "description": "На кануне свадьбы на Рождество, Дженнифер встречает своего ангела-хранителя, который показывает, как могла бы сложится её жизнь, не отрицай она свои чувства к подруге детства.\r\n",
  "iframe_url": "",
  "iframe_poster": null,
  "poster": "https://img.imgilall.me/movies/franchise/4/2/2/3/6/0/0/0/0/0/610x900_42236.jpg",
  "country": {
    "1": "США"
  },
  "collection": [],
  "genre": {
    "8": "Мелодрама"
  },
  "director": [
    "Отоя Эбит"
  ],
  "screenwriter": [
    "Отоя Эбит"
  ],
  "producer": [
    "Отоя Эбит",
    "Ian Phillips",
    "Kory Apton"
  ],
  "operator": [
    "Eythan Maidhof"
  ],
  "composer": [
    "Александр Арнцен"
  ],
  "design": [
    "Alex Mastoon",
    "Zachary Mastoon"
  ],
  "editor": [
    "Ian Phillips"
  ],
  "actors": [
    "Крис Нот",
    "Ниа Фейруэзер",
    "Крис Труздейл",
    "Отоя Эбит",
    "Crystal Alford",
    "Дэвид Энзуэло",
    "Kristen Booth",
    "Eddie A. Bryant",
    "Travis Cornett",
    "Адриана ДеМео"
  ],
  "actors_dubl": [],
  "trivia": [],
  "trailers": [],
  "seasons": [],
  "voiceActing": [
    "Рус. Люб. многоголосый"
  ],
  "subtitle": [],
  "parts": []
}
