{
  "id": 42282,
  "name": "Бой Бэнд",
  "name_eng": "Boy Band",
  "year": 2018,
  "slogan": "«A movie about a Boy Band that got old and fat»",
  "age": null,
  "type": "film",
  "quality": "HD (720p)",
  "imdb": "5.4",
  "imdb_id": "6196406",
  "kinopoisk": null,
  "kinopoisk_id": "1010086",
  "world_art": null,
  "world_art_id": null,
  "time": "85 мин. / 01:25",
  "ads": true,
  "premier": "2018-04-14",
  "premier_rus": "2018-04-15",
  "availability": "2018-04-16",
  "activate_time": "2020-11-16 12:30:00",
  "budget": "",
  "fees_use": "",
  "fees_world": "",
  "fees_rus": "",
  "rate_mpaa": "",
  "description": "Спустя десятилетия после своего последнего хита Heartthrob Boyz пытаются закончить альбом, который, как они надеются, вернет им былую славу.",
  "iframe_url": "",
  "iframe_poster": null,
  "poster": "https://img.imgilall.me/movies/franchise/4/2/2/8/2/0/0/0/0/0/610x900_42282.jpg",
  "country": {
    "1": "США"
  },
  "collection": [],
  "genre": {
    "19": "Комедия"
  },
  "director": [
    "Джоэль Левинсон"
  ],
  "screenwriter": [
    "Джоэль Левинсон",
    "Стивен Дж. Левинсон"
  ],
  "producer": [
    "Кэтлин Хартшорн",
    "Уэсли Хартшорн",
    "Сет Херцог"
  ],
  "operator": [
    "Пол Рондо"
  ],
  "composer": [],
  "design": [
    "Sydney Waltz"
  ],
  "editor": [
    "Камерон Дэвис"
  ],
  "actors": [
    "Стив Эйджи",
    "Сет Херцог",
    "Джордан Карлос",
    "Дэйв Хилл",
    "Дэйв Аллен",
    "Джерри О’Коннелл",
    "Джули Голдман",
    "Эстер Ку",
    "Чейз Кроуфорд",
    "Наман Кларк"
  ],
  "actors_dubl": [],
  "trivia": [],
  "trailers": [],
  "seasons": [],
  "voiceActing": [
    "Рус. Люб. многоголосый"
  ],
  "subtitle": [],
  "parts": []
}
