{
  "id": 42320,
  "name": "Последняя Рождественская вечеринка",
  "name_eng": "The Last Christmas Party",
  "year": 2020,
  "slogan": "—",
  "age": null,
  "type": "film",
  "quality": "HD (720p)",
  "imdb": "5.6",
  "imdb_id": "11324626",
  "kinopoisk": null,
  "kinopoisk_id": "1329886",
  "world_art": null,
  "world_art_id": null,
  "time": "84 мин. / 01:24",
  "ads": true,
  "premier": "2020-06-07",
  "premier_rus": null,
  "availability": null,
  "activate_time": "2020-11-17 22:15:00",
  "budget": "",
  "fees_use": "",
  "fees_world": "",
  "fees_rus": "",
  "rate_mpaa": "",
  "description": "Молодые студенты устраивают вечеринку в честь надвигающегося Рождества. Однако вместо безбашенной тусовки они получат проверку прочности своих отношений.\r\n",
  "iframe_url": "",
  "iframe_poster": null,
  "poster": "https://img.imgilall.me/movies/franchise/4/2/3/2/0/0/0/0/0/0/610x900_42320.jpg",
  "country": {
    "1": "США"
  },
  "collection": [],
  "genre": {
    "8": "Мелодрама",
    "7": "Драма"
  },
  "director": [
    "Julian Carlo Santos"
  ],
  "screenwriter": [
    "Kevin Nittolo",
    "Julian Carlo Santos"
  ],
  "producer": [
    "Troy Enoka",
    "Julian Carlo Santos",
    "Scottie Schwefel"
  ],
  "operator": [
    "Maxwell Geoffrey"
  ],
  "composer": [
    "Jake Tavill"
  ],
  "design": [
    "Stephanie Zachariadis",
    "Gabrielle Christensen"
  ],
  "editor": [
    "Benjamin Goebel"
  ],
  "actors": [
    "Anna Clare Kerr",
    "Samantha Brooks",
    "Martin Drop",
    "James Williams",
    "Gabriel Armentano",
    "Spencer Wawak",
    "Rosie C. Dean",
    "Kyvon Edwin",
    "Charis Storms",
    "Brittany Raper"
  ],
  "actors_dubl": [],
  "trivia": [],
  "trailers": [],
  "seasons": [],
  "voiceActing": [
    "Рус. Люб. многоголосый"
  ],
  "subtitle": [],
  "parts": []
}
