{
  "id": 42322,
  "name": "Белая стена",
  "name_eng": "White Wall",
  "year": 2020,
  "slogan": "—",
  "age": null,
  "type": "series",
  "quality": "HD (720p)",
  "imdb": "6.3",
  "imdb_id": "9648870",
  "kinopoisk": null,
  "kinopoisk_id": "1264958",
  "world_art": null,
  "world_art_id": null,
  "time": "45 мин",
  "ads": true,
  "premier": "2020-09-20",
  "premier_rus": "2020-09-21",
  "availability": "2020-09-22",
  "serial_status": "offline",
  "activate_time": "2020-11-17 23:46:00",
  "budget": null,
  "fees_use": null,
  "fees_world": null,
  "fees_rus": null,
  "rate_mpaa": null,
  "description": null,
  "iframe_url": "",
  "poster": "https://img.imgilall.me/movies/franchise/4/2/3/2/2/0/0/0/0/0/610x900_42322.jpg",
  "country": {
    "28": "Швеция",
    "48": "Финляндия"
  },
  "collection": [],
  "genre": {
    "11": "Фантастика",
    "24": "Детектив",
    "7": "Драма"
  },
  "director": [
    "Алекси Салменперя",
    "Анна Закриссон"
  ],
  "screenwriter": [
    "Микко Пёлла",
    "Алекси Салменперя",
    "Лиза Амбьорн"
  ],
  "producer": [
    "Стефан Барон",
    "Соня Хермеле",
    "Руп Лехтинен"
  ],
  "operator": [
    "Генри Бломберг",
    "Саймон Олссон"
  ],
  "composer": [
    "Timo Kaukolampi",
    "Туомо Пуранен"
  ],
  "design": [
    "Петри Неувонен",
    "Мимми Мяенпяя"
  ],
  "editor": [
    "Саму Хейккила",
    "Кристофер Нордин"
  ],
  "actors": [
    "Аксель Хенни",
    "Вера Витали",
    "Маттиас Нордквист",
    "Айнар Бредефелдт",
    "Анна Паавилайнен",
    "Ээро Милонофф",
    "Zacharias Boustedt",
    "Карен Брайсон",
    "Elsa Wörmann",
    "Ардалан Эсмаили"
  ],
  "actors_dubl": [],
  "trivia": [],
  "trailers": [],
  "seasons": [
    {
      "poster": null,
      "release_ru": null,
      "release_world": null,
      "availability": null,
      "iframe_url": "",
      "season": 1,
      "episodes": [
        {
          "episode": 1,
          "name": null,
          "iframe_url": "",
          "iframe_poster": null,
          "release_ru": null,
          "release_world": null,
          "availability": null,
          "voiceActing": [
            "WestFilm"
          ],
          "ads": true,
          "subtitle": []
        },
        {
          "episode": 2,
          "name": null,
          "iframe_url": "",
          "iframe_poster": null,
          "release_ru": null,
          "release_world": null,
          "availability": null,
          "voiceActing": [
            "WestFilm"
          ],
          "ads": true,
          "subtitle": []
        },
        {
          "episode": 3,
          "name": null,
          "iframe_url": "",
          "iframe_poster": null,
          "release_ru": null,
          "release_world": null,
          "availability": null,
          "voiceActing": [
            "WestFilm"
          ],
          "ads": true,
          "subtitle": []
        },
        {
          "episode": 4,
          "name": null,
          "iframe_url": "",
          "iframe_poster": null,
          "release_ru": null,
          "release_world": null,
          "availability": null,
          "voiceActing": [
            "WestFilm"
          ],
          "ads": true,
          "subtitle": []
        },
        {
          "episode": 5,
          "name": null,
          "iframe_url": "",
          "iframe_poster": null,
          "release_ru": null,
          "release_world": null,
          "availability": null,
          "voiceActing": [
            "WestFilm"
          ],
          "ads": true,
          "subtitle": []
        },
        {
          "episode": 6,
          "name": null,
          "iframe_url": "",
          "iframe_poster": null,
          "release_ru": null,
          "release_world": null,
          "availability": null,
          "voiceActing": [
            "WestFilm"
          ],
          "ads": true,
          "subtitle": []
        },
        {
          "episode": 7,
          "name": null,
          "iframe_url": "",
          "iframe_poster": null,
          "release_ru": null,
          "release_world": null,
          "availability": null,
          "voiceActing": [
            "WestFilm"
          ],
          "ads": true,
          "subtitle": []
        },
        {
          "episode": 8,
          "name": null,
          "iframe_url": "",
          "iframe_poster": null,
          "release_ru": null,
          "release_world": null,
          "availability": null,
          "voiceActing": [
            "WestFilm"
          ],
          "ads": true,
          "subtitle": []
        }
      ]
    }
  ],
  "voiceActing": [
    "WestFilm"
  ],
  "subtitle": [],
  "parts": []
}
