{
  "id": 42557,
  "name": "Подводная лодка",
  "name_eng": "Das Boot",
  "year": 1981,
  "slogan": "«Другая сторона Второй мировой войны»",
  "age": "16+",
  "type": "film",
  "quality": "FHD (1080p)",
  "imdb": "8.3",
  "imdb_id": "0082096",
  "kinopoisk": "8.1",
  "kinopoisk_id": "362",
  "world_art": null,
  "world_art_id": null,
  "time": "150 мин. / 02:30",
  "ads": false,
  "premier": "1981-09-17",
  "premier_rus": "1995-03-12",
  "availability": "1995-03-13",
  "activate_time": "2020-11-29 15:29:00",
  "budget": "$14 000 000",
  "fees_use": "$11 487 676",
  "fees_world": null,
  "fees_rus": null,
  "rate_mpaa": "R",
  "description": "Осень 1941 года. Немецкая подводная лодка отправляется в Атлантический океан - место противостояния германского и британского флотов. Жизнь по строгому распорядку, учебные тревоги, воспоминания о семьях и любимых девушках, солёные мужские шуточки. Скоро всё это закончится. Потому что впереди – ад и никакой надежды на спасение.",
  "iframe_url": "",
  "iframe_poster": null,
  "poster": "https://img.imgilall.me/movies/franchise/4/2/5/5/7/0/0/0/0/0/610x900_42557.jpg",
  "country": {
    "38": "Германия (ФРГ)"
  },
  "collection": [],
  "genre": {
    "32": "Военный",
    "28": "Исторический",
    "13": "Триллер",
    "7": "Драма"
  },
  "director": [
    "Вольфганг Петерсен"
  ],
  "screenwriter": [
    "Вольфганг Петерсен",
    "Лотар-Гюнтер Буххайм"
  ],
  "producer": [
    "Гюнтер Рорбах",
    "Майкл Биттинс",
    "Марк Дэймон"
  ],
  "operator": [
    "Йост Вакано"
  ],
  "composer": [
    "Клаус Дольдингер"
  ],
  "design": [
    "Рольф Цехетбауэр",
    "Гёц Вейднер",
    "Моника Бауэрт"
  ],
  "editor": [
    "Ханнес Никель"
  ],
  "actors": [
    "Юрген Прохнов",
    "Херберт Грёнемайер",
    "Клаус Веннеманн",
    "Хабертус Бенгш",
    "Мартин Земмельрогге",
    "Бернд Таубер",
    "Эрвин Ледер",
    "Мартин Май",
    "Хайнц Хёниг",
    "Уве Оксенкнехт"
  ],
  "actors_dubl": [],
  "trivia": [],
  "trailers": [],
  "seasons": [],
  "voiceActing": [
    "Рус. Проф. многоголосый",
    "Рус. Люб. многоголосый",
    "German Original"
  ],
  "subtitle": [
    "Рус. полные"
  ],
  "parts": []
}
