{
  "id": 42624,
  "name": "Антарктида",
  "name_eng": "Antarctica",
  "year": 2020,
  "slogan": "—",
  "age": null,
  "type": "film",
  "quality": "FHD (1080p)",
  "imdb": "5.4",
  "imdb_id": "6235644",
  "kinopoisk": null,
  "kinopoisk_id": "1022903",
  "world_art": null,
  "world_art_id": null,
  "time": "90 мин. / 01:30",
  "ads": true,
  "premier": "2020-10-15",
  "premier_rus": null,
  "availability": null,
  "activate_time": "2020-12-02 12:43:00",
  "budget": "",
  "fees_use": "",
  "fees_world": "",
  "fees_rus": "",
  "rate_mpaa": "",
  "description": "Мир двух подруг Кэт и Дженет переворачивается с ног на голову, когда они переходят в старшую школу. Застенчивая Кэт становится звездой вечеринок, а изгой Дженет вынуждена принимать сомнительные лекарства, чтобы исправить свое поведение. События набирают еще более странный оборот, когда Дженет встречает парня-путешественника во времени, а родители Кэт отправляют дочь лечиться от сексуальной зависимости. Вернется ли жизнь в американском городке на круги своя?\r\n",
  "iframe_url": "",
  "iframe_poster": null,
  "poster": "https://img.imgilall.me/movies/franchise/4/2/6/2/4/0/0/0/0/0/610x900_42624.jpg",
  "country": {
    "1": "США"
  },
  "collection": [],
  "genre": {
    "19": "Комедия",
    "8": "Мелодрама"
  },
  "director": [
    "Кит Берден"
  ],
  "screenwriter": [
    "Кит Берден"
  ],
  "producer": [
    "Кит Берден",
    "Breaker",
    "Брайан Фолк-Вейсс"
  ],
  "operator": [
    "Madeline Kate Kann"
  ],
  "composer": [
    "Эндрю Холландер"
  ],
  "design": [
    "Тим Бруно",
    "Alanna Wray McDonald",
    "Margie Verghese"
  ],
  "editor": [
    "Meagan Costello",
    "Khushnuda Shukurova"
  ],
  "actors": [
    "Хлоя Ливайн",
    "Kimie Muroya",
    "Бабба Уейлер",
    "Стив Липман",
    "Клеа Льюис",
    "Лэйт Накли",
    "Чил Конг",
    "Loughlin Rizzo",
    "Tessa Rizzo",
    "Аджай Найду"
  ],
  "actors_dubl": [],
  "trivia": [],
  "trailers": [],
  "seasons": [],
  "voiceActing": [
    "Рус. Люб. многоголосый"
  ],
  "subtitle": [],
  "parts": []
}
