{
  "id": 4266,
  "name": "Черная полоса",
  "name_eng": "Fleuve noir",
  "year": 2018,
  "slogan": "«Когда правда страшнее лжи»",
  "age": "18+",
  "type": "film",
  "quality": "HD (720p)",
  "imdb": "6.2",
  "imdb_id": "6009104",
  "kinopoisk": "5.8",
  "kinopoisk_id": "999713",
  "world_art": null,
  "world_art_id": null,
  "time": "113 мин. / 01:53",
  "ads": false,
  "premier": "2018-04-06",
  "premier_rus": "2019-01-10",
  "availability": null,
  "activate_time": "2018-12-03 17:24:40",
  "budget": null,
  "fees_use": null,
  "fees_world": "$2 355 728",
  "fees_rus": "$71 745",
  "rate_mpaa": null,
  "description": "Комиссар Франсуа Висконти, видавший виды полицейский, расследует, на первый взгляд, рутинное дело, связанное с исчезновением подростка Дэни Арно. Комиссару кажутся подозрительными все: и сексапильная мать, и немногословный громила-отец, и даже школьный учитель Ян Беллэль, неожиданно предложивший полицейскому свою помощь в поисках. Следствие петляет от подозреваемого к подозреваемому, но никаких следов подростка нет, и шансов найти его живым все меньше и меньше.",
  "iframe_url": "",
  "iframe_poster": "https://img.imgilall.me/movies/video/6/9/4/0/5/0/0/0/0/0/800x450_69405.jpeg",
  "poster": "https://img.imgilall.me/movies/franchise/4/2/6/6/0/0/0/0/0/0/610x900_4266.jpg",
  "country": {
    "9": "Франция",
    "29": "Бельгия"
  },
  "collection": [],
  "genre": {
    "25": "Криминал",
    "24": "Детектив",
    "13": "Триллер",
    "7": "Драма"
  },
  "director": [
    "Эрик Зонка"
  ],
  "screenwriter": [
    "Эрик Зонка",
    "Лу де Фанже Синьоле",
    "Дрор Мишани"
  ],
  "producer": [
    "Жак-Анри Бронкар",
    "Оливье Бронкар",
    "Венсан Кассель"
  ],
  "operator": [
    "Паоло Карнера"
  ],
  "composer": [
    "Реми Бубаль"
  ],
  "design": [
    "Кристоф Кузон",
    "Djamil Mostefaoui",
    "Фредерик Дельрю"
  ],
  "editor": [
    "Филипп Котларски"
  ],
  "actors": [
    "Венсан Кассель",
    "Ромен Дюрис",
    "Сандрин Киберлэн",
    "Элоди Буше",
    "Шарль Берлен",
    "Афсиа Эрзи",
    "Жером Пули",
    "Феликс Бак",
    "Лорена Телье",
    "Стефан Войтович"
  ],
  "actors_dubl": [
    "Владимир Рыбальченко",
    "Глеб Глушенков",
    "Василиса Воронина",
    "Алёна Андронова",
    "Александр Белый"
  ],
  "trivia": [],
  "trailers": [],
  "seasons": [],
  "voiceActing": [
    "Рус. Проф. многоголосый"
  ],
  "subtitle": [],
  "parts": []
}
