{
  "id": 42713,
  "name": "Законы разорения",
  "name_eng": "Las Reglas de la Ruina",
  "year": 2018,
  "slogan": "—",
  "age": null,
  "type": "film",
  "quality": "HD (720p)",
  "imdb": "6.7",
  "imdb_id": "5955792",
  "kinopoisk": null,
  "kinopoisk_id": "1000231",
  "world_art": null,
  "world_art_id": null,
  "time": "90 мин. / 01:30",
  "ads": true,
  "premier": "2018-09-20",
  "premier_rus": null,
  "availability": null,
  "activate_time": "2020-12-07 10:57:00",
  "budget": "MX$ 2 250 000",
  "fees_use": "",
  "fees_world": "",
  "fees_rus": "",
  "rate_mpaa": "",
  "description": "Минерва, мать-одиночка, проводит почти всё время за работой ради лечения своей тяжело больной дочери. Однажды к ней домой приходит таинственный мужчина и предлагает ей перевести древнюю книгу за солидную сумму денег. Минерва даёт согласие, не подозревая, что эта работа изменит всю её жизнь навсегда и затронет всех её близких.",
  "iframe_url": "",
  "iframe_poster": null,
  "poster": "https://img.imgilall.me/movies/franchise/4/2/7/1/3/0/0/0/0/0/610x900_42713.jpg",
  "country": {
    "17": "Мексика"
  },
  "collection": [],
  "genre": {
    "26": "Ужасы"
  },
  "director": [
    "Виктор Осуна"
  ],
  "screenwriter": [
    "Виктор Осуна"
  ],
  "producer": [
    "Эктор Родригес",
    "Juan Pedro Anaya",
    "Чарльз Барт"
  ],
  "operator": [
    "Fernando Castanier"
  ],
  "composer": [
    "Хуан Пабло Мирамонтес",
    "Алехандро Ромеро Годинес"
  ],
  "design": [
    "Channel Hernández",
    "Norma Reyes"
  ],
  "editor": [
    "Alejandro Soltero"
  ],
  "actors": [
    "Тато Александер",
    "Эктор Котсифакис",
    "Родольфо Паласиос",
    "Юнуэн Пардо",
    "Фрэнк Родригез",
    "Альваро Флорес",
    "Julio César Álvarez",
    "Виктор Осуна",
    "Nicole Grace",
    "Sofía Barchel"
  ],
  "actors_dubl": [],
  "trivia": [],
  "trailers": [],
  "seasons": [],
  "voiceActing": [
    "Рус. Люб. многоголосый"
  ],
  "subtitle": [],
  "parts": []
}
