{
  "id": 42746,
  "name": "Королева утреннего спокойствия",
  "name_eng": "Queen of the Morning Calm",
  "year": 2020,
  "slogan": "«Life strips away. Love endures»",
  "age": null,
  "type": "film",
  "quality": "FHD (1080p)",
  "imdb": "5.5",
  "imdb_id": "9265018",
  "kinopoisk": null,
  "kinopoisk_id": "1212900",
  "world_art": null,
  "world_art_id": null,
  "time": "—",
  "ads": true,
  "premier": null,
  "premier_rus": null,
  "availability": null,
  "activate_time": "2020-12-07 15:16:00",
  "budget": "",
  "fees_use": "",
  "fees_world": "",
  "fees_rus": "",
  "rate_mpaa": "",
  "description": "Дебора - иммигрантка и секс-работница, которой приходится практически в одиночку воспитывать десятилетнюю дочь Мону. Однажды ее выгоняют с работы в стриптиз-клубе, и с этого мометна борьба за нормальную жизнь становится еще тяжелее.",
  "iframe_url": "",
  "iframe_poster": null,
  "poster": "https://img.imgilall.me/movies/franchise/4/2/7/4/6/0/0/0/0/0/610x900_42746.jpg",
  "country": {
    "7": "Канада"
  },
  "collection": [],
  "genre": {
    "7": "Драма"
  },
  "director": [
    "Глория Ким"
  ],
  "screenwriter": [
    "Глория Ким"
  ],
  "producer": [
    "Глория Ким",
    "Josh Barsky",
    "Томми Чан"
  ],
  "operator": [
    "Dmitry Lopatin"
  ],
  "composer": [
    "Стивен Крекло"
  ],
  "design": [
    "Carly McGrath",
    "Джошуа Терпин",
    "Тавиш Гаджон"
  ],
  "editor": [],
  "actors": [
    "Шон Бенсон",
    "Сома Бхатия",
    "Самора Смоллвуд",
    "Тина Юнг",
    "Bukola Walfall",
    "Яна Голд",
    "Педро Мигель Арсе",
    "Роберт Ифеди",
    "Джошуа Пиис",
    "Зара Бентэм"
  ],
  "actors_dubl": [],
  "trivia": [],
  "trailers": [],
  "seasons": [],
  "voiceActing": [
    "Рус. Люб. многоголосый"
  ],
  "subtitle": [],
  "parts": []
}
