{
  "id": 42745,
  "name": "Вечные скитальцы",
  "name_eng": "Paradise drifters",
  "year": 2020,
  "slogan": "—",
  "age": null,
  "type": "film",
  "quality": "FHD (1080p)",
  "imdb": "5.9",
  "imdb_id": "9121616",
  "kinopoisk": null,
  "kinopoisk_id": "1202623",
  "world_art": null,
  "world_art_id": null,
  "time": "85 мин. / 01:25",
  "ads": true,
  "premier": "2020-01-25",
  "premier_rus": null,
  "availability": null,
  "activate_time": "2020-12-07 15:29:00",
  "budget": "",
  "fees_use": "",
  "fees_world": "",
  "fees_rus": "",
  "rate_mpaa": "",
  "description": "Трое бездомных молодых людей ищут близость, независимость и деньги в не такой уж и благополучной Европе. Их пути пересекаются по дороге на юг в поисках лучшей жизни.",
  "iframe_url": "",
  "iframe_poster": null,
  "poster": "https://img.imgilall.me/movies/franchise/4/2/7/4/5/0/0/0/0/0/610x900_42745.jpg",
  "country": {
    "31": "Нидерланды"
  },
  "collection": [],
  "genre": {
    "7": "Драма"
  },
  "director": [
    "Мес Пейненбург"
  ],
  "screenwriter": [
    "Мес Пейненбург"
  ],
  "producer": [
    "Питер Койперс",
    "Ирис Оттен",
    "Сандер ван Меурс"
  ],
  "operator": [
    "Яспер Вольф"
  ],
  "composer": [
    "Юхо Нурмела",
    "Ella van der Woude"
  ],
  "design": [
    "Элза Кроненберг",
    "Минке Лунтер"
  ],
  "editor": [
    "Имре Рейтелингспергер"
  ],
  "actors": [
    "Tamar van Waning",
    "Йонас Смулдерс",
    "Билал Вахиб",
    "Йорен Селдеслахтс",
    "Camilla Siegertsz",
    "Стеф Кёйперс",
    "Миха Хулсхоф",
    "Oussama Ahammoud",
    "Stijn Meijer",
    "Yoon Chang"
  ],
  "actors_dubl": [],
  "trivia": [],
  "trailers": [],
  "seasons": [],
  "voiceActing": [
    "Рус. Люб. многоголосый"
  ],
  "subtitle": [],
  "parts": []
}
