{
  "id": 4287,
  "name": "Приключения Шерлока Холмса и доктора Ватсона: Кровавая надпись",
  "name_eng": "",
  "year": 1980,
  "slogan": null,
  "age": "12+",
  "type": "film",
  "quality": "HD (720p)",
  "imdb": "8.4",
  "imdb_id": "0080263",
  "kinopoisk": "8.4",
  "kinopoisk_id": "77265",
  "world_art": null,
  "world_art_id": null,
  "time": "66 мин. / 01:06",
  "ads": false,
  "premier": "1980-03-22",
  "premier_rus": null,
  "availability": null,
  "activate_time": "2018-12-04 11:40:52",
  "budget": null,
  "fees_use": null,
  "fees_world": null,
  "fees_rus": null,
  "rate_mpaa": null,
  "description": "В первой серии мы оказываемся свидетелями знакомства Шерлока Холмса с доктором Ватсоном. Во второй — Шерлок Холмс раскроет тайну «кровавой надписи» и выследит загадочного неуловимого убийцу.",
  "iframe_url": "",
  "iframe_poster": "https://img.imgilall.me/movies/video/3/7/3/9/1/0/0/0/0/0/800x450_37391.jpeg",
  "poster": "https://img.imgilall.me/movies/franchise/4/2/8/7/0/0/0/0/0/0/610x900_4287.jpg",
  "country": {
    "24": "СССР"
  },
  "collection": {
    "33": "Экранизация книг"
  },
  "genre": {
    "25": "Криминал",
    "24": "Детектив",
    "22": "Русский"
  },
  "director": [
    "Игорь Масленников"
  ],
  "screenwriter": [
    "Юлий Дунский",
    "Валерий Фрид",
    "Артур Конан Дойл"
  ],
  "producer": [],
  "operator": [
    "Анатолий Лапшов",
    "Юрий Векслер"
  ],
  "composer": [
    "Владимир Дашкевич"
  ],
  "design": [
    "Марк Каплан",
    "Нелли Лев"
  ],
  "editor": [
    "Людмила Образумова"
  ],
  "actors": [
    "Василий Ливанов",
    "Виталий Соломин",
    "Рина Зеленая",
    "Борислав Брондуков",
    "Игорь Дмитриев",
    "Виктор Аристов",
    "Виталий Баганов",
    "Адольф Ильин",
    "Николай Караченцов",
    "Олег Хроменков"
  ],
  "actors_dubl": [
    "Игорь Ефимов"
  ],
  "trivia": [
    "Фильм снят по мотивам повести Артура Конана Дойля «Этюд в багровых тонах» (A Study in Scarlet, 1887).",
    "Дом на Брикстон-роад снимали в Санкт-Петербурге (Ленинграде), в загородном особняке княгини Салтыковой (ул. Академика Крылова 4).",
    "В фильме, когда Холмс и Ватсон играют партию в шахматы, первые восемь ходов видно довольно ясно, что они ходят не как попало, а разыгрывают дебют — защиту двух коней."
  ],
  "trailers": [],
  "seasons": [],
  "voiceActing": [
    "Рус. Оригинальный"
  ],
  "subtitle": [],
  "parts": [
    4286,
    4287,
    4288,
    4289,
    4290,
    4291
  ]
}
