{
  "id": 42922,
  "name": "Кто влюбился - тот проиграл",
  "name_eng": "El Que Se Enamora Pierde",
  "year": 2019,
  "slogan": "—",
  "age": null,
  "type": "film",
  "quality": "HD (720p)",
  "imdb": "5.1",
  "imdb_id": "9619402",
  "kinopoisk": null,
  "kinopoisk_id": "1230045",
  "world_art": null,
  "world_art_id": null,
  "time": "90 мин. / 01:30",
  "ads": true,
  "premier": "2019-01-03",
  "premier_rus": "2019-01-04",
  "availability": "2019-01-05",
  "activate_time": "2020-12-14 12:12:00",
  "budget": "",
  "fees_use": "",
  "fees_world": "",
  "fees_rus": "",
  "rate_mpaa": "",
  "description": "Расставаться всегда больно, но вдвойне больнее остаться одной когда ты беременна. Эрика всегда говорила, что никогда не позволит любви разрушить себе жизнь, но именно это и произошло. И последнее, что ей сейчас нужно - это новые отношения.",
  "iframe_url": "",
  "iframe_poster": null,
  "poster": "https://img.imgilall.me/movies/franchise/4/2/9/2/2/0/0/0/0/0/610x900_42922.jpg",
  "country": {
    "63": "Колумбия"
  },
  "collection": [],
  "genre": {
    "19": "Комедия"
  },
  "director": [
    "Fernando Ayllón"
  ],
  "screenwriter": [],
  "producer": [],
  "operator": [],
  "composer": [],
  "design": [],
  "editor": [
    "Manuel Monsalve"
  ],
  "actors": [
    "Джованни Альварез",
    "Линда Балдрих",
    "Мария Сесилия Ботеро",
    "Лорна Пас",
    "Бруно Диаз",
    "Iván Marín",
    "Алехандро Палачио",
    "Liss Pereira",
    "Ricardo Quevedo",
    "Каролина Сармиенто"
  ],
  "actors_dubl": [],
  "trivia": [],
  "trailers": [],
  "seasons": [],
  "voiceActing": [
    "Рус. Люб. многоголосый"
  ],
  "subtitle": [],
  "parts": []
}
