{
  "id": 43041,
  "name": "Орослан",
  "name_eng": "Oroslan",
  "year": 2019,
  "slogan": "—",
  "age": null,
  "type": "film",
  "quality": "HD (720p)",
  "imdb": "6.2",
  "imdb_id": "10852876",
  "kinopoisk": null,
  "kinopoisk_id": "1295489",
  "world_art": null,
  "world_art_id": null,
  "time": "72 мин. / 01:12",
  "ads": true,
  "premier": "2019-08-14",
  "premier_rus": "2019-08-15",
  "availability": "2019-08-16",
  "activate_time": "2020-12-21 19:29:00",
  "budget": "",
  "fees_use": "",
  "fees_world": "",
  "fees_rus": "",
  "rate_mpaa": "",
  "description": "Когда Орослан умирает, новость об этом быстро распространяется по маленькой деревне, вызывая горе и эмоции. Позже действия становятся словами, а слова – историями. Чтобы преодолеть горе и восстановить естественный поток жизни, жители деревни начинают делиться своими воспоминаниями об Орослане, воссоздавая его образ через свои рассказы.",
  "iframe_url": "",
  "iframe_poster": null,
  "poster": "https://img.imgilall.me/movies/franchise/4/3/0/4/1/0/0/0/0/0/610x900_43041.jpg",
  "country": {
    "52": "Словения"
  },
  "collection": [],
  "genre": {
    "7": "Драма"
  },
  "director": [
    "Матьяж Иванисин"
  ],
  "screenwriter": [
    "Матьяж Иванисин",
    "Здравко Драгнев"
  ],
  "producer": [
    "Миха Чернеч",
    "Jordi Niubo",
    "Mojca Pernat"
  ],
  "operator": [
    "Грегор Бозич"
  ],
  "composer": [
    "Ivan Antic",
    "Branko Rozman"
  ],
  "design": [],
  "editor": [
    "Матич Дракулич"
  ],
  "actors": [
    "Margit Gyecsek",
    "Milivoj Ros",
    "Деян Спасич"
  ],
  "actors_dubl": [],
  "trivia": [],
  "trailers": [],
  "seasons": [],
  "voiceActing": [
    "Рус. Люб. многоголосый"
  ],
  "subtitle": [],
  "parts": []
}
