{
  "id": 43153,
  "name": "Вместе на Рождество",
  "name_eng": "Christmas Together",
  "year": 2020,
  "slogan": "—",
  "age": null,
  "type": "film",
  "quality": "HD (720p)",
  "imdb": "5.4",
  "imdb_id": "13309552",
  "kinopoisk": null,
  "kinopoisk_id": "1438828",
  "world_art": null,
  "world_art_id": null,
  "time": "87 мин. / 01:27",
  "ads": true,
  "premier": "2020-12-06",
  "premier_rus": "2020-12-07",
  "availability": "2020-12-08",
  "activate_time": "2020-12-28 12:03:00",
  "budget": "",
  "fees_use": "",
  "fees_world": "",
  "fees_rus": "",
  "rate_mpaa": "",
  "description": "Эйва живёт в Нью-Йорке, но на Рождество решает отдохнуть от суеты и проблем большого города и едет в \"мировую столицу Рождества\", городок Тинсел. Там она знакомится с очаровательной девочкой, которая сдаёт ей в аренду гостевой домик, и влюбляется в её отца.\r\n",
  "iframe_url": "",
  "iframe_poster": null,
  "poster": "https://img.imgilall.me/movies/franchise/4/3/1/5/3/0/0/0/0/0/610x900_43153.jpg",
  "country": {
    "1": "США"
  },
  "collection": [],
  "genre": {
    "8": "Мелодрама"
  },
  "director": [
    "Дэвид ДеКото"
  ],
  "screenwriter": [
    "Джей Киприани"
  ],
  "producer": [
    "Вивика А. Фокс",
    "Бэрри Барнхолц",
    "Джин Джордж"
  ],
  "operator": [],
  "composer": [
    "Крис Кано",
    "Крис Риденауа"
  ],
  "design": [
    "Брентон Берна",
    "Сьюзэн Допнер-Сенак"
  ],
  "editor": [
    "Кевин Роудс"
  ],
  "actors": [
    "Вивика А. Фокс",
    "Анна Мари Доббинс",
    "Marc Herrmann",
    "Rylie Coe",
    "Anthony Carro",
    "Стивен Саймон",
    "Дженсен Этвуд",
    "Карла Митчелл",
    "Сиарра Картер",
    "Элиза Шин"
  ],
  "actors_dubl": [],
  "trivia": [],
  "trailers": [],
  "seasons": [],
  "voiceActing": [
    "Рус. Люб. многоголосый"
  ],
  "subtitle": [],
  "parts": []
}
