{
  "id": 43195,
  "name": "Липучка",
  "name_eng": "Flypaper",
  "year": 2011,
  "slogan": "«Две банды грабителей, одно дурацкое ограбление»",
  "age": "18+",
  "type": "film",
  "quality": "FHD (1080p)",
  "imdb": "6.4",
  "imdb_id": "1541160",
  "kinopoisk": "6.9",
  "kinopoisk_id": "484470",
  "world_art": null,
  "world_art_id": null,
  "time": "85 мин. / 01:25",
  "ads": false,
  "premier": "2011-01-28",
  "premier_rus": "2011-08-25",
  "availability": "2011-08-26",
  "activate_time": "2020-12-28 17:01:00",
  "budget": "$5 000 000",
  "fees_use": "$5 043",
  "fees_world": "+ $4 448 591 = $4 453 634",
  "fees_rus": "$1 071 621",
  "rate_mpaa": null,
  "description": "Перед самым закрытием в банк врывается две группы грабителей. Посетители и работники банка оказываются между двух огней. Один из  посетителей старается примирить представителей двух криминальных групп –  ведь это единственный шанс выжить для тех кто оказался  в банке, а для него шанс произвести впечатление на девушку-кассира, в которую  он влюбился с первого взгляда. Постепенно наш герой понимает, что похоже, все кроме него оказались в этом банке в момент ограбления не случайно…",
  "iframe_url": "",
  "iframe_poster": null,
  "poster": "https://img.imgilall.me/movies/franchise/4/3/1/9/5/0/0/0/0/0/610x900_43195.jpg",
  "country": {
    "1": "США",
    "20": "Германия"
  },
  "collection": [],
  "genre": {
    "25": "Криминал",
    "24": "Детектив",
    "19": "Комедия"
  },
  "director": [
    "Роб Минкофф"
  ],
  "screenwriter": [
    "Джон Лукас",
    "Скотт Мур"
  ],
  "producer": [
    "Марк Дэймон",
    "Патрик Демпси",
    "Моше Дайамант"
  ],
  "operator": [
    "Стивен Б. Постер"
  ],
  "composer": [
    "Джон Свайхарт"
  ],
  "design": [
    "Джеймс А. Жерарден",
    "Алек Хэммонд",
    "Кевин Хардисон"
  ],
  "editor": [
    "Том Финэн"
  ],
  "actors": [
    "Патрик Демпси",
    "Эшли Джадд",
    "Тим Блейк Нельсон",
    "Мекхай Файфер",
    "Мэтт Райан",
    "Джеффри Тэмбор",
    "Джон Вентимилья",
    "Прюитт Тэйлор Винс",
    "Октавия Спенсер",
    "Роб Хюбель"
  ],
  "actors_dubl": [
    "Александр Гаврилин",
    "Нина Тобилевич",
    "Александр Носков",
    "Всеволод Кузнецов",
    "Иван Жарков"
  ],
  "trivia": [],
  "trailers": [],
  "seasons": [],
  "voiceActing": [
    "Рус. Дублированный",
    "Рус. Одноголосый",
    "А. Дасевич",
    "Eng.Original"
  ],
  "subtitle": [
    "Рус. полные"
  ],
  "parts": []
}
