{
  "id": 43295,
  "name": "Каролина Грайндхаус: Ужасы округа Андерсон",
  "name_eng": "Carolina Grindhouse: Anderson's Own Horror Movie",
  "year": 2019,
  "slogan": "—",
  "age": null,
  "type": "film",
  "quality": "HD (720p)",
  "imdb": "6.3",
  "imdb_id": "11295868",
  "kinopoisk": null,
  "kinopoisk_id": "1321846",
  "world_art": null,
  "world_art_id": null,
  "time": "91 мин. / 01:31",
  "ads": true,
  "premier": "2019-10-19",
  "premier_rus": null,
  "availability": null,
  "activate_time": "2021-01-04 12:06:00",
  "budget": "",
  "fees_use": "",
  "fees_world": "",
  "fees_rus": "",
  "rate_mpaa": "",
  "description": "Фильм \"Каролина Грайндхаус: Ужасы округа Андерсон\" - это сборник из восьми страшных историй, снятых при участии местных жителей округа Андерсон. Среди них есть истории о рождественском ужине, превратившемся в резню, об ужасающей найденной записи на пленке, о ночном клубе с вампирами, о дороге, которая буквально ведет в ад, и многое другое.\r\n",
  "iframe_url": "",
  "iframe_poster": null,
  "poster": "https://img.imgilall.me/movies/franchise/4/3/2/9/5/0/0/0/0/0/610x900_43295.jpg",
  "country": {
    "1": "США"
  },
  "collection": [],
  "genre": {
    "26": "Ужасы"
  },
  "director": [
    "Кевин Вудс",
    "Rachel Mangan"
  ],
  "screenwriter": [
    "Rachel Mangan",
    "Кевин Вудс"
  ],
  "producer": [
    "Linda Lavold",
    "Кевин Вудс",
    "Rachel Mangan"
  ],
  "operator": [],
  "composer": [],
  "design": [],
  "editor": [
    "Кевин Вудс"
  ],
  "actors": [
    "Вик Авилес",
    "Marisa Banks",
    "Jackie Benton",
    "Emily Berry",
    "M. Blake Berry",
    "Bryson Blume",
    "Bobby",
    "Ann Boney",
    "Kandace Botkin",
    "Clarence Carter Boucher"
  ],
  "actors_dubl": [],
  "trivia": [],
  "trailers": [],
  "seasons": [],
  "voiceActing": [
    "Рус. Люб. многоголосый"
  ],
  "subtitle": [],
  "parts": []
}
