{
  "id": 4331,
  "name": "Бонус",
  "name_eng": "",
  "year": 2018,
  "slogan": "«...И плевать, что будет потом»",
  "age": "12+",
  "type": "series",
  "quality": "HD (720p)",
  "imdb": "2.8",
  "imdb_id": "8938988",
  "kinopoisk": "5.4",
  "kinopoisk_id": "841671",
  "world_art": null,
  "world_art_id": null,
  "time": "41 мин.",
  "ads": false,
  "premier": "2018-09-20",
  "premier_rus": "2018-09-20",
  "availability": "2018-09-21",
  "serial_status": "offline",
  "activate_time": "2018-12-05 16:09:57",
  "budget": null,
  "fees_use": null,
  "fees_world": null,
  "fees_rus": null,
  "rate_mpaa": null,
  "description": "Главный герой сериала – парень по кличке Бонус. Молодой пацан из глубокой провинции заразился рэпом, после того как мама подарила ему на 13-летие плеер. С тех пор парень стал слушать рэп, а затем и сам стал писать. Так пацан Ваня стал на районе известен как Бонус. У Бонуса был друг по кличке Гашик – уличный дилер, и именно он волею случая привозит Бонуса в Москву. В столице Бонус знакомится с Соней – дочкой крупного бизнесмена, между ними возникает сильное притяжение. Бонусу предстоит пережить ­несчастную любовь, конфликты с отцом девушки, взлеты и падения на фоне столичной рэп-­тусовки.",
  "iframe_url": "",
  "poster": "https://img.imgilall.me/movies/franchise/4/3/3/1/0/0/0/0/0/0/610x900_4331.jpg",
  "country": {
    "5": "Россия"
  },
  "collection": {
    "108": "ТНТ",
    "38": "Про любовь",
    "21": "Для молодёжи"
  },
  "genre": {
    "22": "Русский",
    "7": "Драма"
  },
  "director": [
    "Валерия Гай Германика"
  ],
  "screenwriter": [
    "Дмитрий Иванов"
  ],
  "producer": [
    "Валерий Федорович",
    "Евгений Никишов",
    "Антон Калинкин"
  ],
  "operator": [
    "Виктор Бормотов",
    "Всеволод Каптур",
    "Иван Ченгич"
  ],
  "composer": [
    "Александр Пархоменко"
  ],
  "design": [
    "Сергей Пахомов",
    "Татьяна Долматовская"
  ],
  "editor": [
    "Глеб Росс",
    "Дмитрий Корабельников",
    "Степан Гордеев"
  ],
  "actors": [
    "Александр Сударев",
    "Лана Райдер",
    "Артем Сучков",
    "Дмитрий Смирнов",
    "Антон Адасинский",
    "Алексей Литвиненко",
    "Юлия Ауг",
    "Александр Усердин",
    "Лариса Баранова",
    "Евгения Храповицкая"
  ],
  "actors_dubl": [
    "Александр Пархоменко",
    "Владимир Епифанцев"
  ],
  "trivia": [],
  "trailers": [],
  "seasons": [
    {
      "poster": "https://img.imgilall.me/movies/season/3/6/1/7/0/0/0/0/0/0/610x900_3617.jpg",
      "release_ru": "2018-09-21",
      "release_world": "2018-09-20",
      "availability": "2018-09-22",
      "iframe_url": "",
      "season": 1,
      "episodes": [
        {
          "episode": 1,
          "name": null,
          "iframe_url": "",
          "iframe_poster": "https://img.imgilall.me/movies/video/5/7/7/5/5/0/0/0/0/0/800x450_57755.jpeg",
          "release_ru": "2018-09-21",
          "release_world": "2018-09-20",
          "availability": "2018-09-22",
          "voiceActing": [
            "Рус. Оригинальный"
          ],
          "ads": false,
          "subtitle": []
        },
        {
          "episode": 2,
          "name": null,
          "iframe_url": "",
          "iframe_poster": "https://img.imgilall.me/movies/video/5/7/7/5/6/0/0/0/0/0/800x450_57756.jpeg",
          "release_ru": "2018-09-21",
          "release_world": "2018-09-20",
          "availability": "2018-09-22",
          "voiceActing": [
            "Рус. Оригинальный"
          ],
          "ads": false,
          "subtitle": []
        },
        {
          "episode": 3,
          "name": null,
          "iframe_url": "",
          "iframe_poster": "https://img.imgilall.me/movies/video/5/7/7/5/7/0/0/0/0/0/800x450_57757.jpeg",
          "release_ru": "2018-09-21",
          "release_world": "2018-09-20",
          "availability": "2018-09-22",
          "voiceActing": [
            "Рус. Оригинальный"
          ],
          "ads": false,
          "subtitle": []
        },
        {
          "episode": 4,
          "name": null,
          "iframe_url": "",
          "iframe_poster": "https://img.imgilall.me/movies/video/5/7/7/5/8/0/0/0/0/0/800x450_57758.jpeg",
          "release_ru": "2018-09-28",
          "release_world": "2018-09-27",
          "availability": "2018-09-29",
          "voiceActing": [
            "Рус. Оригинальный"
          ],
          "ads": false,
          "subtitle": []
        },
        {
          "episode": 5,
          "name": null,
          "iframe_url": "",
          "iframe_poster": "https://img.imgilall.me/movies/video/5/7/7/5/9/0/0/0/0/0/800x450_57759.jpeg",
          "release_ru": "2018-10-05",
          "release_world": "2018-10-04",
          "availability": "2018-10-06",
          "voiceActing": [
            "Рус. Оригинальный"
          ],
          "ads": false,
          "subtitle": []
        },
        {
          "episode": 6,
          "name": null,
          "iframe_url": "",
          "iframe_poster": "https://img.imgilall.me/movies/video/5/7/7/6/0/0/0/0/0/0/800x450_57760.jpeg",
          "release_ru": "2018-10-12",
          "release_world": "2018-10-11",
          "availability": "2018-10-13",
          "voiceActing": [
            "Рус. Оригинальный"
          ],
          "ads": false,
          "subtitle": []
        },
        {
          "episode": 7,
          "name": null,
          "iframe_url": "",
          "iframe_poster": "https://img.imgilall.me/movies/video/5/7/7/6/1/0/0/0/0/0/800x450_57761.jpeg",
          "release_ru": "2018-10-19",
          "release_world": "2018-10-18",
          "availability": "2018-10-20",
          "voiceActing": [
            "Рус. Оригинальный"
          ],
          "ads": false,
          "subtitle": []
        },
        {
          "episode": 8,
          "name": null,
          "iframe_url": "",
          "iframe_poster": "https://img.imgilall.me/movies/video/5/7/7/6/2/0/0/0/0/0/800x450_57762.jpeg",
          "release_ru": "2018-10-26",
          "release_world": "2018-10-25",
          "availability": "2018-10-27",
          "voiceActing": [
            "Рус. Оригинальный"
          ],
          "ads": false,
          "subtitle": []
        },
        {
          "episode": 9,
          "name": null,
          "iframe_url": "",
          "iframe_poster": "https://img.imgilall.me/movies/video/5/7/7/6/3/0/0/0/0/0/800x450_57763.jpeg",
          "release_ru": "2018-11-02",
          "release_world": "2018-11-01",
          "availability": "2018-11-03",
          "voiceActing": [
            "Рус. Оригинальный"
          ],
          "ads": false,
          "subtitle": []
        },
        {
          "episode": 10,
          "name": null,
          "iframe_url": "",
          "iframe_poster": "https://img.imgilall.me/movies/video/5/7/7/6/4/0/0/0/0/0/800x450_57764.jpeg",
          "release_ru": "2018-11-09",
          "release_world": "2018-11-08",
          "availability": "2018-11-10",
          "voiceActing": [
            "Рус. Оригинальный"
          ],
          "ads": false,
          "subtitle": []
        },
        {
          "episode": 11,
          "name": null,
          "iframe_url": "",
          "iframe_poster": "https://img.imgilall.me/movies/video/5/7/7/6/5/0/0/0/0/0/800x450_57765.jpeg",
          "release_ru": "2018-11-16",
          "release_world": "2018-11-15",
          "availability": "2018-11-17",
          "voiceActing": [
            "Рус. Оригинальный"
          ],
          "ads": false,
          "subtitle": []
        },
        {
          "episode": 12,
          "name": null,
          "iframe_url": "",
          "iframe_poster": "https://img.imgilall.me/movies/video/5/7/7/6/6/0/0/0/0/0/800x450_57766.jpeg",
          "release_ru": "2018-11-23",
          "release_world": "2018-11-22",
          "availability": "2018-11-24",
          "voiceActing": [
            "Рус. Оригинальный"
          ],
          "ads": false,
          "subtitle": []
        },
        {
          "episode": 13,
          "name": null,
          "iframe_url": "",
          "iframe_poster": "https://img.imgilall.me/movies/video/5/7/7/6/7/0/0/0/0/0/800x450_57767.jpeg",
          "release_ru": "2018-11-30",
          "release_world": "2018-11-29",
          "availability": "2018-12-01",
          "voiceActing": [
            "Рус. Оригинальный"
          ],
          "ads": false,
          "subtitle": []
        },
        {
          "episode": 14,
          "name": null,
          "iframe_url": "",
          "iframe_poster": "https://img.imgilall.me/movies/video/5/7/7/6/8/0/0/0/0/0/800x450_57768.jpeg",
          "release_ru": "2018-12-07",
          "release_world": "2018-12-06",
          "availability": "2018-12-08",
          "voiceActing": [
            "Рус. Оригинальный"
          ],
          "ads": false,
          "subtitle": []
        },
        {
          "episode": 15,
          "name": null,
          "iframe_url": "",
          "iframe_poster": "https://img.imgilall.me/movies/video/5/7/7/6/9/0/0/0/0/0/800x450_57769.jpeg",
          "release_ru": "2018-12-14",
          "release_world": "2018-12-13",
          "availability": "2018-12-15",
          "voiceActing": [
            "Рус. Оригинальный"
          ],
          "ads": false,
          "subtitle": []
        },
        {
          "episode": 16,
          "name": null,
          "iframe_url": "",
          "iframe_poster": "https://img.imgilall.me/movies/video/5/7/7/7/0/0/0/0/0/0/800x450_57770.jpeg",
          "release_ru": "2018-12-21",
          "release_world": "2018-12-20",
          "availability": "2018-12-22",
          "voiceActing": [
            "Рус. Оригинальный"
          ],
          "ads": false,
          "subtitle": []
        }
      ]
    }
  ],
  "voiceActing": [
    "Рус. Оригинальный"
  ],
  "subtitle": [],
  "parts": []
}
