{
  "id": 4350,
  "name": "Слепота",
  "name_eng": "Blindness",
  "year": 2008,
  "slogan": "«This fall, our vision of the world will change forever»",
  "age": "16+",
  "type": "film",
  "quality": "HD (720p)",
  "imdb": "6.6",
  "imdb_id": "0861689",
  "kinopoisk": "6.6",
  "kinopoisk_id": "272127",
  "world_art": null,
  "world_art_id": null,
  "time": "121 мин. / 02:01",
  "ads": false,
  "premier": "2008-05-14",
  "premier_rus": "2010-04-08",
  "availability": null,
  "activate_time": "2018-12-06 11:03:52",
  "budget": "$25 000 000",
  "fees_use": "$3 351 751",
  "fees_world": "$19 844 979",
  "fees_rus": "$25 245",
  "rate_mpaa": "R",
  "description": "Место действия фильма — огромный мегаполис, у которого нет названия. Именно здесь начинается странная эпидемия… эпидемия слепоты. Жители города теряют зрение один за другим и, это ставит целый мегаполис на грань жизни и смерти. Лишь одна женщина по неизвестной причине осталась видеть. Сможет ли она стать проводником для других?",
  "iframe_url": "",
  "iframe_poster": "https://img.imgilall.me/movies/video/4/8/2/4/4/0/0/0/0/0/800x450_48244.jpeg",
  "poster": "https://img.imgilall.me/movies/franchise/4/3/5/0/0/0/0/0/0/0/610x900_4350.jpg",
  "country": {
    "7": "Канада",
    "18": "Япония",
    "30": "Бразилия"
  },
  "collection": {
    "33": "Экранизация книг"
  },
  "genre": {
    "11": "Фантастика",
    "24": "Детектив",
    "13": "Триллер",
    "10": "Зарубежный",
    "7": "Драма"
  },
  "director": [
    "Фернанду Мейреллиш"
  ],
  "screenwriter": [
    "Дон МакКеллар",
    "Жозе Сарамаго"
  ],
  "producer": [
    "Андреа Барата Рибейро",
    "Нив Фичман",
    "Соноко Сакаи"
  ],
  "operator": [
    "Сезар Шарлони"
  ],
  "composer": [
    "Марко Антонио Гимараеш"
  ],
  "design": [
    "Мэттью Дейвис",
    "Тул Пик",
    "Тьяго Маркус Тейшейра"
  ],
  "editor": [
    "Даниэл Резенде"
  ],
  "actors": [
    "Джулианна Мур",
    "Марк Руффало",
    "Гаэль Гарсиа Берналь",
    "Дэнни Гловер",
    "Алиси Брага",
    "Юсукэ Исэя",
    "Джейсон Бермингем",
    "Эдуардо Семирян",
    "Дон МакКеллар",
    "Кика Мейреллиш"
  ],
  "actors_dubl": [],
  "trivia": [
    "Фильм снят по мотивам романа Жозе Сарамаго «Слепота» (Ensaio sobre a cegueira, 1997).",
    "Первоначально главную мужскую роль должен был сыграть Дэниэл Крэйг. Но ввиду занятости в других проектах эта роль досталась Марку Руффало.",
    "Фильм основан на романе португальского писателя, нобелевского лауреата, Жозе Сарамаго. Книга вышла на португальском языке в 1995 году, а затем два года спустя была переведена на английский и опубликована под названием «Слепота» в США.",
    "Первоначально автор книги был очень настороженно настроен по отношению к продаже прав на неё и возможной экранизации. Получил отказ в том числе и сам Фернандо Мейреллеш. Лёд был сломлен, когда продюсер Нив Фичман и будущий автор сценария Дон МакКеллар в 1999 году посетили Жозе Сарамаго в его доме на Канарских островах. Обязательным условием со стороны писателя было то, что действие в фильме не должно быть привязано ни к одной реально существующей стране.",
    "Автор книги Жозе Сарамаго очень хотел увидеть премьеру фильма на Каннском кинофестивале. Его врачи не позволили ему путешествие по состоянию здоровья, и в ответ на это режиссер сам прилетел в Лиссабон, чтобы показать фильм писателю.",
    "Режиссер Фернандо Мейреллеш сначала планировал снять фильм на португальском языке, но затем отказался от этой идеи, посчитав, что это изначально существенно ограничит его аудиторию.",
    "На съёмках фильма было задействовано около 700 участников массовки, которые специально были тренированы изображать слепоту. Специальными тренерами по этой части были снимавшийся в предыдущем фильме режиссера «Город Бога» (2002) Кристиан Вуурвоорт и Барбара Кристин Свит.",
    "Фильм вызвал крайне негативную реакцию у американского Национального общества слепых и других организаций, представляющих интересы незрячих и слабовидящих. В выпущенном перед премьерой пресс-релизе председатель Национального общества слепых доктор Марк Мурер заявил, что фильм и книга отображают в негативном виде слепых в Соединённых Штатах и во всём мире. Непосредственно перед премьерой фильма были запланированы и проведены акции протеста во многих штатах.",
    "Примерно на 40-ой минуте фильма, где речь идет о эпидемии повсеместно, о том, что разбиваются самолеты, автобусы и транспортная система терпит хаос, показывают фрагмент черно-белой записи видеонаблюдения из Лефортовского тоннеля, Москва."
  ],
  "trailers": [],
  "seasons": [],
  "voiceActing": [
    "Рус. Проф. двухголосый",
    "Eng.Original"
  ],
  "subtitle": [],
  "parts": []
}
