{
  "id": 43527,
  "name": "Элоди",
  "name_eng": "Elodie",
  "year": 2019,
  "slogan": "—",
  "age": null,
  "type": "film",
  "quality": "HD (720p)",
  "imdb": "4.8",
  "imdb_id": "8723412",
  "kinopoisk": null,
  "kinopoisk_id": "1253182",
  "world_art": null,
  "world_art_id": null,
  "time": "95 мин. / 01:35",
  "ads": true,
  "premier": "2019-10-05",
  "premier_rus": null,
  "availability": null,
  "activate_time": "2021-01-12 16:03:00",
  "budget": null,
  "fees_use": null,
  "fees_world": null,
  "fees_rus": null,
  "rate_mpaa": null,
  "description": null,
  "iframe_url": "",
  "iframe_poster": null,
  "poster": "https://img.imgilall.me/movies/franchise/4/3/5/2/7/0/0/0/0/0/610x900_43527.jpg",
  "country": {
    "1": "США"
  },
  "collection": [],
  "genre": {
    "7": "Драма"
  },
  "director": [
    "Дэниэл Циглер"
  ],
  "screenwriter": [
    "Дэниэл Циглер"
  ],
  "producer": [
    "Eric Clark",
    "Дэниэл Циглер",
    "Katelyn Ziegler"
  ],
  "operator": [
    "Logan Fetters"
  ],
  "composer": [
    "Louis Coste"
  ],
  "design": [
    "Nick Cagnetti"
  ],
  "editor": [
    "Дэниэл Циглер"
  ],
  "actors": [
    "Faith Decker",
    "Taylor McGlone",
    "Ian Holt",
    "Brittney Watson",
    "Taylor Dahl",
    "Brandon Caraco",
    "Andrew Dull",
    "Kiersten Mason",
    "Gyesenia McKenzie",
    "Stephanie Osswald"
  ],
  "actors_dubl": [],
  "trivia": [],
  "trailers": [],
  "seasons": [],
  "voiceActing": [
    "Рус. Люб. многоголосый"
  ],
  "subtitle": [],
  "parts": []
}
