{
  "id": 43551,
  "name": "Команда восемь",
  "name_eng": "",
  "year": 2011,
  "slogan": "—",
  "age": "16+",
  "type": "series",
  "quality": "FHD (1080p)",
  "imdb": null,
  "imdb_id": null,
  "kinopoisk": "5.2",
  "kinopoisk_id": "678337",
  "world_art": null,
  "world_art_id": null,
  "time": "50 мин. серия (200 мин. всего)",
  "ads": false,
  "premier": null,
  "premier_rus": null,
  "availability": null,
  "serial_status": "offline",
  "activate_time": "2021-01-12 18:14:00",
  "budget": null,
  "fees_use": null,
  "fees_world": null,
  "fees_rus": null,
  "rate_mpaa": null,
  "description": "В первые месяцы войны трое молодых людей – Рита, Ваня и Яшка – оказываются замешаны в страшной криминальной истории: родители Риты жестоко убиты, Яшка стал невольным соучастником убийства, а Ваня – случайным свидетелем.Все трое попадают в один разведотряд, который готовятся забросить в тыл немцев, наступающих на Москву. Там, на фоне войны, им предстоит узнать всю правду о себе и разгадать тайну гибели родителей Риты.",
  "iframe_url": "",
  "poster": "https://img.imgilall.me/movies/franchise/4/3/5/5/1/0/0/0/0/0/610x900_43551.jpg",
  "country": {
    "5": "Россия"
  },
  "collection": [],
  "genre": {
    "9": "Приключения",
    "32": "Военный",
    "7": "Драма"
  },
  "director": [
    "Александр Аравин"
  ],
  "screenwriter": [
    "Леонид Порохня"
  ],
  "producer": [
    "Сергей Даниелян",
    "Денис Фролов",
    "Дмитрий Ефремов"
  ],
  "operator": [
    "Виктор Шейнин"
  ],
  "composer": [
    "Алексей Шелыгин"
  ],
  "design": [
    "Александр Максимович"
  ],
  "editor": [],
  "actors": [
    "Анастасия Лукьянова",
    "Митя Лабуш",
    "Филипп Бледный",
    "Егор Червяков",
    "Дмитрий Лукьянов",
    "Николай Козак",
    "Виктор Вержбицкий",
    "Андрей Карако",
    "Евгений Антропов",
    "Дмитрий Ульянов"
  ],
  "actors_dubl": [],
  "trivia": [],
  "trailers": [],
  "seasons": [
    {
      "poster": null,
      "release_ru": null,
      "release_world": null,
      "availability": null,
      "iframe_url": "",
      "season": 1,
      "episodes": [
        {
          "episode": 1,
          "name": null,
          "iframe_url": "",
          "iframe_poster": null,
          "release_ru": null,
          "release_world": null,
          "availability": null,
          "voiceActing": [
            "Рус. Оригинальный"
          ],
          "ads": false,
          "subtitle": []
        },
        {
          "episode": 2,
          "name": null,
          "iframe_url": "",
          "iframe_poster": null,
          "release_ru": null,
          "release_world": null,
          "availability": null,
          "voiceActing": [
            "Рус. Оригинальный"
          ],
          "ads": false,
          "subtitle": []
        },
        {
          "episode": 3,
          "name": null,
          "iframe_url": "",
          "iframe_poster": null,
          "release_ru": null,
          "release_world": null,
          "availability": null,
          "voiceActing": [
            "Рус. Оригинальный"
          ],
          "ads": false,
          "subtitle": []
        },
        {
          "episode": 4,
          "name": null,
          "iframe_url": "",
          "iframe_poster": null,
          "release_ru": null,
          "release_world": null,
          "availability": null,
          "voiceActing": [
            "Рус. Оригинальный"
          ],
          "ads": false,
          "subtitle": []
        }
      ]
    }
  ],
  "voiceActing": [
    "Рус. Оригинальный"
  ],
  "subtitle": [],
  "parts": []
}
