{
  "id": 43642,
  "name": "Приключения пингвиненка Лоло. Фильм первый",
  "name_eng": "",
  "year": 1986,
  "slogan": "—",
  "age": "6+",
  "type": "cartoon",
  "quality": "SD",
  "imdb": "7.6",
  "imdb_id": "0098259",
  "kinopoisk": "8.1",
  "kinopoisk_id": "186762",
  "world_art": null,
  "world_art_id": null,
  "time": "30 мин.",
  "ads": false,
  "premier": "1986-01-01",
  "premier_rus": "1986-01-02",
  "availability": "1986-01-03",
  "activate_time": "2021-01-15 17:47:00",
  "budget": null,
  "fees_use": null,
  "fees_world": null,
  "fees_rus": null,
  "rate_mpaa": null,
  "description": "О занимательных приключениях пингвиненка Лоло, о природе и животном мире Антарктиды.",
  "iframe_url": "",
  "iframe_poster": null,
  "poster": "https://img.imgilall.me/movies/franchise/4/3/6/4/2/0/0/0/0/0/610x900_43642.jpg",
  "country": {
    "24": "СССР",
    "18": "Япония"
  },
  "collection": [],
  "genre": {
    "9": "Приключения",
    "53": "Короткометражный",
    "37": "Детский",
    "33": "Семейный"
  },
  "director": [
    "Геннадий Сокольский",
    "Кэндзи Ёсида"
  ],
  "screenwriter": [
    "Эйчи Тати",
    "Виктор Мережко"
  ],
  "producer": [],
  "operator": [
    "Александр Чеховский"
  ],
  "composer": [
    "Масахито Маруяма"
  ],
  "design": [
    "Татьяна Сокольская",
    "Хиромицу Морита",
    "Юкио Абэ"
  ],
  "editor": [
    "Наталия Степанцева"
  ],
  "actors": [
    "Ролан Быков",
    "Вячеслав Невинный",
    "Елена Санаева",
    "Николай Граббе",
    "Светлана Степченко",
    "Людмила Гнилова",
    "Юрий Андреев",
    "Анатолий Соловьев",
    "Татьяна Курьянова",
    "Алексей Баталов"
  ],
  "actors_dubl": [],
  "trivia": [],
  "trailers": [],
  "seasons": [],
  "voiceActing": [
    "Рус. Оригинальный"
  ],
  "subtitle": [],
  "parts": []
}
