{
  "id": 43681,
  "name": "LEGO Холодное сердце: Северное сияние",
  "name_eng": "Lego Frozen Northern Lights",
  "year": 2016,
  "slogan": "—",
  "age": null,
  "type": "cartoon-series",
  "quality": "HD (720p)",
  "imdb": "5.7",
  "imdb_id": "6110430",
  "kinopoisk": null,
  "kinopoisk_id": "1008498",
  "world_art": null,
  "world_art_id": null,
  "time": "5 мин. серия (20 мин. всего)",
  "ads": false,
  "premier": "2016-12-09",
  "premier_rus": "2016-12-10",
  "availability": "2016-12-11",
  "serial_status": "offline",
  "activate_time": "2021-01-18 19:14:00",
  "budget": null,
  "fees_use": null,
  "fees_world": null,
  "fees_rus": null,
  "rate_mpaa": null,
  "description": "Удивительные приключения любимых героев из королевства Эренделл продолжаются! На этот раз Анне, Эльзе, Кристоффу и их друзьям предстоит спасти Северное сияние. На пути к цели их ждут невероятные открытия на просторах зимнего леса.",
  "iframe_url": "",
  "poster": "https://img.imgilall.me/movies/franchise/4/3/6/8/1/0/0/0/0/0/610x900_43681.jpg",
  "country": {
    "1": "США"
  },
  "collection": [],
  "genre": {
    "9": "Приключения",
    "6": "Фэнтези",
    "33": "Семейный",
    "19": "Комедия"
  },
  "director": [
    "Стивен Спенсер"
  ],
  "screenwriter": [
    "Марк Хоффмейер"
  ],
  "producer": [
    "Оле Холм Кристенсен",
    "Роберт Фьюкес",
    "Кит Мэлоун"
  ],
  "operator": [],
  "composer": [
    "Джэйк Монако"
  ],
  "design": [],
  "editor": [],
  "actors": [
    "Идина Мензел",
    "Кристен Белл",
    "Джонатан Грофф",
    "Джош Гад",
    "Эшлин Фэйт Уильямс",
    "Фрэнк Уэлкер",
    "Крис Эджерли",
    "Картер Хатингс",
    "Киран Хайндс",
    "Фред Таташиор"
  ],
  "actors_dubl": [
    "Екатерина Тихомирова",
    "Василиса Ручимская",
    "Константин Панченко",
    "Давид Бродский",
    "Марианна Мокшина"
  ],
  "trivia": [],
  "trailers": [],
  "seasons": [
    {
      "poster": null,
      "release_ru": null,
      "release_world": null,
      "availability": null,
      "iframe_url": "",
      "season": 1,
      "episodes": [
        {
          "episode": 1,
          "name": null,
          "iframe_url": "",
          "iframe_poster": null,
          "release_ru": null,
          "release_world": null,
          "availability": null,
          "voiceActing": [
            "Рус. Дублированный",
            "Eng.Original"
          ],
          "ads": false,
          "subtitle": [
            "Eng. full"
          ]
        }
      ]
    }
  ],
  "voiceActing": [
    "Рус. Дублированный",
    "Eng.Original"
  ],
  "subtitle": [
    "Eng. full"
  ],
  "parts": []
}
