{
  "id": 43705,
  "name": "Приключения канонира Доласа",
  "name_eng": "Jak rozpetalem druga wojne swiatowa",
  "year": 1969,
  "slogan": "—",
  "age": "16+",
  "type": "series",
  "quality": "HD (720p)",
  "imdb": "8.0",
  "imdb_id": "0065908",
  "kinopoisk": "7.9",
  "kinopoisk_id": "66389",
  "world_art": null,
  "world_art_id": null,
  "time": "234 мин. / 03:54",
  "ads": false,
  "premier": "1970-04-02",
  "premier_rus": "1970-04-03",
  "availability": "1970-04-04",
  "serial_status": "offline",
  "activate_time": "2021-01-19 13:47:00",
  "budget": null,
  "fees_use": null,
  "fees_world": null,
  "fees_rus": null,
  "rate_mpaa": null,
  "description": "1 сентября 1939 года. Польский солдат Франтишек Долас, проспав свою станцию, просыпается ночью в поезде на польско-немецкой границе. С его выстрела в немецкого офицера, которого Долас принял за диверсанта, в результате комичных совпадений, начинается не только Вторая мировая война, но и цепь невероятных приключений в немецком лагере для военнопленных, Австрии, Африке, Югославии и в Польше, на суше, в море и в воздухе.",
  "iframe_url": "",
  "poster": "https://img.imgilall.me/movies/franchise/4/3/7/0/5/0/0/0/0/0/610x900_43705.jpg",
  "country": {
    "14": "Польша"
  },
  "collection": [],
  "genre": {
    "9": "Приключения",
    "32": "Военный",
    "19": "Комедия"
  },
  "director": [
    "Тадеуш Хмелевский"
  ],
  "screenwriter": [
    "Тадеуш Хмелевский"
  ],
  "producer": [],
  "operator": [
    "Ежи Ставицкий"
  ],
  "composer": [
    "Ежи Матушкевич"
  ],
  "design": [
    "Болеслав Камыковский",
    "Марта Кобирска",
    "Лидия Рзешевская"
  ],
  "editor": [
    "Янина Недзвецка"
  ],
  "actors": [
    "Мариан Кочиняк",
    "Джанина Боронска",
    "Адам Киприан",
    "Виргилиуш Грынь",
    "Здзислав Кузьняр",
    "Юзеф Лодыньский",
    "Ярослав Скульский",
    "Томаш Заливский",
    "Эльжбета Старостецка",
    "Анджей Гавроньский"
  ],
  "actors_dubl": [
    "Алексей Золотницкий",
    "Виктор Авдюшко",
    "Михаил Глузский",
    "Андрей Тарасов",
    "Юрий Боголюбов"
  ],
  "trivia": [],
  "trailers": [],
  "seasons": [
    {
      "poster": null,
      "release_ru": null,
      "release_world": null,
      "availability": null,
      "iframe_url": "",
      "season": 1,
      "episodes": [
        {
          "episode": 1,
          "name": null,
          "iframe_url": "",
          "iframe_poster": null,
          "release_ru": null,
          "release_world": null,
          "availability": null,
          "voiceActing": [
            "Рус. Дублированный",
            "Рус. Одноголосый"
          ],
          "ads": false,
          "subtitle": []
        },
        {
          "episode": 2,
          "name": null,
          "iframe_url": "",
          "iframe_poster": null,
          "release_ru": null,
          "release_world": null,
          "availability": null,
          "voiceActing": [
            "Рус. Дублированный",
            "Рус. Одноголосый"
          ],
          "ads": false,
          "subtitle": []
        },
        {
          "episode": 3,
          "name": null,
          "iframe_url": "",
          "iframe_poster": null,
          "release_ru": null,
          "release_world": null,
          "availability": null,
          "voiceActing": [
            "Рус. Дублированный",
            "Рус. Одноголосый"
          ],
          "ads": false,
          "subtitle": []
        }
      ]
    }
  ],
  "voiceActing": [
    "Рус. Дублированный",
    "Рус. Одноголосый"
  ],
  "subtitle": [],
  "parts": []
}
