{
  "id": 43739,
  "name": "Голос",
  "name_eng": "Glas",
  "year": 2019,
  "slogan": "—",
  "age": null,
  "type": "film",
  "quality": "HD (720p)",
  "imdb": "5.2",
  "imdb_id": "8230080",
  "kinopoisk": null,
  "kinopoisk_id": "1153749",
  "world_art": null,
  "world_art_id": null,
  "time": "80 мин. / 01:20",
  "ads": true,
  "premier": "2019-10-03",
  "premier_rus": "2019-10-04",
  "availability": "2019-10-05",
  "activate_time": "2021-01-20 19:22:00",
  "budget": null,
  "fees_use": null,
  "fees_world": null,
  "fees_rus": null,
  "rate_mpaa": null,
  "description": null,
  "iframe_url": "",
  "iframe_poster": null,
  "poster": "https://img.imgilall.me/movies/franchise/4/3/7/3/9/0/0/0/0/0/610x900_43739.jpg",
  "country": {
    "15": "Сербия",
    "76": "Хорватия"
  },
  "collection": [],
  "genre": {
    "7": "Драма"
  },
  "director": [
    "Огньен Свиличич"
  ],
  "screenwriter": [
    "Огньен Свиличич",
    "Marijana Verhoef"
  ],
  "producer": [
    "Damir Teresak",
    "Томи Салковски",
    "Николина Вуцетич"
  ],
  "operator": [
    "Marinko Marinkic"
  ],
  "composer": [],
  "design": [
    "Ivana Skrabalo",
    "Emilija Ivanovska Atanasovska"
  ],
  "editor": [
    "Наташа Пантич"
  ],
  "actors": [
    "Горан Богдан",
    "Barbara Vickovic",
    "Josip Lukic",
    "Klara Mucci",
    "Mia Petricevic",
    "Стайп Радожа",
    "Franko Jakovcevic",
    "Игорь Ковач",
    "Sime Situm",
    "Karla Brbic"
  ],
  "actors_dubl": [],
  "trivia": [],
  "trailers": [],
  "seasons": [],
  "voiceActing": [
    "Рус. Люб. многоголосый"
  ],
  "subtitle": [],
  "parts": []
}
