{
  "id": 43770,
  "name": "Кровожадный свин-вампир",
  "name_eng": "Pig Blood Vampire",
  "year": 2020,
  "slogan": "—",
  "age": null,
  "type": "film",
  "quality": "HD (720p)",
  "imdb": "4.4",
  "imdb_id": "9772164",
  "kinopoisk": null,
  "kinopoisk_id": "1237366",
  "world_art": null,
  "world_art_id": null,
  "time": "66 мин. / 01:06",
  "ads": true,
  "premier": "2020-05-21",
  "premier_rus": null,
  "availability": null,
  "activate_time": "2021-01-21 20:05:00",
  "budget": null,
  "fees_use": null,
  "fees_world": null,
  "fees_rus": null,
  "rate_mpaa": null,
  "description": null,
  "iframe_url": "",
  "iframe_poster": null,
  "poster": "https://img.imgilall.me/movies/franchise/4/3/7/7/0/0/0/0/0/0/610x900_43770.jpg",
  "country": {
    "1": "США"
  },
  "collection": [],
  "genre": {
    "19": "Комедия"
  },
  "director": [
    "Ник Джозефс"
  ],
  "screenwriter": [
    "Ник Джозефс"
  ],
  "producer": [
    "Ник Джозефс"
  ],
  "operator": [
    "Sarah Josephs Yapelli"
  ],
  "composer": [
    "Ник Джозефс"
  ],
  "design": [],
  "editor": [
    "Ник Джозефс"
  ],
  "actors": [
    "Ник Джозефс",
    "Sara Young Chandler",
    "Пол Хертель",
    "Sebastian Fernandez",
    "Миа Фэйт",
    "Faith Richards",
    "Мари Груичич-Делаж",
    "Avalon Warren",
    "Chuck Porter",
    "Shudan Wang"
  ],
  "actors_dubl": [],
  "trivia": [],
  "trailers": [],
  "seasons": [],
  "voiceActing": [
    "Рус. Люб. многоголосый"
  ],
  "subtitle": [],
  "parts": []
}
