{
  "id": 4378,
  "name": "Техасская резня бензопилой 3D",
  "name_eng": "Texas Chainsaw 3D",
  "year": 2013,
  "slogan": "«Evil wears many faces»",
  "age": "18+",
  "type": "film",
  "quality": "HD (720p)",
  "imdb": "4.8",
  "imdb_id": "1572315",
  "kinopoisk": "4.9",
  "kinopoisk_id": "493202",
  "world_art": null,
  "world_art_id": null,
  "time": "88 мин. / 01:28",
  "ads": false,
  "premier": "2013-01-03",
  "premier_rus": "2013-02-07",
  "availability": null,
  "activate_time": "2018-12-06 14:00:13",
  "budget": "$20 000 000",
  "fees_use": "$34 341 945",
  "fees_world": "$47 241 945",
  "fees_rus": "$1 714 875",
  "rate_mpaa": "R",
  "description": "Местный шериф согласился организовать для Джеба Сойера, который и скрывался под Кожаным лицом, честный судебный процесс и предоставить ему адвоката. Однако его намерениям мешает мэр, который ведет за собой толпу людей, жаждущих линчевать кровавого маньяка. Когда ситуация начинает выходить из-под контроля, а горожане принимаются ладить петли для убийцы, кто-то бросает в дом Сойера бутылку с зажигательной смесью. Дом сгорает, а вместе с ним в огне гибнут и все, кто в нем находился, включая самого Джеба и его отца. Разумеется, спустя определенное время убийства с помощью бензопилы начинаются снова. Первое предположение шерифа — Джеб Сойер выжил и решил отомстить. Но он ли это на самом деле? И если нет, то кто?",
  "iframe_url": "",
  "iframe_poster": "https://img.imgilall.me/movies/video/5/3/7/0/0/0/0/0/0/0/800x450_53700.jpeg",
  "poster": "https://img.imgilall.me/movies/franchise/4/3/7/8/0/0/0/0/0/0/610x900_4378.jpg",
  "country": {
    "1": "США"
  },
  "collection": [],
  "genre": {
    "26": "Ужасы",
    "10": "Зарубежный"
  },
  "director": [
    "Джон Льюсенхоп"
  ],
  "screenwriter": [
    "Адам Маркус",
    "Дебра Салливан",
    "Кирстен МакКаллион"
  ],
  "producer": [
    "Карл Маццоконе",
    "Рене Бессон",
    "Синди Бреннер"
  ],
  "operator": [
    "Анастас Н. Микос"
  ],
  "composer": [
    "Джон Фриззелл"
  ],
  "design": [
    "Уильям А. Эллиотт",
    "Мэри Е. МакЛеод"
  ],
  "editor": [
    "Рэнди Брикер"
  ],
  "actors": [
    "Александра Даддарио",
    "Дэн Игер",
    "Трей Сонгз",
    "Таня Рэймонд",
    "Том Бэрри",
    "Пол Рэй",
    "Билл Моусли",
    "Скотт Иствуд",
    "Шон Сайпос",
    "Керам Малики-Санчес"
  ],
  "actors_dubl": [
    "Наталья Фищук",
    "Прохор Чеховской",
    "Вероника Саркисова",
    "Александр Хорлин",
    "Константин Карасик"
  ],
  "trivia": [
    "Первый сиквел «Техасской резни бензопилой», снятый без поддержки компании Platinum Dunes.",
    "В 2009 году компания Platinum Dunes объявила о своем отказе продолжать франшизу после выхода картины «Техасская резня бензопилой: Начало». Права на «Техасскую резню бензопилой» были перекуплены студией Lionsgate.",
    "Мэрилин Бёрнс, которая играла Салли Хардести в оригинальном фильме, здесь играет персонажа по имени Верна. Этот фильм и фильм «Обвальщики» (2012) стали ее первым появлением в кино за последние 28 лет (если не считать ее эпизодическую роль в фильме «Техасская резня бензопилой 4: Новое поколение», 1994).",
    "Первоначально выдвигалась идея о новой трилогии. При этом второй фильм являлся бы приквелом к первому. Первый фильм был бы полностью про больницу, второй описывал бы предшествующие события, а третий завершал бы сюжетную линию. Но, побоявшись, что это слишком амбициозный и рискованный проект, продюсеры предпочли следовать исходной истории.",
    "Сцены в горящем доме Сойера в начале фильма снимались в Шривпорте в 40-градусную жару.",
    "Гуннар Хансен играл Кожаное Лицо в фильме «Техасская резня бензопилой» (1974).",
    "Джон Дуган, который сыграл дедушку в фильме «Техасская резня бензопилой» (1974), повторил свою роль и в этом фильме.",
    "Билл Моусли играл Роберта Сойера в фильме «Техасская резня бензопилой 2» (1986). В этом фильме он сыграл Дрейтона Сойера, повара из первых двух фильмов.",
    "В этом фильме снимались четыре актера из предыдущих частей франшизы, до этого максимально было три человека (в фильме «Техасская резня бензопилой 4: Новое поколение», 1994).",
    "Персонаж Тома Бэрри, шериф Хупер, назван так в честь Тоуба Хупера, который был сценаристом и режиссером первых двух фильмов.",
    "У этого фильма не было предварительного показа для кинокритиков.",
    "В первоначальной версии сценария имя Кожаного Лица было Джебедия Сойер. Однако позже его заменили на Джедидия Сойер. В ремейке 2003 года Джедидия — имя ребенка в семье Хьюитт.",
    "В этом фильме, как и в оригинале, первую жертву забили до смерти во время блужданий по дому в одиночестве.",
    "В этом фильме три различных актера играют роль Кожаного Лица. Гуннар Хансен изображает его в архивных кадрах, Сэм МакКинзи играет его в молодости, Дэн Игер\n исполняет основную роль в фильме.",
    "Для рекламы фильма на постерах были использованы слоганы «Жужжи. Убивай.» (Buzz. Kill.) и «Зло носит множество лиц» (Evil Wears Many Faces)."
  ],
  "trailers": [],
  "seasons": [],
  "voiceActing": [
    "Рус. Дублированный",
    "Eng.Original"
  ],
  "subtitle": [],
  "parts": [
    2142,
    4373,
    4374,
    4375,
    4376,
    4377,
    4378
  ]
}
