{
  "id": 43959,
  "name": "Злой близнец",
  "name_eng": "The Evil Twin",
  "year": 2021,
  "slogan": "—",
  "age": null,
  "type": "film",
  "quality": "HD (720p)",
  "imdb": "4.6",
  "imdb_id": "13191004",
  "kinopoisk": null,
  "kinopoisk_id": "1436451",
  "world_art": null,
  "world_art_id": null,
  "time": "87 мин. / 01:27",
  "ads": true,
  "premier": "2021-01-16",
  "premier_rus": "2021-01-17",
  "availability": "2021-01-18",
  "activate_time": "2021-01-31 02:35:00",
  "budget": null,
  "fees_use": null,
  "fees_world": null,
  "fees_rus": null,
  "rate_mpaa": null,
  "description": "Скрываясь от парня-абьюзера, Эмили возвращается в родной город, где узнает, что у неё есть сестра-близнец, которая может быть замешана в убийстве.",
  "iframe_url": "",
  "iframe_poster": null,
  "poster": "https://img.imgilall.me/movies/franchise/4/3/9/5/9/0/0/0/0/0/610x900_43959.jpg",
  "country": {
    "7": "Канада"
  },
  "collection": [],
  "genre": {
    "13": "Триллер"
  },
  "director": [
    "Макс МакГуайр"
  ],
  "screenwriter": [
    "S.L. Heath",
    "Шон Риопелл"
  ],
  "producer": [
    "Хейден Баптисте",
    "Эндрю С. Эрин",
    "Тим Джонсон"
  ],
  "operator": [
    "Jonathan Kischel"
  ],
  "composer": [
    "Крис Гуглик"
  ],
  "design": [
    "Joey Gunn",
    "William Mood"
  ],
  "editor": [
    "Глория Тонг"
  ],
  "actors": [
    "Эмили Пиггфорд",
    "Ишан Моррис",
    "Tomas Chovanec",
    "Таня Кларк",
    "Keziah David",
    "Кори Ли",
    "Мэри Лонг",
    "Джон МакЛарен",
    "Родригез А. Уильямс",
    "Грегори Уилсон"
  ],
  "actors_dubl": [],
  "trivia": [],
  "trailers": [],
  "seasons": [],
  "voiceActing": [
    "Рус. Люб. многоголосый"
  ],
  "subtitle": [],
  "parts": []
}
