{
  "id": 44071,
  "name": "Я жив...",
  "name_eng": "",
  "year": 2017,
  "slogan": "—",
  "age": null,
  "type": "series",
  "quality": "FHD (1080p)",
  "imdb": null,
  "imdb_id": null,
  "kinopoisk": null,
  "kinopoisk_id": "1047820",
  "world_art": null,
  "world_art_id": null,
  "time": "—",
  "ads": false,
  "premier": null,
  "premier_rus": "2021-02-04",
  "availability": null,
  "serial_status": "offline",
  "activate_time": "2021-02-04 22:31:00",
  "budget": null,
  "fees_use": null,
  "fees_world": null,
  "fees_rus": null,
  "rate_mpaa": null,
  "description": "Опытный контрразведчик Георгий Чадаев хочет остепениться и перейти на менее опасную работу – отношения с женой трещат по швам. Но с отставкой придется повременить, Чадаеву поручают задание государственной важности. Бывший сотрудник западных спецслужб Эрнест Айсден похитил сверхсекретные данные, способные скомпрометировать целые державы, и теперь летит транзитом через Москву. На «предателя» открыта настоящая охота. Чадаеву придется спасти Айсдена и сыграть с противником в опасную игру, ставка в которой – не только его собственная жизнь и жизнь его семьи, но и судьба всей страны.",
  "iframe_url": "",
  "poster": "https://img.imgilall.me/movies/franchise/4/4/0/7/1/0/0/0/0/0/610x900_44071.jpg",
  "country": {
    "5": "Россия"
  },
  "collection": [],
  "genre": {
    "13": "Триллер"
  },
  "director": [
    "Анарио Мамедов"
  ],
  "screenwriter": [
    "Игорь Тер-Карапетов",
    "Мария Ваксман"
  ],
  "producer": [
    "Джаник Файзиев",
    "Рафаел Минасбекян",
    "Сергей Багиров"
  ],
  "operator": [
    "Александр Алешников"
  ],
  "composer": [
    "Антон Силаев"
  ],
  "design": [
    "Ацамаз Дзиваев"
  ],
  "editor": [
    "Александр Королев"
  ],
  "actors": [
    "Сергей Губанов",
    "Один Ланд Байрон",
    "Ольга Лерман",
    "Ольга Тумайкина",
    "Даша Басаргина",
    "Алёна Савастова",
    "Марко Динелли",
    "Вера Шпак",
    "Сергей Векслер",
    "Олег Тактаров"
  ],
  "actors_dubl": [],
  "trivia": [],
  "trailers": [],
  "seasons": [
    {
      "poster": null,
      "release_ru": null,
      "release_world": null,
      "availability": null,
      "iframe_url": "",
      "season": 1,
      "episodes": [
        {
          "episode": 1,
          "name": null,
          "iframe_url": "",
          "iframe_poster": null,
          "release_ru": null,
          "release_world": null,
          "availability": null,
          "voiceActing": [
            "Рус. Оригинальный"
          ],
          "ads": false,
          "subtitle": []
        },
        {
          "episode": 2,
          "name": null,
          "iframe_url": "",
          "iframe_poster": null,
          "release_ru": null,
          "release_world": null,
          "availability": null,
          "voiceActing": [
            "Рус. Оригинальный"
          ],
          "ads": false,
          "subtitle": []
        },
        {
          "episode": 3,
          "name": null,
          "iframe_url": "",
          "iframe_poster": null,
          "release_ru": null,
          "release_world": null,
          "availability": null,
          "voiceActing": [
            "Рус. Оригинальный"
          ],
          "ads": false,
          "subtitle": []
        },
        {
          "episode": 4,
          "name": null,
          "iframe_url": "",
          "iframe_poster": null,
          "release_ru": null,
          "release_world": null,
          "availability": null,
          "voiceActing": [
            "Рус. Оригинальный"
          ],
          "ads": false,
          "subtitle": []
        },
        {
          "episode": 5,
          "name": null,
          "iframe_url": "",
          "iframe_poster": null,
          "release_ru": null,
          "release_world": null,
          "availability": null,
          "voiceActing": [
            "Рус. Оригинальный"
          ],
          "ads": false,
          "subtitle": []
        },
        {
          "episode": 6,
          "name": null,
          "iframe_url": "",
          "iframe_poster": null,
          "release_ru": null,
          "release_world": null,
          "availability": null,
          "voiceActing": [
            "Рус. Оригинальный"
          ],
          "ads": false,
          "subtitle": []
        },
        {
          "episode": 7,
          "name": null,
          "iframe_url": "",
          "iframe_poster": null,
          "release_ru": null,
          "release_world": null,
          "availability": null,
          "voiceActing": [
            "Рус. Оригинальный"
          ],
          "ads": false,
          "subtitle": []
        },
        {
          "episode": 8,
          "name": null,
          "iframe_url": "",
          "iframe_poster": null,
          "release_ru": null,
          "release_world": null,
          "availability": null,
          "voiceActing": [
            "Рус. Оригинальный"
          ],
          "ads": false,
          "subtitle": []
        }
      ]
    }
  ],
  "voiceActing": [
    "Рус. Оригинальный"
  ],
  "subtitle": [],
  "parts": []
}
