{
  "id": 44335,
  "name": "Смертельная поездка",
  "name_eng": "Death Trip",
  "year": 2021,
  "slogan": "—",
  "age": null,
  "type": "film",
  "quality": "FHD (1080p)",
  "imdb": "2.8",
  "imdb_id": "13223274",
  "kinopoisk": null,
  "kinopoisk_id": "4360028",
  "world_art": null,
  "world_art_id": null,
  "time": "101 мин. / 01:41",
  "ads": true,
  "premier": "2018-12-08",
  "premier_rus": null,
  "availability": null,
  "activate_time": "2021-02-16 17:27:00",
  "budget": null,
  "fees_use": null,
  "fees_world": null,
  "fees_rus": null,
  "rate_mpaa": null,
  "description": null,
  "iframe_url": "",
  "iframe_poster": null,
  "poster": "https://img.imgilall.me/movies/franchise/4/4/3/3/5/0/0/0/0/0/610x900_44335.jpg",
  "country": {
    "7": "Канада"
  },
  "collection": [],
  "genre": {
    "26": "Ужасы"
  },
  "director": [
    "James Watts"
  ],
  "screenwriter": [
    "Kelly Kay",
    "James Watts"
  ],
  "producer": [
    "Kelly Kay",
    "Iain MacNeil",
    "Zoe Slobodzian"
  ],
  "operator": [
    "Spencer Gilley"
  ],
  "composer": [
    "Estan Beedell"
  ],
  "design": [],
  "editor": [
    "James Watts"
  ],
  "actors": [
    "Kelly Kay",
    "Tatyana Olal",
    "Garrett Johnson",
    "Melina Trimarchi",
    "Zoe Slobodzian",
    "Bruce Watts",
    "Brad MacDonald",
    "David Kuyek",
    "Joseph Simmons",
    "Brett Howie"
  ],
  "actors_dubl": [],
  "trivia": [],
  "trailers": [],
  "seasons": [],
  "voiceActing": [
    "Рус. Люб. многоголосый"
  ],
  "subtitle": [],
  "parts": []
}
