{
  "id": 44361,
  "name": "После Чернобыля",
  "name_eng": "",
  "year": 2021,
  "slogan": "«Один поворот не туда, и ты попадешь в ад»",
  "age": "16+",
  "type": "film",
  "quality": "FHD (1080p)",
  "imdb": "4.3",
  "imdb_id": "0",
  "kinopoisk": "4.6",
  "kinopoisk_id": "667893",
  "world_art": null,
  "world_art_id": null,
  "time": "81 мин. / 01:21",
  "ads": false,
  "premier": null,
  "premier_rus": "2021-04-01",
  "availability": null,
  "activate_time": "2021-03-17 16:50:00",
  "budget": null,
  "fees_use": null,
  "fees_world": "$12 229",
  "fees_rus": "$11 919",
  "rate_mpaa": null,
  "description": "Путешествуя по Восточной Европе, группа американских туристов случайным образом попадает в мёртвый город Припять. Зона отчуждения оказывается не такой уж и заброшенной. Её нынешние обитатели начинают преследовать ребят, перед которыми встает задача выяснить: кто или что продолжает жить там, где якобы жизни нет.",
  "iframe_url": "",
  "iframe_poster": null,
  "poster": "https://img.imgilall.me/movies/franchise/4/4/3/6/1/0/0/0/0/0/610x900_44361.jpg",
  "country": {
    "1": "США",
    "5": "Россия",
    "6": "Украина"
  },
  "collection": [],
  "genre": {
    "26": "Ужасы",
    "24": "Детектив",
    "13": "Триллер"
  },
  "director": [
    "Игорь Кинько",
    "Максим Литвинов"
  ],
  "screenwriter": [
    "Игорь Кинько",
    "Максим Литвинов"
  ],
  "producer": [
    "Максим Литвинов"
  ],
  "operator": [
    "Игорь Кинько",
    "Дмитрий Грачев"
  ],
  "composer": [
    "Дмитрий Лебедев",
    "Ксения Сидорина"
  ],
  "design": [
    "Максим Литвинов",
    "Татьяна Семенюк"
  ],
  "editor": [
    "Игорь Кинько",
    "Максим Литвинов"
  ],
  "actors": [
    "Катрин Бадалян",
    "Владимир Дыховичный",
    "Майкл Гул",
    "Иван Ивашкин",
    "Татьяна Семенюк",
    "Ростислав Гулбис",
    "Диана Барыбина",
    "Татьяна Корнета",
    "Роберт Фишман",
    "Марк Барыбин"
  ],
  "actors_dubl": [],
  "trivia": [],
  "trailers": [
    {
      "name": "трейлер №1",
      "number": 1,
      "iframe_poster": null,
      "season": null,
      "iframe_url": ""
    }
  ],
  "seasons": [],
  "voiceActing": [
    "Рус. Оригинальный"
  ],
  "subtitle": [],
  "parts": []
}
