{
  "id": 44557,
  "name": "Земля гроз",
  "name_eng": "Viharsarok",
  "year": 2014,
  "slogan": "—",
  "age": null,
  "type": "film",
  "quality": "HD (720p)",
  "imdb": "6.9",
  "imdb_id": "2474310",
  "kinopoisk": "6.6",
  "kinopoisk_id": "719784",
  "world_art": null,
  "world_art_id": null,
  "time": "105 мин. / 01:45",
  "ads": false,
  "premier": "2014-02-08",
  "premier_rus": "2014-02-09",
  "availability": "2014-02-10",
  "activate_time": "2021-02-24 17:08:00",
  "budget": "HUF 120 000 000",
  "fees_use": null,
  "fees_world": null,
  "fees_rus": null,
  "rate_mpaa": null,
  "description": "Сабольч, молодой венгр, играет в одной из немецких футбольных команд, как и его коллега по команде, немец Бернард. После неудачной игры и ссоры с Бернардом Сабольч возвращается на родину и останавливается в сельской местности в ветхом доме, который он унаследовал от деда, мечтая о спокойной жизни за разведением пчёл, навсегда забыв о футболе. Знакомство Сабольча с местным парнем Аароном в корне меняет его желания.",
  "iframe_url": "",
  "iframe_poster": null,
  "poster": "https://img.imgilall.me/movies/franchise/4/4/5/5/7/0/0/0/0/0/610x900_44557.jpg",
  "country": {
    "20": "Германия",
    "32": "Венгрия"
  },
  "collection": [],
  "genre": {
    "23": "Спортивный",
    "8": "Мелодрама",
    "7": "Драма"
  },
  "director": [
    "Ádám Császi"
  ],
  "screenwriter": [
    "Иван Сабо",
    "Ádám Császi"
  ],
  "producer": [
    "Виктория Петраньи",
    "Эстер Дьярфаш",
    "Титус Крэйнберг"
  ],
  "operator": [
    "Марцель Рев"
  ],
  "composer": [
    "Чаба Калоташ"
  ],
  "design": [
    "Нора Такач",
    "Klára Kalicz-Mészáros",
    "Дорка Кишш"
  ],
  "editor": [
    "Юлия Хэк",
    "Тамаш Колланьи"
  ],
  "actors": [
    "András Sütö",
    "Адам Варга",
    "Себастьян Урцендовски",
    "Эникё Бёрчёк",
    "Лайош Отто Хорват",
    "Зита Теби",
    "Уве Лоэр",
    "Криштоф Хорват",
    "Габор Сабо",
    "Саболч Фабиан"
  ],
  "actors_dubl": [],
  "trivia": [],
  "trailers": [],
  "seasons": [],
  "voiceActing": [
    "Рус. Люб. многоголосый"
  ],
  "subtitle": [],
  "parts": []
}
