{
  "id": 44592,
  "name": "Рожденный убивать",
  "name_eng": "Born to Kill",
  "year": 1947,
  "slogan": "«The Story of a Woman Who Loved Unwisely...and too well!»",
  "age": "16+",
  "type": "film",
  "quality": "HD (720p)",
  "imdb": "7.2",
  "imdb_id": "0039211",
  "kinopoisk": "6.7",
  "kinopoisk_id": "18086",
  "world_art": null,
  "world_art_id": null,
  "time": "92 мин. / 01:32",
  "ads": false,
  "premier": "1947-04-30",
  "premier_rus": "1947-05-01",
  "availability": "1947-05-02",
  "activate_time": "2021-02-25 19:09:00",
  "budget": null,
  "fees_use": null,
  "fees_world": null,
  "fees_rus": null,
  "rate_mpaa": null,
  "description": "В Рено мужчина убивает девушку и ее друга из-за ревности. Женщина находит тела, но решает не вмешиваться. На следующий день они случайно встречаются в поезде на Сан Франциско, не подозревая о связи между ними. Их тянет друг к другу, но знакомый женится по расчету на ее собственной сестре. Вскоре героиня узнает, кто был убийцей молодой пары...",
  "iframe_url": "",
  "iframe_poster": null,
  "poster": "https://img.imgilall.me/movies/franchise/4/4/5/9/2/0/0/0/0/0/610x900_44592.jpg",
  "country": {
    "1": "США"
  },
  "collection": [],
  "genre": {
    "25": "Криминал",
    "13": "Триллер",
    "7": "Драма"
  },
  "director": [
    "Роберт Уайз"
  ],
  "screenwriter": [
    "Ив Грин",
    "Ричард Макколей",
    "Джеймс Ганн"
  ],
  "producer": [
    "Херман Шлом",
    "Сид Рогелл"
  ],
  "operator": [
    "Роберт Де Грасс"
  ],
  "composer": [
    "Пол Соутелл"
  ],
  "design": [
    "Альберт С. Д’Агостино",
    "Уолтер Е. Келлер",
    "Эдвард Стивенсон"
  ],
  "editor": [
    "Лес Миллбрук"
  ],
  "actors": [
    "Клер Тревор",
    "Лоуренс Тирни",
    "Вальтер Слезак",
    "Филлип Терри",
    "Одри Лонг",
    "Илайша Кук мл.",
    "Изабель Джуэлл",
    "Эстер Ховард",
    "Кэтрин Кард",
    "Тони Баррет"
  ],
  "actors_dubl": [],
  "trivia": [],
  "trailers": [],
  "seasons": [],
  "voiceActing": [
    "Рус. Проф. многоголосый",
    "Eng.Original"
  ],
  "subtitle": [
    "Eng. full"
  ],
  "parts": []
}
