{
  "id": 44829,
  "name": "Мое сердце разрывается",
  "name_eng": "Explota Explota",
  "year": 2020,
  "slogan": "«Vive el fenómeno musical»",
  "age": null,
  "type": "film",
  "quality": "FHD (1080p)",
  "imdb": "5.6",
  "imdb_id": "11238932",
  "kinopoisk": null,
  "kinopoisk_id": "1320636",
  "world_art": null,
  "world_art_id": null,
  "time": "116 мин. / 01:56",
  "ads": true,
  "premier": "2020-09-10",
  "premier_rus": "2020-09-11",
  "availability": "2020-09-12",
  "activate_time": "2021-03-08 11:54:00",
  "budget": null,
  "fees_use": null,
  "fees_world": "$584 801",
  "fees_rus": null,
  "rate_mpaa": null,
  "description": "Мария с детства мечтала танцевать, неожиданно ей выпадает шанс оказаться в популярном телевизионном шоу. Все программы на телевидении Испании подвергаются строгой цензуре, но Мария не соглашается танцевать по навязанным ей правилам.",
  "iframe_url": "",
  "iframe_poster": null,
  "poster": "https://img.imgilall.me/movies/franchise/4/4/8/2/9/0/0/0/0/0/610x900_44829.jpg",
  "country": {
    "3": "Испания",
    "8": "Италия"
  },
  "collection": [],
  "genre": {
    "9": "Приключения",
    "38": "Мюзикл",
    "19": "Комедия",
    "8": "Мелодрама"
  },
  "director": [
    "Nacho Álvarez"
  ],
  "screenwriter": [
    "Nacho Álvarez",
    "Eduardo Navarro",
    "Дэвид Эстебан Куберо"
  ],
  "producer": [
    "Херардо Эрреро",
    "Хавьер Лопес Бланко",
    "Винни Баэрт"
  ],
  "operator": [
    "Хуан Карлос Гомес"
  ],
  "composer": [
    "Роке Баньос"
  ],
  "design": [
    "Ухуа Кастелло",
    "Кристина Родригес"
  ],
  "editor": [
    "Ирен Блекуа"
  ],
  "actors": [
    "Ингрид Гарсия Йонсон",
    "Вероника Эчеги",
    "Фернандо Гуайяр",
    "Наталия Мильян",
    "Джузеппе Маджио",
    "Фран Морсильо",
    "Айноа Айербе",
    "Педро Касабланк",
    "Карлос Иполито",
    "Фернандо Техеро"
  ],
  "actors_dubl": [],
  "trivia": [],
  "trailers": [],
  "seasons": [],
  "voiceActing": [
    "Рус. Люб. многоголосый"
  ],
  "subtitle": [],
  "parts": []
}
