{
  "id": 44919,
  "name": "Конструкт",
  "name_eng": "Construct",
  "year": 2018,
  "slogan": null,
  "age": null,
  "type": "film",
  "quality": "FHD (1080p)",
  "imdb": "6.1",
  "imdb_id": "3675138",
  "kinopoisk": null,
  "kinopoisk_id": null,
  "world_art": null,
  "world_art_id": null,
  "time": null,
  "ads": false,
  "premier": null,
  "premier_rus": null,
  "availability": null,
  "activate_time": "2021-03-12 06:38:00",
  "budget": null,
  "fees_use": null,
  "fees_world": null,
  "fees_rus": null,
  "rate_mpaa": null,
  "description": null,
  "iframe_url": "",
  "iframe_poster": null,
  "poster": "https://img.imgilall.me/movies/franchise/4/4/9/1/9/0/0/0/0/0/610x900_44919.jpg",
  "country": {
    "1": "США"
  },
  "collection": [],
  "genre": {
    "53": "Короткометражный"
  },
  "director": [],
  "screenwriter": [],
  "producer": [],
  "operator": [],
  "composer": [],
  "design": [],
  "editor": [],
  "actors": [],
  "actors_dubl": [],
  "trivia": [],
  "trailers": [],
  "seasons": [],
  "voiceActing": [
    "Рус. Дублированный"
  ],
  "subtitle": [],
  "parts": []
}
