{
  "id": 44936,
  "name": "Переполох в Гималаях",
  "name_eng": "Lissi und der wilde Kaiser",
  "year": 2007,
  "slogan": "«Осторожно, дети: В горах бродит йети»",
  "age": "12+",
  "type": "cartoon",
  "quality": "HD (720p)",
  "imdb": "5.1",
  "imdb_id": "0498525",
  "kinopoisk": "5.1",
  "kinopoisk_id": "265493",
  "world_art": null,
  "world_art_id": null,
  "time": "85 мин. / 01:25",
  "ads": false,
  "premier": "2007-10-25",
  "premier_rus": "2008-08-14",
  "availability": "2008-08-15",
  "activate_time": "2021-03-12 19:24:00",
  "budget": null,
  "fees_use": null,
  "fees_world": "$29 716 251",
  "fees_rus": "$1 009 000",
  "rate_mpaa": null,
  "description": "Во дворце не жизнь, а сплошная мечта. С утра до вечера все  придворные только и делают, что ничего не делают.  Император Франц и его женушка Лизи – экстравагантная парочка,  первые богачи королевства.  Чтобы развлечься, они жгут деньги,  играют в гольф трюфелями и прикалываются над слугами. В этом королевстве все веселы и довольны. Но однажды случилось невероятное: Лизи похитили! Нашелся же ненормальный... Весь двор во главе с властной матерью Франца  и Фельдмаршалом бросается на поиски загадочных похитителей.  В обстановке всеобщего аврала лишь трусоватый Франц нащупал нить и  распутывает клубок следствия, которое ведет его далеко вглубь Баварии. Всю компанию ждет богатая на события развязка...",
  "iframe_url": "",
  "iframe_poster": null,
  "poster": "https://img.imgilall.me/movies/franchise/4/4/9/3/6/0/0/0/0/0/610x900_44936.jpg",
  "country": {
    "20": "Германия"
  },
  "collection": [],
  "genre": {
    "9": "Приключения",
    "6": "Фэнтези",
    "19": "Комедия",
    "8": "Мелодрама"
  },
  "director": [
    "Михаэль Хербиг"
  ],
  "screenwriter": [
    "Михаэль Хербиг",
    "Альфонс Бидерманн"
  ],
  "producer": [
    "Михаэль Хербиг",
    "Михаэль Вальдлейтнер"
  ],
  "operator": [],
  "composer": [
    "Ральф Венгенмайр"
  ],
  "design": [],
  "editor": [
    "Кристоф Хуттерер",
    "Марк Мишель",
    "Кай Шрётер"
  ],
  "actors": [
    "Лотта Ледль",
    "Вальдемар Кобус",
    "Кристиан Трамиц",
    "Рик Каваниан",
    "Михаэль Хербиг",
    "Бадезальц",
    "Моника Йон",
    "Howard Cooper",
    "Андреас Борхердинг",
    "Нико Макулис"
  ],
  "actors_dubl": [
    "Любовь Германова",
    "Александр Груздев",
    "Олег Куценко",
    "Ольга Шорохова",
    "Никита Прозоровский"
  ],
  "trivia": [],
  "trailers": [],
  "seasons": [],
  "voiceActing": [
    "Рус. Дублированный",
    "German Original"
  ],
  "subtitle": [],
  "parts": []
}
