{
  "id": 45002,
  "name": "На привязи у взлетной полосы",
  "name_eng": "",
  "year": 1989,
  "slogan": "—",
  "age": null,
  "type": "film",
  "quality": "SD",
  "imdb": null,
  "imdb_id": null,
  "kinopoisk": "8.1",
  "kinopoisk_id": "473837",
  "world_art": null,
  "world_art_id": null,
  "time": "69 мин. / 01:09",
  "ads": false,
  "premier": null,
  "premier_rus": null,
  "availability": null,
  "activate_time": "2021-03-16 12:58:00",
  "budget": null,
  "fees_use": null,
  "fees_world": null,
  "fees_rus": null,
  "rate_mpaa": null,
  "description": "Не оформив ветеринарную справку, хозяин оставляет собаку у трапа улетающего самолета. Брошенный пёс остаётся верен своему хозяину, и теперь с надеждой встречает каждый самолет. Во время очередного прилёта ТУ-134 собака прибегает встречать своего хозяина. Её, по иронии судьбы, встречает стюардесса, когда-то не разрешившая взять животное на борт без справки. Стюардесса чувствует вину и пытается помочь собаке, которую она назвала Найда.",
  "iframe_url": "",
  "iframe_poster": null,
  "poster": "https://img.imgilall.me/movies/franchise/4/5/0/0/2/0/0/0/0/0/610x900_45002.jpeg",
  "country": {
    "24": "СССР"
  },
  "collection": [],
  "genre": {
    "7": "Драма"
  },
  "director": [
    "Владимир Хмельницкий"
  ],
  "screenwriter": [
    "Алексей Леонтьев",
    "Владимир Хмельницкий"
  ],
  "producer": [],
  "operator": [
    "Наталья Компанцева",
    "Александр Тесля"
  ],
  "composer": [],
  "design": [
    "Виктор Петров"
  ],
  "editor": [],
  "actors": [
    "Татьяна Назарова",
    "Константин Шафоренко",
    "Геннадий Болотов",
    "Лесь Сердюк",
    "Николай Олейник",
    "Юрий Дубровин",
    "Елена Ильенко"
  ],
  "actors_dubl": [],
  "trivia": [],
  "trailers": [],
  "seasons": [],
  "voiceActing": [
    "Рус. Оригинальный"
  ],
  "subtitle": [],
  "parts": []
}
