{
  "id": 45016,
  "name": "Игра в Купидона",
  "name_eng": "Playing Cupid",
  "year": 2021,
  "slogan": "—",
  "age": null,
  "type": "film",
  "quality": "FHD (1080p)",
  "imdb": "6.5",
  "imdb_id": "11348956",
  "kinopoisk": null,
  "kinopoisk_id": "2001077",
  "world_art": null,
  "world_art_id": null,
  "time": "84 мин. / 01:24",
  "ads": false,
  "premier": "2021-02-13",
  "premier_rus": "2021-02-14",
  "availability": "2021-02-15",
  "activate_time": "2021-03-17 12:45:00",
  "budget": "",
  "fees_use": "",
  "fees_world": "",
  "fees_rus": "",
  "rate_mpaa": "",
  "description": "Одинокая учительница встречается с разведенным отцом своей ученицы после того, как его дочь выбирает в качестве школьного проекта необычный бизнес.",
  "iframe_url": "",
  "iframe_poster": null,
  "poster": "https://img.imgilall.me/movies/franchise/4/5/0/1/6/0/0/0/0/0/610x900_45016.jpg",
  "country": {
    "7": "Канада",
    "1": "США"
  },
  "collection": [],
  "genre": {
    "19": "Комедия",
    "8": "Мелодрама"
  },
  "director": [
    "Дэвид Уивер"
  ],
  "screenwriter": [
    "Jenny Meyerhoff",
    "Нина Вейнман"
  ],
  "producer": [
    "Шел Пирси",
    "Алехандре Коскас",
    "Alexander Glua"
  ],
  "operator": [
    "Энтони С. Метчи"
  ],
  "composer": [
    "Майкл Нилсон"
  ],
  "design": [
    "Пол Джоял",
    "Trish Petrovich",
    "Cherry Collard"
  ],
  "editor": [
    "Азим Нурани"
  ],
  "actors": [
    "Лора Вандервурт",
    "Николас Гонсалес",
    "Mia Quaranta de la Rosa",
    "ЛаТоня Уильямс",
    "Ария ДеМарис",
    "Ava Frica",
    "Nolan Hupp",
    "George Moran",
    "Тристан Дженсен",
    "Кристин Липпа"
  ],
  "actors_dubl": [],
  "trivia": [],
  "trailers": [],
  "seasons": [],
  "voiceActing": [
    "Рус. Люб. многоголосый",
    "Eng.Original"
  ],
  "subtitle": [
    "Eng. full"
  ],
  "parts": []
}
