{
  "id": 45278,
  "name": "Дети Судьбы",
  "name_eng": "Figli del Destino",
  "year": 2019,
  "slogan": "—",
  "age": null,
  "type": "film",
  "quality": "HD (720p)",
  "imdb": "6.8",
  "imdb_id": "9590916",
  "kinopoisk": null,
  "kinopoisk_id": "1228610",
  "world_art": null,
  "world_art_id": null,
  "time": "92 мин. / 01:32",
  "ads": true,
  "premier": "2019-01-23",
  "premier_rus": "2019-01-24",
  "availability": "2019-01-25",
  "activate_time": "2021-03-28 21:02:00",
  "budget": null,
  "fees_use": null,
  "fees_world": null,
  "fees_rus": null,
  "rate_mpaa": null,
  "description": null,
  "iframe_url": "",
  "iframe_poster": null,
  "poster": "https://img.imgilall.me/movies/franchise/4/5/2/7/8/0/0/0/0/0/610x900_45278.jpg",
  "country": {
    "8": "Италия"
  },
  "collection": [],
  "genre": {
    "32": "Военный",
    "28": "Исторический",
    "27": "Биографический"
  },
  "director": [
    "Франческо Миччике",
    "Марко Спагноли"
  ],
  "screenwriter": [
    "Люка Росси",
    "Leonardo Marini",
    "Марко Спагноли"
  ],
  "producer": [
    "Марио Россини"
  ],
  "operator": [
    "Эмануеле Кьяри",
    "Niccolò Palomba"
  ],
  "composer": [
    "Франческо Черази"
  ],
  "design": [
    "Стефано Джованни",
    "Нино Формика"
  ],
  "editor": [
    "Марко Гуэльфи",
    "Якопо Реале"
  ],
  "actors": [
    "Кьяра Басиле Фасоло",
    "Luca Basile",
    "Chiara Bono",
    "Никколо Канчелльери",
    "Lorenzo Ciamei",
    "Эмилиано Кольторти",
    "Roberto Della Rocca",
    "Catello Di Vuolo",
    "Tullio Foà",
    "Массимилиано Галло"
  ],
  "actors_dubl": [],
  "trivia": [],
  "trailers": [],
  "seasons": [],
  "voiceActing": [
    "Рус. Люб. многоголосый"
  ],
  "subtitle": [],
  "parts": []
}
