{
  "id": 45450,
  "name": "Смешарики. Азбука защиты леса",
  "name_eng": "",
  "year": 2019,
  "slogan": "—",
  "age": "0+",
  "type": "cartoon-series",
  "quality": "HD (720p)",
  "imdb": null,
  "imdb_id": null,
  "kinopoisk": "8.0",
  "kinopoisk_id": "1291206",
  "world_art": null,
  "world_art_id": null,
  "time": "3 мин",
  "ads": false,
  "premier": null,
  "premier_rus": null,
  "availability": null,
  "serial_status": "offline",
  "activate_time": "2021-04-03 20:10:00",
  "budget": null,
  "fees_use": null,
  "fees_world": null,
  "fees_rus": null,
  "rate_mpaa": null,
  "description": "Серии рассказывают детям о возникновении природных пожаров, их предотвращении и правильном поведении в экстремальной ситуации.",
  "iframe_url": "",
  "poster": "https://img.imgilall.me/movies/franchise/4/5/4/5/0/0/0/0/0/0/610x900_45450.jpg",
  "country": {
    "5": "Россия"
  },
  "collection": [],
  "genre": {
    "37": "Детский"
  },
  "director": [
    "Олег Мусин"
  ],
  "screenwriter": [
    "Дмитрий Яковенко"
  ],
  "producer": [
    "Илья Попов",
    "Юлия Осетинская"
  ],
  "operator": [],
  "composer": [
    "Сергей Васильев",
    "Марина Ланда"
  ],
  "design": [
    "Оксана Осипова"
  ],
  "editor": [],
  "actors": [
    "Антон Виноградов",
    "Владимир Постников"
  ],
  "actors_dubl": [],
  "trivia": [],
  "trailers": [],
  "seasons": [
    {
      "poster": null,
      "release_ru": null,
      "release_world": null,
      "availability": null,
      "iframe_url": "",
      "season": 1,
      "episodes": [
        {
          "episode": 1,
          "name": null,
          "iframe_url": "",
          "iframe_poster": null,
          "release_ru": null,
          "release_world": null,
          "availability": null,
          "voiceActing": [
            "Рус. Оригинальный"
          ],
          "ads": false,
          "subtitle": []
        },
        {
          "episode": 2,
          "name": null,
          "iframe_url": "",
          "iframe_poster": null,
          "release_ru": null,
          "release_world": null,
          "availability": null,
          "voiceActing": [
            "Рус. Оригинальный"
          ],
          "ads": false,
          "subtitle": []
        },
        {
          "episode": 3,
          "name": null,
          "iframe_url": "",
          "iframe_poster": null,
          "release_ru": null,
          "release_world": null,
          "availability": null,
          "voiceActing": [
            "Рус. Оригинальный"
          ],
          "ads": false,
          "subtitle": []
        },
        {
          "episode": 4,
          "name": null,
          "iframe_url": "",
          "iframe_poster": null,
          "release_ru": null,
          "release_world": null,
          "availability": null,
          "voiceActing": [
            "Рус. Оригинальный"
          ],
          "ads": false,
          "subtitle": []
        },
        {
          "episode": 5,
          "name": null,
          "iframe_url": "",
          "iframe_poster": null,
          "release_ru": null,
          "release_world": null,
          "availability": null,
          "voiceActing": [
            "Рус. Оригинальный"
          ],
          "ads": false,
          "subtitle": []
        }
      ]
    }
  ],
  "voiceActing": [
    "Рус. Оригинальный"
  ],
  "subtitle": [],
  "parts": []
}
