{
  "id": 45559,
  "name": "Дневник рыбака",
  "name_eng": "The Fisherman's Diary",
  "year": 2020,
  "slogan": null,
  "age": null,
  "type": "film",
  "quality": "HD (720p)",
  "imdb": "7.4",
  "imdb_id": "13297136",
  "kinopoisk": null,
  "kinopoisk_id": null,
  "world_art": null,
  "world_art_id": null,
  "time": null,
  "ads": true,
  "premier": null,
  "premier_rus": null,
  "availability": null,
  "activate_time": "2021-04-08 13:49:00",
  "budget": null,
  "fees_use": null,
  "fees_world": null,
  "fees_rus": null,
  "rate_mpaa": null,
  "description": null,
  "iframe_url": "",
  "iframe_poster": null,
  "poster": "https://img.imgilall.me/movies/franchise/4/5/5/5/9/0/0/0/0/0/610x900_45559.jpg",
  "country": {
    "124": "Камерун"
  },
  "collection": [],
  "genre": {
    "7": "Драма"
  },
  "director": [],
  "screenwriter": [],
  "producer": [],
  "operator": [],
  "composer": [],
  "design": [],
  "editor": [],
  "actors": [],
  "actors_dubl": [],
  "trivia": [],
  "trailers": [],
  "seasons": [],
  "voiceActing": [
    "Рус. Люб. многоголосый"
  ],
  "subtitle": [],
  "parts": []
}
