{
  "id": 45611,
  "name": "Коряжка и морской змей",
  "name_eng": "Knerten og sjøormen",
  "year": 2020,
  "slogan": "—",
  "age": null,
  "type": "film",
  "quality": "HD (720p)",
  "imdb": "6.2",
  "imdb_id": "12636658",
  "kinopoisk": null,
  "kinopoisk_id": "1416740",
  "world_art": null,
  "world_art_id": null,
  "time": "71 мин. / 01:11",
  "ads": true,
  "premier": "2020-07-03",
  "premier_rus": "2020-07-04",
  "availability": "2020-07-05",
  "activate_time": "2021-04-11 12:48:00",
  "budget": null,
  "fees_use": null,
  "fees_world": "$1 496 735",
  "fees_rus": null,
  "rate_mpaa": null,
  "description": null,
  "iframe_url": "",
  "iframe_poster": null,
  "poster": "https://img.imgilall.me/movies/franchise/4/5/6/1/1/0/0/0/0/0/610x900_45611.jpg",
  "country": {
    "53": "Норвегия"
  },
  "collection": [],
  "genre": {
    "6": "Фэнтези",
    "33": "Семейный"
  },
  "director": [
    "Tove Undheim"
  ],
  "screenwriter": [
    "Tove Undheim",
    "Aksel Kielland",
    "Ларс Килеволд"
  ],
  "producer": [
    "Финн Гьердрум",
    "Стейн Б. Квае",
    "Эрик Поппе"
  ],
  "operator": [
    "Lukasz Zamaro"
  ],
  "composer": [
    "Erik Johannessen",
    "Erlend Mokkelbost"
  ],
  "design": [
    "Åsa Nilsson",
    "Мириам Лиен",
    "Bella Leikanger Mork"
  ],
  "editor": [
    "Margrete Vinnem"
  ],
  "actors": [
    "Filip Mathias Eide",
    "Mia Ålvik",
    "Скотт Морстад",
    "Сьюр Ватне Бреан",
    "Силье Сторстейн",
    "Silya Nymoen",
    "Espen Petrus Andersen Lervaag",
    "Крис Олсен",
    "Анетте Хофф",
    "Lilly Røkke"
  ],
  "actors_dubl": [],
  "trivia": [],
  "trailers": [],
  "seasons": [],
  "voiceActing": [
    "Рус. Люб. многоголосый"
  ],
  "subtitle": [],
  "parts": []
}
