{
  "id": 45623,
  "name": "Художница: Родиться второй раз",
  "name_eng": "Atiseuteu: dashi taeeonada",
  "year": 2017,
  "slogan": "—",
  "age": null,
  "type": "film",
  "quality": "HD (720p)",
  "imdb": "6.5",
  "imdb_id": "10499432",
  "kinopoisk": null,
  "kinopoisk_id": "1009458",
  "world_art": null,
  "world_art_id": null,
  "time": "95 мин. / 01:35",
  "ads": true,
  "premier": "2017-03-09",
  "premier_rus": "2017-03-10",
  "availability": "2017-03-11",
  "activate_time": "2021-04-11 12:36:00",
  "budget": null,
  "fees_use": null,
  "fees_world": null,
  "fees_rus": null,
  "rate_mpaa": null,
  "description": "Молодая художница Гизель, изучавшая живопись в Дании, возвращается в Южную Корею. Здесь девушка пытается открыть свою первую выставку, но терпит неудачи, одну за другой. Всё меняет судьбоносная встреча директором одной галереи Чэ-бомом. С его помощью Гизель, наконец, проводит долгожданную выставку, но сердце девушки внезапно останавливается. Проходит время, картины Гизель обретают все большую популярность, равно как и имя почившей художницы, исчезнувшей после громкого дебюта. Чэ-бом планирует один творческий проект, как вдруг перед ним предстаёт живая и невредимая Гизель.",
  "iframe_url": "",
  "iframe_poster": null,
  "poster": "https://img.imgilall.me/movies/franchise/4/5/6/2/3/0/0/0/0/0/610x900_45623.jpg",
  "country": {
    "16": "Корея Южная"
  },
  "collection": [],
  "genre": {
    "7": "Драма"
  },
  "director": [
    "Ким Гён-вон"
  ],
  "screenwriter": [
    "Ким Гён-вон"
  ],
  "producer": [
    "Мун Хён-сон",
    "Пэк Сын-хван"
  ],
  "operator": [],
  "composer": [
    "Ли Сан-хун"
  ],
  "design": [
    "Ким Ён-хи"
  ],
  "editor": [
    "Ким У-иль"
  ],
  "actors": [
    "Рю Хён-гён",
    "Пак Чон-мин",
    "Ким Джи-ан",
    "Ли Сун-джэ",
    "Ли До-ёп",
    "Мун Джон-вон",
    "Чон Хён-сок",
    "Сон Хун",
    "Кон Ю-сок"
  ],
  "actors_dubl": [],
  "trivia": [],
  "trailers": [],
  "seasons": [],
  "voiceActing": [
    "Колобок"
  ],
  "subtitle": [],
  "parts": []
}
