{
  "id": 45892,
  "name": "Интерлюдия",
  "name_eng": "Sideshow",
  "year": 2021,
  "slogan": "—",
  "age": null,
  "type": "film",
  "quality": "FHD (1080p)",
  "imdb": "5.2",
  "imdb_id": "9603894",
  "kinopoisk": null,
  "kinopoisk_id": "1230999",
  "world_art": null,
  "world_art_id": null,
  "time": "94 мин. / 01:34",
  "ads": false,
  "premier": "2020-12-09",
  "premier_rus": null,
  "availability": null,
  "activate_time": "2021-04-21 15:13:00",
  "budget": null,
  "fees_use": null,
  "fees_world": null,
  "fees_rus": null,
  "rate_mpaa": null,
  "description": "Ева с другом решают ограбить дом предсказателя-мошенника Пендрика. Мужчина уже давно дурачит наивных людей, разоблачая неверных супругов, раскрывая убийства и, конечно, предсказывая будущее. Воры считают, что на последнем шоу ясновидящий вдобавок обокрал зрителей, поэтому хотят восстановить справедливость. Проникнув в дом, мстители обнаруживают, что у Пендрика действительно есть магические способности.",
  "iframe_url": "",
  "iframe_poster": null,
  "poster": "https://img.imgilall.me/movies/franchise/4/5/8/9/2/0/0/0/0/0/610x900_45892.jpg",
  "country": {
    "2": "Великобритания"
  },
  "collection": [],
  "genre": {
    "19": "Комедия"
  },
  "director": [
    "Адам Олдройд"
  ],
  "screenwriter": [
    "Адам Олдройд"
  ],
  "producer": [
    "Адам Олдройд",
    "Майкл Райли",
    "Thea Campbell"
  ],
  "operator": [
    "Стивен Дж. Брэнд"
  ],
  "composer": [
    "Майкл Ксани-Уиллис"
  ],
  "design": [
    "Tommima Lloyd-Winder",
    "Оливер Келли",
    "Krissie Oldroyd"
  ],
  "editor": [],
  "actors": [
    "Лес Дэннис",
    "Энтони Хэд",
    "Эйприл Пирсон",
    "Нэйтан Кларк",
    "Памели Бенхэм",
    "Owen Oldroyd",
    "Адриан Харрис",
    "Иорестина Флореа"
  ],
  "actors_dubl": [],
  "trivia": [],
  "trailers": [],
  "seasons": [],
  "voiceActing": [
    "Рус. Люб. многоголосый",
    "Eng.Original"
  ],
  "subtitle": [],
  "parts": []
}
