{
  "id": 45916,
  "name": "Случайность",
  "name_eng": "Artless",
  "year": 2013,
  "slogan": "—",
  "age": null,
  "type": "film",
  "quality": "HD (720p)",
  "imdb": "5.1",
  "imdb_id": "2803030",
  "kinopoisk": null,
  "kinopoisk_id": "786289",
  "world_art": null,
  "world_art_id": null,
  "time": "95 мин. / 01:35",
  "ads": true,
  "premier": null,
  "premier_rus": null,
  "availability": null,
  "activate_time": "2021-04-22 11:51:00",
  "budget": null,
  "fees_use": null,
  "fees_world": null,
  "fees_rus": null,
  "rate_mpaa": null,
  "description": null,
  "iframe_url": "",
  "iframe_poster": null,
  "poster": "https://img.imgilall.me/movies/franchise/4/5/9/1/6/0/0/0/0/0/610x900_45916.jpg",
  "country": {
    "7": "Канада",
    "1": "США"
  },
  "collection": [],
  "genre": {
    "8": "Мелодрама",
    "7": "Драма"
  },
  "director": [
    "Джереми Мейджор"
  ],
  "screenwriter": [
    "Кристина Хэмпсон",
    "Джереми Мейджор"
  ],
  "producer": [
    "Кристина Хэмпсон",
    "Джереми Мейджор",
    "Мелинда Сили"
  ],
  "operator": [
    "Ed Hannaford"
  ],
  "composer": [],
  "design": [],
  "editor": [
    "Джереми Мейджор"
  ],
  "actors": [
    "Маркус Томас",
    "Джереми Мейджор",
    "Becki England",
    "Кристина Хэмпсон"
  ],
  "actors_dubl": [],
  "trivia": [],
  "trailers": [],
  "seasons": [],
  "voiceActing": [
    "Рус. Люб. одноголосый"
  ],
  "subtitle": [],
  "parts": []
}
