{
  "id": 45936,
  "name": "Обещаю вести себя хорошо",
  "name_eng": "Je promets d'être sage",
  "year": 2019,
  "slogan": "—",
  "age": null,
  "type": "film",
  "quality": "HD (720p)",
  "imdb": "5.0",
  "imdb_id": "9041234",
  "kinopoisk": null,
  "kinopoisk_id": "1200142",
  "world_art": null,
  "world_art_id": null,
  "time": "92 мин. / 01:32",
  "ads": true,
  "premier": "2019-06-13",
  "premier_rus": "2019-06-14",
  "availability": "2019-06-15",
  "activate_time": "2021-04-22 19:37:00",
  "budget": null,
  "fees_use": null,
  "fees_world": "$647 840",
  "fees_rus": null,
  "rate_mpaa": null,
  "description": null,
  "iframe_url": "",
  "iframe_poster": null,
  "poster": "https://img.imgilall.me/movies/franchise/4/5/9/3/6/0/0/0/0/0/610x900_45936.jpg",
  "country": {
    "9": "Франция"
  },
  "collection": [],
  "genre": {
    "19": "Комедия",
    "8": "Мелодрама",
    "7": "Драма"
  },
  "director": [
    "Ронан Ле Пейдж"
  ],
  "screenwriter": [
    "Ронан Ле Пейдж"
  ],
  "producer": [
    "Marc-Benoît Créancier"
  ],
  "operator": [
    "Brice Pancot"
  ],
  "composer": [
    "Флоран Марше"
  ],
  "design": [
    "Марион Бюргер"
  ],
  "editor": [
    "Луи Лаллеман"
  ],
  "actors": [
    "Пио Мармай",
    "Леа Дрюкер",
    "Мелоди Ришар",
    "Жиль Приват",
    "Флоренс Йанас",
    "Франсуа Шатто",
    "Céline Toutain",
    "Филипп Дюссо",
    "Томас Дрелон",
    "Ксавьер Берлиоз"
  ],
  "actors_dubl": [],
  "trivia": [],
  "trailers": [],
  "seasons": [],
  "voiceActing": [
    "Рус. Люб. многоголосый"
  ],
  "subtitle": [],
  "parts": []
}
