{
  "id": 45969,
  "name": "Дом",
  "name_eng": "La Casa",
  "year": 2019,
  "slogan": "—",
  "age": null,
  "type": "film",
  "quality": "HD (720p)",
  "imdb": "4.6",
  "imdb_id": "9403860",
  "kinopoisk": null,
  "kinopoisk_id": "1220143",
  "world_art": null,
  "world_art_id": null,
  "time": "75 мин. / 01:15",
  "ads": true,
  "premier": "2019-11-10",
  "premier_rus": "2019-11-11",
  "availability": "2019-11-12",
  "activate_time": "2021-04-24 10:02:00",
  "budget": null,
  "fees_use": null,
  "fees_world": null,
  "fees_rus": null,
  "rate_mpaa": null,
  "description": "Приехав на срочный вызов, полицейский попадает в ловушку злых духов проклятого дома.",
  "iframe_url": "",
  "iframe_poster": null,
  "poster": "https://img.imgilall.me/movies/franchise/4/5/9/6/9/0/0/0/0/0/610x900_45969.jpg",
  "country": {
    "54": "Чили"
  },
  "collection": [],
  "genre": {
    "26": "Ужасы"
  },
  "director": [
    "Хорхе Ольгин"
  ],
  "screenwriter": [
    "Хорхе Ольгин"
  ],
  "producer": [
    "Кэрол Кампос",
    "Хорхе Ольгин",
    "Габрьель Каньяс"
  ],
  "operator": [
    "Николас Лорка",
    "Felipe Opazo"
  ],
  "composer": [
    "Хорхе Ольгин"
  ],
  "design": [],
  "editor": [
    "Хорхе Ромеро"
  ],
  "actors": [
    "Кэрол Кампос",
    "Camila Carreño",
    "Габрьель Каньяс",
    "Карлос Кортес",
    "Фелипе Сильва Родригес"
  ],
  "actors_dubl": [],
  "trivia": [],
  "trailers": [],
  "seasons": [],
  "voiceActing": [
    "Рус. Люб. многоголосый"
  ],
  "subtitle": [],
  "parts": []
}
