{
  "id": 45978,
  "name": "Анна",
  "name_eng": "Anna",
  "year": 2021,
  "slogan": "—",
  "age": null,
  "type": "series",
  "quality": "FHD (1080p)",
  "imdb": "6.8",
  "imdb_id": "11199132",
  "kinopoisk": "7.0",
  "kinopoisk_id": "1436755",
  "world_art": null,
  "world_art_id": null,
  "time": "345 мин. всего",
  "ads": false,
  "premier": "2021-04-23",
  "premier_rus": "2021-04-23",
  "availability": "2021-04-24",
  "serial_status": "online",
  "activate_time": "2021-04-25 03:46:00",
  "budget": null,
  "fees_use": null,
  "fees_world": null,
  "fees_rus": null,
  "rate_mpaa": null,
  "description": "Четыре года назад неизвестный вирус убил всех взрослых, а Анна осталась одна с маленьким братом. Сейчас ей 13, и когда брата похищает банда хулиганов, девочка вынуждена отправиться на его поиски. По дороге она встречает странного парня Петро, который уверен, что определенная марка обуви способна защитить от болезни.",
  "iframe_url": "",
  "poster": "https://img.imgilall.me/movies/franchise/4/5/9/7/8/0/0/0/0/0/610x900_45978.jpg",
  "country": {
    "1": "США",
    "8": "Италия",
    "9": "Франция"
  },
  "collection": [],
  "genre": {
    "9": "Приключения",
    "26": "Ужасы",
    "11": "Фантастика",
    "7": "Драма"
  },
  "director": [
    "Никколо Амманити"
  ],
  "screenwriter": [
    "Никколо Амманити",
    "Франческа Маньери",
    "Джакомо Дурци"
  ],
  "producer": [
    "Никколо Амманити",
    "Людовика Дамиани",
    "Клаудио Фальконе"
  ],
  "operator": [
    "Джан Энрико Бьянчи"
  ],
  "composer": [],
  "design": [
    "Мауро Ванцати",
    "Кэтрин Байз Дайан",
    "Вероника Лопез"
  ],
  "editor": [
    "Клелио Беневенто"
  ],
  "actors": [
    "Джулия Драготто",
    "Алессандро Пекорелла",
    "Клара Трамонтано",
    "Джованни Мавилья",
    "Роберта Маттеи",
    "Элена Льетти",
    "Viviana Mocciaro",
    "Nicola Mangano",
    "Мириам Далмазио",
    "Danilo Di Vita"
  ],
  "actors_dubl": [],
  "trivia": [],
  "trailers": [],
  "seasons": [
    {
      "poster": null,
      "release_ru": null,
      "release_world": null,
      "availability": null,
      "iframe_url": "",
      "season": 1,
      "episodes": [
        {
          "episode": 1,
          "name": null,
          "iframe_url": "",
          "iframe_poster": null,
          "release_ru": null,
          "release_world": null,
          "availability": null,
          "voiceActing": [
            "Novamedia",
            "Ital. Original"
          ],
          "ads": false,
          "subtitle": [
            "Рус. полные"
          ]
        },
        {
          "episode": 2,
          "name": null,
          "iframe_url": "",
          "iframe_poster": null,
          "release_ru": null,
          "release_world": null,
          "availability": null,
          "voiceActing": [
            "Novamedia",
            "Ital. Original"
          ],
          "ads": false,
          "subtitle": [
            "Рус. полные"
          ]
        },
        {
          "episode": 3,
          "name": null,
          "iframe_url": "",
          "iframe_poster": null,
          "release_ru": null,
          "release_world": null,
          "availability": null,
          "voiceActing": [
            "Novamedia",
            "Ital. Original"
          ],
          "ads": false,
          "subtitle": [
            "Рус. полные"
          ]
        },
        {
          "episode": 4,
          "name": null,
          "iframe_url": "",
          "iframe_poster": null,
          "release_ru": null,
          "release_world": null,
          "availability": null,
          "voiceActing": [
            "Novamedia",
            "Ital. Original"
          ],
          "ads": false,
          "subtitle": [
            "Рус. полные"
          ]
        },
        {
          "episode": 5,
          "name": null,
          "iframe_url": "",
          "iframe_poster": null,
          "release_ru": null,
          "release_world": null,
          "availability": null,
          "voiceActing": [
            "Novamedia",
            "Ital. Original"
          ],
          "ads": false,
          "subtitle": [
            "Рус. полные"
          ]
        },
        {
          "episode": 6,
          "name": null,
          "iframe_url": "",
          "iframe_poster": null,
          "release_ru": null,
          "release_world": null,
          "availability": null,
          "voiceActing": [
            "Novamedia",
            "Ital. Original"
          ],
          "ads": false,
          "subtitle": [
            "Рус. полные"
          ]
        }
      ]
    }
  ],
  "voiceActing": [
    "Novamedia",
    "Ital. Original"
  ],
  "subtitle": [
    "Рус. полные"
  ],
  "parts": []
}
