{
  "id": 46122,
  "name": "Жива ли?...",
  "name_eng": "Dead Or?",
  "year": 2021,
  "slogan": null,
  "age": null,
  "type": "film",
  "quality": "HD (720p)",
  "imdb": null,
  "imdb_id": "13619218",
  "kinopoisk": null,
  "kinopoisk_id": null,
  "world_art": null,
  "world_art_id": null,
  "time": null,
  "ads": true,
  "premier": null,
  "premier_rus": null,
  "availability": null,
  "activate_time": "2021-04-28 10:28:00",
  "budget": null,
  "fees_use": null,
  "fees_world": null,
  "fees_rus": null,
  "rate_mpaa": null,
  "description": null,
  "iframe_url": "",
  "iframe_poster": null,
  "poster": "https://img.imgilall.me/movies/franchise/4/6/1/2/2/0/0/0/0/0/610x900_46122.jpg",
  "country": {
    "1": "США"
  },
  "collection": [],
  "genre": {
    "26": "Ужасы"
  },
  "director": [],
  "screenwriter": [],
  "producer": [],
  "operator": [],
  "composer": [],
  "design": [],
  "editor": [],
  "actors": [],
  "actors_dubl": [],
  "trivia": [],
  "trailers": [],
  "seasons": [],
  "voiceActing": [
    "Рус. Люб. многоголосый"
  ],
  "subtitle": [],
  "parts": []
}
