{
  "id": 46215,
  "name": "Геракл и Огненный круг",
  "name_eng": "Hercules: The Legendary Journeys - Hercules and the Circle of Fire",
  "year": 1994,
  "slogan": "—",
  "age": null,
  "type": "film",
  "quality": "SD",
  "imdb": "6.5",
  "imdb_id": "0110016",
  "kinopoisk": "6.9",
  "kinopoisk_id": "231090",
  "world_art": null,
  "world_art_id": null,
  "time": "91 мин. / 01:31",
  "ads": false,
  "premier": "1994-10-31",
  "premier_rus": "1994-11-01",
  "availability": "1994-11-02",
  "activate_time": "2021-05-02 10:36:00",
  "budget": null,
  "fees_use": null,
  "fees_world": null,
  "fees_rus": null,
  "rate_mpaa": null,
  "description": "Гераклу необходимо вернуть священный огонь, который украла ненавистная Гера. Если он не справится с этим заданием, всё человечество будет обречено на погибель.",
  "iframe_url": "",
  "iframe_poster": null,
  "poster": "https://img.imgilall.me/movies/franchise/4/6/2/1/5/0/0/0/0/0/610x900_46215.jpg",
  "country": {
    "1": "США",
    "23": "Новая Зеландия"
  },
  "collection": [],
  "genre": {
    "9": "Приключения",
    "6": "Фэнтези",
    "17": "Боевик"
  },
  "director": [
    "Даг Лефлер"
  ],
  "screenwriter": [
    "Кристиан Уильямс",
    "Бэрри Пуллман",
    "Эндрю Деттманн"
  ],
  "producer": [
    "Эрик Грюндеманн",
    "Дэвид Эйк",
    "Бернадетт Джойс"
  ],
  "operator": [
    "Джеймс Бартл"
  ],
  "composer": [
    "Джозеф ЛоДука"
  ],
  "design": [
    "Майкл Л. Строун",
    "Марк Робинс",
    "Барбара Дарра"
  ],
  "editor": [
    "Джон Козловски"
  ],
  "actors": [
    "Кевин Сорбо",
    "Энтони Куинн",
    "Тоуни Китаен",
    "Кевин Эткинсон",
    "Стефани Баррет",
    "Кристофер Брогэм",
    "Нелл Уэтерли",
    "Симона Кэссел",
    "Александер Гандар",
    "Джозеф Грир"
  ],
  "actors_dubl": [],
  "trivia": [],
  "trailers": [],
  "seasons": [],
  "voiceActing": [
    "C. Визгунов",
    "Ю. Живов",
    "Eng.Original"
  ],
  "subtitle": [],
  "parts": []
}
