{
  "id": 46242,
  "name": "Уличный боец 2",
  "name_eng": "Sutorîto Faitâ II gekijô-ban",
  "year": 1994,
  "slogan": "«The ultimate anime fighter, uncut & unleashed!»",
  "age": null,
  "type": "anime-film",
  "quality": "SD",
  "imdb": "7.2",
  "imdb_id": "0114563",
  "kinopoisk": "7.7",
  "kinopoisk_id": "52019",
  "world_art": null,
  "world_art_id": null,
  "time": "102 мин. / 01:42",
  "ads": false,
  "premier": "1994-08-06",
  "premier_rus": "1994-08-07",
  "availability": "1994-08-08",
  "activate_time": "2021-05-02 20:28:00",
  "budget": null,
  "fees_use": null,
  "fees_world": null,
  "fees_rus": null,
  "rate_mpaa": "PG-13",
  "description": "Байсон, безжалостный лидер международной террористической организации, долгие годы находился в поиске достойного соперника - величайшего бойца на планете. В конце концов он нашёл его в лице японца Рю, но в то же время заимел врагов в лице американца Гайла и китаянки Чан Ли, объединившихся, чтобы положить конец террору Байсона.",
  "iframe_url": "",
  "iframe_poster": null,
  "poster": "https://img.imgilall.me/movies/franchise/4/6/2/4/2/0/0/0/0/0/610x900_46242.jpg",
  "country": {
    "18": "Япония"
  },
  "collection": [],
  "genre": {
    "9": "Приключения",
    "11": "Фантастика",
    "6": "Фэнтези",
    "17": "Боевик"
  },
  "director": [
    "Гисабуро Суги"
  ],
  "screenwriter": [
    "Такаши Нишияма",
    "Akira Yasuda",
    "Кэнити Имаи"
  ],
  "producer": [
    "Кэнити Имаи",
    "Кензо Цудзимото",
    "Кэн Фудзита"
  ],
  "operator": [
    "Хироаки Эдамицу"
  ],
  "composer": [
    "Тэцуя Комуро",
    "Юджи Торияма",
    "Матиас Вебер"
  ],
  "design": [
    "Hajime Matsuoka"
  ],
  "editor": [
    "Хироси Мацуо",
    "Сигэюки Ямамори"
  ],
  "actors": [
    "Кодзиро Симидзу",
    "Кэндзи Хага",
    "Мики Фудзитани",
    "Масанэ Цукаяма",
    "Масакацу Фунаки",
    "Гиндзо Мацуо",
    "Сёдзо Идзука",
    "Ёко Сасаки",
    "Даисукэ Гори",
    "Юкимаса Кисино"
  ],
  "actors_dubl": [],
  "trivia": [],
  "trailers": [],
  "seasons": [],
  "voiceActing": [
    "Студия СВ-Дубль"
  ],
  "subtitle": [],
  "parts": []
}
