{
  "id": 46258,
  "name": "Сержант",
  "name_eng": "",
  "year": 2021,
  "slogan": "—",
  "age": null,
  "type": "series",
  "quality": "FHD (1080p)",
  "imdb": null,
  "imdb_id": null,
  "kinopoisk": "5.7",
  "kinopoisk_id": "1320529",
  "world_art": null,
  "world_art_id": null,
  "time": "—",
  "ads": false,
  "premier": null,
  "premier_rus": "2021-05-03",
  "availability": null,
  "serial_status": "online",
  "activate_time": "2021-05-03 12:43:00",
  "budget": null,
  "fees_use": null,
  "fees_world": null,
  "fees_rus": null,
  "rate_mpaa": null,
  "description": "В центре сюжета – сержант спецназа внутренних войск, молчаливый и суровый мастер военного дела, которого разъедает изнутри вина за гибель своего взвода. Он становится случайным свидетелем убийства и находит компромат на крупного бизнесмена, после чего на него начинается охота.Наёмники, коррумпированные силовики – все они не помеха на пути у главного героя. Сержант пойдёт на всё, чтобы выяснить обстоятельства гибели взвода, тем более, когда компромат имеет прямое к этому отношение.",
  "iframe_url": "",
  "poster": "https://img.imgilall.me/movies/franchise/4/6/2/5/8/0/0/0/0/0/610x900_46258.jpg",
  "country": {
    "5": "Россия"
  },
  "collection": {
    "12": "Для мужчин"
  },
  "genre": {
    "25": "Криминал",
    "17": "Боевик"
  },
  "director": [
    "Денис Карро"
  ],
  "screenwriter": [
    "Алексей Фадин",
    "Олег Томашевский",
    "Дмитрий Щербаков"
  ],
  "producer": [
    "Владимир Тюлин",
    "Анатолий Тупицын",
    "Максим Королев"
  ],
  "operator": [
    "Виталий Абрамов"
  ],
  "composer": [],
  "design": [
    "Денис Думан",
    "Анастасия Родина"
  ],
  "editor": [],
  "actors": [
    "Владимир Епифанцев",
    "Михаил Пореченков",
    "Игорь Жижикин",
    "Сергей Бадюк",
    "Виктория Тарасова",
    "Павел Попов",
    "Дмитрий Куличков",
    "Алексей Назаров",
    "Илья Семенов",
    "Светлана Смирнова-Марцинкевич"
  ],
  "actors_dubl": [],
  "trivia": [],
  "trailers": [],
  "seasons": [
    {
      "poster": null,
      "release_ru": null,
      "release_world": null,
      "availability": null,
      "iframe_url": "",
      "season": 1,
      "episodes": [
        {
          "episode": 1,
          "name": null,
          "iframe_url": "",
          "iframe_poster": null,
          "release_ru": null,
          "release_world": null,
          "availability": null,
          "voiceActing": [
            "Рус. Оригинальный"
          ],
          "ads": false,
          "subtitle": []
        },
        {
          "episode": 2,
          "name": null,
          "iframe_url": "",
          "iframe_poster": null,
          "release_ru": null,
          "release_world": null,
          "availability": null,
          "voiceActing": [
            "Рус. Оригинальный"
          ],
          "ads": false,
          "subtitle": []
        },
        {
          "episode": 3,
          "name": null,
          "iframe_url": "",
          "iframe_poster": null,
          "release_ru": null,
          "release_world": null,
          "availability": null,
          "voiceActing": [
            "Рус. Оригинальный"
          ],
          "ads": false,
          "subtitle": []
        },
        {
          "episode": 4,
          "name": null,
          "iframe_url": "",
          "iframe_poster": null,
          "release_ru": null,
          "release_world": null,
          "availability": null,
          "voiceActing": [
            "Рус. Оригинальный"
          ],
          "ads": false,
          "subtitle": []
        }
      ]
    }
  ],
  "voiceActing": [
    "Рус. Оригинальный"
  ],
  "subtitle": [],
  "parts": []
}
