{
  "id": 46312,
  "name": "Не в деньгах счастье",
  "name_eng": "Treasure Lies",
  "year": 2020,
  "slogan": "«A hardworking, all-American kid learns a faith lesson through an unexpected windfall»",
  "age": null,
  "type": "film",
  "quality": "HD (720p)",
  "imdb": "5.3",
  "imdb_id": "9697774",
  "kinopoisk": null,
  "kinopoisk_id": "1280293",
  "world_art": null,
  "world_art_id": null,
  "time": "107 мин. / 01:47",
  "ads": true,
  "premier": "2020-03-27",
  "premier_rus": "2020-03-28",
  "availability": "2020-03-29",
  "activate_time": "2021-05-05 11:20:00",
  "budget": null,
  "fees_use": null,
  "fees_world": null,
  "fees_rus": null,
  "rate_mpaa": null,
  "description": null,
  "iframe_url": "",
  "iframe_poster": null,
  "poster": "https://img.imgilall.me/movies/franchise/4/6/3/1/2/0/0/0/0/0/610x900_46312.jpg",
  "country": {
    "1": "США"
  },
  "collection": [],
  "genre": {
    "7": "Драма"
  },
  "director": [
    "Бретт Варвел"
  ],
  "screenwriter": [
    "Скотт А. Петерсон"
  ],
  "producer": [
    "Ben Geiser",
    "Diane L. Peterson",
    "Скотт А. Петерсон"
  ],
  "operator": [
    "Дэн Парсонс"
  ],
  "composer": [
    "Тайлер Смит"
  ],
  "design": [
    "Morgan Willer"
  ],
  "editor": [
    "Jeremy Wanek"
  ],
  "actors": [
    "Камерон Арнетт",
    "Брукс Райан",
    "Ben Buehler",
    "Эйприл Уоррен",
    "Dariush Moslemi",
    "Dawn Long",
    "London Dendy",
    "Шерил МакКоннелл",
    "Stephanie Parker",
    "Rachel Cameron"
  ],
  "actors_dubl": [],
  "trivia": [],
  "trailers": [],
  "seasons": [],
  "voiceActing": [
    "Рус. Люб. многоголосый"
  ],
  "subtitle": [],
  "parts": []
}
