{
  "id": 46445,
  "name": "Шаг вперед: Жар улиц",
  "name_eng": "Somos Calentura: We Are The Heat",
  "year": 2018,
  "slogan": "—",
  "age": "16+",
  "type": "film",
  "quality": "FHD (1080p)",
  "imdb": "6.5",
  "imdb_id": "8949410",
  "kinopoisk": null,
  "kinopoisk_id": "1237913",
  "world_art": null,
  "world_art_id": null,
  "time": "104 мин. / 01:44",
  "ads": false,
  "premier": "2018-09-02",
  "premier_rus": "2021-05-06",
  "availability": "2021-05-07",
  "activate_time": "2021-05-10 11:17:00",
  "budget": null,
  "fees_use": null,
  "fees_world": "$92 317",
  "fees_rus": "$8 630",
  "rate_mpaa": null,
  "description": "На этих жарких улицах звучат дикие ритмы, пульсируют тела в умопомрачительном танце и решаются криминальные вопросы. Здесь ты выбираешь, кем хочешь стать: быстро разбогатеть, выполняя опасные задания, или добиться успеха на танцполе в соревновании самых отвязных танцевальных команд страны.",
  "iframe_url": "",
  "iframe_poster": null,
  "poster": "https://img.imgilall.me/movies/franchise/4/6/4/4/5/0/0/0/0/0/610x900_46445.jpg",
  "country": {
    "22": "Аргентина",
    "63": "Колумбия"
  },
  "collection": [],
  "genre": {
    "7": "Драма"
  },
  "director": [
    "Хорхе Навас"
  ],
  "screenwriter": [
    "Стивен Грисалес",
    "Диего Виванко"
  ],
  "producer": [
    "Родриго Бельотт",
    "Иван Бенавидес",
    "Хуан Диаз Б."
  ],
  "operator": [
    "Луис Отеро"
  ],
  "composer": [],
  "design": [
    "Хуан Диаз Б.",
    "Хайме Луна",
    "Лус Элена Карденас"
  ],
  "editor": [],
  "actors": [
    "Хосе Луис Прешиадо",
    "Дуван Арисала",
    "Мигель Анхель Бангела",
    "Хулио Валенсиа",
    "Мануэль Риаскос Мена",
    "Хайди Каролина Мина",
    "Ана Лорена Рентерия",
    "Себастьян Д’Анджело",
    "Ариель Нуньес",
    "Роза Эстер Москера Арамбуро"
  ],
  "actors_dubl": [
    "Юрий Романов",
    "Станислав Шапкин",
    "Андрей Счастный",
    "Артем Казюханов",
    "Дмитрий Семенов"
  ],
  "trivia": [],
  "trailers": [],
  "seasons": [],
  "voiceActing": [
    "Рус. Дублированный",
    "Spanish Original"
  ],
  "subtitle": [
    "Eng. full"
  ],
  "parts": []
}
