{
  "id": 4662,
  "name": "Как устроена Вселенная",
  "name_eng": "How the Universe works",
  "year": 2010,
  "slogan": null,
  "age": "16+",
  "type": "series",
  "quality": "HD (720p)",
  "imdb": "8.9",
  "imdb_id": "1832668",
  "kinopoisk": "8.7",
  "kinopoisk_id": "615680",
  "world_art": null,
  "world_art_id": null,
  "time": "43 мин.",
  "ads": false,
  "premier": "2010-04-25",
  "premier_rus": "2010-04-26",
  "availability": "2010-04-27",
  "serial_status": "online",
  "activate_time": "2018-12-14 11:41:11",
  "budget": null,
  "fees_use": null,
  "fees_world": null,
  "fees_rus": null,
  "rate_mpaa": null,
  "description": "Это история о создании всего в этом мире. Программа исследует, как Вселенная возникла из ничего, и как она выросла с точки значительно меньше, чем атомные частицы, до огромного космоса.",
  "iframe_url": "",
  "poster": "https://img.imgilall.me/movies/franchise/4/6/6/2/0/0/0/0/0/0/610x900_4662.jpg",
  "country": {
    "1": "США"
  },
  "collection": {
    "28": "Про космос"
  },
  "genre": {
    "54": "Документальный",
    "10": "Зарубежный"
  },
  "director": [
    "Mark Bridge",
    "Пол О’Коннор",
    "Питер Чинн"
  ],
  "screenwriter": [
    "Madeleine Carter",
    "Элинор Грант",
    "Jeremy Turner"
  ],
  "producer": [
    "Стивен Марш",
    "Wyatt Channell",
    "John Wilde"
  ],
  "operator": [
    "Крис Сатклифф",
    "Andrew Cornick",
    "Макс Юг Уильямс"
  ],
  "composer": [
    "Ричард Блэйр-Олифант"
  ],
  "design": [],
  "editor": [
    "Matt Scragg",
    "Бенедикт Джексон",
    "Бенжамин Стотт"
  ],
  "actors": [
    "Фил Плейт",
    "Мишель Таллер",
    "Майк Роу",
    "Лоуренс Краусс",
    "Хаким Олусейи",
    "James S. Bullock",
    "Ричард Линтерн",
    "Moogega Cooper",
    "Митио Каку",
    "Дэн Дарда"
  ],
  "actors_dubl": [],
  "trivia": [],
  "trailers": [],
  "seasons": [
    {
      "poster": "https://img.imgilall.me/movies/season/2/6/2/3/0/0/0/0/0/0/610x900_2623.jpg",
      "release_ru": "2010-04-26",
      "release_world": "2010-04-25",
      "availability": "2010-04-27",
      "iframe_url": "",
      "season": 1,
      "episodes": [
        {
          "episode": 1,
          "name": "Big Bang",
          "iframe_url": "",
          "iframe_poster": null,
          "release_ru": "2010-04-26",
          "release_world": "2010-04-25",
          "availability": "2010-04-27",
          "voiceActing": [
            "Рус. Одноголосый",
            "Eng.Original"
          ],
          "ads": false,
          "subtitle": []
        },
        {
          "episode": 2,
          "name": "Black Holes",
          "iframe_url": "",
          "iframe_poster": null,
          "release_ru": "2010-05-03",
          "release_world": "2010-05-02",
          "availability": "2010-05-04",
          "voiceActing": [
            "Рус. Одноголосый",
            "Eng.Original"
          ],
          "ads": false,
          "subtitle": []
        },
        {
          "episode": 3,
          "name": "Galaxies (aka Alien Galaxies)",
          "iframe_url": "",
          "iframe_poster": null,
          "release_ru": "2010-05-11",
          "release_world": "2010-05-10",
          "availability": "2010-05-12",
          "voiceActing": [
            "Рус. Одноголосый",
            "Eng.Original"
          ],
          "ads": false,
          "subtitle": []
        },
        {
          "episode": 4,
          "name": "Extreme Stars",
          "iframe_url": "",
          "iframe_poster": null,
          "release_ru": "2010-05-11",
          "release_world": "2010-05-10",
          "availability": "2010-05-12",
          "voiceActing": [
            "Рус. Одноголосый",
            "Eng.Original"
          ],
          "ads": false,
          "subtitle": []
        },
        {
          "episode": 5,
          "name": "Supernovas",
          "iframe_url": "",
          "iframe_poster": null,
          "release_ru": "2010-05-18",
          "release_world": "2010-05-17",
          "availability": "2010-05-19",
          "voiceActing": [
            "Рус. Одноголосый",
            "Eng.Original"
          ],
          "ads": false,
          "subtitle": []
        },
        {
          "episode": 6,
          "name": "Planets (aka Extreme Planets)",
          "iframe_url": "",
          "iframe_poster": null,
          "release_ru": "2010-05-18",
          "release_world": "2010-05-17",
          "availability": "2010-05-19",
          "voiceActing": [
            "Рус. Одноголосый",
            "Eng.Original"
          ],
          "ads": false,
          "subtitle": []
        },
        {
          "episode": 7,
          "name": "Solar Systems",
          "iframe_url": "",
          "iframe_poster": null,
          "release_ru": "2010-05-25",
          "release_world": "2010-05-24",
          "availability": "2010-05-26",
          "voiceActing": [
            "Рус. Одноголосый",
            "Eng.Original"
          ],
          "ads": false,
          "subtitle": []
        },
        {
          "episode": 8,
          "name": "Moons (aka Alien Moons)",
          "iframe_url": "",
          "iframe_poster": null,
          "release_ru": "2010-05-25",
          "release_world": "2010-05-24",
          "availability": "2010-05-26",
          "voiceActing": [
            "Рус. Одноголосый",
            "Eng.Original"
          ],
          "ads": false,
          "subtitle": []
        }
      ]
    },
    {
      "poster": "https://img.imgilall.me/movies/season/2/6/2/4/0/0/0/0/0/0/610x900_2624.jpg",
      "release_ru": "2012-07-12",
      "release_world": "2012-07-11",
      "availability": "2012-07-13",
      "iframe_url": "",
      "season": 2,
      "episodes": [
        {
          "episode": 1,
          "name": "Volcanoes - The Furnaces of Life",
          "iframe_url": "",
          "iframe_poster": null,
          "release_ru": "2012-07-12",
          "release_world": "2012-07-11",
          "availability": "2012-07-13",
          "voiceActing": [
            "Рус. Одноголосый",
            "Eng.Original"
          ],
          "ads": false,
          "subtitle": []
        },
        {
          "episode": 2,
          "name": "Megastorms - The Winds of Creation",
          "iframe_url": "",
          "iframe_poster": null,
          "release_ru": "2012-07-19",
          "release_world": "2012-07-18",
          "availability": "2012-07-20",
          "voiceActing": [
            "Рус. Одноголосый",
            "Eng.Original"
          ],
          "ads": false,
          "subtitle": []
        },
        {
          "episode": 3,
          "name": "Exoplanets - Planets from Hell",
          "iframe_url": "",
          "iframe_poster": "https://img.imgilall.me/movies/video/4/2/2/3/0/0/0/0/0/0/800x450_42230.jpeg",
          "release_ru": "2012-07-26",
          "release_world": "2012-07-25",
          "availability": "2012-07-27",
          "voiceActing": [
            "Рус. Одноголосый",
            "Eng.Original"
          ],
          "ads": false,
          "subtitle": []
        },
        {
          "episode": 4,
          "name": "Megaflares - Cosmic Firestorms",
          "iframe_url": "",
          "iframe_poster": null,
          "release_ru": "2012-08-02",
          "release_world": "2012-08-01",
          "availability": "2012-08-03",
          "voiceActing": [
            "Рус. Одноголосый",
            "Eng.Original"
          ],
          "ads": false,
          "subtitle": []
        },
        {
          "episode": 5,
          "name": "Extreme Orbits - Clockwork and Creation",
          "iframe_url": "",
          "iframe_poster": null,
          "release_ru": "2012-08-09",
          "release_world": "2012-08-08",
          "availability": "2012-08-10",
          "voiceActing": [
            "Рус. Одноголосый",
            "Eng.Original"
          ],
          "ads": false,
          "subtitle": []
        },
        {
          "episode": 6,
          "name": "Comets - Frozen Wanderers",
          "iframe_url": "",
          "iframe_poster": null,
          "release_ru": "2012-08-16",
          "release_world": "2012-08-15",
          "availability": "2012-08-17",
          "voiceActing": [
            "Рус. Одноголосый",
            "Eng.Original"
          ],
          "ads": false,
          "subtitle": []
        },
        {
          "episode": 7,
          "name": "Asteroids - Worlds That Never Were",
          "iframe_url": "",
          "iframe_poster": null,
          "release_ru": "2012-08-23",
          "release_world": "2012-08-22",
          "availability": "2012-08-24",
          "voiceActing": [
            "Рус. Одноголосый",
            "Eng.Original"
          ],
          "ads": false,
          "subtitle": []
        },
        {
          "episode": 8,
          "name": "Birth of the Earth",
          "iframe_url": "",
          "iframe_poster": null,
          "release_ru": "2012-08-30",
          "release_world": "2012-08-29",
          "availability": "2012-08-31",
          "voiceActing": [
            "Рус. Одноголосый",
            "Eng.Original"
          ],
          "ads": false,
          "subtitle": []
        }
      ]
    },
    {
      "poster": "https://img.imgilall.me/movies/season/2/6/2/5/0/0/0/0/0/0/610x900_2625.jpg",
      "release_ru": "2014-07-10",
      "release_world": "2014-07-09",
      "availability": "2014-07-11",
      "iframe_url": "",
      "season": 3,
      "episodes": [
        {
          "episode": 1,
          "name": "Journey from the Center of the Sun",
          "iframe_url": "",
          "iframe_poster": null,
          "release_ru": "2014-07-10",
          "release_world": "2014-07-09",
          "availability": "2014-07-11",
          "voiceActing": [
            "Рус. Одноголосый",
            "Eng.Original"
          ],
          "ads": false,
          "subtitle": []
        },
        {
          "episode": 2,
          "name": "The End of the Universe",
          "iframe_url": "",
          "iframe_poster": null,
          "release_ru": "2014-07-17",
          "release_world": "2014-07-16",
          "availability": "2014-07-18",
          "voiceActing": [
            "Рус. Одноголосый",
            "Eng.Original"
          ],
          "ads": false,
          "subtitle": []
        },
        {
          "episode": 3,
          "name": "Jupiter: Destroyer or Savior?",
          "iframe_url": "",
          "iframe_poster": null,
          "release_ru": "2014-07-24",
          "release_world": "2014-07-23",
          "availability": "2014-07-25",
          "voiceActing": [
            "Рус. Одноголосый",
            "Eng.Original"
          ],
          "ads": false,
          "subtitle": []
        },
        {
          "episode": 4,
          "name": "First Second of the Big Bang",
          "iframe_url": "",
          "iframe_poster": null,
          "release_ru": "2014-07-31",
          "release_world": "2014-07-30",
          "availability": "2014-08-01",
          "voiceActing": [
            "Рус. Одноголосый",
            "Eng.Original"
          ],
          "ads": false,
          "subtitle": []
        },
        {
          "episode": 5,
          "name": "Is Saturn Alive?",
          "iframe_url": "",
          "iframe_poster": null,
          "release_ru": "2014-08-07",
          "release_world": "2014-08-06",
          "availability": "2014-08-08",
          "voiceActing": [
            "Рус. Одноголосый",
            "Eng.Original"
          ],
          "ads": false,
          "subtitle": []
        },
        {
          "episode": 6,
          "name": "Weapons of Mass Extinction",
          "iframe_url": "",
          "iframe_poster": null,
          "release_ru": "2014-08-14",
          "release_world": "2014-08-13",
          "availability": "2014-08-15",
          "voiceActing": [
            "Рус. Одноголосый",
            "Eng.Original"
          ],
          "ads": false,
          "subtitle": []
        },
        {
          "episode": 7,
          "name": "Did a Black Hole Build the Milky Way?",
          "iframe_url": "",
          "iframe_poster": null,
          "release_ru": "2014-08-21",
          "release_world": "2014-08-20",
          "availability": "2014-08-22",
          "voiceActing": [
            "Рус. Одноголосый",
            "Eng.Original"
          ],
          "ads": false,
          "subtitle": []
        },
        {
          "episode": 8,
          "name": "Our Voyage to the Stars (aka Starman)",
          "iframe_url": "",
          "iframe_poster": null,
          "release_ru": "2014-08-28",
          "release_world": "2014-08-27",
          "availability": "2014-08-29",
          "voiceActing": [
            "Рус. Одноголосый",
            "Eng.Original"
          ],
          "ads": false,
          "subtitle": []
        },
        {
          "episode": 9,
          "name": "The Search for a Second Earth",
          "iframe_url": "",
          "iframe_poster": null,
          "release_ru": "2014-09-04",
          "release_world": "2014-09-03",
          "availability": "2014-09-05",
          "voiceActing": [
            "Рус. Одноголосый",
            "Eng.Original"
          ],
          "ads": false,
          "subtitle": []
        }
      ]
    },
    {
      "poster": "https://img.imgilall.me/movies/season/2/6/2/6/0/0/0/0/0/0/610x900_2626.jpg",
      "release_ru": "2015-07-15",
      "release_world": "2015-07-14",
      "availability": "2015-07-16",
      "iframe_url": "",
      "season": 4,
      "episodes": [
        {
          "episode": 1,
          "name": "How the Universe Built Your Car",
          "iframe_url": "",
          "iframe_poster": null,
          "release_ru": "2015-07-15",
          "release_world": "2015-07-14",
          "availability": "2015-07-16",
          "voiceActing": [
            "Рус. Дублированный"
          ],
          "ads": false,
          "subtitle": []
        },
        {
          "episode": 2,
          "name": "Earth: Venus's Evil Twin",
          "iframe_url": "",
          "iframe_poster": null,
          "release_ru": "2015-07-22",
          "release_world": "2015-07-21",
          "availability": "2015-07-23",
          "voiceActing": [
            "Рус. Дублированный"
          ],
          "ads": false,
          "subtitle": []
        },
        {
          "episode": 3,
          "name": "Monster Black Hole",
          "iframe_url": "",
          "iframe_poster": null,
          "release_ru": "2015-07-29",
          "release_world": "2015-07-28",
          "availability": "2015-07-30",
          "voiceActing": [
            "Рус. Дублированный"
          ],
          "ads": false,
          "subtitle": []
        },
        {
          "episode": 4,
          "name": "Edge of the Solar System",
          "iframe_url": "",
          "iframe_poster": null,
          "release_ru": "2015-08-05",
          "release_world": "2015-08-04",
          "availability": "2015-08-06",
          "voiceActing": [
            "Рус. Дублированный"
          ],
          "ads": false,
          "subtitle": []
        },
        {
          "episode": 5,
          "name": "Dawn of Life",
          "iframe_url": "",
          "iframe_poster": null,
          "release_ru": "2015-08-12",
          "release_world": "2015-08-11",
          "availability": "2015-08-13",
          "voiceActing": [
            "Рус. Дублированный"
          ],
          "ads": false,
          "subtitle": []
        },
        {
          "episode": 6,
          "name": "Secret History of the Moon",
          "iframe_url": "",
          "iframe_poster": null,
          "release_ru": "2015-08-19",
          "release_world": "2015-08-18",
          "availability": "2015-08-20",
          "voiceActing": [
            "Рус. Дублированный"
          ],
          "ads": false,
          "subtitle": []
        },
        {
          "episode": 7,
          "name": "The First Oceans",
          "iframe_url": "",
          "iframe_poster": null,
          "release_ru": "2015-08-26",
          "release_world": "2015-08-25",
          "availability": "2015-08-27",
          "voiceActing": [
            "Рус. Дублированный"
          ],
          "ads": false,
          "subtitle": []
        },
        {
          "episode": 8,
          "name": "Forces of Mass Construction (aka Magnetism)",
          "iframe_url": "",
          "iframe_poster": null,
          "release_ru": "2015-09-02",
          "release_world": "2015-09-01",
          "availability": "2015-09-03",
          "voiceActing": [
            "Рус. Дублированный"
          ],
          "ads": false,
          "subtitle": []
        }
      ]
    },
    {
      "poster": "https://img.imgilall.me/movies/season/2/6/2/7/0/0/0/0/0/0/610x900_2627.jpg",
      "release_ru": "2016-11-30",
      "release_world": "2016-11-29",
      "availability": "2016-12-01",
      "iframe_url": "",
      "season": 5,
      "episodes": [
        {
          "episode": 1,
          "name": "Mystery of Planet 9",
          "iframe_url": "",
          "iframe_poster": null,
          "release_ru": "2016-11-30",
          "release_world": "2016-11-29",
          "availability": "2016-12-01",
          "voiceActing": [
            "Рус. Одноголосый"
          ],
          "ads": false,
          "subtitle": []
        },
        {
          "episode": 2,
          "name": "Black Holes: The Secret Origin",
          "iframe_url": "",
          "iframe_poster": null,
          "release_ru": "2016-12-07",
          "release_world": "2016-12-06",
          "availability": "2016-12-08",
          "voiceActing": [
            "Рус. Одноголосый"
          ],
          "ads": false,
          "subtitle": []
        },
        {
          "episode": 3,
          "name": "Secret History of Pluto",
          "iframe_url": "",
          "iframe_poster": null,
          "release_ru": "2017-01-04",
          "release_world": "2017-01-03",
          "availability": "2017-01-05",
          "voiceActing": [
            "Рус. Одноголосый"
          ],
          "ads": false,
          "subtitle": []
        },
        {
          "episode": 4,
          "name": "Stars That Kill",
          "iframe_url": "",
          "iframe_poster": null,
          "release_ru": "2017-01-11",
          "release_world": "2017-01-10",
          "availability": "2017-01-12",
          "voiceActing": [
            "Рус. Одноголосый"
          ],
          "ads": false,
          "subtitle": []
        },
        {
          "episode": 5,
          "name": "The Universe's Deadliest",
          "iframe_url": "",
          "iframe_poster": null,
          "release_ru": "2017-01-18",
          "release_world": "2017-01-17",
          "availability": "2017-01-19",
          "voiceActing": [
            "Рус. Одноголосый"
          ],
          "ads": false,
          "subtitle": []
        },
        {
          "episode": 6,
          "name": "Life and Death on the Red Planet",
          "iframe_url": "",
          "iframe_poster": null,
          "release_ru": "2017-01-25",
          "release_world": "2017-01-24",
          "availability": "2017-01-26",
          "voiceActing": [
            "Рус. Одноголосый"
          ],
          "ads": false,
          "subtitle": []
        },
        {
          "episode": 7,
          "name": "The Dark Matter Enigma",
          "iframe_url": "",
          "iframe_poster": null,
          "release_ru": "2017-02-01",
          "release_world": "2017-01-31",
          "availability": "2017-02-02",
          "voiceActing": [
            "Рус. Одноголосый"
          ],
          "ads": false,
          "subtitle": []
        },
        {
          "episode": 8,
          "name": "Strangest Alien Worlds",
          "iframe_url": "",
          "iframe_poster": null,
          "release_ru": "2017-02-08",
          "release_world": "2017-02-07",
          "availability": "2017-02-09",
          "voiceActing": [
            "Рус. Одноголосый"
          ],
          "ads": false,
          "subtitle": []
        }
      ]
    },
    {
      "poster": "https://img.imgilall.me/movies/season/2/6/2/8/0/0/0/0/0/0/610x900_2628.jpg",
      "release_ru": "2018-01-10",
      "release_world": "2018-01-09",
      "availability": "2018-01-11",
      "iframe_url": "",
      "season": 6,
      "episodes": [
        {
          "episode": 1,
          "name": "Are Black Holes Real?",
          "iframe_url": null,
          "iframe_poster": null,
          "release_ru": "2018-01-10",
          "release_world": "2018-01-09",
          "availability": "2018-01-11",
          "voiceActing": []
        },
        {
          "episode": 2,
          "name": "Twin Suns: The Alien Mysteries",
          "iframe_url": "",
          "iframe_poster": null,
          "release_ru": "2018-01-17",
          "release_world": "2018-01-16",
          "availability": "2018-01-18",
          "voiceActing": [
            "Рус. Дублированный"
          ],
          "ads": false,
          "subtitle": []
        },
        {
          "episode": 3,
          "name": "Dark History of the Solar System",
          "iframe_url": "",
          "iframe_poster": null,
          "release_ru": "2018-01-24",
          "release_world": "2018-01-23",
          "availability": "2018-01-25",
          "voiceActing": [
            "Рус. Дублированный"
          ],
          "ads": false,
          "subtitle": []
        },
        {
          "episode": 4,
          "name": "Death of the Milky Way",
          "iframe_url": "",
          "iframe_poster": null,
          "release_ru": "2018-01-31",
          "release_world": "2018-01-30",
          "availability": "2018-02-01",
          "voiceActing": [
            "Рус. Дублированный"
          ],
          "ads": false,
          "subtitle": []
        },
        {
          "episode": 5,
          "name": "Uranus & Neptune: Rise of the Ice Giants",
          "iframe_url": "",
          "iframe_poster": null,
          "release_ru": "2018-02-07",
          "release_world": "2018-02-06",
          "availability": "2018-02-08",
          "voiceActing": [
            "Рус. Дублированный"
          ],
          "ads": false,
          "subtitle": []
        },
        {
          "episode": 6,
          "name": "Secret History of Mercury",
          "iframe_url": "",
          "iframe_poster": null,
          "release_ru": "2018-02-14",
          "release_world": "2018-02-13",
          "availability": "2018-02-15",
          "voiceActing": [
            "Рус. Дублированный"
          ],
          "ads": false,
          "subtitle": []
        },
        {
          "episode": 7,
          "name": "The Quasar Enigma",
          "iframe_url": "",
          "iframe_poster": null,
          "release_ru": "2018-02-21",
          "release_world": "2018-02-20",
          "availability": "2018-02-22",
          "voiceActing": [
            "Рус. Дублированный"
          ],
          "ads": false,
          "subtitle": []
        },
        {
          "episode": 8,
          "name": "Strange Lives of Dwarf Planets",
          "iframe_url": "",
          "iframe_poster": null,
          "release_ru": "2018-02-28",
          "release_world": "2018-02-27",
          "availability": "2018-03-01",
          "voiceActing": [
            "Рус. Дублированный"
          ],
          "ads": false,
          "subtitle": []
        },
        {
          "episode": 9,
          "name": "War on Asteroids",
          "iframe_url": "",
          "iframe_poster": null,
          "release_ru": "2018-03-07",
          "release_world": "2018-03-06",
          "availability": "2018-03-08",
          "voiceActing": [
            "Рус. Дублированный"
          ],
          "ads": false,
          "subtitle": []
        },
        {
          "episode": 10,
          "name": "Mystery of Spacetime",
          "iframe_url": "",
          "iframe_poster": null,
          "release_ru": "2018-03-14",
          "release_world": "2018-03-13",
          "availability": "2018-03-15",
          "voiceActing": [
            "Рус. Дублированный"
          ],
          "ads": false,
          "subtitle": []
        }
      ]
    },
    {
      "poster": "https://img.imgilall.me/movies/season/3/4/1/0/0/0/0/0/0/0/610x900_3410.jpg",
      "release_ru": "2019-01-09",
      "release_world": "2019-01-08",
      "availability": "2019-01-10",
      "iframe_url": "",
      "season": 7,
      "episodes": [
        {
          "episode": 1,
          "name": "Nightmares of Neutron Stars",
          "iframe_url": "",
          "iframe_poster": null,
          "release_ru": "2019-01-09",
          "release_world": "2019-01-08",
          "availability": "2019-01-10",
          "voiceActing": [
            "Рус. Дублированный"
          ],
          "ads": false,
          "subtitle": []
        },
        {
          "episode": 2,
          "name": "When Supernovas Strike",
          "iframe_url": "",
          "iframe_poster": null,
          "release_ru": "2019-01-16",
          "release_world": "2019-01-15",
          "availability": "2019-01-17",
          "voiceActing": [
            "Рус. Дублированный"
          ],
          "ads": false,
          "subtitle": []
        },
        {
          "episode": 3,
          "name": "The Interstellar Mysteries",
          "iframe_url": "",
          "iframe_poster": null,
          "release_ru": "2019-01-23",
          "release_world": "2019-01-22",
          "availability": "2019-01-24",
          "voiceActing": [
            "Рус. Дублированный"
          ],
          "ads": false,
          "subtitle": []
        },
        {
          "episode": 4,
          "name": "How Black Holes Made Us",
          "iframe_url": "",
          "iframe_poster": null,
          "release_ru": "2019-01-30",
          "release_world": "2019-01-29",
          "availability": "2019-01-31",
          "voiceActing": [
            "Рус. Дублированный"
          ],
          "ads": false,
          "subtitle": []
        },
        {
          "episode": 5,
          "name": "Secret World of Nebulas",
          "iframe_url": "",
          "iframe_poster": null,
          "release_ru": "2019-02-06",
          "release_world": "2019-02-05",
          "availability": "2019-02-07",
          "voiceActing": [
            "Рус. Дублированный"
          ],
          "ads": false,
          "subtitle": []
        },
        {
          "episode": 6,
          "name": "Did the Big Bang Really Happen?",
          "iframe_url": "",
          "iframe_poster": null,
          "release_ru": "2019-02-13",
          "release_world": "2019-02-12",
          "availability": "2019-02-14",
          "voiceActing": [
            "Рус. Дублированный"
          ],
          "ads": false,
          "subtitle": []
        },
        {
          "episode": 7,
          "name": "Battle of the Dark Universe",
          "iframe_url": "",
          "iframe_poster": null,
          "release_ru": "2019-02-20",
          "release_world": "2019-02-19",
          "availability": "2019-02-21",
          "voiceActing": [
            "Рус. Дублированный"
          ],
          "ads": false,
          "subtitle": []
        },
        {
          "episode": 8,
          "name": "Hunt for Alien Life",
          "iframe_url": "",
          "iframe_poster": null,
          "release_ru": "2019-02-27",
          "release_world": "2019-02-26",
          "availability": "2019-02-28",
          "voiceActing": [
            "Рус. Дублированный"
          ],
          "ads": false,
          "subtitle": []
        },
        {
          "episode": 9,
          "name": "Finding the New Earth",
          "iframe_url": "",
          "iframe_poster": null,
          "release_ru": "2019-03-06",
          "release_world": "2019-03-05",
          "availability": "2019-03-07",
          "voiceActing": [
            "Рус. Дублированный"
          ],
          "ads": false,
          "subtitle": []
        },
        {
          "episode": 10,
          "name": "Cassini's Final Secrets",
          "iframe_url": "",
          "iframe_poster": null,
          "release_ru": "2019-03-13",
          "release_world": "2019-03-12",
          "availability": "2019-03-14",
          "voiceActing": [
            "Рус. Дублированный"
          ],
          "ads": false,
          "subtitle": []
        }
      ]
    },
    {
      "poster": null,
      "release_ru": "2020-01-03",
      "release_world": "2020-01-02",
      "availability": "2020-01-04",
      "iframe_url": "",
      "season": 8,
      "episodes": [
        {
          "episode": 1,
          "name": "Asteroid Apocalypse: The New Threat",
          "iframe_url": "",
          "iframe_poster": null,
          "release_ru": "2020-01-03",
          "release_world": "2020-01-02",
          "availability": "2020-01-04",
          "voiceActing": [
            "Рус. Дублированный"
          ],
          "ads": false,
          "subtitle": []
        },
        {
          "episode": 2,
          "name": "NASA's Journey to Mars",
          "iframe_url": "",
          "iframe_poster": null,
          "release_ru": "2020-01-10",
          "release_world": "2020-01-09",
          "availability": "2020-01-11",
          "voiceActing": [
            "Рус. Дублированный"
          ],
          "ads": false,
          "subtitle": []
        },
        {
          "episode": 3,
          "name": "Hunt for Alien Evidence",
          "iframe_url": "",
          "iframe_poster": null,
          "release_ru": "2020-01-17",
          "release_world": "2020-01-16",
          "availability": "2020-01-18",
          "voiceActing": [
            "Рус. Дублированный"
          ],
          "ads": false,
          "subtitle": []
        },
        {
          "episode": 4,
          "name": "Death of the Last Stars",
          "iframe_url": "",
          "iframe_poster": null,
          "release_ru": "2020-01-24",
          "release_world": "2020-01-23",
          "availability": "2020-01-25",
          "voiceActing": [
            "Рус. Дублированный"
          ],
          "ads": false,
          "subtitle": []
        },
        {
          "episode": 5,
          "name": "Secrets of Time Travel",
          "iframe_url": "",
          "iframe_poster": null,
          "release_ru": "2020-01-31",
          "release_world": "2020-01-30",
          "availability": "2020-02-01",
          "voiceActing": [
            "Рус. Дублированный"
          ],
          "ads": false,
          "subtitle": []
        },
        {
          "episode": 6,
          "name": "When NASA Met Jupiter",
          "iframe_url": "",
          "iframe_poster": null,
          "release_ru": "2020-02-07",
          "release_world": "2020-02-06",
          "availability": "2020-02-08",
          "voiceActing": [
            "Рус. Дублированный"
          ],
          "ads": false,
          "subtitle": []
        },
        {
          "episode": 7,
          "name": "Edge of the Universe",
          "iframe_url": "",
          "iframe_poster": null,
          "release_ru": "2020-02-14",
          "release_world": "2020-02-13",
          "availability": "2020-02-15",
          "voiceActing": [
            "Рус. Дублированный"
          ],
          "ads": false,
          "subtitle": []
        },
        {
          "episode": 8,
          "name": "Monsters of the Milky Way",
          "iframe_url": "",
          "iframe_poster": null,
          "release_ru": "2020-02-21",
          "release_world": "2020-02-20",
          "availability": "2020-02-22",
          "voiceActing": [
            "Рус. Дублированный"
          ],
          "ads": false,
          "subtitle": []
        },
        {
          "episode": 9,
          "name": "Earth's Death Orbit",
          "iframe_url": "",
          "iframe_poster": null,
          "release_ru": "2020-02-28",
          "release_world": "2020-02-27",
          "availability": "2020-02-29",
          "voiceActing": [
            "Рус. Дублированный"
          ],
          "ads": false,
          "subtitle": []
        }
      ]
    },
    {
      "poster": null,
      "release_ru": "2021-03-25",
      "release_world": "2021-03-24",
      "availability": "2021-03-26",
      "iframe_url": "",
      "season": 9,
      "episodes": [
        {
          "episode": 1,
          "name": "Journey to a Black Hole",
          "iframe_url": null,
          "iframe_poster": null,
          "release_ru": "2021-03-25",
          "release_world": "2021-03-24",
          "availability": "2021-03-26",
          "voiceActing": []
        },
        {
          "episode": 2,
          "name": "Mission to a Comet",
          "iframe_url": null,
          "iframe_poster": null,
          "release_ru": "2021-04-01",
          "release_world": "2021-03-31",
          "availability": "2021-04-02",
          "voiceActing": []
        },
        {
          "episode": 3,
          "name": "Secrets of the Sun",
          "iframe_url": null,
          "iframe_poster": null,
          "release_ru": "2021-04-08",
          "release_world": "2021-04-07",
          "availability": "2021-04-09",
          "voiceActing": []
        },
        {
          "episode": 4,
          "name": "Aliens of the Microcosmos",
          "iframe_url": null,
          "iframe_poster": null,
          "release_ru": "2021-04-15",
          "release_world": "2021-04-14",
          "availability": "2021-04-16",
          "voiceActing": []
        },
        {
          "episode": 5,
          "name": "Curse of the White Dwarf",
          "iframe_url": null,
          "iframe_poster": null,
          "release_ru": "2021-04-22",
          "release_world": "2021-04-21",
          "availability": "2021-04-23",
          "voiceActing": []
        },
        {
          "episode": 6,
          "name": "War of the Galaxies",
          "iframe_url": null,
          "iframe_poster": null,
          "release_ru": "2021-04-29",
          "release_world": "2021-04-28",
          "availability": "2021-04-30",
          "voiceActing": []
        },
        {
          "episode": 7,
          "name": "The Next Supernova",
          "iframe_url": null,
          "iframe_poster": null,
          "release_ru": "2021-05-06",
          "release_world": "2021-05-05",
          "availability": "2021-05-07",
          "voiceActing": []
        },
        {
          "episode": 8,
          "name": "Secret Lives of Neutrinos",
          "iframe_url": null,
          "iframe_poster": null,
          "release_ru": "2021-05-13",
          "release_world": "2021-05-12",
          "availability": "2021-05-14",
          "voiceActing": []
        },
        {
          "episode": 9,
          "name": "Birth of the Monster Black Holes",
          "iframe_url": null,
          "iframe_poster": null,
          "release_ru": "2021-05-20",
          "release_world": "2021-05-19",
          "availability": "2021-05-21",
          "voiceActing": []
        },
        {
          "episode": 10,
          "name": "Gravitational Waves Revealed",
          "iframe_url": null,
          "iframe_poster": null,
          "release_ru": "2021-05-27",
          "release_world": "2021-05-26",
          "availability": "2021-05-28",
          "voiceActing": []
        },
        {
          "episode": 11,
          "name": "Mystery Of Alien Worlds",
          "iframe_url": null,
          "iframe_poster": null,
          "release_ru": "2021-06-03",
          "release_world": "2021-06-02",
          "availability": "2021-06-04",
          "voiceActing": []
        }
      ]
    }
  ],
  "voiceActing": [
    "Рус. Одноголосый",
    "Eng.Original",
    "Рус. Дублированный"
  ],
  "subtitle": [],
  "parts": []
}
