{
  "id": 46863,
  "name": "Минимализм. Сейчас — время меньшего",
  "name_eng": "The Minimalists: Less Is Now",
  "year": 2021,
  "slogan": "—",
  "age": null,
  "type": "film",
  "quality": "FHD (1080p)",
  "imdb": "5.9",
  "imdb_id": "13583144",
  "kinopoisk": "6.6",
  "kinopoisk_id": "4293212",
  "world_art": null,
  "world_art_id": null,
  "time": "53 мин.",
  "ads": false,
  "premier": "2021-01-01",
  "premier_rus": "2021-01-02",
  "availability": "2021-01-03",
  "activate_time": "2021-08-08 20:25:00",
  "budget": null,
  "fees_use": null,
  "fees_world": null,
  "fees_rus": null,
  "rate_mpaa": null,
  "description": "Минимализм как философия: давние друзья Джошуа Филдс Милберн и Райан Никодемус рассказывают, как избавиться от лишних вещей, чтобы жить лучше.",
  "iframe_url": "",
  "iframe_poster": null,
  "poster": "https://img.imgilall.me/movies/franchise/4/6/8/6/3/0/0/0/0/0/610x900_46863.jpg",
  "country": {
    "1": "США"
  },
  "collection": [],
  "genre": {
    "54": "Документальный"
  },
  "director": [
    "Мэтт Д’Авелла"
  ],
  "screenwriter": [],
  "producer": [
    "Тим Фрэзиер",
    "Джейкоб Мэттью",
    "Шон Кристофер Хардинг"
  ],
  "operator": [
    "Мэтт Д’Авелла",
    "Конрад Головац",
    "Крис Ньюхард"
  ],
  "composer": [
    "Vve"
  ],
  "design": [
    "Лорен Мейер",
    "Хиллари Мэзени",
    "Хосе Родригес"
  ],
  "editor": [
    "Мэтт Д’Авелла"
  ],
  "actors": [
    "Джошуа Филдс Милберн",
    "Райан Никодемус",
    "Дэйв Рэмси",
    "Денэй Барахона",
    "Т.К. Коулмэн",
    "Энни Леонард",
    "Эрвин Рафаэль МакМанус",
    "Робби Джин Эрботт",
    "Тэмми Бантан",
    "Эшли Боддорф"
  ],
  "actors_dubl": [],
  "trivia": [],
  "trailers": [],
  "seasons": [],
  "voiceActing": [
    "Eng.Original"
  ],
  "subtitle": [],
  "parts": []
}
