{
  "id": 47288,
  "name": "Золото монстра",
  "name_eng": "Monster Gold",
  "year": 2019,
  "slogan": "—",
  "age": null,
  "type": "film",
  "quality": "HD (720p)",
  "imdb": null,
  "imdb_id": "8995178",
  "kinopoisk": null,
  "kinopoisk_id": "1275644",
  "world_art": null,
  "world_art_id": null,
  "time": "—",
  "ads": true,
  "premier": null,
  "premier_rus": null,
  "availability": null,
  "activate_time": "2021-05-22 20:27:00",
  "budget": null,
  "fees_use": null,
  "fees_world": null,
  "fees_rus": null,
  "rate_mpaa": null,
  "description": null,
  "iframe_url": "",
  "iframe_poster": null,
  "poster": "https://img.imgilall.me/movies/franchise/4/7/2/8/8/0/0/0/0/0/610x900_47288.jpg",
  "country": {
    "1": "США"
  },
  "collection": [],
  "genre": {
    "19": "Комедия"
  },
  "director": [
    "Ridge Mallery"
  ],
  "screenwriter": [
    "Ridge Mallery"
  ],
  "producer": [
    "Ridge Mallery"
  ],
  "operator": [
    "Jesse Walburn"
  ],
  "composer": [],
  "design": [],
  "editor": [
    "Ridge Mallery"
  ],
  "actors": [
    "Mighet Matanane",
    "Ridge Mallery",
    "Matt Ragan"
  ],
  "actors_dubl": [],
  "trivia": [],
  "trailers": [],
  "seasons": [],
  "voiceActing": [
    "Синема УС"
  ],
  "subtitle": [],
  "parts": []
}
