{
  "id": 47289,
  "name": "Четыре хороших дня",
  "name_eng": "Four Good Days",
  "year": 2020,
  "slogan": "—",
  "age": null,
  "type": "film",
  "quality": "FHD (1080p)",
  "imdb": "6.6",
  "imdb_id": "10344522",
  "kinopoisk": "6.5",
  "kinopoisk_id": "1265948",
  "world_art": null,
  "world_art_id": null,
  "time": "100 мин. / 01:40",
  "ads": false,
  "premier": "2020-01-25",
  "premier_rus": "2020-01-26",
  "availability": "2020-01-27",
  "activate_time": "2021-05-23 03:35:00",
  "budget": null,
  "fees_use": "$837 849",
  "fees_world": "+ $6 116 = $843 965",
  "fees_rus": null,
  "rate_mpaa": "R",
  "description": "Молли пытается совладать с наркозависимостью при поддержке своей матери Деб. Они долгое время не общались и теперь должны вместе пережить все травмы, которые нанесли друг другу.",
  "iframe_url": "",
  "iframe_poster": null,
  "poster": "https://img.imgilall.me/movies/franchise/4/7/2/8/9/0/0/0/0/0/610x900_47289.jpg",
  "country": {
    "1": "США"
  },
  "collection": [],
  "genre": {
    "7": "Драма"
  },
  "director": [
    "Родриго Гарсия"
  ],
  "screenwriter": [
    "Eli Saslow",
    "Родриго Гарсия",
    "Amanda Wendler"
  ],
  "producer": [
    "Джон Эвнет",
    "Родриго Гарсия",
    "Марина Грасик"
  ],
  "operator": [
    "Игорь Жадю-Лилло"
  ],
  "composer": [
    "Эд Ширмёр"
  ],
  "design": [
    "Брэндон Мендес",
    "Мишель Мичел",
    "Кристиан Корио"
  ],
  "editor": [
    "Лорен Коннелли"
  ],
  "actors": [
    "Гленн Клоуз",
    "Мила Кунис",
    "Стивен Рут",
    "Джошуа Леонард",
    "Сэм Хеннингс",
    "Майкл Хайатт",
    "Карла Галло",
    "Николас Отери",
    "Audrey Lynn",
    "Карлос Лакамара"
  ],
  "actors_dubl": [],
  "trivia": [],
  "trailers": [],
  "seasons": [],
  "voiceActing": [
    "Рус. Люб. многоголосый",
    "Eng.Original"
  ],
  "subtitle": [
    "Eng. full"
  ],
  "parts": []
}
