{
  "id": 4752,
  "name": "В розыске",
  "name_eng": "A.P.B.",
  "year": 2017,
  "slogan": null,
  "age": "16+",
  "type": "series",
  "quality": "HD (720p)",
  "imdb": "6.9",
  "imdb_id": "5542294",
  "kinopoisk": "6.4",
  "kinopoisk_id": "971423",
  "world_art": null,
  "world_art_id": null,
  "time": "43 мин.",
  "ads": true,
  "premier": "2017-02-06",
  "premier_rus": "2017-05-26",
  "availability": "2017-05-27",
  "serial_status": "offline",
  "activate_time": "2018-12-18 16:22:50",
  "budget": null,
  "fees_use": null,
  "fees_world": null,
  "fees_rus": null,
  "rate_mpaa": null,
  "description": "Миллиардер покупает проблемный полицейский участок в связи с убийством любимого человека. Может ли современный подход этого загадочного и эксцентричного человека наладить работу ветеранов полиции?",
  "iframe_url": "",
  "poster": "https://img.imgilall.me/movies/franchise/4/7/5/2/0/0/0/0/0/0/610x900_4752.jpg",
  "country": {
    "1": "США"
  },
  "collection": [],
  "genre": {
    "25": "Криминал",
    "10": "Зарубежный",
    "7": "Драма"
  },
  "director": [
    "Дуан Кларк",
    "Гай Норман Би",
    "Мэтт Эрл Бисли"
  ],
  "screenwriter": [
    "Дэвид Эмсден",
    "Мэтт Никс",
    "Дэвид Слэк"
  ],
  "producer": [
    "Трей Колэуэй",
    "Тодд Хоффман",
    "Дуан Кларк"
  ],
  "operator": [
    "Барт Тау",
    "Глен Кинэн"
  ],
  "composer": [
    "Джейсон Дерлатка",
    "Джон Эрлих"
  ],
  "design": [
    "Пол Питерс",
    "Кен Уоткинс",
    "Андреа Федерман"
  ],
  "editor": [
    "Пьетро Чеккини",
    "Джимми Хилл",
    "Брэндон Лотт"
  ],
  "actors": [
    "Джастин Кирк",
    "Натали Мартинес",
    "Тейлор Хэндли",
    "Кэйтлин Стэйси",
    "Тамберла Перри",
    "Эрни Хадсон",
    "Уильям Смайли",
    "Абрахам Бенруби",
    "Брайант Ромо",
    "Нестор Серрано"
  ],
  "actors_dubl": [],
  "trivia": [
    "Аббревиатура \"APB\" означает \"All-Points Bulletin\", что переводится как \"ориентировка\", т.е. информация по радио всем полицейским с описанием разыскиваемого или его средства передвижения.",
    "Сериал основан на реальных событиях в Новом Орлеане, где Сидни Торрес организовал и финансировал группу противодействия преступности, охватившей город после удара урагана \"Катрина\" в 2005 году."
  ],
  "trailers": [],
  "seasons": [
    {
      "poster": "https://img.imgilall.me/movies/season/2/7/0/9/0/0/0/0/0/0/610x900_2709.jpg",
      "release_ru": "2017-02-07",
      "release_world": "2017-02-06",
      "availability": "2017-02-08",
      "iframe_url": "",
      "season": 1,
      "episodes": [
        {
          "episode": 1,
          "name": "Hard Reset",
          "iframe_url": "",
          "iframe_poster": "https://img.imgilall.me/movies/video/4/6/7/1/4/0/0/0/0/0/800x450_46714.jpeg",
          "release_ru": "2017-02-07",
          "release_world": "2017-02-06",
          "availability": "2017-02-08",
          "voiceActing": [
            "JASKIER",
            "Eng.Original"
          ],
          "ads": true,
          "subtitle": []
        },
        {
          "episode": 2,
          "name": "Personal Matters",
          "iframe_url": "",
          "iframe_poster": "https://img.imgilall.me/movies/video/4/6/7/1/5/0/0/0/0/0/800x450_46715.jpeg",
          "release_ru": "2017-02-14",
          "release_world": "2017-02-13",
          "availability": "2017-02-15",
          "voiceActing": [
            "JASKIER",
            "Eng.Original"
          ],
          "ads": true,
          "subtitle": []
        },
        {
          "episode": 3,
          "name": "Hate of Comrades",
          "iframe_url": "",
          "iframe_poster": "https://img.imgilall.me/movies/video/4/6/7/1/6/0/0/0/0/0/800x450_46716.jpeg",
          "release_ru": "2017-02-21",
          "release_world": "2017-02-20",
          "availability": "2017-02-22",
          "voiceActing": [
            "JASKIER",
            "Eng.Original"
          ],
          "ads": true,
          "subtitle": []
        },
        {
          "episode": 4,
          "name": "Signal Loss",
          "iframe_url": "",
          "iframe_poster": "https://img.imgilall.me/movies/video/4/6/7/1/7/0/0/0/0/0/800x450_46717.jpeg",
          "release_ru": "2017-02-28",
          "release_world": "2017-02-27",
          "availability": "2017-03-01",
          "voiceActing": [
            "JASKIER",
            "Eng.Original"
          ],
          "ads": true,
          "subtitle": []
        },
        {
          "episode": 5,
          "name": "Above and Beyond",
          "iframe_url": "",
          "iframe_poster": "https://img.imgilall.me/movies/video/4/6/7/1/8/0/0/0/0/0/800x450_46718.jpeg",
          "release_ru": "2017-03-07",
          "release_world": "2017-03-06",
          "availability": "2017-03-08",
          "voiceActing": [
            "JASKIER",
            "Eng.Original"
          ],
          "ads": true,
          "subtitle": []
        },
        {
          "episode": 6,
          "name": "Daddy's Home",
          "iframe_url": "",
          "iframe_poster": "https://img.imgilall.me/movies/video/4/6/7/1/9/0/0/0/0/0/800x450_46719.jpeg",
          "release_ru": "2017-03-14",
          "release_world": "2017-03-13",
          "availability": "2017-03-15",
          "voiceActing": [
            "JASKIER",
            "Eng.Original"
          ],
          "ads": true,
          "subtitle": []
        },
        {
          "episode": 7,
          "name": "Risky Business",
          "iframe_url": "",
          "iframe_poster": "https://img.imgilall.me/movies/video/4/6/7/2/0/0/0/0/0/0/800x450_46720.jpeg",
          "release_ru": "2017-03-21",
          "release_world": "2017-03-20",
          "availability": "2017-03-22",
          "voiceActing": [
            "JASKIER",
            "Eng.Original"
          ],
          "ads": true,
          "subtitle": []
        },
        {
          "episode": 8,
          "name": "Fueling Fires",
          "iframe_url": "",
          "iframe_poster": "https://img.imgilall.me/movies/video/4/6/7/2/1/0/0/0/0/0/800x450_46721.jpeg",
          "release_ru": "2017-03-28",
          "release_world": "2017-03-27",
          "availability": "2017-03-29",
          "voiceActing": [
            "JASKIER",
            "Eng.Original"
          ],
          "ads": true,
          "subtitle": []
        },
        {
          "episode": 9,
          "name": "Last Train to Europa",
          "iframe_url": "",
          "iframe_poster": "https://img.imgilall.me/movies/video/4/6/7/2/2/0/0/0/0/0/800x450_46722.jpeg",
          "release_ru": "2017-04-04",
          "release_world": "2017-04-03",
          "availability": "2017-04-05",
          "voiceActing": [
            "JASKIER",
            "Eng.Original"
          ],
          "ads": true,
          "subtitle": []
        },
        {
          "episode": 10,
          "name": "Strange Bedfellows",
          "iframe_url": "",
          "iframe_poster": "https://img.imgilall.me/movies/video/4/6/7/2/3/0/0/0/0/0/800x450_46723.jpeg",
          "release_ru": "2017-04-11",
          "release_world": "2017-04-10",
          "availability": "2017-04-12",
          "voiceActing": [
            "JASKIER",
            "Eng.Original"
          ],
          "ads": true,
          "subtitle": []
        },
        {
          "episode": 11,
          "name": "Pandora's Box",
          "iframe_url": "",
          "iframe_poster": "https://img.imgilall.me/movies/video/4/6/7/2/4/0/0/0/0/0/800x450_46724.jpeg",
          "release_ru": "2017-04-18",
          "release_world": "2017-04-17",
          "availability": "2017-04-19",
          "voiceActing": [
            "JASKIER",
            "Eng.Original"
          ],
          "ads": true,
          "subtitle": []
        },
        {
          "episode": 12,
          "name": "Ricochet",
          "iframe_url": "",
          "iframe_poster": "https://img.imgilall.me/movies/video/4/6/7/2/5/0/0/0/0/0/800x450_46725.jpeg",
          "release_ru": "2017-04-25",
          "release_world": "2017-04-24",
          "availability": "2017-04-26",
          "voiceActing": [
            "JASKIER",
            "Eng.Original"
          ],
          "ads": true,
          "subtitle": []
        }
      ]
    }
  ],
  "voiceActing": [
    "JASKIER",
    "Eng.Original"
  ],
  "subtitle": [],
  "parts": []
}
