{
  "id": 47530,
  "name": "Иная",
  "name_eng": "Anaza",
  "year": 2012,
  "slogan": "«Plunge into the heart of terror...»",
  "age": null,
  "type": "anime-series",
  "quality": "HD (720p)",
  "imdb": "7.6",
  "imdb_id": "2176165",
  "kinopoisk": "7.6",
  "kinopoisk_id": "660959",
  "world_art": "8.3",
  "world_art_id": "127",
  "time": "25 мин. серия (300 мин. всего)",
  "ads": false,
  "premier": "2012-01-10",
  "premier_rus": "2012-01-11",
  "availability": "2012-01-12",
  "serial_status": "offline",
  "activate_time": "2021-06-02 11:47:00",
  "budget": null,
  "fees_use": null,
  "fees_world": null,
  "fees_rus": null,
  "rate_mpaa": null,
  "description": "26 лет назад в третьем классе средней школы училась отличница и спортсменка Мисаки, в которой все окружающие просто души не чаяли. Поэтому, когда девушка внезапно скончалась, одноклассники договорились делать вид, что она всё ещё с ними, так и доучились до самого выпуска. Весной 1998 года в тот самый класс попадает новенький – Коити Сакакибара. Вскоре он начинает замечать атмосферу страха, царящую в классной комнате. В частности, нагнетанию её способствует тихая красавица Мэи Мисаки, которая ходит с повязкой на глазу, вечно тихонько сидит в углу и что-то рисует.",
  "iframe_url": "",
  "poster": "https://img.imgilall.me/movies/franchise/4/7/5/3/0/0/0/0/0/0/610x900_47530.jpg",
  "country": {
    "18": "Япония"
  },
  "collection": [],
  "genre": {
    "26": "Ужасы",
    "24": "Детектив",
    "7": "Драма"
  },
  "director": [
    "Цутому Мидзусима",
    "Хироюки Хата",
    "Юкина Хииро"
  ],
  "screenwriter": [
    "Юкито Аяцудзи",
    "Рё Хигаки"
  ],
  "producer": [
    "Эрико Аоки",
    "Хироясу Асами",
    "Синъитиро Иноуэ"
  ],
  "operator": [
    "Сатоси Намики"
  ],
  "composer": [
    "Ко Отани"
  ],
  "design": [
    "Сатору Хираянаги"
  ],
  "editor": [
    "Аюму Такахаси"
  ],
  "actors": [
    "Ацуси Абэ",
    "Нацуми Такамори",
    "Томоаки Маэно",
    "Мадока Ёнэдзава",
    "Наоко Сакакибара",
    "Кадзутоми Ямамото",
    "Хироаки Хирата",
    "Мицухиро Итики",
    "Кодзо Мито",
    "Сэико Ёсида"
  ],
  "actors_dubl": [],
  "trivia": [],
  "trailers": [],
  "seasons": [
    {
      "poster": null,
      "release_ru": null,
      "release_world": null,
      "availability": null,
      "iframe_url": "",
      "season": 1,
      "episodes": [
        {
          "episode": 0,
          "name": null,
          "iframe_url": "",
          "iframe_poster": null,
          "release_ru": null,
          "release_world": null,
          "availability": null,
          "voiceActing": [
            "Рус. Люб. двухголосый"
          ],
          "ads": false,
          "subtitle": []
        },
        {
          "episode": 1,
          "name": null,
          "iframe_url": "",
          "iframe_poster": null,
          "release_ru": null,
          "release_world": null,
          "availability": null,
          "voiceActing": [
            "Рус. Люб. двухголосый"
          ],
          "ads": false,
          "subtitle": []
        },
        {
          "episode": 2,
          "name": null,
          "iframe_url": "",
          "iframe_poster": null,
          "release_ru": null,
          "release_world": null,
          "availability": null,
          "voiceActing": [
            "Рус. Люб. двухголосый"
          ],
          "ads": false,
          "subtitle": []
        },
        {
          "episode": 3,
          "name": null,
          "iframe_url": "",
          "iframe_poster": null,
          "release_ru": null,
          "release_world": null,
          "availability": null,
          "voiceActing": [
            "Рус. Люб. двухголосый"
          ],
          "ads": false,
          "subtitle": []
        },
        {
          "episode": 4,
          "name": null,
          "iframe_url": "",
          "iframe_poster": null,
          "release_ru": null,
          "release_world": null,
          "availability": null,
          "voiceActing": [
            "Рус. Люб. двухголосый"
          ],
          "ads": false,
          "subtitle": []
        },
        {
          "episode": 5,
          "name": null,
          "iframe_url": "",
          "iframe_poster": null,
          "release_ru": null,
          "release_world": null,
          "availability": null,
          "voiceActing": [
            "Рус. Люб. двухголосый"
          ],
          "ads": false,
          "subtitle": []
        },
        {
          "episode": 6,
          "name": null,
          "iframe_url": "",
          "iframe_poster": null,
          "release_ru": null,
          "release_world": null,
          "availability": null,
          "voiceActing": [
            "Рус. Люб. двухголосый"
          ],
          "ads": false,
          "subtitle": []
        },
        {
          "episode": 7,
          "name": null,
          "iframe_url": "",
          "iframe_poster": null,
          "release_ru": null,
          "release_world": null,
          "availability": null,
          "voiceActing": [
            "Рус. Люб. двухголосый"
          ],
          "ads": false,
          "subtitle": []
        },
        {
          "episode": 8,
          "name": null,
          "iframe_url": "",
          "iframe_poster": null,
          "release_ru": null,
          "release_world": null,
          "availability": null,
          "voiceActing": [
            "Рус. Люб. двухголосый"
          ],
          "ads": false,
          "subtitle": []
        },
        {
          "episode": 9,
          "name": null,
          "iframe_url": "",
          "iframe_poster": null,
          "release_ru": null,
          "release_world": null,
          "availability": null,
          "voiceActing": [
            "Рус. Люб. двухголосый"
          ],
          "ads": false,
          "subtitle": []
        },
        {
          "episode": 10,
          "name": null,
          "iframe_url": "",
          "iframe_poster": null,
          "release_ru": null,
          "release_world": null,
          "availability": null,
          "voiceActing": [
            "Рус. Люб. двухголосый"
          ],
          "ads": false,
          "subtitle": []
        },
        {
          "episode": 11,
          "name": null,
          "iframe_url": "",
          "iframe_poster": null,
          "release_ru": null,
          "release_world": null,
          "availability": null,
          "voiceActing": [
            "Рус. Люб. двухголосый"
          ],
          "ads": false,
          "subtitle": []
        },
        {
          "episode": 12,
          "name": null,
          "iframe_url": "",
          "iframe_poster": null,
          "release_ru": null,
          "release_world": null,
          "availability": null,
          "voiceActing": [
            "Рус. Люб. двухголосый"
          ],
          "ads": false,
          "subtitle": []
        }
      ]
    }
  ],
  "voiceActing": [
    "Рус. Люб. двухголосый"
  ],
  "subtitle": [],
  "parts": []
}
