{
  "id": 47727,
  "name": "Ночь живых мертвецов: Перерождение",
  "name_eng": "Rebirth",
  "year": 2020,
  "slogan": "—",
  "age": null,
  "type": "film",
  "quality": "HD (720p)",
  "imdb": "2.3",
  "imdb_id": "3976044",
  "kinopoisk": null,
  "kinopoisk_id": "875759",
  "world_art": null,
  "world_art_id": null,
  "time": "99 мин. / 01:39",
  "ads": true,
  "premier": "2020-10-25",
  "premier_rus": "2020-10-26",
  "availability": "2020-10-27",
  "activate_time": "2021-06-07 00:56:00",
  "budget": "$12 000",
  "fees_use": null,
  "fees_world": null,
  "fees_rus": null,
  "rate_mpaa": null,
  "description": null,
  "iframe_url": "",
  "iframe_poster": null,
  "poster": "https://img.imgilall.me/movies/franchise/4/7/7/2/7/0/0/0/0/0/610x900_47727.jpg",
  "country": {
    "1": "США"
  },
  "collection": [],
  "genre": {
    "26": "Ужасы"
  },
  "director": [
    "Роджер Коннерс"
  ],
  "screenwriter": [
    "Роджер Коннерс"
  ],
  "producer": [
    "Роджер Коннерс",
    "Асван Харрис"
  ],
  "operator": [
    "Ноэль Бай"
  ],
  "composer": [
    "Brett Montez",
    "Malachi Pulte"
  ],
  "design": [
    "Роджер Коннерс"
  ],
  "editor": [
    "Brandon Jester",
    "Mick Kunz"
  ],
  "actors": [
    "Асван Харрис",
    "Роджер Коннерс",
    "Элвин Хадсон",
    "Рэйчел Андерсон",
    "Брэд Арнер",
    "Тейлор Нелмс",
    "Jim Strang",
    "Hailey Moltz",
    "John Chiara",
    "RJ Messenger"
  ],
  "actors_dubl": [],
  "trivia": [],
  "trailers": [],
  "seasons": [],
  "voiceActing": [
    "Синема УС"
  ],
  "subtitle": [],
  "parts": []
}
