{
  "id": 47939,
  "name": "Жизнь и смерть за 96 часов",
  "name_eng": "Life and Death in 96 Hours",
  "year": 2016,
  "slogan": null,
  "age": null,
  "type": "film",
  "quality": "HD (720p)",
  "imdb": null,
  "imdb_id": "6447704",
  "kinopoisk": null,
  "kinopoisk_id": null,
  "world_art": null,
  "world_art_id": null,
  "time": null,
  "ads": true,
  "premier": null,
  "premier_rus": null,
  "availability": null,
  "activate_time": "2021-06-13 04:04:00",
  "budget": null,
  "fees_use": null,
  "fees_world": null,
  "fees_rus": null,
  "rate_mpaa": null,
  "description": null,
  "iframe_url": "",
  "iframe_poster": null,
  "poster": "https://img.imgilall.me/movies/franchise/4/7/9/3/9/0/0/0/0/0/610x900_47939.jpg",
  "country": {
    "19": "Китай"
  },
  "collection": [],
  "genre": {
    "32": "Военный",
    "7": "Драма"
  },
  "director": [],
  "screenwriter": [],
  "producer": [],
  "operator": [],
  "composer": [],
  "design": [],
  "editor": [],
  "actors": [],
  "actors_dubl": [],
  "trivia": [],
  "trailers": [],
  "seasons": [],
  "voiceActing": [
    "Колобок"
  ],
  "subtitle": [],
  "parts": []
}
