{
  "id": 47952,
  "name": "Ещё немного плоти",
  "name_eng": "A Little More Flesh",
  "year": 2020,
  "slogan": "—",
  "age": null,
  "type": "film",
  "quality": "HD (720p)",
  "imdb": "5.1",
  "imdb_id": "11710248",
  "kinopoisk": null,
  "kinopoisk_id": "1350436",
  "world_art": null,
  "world_art_id": null,
  "time": "75 мин. / 01:15",
  "ads": true,
  "premier": "2020-03-14",
  "premier_rus": "2020-03-15",
  "availability": "2020-03-16",
  "activate_time": "2021-06-13 04:03:00",
  "budget": null,
  "fees_use": null,
  "fees_world": null,
  "fees_rus": null,
  "rate_mpaa": null,
  "description": null,
  "iframe_url": "",
  "iframe_poster": null,
  "poster": "https://img.imgilall.me/movies/franchise/4/7/9/5/2/0/0/0/0/0/610x900_47952.jpg",
  "country": {
    "2": "Великобритания"
  },
  "collection": [],
  "genre": {
    "26": "Ужасы"
  },
  "director": [
    "Sam Ashurst"
  ],
  "screenwriter": [
    "Sam Ashurst"
  ],
  "producer": [
    "Sam Ashurst",
    "Elf Lyons"
  ],
  "operator": [
    "Sam Ashurst"
  ],
  "composer": [],
  "design": [],
  "editor": [
    "Sam Ashurst"
  ],
  "actors": [
    "Дэйн Баптисте",
    "Rob Kemp",
    "Elf Lyons",
    "Джеймс Суонтон",
    "Гэбриел Томсон",
    "Hazel Townsend"
  ],
  "actors_dubl": [],
  "trivia": [],
  "trailers": [],
  "seasons": [],
  "voiceActing": [
    "Синема УС"
  ],
  "subtitle": [],
  "parts": []
}
