{
  "id": 47974,
  "name": "Две Ирены",
  "name_eng": "As Duas Irenes",
  "year": 2017,
  "slogan": "«One name. One secret»",
  "age": null,
  "type": "film",
  "quality": "HD (720p)",
  "imdb": "7.1",
  "imdb_id": "6289724",
  "kinopoisk": null,
  "kinopoisk_id": "1019948",
  "world_art": null,
  "world_art_id": null,
  "time": "89 мин. / 01:29",
  "ads": true,
  "premier": "2017-02-12",
  "premier_rus": "2017-02-13",
  "availability": "2017-02-14",
  "activate_time": "2021-06-14 12:25:00",
  "budget": null,
  "fees_use": null,
  "fees_world": null,
  "fees_rus": null,
  "rate_mpaa": null,
  "description": "Тринадцатилетняя Ирена узнаёт тайну своего отца: у него есть другая семья и ещё одна дочь с таким же именем, как у неё.",
  "iframe_url": "",
  "iframe_poster": null,
  "poster": "https://img.imgilall.me/movies/franchise/4/7/9/7/4/0/0/0/0/0/610x900_47974.jpg",
  "country": {
    "30": "Бразилия"
  },
  "collection": [],
  "genre": {
    "7": "Драма"
  },
  "director": [
    "Фабио Мейра"
  ],
  "screenwriter": [
    "Фабио Мейра"
  ],
  "producer": [
    "Диана Альмейда",
    "Фабио Мейра",
    "Флавио Ботело"
  ],
  "operator": [
    "Даниэла Кахиас"
  ],
  "composer": [
    "Edson Secco"
  ],
  "design": [
    "Фернанда Карлуччи",
    "Марио Суркан"
  ],
  "editor": [
    "Вирджиния Флорес"
  ],
  "actors": [
    "Priscila Bittencourt",
    "Isabela Torres",
    "Марку Рикка",
    "Сюзана Рибейро",
    "Иниш Пейшоту",
    "Теуда Бара",
    "Марсела Мора",
    "Ana Reston",
    "Мажу Соуза"
  ],
  "actors_dubl": [],
  "trivia": [],
  "trailers": [],
  "seasons": [],
  "voiceActing": [
    "Синема УС"
  ],
  "subtitle": [],
  "parts": []
}
