{
  "id": 4797,
  "name": "Бойлерная",
  "name_eng": "Boiler Room",
  "year": 2000,
  "slogan": "«Если ты такой умный, где же твои деньги?»",
  "age": "16+",
  "type": "film",
  "quality": "HD (720p)",
  "imdb": "7.0",
  "imdb_id": "0181984",
  "kinopoisk": "7.1",
  "kinopoisk_id": "617",
  "world_art": null,
  "world_art_id": null,
  "time": "120 мин. / 02:00",
  "ads": false,
  "premier": "2000-01-30",
  "premier_rus": "2000-11-02",
  "availability": null,
  "activate_time": "2018-12-19 11:33:43",
  "budget": "$26 000 000",
  "fees_use": "$16 970 581",
  "fees_world": "$28 780 255",
  "fees_rus": null,
  "rate_mpaa": "R",
  "description": "Устав от несправедливой жизни, молодой шулер Сет Девис открывает в своей квартире подпольное казино. Однажды один из клиентов предлагает парню работу на брокерской фирме, где месячная зарплата превышает годовой доход от казино. Мечта Сета о крупном заработке сбывается, но вскоре парень начинает понимать, что за всё в жизни нужно платить.",
  "iframe_url": "",
  "iframe_poster": "https://img.imgilall.me/movies/video/4/7/5/8/4/0/0/0/0/0/800x450_47584.jpeg",
  "poster": "https://img.imgilall.me/movies/franchise/4/7/9/7/0/0/0/0/0/0/610x900_4797.jpg",
  "country": {
    "1": "США"
  },
  "collection": [],
  "genre": {
    "25": "Криминал",
    "13": "Триллер",
    "10": "Зарубежный",
    "7": "Драма"
  },
  "director": [
    "Бен Янгер"
  ],
  "screenwriter": [
    "Бен Янгер"
  ],
  "producer": [
    "Дженнифер Тодд",
    "Сюзанн Тодд",
    "Ричард Бренер"
  ],
  "operator": [
    "Энрике Чедьяк"
  ],
  "composer": [
    "Энджел"
  ],
  "design": [
    "Энн Штулер",
    "Росвэлл Хэмрик",
    "Марк Уайт"
  ],
  "editor": [
    "Крис Пеппе"
  ],
  "actors": [
    "Джованни Рибизи",
    "Вин Дизель",
    "Ниа Лонг",
    "Бен Аффлек",
    "Никки Кэтт",
    "Скотт Каан",
    "Том Эверетт Скотт",
    "Рон Рифкин",
    "Джейми Кеннеди",
    "Тейлор Николс"
  ],
  "actors_dubl": [],
  "trivia": [
    "В процессе обучения Сета навыкам работы продажника упоминается фраза «Всегда заключайте контракты!» из художественного фильма «Гленгарри Глен Росс (Американцы)» (1992)."
  ],
  "trailers": [],
  "seasons": [],
  "voiceActing": [
    "Рус. Проф. многоголосый",
    "Д. Есарев",
    "Eng.Original"
  ],
  "subtitle": [],
  "parts": []
}
