{
  "id": 48041,
  "name": "Смелого пуля боится, или Мишка принимает бой",
  "name_eng": "",
  "year": 1970,
  "slogan": "—",
  "age": "0+",
  "type": "film",
  "quality": "HD (720p)",
  "imdb": "6.6",
  "imdb_id": null,
  "kinopoisk": "6.9",
  "kinopoisk_id": "43872",
  "world_art": null,
  "world_art_id": null,
  "time": "83 мин. / 01:23",
  "ads": false,
  "premier": "1971-08-23",
  "premier_rus": "1971-08-24",
  "availability": "1971-08-25",
  "activate_time": "2021-06-15 15:16:00",
  "budget": null,
  "fees_use": null,
  "fees_world": null,
  "fees_rus": null,
  "rate_mpaa": null,
  "description": "22 июня 1941 года. Обычное утро в обычном пионерском лагере у самой границы. Дети плещутся на речке, и спускающийся с неба десант воспринимают с восторгом, полагая, что идут учения. Но это немцы. Они сгоняют детей в лагерь, обносят его колючей проволокой и объявляют, что скоро всех отправят в Германию.Находящийся неподалеку батальон советских танков, попытался прорваться к детям на выручку, но был разбит. Уцелел только один танк и танкист дядя Вася. На него-то случайно и натыкается Мишка Скворцов, которому немцы поручили сжечь пионерские галстуки, а он их обманул и из лагеря сбежал. Обрадованный такой встрече, Мишка просит дядю Васю помочь выручить ребят из немецкого плена.Танкист соглашается. На единственном танке с одним маленьким помощником начинается операция по спасению юных пионеров.",
  "iframe_url": "",
  "iframe_poster": null,
  "poster": "https://img.imgilall.me/movies/franchise/4/8/0/4/1/0/0/0/0/0/610x900_48041.jpg",
  "country": {
    "24": "СССР"
  },
  "collection": {
    "46": "Советские"
  },
  "genre": {
    "7": "Драма"
  },
  "director": [
    "Олег Николаевский"
  ],
  "screenwriter": [
    "Иосиф Дик"
  ],
  "producer": [],
  "operator": [
    "Игорь Лукшин"
  ],
  "composer": [
    "Евгений Стихин"
  ],
  "design": [
    "Юрий Истратов"
  ],
  "editor": [],
  "actors": [
    "Юра Шергин",
    "Саша Довгуль",
    "Ира Родионова",
    "Михаил Чигарёв",
    "Николай Пишванов",
    "Серафим Зайцев",
    "Юрий Мельницкий",
    "Виталий Беляков",
    "Адольф Ильин",
    "Даниил Нетребин"
  ],
  "actors_dubl": [],
  "trivia": [],
  "trailers": [],
  "seasons": [],
  "voiceActing": [
    "Рус. Оригинальный"
  ],
  "subtitle": [],
  "parts": []
}
