{
  "id": 48063,
  "name": "Песни для ленивца",
  "name_eng": "Songs for a Sloth",
  "year": 2021,
  "slogan": "—",
  "age": null,
  "type": "film",
  "quality": "FHD (1080p)",
  "imdb": "5.7",
  "imdb_id": "10728214",
  "kinopoisk": null,
  "kinopoisk_id": "1293494",
  "world_art": null,
  "world_art_id": null,
  "time": "85 мин. / 01:25",
  "ads": true,
  "premier": "2021-06-15",
  "premier_rus": "2021-06-16",
  "availability": "2021-06-17",
  "activate_time": "2021-06-16 11:38:00",
  "budget": null,
  "fees_use": null,
  "fees_world": null,
  "fees_rus": null,
  "rate_mpaa": null,
  "description": null,
  "iframe_url": "",
  "iframe_poster": null,
  "poster": "https://img.imgilall.me/movies/franchise/4/8/0/6/3/0/0/0/0/0/610x900_48063.jpg",
  "country": {
    "1": "США"
  },
  "collection": [],
  "genre": {
    "19": "Комедия",
    "7": "Драма"
  },
  "director": [
    "Брэд Хассе"
  ],
  "screenwriter": [
    "Брэд Хассе",
    "Ричард Холлман"
  ],
  "producer": [
    "Tyler Bloom",
    "Eve Dorsey",
    "Ава Айзенсон"
  ],
  "operator": [
    "Andy Whitlatch"
  ],
  "composer": [],
  "design": [],
  "editor": [
    "Брэд Хассе"
  ],
  "actors": [
    "Ричард Холлман",
    "Брайан МакКарти",
    "Ава Айзенсон",
    "Шелли Литтл",
    "Джек Макбрайер",
    "Ариан Моайед"
  ],
  "actors_dubl": [],
  "trivia": [],
  "trailers": [],
  "seasons": [],
  "voiceActing": [
    "Синема УС"
  ],
  "subtitle": [],
  "parts": []
}
