{
  "id": 48149,
  "name": "Любовь вокруг",
  "name_eng": "Love Spreads",
  "year": 2020,
  "slogan": "—",
  "age": null,
  "type": "film",
  "quality": "FHD (1080p)",
  "imdb": "4.6",
  "imdb_id": "11777510",
  "kinopoisk": null,
  "kinopoisk_id": "1354283",
  "world_art": null,
  "world_art_id": null,
  "time": "93 мин. / 01:33",
  "ads": true,
  "premier": "2020-10-12",
  "premier_rus": "2020-10-13",
  "availability": "2020-10-14",
  "activate_time": "2021-06-20 13:17:00",
  "budget": null,
  "fees_use": null,
  "fees_world": null,
  "fees_rus": null,
  "rate_mpaa": null,
  "description": null,
  "iframe_url": "",
  "iframe_poster": null,
  "poster": "https://img.imgilall.me/movies/franchise/4/8/1/4/9/0/0/0/0/0/610x900_48149.jpg",
  "country": [],
  "collection": [],
  "genre": {
    "19": "Комедия"
  },
  "director": [
    "Джэми Адамс"
  ],
  "screenwriter": [
    "Джэми Адамс"
  ],
  "producer": [
    "Джэми Адамс",
    "Мэгги Монтейт",
    "Боб Порталь"
  ],
  "operator": [
    "Райан Оуэн"
  ],
  "composer": [],
  "design": [
    "Райан Томас",
    "Anousha Payne"
  ],
  "editor": [
    "Майк Хопкинс"
  ],
  "actors": [
    "Алиа Шокат",
    "Эйса Гонсалес",
    "Шанель Крессвелл",
    "Ник Хельм",
    "Тара Ли",
    "Долли Уэллс",
    "Шарлотта Хэнбёри",
    "Ruth Ollman",
    "Джулиан Льюис Джонс"
  ],
  "actors_dubl": [],
  "trivia": [],
  "trailers": [],
  "seasons": [],
  "voiceActing": [
    "Рус. Люб. многоголосый"
  ],
  "subtitle": [],
  "parts": []
}
