{
  "id": 48169,
  "name": "Призрак",
  "name_eng": "",
  "year": 2019,
  "slogan": "—",
  "age": null,
  "type": "series",
  "quality": "FHD (1080p)",
  "imdb": null,
  "imdb_id": null,
  "kinopoisk": "7.2",
  "kinopoisk_id": "1224113",
  "world_art": null,
  "world_art_id": null,
  "time": "50 мин",
  "ads": false,
  "premier": null,
  "premier_rus": "2021-06-23",
  "availability": "2021-06-24",
  "serial_status": "online",
  "activate_time": "2021-06-21 16:30:00",
  "budget": null,
  "fees_use": null,
  "fees_world": null,
  "fees_rus": null,
  "rate_mpaa": null,
  "description": "Его зовут Призрак. Он не помнит кто он и откуда. Он не помнит своего настоящего имени и прошлого. Все, что сохранила его память — лицо напуганной женщины. Единственная зацепка — татуировка с координатами схрона, в котором его ждет оружие, деньги и поддельные паспорта. Призрак узнает свой адрес в Москве и уговаривает случайно встреченную девушку Алену отвезти его туда на машине. А в это время по их следам уже идут хозяева Призрака, которые стремятся любой ценой вернуть себе свою смертельно опасную куклу, которая так внезапно вышла из-под их контроля.",
  "iframe_url": "",
  "poster": "https://img.imgilall.me/movies/franchise/4/8/1/6/9/0/0/0/0/0/610x900_48169.jpg",
  "country": {
    "5": "Россия"
  },
  "collection": [],
  "genre": {
    "9": "Приключения",
    "17": "Боевик",
    "13": "Триллер"
  },
  "director": [
    "Анарио Мамедов"
  ],
  "screenwriter": [
    "Алексей Безенков",
    "Елена Вахрушева"
  ],
  "producer": [
    "Алексей Моисеев",
    "Наталия Мокеева",
    "Мария Михайлова"
  ],
  "operator": [
    "Кирилл Зоткин"
  ],
  "composer": [
    "Райан Оттер"
  ],
  "design": [
    "Герман Белан",
    "Ирина Крылова"
  ],
  "editor": [
    "Константин Мазур"
  ],
  "actors": [
    "Павел Прилучный",
    "Лукерья Ильяшенко",
    "Северия Янушаускайте",
    "Владимир Зайцев",
    "Кирилл Рубцов",
    "Вячеслав Чепурченко",
    "Елена Полякова",
    "Николай Козак",
    "Пьер Бурель",
    "Аполлинария Муравьёва"
  ],
  "actors_dubl": [],
  "trivia": [],
  "trailers": [],
  "seasons": [
    {
      "poster": null,
      "release_ru": null,
      "release_world": null,
      "availability": null,
      "iframe_url": "",
      "season": 1,
      "episodes": [
        {
          "episode": 1,
          "name": null,
          "iframe_url": "",
          "iframe_poster": null,
          "release_ru": null,
          "release_world": null,
          "availability": null,
          "voiceActing": [
            "Рус. Оригинальный",
            "Рус. Ориг. (без цензуры)"
          ],
          "ads": false,
          "subtitle": []
        },
        {
          "episode": 2,
          "name": null,
          "iframe_url": "",
          "iframe_poster": null,
          "release_ru": null,
          "release_world": null,
          "availability": null,
          "voiceActing": [
            "Рус. Оригинальный"
          ],
          "ads": false,
          "subtitle": []
        },
        {
          "episode": 3,
          "name": null,
          "iframe_url": "",
          "iframe_poster": null,
          "release_ru": null,
          "release_world": null,
          "availability": null,
          "voiceActing": [
            "Рус. Оригинальный"
          ],
          "ads": false,
          "subtitle": []
        },
        {
          "episode": 4,
          "name": null,
          "iframe_url": "",
          "iframe_poster": null,
          "release_ru": null,
          "release_world": null,
          "availability": null,
          "voiceActing": [
            "Рус. Оригинальный"
          ],
          "ads": false,
          "subtitle": []
        }
      ]
    }
  ],
  "voiceActing": [
    "Рус. Оригинальный",
    "Рус. Ориг. (без цензуры)"
  ],
  "subtitle": [],
  "parts": []
}
