{
  "id": 48240,
  "name": "Тайна миров",
  "name_eng": "Pedralta",
  "year": 2021,
  "slogan": "—",
  "age": "16+",
  "type": "film",
  "quality": "FHD (1080p)",
  "imdb": null,
  "imdb_id": "6743476",
  "kinopoisk": null,
  "kinopoisk_id": "1075448",
  "world_art": null,
  "world_art_id": null,
  "time": "89 мин. / 01:29",
  "ads": true,
  "premier": null,
  "premier_rus": null,
  "availability": null,
  "activate_time": "2021-06-24 10:57:00",
  "budget": null,
  "fees_use": null,
  "fees_world": null,
  "fees_rus": null,
  "rate_mpaa": null,
  "description": "Осиротевшей Элизабет выпадает возможность попасть в другой мир к погибшим родителям и сестре. Однако границу миров охраняет всемогущий страж. Поставив своим появлением в параллельной реальности под угрозу существования себя и своих родных, и не имея возможности вернуться обратно, девушке предстоит понять суть бытия и раскрыть в себе способность изменять окружающий мир по своему усмотрению.",
  "iframe_url": "",
  "iframe_poster": null,
  "poster": "https://img.imgilall.me/movies/franchise/4/8/2/4/0/0/0/0/0/0/610x900_48240.jpg",
  "country": {
    "3": "Испания"
  },
  "collection": [],
  "genre": {
    "6": "Фэнтези",
    "13": "Триллер",
    "7": "Драма"
  },
  "director": [
    "Александр Манзуров"
  ],
  "screenwriter": [
    "Александр Манзуров"
  ],
  "producer": [
    "Владимир Поздняков",
    "Борис Ядловский",
    "Александр Манзуров"
  ],
  "operator": [
    "Даян Гайткулов"
  ],
  "composer": [
    "Дмитрий Данилов"
  ],
  "design": [],
  "editor": [
    "Александр Манзуров",
    "Луис де ла Мадрид"
  ],
  "actors": [
    "Нурия Флоренса",
    "Ивана Миньо",
    "Фрэнк Капдет",
    "Тони-Луис Рейс",
    "Ферран Херрера",
    "Ферран Терраса",
    "Янина Марини"
  ],
  "actors_dubl": [
    "Елена Чебатуркина",
    "Елена Ивасишина",
    "Владимир Еремин",
    "Антон Савенков",
    "Константин Карасик"
  ],
  "trivia": [],
  "trailers": [],
  "seasons": [],
  "voiceActing": [
    "Рус. Дублированный"
  ],
  "subtitle": [],
  "parts": []
}
