{
  "id": 48288,
  "name": "Прямо перед глазами",
  "name_eng": "Right in Front of Me",
  "year": 2021,
  "slogan": "«Say yes...to your destiny»",
  "age": null,
  "type": "film",
  "quality": "HD (720p)",
  "imdb": "6.8",
  "imdb_id": "14039078",
  "kinopoisk": null,
  "kinopoisk_id": "4443800",
  "world_art": null,
  "world_art_id": null,
  "time": "84 мин. / 01:24",
  "ads": true,
  "premier": "2021-04-17",
  "premier_rus": "2021-04-18",
  "availability": "2021-04-19",
  "activate_time": "2021-06-28 11:04:00",
  "budget": null,
  "fees_use": null,
  "fees_world": null,
  "fees_rus": null,
  "rate_mpaa": null,
  "description": null,
  "iframe_url": "",
  "iframe_poster": null,
  "poster": "https://img.imgilall.me/movies/franchise/4/8/2/8/8/0/0/0/0/0/610x900_48288.jpg",
  "country": {
    "1": "США"
  },
  "collection": [],
  "genre": {
    "19": "Комедия",
    "8": "Мелодрама",
    "7": "Драма"
  },
  "director": [
    "Linda-Lisa Hayter"
  ],
  "screenwriter": [
    "Джули Шерман Вульф"
  ],
  "producer": [
    "Чарльз Купер",
    "Джон Кассини",
    "Майкл Прупас"
  ],
  "operator": [
    "Адам Сливиньский"
  ],
  "composer": [
    "Jordan Klassen",
    "Шон Уилльям"
  ],
  "design": [
    "Виктор Рази",
    "Sam Badaye",
    "Шарль Беттгер"
  ],
  "editor": [
    "Патрик Кэрролл"
  ],
  "actors": [
    "Джанел Пэрриш",
    "Марко Граззини",
    "Энтони Конечны",
    "Брэнди Александр",
    "Хилари Джардин",
    "Клэр Филипов",
    "Линдсей Винч",
    "Фрэнк Кассини",
    "Фрэнсис Флэнаган",
    "Джейсон Сермак"
  ],
  "actors_dubl": [],
  "trivia": [],
  "trailers": [],
  "seasons": [],
  "voiceActing": [
    "Синема УС"
  ],
  "subtitle": [],
  "parts": []
}
