{
  "id": 48309,
  "name": "Бессмертный сержант",
  "name_eng": "Immortal Sergeant",
  "year": 1943,
  "slogan": "«Many heroic stories will come out of this war ... but there will never be a greater one than this !»",
  "age": null,
  "type": "film",
  "quality": "SD",
  "imdb": "6.7",
  "imdb_id": "0036037",
  "kinopoisk": null,
  "kinopoisk_id": "9985",
  "world_art": null,
  "world_art_id": null,
  "time": "91 мин. / 01:31",
  "ads": false,
  "premier": "1943-01-11",
  "premier_rus": "1943-01-12",
  "availability": "1943-01-13",
  "activate_time": "2021-06-28 16:13:00",
  "budget": null,
  "fees_use": null,
  "fees_world": null,
  "fees_rus": null,
  "rate_mpaa": null,
  "description": "Вторая Мировая, 1942 год, северная Африка, пески Ливии. Капрал Колин Спенс в группе военного патруля из четырнадцати бойцов отправлен в патрулирование контролируемого союзниками сектора Ливийской пустыни. Отрядом командует жёсткий и бывалый сержант Келли. Внезапно рядовое задание превращается в отчаянную схватку за жизнь, где простое выживание зависит только от опыта, мужества и воли к жизни простых солдат...",
  "iframe_url": "",
  "iframe_poster": null,
  "poster": "https://img.imgilall.me/movies/franchise/4/8/3/0/9/0/0/0/0/0/610x900_48309.jpg",
  "country": {
    "1": "США"
  },
  "collection": [],
  "genre": {
    "32": "Военный",
    "7": "Драма"
  },
  "director": [
    "Джон М. Стал"
  ],
  "screenwriter": [
    "Ламар Тротти",
    "Джон Брофи"
  ],
  "producer": [
    "Ламар Тротти"
  ],
  "operator": [
    "Артур Ч. Миллер"
  ],
  "composer": [
    "Дэвид Баттолф"
  ],
  "design": [
    "Ричард Дэй",
    "Морис Рэнсфорд",
    "Эрл Луик"
  ],
  "editor": [
    "Джеймс Б. Кларк"
  ],
  "actors": [
    "Генри Фонда",
    "Морин О’Хара",
    "Томас Митчелл",
    "Эллин Джослин",
    "Реджинальд Гардинер",
    "Мелвилл Купер",
    "Брэмуэлл Флетчер",
    "Мортон Лоури",
    "Джон Баннер",
    "Уилсон Бендж"
  ],
  "actors_dubl": [],
  "trivia": [],
  "trailers": [],
  "seasons": [],
  "voiceActing": [
    "Рус. Проф. многоголосый"
  ],
  "subtitle": [],
  "parts": []
}
