{
  "id": 48592,
  "name": "Мейер Лански",
  "name_eng": "Lansky",
  "year": 2021,
  "slogan": "«Человек, который превратил криминал в многомиллиардный бизнес»",
  "age": "18+",
  "type": "film",
  "quality": "FHD (1080p)",
  "imdb": "6.3",
  "imdb_id": "5078852",
  "kinopoisk": "5.9",
  "kinopoisk_id": "1271513",
  "world_art": null,
  "world_art_id": null,
  "time": "119 мин. / 01:59",
  "ads": false,
  "premier": "2021-06-25",
  "premier_rus": "2021-06-24",
  "availability": "2021-06-25",
  "activate_time": "2021-07-10 20:46:00",
  "budget": null,
  "fees_use": "$61 030",
  "fees_world": "+ $75 549 = $136 579",
  "fees_rus": "$47 075",
  "rate_mpaa": "R",
  "description": "Мейер Лански — легенда американской мафии, с которым считались все преступные синдикаты и сам Аль Капоне. Ему, конечно, есть, что рассказать. Тот, кто сумеет разговорить скандально известного главу «корпорации убийств», получит эксклюзив на миллион долларов. Но пойдет ли на это Мейер Лански и чьи головы полетят, если он все-таки заговорит?",
  "iframe_url": "",
  "iframe_poster": null,
  "poster": "https://img.imgilall.me/movies/franchise/4/8/5/9/2/0/0/0/0/0/610x900_48592.jpg",
  "country": {
    "1": "США"
  },
  "collection": [],
  "genre": {
    "25": "Криминал",
    "27": "Биографический",
    "13": "Триллер",
    "7": "Драма"
  },
  "director": [
    "Итан Роквей"
  ],
  "screenwriter": [
    "Итан Роквей",
    "Robert Rockaway"
  ],
  "producer": [
    "Роберт Огден Барнум",
    "Эрик Биннс",
    "Джефф Хоффман"
  ],
  "operator": [
    "Петер Финкенберг"
  ],
  "composer": [
    "Макс Арудж"
  ],
  "design": [
    "Эйприл Ласки",
    "Лаура Кристина Ортиз",
    "Лаура Валлгрен"
  ],
  "editor": [
    "Мартин Хантер",
    "Стивен Розенблюм"
  ],
  "actors": [
    "Харви Кейтель",
    "Сэм Уортингтон",
    "Джон Магаро",
    "Минка Келли",
    "Дэвид Джеймс Эллиотт",
    "Дэнни А. Абекейзер",
    "Дэвид Кейд",
    "Анна-София Робб",
    "Шэйн МакРей",
    "Джеки Крус"
  ],
  "actors_dubl": [
    "Андрей Градов",
    "Василий Дахненко",
    "Андрей Бархударов",
    "Юлия Горохова",
    "Владимир Рыбальченко"
  ],
  "trivia": [],
  "trailers": [],
  "seasons": [],
  "voiceActing": [
    "Рус. Дублированный",
    "Eng.Original"
  ],
  "subtitle": [
    "Eng. full"
  ],
  "parts": []
}
