{
  "id": 48607,
  "name": "Охота на Чёрную вдову",
  "name_eng": "Catching the Black Widow",
  "year": 2017,
  "slogan": "—",
  "age": null,
  "type": "film",
  "quality": "HD (720p)",
  "imdb": null,
  "imdb_id": "5771256",
  "kinopoisk": null,
  "kinopoisk_id": "987283",
  "world_art": null,
  "world_art_id": null,
  "time": "92 мин. / 01:32",
  "ads": true,
  "premier": null,
  "premier_rus": null,
  "availability": null,
  "activate_time": "2021-07-11 17:49:00",
  "budget": null,
  "fees_use": null,
  "fees_world": null,
  "fees_rus": null,
  "rate_mpaa": null,
  "description": "После внезапного самоубийства брата Ли-Энн замечает странное поведение его жены. Она решает во что бы то ни стало выяснить правду о смерти Фила и добиться справедливости.",
  "iframe_url": "",
  "iframe_poster": null,
  "poster": "https://img.imgilall.me/movies/franchise/4/8/6/0/7/0/0/0/0/0/610x900_48607.jpg",
  "country": {
    "23": "Новая Зеландия"
  },
  "collection": [],
  "genre": {
    "7": "Драма"
  },
  "director": [
    "Томас Робинс"
  ],
  "screenwriter": [
    "Томас Робинс"
  ],
  "producer": [
    "Томас Робинс",
    "Дэвид Стаббс"
  ],
  "operator": [
    "Дэвид Пол"
  ],
  "composer": [
    "Сэмюэл Флинн Скотт",
    "Конрад Ведде"
  ],
  "design": [],
  "editor": [
    "Пол Сьюториус"
  ],
  "actors": [
    "Саммер Робертсон",
    "Айди Уокер",
    "Джесси Робертсон",
    "Кэтерин МакРей",
    "Тереза-Энн Уэбб",
    "Мика Денэм",
    "Стивен О’Нилл"
  ],
  "actors_dubl": [],
  "trivia": [],
  "trailers": [],
  "seasons": [],
  "voiceActing": [
    "Синема УС"
  ],
  "subtitle": [],
  "parts": []
}
