{
  "id": 48633,
  "name": "Молодежь Чанъаня",
  "name_eng": "Chang an shao nian xing",
  "year": 2020,
  "slogan": "—",
  "age": null,
  "type": "series",
  "quality": "HD (720p)",
  "imdb": "7.7",
  "imdb_id": "12180574",
  "kinopoisk": null,
  "kinopoisk_id": "1371059",
  "world_art": null,
  "world_art_id": null,
  "time": "45 мин",
  "ads": false,
  "premier": "2020-04-20",
  "premier_rus": "2020-04-21",
  "availability": "2020-04-22",
  "serial_status": "offline",
  "activate_time": "2021-07-18 18:21:00",
  "budget": null,
  "fees_use": null,
  "fees_world": null,
  "fees_rus": null,
  "rate_mpaa": null,
  "description": null,
  "iframe_url": "",
  "poster": "https://img.imgilall.me/movies/franchise/4/8/6/3/3/0/0/0/0/0/610x900_48633.jpg",
  "country": {
    "19": "Китай"
  },
  "collection": [],
  "genre": {
    "28": "Исторический",
    "8": "Мелодрама",
    "7": "Драма"
  },
  "director": [
    "Zhou Jianwen"
  ],
  "screenwriter": [],
  "producer": [],
  "operator": [],
  "composer": [],
  "design": [],
  "editor": [],
  "actors": [
    "Ван Юйвэнь",
    "Цезарь У",
    "Лю Ичан",
    "Ци Пэйсинь",
    "Се Биньбинь"
  ],
  "actors_dubl": [],
  "trivia": [],
  "trailers": [],
  "seasons": [
    {
      "poster": null,
      "release_ru": null,
      "release_world": null,
      "availability": null,
      "iframe_url": "",
      "season": 1,
      "episodes": [
        {
          "episode": 1,
          "name": null,
          "iframe_url": "",
          "iframe_poster": null,
          "release_ru": null,
          "release_world": null,
          "availability": null,
          "voiceActing": [
            "Рус. Люб. одноголосый"
          ],
          "ads": false,
          "subtitle": []
        },
        {
          "episode": 2,
          "name": null,
          "iframe_url": "",
          "iframe_poster": null,
          "release_ru": null,
          "release_world": null,
          "availability": null,
          "voiceActing": [
            "Рус. Люб. одноголосый"
          ],
          "ads": false,
          "subtitle": []
        },
        {
          "episode": 3,
          "name": null,
          "iframe_url": "",
          "iframe_poster": null,
          "release_ru": null,
          "release_world": null,
          "availability": null,
          "voiceActing": [
            "Рус. Люб. одноголосый"
          ],
          "ads": false,
          "subtitle": []
        },
        {
          "episode": 4,
          "name": null,
          "iframe_url": "",
          "iframe_poster": null,
          "release_ru": null,
          "release_world": null,
          "availability": null,
          "voiceActing": [
            "Рус. Люб. одноголосый"
          ],
          "ads": false,
          "subtitle": []
        },
        {
          "episode": 5,
          "name": null,
          "iframe_url": "",
          "iframe_poster": null,
          "release_ru": null,
          "release_world": null,
          "availability": null,
          "voiceActing": [
            "Рус. Люб. одноголосый"
          ],
          "ads": false,
          "subtitle": []
        },
        {
          "episode": 6,
          "name": null,
          "iframe_url": "",
          "iframe_poster": null,
          "release_ru": null,
          "release_world": null,
          "availability": null,
          "voiceActing": [
            "Рус. Люб. одноголосый"
          ],
          "ads": false,
          "subtitle": []
        },
        {
          "episode": 7,
          "name": null,
          "iframe_url": "",
          "iframe_poster": null,
          "release_ru": null,
          "release_world": null,
          "availability": null,
          "voiceActing": [
            "Рус. Люб. одноголосый"
          ],
          "ads": false,
          "subtitle": []
        },
        {
          "episode": 8,
          "name": null,
          "iframe_url": "",
          "iframe_poster": null,
          "release_ru": null,
          "release_world": null,
          "availability": null,
          "voiceActing": [
            "Рус. Люб. одноголосый"
          ],
          "ads": false,
          "subtitle": []
        },
        {
          "episode": 9,
          "name": null,
          "iframe_url": "",
          "iframe_poster": null,
          "release_ru": null,
          "release_world": null,
          "availability": null,
          "voiceActing": [
            "Рус. Люб. одноголосый"
          ],
          "ads": false,
          "subtitle": []
        },
        {
          "episode": 10,
          "name": null,
          "iframe_url": "",
          "iframe_poster": null,
          "release_ru": null,
          "release_world": null,
          "availability": null,
          "voiceActing": [
            "Рус. Люб. одноголосый"
          ],
          "ads": false,
          "subtitle": []
        },
        {
          "episode": 11,
          "name": null,
          "iframe_url": "",
          "iframe_poster": null,
          "release_ru": null,
          "release_world": null,
          "availability": null,
          "voiceActing": [
            "Рус. Люб. одноголосый"
          ],
          "ads": false,
          "subtitle": []
        },
        {
          "episode": 12,
          "name": null,
          "iframe_url": "",
          "iframe_poster": null,
          "release_ru": null,
          "release_world": null,
          "availability": null,
          "voiceActing": [
            "Рус. Люб. одноголосый"
          ],
          "ads": false,
          "subtitle": []
        },
        {
          "episode": 13,
          "name": null,
          "iframe_url": "",
          "iframe_poster": null,
          "release_ru": null,
          "release_world": null,
          "availability": null,
          "voiceActing": [
            "Рус. Люб. одноголосый"
          ],
          "ads": false,
          "subtitle": []
        },
        {
          "episode": 14,
          "name": null,
          "iframe_url": "",
          "iframe_poster": null,
          "release_ru": null,
          "release_world": null,
          "availability": null,
          "voiceActing": [
            "Рус. Люб. одноголосый"
          ],
          "ads": false,
          "subtitle": []
        },
        {
          "episode": 15,
          "name": null,
          "iframe_url": "",
          "iframe_poster": null,
          "release_ru": null,
          "release_world": null,
          "availability": null,
          "voiceActing": [
            "Рус. Люб. одноголосый"
          ],
          "ads": false,
          "subtitle": []
        },
        {
          "episode": 16,
          "name": null,
          "iframe_url": "",
          "iframe_poster": null,
          "release_ru": null,
          "release_world": null,
          "availability": null,
          "voiceActing": [
            "Рус. Люб. одноголосый"
          ],
          "ads": false,
          "subtitle": []
        },
        {
          "episode": 17,
          "name": null,
          "iframe_url": "",
          "iframe_poster": null,
          "release_ru": null,
          "release_world": null,
          "availability": null,
          "voiceActing": [
            "Рус. Люб. одноголосый"
          ],
          "ads": false,
          "subtitle": []
        },
        {
          "episode": 18,
          "name": null,
          "iframe_url": "",
          "iframe_poster": null,
          "release_ru": null,
          "release_world": null,
          "availability": null,
          "voiceActing": [
            "Рус. Люб. одноголосый"
          ],
          "ads": false,
          "subtitle": []
        },
        {
          "episode": 19,
          "name": null,
          "iframe_url": "",
          "iframe_poster": null,
          "release_ru": null,
          "release_world": null,
          "availability": null,
          "voiceActing": [
            "Рус. Люб. одноголосый"
          ],
          "ads": false,
          "subtitle": []
        },
        {
          "episode": 20,
          "name": null,
          "iframe_url": "",
          "iframe_poster": null,
          "release_ru": null,
          "release_world": null,
          "availability": null,
          "voiceActing": [
            "Рус. Люб. одноголосый"
          ],
          "ads": false,
          "subtitle": []
        },
        {
          "episode": 21,
          "name": null,
          "iframe_url": "",
          "iframe_poster": null,
          "release_ru": null,
          "release_world": null,
          "availability": null,
          "voiceActing": [
            "Рус. Люб. одноголосый"
          ],
          "ads": false,
          "subtitle": []
        },
        {
          "episode": 22,
          "name": null,
          "iframe_url": "",
          "iframe_poster": null,
          "release_ru": null,
          "release_world": null,
          "availability": null,
          "voiceActing": [
            "Рус. Люб. одноголосый"
          ],
          "ads": false,
          "subtitle": []
        },
        {
          "episode": 23,
          "name": null,
          "iframe_url": "",
          "iframe_poster": null,
          "release_ru": null,
          "release_world": null,
          "availability": null,
          "voiceActing": [
            "Рус. Люб. одноголосый"
          ],
          "ads": false,
          "subtitle": []
        },
        {
          "episode": 24,
          "name": null,
          "iframe_url": "",
          "iframe_poster": null,
          "release_ru": null,
          "release_world": null,
          "availability": null,
          "voiceActing": [
            "Рус. Люб. одноголосый"
          ],
          "ads": false,
          "subtitle": []
        }
      ]
    }
  ],
  "voiceActing": [
    "Рус. Люб. одноголосый"
  ],
  "subtitle": [],
  "parts": []
}
