{
  "id": 48795,
  "name": "Тайна кармы",
  "name_eng": "The Secret of Karma",
  "year": 2017,
  "slogan": "—",
  "age": null,
  "type": "film",
  "quality": "HD (720p)",
  "imdb": "6.8",
  "imdb_id": "8079510",
  "kinopoisk": null,
  "kinopoisk_id": "1123178",
  "world_art": null,
  "world_art_id": null,
  "time": "—",
  "ads": true,
  "premier": null,
  "premier_rus": null,
  "availability": null,
  "activate_time": "2021-07-19 11:22:00",
  "budget": null,
  "fees_use": null,
  "fees_world": null,
  "fees_rus": null,
  "rate_mpaa": null,
  "description": null,
  "iframe_url": "",
  "iframe_poster": null,
  "poster": "https://img.imgilall.me/movies/franchise/4/8/7/9/5/0/0/0/0/0/610x900_48795.jpg",
  "country": {
    "1": "США"
  },
  "collection": [],
  "genre": {
    "8": "Мелодрама"
  },
  "director": [
    "Милан Фридрих"
  ],
  "screenwriter": [
    "Милан Фридрих",
    "Киони Ваксман"
  ],
  "producer": [
    "Милан Фридрих",
    "Филлип Б. Голдфайн",
    "Zuzana Prusova"
  ],
  "operator": [
    "Karel Fairaisl"
  ],
  "composer": [
    "Карел Антонин"
  ],
  "design": [],
  "editor": [
    "Viktor Adamec"
  ],
  "actors": [
    "Петра Бучкова",
    "Марсия Кросс",
    "Массимо Добрович",
    "Брендан Фрейзер",
    "Доун Оливери",
    "Вероника Беллова"
  ],
  "actors_dubl": [],
  "trivia": [],
  "trailers": [],
  "seasons": [],
  "voiceActing": [
    "Синема УС"
  ],
  "subtitle": [],
  "parts": []
}
