{
  "id": 48817,
  "name": "В поисках тебя",
  "name_eng": "Finding You",
  "year": 2021,
  "slogan": "—",
  "age": null,
  "type": "film",
  "quality": "FHD (1080p)",
  "imdb": "6.1",
  "imdb_id": "8760280",
  "kinopoisk": null,
  "kinopoisk_id": "1253186",
  "world_art": null,
  "world_art_id": null,
  "time": "119 мин. / 01:59",
  "ads": false,
  "premier": "2021-05-14",
  "premier_rus": "2021-05-15",
  "availability": "2021-05-16",
  "activate_time": "2021-07-19 23:12:00",
  "budget": null,
  "fees_use": "$2 753 985",
  "fees_world": "+ $572 900 = $3 326 885",
  "fees_rus": null,
  "rate_mpaa": "PG",
  "description": null,
  "iframe_url": "",
  "iframe_poster": null,
  "poster": "https://img.imgilall.me/movies/franchise/4/8/8/1/7/0/0/0/0/0/610x900_48817.jpg",
  "country": {
    "1": "США"
  },
  "collection": [],
  "genre": {
    "8": "Мелодрама",
    "7": "Драма"
  },
  "director": [
    "Брайан Боф"
  ],
  "screenwriter": [
    "Брайан Боф",
    "Jenny B. Jones"
  ],
  "producer": [
    "Брайан Боф",
    "Стефен Престон",
    "Кен Карпентер"
  ],
  "operator": [
    "Майкл Лэвэлл"
  ],
  "composer": [
    "Kieran Kiely",
    "Тим Уильямс"
  ],
  "design": [
    "Фердия Мерфи",
    "Christine Fitzgerald",
    "Эйслинг Бирн"
  ],
  "editor": [
    "Крис Уитт"
  ],
  "actors": [
    "Роуз Рейд",
    "Джедидайя Гудакр",
    "Кэтрин МакНамара",
    "Патрик Бергин",
    "Сирша-Моника Джексон",
    "Джудит Хоаг",
    "Фиона Белл",
    "Анабель Суини",
    "Том Эверетт Скотт",
    "Ванесса Редгрейв"
  ],
  "actors_dubl": [],
  "trivia": [],
  "trailers": [],
  "seasons": [],
  "voiceActing": [
    "Рус. Дублированный",
    "Eng.Original"
  ],
  "subtitle": [
    "Рус. форсированные"
  ],
  "parts": []
}
