{
  "id": 48839,
  "name": "Швы",
  "name_eng": "Savovi",
  "year": 2019,
  "slogan": "—",
  "age": null,
  "type": "film",
  "quality": "HD (720p)",
  "imdb": "7.1",
  "imdb_id": "7319312",
  "kinopoisk": null,
  "kinopoisk_id": "1068274",
  "world_art": null,
  "world_art_id": null,
  "time": "105 мин. / 01:45",
  "ads": true,
  "premier": "2019-02-11",
  "premier_rus": "2019-02-12",
  "availability": "2019-02-13",
  "activate_time": "2021-07-20 14:55:00",
  "budget": null,
  "fees_use": null,
  "fees_world": "$32 784",
  "fees_rus": null,
  "rate_mpaa": null,
  "description": null,
  "iframe_url": "",
  "iframe_poster": null,
  "poster": "https://img.imgilall.me/movies/franchise/4/8/8/3/9/0/0/0/0/0/610x900_48839.jpg",
  "country": {
    "15": "Сербия"
  },
  "collection": [],
  "genre": {
    "13": "Триллер",
    "7": "Драма"
  },
  "director": [
    "Мирослав Терзич"
  ],
  "screenwriter": [
    "Эльма Татарагич"
  ],
  "producer": [
    "Уликс Фехмию",
    "Milena Garfield",
    "Амри Бакшич Чамо"
  ],
  "operator": [
    "Дамян Радованович"
  ],
  "composer": [
    "Александра Ковач"
  ],
  "design": [
    "Ана Балджан",
    "Marija Mitric",
    "Зора Мойзилович"
  ],
  "editor": [
    "Милена Петрович"
  ],
  "actors": [
    "Снежана Богданович",
    "Йована Стоилькович",
    "Марко Бацович",
    "Весна Тривалич",
    "Драгана Варагич",
    "Павле Чемерикич",
    "Ксения Маринкович",
    "Игор Бенчина",
    "Елена Ступлянин",
    "Радослав Миленкович"
  ],
  "actors_dubl": [],
  "trivia": [],
  "trailers": [],
  "seasons": [],
  "voiceActing": [
    "Синема УС"
  ],
  "subtitle": [],
  "parts": []
}
