{
  "id": 48852,
  "name": "Группа",
  "name_eng": "La Banda",
  "year": 2019,
  "slogan": "—",
  "age": null,
  "type": "film",
  "quality": "HD (720p)",
  "imdb": "5.8",
  "imdb_id": "7973858",
  "kinopoisk": null,
  "kinopoisk_id": "1152254",
  "world_art": null,
  "world_art_id": null,
  "time": "90 мин. / 01:30",
  "ads": true,
  "premier": "2019-03-20",
  "premier_rus": "2019-03-21",
  "availability": "2019-03-22",
  "activate_time": "2021-07-21 11:50:00",
  "budget": null,
  "fees_use": null,
  "fees_world": null,
  "fees_rus": null,
  "rate_mpaa": null,
  "description": null,
  "iframe_url": "",
  "iframe_poster": null,
  "poster": "https://img.imgilall.me/movies/franchise/4/8/8/5/2/0/0/0/0/0/610x900_48852.jpg",
  "country": {
    "3": "Испания"
  },
  "collection": [],
  "genre": {
    "7": "Драма"
  },
  "director": [
    "Roberto Bueso"
  ],
  "screenwriter": [
    "Roberto Bueso"
  ],
  "producer": [
    "Фернандо Бовайра",
    "Симон Де Сантьяго",
    "Urko Errazquin"
  ],
  "operator": [
    "Víctor Entrecanales"
  ],
  "composer": [
    "Висенте Ортис Химено"
  ],
  "design": [
    "Carlos Ramón Almenar",
    "Giovanna Ribes"
  ],
  "editor": [
    "Карлос Агульо"
  ],
  "actors": [
    "Ольга Аламан",
    "Энрик Бенавент",
    "Carlo Blanco",
    "Gonzálo Fernández",
    "Алекс Франко Хорхе",
    "Xavi Giner",
    "Pepo Llopis",
    "Baiana Plana",
    "Hugo Rubert",
    "Инма Санчо"
  ],
  "actors_dubl": [],
  "trivia": [],
  "trailers": [],
  "seasons": [],
  "voiceActing": [
    "Синема УС"
  ],
  "subtitle": [],
  "parts": []
}
