{
  "id": 48860,
  "name": "Дом на карантине",
  "name_eng": "House of Quarantine",
  "year": 2021,
  "slogan": "—",
  "age": null,
  "type": "film",
  "quality": "FHD (1080p)",
  "imdb": null,
  "imdb_id": "12440242",
  "kinopoisk": null,
  "kinopoisk_id": "1393423",
  "world_art": null,
  "world_art_id": null,
  "time": "—",
  "ads": true,
  "premier": null,
  "premier_rus": null,
  "availability": null,
  "activate_time": "2021-07-22 10:36:00",
  "budget": null,
  "fees_use": null,
  "fees_world": null,
  "fees_rus": null,
  "rate_mpaa": null,
  "description": null,
  "iframe_url": "",
  "iframe_poster": null,
  "poster": "https://img.imgilall.me/movies/franchise/4/8/8/6/0/0/0/0/0/0/610x900_48860.jpg",
  "country": {
    "1": "США"
  },
  "collection": [],
  "genre": {
    "13": "Триллер"
  },
  "director": [
    "Митеш Кумар Патель"
  ],
  "screenwriter": [
    "Рендал Ли Смит",
    "Митеш Кумар Патель"
  ],
  "producer": [
    "Митеш Кумар Патель",
    "Энтони Касанова",
    "Майкл Касанова"
  ],
  "operator": [
    "Bernie Tarin"
  ],
  "composer": [
    "Zac Stryker"
  ],
  "design": [
    "Лиза Паленика"
  ],
  "editor": [
    "Роджер Купер"
  ],
  "actors": [
    "Drew Leatham",
    "Philip P Carlisle",
    "Zoey Walker",
    "Dylan Garcia",
    "Nathan Gayan",
    "Kelcie Weber",
    "James Chavez",
    "Rachel Grace",
    "Chelsea Nicole Howard",
    "Kevin Brown"
  ],
  "actors_dubl": [],
  "trivia": [],
  "trailers": [],
  "seasons": [],
  "voiceActing": [
    "@MUZOBOZ@"
  ],
  "subtitle": [],
  "parts": []
}
