{
  "id": 48872,
  "name": "Грех",
  "name_eng": "Sin",
  "year": 2021,
  "slogan": "—",
  "age": null,
  "type": "film",
  "quality": "HD (720p)",
  "imdb": "6.0",
  "imdb_id": "13686748",
  "kinopoisk": null,
  "kinopoisk_id": "4501622",
  "world_art": null,
  "world_art_id": null,
  "time": "91 мин. / 01:31",
  "ads": true,
  "premier": "2021-07-17",
  "premier_rus": "2021-07-18",
  "availability": "2021-07-19",
  "activate_time": "2021-07-22 11:57:00",
  "budget": null,
  "fees_use": null,
  "fees_world": null,
  "fees_rus": null,
  "rate_mpaa": null,
  "description": null,
  "iframe_url": "",
  "iframe_poster": null,
  "poster": "https://img.imgilall.me/movies/franchise/4/8/8/7/2/0/0/0/0/0/610x900_48872.jpg",
  "country": {
    "1": "США"
  },
  "collection": [],
  "genre": {
    "26": "Ужасы"
  },
  "director": [
    "Don Tjernagel"
  ],
  "screenwriter": [
    "Don Tjernagel"
  ],
  "producer": [
    "Clint Boevers",
    "Bram Zwingli",
    "Don Tjernagel"
  ],
  "operator": [],
  "composer": [],
  "design": [],
  "editor": [
    "Clint Boevers"
  ],
  "actors": [
    "Don Tjernagel",
    "Jamie Doroslovac",
    "Deandre Sipthekid Smith",
    "Cassi McMullen",
    "Clint Boevers",
    "Arnela Osmicevic",
    "Allena Hupfeld",
    "Bram Zwingli",
    "Matt Lee Ingebritson",
    "Gus Gustafson"
  ],
  "actors_dubl": [],
  "trivia": [],
  "trailers": [],
  "seasons": [],
  "voiceActing": [
    "Синема УС"
  ],
  "subtitle": [],
  "parts": []
}
