{
  "id": 48900,
  "name": "Трудный путь в Александрию",
  "name_eng": "Ice Cold in Alex",
  "year": 1958,
  "slogan": "«From Tobruk to Alexandria... they had to make it... even if one of 'em was a traitor!»",
  "age": null,
  "type": "film",
  "quality": "HD (720p)",
  "imdb": "7.8",
  "imdb_id": "0053935",
  "kinopoisk": "7.3",
  "kinopoisk_id": "18674",
  "world_art": null,
  "world_art_id": null,
  "time": "130 мин. / 02:10",
  "ads": false,
  "premier": "1958-06-24",
  "premier_rus": "1958-06-25",
  "availability": "1958-06-26",
  "activate_time": "2021-07-23 21:48:00",
  "budget": null,
  "fees_use": null,
  "fees_world": null,
  "fees_rus": null,
  "rate_mpaa": null,
  "description": "В 1942 году Средиземноморское побережье было мало похоже на курорт. Немецкая армия беспрестанно бомбила и корабли, и сухопутные силы британской армии. Испугавшись бомбежки, две молоденькие медсестры, только прибывшие на фронт, отстают от своего корабля. Капитан Энсон получает приказ на грузовике доставить девушек в Александрию. Путь будет трудным и полным опасностей...",
  "iframe_url": "",
  "iframe_poster": null,
  "poster": "https://img.imgilall.me/movies/franchise/4/8/9/0/0/0/0/0/0/0/610x900_48900.jpg",
  "country": {
    "2": "Великобритания"
  },
  "collection": {
    "5": "С наградами"
  },
  "genre": {
    "9": "Приключения",
    "32": "Военный",
    "7": "Драма"
  },
  "director": [
    "Дж. Ли Томпсон"
  ],
  "screenwriter": [
    "Кристофер Лэндон",
    "Т.Дж. Моррисон"
  ],
  "producer": [
    "W.A. Whittaker"
  ],
  "operator": [
    "Гилберт Тейлор"
  ],
  "composer": [
    "Лейтон Лукас"
  ],
  "design": [
    "Роберт Джонс"
  ],
  "editor": [
    "Ричард Бест"
  ],
  "actors": [
    "Джон Миллз",
    "Сильвия Симс",
    "Энтони Куэйл",
    "Гарри Эндрюс",
    "Дайан Клер",
    "Ричард Лич",
    "Лайам Редмонд",
    "Аллан Катбертсон",
    "Дэвид Лодж",
    "Майкл Найтингейл"
  ],
  "actors_dubl": [],
  "trivia": [],
  "trailers": [],
  "seasons": [],
  "voiceActing": [
    "Рус. Проф. многоголосый",
    "Eng.Original"
  ],
  "subtitle": [
    "Рус. форсированные"
  ],
  "parts": []
}
