{
  "id": 48952,
  "name": "Роуз Инглэнд",
  "name_eng": "Rose England",
  "year": 2019,
  "slogan": "—",
  "age": null,
  "type": "film",
  "quality": "HD (720p)",
  "imdb": null,
  "imdb_id": "8277408",
  "kinopoisk": null,
  "kinopoisk_id": "1152381",
  "world_art": null,
  "world_art_id": null,
  "time": "—",
  "ads": true,
  "premier": null,
  "premier_rus": null,
  "availability": null,
  "activate_time": "2021-07-26 12:09:00",
  "budget": null,
  "fees_use": null,
  "fees_world": null,
  "fees_rus": null,
  "rate_mpaa": null,
  "description": null,
  "iframe_url": "",
  "iframe_poster": null,
  "poster": "https://img.imgilall.me/movies/franchise/4/8/9/5/2/0/0/0/0/0/610x900_48952.jpg",
  "country": {
    "1": "США"
  },
  "collection": [],
  "genre": {
    "7": "Драма"
  },
  "director": [
    "Gina Carey"
  ],
  "screenwriter": [
    "Gina Carey"
  ],
  "producer": [
    "Gina Carey"
  ],
  "operator": [
    "Gina Carey"
  ],
  "composer": [
    "Gina Carey"
  ],
  "design": [
    "Gina Carey",
    "Alexis Spencer"
  ],
  "editor": [
    "Gina Carey"
  ],
  "actors": [
    "Steven Ciceron",
    "Steve Silkotch",
    "Элизабет Ноэль Джафет",
    "Carol Davis",
    "Marcus Lantero",
    "Alexis Spencer",
    "Delyn Meyers",
    "Diana Hintergardt",
    "Zeus Ley",
    "Michele Davis"
  ],
  "actors_dubl": [],
  "trivia": [],
  "trailers": [],
  "seasons": [],
  "voiceActing": [
    "Синема УС"
  ],
  "subtitle": [],
  "parts": []
}
