{
  "id": 48977,
  "name": "Воровская честь",
  "name_eng": "Honor Among Thieves",
  "year": 2021,
  "slogan": "—",
  "age": null,
  "type": "film",
  "quality": "FHD (1080p)",
  "imdb": "4.1",
  "imdb_id": "12749460",
  "kinopoisk": null,
  "kinopoisk_id": "1395986",
  "world_art": null,
  "world_art_id": null,
  "time": "81 мин. / 01:21",
  "ads": true,
  "premier": "2021-04-17",
  "premier_rus": "2021-04-18",
  "availability": "2021-04-19",
  "activate_time": "2021-07-27 11:24:00",
  "budget": null,
  "fees_use": null,
  "fees_world": null,
  "fees_rus": null,
  "rate_mpaa": null,
  "description": null,
  "iframe_url": "",
  "iframe_poster": null,
  "poster": "https://img.imgilall.me/movies/franchise/4/8/9/7/7/0/0/0/0/0/610x900_48977.jpg",
  "country": {
    "1": "США"
  },
  "collection": [],
  "genre": {
    "29": "Вестерн"
  },
  "director": [
    "Бретт Бентман"
  ],
  "screenwriter": [
    "Jason Watson"
  ],
  "producer": [
    "Тиффани МакИверс",
    "Стюарт Элсон"
  ],
  "operator": [
    "Энтони Гутьеррез"
  ],
  "composer": [],
  "design": [
    "Stacey Lea"
  ],
  "editor": [
    "Jeff Hamm"
  ],
  "actors": [
    "Том Хэллум",
    "Лиз Табиш",
    "Роберт Кит",
    "Эндрю Аррасмит",
    "Corbett Hall",
    "Джо Перес",
    "Джордан Уолкер Росс",
    "Том Земброд",
    "Jason Watson",
    "Warren Gavitt"
  ],
  "actors_dubl": [],
  "trivia": [],
  "trailers": [],
  "seasons": [],
  "voiceActing": [
    "Рус. Люб. многоголосый"
  ],
  "subtitle": [],
  "parts": []
}
