{
  "id": 48999,
  "name": "Жилец",
  "name_eng": "Tenant",
  "year": 2021,
  "slogan": "—",
  "age": null,
  "type": "film",
  "quality": "HD (720p)",
  "imdb": "5.7",
  "imdb_id": "14182228",
  "kinopoisk": null,
  "kinopoisk_id": "4510786",
  "world_art": null,
  "world_art_id": null,
  "time": "90 мин. / 01:30",
  "ads": true,
  "premier": "2021-01-15",
  "premier_rus": "2021-01-16",
  "availability": "2021-01-17",
  "activate_time": "2021-07-27 13:40:00",
  "budget": null,
  "fees_use": null,
  "fees_world": null,
  "fees_rus": null,
  "rate_mpaa": null,
  "description": null,
  "iframe_url": "",
  "iframe_poster": null,
  "poster": "https://img.imgilall.me/movies/franchise/4/8/9/9/9/0/0/0/0/0/610x900_48999.jpg",
  "country": {
    "1": "США"
  },
  "collection": [],
  "genre": {
    "19": "Комедия"
  },
  "director": [
    "Роберт Бенжамин",
    "Майкл Клоуотер",
    "Джим Форд"
  ],
  "screenwriter": [
    "Джим Форд",
    "Кевин Руис"
  ],
  "producer": [
    "Марк Мос"
  ],
  "operator": [],
  "composer": [],
  "design": [],
  "editor": [],
  "actors": [
    "Alexis Bronkovic",
    "Aaron Busse",
    "Katrina Chavez",
    "Jason Alan",
    "Райан Конвери",
    "Allison Day",
    "Джим Форд",
    "Rah Johnson",
    "Таша Лоуренс",
    "James Maloney"
  ],
  "actors_dubl": [],
  "trivia": [],
  "trailers": [],
  "seasons": [],
  "voiceActing": [
    "Синема УС"
  ],
  "subtitle": [],
  "parts": []
}
