{
  "id": 49051,
  "name": "Второе солнце",
  "name_eng": "Segundo Sol",
  "year": 2018,
  "slogan": "«Only you can give your life a new chance»",
  "age": null,
  "type": "series",
  "quality": "HD (720p)",
  "imdb": "5.7",
  "imdb_id": "8328962",
  "kinopoisk": null,
  "kinopoisk_id": "1118389",
  "world_art": null,
  "world_art_id": null,
  "time": "60 мин",
  "ads": false,
  "premier": "2018-05-14",
  "premier_rus": "2018-05-15",
  "availability": "2018-05-16",
  "serial_status": "offline",
  "activate_time": "2021-07-30 12:06:00",
  "budget": null,
  "fees_use": null,
  "fees_world": null,
  "fees_rus": null,
  "rate_mpaa": null,
  "description": "Бето – молодой непопулярный певец. Однажды он попадает в автокатастрофу, и СМИ сообщают о его гибели. Эта новость делает Бето известным, поэтому, когда певец приходит в себя, он решает оставить все как есть и жить под другим именем.",
  "iframe_url": "",
  "poster": "https://img.imgilall.me/movies/franchise/4/9/0/5/1/0/0/0/0/0/610x900_49051.jpg",
  "country": {
    "30": "Бразилия"
  },
  "collection": [],
  "genre": {
    "19": "Комедия",
    "7": "Драма"
  },
  "director": [
    "Ноа Брессане",
    "Деннис Карвалью",
    "Мария де Медисис"
  ],
  "screenwriter": [
    "Жоао Эмануэл Карнейро",
    "Элен Гарсиа",
    "Лилиан Гарсиа"
  ],
  "producer": [],
  "operator": [],
  "composer": [],
  "design": [],
  "editor": [],
  "actors": [
    "Адриана Эстевеш",
    "Джованна Антонелли",
    "Дебора Секку",
    "Эмилио Дантас",
    "Владимир Бришта",
    "Фабиула Нассименту",
    "Арлет Саллес",
    "Арманду Бабайофф",
    "Луис Лобьянко",
    "Жозе де Абреу"
  ],
  "actors_dubl": [],
  "trivia": [],
  "trailers": [],
  "seasons": [
    {
      "poster": null,
      "release_ru": null,
      "release_world": null,
      "availability": null,
      "iframe_url": "",
      "season": 1,
      "episodes": [
        {
          "episode": 1,
          "name": null,
          "iframe_url": "",
          "iframe_poster": null,
          "release_ru": null,
          "release_world": null,
          "availability": null,
          "voiceActing": [
            "Рус. Люб. двухголосый"
          ],
          "ads": false,
          "subtitle": []
        },
        {
          "episode": 2,
          "name": null,
          "iframe_url": "",
          "iframe_poster": null,
          "release_ru": null,
          "release_world": null,
          "availability": null,
          "voiceActing": [
            "Рус. Люб. двухголосый"
          ],
          "ads": false,
          "subtitle": []
        },
        {
          "episode": 3,
          "name": null,
          "iframe_url": "",
          "iframe_poster": null,
          "release_ru": null,
          "release_world": null,
          "availability": null,
          "voiceActing": [
            "Рус. Люб. двухголосый"
          ],
          "ads": false,
          "subtitle": []
        },
        {
          "episode": 4,
          "name": null,
          "iframe_url": "",
          "iframe_poster": null,
          "release_ru": null,
          "release_world": null,
          "availability": null,
          "voiceActing": [
            "Рус. Люб. двухголосый"
          ],
          "ads": false,
          "subtitle": []
        },
        {
          "episode": 5,
          "name": null,
          "iframe_url": "",
          "iframe_poster": null,
          "release_ru": null,
          "release_world": null,
          "availability": null,
          "voiceActing": [
            "Рус. Люб. двухголосый"
          ],
          "ads": false,
          "subtitle": []
        },
        {
          "episode": 6,
          "name": null,
          "iframe_url": "",
          "iframe_poster": null,
          "release_ru": null,
          "release_world": null,
          "availability": null,
          "voiceActing": [
            "Рус. Люб. двухголосый"
          ],
          "ads": false,
          "subtitle": []
        },
        {
          "episode": 7,
          "name": null,
          "iframe_url": "",
          "iframe_poster": null,
          "release_ru": null,
          "release_world": null,
          "availability": null,
          "voiceActing": [
            "Рус. Люб. двухголосый"
          ],
          "ads": false,
          "subtitle": []
        },
        {
          "episode": 8,
          "name": null,
          "iframe_url": "",
          "iframe_poster": null,
          "release_ru": null,
          "release_world": null,
          "availability": null,
          "voiceActing": [
            "Рус. Люб. двухголосый"
          ],
          "ads": false,
          "subtitle": []
        },
        {
          "episode": 9,
          "name": null,
          "iframe_url": "",
          "iframe_poster": null,
          "release_ru": null,
          "release_world": null,
          "availability": null,
          "voiceActing": [
            "Рус. Люб. двухголосый"
          ],
          "ads": false,
          "subtitle": []
        },
        {
          "episode": 10,
          "name": null,
          "iframe_url": "",
          "iframe_poster": null,
          "release_ru": null,
          "release_world": null,
          "availability": null,
          "voiceActing": [
            "Рус. Люб. двухголосый"
          ],
          "ads": false,
          "subtitle": []
        },
        {
          "episode": 11,
          "name": null,
          "iframe_url": "",
          "iframe_poster": null,
          "release_ru": null,
          "release_world": null,
          "availability": null,
          "voiceActing": [
            "Рус. Люб. двухголосый"
          ],
          "ads": false,
          "subtitle": []
        },
        {
          "episode": 12,
          "name": null,
          "iframe_url": "",
          "iframe_poster": null,
          "release_ru": null,
          "release_world": null,
          "availability": null,
          "voiceActing": [
            "Рус. Люб. двухголосый"
          ],
          "ads": false,
          "subtitle": []
        },
        {
          "episode": 13,
          "name": null,
          "iframe_url": "",
          "iframe_poster": null,
          "release_ru": null,
          "release_world": null,
          "availability": null,
          "voiceActing": [
            "Рус. Люб. двухголосый"
          ],
          "ads": false,
          "subtitle": []
        },
        {
          "episode": 14,
          "name": null,
          "iframe_url": "",
          "iframe_poster": null,
          "release_ru": null,
          "release_world": null,
          "availability": null,
          "voiceActing": [
            "Рус. Люб. двухголосый"
          ],
          "ads": false,
          "subtitle": []
        },
        {
          "episode": 15,
          "name": null,
          "iframe_url": "",
          "iframe_poster": null,
          "release_ru": null,
          "release_world": null,
          "availability": null,
          "voiceActing": [
            "Рус. Люб. двухголосый"
          ],
          "ads": false,
          "subtitle": []
        },
        {
          "episode": 16,
          "name": null,
          "iframe_url": "",
          "iframe_poster": null,
          "release_ru": null,
          "release_world": null,
          "availability": null,
          "voiceActing": [
            "Рус. Люб. двухголосый"
          ],
          "ads": false,
          "subtitle": []
        },
        {
          "episode": 17,
          "name": null,
          "iframe_url": "",
          "iframe_poster": null,
          "release_ru": null,
          "release_world": null,
          "availability": null,
          "voiceActing": [
            "Рус. Люб. двухголосый"
          ],
          "ads": false,
          "subtitle": []
        },
        {
          "episode": 18,
          "name": null,
          "iframe_url": "",
          "iframe_poster": null,
          "release_ru": null,
          "release_world": null,
          "availability": null,
          "voiceActing": [
            "Рус. Люб. двухголосый"
          ],
          "ads": false,
          "subtitle": []
        },
        {
          "episode": 19,
          "name": null,
          "iframe_url": "",
          "iframe_poster": null,
          "release_ru": null,
          "release_world": null,
          "availability": null,
          "voiceActing": [
            "Рус. Люб. двухголосый"
          ],
          "ads": false,
          "subtitle": []
        },
        {
          "episode": 20,
          "name": null,
          "iframe_url": "",
          "iframe_poster": null,
          "release_ru": null,
          "release_world": null,
          "availability": null,
          "voiceActing": [
            "Рус. Люб. двухголосый"
          ],
          "ads": false,
          "subtitle": []
        },
        {
          "episode": 21,
          "name": null,
          "iframe_url": "",
          "iframe_poster": null,
          "release_ru": null,
          "release_world": null,
          "availability": null,
          "voiceActing": [
            "Рус. Люб. двухголосый"
          ],
          "ads": false,
          "subtitle": []
        },
        {
          "episode": 22,
          "name": null,
          "iframe_url": "",
          "iframe_poster": null,
          "release_ru": null,
          "release_world": null,
          "availability": null,
          "voiceActing": [
            "Рус. Люб. двухголосый"
          ],
          "ads": false,
          "subtitle": []
        },
        {
          "episode": 23,
          "name": null,
          "iframe_url": "",
          "iframe_poster": null,
          "release_ru": null,
          "release_world": null,
          "availability": null,
          "voiceActing": [
            "Рус. Люб. двухголосый"
          ],
          "ads": false,
          "subtitle": []
        },
        {
          "episode": 24,
          "name": null,
          "iframe_url": "",
          "iframe_poster": null,
          "release_ru": null,
          "release_world": null,
          "availability": null,
          "voiceActing": [
            "Рус. Люб. двухголосый"
          ],
          "ads": false,
          "subtitle": []
        },
        {
          "episode": 25,
          "name": null,
          "iframe_url": "",
          "iframe_poster": null,
          "release_ru": null,
          "release_world": null,
          "availability": null,
          "voiceActing": [
            "Рус. Люб. двухголосый"
          ],
          "ads": false,
          "subtitle": []
        },
        {
          "episode": 26,
          "name": null,
          "iframe_url": "",
          "iframe_poster": null,
          "release_ru": null,
          "release_world": null,
          "availability": null,
          "voiceActing": [
            "Рус. Люб. двухголосый"
          ],
          "ads": false,
          "subtitle": []
        },
        {
          "episode": 27,
          "name": null,
          "iframe_url": "",
          "iframe_poster": null,
          "release_ru": null,
          "release_world": null,
          "availability": null,
          "voiceActing": [
            "Рус. Люб. двухголосый"
          ],
          "ads": false,
          "subtitle": []
        },
        {
          "episode": 28,
          "name": null,
          "iframe_url": "",
          "iframe_poster": null,
          "release_ru": null,
          "release_world": null,
          "availability": null,
          "voiceActing": [
            "Рус. Люб. двухголосый"
          ],
          "ads": false,
          "subtitle": []
        },
        {
          "episode": 29,
          "name": null,
          "iframe_url": "",
          "iframe_poster": null,
          "release_ru": null,
          "release_world": null,
          "availability": null,
          "voiceActing": [
            "Рус. Люб. двухголосый"
          ],
          "ads": false,
          "subtitle": []
        },
        {
          "episode": 30,
          "name": null,
          "iframe_url": "",
          "iframe_poster": null,
          "release_ru": null,
          "release_world": null,
          "availability": null,
          "voiceActing": [
            "Рус. Люб. двухголосый"
          ],
          "ads": false,
          "subtitle": []
        },
        {
          "episode": 31,
          "name": null,
          "iframe_url": "",
          "iframe_poster": null,
          "release_ru": null,
          "release_world": null,
          "availability": null,
          "voiceActing": [
            "Рус. Люб. двухголосый"
          ],
          "ads": false,
          "subtitle": []
        },
        {
          "episode": 32,
          "name": null,
          "iframe_url": "",
          "iframe_poster": null,
          "release_ru": null,
          "release_world": null,
          "availability": null,
          "voiceActing": [
            "Рус. Люб. двухголосый"
          ],
          "ads": false,
          "subtitle": []
        },
        {
          "episode": 33,
          "name": null,
          "iframe_url": "",
          "iframe_poster": null,
          "release_ru": null,
          "release_world": null,
          "availability": null,
          "voiceActing": [
            "Рус. Люб. двухголосый"
          ],
          "ads": false,
          "subtitle": []
        },
        {
          "episode": 34,
          "name": null,
          "iframe_url": "",
          "iframe_poster": null,
          "release_ru": null,
          "release_world": null,
          "availability": null,
          "voiceActing": [
            "Рус. Люб. двухголосый"
          ],
          "ads": false,
          "subtitle": []
        },
        {
          "episode": 35,
          "name": null,
          "iframe_url": "",
          "iframe_poster": null,
          "release_ru": null,
          "release_world": null,
          "availability": null,
          "voiceActing": [
            "Рус. Люб. двухголосый"
          ],
          "ads": false,
          "subtitle": []
        },
        {
          "episode": 36,
          "name": null,
          "iframe_url": "",
          "iframe_poster": null,
          "release_ru": null,
          "release_world": null,
          "availability": null,
          "voiceActing": [
            "Рус. Люб. двухголосый"
          ],
          "ads": false,
          "subtitle": []
        },
        {
          "episode": 37,
          "name": null,
          "iframe_url": "",
          "iframe_poster": null,
          "release_ru": null,
          "release_world": null,
          "availability": null,
          "voiceActing": [
            "Рус. Люб. двухголосый"
          ],
          "ads": false,
          "subtitle": []
        },
        {
          "episode": 38,
          "name": null,
          "iframe_url": "",
          "iframe_poster": null,
          "release_ru": null,
          "release_world": null,
          "availability": null,
          "voiceActing": [
            "Рус. Люб. двухголосый"
          ],
          "ads": false,
          "subtitle": []
        },
        {
          "episode": 39,
          "name": null,
          "iframe_url": "",
          "iframe_poster": null,
          "release_ru": null,
          "release_world": null,
          "availability": null,
          "voiceActing": [
            "Рус. Люб. двухголосый"
          ],
          "ads": false,
          "subtitle": []
        },
        {
          "episode": 40,
          "name": null,
          "iframe_url": "",
          "iframe_poster": null,
          "release_ru": null,
          "release_world": null,
          "availability": null,
          "voiceActing": [
            "Рус. Люб. двухголосый"
          ],
          "ads": false,
          "subtitle": []
        },
        {
          "episode": 41,
          "name": null,
          "iframe_url": "",
          "iframe_poster": null,
          "release_ru": null,
          "release_world": null,
          "availability": null,
          "voiceActing": [
            "Рус. Люб. двухголосый"
          ],
          "ads": false,
          "subtitle": []
        },
        {
          "episode": 42,
          "name": null,
          "iframe_url": "",
          "iframe_poster": null,
          "release_ru": null,
          "release_world": null,
          "availability": null,
          "voiceActing": [
            "Рус. Люб. двухголосый"
          ],
          "ads": false,
          "subtitle": []
        },
        {
          "episode": 43,
          "name": null,
          "iframe_url": "",
          "iframe_poster": null,
          "release_ru": null,
          "release_world": null,
          "availability": null,
          "voiceActing": [
            "Рус. Люб. двухголосый"
          ],
          "ads": false,
          "subtitle": []
        },
        {
          "episode": 44,
          "name": null,
          "iframe_url": "",
          "iframe_poster": null,
          "release_ru": null,
          "release_world": null,
          "availability": null,
          "voiceActing": [
            "Рус. Люб. двухголосый"
          ],
          "ads": false,
          "subtitle": []
        },
        {
          "episode": 45,
          "name": null,
          "iframe_url": "",
          "iframe_poster": null,
          "release_ru": null,
          "release_world": null,
          "availability": null,
          "voiceActing": [
            "Рус. Люб. двухголосый"
          ],
          "ads": false,
          "subtitle": []
        },
        {
          "episode": 46,
          "name": null,
          "iframe_url": "",
          "iframe_poster": null,
          "release_ru": null,
          "release_world": null,
          "availability": null,
          "voiceActing": [
            "Рус. Люб. двухголосый"
          ],
          "ads": false,
          "subtitle": []
        },
        {
          "episode": 47,
          "name": null,
          "iframe_url": "",
          "iframe_poster": null,
          "release_ru": null,
          "release_world": null,
          "availability": null,
          "voiceActing": [
            "Рус. Люб. двухголосый"
          ],
          "ads": false,
          "subtitle": []
        },
        {
          "episode": 48,
          "name": null,
          "iframe_url": "",
          "iframe_poster": null,
          "release_ru": null,
          "release_world": null,
          "availability": null,
          "voiceActing": [
            "Рус. Люб. двухголосый"
          ],
          "ads": false,
          "subtitle": []
        },
        {
          "episode": 49,
          "name": null,
          "iframe_url": "",
          "iframe_poster": null,
          "release_ru": null,
          "release_world": null,
          "availability": null,
          "voiceActing": [
            "Рус. Люб. двухголосый"
          ],
          "ads": false,
          "subtitle": []
        },
        {
          "episode": 50,
          "name": null,
          "iframe_url": "",
          "iframe_poster": null,
          "release_ru": null,
          "release_world": null,
          "availability": null,
          "voiceActing": [
            "Рус. Люб. двухголосый"
          ],
          "ads": false,
          "subtitle": []
        },
        {
          "episode": 51,
          "name": null,
          "iframe_url": "",
          "iframe_poster": null,
          "release_ru": null,
          "release_world": null,
          "availability": null,
          "voiceActing": [
            "Рус. Люб. двухголосый"
          ],
          "ads": false,
          "subtitle": []
        },
        {
          "episode": 52,
          "name": null,
          "iframe_url": "",
          "iframe_poster": null,
          "release_ru": null,
          "release_world": null,
          "availability": null,
          "voiceActing": [
            "Рус. Люб. двухголосый"
          ],
          "ads": false,
          "subtitle": []
        },
        {
          "episode": 53,
          "name": null,
          "iframe_url": "",
          "iframe_poster": null,
          "release_ru": null,
          "release_world": null,
          "availability": null,
          "voiceActing": [
            "Рус. Люб. двухголосый"
          ],
          "ads": false,
          "subtitle": []
        },
        {
          "episode": 54,
          "name": null,
          "iframe_url": "",
          "iframe_poster": null,
          "release_ru": null,
          "release_world": null,
          "availability": null,
          "voiceActing": [
            "Рус. Люб. двухголосый"
          ],
          "ads": false,
          "subtitle": []
        },
        {
          "episode": 55,
          "name": null,
          "iframe_url": "",
          "iframe_poster": null,
          "release_ru": null,
          "release_world": null,
          "availability": null,
          "voiceActing": [
            "Рус. Люб. двухголосый"
          ],
          "ads": false,
          "subtitle": []
        },
        {
          "episode": 56,
          "name": null,
          "iframe_url": "",
          "iframe_poster": null,
          "release_ru": null,
          "release_world": null,
          "availability": null,
          "voiceActing": [
            "Рус. Люб. двухголосый"
          ],
          "ads": false,
          "subtitle": []
        },
        {
          "episode": 57,
          "name": null,
          "iframe_url": "",
          "iframe_poster": null,
          "release_ru": null,
          "release_world": null,
          "availability": null,
          "voiceActing": [
            "Рус. Люб. двухголосый"
          ],
          "ads": false,
          "subtitle": []
        },
        {
          "episode": 58,
          "name": null,
          "iframe_url": "",
          "iframe_poster": null,
          "release_ru": null,
          "release_world": null,
          "availability": null,
          "voiceActing": [
            "Рус. Люб. двухголосый"
          ],
          "ads": false,
          "subtitle": []
        },
        {
          "episode": 59,
          "name": null,
          "iframe_url": "",
          "iframe_poster": null,
          "release_ru": null,
          "release_world": null,
          "availability": null,
          "voiceActing": [
            "Рус. Люб. двухголосый"
          ],
          "ads": false,
          "subtitle": []
        },
        {
          "episode": 60,
          "name": null,
          "iframe_url": "",
          "iframe_poster": null,
          "release_ru": null,
          "release_world": null,
          "availability": null,
          "voiceActing": [
            "Рус. Люб. двухголосый"
          ],
          "ads": false,
          "subtitle": []
        },
        {
          "episode": 61,
          "name": null,
          "iframe_url": "",
          "iframe_poster": null,
          "release_ru": null,
          "release_world": null,
          "availability": null,
          "voiceActing": [
            "Рус. Люб. двухголосый"
          ],
          "ads": false,
          "subtitle": []
        },
        {
          "episode": 62,
          "name": null,
          "iframe_url": "",
          "iframe_poster": null,
          "release_ru": null,
          "release_world": null,
          "availability": null,
          "voiceActing": [
            "Рус. Люб. двухголосый"
          ],
          "ads": false,
          "subtitle": []
        },
        {
          "episode": 63,
          "name": null,
          "iframe_url": "",
          "iframe_poster": null,
          "release_ru": null,
          "release_world": null,
          "availability": null,
          "voiceActing": [
            "Рус. Люб. двухголосый"
          ],
          "ads": false,
          "subtitle": []
        },
        {
          "episode": 64,
          "name": null,
          "iframe_url": "",
          "iframe_poster": null,
          "release_ru": null,
          "release_world": null,
          "availability": null,
          "voiceActing": [
            "Рус. Люб. двухголосый"
          ],
          "ads": false,
          "subtitle": []
        },
        {
          "episode": 65,
          "name": null,
          "iframe_url": "",
          "iframe_poster": null,
          "release_ru": null,
          "release_world": null,
          "availability": null,
          "voiceActing": [
            "Рус. Люб. двухголосый"
          ],
          "ads": false,
          "subtitle": []
        },
        {
          "episode": 66,
          "name": null,
          "iframe_url": "",
          "iframe_poster": null,
          "release_ru": null,
          "release_world": null,
          "availability": null,
          "voiceActing": [
            "Рус. Люб. двухголосый"
          ],
          "ads": false,
          "subtitle": []
        },
        {
          "episode": 67,
          "name": null,
          "iframe_url": "",
          "iframe_poster": null,
          "release_ru": null,
          "release_world": null,
          "availability": null,
          "voiceActing": [
            "Рус. Люб. двухголосый"
          ],
          "ads": false,
          "subtitle": []
        },
        {
          "episode": 68,
          "name": null,
          "iframe_url": "",
          "iframe_poster": null,
          "release_ru": null,
          "release_world": null,
          "availability": null,
          "voiceActing": [
            "Рус. Люб. двухголосый"
          ],
          "ads": false,
          "subtitle": []
        },
        {
          "episode": 69,
          "name": null,
          "iframe_url": "",
          "iframe_poster": null,
          "release_ru": null,
          "release_world": null,
          "availability": null,
          "voiceActing": [
            "Рус. Люб. двухголосый"
          ],
          "ads": false,
          "subtitle": []
        },
        {
          "episode": 70,
          "name": null,
          "iframe_url": "",
          "iframe_poster": null,
          "release_ru": null,
          "release_world": null,
          "availability": null,
          "voiceActing": [
            "Рус. Люб. двухголосый"
          ],
          "ads": false,
          "subtitle": []
        },
        {
          "episode": 71,
          "name": null,
          "iframe_url": "",
          "iframe_poster": null,
          "release_ru": null,
          "release_world": null,
          "availability": null,
          "voiceActing": [
            "Рус. Люб. двухголосый"
          ],
          "ads": false,
          "subtitle": []
        },
        {
          "episode": 72,
          "name": null,
          "iframe_url": "",
          "iframe_poster": null,
          "release_ru": null,
          "release_world": null,
          "availability": null,
          "voiceActing": [
            "Рус. Люб. двухголосый"
          ],
          "ads": false,
          "subtitle": []
        },
        {
          "episode": 73,
          "name": null,
          "iframe_url": "",
          "iframe_poster": null,
          "release_ru": null,
          "release_world": null,
          "availability": null,
          "voiceActing": [
            "Рус. Люб. двухголосый"
          ],
          "ads": false,
          "subtitle": []
        },
        {
          "episode": 74,
          "name": null,
          "iframe_url": "",
          "iframe_poster": null,
          "release_ru": null,
          "release_world": null,
          "availability": null,
          "voiceActing": [
            "Рус. Люб. двухголосый"
          ],
          "ads": false,
          "subtitle": []
        },
        {
          "episode": 75,
          "name": null,
          "iframe_url": "",
          "iframe_poster": null,
          "release_ru": null,
          "release_world": null,
          "availability": null,
          "voiceActing": [
            "Рус. Люб. двухголосый"
          ],
          "ads": false,
          "subtitle": []
        },
        {
          "episode": 76,
          "name": null,
          "iframe_url": "",
          "iframe_poster": null,
          "release_ru": null,
          "release_world": null,
          "availability": null,
          "voiceActing": [
            "Рус. Люб. двухголосый"
          ],
          "ads": false,
          "subtitle": []
        },
        {
          "episode": 77,
          "name": null,
          "iframe_url": "",
          "iframe_poster": null,
          "release_ru": null,
          "release_world": null,
          "availability": null,
          "voiceActing": [
            "Рус. Люб. двухголосый"
          ],
          "ads": false,
          "subtitle": []
        },
        {
          "episode": 78,
          "name": null,
          "iframe_url": "",
          "iframe_poster": null,
          "release_ru": null,
          "release_world": null,
          "availability": null,
          "voiceActing": [
            "Рус. Люб. двухголосый"
          ],
          "ads": false,
          "subtitle": []
        },
        {
          "episode": 79,
          "name": null,
          "iframe_url": "",
          "iframe_poster": null,
          "release_ru": null,
          "release_world": null,
          "availability": null,
          "voiceActing": [
            "Рус. Люб. двухголосый"
          ],
          "ads": false,
          "subtitle": []
        },
        {
          "episode": 80,
          "name": null,
          "iframe_url": "",
          "iframe_poster": null,
          "release_ru": null,
          "release_world": null,
          "availability": null,
          "voiceActing": [
            "Рус. Люб. двухголосый"
          ],
          "ads": false,
          "subtitle": []
        },
        {
          "episode": 81,
          "name": null,
          "iframe_url": "",
          "iframe_poster": null,
          "release_ru": null,
          "release_world": null,
          "availability": null,
          "voiceActing": [
            "Рус. Люб. двухголосый"
          ],
          "ads": false,
          "subtitle": []
        },
        {
          "episode": 82,
          "name": null,
          "iframe_url": "",
          "iframe_poster": null,
          "release_ru": null,
          "release_world": null,
          "availability": null,
          "voiceActing": [
            "Рус. Люб. двухголосый"
          ],
          "ads": false,
          "subtitle": []
        },
        {
          "episode": 83,
          "name": null,
          "iframe_url": "",
          "iframe_poster": null,
          "release_ru": null,
          "release_world": null,
          "availability": null,
          "voiceActing": [
            "Рус. Люб. двухголосый"
          ],
          "ads": false,
          "subtitle": []
        },
        {
          "episode": 84,
          "name": null,
          "iframe_url": "",
          "iframe_poster": null,
          "release_ru": null,
          "release_world": null,
          "availability": null,
          "voiceActing": [
            "Рус. Люб. двухголосый"
          ],
          "ads": false,
          "subtitle": []
        },
        {
          "episode": 85,
          "name": null,
          "iframe_url": "",
          "iframe_poster": null,
          "release_ru": null,
          "release_world": null,
          "availability": null,
          "voiceActing": [
            "Рус. Люб. двухголосый"
          ],
          "ads": false,
          "subtitle": []
        },
        {
          "episode": 86,
          "name": null,
          "iframe_url": "",
          "iframe_poster": null,
          "release_ru": null,
          "release_world": null,
          "availability": null,
          "voiceActing": [
            "Рус. Люб. двухголосый"
          ],
          "ads": false,
          "subtitle": []
        },
        {
          "episode": 87,
          "name": null,
          "iframe_url": "",
          "iframe_poster": null,
          "release_ru": null,
          "release_world": null,
          "availability": null,
          "voiceActing": [
            "Рус. Люб. двухголосый"
          ],
          "ads": false,
          "subtitle": []
        },
        {
          "episode": 88,
          "name": null,
          "iframe_url": "",
          "iframe_poster": null,
          "release_ru": null,
          "release_world": null,
          "availability": null,
          "voiceActing": [
            "Рус. Люб. двухголосый"
          ],
          "ads": false,
          "subtitle": []
        },
        {
          "episode": 89,
          "name": null,
          "iframe_url": "",
          "iframe_poster": null,
          "release_ru": null,
          "release_world": null,
          "availability": null,
          "voiceActing": [
            "Рус. Люб. двухголосый"
          ],
          "ads": false,
          "subtitle": []
        },
        {
          "episode": 90,
          "name": null,
          "iframe_url": "",
          "iframe_poster": null,
          "release_ru": null,
          "release_world": null,
          "availability": null,
          "voiceActing": [
            "Рус. Люб. двухголосый"
          ],
          "ads": false,
          "subtitle": []
        },
        {
          "episode": 91,
          "name": null,
          "iframe_url": "",
          "iframe_poster": null,
          "release_ru": null,
          "release_world": null,
          "availability": null,
          "voiceActing": [
            "Рус. Люб. двухголосый"
          ],
          "ads": false,
          "subtitle": []
        },
        {
          "episode": 92,
          "name": null,
          "iframe_url": "",
          "iframe_poster": null,
          "release_ru": null,
          "release_world": null,
          "availability": null,
          "voiceActing": [
            "Рус. Люб. двухголосый"
          ],
          "ads": false,
          "subtitle": []
        },
        {
          "episode": 93,
          "name": null,
          "iframe_url": "",
          "iframe_poster": null,
          "release_ru": null,
          "release_world": null,
          "availability": null,
          "voiceActing": [
            "Рус. Люб. двухголосый"
          ],
          "ads": false,
          "subtitle": []
        },
        {
          "episode": 94,
          "name": null,
          "iframe_url": "",
          "iframe_poster": null,
          "release_ru": null,
          "release_world": null,
          "availability": null,
          "voiceActing": [
            "Рус. Люб. двухголосый"
          ],
          "ads": false,
          "subtitle": []
        },
        {
          "episode": 95,
          "name": null,
          "iframe_url": "",
          "iframe_poster": null,
          "release_ru": null,
          "release_world": null,
          "availability": null,
          "voiceActing": [
            "Рус. Люб. двухголосый"
          ],
          "ads": false,
          "subtitle": []
        },
        {
          "episode": 96,
          "name": null,
          "iframe_url": "",
          "iframe_poster": null,
          "release_ru": null,
          "release_world": null,
          "availability": null,
          "voiceActing": [
            "Рус. Люб. двухголосый"
          ],
          "ads": false,
          "subtitle": []
        },
        {
          "episode": 97,
          "name": null,
          "iframe_url": "",
          "iframe_poster": null,
          "release_ru": null,
          "release_world": null,
          "availability": null,
          "voiceActing": [
            "Рус. Люб. двухголосый"
          ],
          "ads": false,
          "subtitle": []
        },
        {
          "episode": 98,
          "name": null,
          "iframe_url": "",
          "iframe_poster": null,
          "release_ru": null,
          "release_world": null,
          "availability": null,
          "voiceActing": [
            "Рус. Люб. двухголосый"
          ],
          "ads": false,
          "subtitle": []
        },
        {
          "episode": 99,
          "name": null,
          "iframe_url": "",
          "iframe_poster": null,
          "release_ru": null,
          "release_world": null,
          "availability": null,
          "voiceActing": [
            "Рус. Люб. двухголосый"
          ],
          "ads": false,
          "subtitle": []
        },
        {
          "episode": 100,
          "name": null,
          "iframe_url": "",
          "iframe_poster": null,
          "release_ru": null,
          "release_world": null,
          "availability": null,
          "voiceActing": [
            "Рус. Люб. двухголосый"
          ],
          "ads": false,
          "subtitle": []
        },
        {
          "episode": 101,
          "name": null,
          "iframe_url": "",
          "iframe_poster": null,
          "release_ru": null,
          "release_world": null,
          "availability": null,
          "voiceActing": [
            "Рус. Люб. двухголосый"
          ],
          "ads": false,
          "subtitle": []
        },
        {
          "episode": 102,
          "name": null,
          "iframe_url": "",
          "iframe_poster": null,
          "release_ru": null,
          "release_world": null,
          "availability": null,
          "voiceActing": [
            "Рус. Люб. двухголосый"
          ],
          "ads": false,
          "subtitle": []
        },
        {
          "episode": 103,
          "name": null,
          "iframe_url": "",
          "iframe_poster": null,
          "release_ru": null,
          "release_world": null,
          "availability": null,
          "voiceActing": [
            "Рус. Люб. двухголосый"
          ],
          "ads": false,
          "subtitle": []
        },
        {
          "episode": 104,
          "name": null,
          "iframe_url": "",
          "iframe_poster": null,
          "release_ru": null,
          "release_world": null,
          "availability": null,
          "voiceActing": [
            "Рус. Люб. двухголосый"
          ],
          "ads": false,
          "subtitle": []
        },
        {
          "episode": 105,
          "name": null,
          "iframe_url": "",
          "iframe_poster": null,
          "release_ru": null,
          "release_world": null,
          "availability": null,
          "voiceActing": [
            "Рус. Люб. двухголосый"
          ],
          "ads": false,
          "subtitle": []
        },
        {
          "episode": 106,
          "name": null,
          "iframe_url": "",
          "iframe_poster": null,
          "release_ru": null,
          "release_world": null,
          "availability": null,
          "voiceActing": [
            "Рус. Люб. двухголосый"
          ],
          "ads": false,
          "subtitle": []
        },
        {
          "episode": 107,
          "name": null,
          "iframe_url": "",
          "iframe_poster": null,
          "release_ru": null,
          "release_world": null,
          "availability": null,
          "voiceActing": [
            "Рус. Люб. двухголосый"
          ],
          "ads": false,
          "subtitle": []
        },
        {
          "episode": 108,
          "name": null,
          "iframe_url": "",
          "iframe_poster": null,
          "release_ru": null,
          "release_world": null,
          "availability": null,
          "voiceActing": [
            "Рус. Люб. двухголосый"
          ],
          "ads": false,
          "subtitle": []
        },
        {
          "episode": 109,
          "name": null,
          "iframe_url": "",
          "iframe_poster": null,
          "release_ru": null,
          "release_world": null,
          "availability": null,
          "voiceActing": [
            "Рус. Люб. двухголосый"
          ],
          "ads": false,
          "subtitle": []
        },
        {
          "episode": 110,
          "name": null,
          "iframe_url": "",
          "iframe_poster": null,
          "release_ru": null,
          "release_world": null,
          "availability": null,
          "voiceActing": [
            "Рус. Люб. двухголосый"
          ],
          "ads": false,
          "subtitle": []
        },
        {
          "episode": 111,
          "name": null,
          "iframe_url": "",
          "iframe_poster": null,
          "release_ru": null,
          "release_world": null,
          "availability": null,
          "voiceActing": [
            "Рус. Люб. двухголосый"
          ],
          "ads": false,
          "subtitle": []
        },
        {
          "episode": 112,
          "name": null,
          "iframe_url": "",
          "iframe_poster": null,
          "release_ru": null,
          "release_world": null,
          "availability": null,
          "voiceActing": [
            "Рус. Люб. двухголосый"
          ],
          "ads": false,
          "subtitle": []
        },
        {
          "episode": 113,
          "name": null,
          "iframe_url": "",
          "iframe_poster": null,
          "release_ru": null,
          "release_world": null,
          "availability": null,
          "voiceActing": [
            "Рус. Люб. двухголосый"
          ],
          "ads": false,
          "subtitle": []
        },
        {
          "episode": 114,
          "name": null,
          "iframe_url": "",
          "iframe_poster": null,
          "release_ru": null,
          "release_world": null,
          "availability": null,
          "voiceActing": [
            "Рус. Люб. двухголосый"
          ],
          "ads": false,
          "subtitle": []
        },
        {
          "episode": 115,
          "name": null,
          "iframe_url": "",
          "iframe_poster": null,
          "release_ru": null,
          "release_world": null,
          "availability": null,
          "voiceActing": [
            "Рус. Люб. двухголосый"
          ],
          "ads": false,
          "subtitle": []
        },
        {
          "episode": 116,
          "name": null,
          "iframe_url": "",
          "iframe_poster": null,
          "release_ru": null,
          "release_world": null,
          "availability": null,
          "voiceActing": [
            "Рус. Люб. двухголосый"
          ],
          "ads": false,
          "subtitle": []
        },
        {
          "episode": 117,
          "name": null,
          "iframe_url": "",
          "iframe_poster": null,
          "release_ru": null,
          "release_world": null,
          "availability": null,
          "voiceActing": [
            "Рус. Люб. двухголосый"
          ],
          "ads": false,
          "subtitle": []
        },
        {
          "episode": 118,
          "name": null,
          "iframe_url": "",
          "iframe_poster": null,
          "release_ru": null,
          "release_world": null,
          "availability": null,
          "voiceActing": [
            "Рус. Люб. двухголосый"
          ],
          "ads": false,
          "subtitle": []
        },
        {
          "episode": 119,
          "name": null,
          "iframe_url": "",
          "iframe_poster": null,
          "release_ru": null,
          "release_world": null,
          "availability": null,
          "voiceActing": [
            "Рус. Люб. двухголосый"
          ],
          "ads": false,
          "subtitle": []
        },
        {
          "episode": 120,
          "name": null,
          "iframe_url": "",
          "iframe_poster": null,
          "release_ru": null,
          "release_world": null,
          "availability": null,
          "voiceActing": [
            "Рус. Люб. двухголосый"
          ],
          "ads": false,
          "subtitle": []
        },
        {
          "episode": 121,
          "name": null,
          "iframe_url": "",
          "iframe_poster": null,
          "release_ru": null,
          "release_world": null,
          "availability": null,
          "voiceActing": [
            "Рус. Люб. двухголосый"
          ],
          "ads": false,
          "subtitle": []
        },
        {
          "episode": 122,
          "name": null,
          "iframe_url": "",
          "iframe_poster": null,
          "release_ru": null,
          "release_world": null,
          "availability": null,
          "voiceActing": [
            "Рус. Люб. двухголосый"
          ],
          "ads": false,
          "subtitle": []
        },
        {
          "episode": 123,
          "name": null,
          "iframe_url": "",
          "iframe_poster": null,
          "release_ru": null,
          "release_world": null,
          "availability": null,
          "voiceActing": [
            "Рус. Люб. двухголосый"
          ],
          "ads": false,
          "subtitle": []
        },
        {
          "episode": 124,
          "name": null,
          "iframe_url": "",
          "iframe_poster": null,
          "release_ru": null,
          "release_world": null,
          "availability": null,
          "voiceActing": [
            "Рус. Люб. двухголосый"
          ],
          "ads": false,
          "subtitle": []
        },
        {
          "episode": 125,
          "name": null,
          "iframe_url": "",
          "iframe_poster": null,
          "release_ru": null,
          "release_world": null,
          "availability": null,
          "voiceActing": [
            "Рус. Люб. двухголосый"
          ],
          "ads": false,
          "subtitle": []
        },
        {
          "episode": 126,
          "name": null,
          "iframe_url": "",
          "iframe_poster": null,
          "release_ru": null,
          "release_world": null,
          "availability": null,
          "voiceActing": [
            "Рус. Люб. двухголосый"
          ],
          "ads": false,
          "subtitle": []
        },
        {
          "episode": 127,
          "name": null,
          "iframe_url": "",
          "iframe_poster": null,
          "release_ru": null,
          "release_world": null,
          "availability": null,
          "voiceActing": [
            "Рус. Люб. двухголосый"
          ],
          "ads": false,
          "subtitle": []
        },
        {
          "episode": 128,
          "name": null,
          "iframe_url": "",
          "iframe_poster": null,
          "release_ru": null,
          "release_world": null,
          "availability": null,
          "voiceActing": [
            "Рус. Люб. двухголосый"
          ],
          "ads": false,
          "subtitle": []
        },
        {
          "episode": 129,
          "name": null,
          "iframe_url": "",
          "iframe_poster": null,
          "release_ru": null,
          "release_world": null,
          "availability": null,
          "voiceActing": [
            "Рус. Люб. двухголосый"
          ],
          "ads": false,
          "subtitle": []
        },
        {
          "episode": 130,
          "name": null,
          "iframe_url": "",
          "iframe_poster": null,
          "release_ru": null,
          "release_world": null,
          "availability": null,
          "voiceActing": [
            "Рус. Люб. двухголосый"
          ],
          "ads": false,
          "subtitle": []
        },
        {
          "episode": 131,
          "name": null,
          "iframe_url": "",
          "iframe_poster": null,
          "release_ru": null,
          "release_world": null,
          "availability": null,
          "voiceActing": [
            "Рус. Люб. двухголосый"
          ],
          "ads": false,
          "subtitle": []
        },
        {
          "episode": 132,
          "name": null,
          "iframe_url": "",
          "iframe_poster": null,
          "release_ru": null,
          "release_world": null,
          "availability": null,
          "voiceActing": [
            "Рус. Люб. двухголосый"
          ],
          "ads": false,
          "subtitle": []
        },
        {
          "episode": 133,
          "name": null,
          "iframe_url": "",
          "iframe_poster": null,
          "release_ru": null,
          "release_world": null,
          "availability": null,
          "voiceActing": [
            "Рус. Люб. двухголосый"
          ],
          "ads": false,
          "subtitle": []
        },
        {
          "episode": 134,
          "name": null,
          "iframe_url": "",
          "iframe_poster": null,
          "release_ru": null,
          "release_world": null,
          "availability": null,
          "voiceActing": [
            "Рус. Люб. двухголосый"
          ],
          "ads": false,
          "subtitle": []
        },
        {
          "episode": 135,
          "name": null,
          "iframe_url": "",
          "iframe_poster": null,
          "release_ru": null,
          "release_world": null,
          "availability": null,
          "voiceActing": [
            "Рус. Люб. двухголосый"
          ],
          "ads": false,
          "subtitle": []
        },
        {
          "episode": 136,
          "name": null,
          "iframe_url": "",
          "iframe_poster": null,
          "release_ru": null,
          "release_world": null,
          "availability": null,
          "voiceActing": [
            "Рус. Люб. двухголосый"
          ],
          "ads": false,
          "subtitle": []
        },
        {
          "episode": 137,
          "name": null,
          "iframe_url": "",
          "iframe_poster": null,
          "release_ru": null,
          "release_world": null,
          "availability": null,
          "voiceActing": [
            "Рус. Люб. двухголосый"
          ],
          "ads": false,
          "subtitle": []
        },
        {
          "episode": 138,
          "name": null,
          "iframe_url": "",
          "iframe_poster": null,
          "release_ru": null,
          "release_world": null,
          "availability": null,
          "voiceActing": [
            "Рус. Люб. двухголосый"
          ],
          "ads": false,
          "subtitle": []
        },
        {
          "episode": 139,
          "name": null,
          "iframe_url": "",
          "iframe_poster": null,
          "release_ru": null,
          "release_world": null,
          "availability": null,
          "voiceActing": [
            "Рус. Люб. двухголосый"
          ],
          "ads": false,
          "subtitle": []
        },
        {
          "episode": 140,
          "name": null,
          "iframe_url": "",
          "iframe_poster": null,
          "release_ru": null,
          "release_world": null,
          "availability": null,
          "voiceActing": [
            "Рус. Люб. двухголосый"
          ],
          "ads": false,
          "subtitle": []
        },
        {
          "episode": 141,
          "name": null,
          "iframe_url": "",
          "iframe_poster": null,
          "release_ru": null,
          "release_world": null,
          "availability": null,
          "voiceActing": [
            "Рус. Люб. двухголосый"
          ],
          "ads": false,
          "subtitle": []
        },
        {
          "episode": 142,
          "name": null,
          "iframe_url": "",
          "iframe_poster": null,
          "release_ru": null,
          "release_world": null,
          "availability": null,
          "voiceActing": [
            "Рус. Люб. двухголосый"
          ],
          "ads": false,
          "subtitle": []
        },
        {
          "episode": 143,
          "name": null,
          "iframe_url": "",
          "iframe_poster": null,
          "release_ru": null,
          "release_world": null,
          "availability": null,
          "voiceActing": [
            "Рус. Люб. двухголосый"
          ],
          "ads": false,
          "subtitle": []
        },
        {
          "episode": 144,
          "name": null,
          "iframe_url": "",
          "iframe_poster": null,
          "release_ru": null,
          "release_world": null,
          "availability": null,
          "voiceActing": [
            "Рус. Люб. двухголосый"
          ],
          "ads": false,
          "subtitle": []
        },
        {
          "episode": 145,
          "name": null,
          "iframe_url": "",
          "iframe_poster": null,
          "release_ru": null,
          "release_world": null,
          "availability": null,
          "voiceActing": [
            "Рус. Люб. двухголосый"
          ],
          "ads": false,
          "subtitle": []
        },
        {
          "episode": 146,
          "name": null,
          "iframe_url": "",
          "iframe_poster": null,
          "release_ru": null,
          "release_world": null,
          "availability": null,
          "voiceActing": [
            "Рус. Люб. двухголосый"
          ],
          "ads": false,
          "subtitle": []
        },
        {
          "episode": 147,
          "name": null,
          "iframe_url": "",
          "iframe_poster": null,
          "release_ru": null,
          "release_world": null,
          "availability": null,
          "voiceActing": [
            "Рус. Люб. двухголосый"
          ],
          "ads": false,
          "subtitle": []
        },
        {
          "episode": 148,
          "name": null,
          "iframe_url": "",
          "iframe_poster": null,
          "release_ru": null,
          "release_world": null,
          "availability": null,
          "voiceActing": [
            "Рус. Люб. двухголосый"
          ],
          "ads": false,
          "subtitle": []
        },
        {
          "episode": 149,
          "name": null,
          "iframe_url": "",
          "iframe_poster": null,
          "release_ru": null,
          "release_world": null,
          "availability": null,
          "voiceActing": [
            "Рус. Люб. двухголосый"
          ],
          "ads": false,
          "subtitle": []
        },
        {
          "episode": 150,
          "name": null,
          "iframe_url": "",
          "iframe_poster": null,
          "release_ru": null,
          "release_world": null,
          "availability": null,
          "voiceActing": [
            "Рус. Люб. двухголосый"
          ],
          "ads": false,
          "subtitle": []
        },
        {
          "episode": 151,
          "name": null,
          "iframe_url": "",
          "iframe_poster": null,
          "release_ru": null,
          "release_world": null,
          "availability": null,
          "voiceActing": [
            "Рус. Люб. двухголосый"
          ],
          "ads": false,
          "subtitle": []
        },
        {
          "episode": 152,
          "name": null,
          "iframe_url": "",
          "iframe_poster": null,
          "release_ru": null,
          "release_world": null,
          "availability": null,
          "voiceActing": [
            "Рус. Люб. двухголосый"
          ],
          "ads": false,
          "subtitle": []
        },
        {
          "episode": 153,
          "name": null,
          "iframe_url": "",
          "iframe_poster": null,
          "release_ru": null,
          "release_world": null,
          "availability": null,
          "voiceActing": [
            "Рус. Люб. двухголосый"
          ],
          "ads": false,
          "subtitle": []
        },
        {
          "episode": 154,
          "name": null,
          "iframe_url": "",
          "iframe_poster": null,
          "release_ru": null,
          "release_world": null,
          "availability": null,
          "voiceActing": [
            "Рус. Люб. двухголосый"
          ],
          "ads": false,
          "subtitle": []
        },
        {
          "episode": 155,
          "name": null,
          "iframe_url": "",
          "iframe_poster": null,
          "release_ru": null,
          "release_world": null,
          "availability": null,
          "voiceActing": [
            "Рус. Люб. двухголосый"
          ],
          "ads": false,
          "subtitle": []
        }
      ]
    }
  ],
  "voiceActing": [
    "Рус. Люб. двухголосый"
  ],
  "subtitle": [],
  "parts": []
}
