{
  "id": 49265,
  "name": "Игра в Бога",
  "name_eng": "Playing God",
  "year": 2021,
  "slogan": "«An almighty con»",
  "age": null,
  "type": "film",
  "quality": "FHD (1080p)",
  "imdb": "5.4",
  "imdb_id": "8371236",
  "kinopoisk": null,
  "kinopoisk_id": "1138677",
  "world_art": null,
  "world_art_id": null,
  "time": "95 мин. / 01:35",
  "ads": true,
  "premier": "2021-08-06",
  "premier_rus": "2021-08-07",
  "availability": "2021-08-08",
  "activate_time": "2021-08-09 00:42:00",
  "budget": null,
  "fees_use": null,
  "fees_world": null,
  "fees_rus": null,
  "rate_mpaa": null,
  "description": "Двое мошенников нанимают своего давнего наставника «сыграть» Бога, чтобы обмануть скорбящего миллиардера.",
  "iframe_url": "",
  "iframe_poster": null,
  "poster": "https://img.imgilall.me/movies/franchise/4/9/2/6/5/0/0/0/0/0/610x900_49265.jpg",
  "country": {
    "1": "США"
  },
  "collection": [],
  "genre": {
    "19": "Комедия",
    "7": "Драма"
  },
  "director": [
    "Scott Brignac"
  ],
  "screenwriter": [
    "Scott Brignac"
  ],
  "producer": [
    "Cody Bess",
    "Scott Brignac",
    "Брэдли Джексон"
  ],
  "operator": [
    "Cody Bess"
  ],
  "composer": [
    "Joshua Moore"
  ],
  "design": [
    "Линдсей Липскомб",
    "Кевин Блоссер",
    "Эрин Брук"
  ],
  "editor": [],
  "actors": [
    "Ханна Касулка",
    "Люк Бенвард",
    "Майкл МакКин",
    "Алан Тьюдик",
    "Джуд Деморест",
    "Марк Менчака",
    "Leighton B. Allen",
    "Raoul Canoli",
    "Эль Ламонт",
    "Джонни Рэй Гиббс"
  ],
  "actors_dubl": [],
  "trivia": [],
  "trailers": [],
  "seasons": [],
  "voiceActing": [
    "@MUZOBOZ@"
  ],
  "subtitle": [],
  "parts": []
}
