{
  "id": 49289,
  "name": "Победа на Правобережной Украине",
  "name_eng": "",
  "year": 1945,
  "slogan": "—",
  "age": null,
  "type": "film",
  "quality": "SD",
  "imdb": "7.0",
  "imdb_id": "0037993",
  "kinopoisk": "6.4",
  "kinopoisk_id": "43026",
  "world_art": null,
  "world_art_id": null,
  "time": "73 мин. / 01:13",
  "ads": false,
  "premier": "2005-04-05",
  "premier_rus": "2005-04-06",
  "availability": "2005-04-07",
  "activate_time": "2021-08-09 18:00:00",
  "budget": null,
  "fees_use": null,
  "fees_world": null,
  "fees_rus": null,
  "rate_mpaa": null,
  "description": "Этот фильм – историческая хроника, посвященная стремительному наступлению советских войск на запад. Использован уникальный хроникально-документальный материал, отснятый десятками военных операторов на разных фронтах, в том числе - во время Проскуровско-Черновицкой операции. Довженко первым в кино стал широко использовать вражескую хронику, придавая ей дикторским текстом и особыми приёмами монтажа другой смысл.",
  "iframe_url": "",
  "iframe_poster": null,
  "poster": "https://img.imgilall.me/movies/franchise/4/9/2/8/9/0/0/0/0/0/610x900_49289.jpg",
  "country": {
    "24": "СССР"
  },
  "collection": {
    "46": "Советские"
  },
  "genre": {
    "54": "Документальный",
    "32": "Военный"
  },
  "director": [
    "Александр Довженко",
    "Юлия Солнцева"
  ],
  "screenwriter": [
    "Александр Довженко"
  ],
  "producer": [],
  "operator": [
    "Константин Богдан",
    "Виктор Доброницкий",
    "Израиль Гольдштейн"
  ],
  "composer": [],
  "design": [],
  "editor": [],
  "actors": [],
  "actors_dubl": [],
  "trivia": [],
  "trailers": [],
  "seasons": [],
  "voiceActing": [
    "Original"
  ],
  "subtitle": [],
  "parts": []
}
