{
  "id": 49307,
  "name": "Лидер",
  "name_eng": "",
  "year": 1984,
  "slogan": "—",
  "age": "12+",
  "type": "film",
  "quality": "SD",
  "imdb": "7.0",
  "imdb_id": "0",
  "kinopoisk": "7.1",
  "kinopoisk_id": "45096",
  "world_art": null,
  "world_art_id": null,
  "time": "82 мин. / 01:22",
  "ads": false,
  "premier": "1985-03-11",
  "premier_rus": "1985-03-12",
  "availability": "1985-03-13",
  "activate_time": "2021-08-10 12:16:00",
  "budget": null,
  "fees_use": null,
  "fees_world": null,
  "fees_rus": null,
  "rate_mpaa": null,
  "description": "В девятом классе появился новенький. Замкнутый парень подчинил себя единственной цели — расшифровать таинственные письмена исчезнувшего племени тольтеков. Не посвятив в свои изыскания никого кроме учителя из своей бывшей школы, герой обрекает себя на непонимание окружающих…",
  "iframe_url": "",
  "iframe_poster": null,
  "poster": "https://img.imgilall.me/movies/franchise/4/9/3/0/7/0/0/0/0/0/610x900_49307.jpg",
  "country": {
    "24": "СССР"
  },
  "collection": [],
  "genre": {
    "7": "Драма"
  },
  "director": [
    "Борис Дуров"
  ],
  "screenwriter": [
    "Даль Орлов"
  ],
  "producer": [],
  "operator": [
    "Александр Рыбин"
  ],
  "composer": [
    "Евгений Геворгян"
  ],
  "design": [
    "Валерий Иванов",
    "Людмила Чекулаева"
  ],
  "editor": [
    "Римма Цегельницкая"
  ],
  "actors": [
    "Алексей Волков",
    "Александр Стриженов",
    "Екатерина Стриженова",
    "Валентина Карева",
    "Анатолий Опритов",
    "Любовь Стриженова",
    "Анатолий Ганшин",
    "Вера Соловьева",
    "Елена Сарычева",
    "Елена Мочалова"
  ],
  "actors_dubl": [],
  "trivia": [],
  "trailers": [],
  "seasons": [],
  "voiceActing": [
    "Рус. Оригинальный"
  ],
  "subtitle": [],
  "parts": []
}
