{
  "id": 49397,
  "name": "Праздник мая",
  "name_eng": "Mayday",
  "year": 2013,
  "slogan": "«What is it like to suspect someone you love of a terrible crime?»",
  "age": "18+",
  "type": "series",
  "quality": "HD (720p)",
  "imdb": "6.7",
  "imdb_id": "2401919",
  "kinopoisk": "6.8",
  "kinopoisk_id": "741628",
  "world_art": null,
  "world_art_id": null,
  "time": "59 мин. всего",
  "ads": false,
  "premier": "2013-03-03",
  "premier_rus": "2013-03-04",
  "availability": "2013-03-05",
  "serial_status": "offline",
  "activate_time": "2021-08-11 18:44:00",
  "budget": null,
  "fees_use": null,
  "fees_world": null,
  "fees_rus": null,
  "rate_mpaa": null,
  "description": "Сериал сфокусируется на жителях идиллического городка Стоувилд, которые начинают подозревать друг друга во всех смертных грехах после того, как на их территории исчезает юная девушка (Королева Мая) во время парада в честь языческого праздника. Все шокированы тем, что преступление явно совершил кто-то из соседей, каждый из которых хранит свои тайны. Жена начинает подозревать мужа, сын отца, брат брата…",
  "iframe_url": "",
  "poster": "https://img.imgilall.me/movies/franchise/4/9/3/9/7/0/0/0/0/0/610x900_49397.jpg",
  "country": {
    "2": "Великобритания"
  },
  "collection": [],
  "genre": {
    "6": "Фэнтези",
    "24": "Детектив",
    "13": "Триллер",
    "7": "Драма"
  },
  "director": [
    "Брайан Уэлш"
  ],
  "screenwriter": [
    "Бен Корт",
    "Кэролайн Ип"
  ],
  "producer": [
    "Джейн Фезерстоун",
    "Крис Фрай",
    "Полли Хилл"
  ],
  "operator": [
    "Зак Николсон",
    "Дирк Нель"
  ],
  "composer": [
    "Стюарт Эрл"
  ],
  "design": [
    "Уилл Хьюз-Джоунс",
    "Карл Проберт",
    "Люсинда Райт"
  ],
  "editor": [
    "Аластер Рейд",
    "Дэвид Баррет"
  ],
  "actors": [
    "Коко Англо",
    "Мэтью Эшфорд",
    "Кэролайн Берри",
    "Даниел Кунан",
    "Том Фишер",
    "Макс Фаулер",
    "Эйдан Гиллен",
    "Ричард Хоули",
    "Harry Hunt",
    "Ханна Жан-Баптист"
  ],
  "actors_dubl": [],
  "trivia": [],
  "trailers": [],
  "seasons": [
    {
      "poster": null,
      "release_ru": null,
      "release_world": null,
      "availability": null,
      "iframe_url": "",
      "season": 1,
      "episodes": [
        {
          "episode": 1,
          "name": null,
          "iframe_url": "",
          "iframe_poster": null,
          "release_ru": null,
          "release_world": null,
          "availability": null,
          "voiceActing": [
            "ViruseProject",
            "Eng.Original"
          ],
          "ads": false,
          "subtitle": [
            "Рус. полные"
          ]
        },
        {
          "episode": 2,
          "name": null,
          "iframe_url": "",
          "iframe_poster": null,
          "release_ru": null,
          "release_world": null,
          "availability": null,
          "voiceActing": [
            "ViruseProject",
            "Eng.Original"
          ],
          "ads": false,
          "subtitle": [
            "Рус. полные"
          ]
        },
        {
          "episode": 3,
          "name": null,
          "iframe_url": "",
          "iframe_poster": null,
          "release_ru": null,
          "release_world": null,
          "availability": null,
          "voiceActing": [
            "ViruseProject",
            "Eng.Original"
          ],
          "ads": false,
          "subtitle": [
            "Рус. полные"
          ]
        },
        {
          "episode": 4,
          "name": null,
          "iframe_url": "",
          "iframe_poster": null,
          "release_ru": null,
          "release_world": null,
          "availability": null,
          "voiceActing": [
            "ViruseProject",
            "Eng.Original"
          ],
          "ads": false,
          "subtitle": [
            "Рус. полные"
          ]
        },
        {
          "episode": 5,
          "name": null,
          "iframe_url": "",
          "iframe_poster": null,
          "release_ru": null,
          "release_world": null,
          "availability": null,
          "voiceActing": [
            "ViruseProject",
            "Eng.Original"
          ],
          "ads": false,
          "subtitle": [
            "Рус. полные"
          ]
        }
      ]
    }
  ],
  "voiceActing": [
    "ViruseProject",
    "Eng.Original"
  ],
  "subtitle": [
    "Рус. полные"
  ],
  "parts": []
}
