{
  "id": 49467,
  "name": "Третий сорт",
  "name_eng": "De bas étage",
  "year": 2021,
  "slogan": "—",
  "age": null,
  "type": "film",
  "quality": "TS",
  "imdb": null,
  "imdb_id": "11338144",
  "kinopoisk": null,
  "kinopoisk_id": "1335801",
  "world_art": null,
  "world_art_id": null,
  "time": "86 мин. / 01:26",
  "ads": true,
  "premier": null,
  "premier_rus": null,
  "availability": null,
  "activate_time": "2021-08-13 11:53:00",
  "budget": null,
  "fees_use": null,
  "fees_world": null,
  "fees_rus": null,
  "rate_mpaa": null,
  "description": null,
  "iframe_url": "",
  "iframe_poster": null,
  "poster": "https://img.imgilall.me/movies/franchise/4/9/4/6/7/0/0/0/0/0/610x900_49467.jpg",
  "country": {
    "9": "Франция"
  },
  "collection": [],
  "genre": [],
  "director": [
    "Yassine Qnia"
  ],
  "screenwriter": [
    "Роза Аттаб",
    "Yassine Qnia"
  ],
  "producer": [
    "Паскаль Кочето"
  ],
  "operator": [],
  "composer": [],
  "design": [
    "Элиза Инграссия"
  ],
  "editor": [
    "Alexandre Westphal"
  ],
  "actors": [
    "Софьян Герраб",
    "Сухейла Якуб",
    "Тибо Каталифо",
    "Джамил Маккрейвен",
    "Тассадит Манди",
    "М’Барек Белкук",
    "Inès Melab",
    "Majid Berhila",
    "Майя Рача",
    "Салим Гарби"
  ],
  "actors_dubl": [],
  "trivia": [],
  "trailers": [],
  "seasons": [],
  "voiceActing": [
    "Колобок"
  ],
  "subtitle": [],
  "parts": []
}
