{
  "id": 4948,
  "name": "Влюбись в меня, если осмелишься",
  "name_eng": "Jeux d'enfants",
  "year": 2003,
  "slogan": "«Ты в игре?»",
  "age": "12+",
  "type": "film",
  "quality": "HD (720p)",
  "imdb": "7.6",
  "imdb_id": "0364517",
  "kinopoisk": "7.7",
  "kinopoisk_id": "63920",
  "world_art": null,
  "world_art_id": null,
  "time": "90 мин. / 01:30",
  "ads": false,
  "premier": "2003-08-29",
  "premier_rus": "2004-11-18",
  "availability": null,
  "activate_time": "2018-12-24 12:51:27",
  "budget": null,
  "fees_use": "$553 504",
  "fees_world": "$8 561 371",
  "fees_rus": "$90 000",
  "rate_mpaa": "R",
  "description": "Судьба свела их не зря: вдвоем они были странной, но гармоничной парой. Они придумали игру «осмелишься — не осмелишься», в которой брали друг друга «на слабо». Даже повзрослев, они веселились, делали друг другу больно, страдали, но не хотели друг другу уступать. Они знали, что любят друг друга, но игра всегда возвращалась.",
  "iframe_url": "",
  "iframe_poster": "https://img.imgilall.me/movies/video/4/6/8/8/3/0/0/0/0/0/800x450_46883.jpeg",
  "poster": "https://img.imgilall.me/movies/franchise/4/9/4/8/0/0/0/0/0/0/610x900_4948.jpg",
  "country": {
    "9": "Франция",
    "29": "Бельгия"
  },
  "collection": {
    "92": "Про бывших",
    "36": "Романтические комедии",
    "38": "Про любовь",
    "11": "Для женщин"
  },
  "genre": {
    "19": "Комедия",
    "10": "Зарубежный",
    "8": "Мелодрама",
    "7": "Драма"
  },
  "director": [
    "Ян Самюэль"
  ],
  "screenwriter": [
    "Ян Самюэль"
  ],
  "producer": [
    "Кристоф Россиньон",
    "Ева Мачуэль",
    "Патрик Кине"
  ],
  "operator": [
    "Антуан Рош"
  ],
  "composer": [
    "Филипп Ромби"
  ],
  "design": [
    "Жан-Мишель Симонет",
    "Джули Модуэ"
  ],
  "editor": [
    "Джудит Ривьер Кава",
    "Андреа Седлачкова"
  ],
  "actors": [
    "Гийом Кане",
    "Марион Котийяр",
    "Тибо Верхак",
    "Жозефин Леба-Жоли",
    "Эммануэль Грёнвольд",
    "Жерар Уоткинс",
    "Жиль Леллуш",
    "Жюлия Фор",
    "Литиция Венеция Тарновска",
    "Элоди Наварр"
  ],
  "actors_dubl": [
    "Илья Бледный",
    "Людмила Ильина",
    "Ирина Гришина",
    "Сергей Чекан",
    "Юрий Маляров"
  ],
  "trivia": [
    "Оригинальное французское название — «Игры детей» («Jeux d`enfants»), фразу «Влюбись в меня, если осмелишься» («Love me if you dare») придумали американские дистрибьюторы.",
    "Во время съемок Гийом Кане был женат на Дайан Крюгер, поэтому роман между актером и его партнершей, Марион Котийяр, не вышел за рамки экранного. Зато через четыре года (Кане к тому времени разошелся с Крюгер) Гийом и Марион стали встречаться и в жизни.",
    "Картина посвящена Жерару и Соне, приемным родителям Яна Самюэля. Но они оба погибли в автокатастрофе за неделю до выхода фильма.",
    "Песню Эдит Пиаф «La Vie En Rose» в фильме исполняет французская певица Zazie.",
    "В одной из сцен Жюльен и Софи дают добровольно залить себя в бетон. На самом деле на актеров Гийома Кане и Марион Котийар лили яблочный соус."
  ],
  "trailers": [],
  "seasons": [],
  "voiceActing": [
    "Рус. Дублированный"
  ],
  "subtitle": [],
  "parts": []
}
