{
  "id": 49531,
  "name": "Выжить",
  "name_eng": "Survive",
  "year": 2021,
  "slogan": "—",
  "age": null,
  "type": "film",
  "quality": "FHD (1080p)",
  "imdb": null,
  "imdb_id": "8635134",
  "kinopoisk": null,
  "kinopoisk_id": "1176987",
  "world_art": null,
  "world_art_id": null,
  "time": "71 мин. / 01:11",
  "ads": true,
  "premier": "2021-08-11",
  "premier_rus": null,
  "availability": null,
  "activate_time": "2021-08-15 11:40:00",
  "budget": null,
  "fees_use": null,
  "fees_world": null,
  "fees_rus": null,
  "rate_mpaa": null,
  "description": null,
  "iframe_url": "",
  "iframe_poster": null,
  "poster": "https://img.imgilall.me/movies/franchise/4/9/5/3/1/0/0/0/0/0/610x900_49531.jpg",
  "country": {
    "1": "США"
  },
  "collection": [],
  "genre": {
    "9": "Приключения"
  },
  "director": [
    "Ben Carland"
  ],
  "screenwriter": [
    "Ben Carland"
  ],
  "producer": [
    "Ben Carland"
  ],
  "operator": [
    "Chase Livengood"
  ],
  "composer": [
    "Александр Дэвис"
  ],
  "design": [
    "James Holley"
  ],
  "editor": [
    "Дилан Коррелл"
  ],
  "actors": [
    "Рия Мэй Этвуд",
    "Adam Burnette",
    "Damian Duke Domingue",
    "Тейлор Джирард",
    "Jak Kickliter",
    "Stephanie Renee Morgan",
    "Masefield Starkweather",
    "Jacob Stephen",
    "Дженнифер Трудранг",
    "Блейк Уотсон"
  ],
  "actors_dubl": [],
  "trivia": [],
  "trailers": [],
  "seasons": [],
  "voiceActing": [
    "Синема УС"
  ],
  "subtitle": [],
  "parts": []
}
