{
  "id": 49754,
  "name": "Дневник убийцы",
  "name_eng": "",
  "year": 2002,
  "slogan": "—",
  "age": "12+",
  "type": "series",
  "quality": "SD",
  "imdb": "6.2",
  "imdb_id": "0",
  "kinopoisk": "7.7",
  "kinopoisk_id": "405546",
  "world_art": null,
  "world_art_id": null,
  "time": "44 мин. серия (528 мин. всего)",
  "ads": false,
  "premier": null,
  "premier_rus": "2003-01-08",
  "availability": "2003-01-09",
  "serial_status": "offline",
  "activate_time": "2021-08-19 22:07:00",
  "budget": null,
  "fees_use": null,
  "fees_world": null,
  "fees_rus": null,
  "rate_mpaa": null,
  "description": "Студенты-выпускники устраивают вечеринку в архиве Исторического музея, где случайно находят дневник, датированный 1919 годом. Дневник моментально вызывает интерес, ведь автор с первых строк признается в убийстве пяти человек. Герои не догадываются, какую роль в их жизни сыграет эта находка... Страшные деяния прошлого служат ключом к разгадке целого ряда преступлений, совершенных в наши дни.",
  "iframe_url": "",
  "poster": "https://img.imgilall.me/movies/franchise/4/9/7/5/4/0/0/0/0/0/610x900_49754.jpg",
  "country": {
    "5": "Россия"
  },
  "collection": [],
  "genre": {
    "25": "Криминал",
    "24": "Детектив",
    "13": "Триллер"
  },
  "director": [
    "Кирилл Серебренников"
  ],
  "screenwriter": [
    "Кирилл Серебренников",
    "Михаил Угаров",
    "Елена Гремина"
  ],
  "producer": [
    "Валерий Тодоровский"
  ],
  "operator": [
    "Сергей Мокрицкий"
  ],
  "composer": [
    "Дарин Сысоев",
    "Олег Синкин"
  ],
  "design": [
    "Павел Пархоменко",
    "Татьяна Баранова"
  ],
  "editor": [
    "Александр Курицын",
    "Алла Стрельникова"
  ],
  "actors": [
    "Алексей Гуськов",
    "Галина Кашковская",
    "Александра Куликова",
    "Дмитрий Марьянов",
    "Кирилл Пирогов",
    "Анатолий Белый",
    "Вера Воронкова",
    "Марина Голуб",
    "Валерий Дегтярь",
    "Виктория Исакова"
  ],
  "actors_dubl": [],
  "trivia": [],
  "trailers": [],
  "seasons": [
    {
      "poster": null,
      "release_ru": null,
      "release_world": null,
      "availability": null,
      "iframe_url": "",
      "season": 1,
      "episodes": [
        {
          "episode": 1,
          "name": null,
          "iframe_url": "",
          "iframe_poster": null,
          "release_ru": null,
          "release_world": null,
          "availability": null,
          "voiceActing": [
            "Рус. Оригинальный"
          ],
          "ads": false,
          "subtitle": []
        },
        {
          "episode": 2,
          "name": null,
          "iframe_url": "",
          "iframe_poster": null,
          "release_ru": null,
          "release_world": null,
          "availability": null,
          "voiceActing": [
            "Рус. Оригинальный"
          ],
          "ads": false,
          "subtitle": []
        },
        {
          "episode": 3,
          "name": null,
          "iframe_url": "",
          "iframe_poster": null,
          "release_ru": null,
          "release_world": null,
          "availability": null,
          "voiceActing": [
            "Рус. Оригинальный"
          ],
          "ads": false,
          "subtitle": []
        },
        {
          "episode": 4,
          "name": null,
          "iframe_url": "",
          "iframe_poster": null,
          "release_ru": null,
          "release_world": null,
          "availability": null,
          "voiceActing": [
            "Рус. Оригинальный"
          ],
          "ads": false,
          "subtitle": []
        },
        {
          "episode": 5,
          "name": null,
          "iframe_url": "",
          "iframe_poster": null,
          "release_ru": null,
          "release_world": null,
          "availability": null,
          "voiceActing": [
            "Рус. Оригинальный"
          ],
          "ads": false,
          "subtitle": []
        },
        {
          "episode": 6,
          "name": null,
          "iframe_url": "",
          "iframe_poster": null,
          "release_ru": null,
          "release_world": null,
          "availability": null,
          "voiceActing": [
            "Рус. Оригинальный"
          ],
          "ads": false,
          "subtitle": []
        },
        {
          "episode": 7,
          "name": null,
          "iframe_url": "",
          "iframe_poster": null,
          "release_ru": null,
          "release_world": null,
          "availability": null,
          "voiceActing": [
            "Рус. Оригинальный"
          ],
          "ads": false,
          "subtitle": []
        },
        {
          "episode": 8,
          "name": null,
          "iframe_url": "",
          "iframe_poster": null,
          "release_ru": null,
          "release_world": null,
          "availability": null,
          "voiceActing": [
            "Рус. Оригинальный"
          ],
          "ads": false,
          "subtitle": []
        },
        {
          "episode": 9,
          "name": null,
          "iframe_url": "",
          "iframe_poster": null,
          "release_ru": null,
          "release_world": null,
          "availability": null,
          "voiceActing": [
            "Рус. Оригинальный"
          ],
          "ads": false,
          "subtitle": []
        },
        {
          "episode": 10,
          "name": null,
          "iframe_url": "",
          "iframe_poster": null,
          "release_ru": null,
          "release_world": null,
          "availability": null,
          "voiceActing": [
            "Рус. Оригинальный"
          ],
          "ads": false,
          "subtitle": []
        },
        {
          "episode": 11,
          "name": null,
          "iframe_url": "",
          "iframe_poster": null,
          "release_ru": null,
          "release_world": null,
          "availability": null,
          "voiceActing": [
            "Рус. Оригинальный"
          ],
          "ads": false,
          "subtitle": []
        },
        {
          "episode": 12,
          "name": null,
          "iframe_url": "",
          "iframe_poster": null,
          "release_ru": null,
          "release_world": null,
          "availability": null,
          "voiceActing": [
            "Рус. Оригинальный"
          ],
          "ads": false,
          "subtitle": []
        }
      ]
    }
  ],
  "voiceActing": [
    "Рус. Оригинальный"
  ],
  "subtitle": [],
  "parts": []
}
