{
  "id": 49830,
  "name": "Зависимые",
  "name_eng": "Metri Shesh Va Nim",
  "year": 2019,
  "slogan": "—",
  "age": null,
  "type": "film",
  "quality": "HD (720p)",
  "imdb": "8.0",
  "imdb_id": "9817070",
  "kinopoisk": null,
  "kinopoisk_id": "1241646",
  "world_art": null,
  "world_art_id": null,
  "time": "131 мин. / 02:11",
  "ads": true,
  "premier": "2019-01-30",
  "premier_rus": "2019-01-31",
  "availability": "2019-02-01",
  "activate_time": "2021-08-23 13:42:00",
  "budget": null,
  "fees_use": null,
  "fees_world": null,
  "fees_rus": null,
  "rate_mpaa": null,
  "description": "Самад, сотрудник отдела по борьбе с организованным наркотрафиком, одержим поиском неуловимого наркобарона Насера Хакзада. После серии беспрецедентных по размаху обысков и облав Самаду и его команде удается выйти на след и арестовать преступника. Насера приговаривают к смертной казни. Но отчего торжество правосудия не приносит чувства удовлетворения?",
  "iframe_url": "",
  "iframe_poster": null,
  "poster": "https://img.imgilall.me/movies/franchise/4/9/8/3/0/0/0/0/0/0/610x900_49830.jpg",
  "country": {
    "61": "Иран"
  },
  "collection": [],
  "genre": {
    "25": "Криминал",
    "17": "Боевик",
    "13": "Триллер",
    "7": "Драма"
  },
  "director": [
    "Саид Рустаи"
  ],
  "screenwriter": [
    "Саид Рустаи"
  ],
  "producer": [
    "Мохаммад Садег Ранджекешан",
    "Хоссейн Хадианфар",
    "Джамал Садатян"
  ],
  "operator": [
    "Хооман Бехманеш"
  ],
  "composer": [
    "Пейман Язданьян"
  ],
  "design": [
    "Мосен Насроллахи",
    "Газале Мотамед"
  ],
  "editor": [
    "Бахрам Дехани"
  ],
  "actors": [
    "Пейман Моаади",
    "Навид Мохаммадзаде",
    "Париназ Изадйар",
    "Фархад Аслани",
    "Хуман Киаи",
    "Мазияр Сейеди",
    "Али Багери",
    "Марджан Гамари",
    "Юсеф Хосрави",
    "Мехди Хосейни-ниа"
  ],
  "actors_dubl": [],
  "trivia": [],
  "trailers": [],
  "seasons": [],
  "voiceActing": [
    "Синема УС"
  ],
  "subtitle": [],
  "parts": []
}
