{
  "id": 49871,
  "name": "Убить Байрона Браво",
  "name_eng": "Killing Byron Bravo",
  "year": 2020,
  "slogan": "—",
  "age": null,
  "type": "film",
  "quality": "HD (720p)",
  "imdb": null,
  "imdb_id": "9346994",
  "kinopoisk": null,
  "kinopoisk_id": "1221123",
  "world_art": null,
  "world_art_id": null,
  "time": "—",
  "ads": true,
  "premier": null,
  "premier_rus": null,
  "availability": null,
  "activate_time": "2021-08-24 11:25:00",
  "budget": null,
  "fees_use": null,
  "fees_world": null,
  "fees_rus": null,
  "rate_mpaa": null,
  "description": null,
  "iframe_url": "",
  "iframe_poster": null,
  "poster": "https://img.imgilall.me/movies/franchise/4/9/8/7/1/0/0/0/0/0/610x900_49871.jpg",
  "country": {
    "1": "США"
  },
  "collection": [],
  "genre": {
    "13": "Триллер"
  },
  "director": [
    "Daniel Nunez",
    "Lazaro Nunez"
  ],
  "screenwriter": [
    "Daniel Nunez",
    "Lazaro Nunez"
  ],
  "producer": [
    "Джосу Молина",
    "Daniel Nunez",
    "Lazaro Nunez"
  ],
  "operator": [
    "Daniel Nunez",
    "Lazaro Nunez"
  ],
  "composer": [],
  "design": [],
  "editor": [
    "Daniel Nunez",
    "Lazaro Nunez"
  ],
  "actors": [
    "Daniel Nunez",
    "Junet Morales",
    "Jon Paul",
    "Джосу Молина",
    "Бриттани Фернандес",
    "Carlos Alberto Hernandez",
    "Patrick Sheehan",
    "J.J. Crowne"
  ],
  "actors_dubl": [],
  "trivia": [],
  "trailers": [],
  "seasons": [],
  "voiceActing": [
    "Синема УС"
  ],
  "subtitle": [],
  "parts": []
}
