{
  "id": 4988,
  "name": "Любовь напрокат",
  "name_eng": "Kiralık Aşk",
  "year": 2015,
  "slogan": null,
  "age": "12+",
  "type": "series",
  "quality": "FHD (1080p)",
  "imdb": "7.1",
  "imdb_id": "4787052",
  "kinopoisk": "8.5",
  "kinopoisk_id": "924222",
  "world_art": null,
  "world_art_id": null,
  "time": "120 мин. / 02:00",
  "ads": false,
  "premier": "2015-06-19",
  "premier_rus": null,
  "availability": null,
  "serial_status": "offline",
  "activate_time": "2018-12-25 12:57:06",
  "budget": null,
  "fees_use": null,
  "fees_world": null,
  "fees_rus": null,
  "rate_mpaa": null,
  "description": "Молодой, обаятельный парень Омер преуспевает в модном бизнесе... Ради выгоды, родственники хотят женить его на красивой девушке, которая только вернулась из Америки, получив там образование. Но у нее только и мысли о том, как она будет блистать в высшем свете. Парню эта затея не по душе. Случайно он знакомится с молодой девушкой Дефне, официанткой в кафе, семья которой попала в трудное положение благодаря брату. Для того, чтобы избавится от навязчивой невесты, он целует Дефне на глазах у тети. Тетушка же решила воспользоваться этой ситуацией и подкупила Дефне для достижения своей цели - женить племянника.",
  "iframe_url": "",
  "poster": "https://img.imgilall.me/movies/franchise/4/9/8/8/0/0/0/0/0/0/610x900_4988.jpg",
  "country": {
    "36": "Турция"
  },
  "collection": {
    "36": "Романтические комедии",
    "11": "Для женщин"
  },
  "genre": {
    "19": "Комедия",
    "10": "Зарубежный",
    "8": "Мелодрама"
  },
  "director": [
    "Метин Балекоглу",
    "Барыш Йош",
    "Шенол Сёнмез"
  ],
  "screenwriter": [
    "Илькер Барыш",
    "Мерич Аджеми"
  ],
  "producer": [
    "Müge Turali"
  ],
  "operator": [],
  "composer": [
    "Алпай Гёлтекин",
    "Зейнеп Аласья"
  ],
  "design": [],
  "editor": [],
  "actors": [
    "Эльчин Сангу",
    "Барыш Ардуч",
    "Салих Бадемджи",
    "Синем Озтюрк",
    "Нергис Кумбасар",
    "Левент Юльген",
    "Осман Акча",
    "Онур Бююктопчу",
    "Мелиса Гиз Дженгиз",
    "Керем Фыртына"
  ],
  "actors_dubl": [],
  "trivia": [],
  "trailers": [],
  "seasons": [
    {
      "poster": "https://img.imgilall.me/movies/season/2/9/8/3/0/0/0/0/0/0/610x900_2983.jpg",
      "release_ru": "2015-06-20",
      "release_world": "2015-06-19",
      "availability": "2015-06-21",
      "iframe_url": "",
      "season": 1,
      "episodes": [
        {
          "episode": 1,
          "name": "1. Bölüm",
          "iframe_url": "",
          "iframe_poster": null,
          "release_ru": "2015-06-20",
          "release_world": "2015-06-19",
          "availability": "2015-06-21",
          "voiceActing": [
            "Рус. Люб. одноголосый"
          ],
          "ads": false,
          "subtitle": []
        },
        {
          "episode": 2,
          "name": "2. Bölüm",
          "iframe_url": "",
          "iframe_poster": null,
          "release_ru": "2015-06-27",
          "release_world": "2015-06-26",
          "availability": "2015-06-28",
          "voiceActing": [
            "Рус. Люб. одноголосый"
          ],
          "ads": false,
          "subtitle": []
        },
        {
          "episode": 3,
          "name": "3. Bölüm",
          "iframe_url": "",
          "iframe_poster": null,
          "release_ru": "2015-07-04",
          "release_world": "2015-07-03",
          "availability": "2015-07-05",
          "voiceActing": [
            "Рус. Люб. одноголосый"
          ],
          "ads": false,
          "subtitle": []
        },
        {
          "episode": 4,
          "name": "4. Bölüm",
          "iframe_url": "",
          "iframe_poster": null,
          "release_ru": "2015-07-11",
          "release_world": "2015-07-10",
          "availability": "2015-07-12",
          "voiceActing": [
            "Рус. Люб. одноголосый"
          ],
          "ads": false,
          "subtitle": []
        },
        {
          "episode": 5,
          "name": "5. Bölüm",
          "iframe_url": "",
          "iframe_poster": null,
          "release_ru": "2015-07-18",
          "release_world": "2015-07-17",
          "availability": "2015-07-19",
          "voiceActing": [
            "Рус. Люб. одноголосый"
          ],
          "ads": false,
          "subtitle": []
        },
        {
          "episode": 6,
          "name": "6. Bölüm",
          "iframe_url": "",
          "iframe_poster": null,
          "release_ru": "2015-07-25",
          "release_world": "2015-07-24",
          "availability": "2015-07-26",
          "voiceActing": [
            "Рус. Люб. одноголосый"
          ],
          "ads": false,
          "subtitle": []
        },
        {
          "episode": 7,
          "name": "7. Bölüm",
          "iframe_url": "",
          "iframe_poster": null,
          "release_ru": "2015-08-01",
          "release_world": "2015-07-31",
          "availability": "2015-08-02",
          "voiceActing": [
            "Рус. Люб. одноголосый"
          ],
          "ads": false,
          "subtitle": []
        },
        {
          "episode": 8,
          "name": "8. Bölüm",
          "iframe_url": "",
          "iframe_poster": null,
          "release_ru": "2015-08-08",
          "release_world": "2015-08-07",
          "availability": "2015-08-09",
          "voiceActing": [
            "Рус. Люб. одноголосый"
          ],
          "ads": false,
          "subtitle": []
        },
        {
          "episode": 9,
          "name": "9. Bölüm",
          "iframe_url": "",
          "iframe_poster": null,
          "release_ru": "2015-08-15",
          "release_world": "2015-08-14",
          "availability": "2015-08-16",
          "voiceActing": [
            "Рус. Люб. одноголосый"
          ],
          "ads": false,
          "subtitle": []
        },
        {
          "episode": 10,
          "name": "10. Bölüm",
          "iframe_url": "",
          "iframe_poster": null,
          "release_ru": "2015-08-22",
          "release_world": "2015-08-21",
          "availability": "2015-08-23",
          "voiceActing": [
            "Рус. Люб. одноголосый"
          ],
          "ads": false,
          "subtitle": []
        },
        {
          "episode": 11,
          "name": "11. Bölüm",
          "iframe_url": "",
          "iframe_poster": null,
          "release_ru": "2015-08-29",
          "release_world": "2015-08-28",
          "availability": "2015-08-30",
          "voiceActing": [
            "Рус. Люб. одноголосый"
          ],
          "ads": false,
          "subtitle": []
        },
        {
          "episode": 12,
          "name": "12. Bölüm",
          "iframe_url": "",
          "iframe_poster": null,
          "release_ru": "2015-09-05",
          "release_world": "2015-09-04",
          "availability": "2015-09-06",
          "voiceActing": [
            "Рус. Люб. одноголосый"
          ],
          "ads": false,
          "subtitle": []
        },
        {
          "episode": 13,
          "name": "13. Bölüm",
          "iframe_url": "",
          "iframe_poster": null,
          "release_ru": "2015-09-12",
          "release_world": "2015-09-11",
          "availability": "2015-09-13",
          "voiceActing": [
            "Рус. Люб. одноголосый"
          ],
          "ads": false,
          "subtitle": []
        },
        {
          "episode": 14,
          "name": "14. Bölüm",
          "iframe_url": "",
          "iframe_poster": null,
          "release_ru": "2015-09-19",
          "release_world": "2015-09-18",
          "availability": "2015-09-20",
          "voiceActing": [
            "Рус. Люб. одноголосый"
          ],
          "ads": false,
          "subtitle": []
        },
        {
          "episode": 15,
          "name": "15. Bölüm",
          "iframe_url": "",
          "iframe_poster": null,
          "release_ru": "2015-09-26",
          "release_world": "2015-09-25",
          "availability": "2015-09-27",
          "voiceActing": [
            "Рус. Люб. одноголосый"
          ],
          "ads": false,
          "subtitle": []
        },
        {
          "episode": 16,
          "name": "16. Bölüm",
          "iframe_url": "",
          "iframe_poster": null,
          "release_ru": "2015-10-03",
          "release_world": "2015-10-02",
          "availability": "2015-10-04",
          "voiceActing": [
            "Рус. Люб. одноголосый"
          ],
          "ads": false,
          "subtitle": []
        },
        {
          "episode": 17,
          "name": "17. Bölüm",
          "iframe_url": "",
          "iframe_poster": null,
          "release_ru": "2015-10-10",
          "release_world": "2015-10-09",
          "availability": "2015-10-11",
          "voiceActing": [
            "Рус. Люб. одноголосый"
          ],
          "ads": false,
          "subtitle": []
        },
        {
          "episode": 18,
          "name": "18. Bölüm",
          "iframe_url": "",
          "iframe_poster": null,
          "release_ru": "2015-10-17",
          "release_world": "2015-10-16",
          "availability": "2015-10-18",
          "voiceActing": [
            "Рус. Люб. одноголосый"
          ],
          "ads": false,
          "subtitle": []
        },
        {
          "episode": 19,
          "name": "19. Bölüm",
          "iframe_url": "",
          "iframe_poster": null,
          "release_ru": "2015-10-24",
          "release_world": "2015-10-23",
          "availability": "2015-10-25",
          "voiceActing": [
            "Рус. Люб. одноголосый"
          ],
          "ads": false,
          "subtitle": []
        },
        {
          "episode": 20,
          "name": "20. Bölüm",
          "iframe_url": "",
          "iframe_poster": null,
          "release_ru": "2015-10-31",
          "release_world": "2015-10-30",
          "availability": "2015-11-01",
          "voiceActing": [
            "Рус. Люб. одноголосый"
          ],
          "ads": false,
          "subtitle": []
        },
        {
          "episode": 21,
          "name": "21. Bölüm",
          "iframe_url": "",
          "iframe_poster": null,
          "release_ru": "2015-11-14",
          "release_world": "2015-11-13",
          "availability": "2015-11-15",
          "voiceActing": [
            "Рус. Люб. одноголосый"
          ],
          "ads": false,
          "subtitle": []
        },
        {
          "episode": 22,
          "name": "22. Bölüm",
          "iframe_url": "",
          "iframe_poster": null,
          "release_ru": "2015-11-21",
          "release_world": "2015-11-20",
          "availability": "2015-11-22",
          "voiceActing": [
            "Рус. Люб. одноголосый"
          ],
          "ads": false,
          "subtitle": []
        },
        {
          "episode": 23,
          "name": "23. Bölüm",
          "iframe_url": "",
          "iframe_poster": null,
          "release_ru": "2015-11-28",
          "release_world": "2015-11-27",
          "availability": "2015-11-29",
          "voiceActing": [
            "Рус. Люб. одноголосый"
          ],
          "ads": false,
          "subtitle": []
        },
        {
          "episode": 24,
          "name": "24. Bölüm",
          "iframe_url": "",
          "iframe_poster": null,
          "release_ru": "2015-12-05",
          "release_world": "2015-12-04",
          "availability": "2015-12-06",
          "voiceActing": [
            "Рус. Люб. одноголосый"
          ],
          "ads": false,
          "subtitle": []
        },
        {
          "episode": 25,
          "name": "25. Bölüm",
          "iframe_url": "",
          "iframe_poster": null,
          "release_ru": "2015-12-12",
          "release_world": "2015-12-11",
          "availability": "2015-12-13",
          "voiceActing": [
            "Рус. Люб. одноголосый"
          ],
          "ads": false,
          "subtitle": []
        },
        {
          "episode": 26,
          "name": "26. Bölüm",
          "iframe_url": "",
          "iframe_poster": null,
          "release_ru": "2015-12-19",
          "release_world": "2015-12-18",
          "availability": "2015-12-20",
          "voiceActing": [
            "Рус. Люб. одноголосый"
          ],
          "ads": false,
          "subtitle": []
        },
        {
          "episode": 27,
          "name": "27. Bölüm",
          "iframe_url": "",
          "iframe_poster": null,
          "release_ru": "2015-12-26",
          "release_world": "2015-12-25",
          "availability": "2015-12-27",
          "voiceActing": [
            "Рус. Люб. одноголосый"
          ],
          "ads": false,
          "subtitle": []
        },
        {
          "episode": 28,
          "name": "28. Bölüm",
          "iframe_url": "",
          "iframe_poster": null,
          "release_ru": "2016-01-02",
          "release_world": "2016-01-01",
          "availability": "2016-01-03",
          "voiceActing": [
            "Рус. Люб. одноголосый"
          ],
          "ads": false,
          "subtitle": []
        },
        {
          "episode": 29,
          "name": "29. Bölüm",
          "iframe_url": "",
          "iframe_poster": null,
          "release_ru": "2016-01-16",
          "release_world": "2016-01-15",
          "availability": "2016-01-17",
          "voiceActing": [
            "Рус. Люб. одноголосый"
          ],
          "ads": false,
          "subtitle": []
        },
        {
          "episode": 30,
          "name": "30. Bölüm",
          "iframe_url": "",
          "iframe_poster": null,
          "release_ru": "2016-01-23",
          "release_world": "2016-01-22",
          "availability": "2016-01-24",
          "voiceActing": [
            "Рус. Люб. одноголосый"
          ],
          "ads": false,
          "subtitle": []
        },
        {
          "episode": 31,
          "name": "31. Bölüm",
          "iframe_url": "",
          "iframe_poster": null,
          "release_ru": "2016-01-30",
          "release_world": "2016-01-29",
          "availability": "2016-01-31",
          "voiceActing": [
            "Рус. Люб. одноголосый"
          ],
          "ads": false,
          "subtitle": []
        },
        {
          "episode": 32,
          "name": "32. Bölüm",
          "iframe_url": "",
          "iframe_poster": null,
          "release_ru": "2016-02-06",
          "release_world": "2016-02-05",
          "availability": "2016-02-07",
          "voiceActing": [
            "Рус. Люб. одноголосый"
          ],
          "ads": false,
          "subtitle": []
        },
        {
          "episode": 33,
          "name": "33. Bölüm",
          "iframe_url": "",
          "iframe_poster": null,
          "release_ru": "2016-02-13",
          "release_world": "2016-02-12",
          "availability": "2016-02-14",
          "voiceActing": [
            "Рус. Люб. одноголосый"
          ],
          "ads": false,
          "subtitle": []
        },
        {
          "episode": 34,
          "name": "34. Bölüm",
          "iframe_url": "",
          "iframe_poster": null,
          "release_ru": "2016-02-20",
          "release_world": "2016-02-19",
          "availability": "2016-02-21",
          "voiceActing": [
            "И. Котова"
          ],
          "ads": false,
          "subtitle": []
        },
        {
          "episode": 35,
          "name": "35. Bölüm",
          "iframe_url": "",
          "iframe_poster": null,
          "release_ru": "2016-02-27",
          "release_world": "2016-02-26",
          "availability": "2016-02-28",
          "voiceActing": [
            "И. Котова"
          ],
          "ads": false,
          "subtitle": []
        },
        {
          "episode": 36,
          "name": "36. Bölüm",
          "iframe_url": "",
          "iframe_poster": null,
          "release_ru": "2016-03-05",
          "release_world": "2016-03-04",
          "availability": "2016-03-06",
          "voiceActing": [
            "Рус. Люб. одноголосый"
          ],
          "ads": false,
          "subtitle": []
        },
        {
          "episode": 37,
          "name": "37. Bölüm",
          "iframe_url": "",
          "iframe_poster": null,
          "release_ru": "2016-03-12",
          "release_world": "2016-03-11",
          "availability": "2016-03-13",
          "voiceActing": [
            "И. Котова"
          ],
          "ads": false,
          "subtitle": []
        },
        {
          "episode": 38,
          "name": "38. Bölüm",
          "iframe_url": "",
          "iframe_poster": null,
          "release_ru": "2016-03-19",
          "release_world": "2016-03-18",
          "availability": "2016-03-20",
          "voiceActing": [
            "Рус. Люб. одноголосый"
          ],
          "ads": false,
          "subtitle": []
        },
        {
          "episode": 39,
          "name": "39. Bölüm",
          "iframe_url": "",
          "iframe_poster": null,
          "release_ru": "2016-03-26",
          "release_world": "2016-03-25",
          "availability": "2016-03-27",
          "voiceActing": [
            "И. Котова"
          ],
          "ads": false,
          "subtitle": []
        },
        {
          "episode": 40,
          "name": "40. Bölüm",
          "iframe_url": "",
          "iframe_poster": null,
          "release_ru": "2016-04-02",
          "release_world": "2016-04-01",
          "availability": "2016-04-03",
          "voiceActing": [
            "Рус. Люб. одноголосый"
          ],
          "ads": false,
          "subtitle": []
        },
        {
          "episode": 41,
          "name": "41. Bölüm",
          "iframe_url": "",
          "iframe_poster": null,
          "release_ru": "2016-04-09",
          "release_world": "2016-04-08",
          "availability": "2016-04-10",
          "voiceActing": [
            "И. Котова"
          ],
          "ads": false,
          "subtitle": []
        },
        {
          "episode": 42,
          "name": "42. Bölüm",
          "iframe_url": "",
          "iframe_poster": null,
          "release_ru": "2016-04-16",
          "release_world": "2016-04-15",
          "availability": "2016-04-17",
          "voiceActing": [
            "И. Котова"
          ],
          "ads": false,
          "subtitle": []
        },
        {
          "episode": 43,
          "name": "43. Bölüm",
          "iframe_url": "",
          "iframe_poster": null,
          "release_ru": "2016-04-23",
          "release_world": "2016-04-22",
          "availability": "2016-04-24",
          "voiceActing": [
            "И. Котова"
          ],
          "ads": false,
          "subtitle": []
        },
        {
          "episode": 44,
          "name": "44. Bölüm",
          "iframe_url": "",
          "iframe_poster": null,
          "release_ru": "2016-04-30",
          "release_world": "2016-04-29",
          "availability": "2016-05-01",
          "voiceActing": [
            "И. Котова"
          ],
          "ads": false,
          "subtitle": []
        },
        {
          "episode": 45,
          "name": "45. Bölüm",
          "iframe_url": "",
          "iframe_poster": null,
          "release_ru": "2016-05-07",
          "release_world": "2016-05-06",
          "availability": "2016-05-08",
          "voiceActing": [
            "И. Котова"
          ],
          "ads": false,
          "subtitle": []
        },
        {
          "episode": 46,
          "name": "46. Bölüm",
          "iframe_url": "",
          "iframe_poster": null,
          "release_ru": "2016-05-14",
          "release_world": "2016-05-13",
          "availability": "2016-05-15",
          "voiceActing": [
            "И. Котова"
          ],
          "ads": false,
          "subtitle": []
        },
        {
          "episode": 47,
          "name": "47. Bölüm",
          "iframe_url": "",
          "iframe_poster": null,
          "release_ru": "2016-05-21",
          "release_world": "2016-05-20",
          "availability": "2016-05-22",
          "voiceActing": [
            "И. Котова"
          ],
          "ads": false,
          "subtitle": []
        },
        {
          "episode": 48,
          "name": "48. Bölüm",
          "iframe_url": "",
          "iframe_poster": null,
          "release_ru": "2016-05-28",
          "release_world": "2016-05-27",
          "availability": "2016-05-29",
          "voiceActing": [
            "И. Котова"
          ],
          "ads": false,
          "subtitle": []
        },
        {
          "episode": 49,
          "name": "49. Bölüm",
          "iframe_url": "",
          "iframe_poster": null,
          "release_ru": "2016-06-04",
          "release_world": "2016-06-03",
          "availability": "2016-06-05",
          "voiceActing": [
            "И. Котова"
          ],
          "ads": false,
          "subtitle": []
        },
        {
          "episode": 50,
          "name": "50. Bölüm",
          "iframe_url": "",
          "iframe_poster": null,
          "release_ru": "2016-06-11",
          "release_world": "2016-06-10",
          "availability": "2016-06-12",
          "voiceActing": [
            "И. Котова"
          ],
          "ads": false,
          "subtitle": []
        },
        {
          "episode": 51,
          "name": "51. Bölüm",
          "iframe_url": "",
          "iframe_poster": null,
          "release_ru": "2016-06-18",
          "release_world": "2016-06-17",
          "availability": "2016-06-19",
          "voiceActing": [
            "И. Котова"
          ],
          "ads": false,
          "subtitle": []
        },
        {
          "episode": 52,
          "name": "52. Bölüm",
          "iframe_url": "",
          "iframe_poster": null,
          "release_ru": "2016-06-25",
          "release_world": "2016-06-24",
          "availability": "2016-06-26",
          "voiceActing": [
            "И. Котова"
          ],
          "ads": false,
          "subtitle": []
        }
      ]
    },
    {
      "poster": "https://img.imgilall.me/movies/season/2/9/8/4/0/0/0/0/0/0/610x900_2984.jpg",
      "release_ru": "2016-09-24",
      "release_world": "2016-09-23",
      "availability": "2016-09-25",
      "iframe_url": "",
      "season": 2,
      "episodes": [
        {
          "episode": 53,
          "name": null,
          "iframe_url": "",
          "iframe_poster": null,
          "release_ru": null,
          "release_world": null,
          "availability": null,
          "voiceActing": [
            "И. Котова"
          ],
          "ads": false,
          "subtitle": []
        },
        {
          "episode": 54,
          "name": null,
          "iframe_url": "",
          "iframe_poster": null,
          "release_ru": null,
          "release_world": null,
          "availability": null,
          "voiceActing": [
            "И. Котова"
          ],
          "ads": false,
          "subtitle": []
        },
        {
          "episode": 55,
          "name": null,
          "iframe_url": "",
          "iframe_poster": null,
          "release_ru": null,
          "release_world": null,
          "availability": null,
          "voiceActing": [
            "И. Котова"
          ],
          "ads": false,
          "subtitle": []
        },
        {
          "episode": 56,
          "name": null,
          "iframe_url": "",
          "iframe_poster": null,
          "release_ru": null,
          "release_world": null,
          "availability": null,
          "voiceActing": [
            "И. Котова"
          ],
          "ads": false,
          "subtitle": []
        },
        {
          "episode": 57,
          "name": null,
          "iframe_url": "",
          "iframe_poster": null,
          "release_ru": null,
          "release_world": null,
          "availability": null,
          "voiceActing": [
            "И. Котова"
          ],
          "ads": false,
          "subtitle": []
        },
        {
          "episode": 58,
          "name": null,
          "iframe_url": "",
          "iframe_poster": null,
          "release_ru": null,
          "release_world": null,
          "availability": null,
          "voiceActing": [
            "И. Котова"
          ],
          "ads": false,
          "subtitle": []
        },
        {
          "episode": 59,
          "name": null,
          "iframe_url": "",
          "iframe_poster": null,
          "release_ru": null,
          "release_world": null,
          "availability": null,
          "voiceActing": [
            "И. Котова"
          ],
          "ads": false,
          "subtitle": []
        },
        {
          "episode": 60,
          "name": null,
          "iframe_url": "",
          "iframe_poster": null,
          "release_ru": null,
          "release_world": null,
          "availability": null,
          "voiceActing": [
            "И. Котова"
          ],
          "ads": false,
          "subtitle": []
        },
        {
          "episode": 61,
          "name": null,
          "iframe_url": "",
          "iframe_poster": null,
          "release_ru": null,
          "release_world": null,
          "availability": null,
          "voiceActing": [
            "И. Котова"
          ],
          "ads": false,
          "subtitle": []
        },
        {
          "episode": 62,
          "name": null,
          "iframe_url": "",
          "iframe_poster": null,
          "release_ru": null,
          "release_world": null,
          "availability": null,
          "voiceActing": [
            "И. Котова"
          ],
          "ads": false,
          "subtitle": []
        },
        {
          "episode": 63,
          "name": null,
          "iframe_url": "",
          "iframe_poster": null,
          "release_ru": null,
          "release_world": null,
          "availability": null,
          "voiceActing": [
            "И. Котова"
          ],
          "ads": false,
          "subtitle": []
        },
        {
          "episode": 64,
          "name": null,
          "iframe_url": "",
          "iframe_poster": null,
          "release_ru": null,
          "release_world": null,
          "availability": null,
          "voiceActing": [
            "И. Котова"
          ],
          "ads": false,
          "subtitle": []
        },
        {
          "episode": 65,
          "name": null,
          "iframe_url": "",
          "iframe_poster": null,
          "release_ru": null,
          "release_world": null,
          "availability": null,
          "voiceActing": [
            "И. Котова"
          ],
          "ads": false,
          "subtitle": []
        },
        {
          "episode": 66,
          "name": null,
          "iframe_url": "",
          "iframe_poster": null,
          "release_ru": null,
          "release_world": null,
          "availability": null,
          "voiceActing": [
            "И. Котова"
          ],
          "ads": false,
          "subtitle": []
        },
        {
          "episode": 67,
          "name": null,
          "iframe_url": "",
          "iframe_poster": null,
          "release_ru": null,
          "release_world": null,
          "availability": null,
          "voiceActing": [
            "И. Котова"
          ],
          "ads": false,
          "subtitle": []
        },
        {
          "episode": 68,
          "name": null,
          "iframe_url": "",
          "iframe_poster": null,
          "release_ru": null,
          "release_world": null,
          "availability": null,
          "voiceActing": [
            "И. Котова"
          ],
          "ads": false,
          "subtitle": []
        },
        {
          "episode": 69,
          "name": null,
          "iframe_url": "",
          "iframe_poster": null,
          "release_ru": null,
          "release_world": null,
          "availability": null,
          "voiceActing": [
            "И. Котова"
          ],
          "ads": false,
          "subtitle": []
        }
      ]
    }
  ],
  "voiceActing": [
    "Рус. Люб. одноголосый",
    "И. Котова"
  ],
  "subtitle": [],
  "parts": []
}
