{
  "id": 49937,
  "name": "Афросамурай: Воскрешение",
  "name_eng": "Afro Samurai: Resurrection",
  "year": 2009,
  "slogan": "«There's no such thing as final vengeance!»",
  "age": null,
  "type": "cartoon",
  "quality": "FHD (1080p)",
  "imdb": "7.2",
  "imdb_id": "1265998",
  "kinopoisk": "6.9",
  "kinopoisk_id": "421997",
  "world_art": null,
  "world_art_id": null,
  "time": "101 мин. / 01:41",
  "ads": false,
  "premier": "2009-01-25",
  "premier_rus": "2009-01-26",
  "availability": "2009-01-27",
  "activate_time": "2021-08-24 19:11:00",
  "budget": null,
  "fees_use": null,
  "fees_world": null,
  "fees_rus": null,
  "rate_mpaa": null,
  "description": "Отомстив за отца, Афро решил пожить мирно. Но разве оставят в покое сильнейшего воина на свете?! Конечно нет! Вскоре легендарного мастера насильно втягивает в игру красивая и смертоносная женщина из его прошлого. Окончательной мести не существует! Сражения вокруг повязки №1 должны продолжаться!",
  "iframe_url": "",
  "iframe_poster": null,
  "poster": "https://img.imgilall.me/movies/franchise/4/9/9/3/7/0/0/0/0/0/610x900_49937.jpg",
  "country": {
    "1": "США",
    "18": "Япония"
  },
  "collection": [],
  "genre": {
    "9": "Приключения",
    "11": "Фантастика",
    "6": "Фэнтези",
    "17": "Боевик",
    "7": "Драма"
  },
  "director": [
    "Фуминори Кидзаки"
  ],
  "screenwriter": [
    "Эрик Калдерон",
    "Лео Чу",
    "Джошуа Хейл Фиалков"
  ],
  "producer": [
    "Эрик Калдерон",
    "Крис Карлайл",
    "Лео Чу"
  ],
  "operator": [],
  "composer": [
    "RZA"
  ],
  "design": [
    "Сигэми Икэда"
  ],
  "editor": [],
  "actors": [
    "Сэмюэл Л. Джексон",
    "Люси Лью",
    "Марк Хэмилл",
    "Грэй Гриффин",
    "Дейв Уиттенберг",
    "Лайам О’Брайэн",
    "Захари Гордан",
    "Юрий Ловенталь",
    "Джефф Беннетт",
    "Стивен Блум"
  ],
  "actors_dubl": [],
  "trivia": [],
  "trailers": [],
  "seasons": [],
  "voiceActing": [
    "2x2",
    "А. Гаврилов",
    "Рус. Люб. многоголосый",
    "Original"
  ],
  "subtitle": [
    "Рус. полные"
  ],
  "parts": []
}
