{
  "id": 49954,
  "name": "Комната вечности",
  "name_eng": "The Forever Room",
  "year": 2021,
  "slogan": "—",
  "age": null,
  "type": "film",
  "quality": "HD (720p)",
  "imdb": "2.9",
  "imdb_id": "12810356",
  "kinopoisk": null,
  "kinopoisk_id": "1446478",
  "world_art": null,
  "world_art_id": null,
  "time": "89 мин. / 01:29",
  "ads": true,
  "premier": "2021-08-24",
  "premier_rus": null,
  "availability": null,
  "activate_time": "2021-08-25 11:38:00",
  "budget": null,
  "fees_use": null,
  "fees_world": null,
  "fees_rus": null,
  "rate_mpaa": null,
  "description": null,
  "iframe_url": "",
  "iframe_poster": null,
  "poster": "https://img.imgilall.me/movies/franchise/4/9/9/5/4/0/0/0/0/0/610x900_49954.jpg",
  "country": {
    "1": "США"
  },
  "collection": [],
  "genre": {
    "26": "Ужасы"
  },
  "director": [
    "Кевин Хикс"
  ],
  "screenwriter": [
    "Вики Хикс"
  ],
  "producer": [
    "Christopher W. Hicks",
    "Кевин Хикс",
    "Вики Хикс"
  ],
  "operator": [
    "Kyle Carr"
  ],
  "composer": [
    "Lonnie Park"
  ],
  "design": [
    "Вики Хикс"
  ],
  "editor": [
    "Кевин Хикс"
  ],
  "actors": [
    "Samantha Valletta",
    "Вики Хикс",
    "Кевин Хикс",
    "Luca Iacovetti",
    "Николь Скелли",
    "Michelle Hicks",
    "Christopher Hicks"
  ],
  "actors_dubl": [],
  "trivia": [],
  "trailers": [],
  "seasons": [],
  "voiceActing": [
    "@MUZOBOZ@"
  ],
  "subtitle": [],
  "parts": []
}
