{
  "id": 49986,
  "name": "Наша новая жизнь",
  "name_eng": "Our New Life",
  "year": 2019,
  "slogan": null,
  "age": null,
  "type": "film",
  "quality": "HD (720p)",
  "imdb": null,
  "imdb_id": null,
  "kinopoisk": null,
  "kinopoisk_id": null,
  "world_art": null,
  "world_art_id": null,
  "time": null,
  "ads": true,
  "premier": null,
  "premier_rus": null,
  "availability": null,
  "activate_time": "2021-08-26 14:29:00",
  "budget": null,
  "fees_use": null,
  "fees_world": null,
  "fees_rus": null,
  "rate_mpaa": null,
  "description": null,
  "iframe_url": "",
  "iframe_poster": null,
  "poster": "https://img.imgilall.me/movies/franchise/4/9/9/8/6/0/0/0/0/0/610x900_49986.jpeg",
  "country": {
    "19": "Китай"
  },
  "collection": [],
  "genre": {
    "7": "Драма"
  },
  "director": [],
  "screenwriter": [],
  "producer": [],
  "operator": [],
  "composer": [],
  "design": [],
  "editor": [],
  "actors": [],
  "actors_dubl": [],
  "trivia": [],
  "trailers": [],
  "seasons": [],
  "voiceActing": [
    "Колобок"
  ],
  "subtitle": [],
  "parts": []
}
