{
  "id": 50002,
  "name": "Волчья кровь",
  "name_eng": "",
  "year": 1995,
  "slogan": "—",
  "age": "16+",
  "type": "film",
  "quality": "SD",
  "imdb": "6.8",
  "imdb_id": "0",
  "kinopoisk": "7.0",
  "kinopoisk_id": "41435",
  "world_art": null,
  "world_art_id": null,
  "time": "85 мин. / 01:25",
  "ads": false,
  "premier": null,
  "premier_rus": "1995-08-19",
  "availability": "1995-08-20",
  "activate_time": "2021-08-26 17:23:00",
  "budget": null,
  "fees_use": null,
  "fees_world": null,
  "fees_rus": null,
  "rate_mpaa": null,
  "description": "Особый отряд по борьбе с бандитизмом под командованием Родиона Добрых действует в страшное время. Страна расколота. Непонятно кто «за красных», а кто - «за белых». Бандиты с мародерами регулярно совершают вылазки из лесов, грабя и убивая жителей сел и деревень. Люди запуганы и запутаны.Попытки отряда Родиона Добрых навести порядок в родных местах, сталкиваются с безумной жестокостью этой кровавой войны, Бандиты повесили его отца, и в душе не остается места ни для чего, кроме планов мести. Всепоглощающей мести, которая разъедает душу комиссара изнутри, заставляя бороться с врагами до последней капли крови...",
  "iframe_url": "",
  "iframe_poster": null,
  "poster": "https://img.imgilall.me/movies/franchise/5/0/0/0/2/0/0/0/0/0/610x900_50002.jpg",
  "country": {
    "5": "Россия"
  },
  "collection": [],
  "genre": {
    "17": "Боевик"
  },
  "director": [
    "Николай Стамбула"
  ],
  "screenwriter": [
    "Николай Стамбула",
    "Леонид Мончинский"
  ],
  "producer": [
    "Михаил Глузман",
    "Николай Стамбула"
  ],
  "operator": [
    "Радик Аскаров"
  ],
  "composer": [
    "Владимир Комаров"
  ],
  "design": [
    "Павел Сафонов",
    "Вера Романова"
  ],
  "editor": [
    "Леонид Мэлман"
  ],
  "actors": [
    "Евгений Сидихин",
    "Александр Казаков",
    "Регимантас Адомайтис",
    "Любомирас Лауцявичюс",
    "Сергей Гармаш",
    "Владимир Кашпур",
    "Наталья Егорова",
    "Алина Таркинская",
    "Виктор Степанов",
    "Елена Павличенко"
  ],
  "actors_dubl": [
    "Александр Казаков",
    "Никита Высоцкий",
    "Никита Джигурда"
  ],
  "trivia": [],
  "trailers": [],
  "seasons": [],
  "voiceActing": [
    "Рус. Оригинальный"
  ],
  "subtitle": [],
  "parts": []
}
