{
  "id": 50023,
  "name": "Мое прозрачное сердце",
  "name_eng": "Et mon coeur transparent",
  "year": 2017,
  "slogan": "—",
  "age": null,
  "type": "film",
  "quality": "HD (720p)",
  "imdb": "5.5",
  "imdb_id": "4860100",
  "kinopoisk": null,
  "kinopoisk_id": "922579",
  "world_art": null,
  "world_art_id": null,
  "time": "86 мин. / 01:26",
  "ads": true,
  "premier": "2017-08-31",
  "premier_rus": "2017-09-01",
  "availability": "2017-09-02",
  "activate_time": "2021-08-27 15:16:00",
  "budget": null,
  "fees_use": null,
  "fees_world": null,
  "fees_rus": null,
  "rate_mpaa": null,
  "description": null,
  "iframe_url": "",
  "iframe_poster": null,
  "poster": "https://img.imgilall.me/movies/franchise/5/0/0/2/3/0/0/0/0/0/610x900_50023.jpg",
  "country": {
    "9": "Франция"
  },
  "collection": [],
  "genre": {
    "7": "Драма"
  },
  "director": [
    "David Vital-Durand",
    "Raphaël Vital-Durand"
  ],
  "screenwriter": [
    "Стефани Микель",
    "David Vital-Durand",
    "Raphaël Vital-Durand"
  ],
  "producer": [
    "Марк Андреани",
    "Эрван Куак",
    "Véronique Navette"
  ],
  "operator": [
    "Жером Робер"
  ],
  "composer": [
    "Эрван Куак"
  ],
  "design": [
    "Benjamin Roth",
    "Сандрин Бернард"
  ],
  "editor": [
    "Ричард Марици"
  ],
  "actors": [
    "Жюльен Буасселье",
    "Катерина Мурино",
    "Серж Рябукин",
    "Сара Жиродо",
    "Магали Берди",
    "Мишель Бомпуа",
    "Мишель Ферраччи",
    "Kelly Da Costa",
    "Джули Марбеф",
    "Жан-Баптист Филиппи"
  ],
  "actors_dubl": [],
  "trivia": [],
  "trailers": [],
  "seasons": [],
  "voiceActing": [
    "Синема УС"
  ],
  "subtitle": [],
  "parts": []
}
