{
  "id": 50065,
  "name": "Карта секса и любви",
  "name_eng": "Qingse ditu",
  "year": 2001,
  "slogan": "—",
  "age": null,
  "type": "film",
  "quality": "SD",
  "imdb": "5.2",
  "imdb_id": "0279351",
  "kinopoisk": null,
  "kinopoisk_id": "56085",
  "world_art": null,
  "world_art_id": null,
  "time": "140 мин. / 02:20",
  "ads": false,
  "premier": "2001-04-08",
  "premier_rus": "2001-04-09",
  "availability": "2001-04-10",
  "activate_time": "2021-08-29 10:00:00",
  "budget": null,
  "fees_use": null,
  "fees_world": null,
  "fees_rus": null,
  "rate_mpaa": null,
  "description": "Режиссер происхождением из Гонконга возвращается в родной город с задачей снять фильм о строительстве Диснейленда в Гонконге. При этом этот парень — гей и вместо того, чтобы снимать фильм он погружается в атмосферу гей-жизни города. Он встречается с различными парнями в поисках любви и документирует свои встречи, снимая их на камеру.",
  "iframe_url": "",
  "iframe_poster": null,
  "poster": "https://img.imgilall.me/movies/franchise/5/0/0/6/5/0/0/0/0/0/610x900_50065.jpg",
  "country": {
    "12": "Гонконг"
  },
  "collection": [],
  "genre": {
    "7": "Драма"
  },
  "director": [
    "Эванс Чан"
  ],
  "screenwriter": [
    "Эванс Чан"
  ],
  "producer": [
    "Tad Doyle",
    "Wong Sek Fong",
    "Расселл Фридман"
  ],
  "operator": [
    "О Син-Пуй"
  ],
  "composer": [
    "Milos Raickovich"
  ],
  "design": [
    "Гилл Вонг",
    "Уильям Фан"
  ],
  "editor": [
    "Гаррет Соколофф"
  ],
  "actors": [
    "Виктор Ма",
    "Шери Хо",
    "Бернардо Чоу",
    "Lindzay Chan",
    "Paco Lam",
    "Goh Boon Ann",
    "Jenny Wu Yee Man",
    "Danny Tam",
    "Тэнг Уинг Сунь",
    "Тсе Юк Нгор"
  ],
  "actors_dubl": [],
  "trivia": [],
  "trailers": [],
  "seasons": [],
  "voiceActing": [
    "Рус. Люб. одноголосый"
  ],
  "subtitle": [],
  "parts": []
}
