{
  "id": 50130,
  "name": "Джанго 2: Возвращение",
  "name_eng": "Django 2 - Il grande ritorno",
  "year": 1987,
  "slogan": "«100% Over-The-Top Action!»",
  "age": "18+",
  "type": "film",
  "quality": "SD",
  "imdb": "5.4",
  "imdb_id": "0093113",
  "kinopoisk": "5.7",
  "kinopoisk_id": "14512",
  "world_art": null,
  "world_art_id": null,
  "time": "88 мин. / 01:28",
  "ads": false,
  "premier": "1987-10-22",
  "premier_rus": "1987-10-23",
  "availability": "1987-10-24",
  "activate_time": "2021-08-30 22:25:00",
  "budget": null,
  "fees_use": null,
  "fees_world": null,
  "fees_rus": null,
  "rate_mpaa": null,
  "description": "Джанго после баталий первого фильма ушел с горя в монастырь. Но в один прекрасный день к нему приезжает больная женщина и сообщает, что у нее от Джанго есть дочь Марисоль. Вскоре она умирает, Джанго идет искать свою дочь и узнает, что злой работорговец сеет смерть и горе по всему краю. Джанго тоже попадает на рудники, узнав, что его дочь стала собственностью негодяя...",
  "iframe_url": "",
  "iframe_poster": null,
  "poster": "https://img.imgilall.me/movies/franchise/5/0/1/3/0/0/0/0/0/0/610x900_50130.jpg",
  "country": {
    "8": "Италия"
  },
  "collection": [],
  "genre": {
    "29": "Вестерн"
  },
  "director": [
    "Нелло Россати"
  ],
  "screenwriter": [
    "Серджио Корбуччи",
    "Франко Реджани",
    "Нелло Россати"
  ],
  "producer": [
    "Лучано Мартино"
  ],
  "operator": [
    "Сандро Манкори"
  ],
  "composer": [
    "Джанфранко Пленицио"
  ],
  "design": [
    "Марко Каневари",
    "Тони Россати"
  ],
  "editor": [
    "Адальберто Чеккарелли"
  ],
  "actors": [
    "Франко Неро",
    "Кристофер Коннелли",
    "Личиния Лентини",
    "Вильям Бергер",
    "Роберто Поссе",
    "Алессандро Ди Кио",
    "Родриго Обрегон",
    "Miguel Carreno",
    "Билл Мур",
    "Консуэло Реина"
  ],
  "actors_dubl": [],
  "trivia": [],
  "trailers": [],
  "seasons": [],
  "voiceActing": [
    "Рус. Проф. двухголосый"
  ],
  "subtitle": [],
  "parts": []
}
