{
  "id": 50203,
  "name": "Прощай, любимый!",
  "name_eng": "",
  "year": 2017,
  "slogan": "—",
  "age": "16+",
  "type": "film",
  "quality": "HD (720p)",
  "imdb": null,
  "imdb_id": null,
  "kinopoisk": "7.0",
  "kinopoisk_id": "1112335",
  "world_art": null,
  "world_art_id": null,
  "time": "7 мин.",
  "ads": false,
  "premier": null,
  "premier_rus": null,
  "availability": null,
  "activate_time": "2021-09-01 22:47:00",
  "budget": null,
  "fees_use": null,
  "fees_world": null,
  "fees_rus": null,
  "rate_mpaa": null,
  "description": "Монолог взрослой женщины, от которой муж уходит к молодой любовнице. Зритель до последнего кадра не понимает, говорит ли героиня с мужем или просто репетирует будущий разговор, в котором она благодарит мужа за годы вместе, убеждает в правильности его решения, в честности выбора сердцем, вспоминает трогательные моменты их совместного прошлого, отпускает мужа и обещает справиться со своим одиночеством. И только неожиданный финал раскрывает зрителю истинное желание женщины в такой момент.",
  "iframe_url": "",
  "iframe_poster": null,
  "poster": "https://img.imgilall.me/movies/franchise/5/0/2/0/3/0/0/0/0/0/610x900_50203.jpeg",
  "country": {
    "5": "Россия"
  },
  "collection": {
    "119": "START"
  },
  "genre": {
    "53": "Короткометражный"
  },
  "director": [
    "Ксения Раппопорт",
    "Павел Капинос",
    "Александр Цыпкин"
  ],
  "screenwriter": [
    "Ксения Раппопорт",
    "Павел Капинос",
    "Александр Цыпкин"
  ],
  "producer": [
    "Елена Янбухтина"
  ],
  "operator": [
    "Павел Капинос"
  ],
  "composer": [],
  "design": [],
  "editor": [
    "Сергей Белик"
  ],
  "actors": [
    "Ксения Раппопорт",
    "Александр Цыпкин"
  ],
  "actors_dubl": [],
  "trivia": [],
  "trailers": [],
  "seasons": [],
  "voiceActing": [
    "Рус. Оригинальный"
  ],
  "subtitle": [],
  "parts": []
}
