{
  "id": 50200,
  "name": "Близкие люди",
  "name_eng": "",
  "year": 2016,
  "slogan": "—",
  "age": "16+",
  "type": "series",
  "quality": null,
  "imdb": null,
  "imdb_id": null,
  "kinopoisk": null,
  "kinopoisk_id": "1111797",
  "world_art": null,
  "world_art_id": null,
  "time": "30 мин.",
  "ads": false,
  "premier": null,
  "premier_rus": null,
  "availability": null,
  "serial_status": "offline",
  "activate_time": "2021-09-01 11:45:00",
  "budget": null,
  "fees_use": null,
  "fees_world": null,
  "fees_rus": null,
  "rate_mpaa": null,
  "description": "Супруги переживают кризис отношений. Конфликт пары разгорается на фоне присутствия в доме тяжело больной матери, требующей постоянного внимания своего сына. Он верит, что все трудности можно преодолеть, и, разрываясь между двумя близкими людьми, старается угодить всем. Супруга же видит только один способ спасти рассыпающийся брак — отвезти мать в дом престарелых. Чтобы остаться вместе, каждый должен сделать непростой выбор.",
  "iframe_url": "",
  "poster": "https://img.imgilall.me/movies/franchise/5/0/2/0/0/0/0/0/0/0/610x900_50200.jpg",
  "country": {
    "5": "Россия"
  },
  "collection": {
    "119": "START"
  },
  "genre": {
    "53": "Короткометражный"
  },
  "director": [
    "Анна Симакова"
  ],
  "screenwriter": [
    "Анна Симакова",
    "Юлия Соловьева"
  ],
  "producer": [],
  "operator": [
    "Алексей Петрушкевич"
  ],
  "composer": [
    "Вячеслав Ткач"
  ],
  "design": [
    "Евгения Ленева"
  ],
  "editor": [
    "Анна Крутий"
  ],
  "actors": [
    "Игорь Хрипунов",
    "Ольга Литвинова",
    "Владимир Селезнев"
  ],
  "actors_dubl": [],
  "trivia": [],
  "trailers": [],
  "seasons": [
    {
      "poster": null,
      "release_ru": null,
      "release_world": null,
      "availability": null,
      "iframe_url": "",
      "season": 1,
      "episodes": [
        {
          "episode": 1,
          "name": null,
          "iframe_url": "",
          "iframe_poster": null,
          "release_ru": null,
          "release_world": null,
          "availability": null,
          "voiceActing": [
            "Рус. Оригинальный"
          ],
          "ads": false,
          "subtitle": []
        },
        {
          "episode": 2,
          "name": null,
          "iframe_url": "",
          "iframe_poster": null,
          "release_ru": null,
          "release_world": null,
          "availability": null,
          "voiceActing": [
            "Рус. Оригинальный"
          ],
          "ads": false,
          "subtitle": []
        },
        {
          "episode": 3,
          "name": null,
          "iframe_url": "",
          "iframe_poster": null,
          "release_ru": null,
          "release_world": null,
          "availability": null,
          "voiceActing": [
            "Рус. Оригинальный"
          ],
          "ads": false,
          "subtitle": []
        },
        {
          "episode": 4,
          "name": null,
          "iframe_url": "",
          "iframe_poster": null,
          "release_ru": null,
          "release_world": null,
          "availability": null,
          "voiceActing": [
            "Рус. Оригинальный"
          ],
          "ads": false,
          "subtitle": []
        }
      ]
    }
  ],
  "voiceActing": [
    "Рус. Оригинальный"
  ],
  "subtitle": [],
  "parts": []
}
