{
  "id": 50292,
  "name": "Далеко от яблони",
  "name_eng": "Far from the Apple Tree",
  "year": 2019,
  "slogan": "—",
  "age": null,
  "type": "film",
  "quality": "HD (720p)",
  "imdb": null,
  "imdb_id": "6910670",
  "kinopoisk": null,
  "kinopoisk_id": "1091984",
  "world_art": null,
  "world_art_id": null,
  "time": "—",
  "ads": true,
  "premier": null,
  "premier_rus": null,
  "availability": null,
  "activate_time": "2021-09-04 22:47:00",
  "budget": "£ 30 000",
  "fees_use": null,
  "fees_world": null,
  "fees_rus": null,
  "rate_mpaa": null,
  "description": null,
  "iframe_url": "",
  "iframe_poster": null,
  "poster": "https://img.imgilall.me/movies/franchise/5/0/2/9/2/0/0/0/0/0/610x900_50292.jpg",
  "country": {
    "2": "Великобритания"
  },
  "collection": [],
  "genre": {
    "6": "Фэнтези"
  },
  "director": [
    "Грант МакФи"
  ],
  "screenwriter": [
    "Бен Сопер"
  ],
  "producer": [
    "Оливия Гиффорд",
    "Грант МакФи",
    "Steven Moore"
  ],
  "operator": [
    "Саймон Виккери"
  ],
  "composer": [],
  "design": [],
  "editor": [
    "Ben McKinstrie",
    "Энди Моррисон"
  ],
  "actors": [
    "Сорча Граундселл",
    "Виктория Лидделл",
    "Маргарет Фрайзер",
    "Adrienne-Marie Zitt",
    "Линси-Энн Моффат",
    "Скарлет Мак"
  ],
  "actors_dubl": [],
  "trivia": [],
  "trailers": [],
  "seasons": [],
  "voiceActing": [
    "@MUZOBOZ@"
  ],
  "subtitle": [],
  "parts": []
}
