{
  "id": 503,
  "name": "Молчание ягнят",
  "name_eng": "The Silence of the Lambs",
  "year": 1991,
  "slogan": "«From the terrifying best seller»",
  "age": "18+",
  "type": "film",
  "quality": "FHD (1080p)",
  "imdb": "8.6",
  "imdb_id": "0102926",
  "kinopoisk": "8.3",
  "kinopoisk_id": "345",
  "world_art": null,
  "world_art_id": null,
  "time": "114 мин. / 01:54",
  "ads": false,
  "premier": "1991-01-30",
  "premier_rus": "1991-01-31",
  "availability": "1991-02-01",
  "activate_time": "2018-06-18 10:58:44",
  "budget": "$19 000 000",
  "fees_use": "$130 742 922",
  "fees_world": "$272 742 922",
  "fees_rus": null,
  "rate_mpaa": "R",
  "description": "Психопат похищает и убивает молодых женщин по всему Среднему Западу Америки. ФБР, уверенное в том, что все преступления совершены одним и тем же человеком, поручает агенту Клариссе Старлинг встретиться с заключенным-маньяком, который мог бы объяснить следствию психологические мотивы серийного убийцы и тем самым вывести на его след. Заключенный, доктор психиатрии Ганнибал Лектер, отбывает наказание за убийства и каннибализм. Он согласен помочь Клариссе лишь в том случае, если она попотчует его больное воображение подробностями своей сложной личной жизни. Такие двусмысленные отношения не только порождают в душе Клариссы внутренний конфликт, но и сталкивают ее лицом к лицу с помешанным до гениальности убийцей. Воплощение дьявола настолько сильно, что ей может не хватить мужества и стойкости, чтобы остановить его…",
  "iframe_url": "",
  "iframe_poster": null,
  "poster": "https://img.imgilall.me/movies/franchise/5/0/3/0/0/0/0/0/0/0/610x900_503.jpg",
  "country": {
    "1": "США"
  },
  "collection": {
    "114": "Лаурет премии \"Оскар\"",
    "77": "Лучшие фильмы 20 века",
    "5": "С наградами"
  },
  "genre": {
    "25": "Криминал",
    "24": "Детектив",
    "13": "Триллер",
    "10": "Зарубежный",
    "7": "Драма"
  },
  "director": [
    "Джонатан Демме"
  ],
  "screenwriter": [
    "Тед Тэлли",
    "Томас Харрис"
  ],
  "producer": [
    "Рональд М. Бозман",
    "Эдвард Саксон",
    "Кеннет Атт"
  ],
  "operator": [
    "Так Фудзимото"
  ],
  "composer": [
    "Говард Шор"
  ],
  "design": [
    "Кристи Зиа",
    "Тим Галвин",
    "Коллин Этвуд"
  ],
  "editor": [
    "Крэйг МакКэй"
  ],
  "actors": [
    "Джоди Фостер",
    "Энтони Хопкинс",
    "Брук Смит",
    "Скотт Гленн",
    "Тед Левайн",
    "Энтони Хилд",
    "Кейси Леммонс",
    "Дайан Бэйкер",
    "Чарльз Нэпьер",
    "Роджер Корман"
  ],
  "actors_dubl": [
    "Наталья Казначеева",
    "Игорь Тарадайкин",
    "Ольга Шорохова",
    "Андрей Симанов",
    "Михаил Тихонов"
  ],
  "trivia": [
    "Фильм снят по мотивам романа Томаса Харриса «Молчание ягнят» (The Silence of the Lambs, 1988).",
    "Роль Ганнибала Лектера была предложена Джину Хэкмену, ему же предлагалось заняться и режиссурой. В то же время на роль Кларисы предлагались Мишель Пфайффер и Мег Райан.",
    "Помимо Хэкмена на роль доктора Лектера претендовали Роберт Дювалл, Джереми Айронс и Брайан Кокс.",
    "Большая часть съемочного материала была подготовлена в Питтсбурге. Город идеально подходил для съемок ввиду огромного количества архитектурных сооружений и прочих красивых мест. Таким образом, участникам съемочной группы удалось создать иллюзию того, что съемки проходили в разных уголках страны.",
    "Данная картина стала третьей за всю историю проведения церемонии Оскар, которой удалось завоевать все 5 главных наград: «Лучшая картина», «Лучший режиссер», «Лучший актер», «Лучшая актриса» и «Лучший сценарий». До этого таких же почестей удостоились «Это случилось однажды ночью» (1934) и «Пролетая над гнездом кукушки» (1975).",
    "Энтони Хопкинс, описывая голос, предоставленный своему персонажу Ганнибалу Лектеру, назвал его «симбиозом Трумэна Капоте и Кэтрин Хепберн».",
    "Если внимательно присмотреться к постеру, то можно увидеть изображение черепа на теле бабочки. А если присмотреться еще внимательнее, то можно разглядеть, что череп состоит как минимум из трех обнаженных девушек (есть такие варианты постеров, на которых можно насчитать аж до семи девушек).",
    "Во время одной из сцен в камере-одиночке Энтони Хопкинс постарался смотреть прямо в камеру, мотивируя данный поступок тем, что при таком ракурсе у зрителя создастся впечатление, что его персонаж «знает абсолютно всё».",
    "По первоначальной задумке планировалось запустить картину в прокат осенью 1990 года. Однако Orion Pictures решила придержать выход картины до января 1991 года, дабы не создавать конкуренции другому своему хиту «Танцующий с волками», также весьма успешно поучаствовавшему в оскароносной гонке.",
    "В ходе подготовки к исполнению своей роли Энтони Хопкинс внимательно изучил досье на самых знаменитых серийных убийц современности. Также он побывал в тюрьмах, где содержались данные персоналии, и даже посетил парочку громких судебных процессов.",
    "Во время изучения видеоматериалов Энтони заметил, что маньяк Чарльз Мэнсон никогда не моргал во время разговора, и незамедлительно перенес данное наблюдение на экран.",
    "Энтони Хопкинсу досталось всего лишь 16 минут экранного времени, что, впрочем, не помешало блистательному актеру завоевать Оскара в номинации «Лучшая мужская роль». В ближайшее время этот рекорд вряд ли будет кем-то побит.",
    "Автор сценария Тед Талли, создавая сценарий к картине, на месте агента Старлинг видел только Джоди Фостер. Однако, когда режиссерское кресло занял Джонатан Демме, он решил поменять выбор своих предшественников и пригласил в картину Мишель Пфайффер.",
    "Мишель Пфайффер отказалась от главной роли, сославшись на то, что фильм получится весьма кровавым и жестоким. После этого Джонатан Демме решился-таки позвать в проект Джоди Фостер и, как выяснилось, не прогадал.",
    "Основной мотив сюжетной линии имел параллели с событиями, происходившими на самом деле, каковыми стали взаимоотношения профессора Университета криминологии Роберта Кеппеля и маньяка Теда Банди.",
    "Тед Банди, несмотря на все свои прегрешения, оказал содействие в раскрытии целой серии убийств. Тед был казнен 24 января 1989 года, однако маньяка удалось найти лишь в 2001 году — спустя 12 лет после казни Банди. Им стал Гэри Риджвэй, сознавшийся в 48-ми совершенных им преступлениях.",
    "В ходе подготовки к съемкам Джоди Фостер и Скотту Гленну были предоставлены аудиозаписи, сделанные маньяками в ходе совершенных ими убийств. Джоди наотрез отказалась прослушивать эти леденящие кровь записи, а вот Скотт на свою беду решился, вследствие чего на протяжении достаточно длительного периода времени его преследовали ночные кошмары.",
    "Брук Смит, играющая похищенную девушку Кэтрин, и Тед Левайн, играющий Баффало Билла, были очень близки во время съемок картины.",
    "В декабре 2011 года фильм, как «имеющий большое культурное, историческое или эстетическое значение», был включён в Национальный реестр фильмов США.",
    "Маньяк по имени Баффало Билл стал эдаким собирательным образом трех реально существовавших серийных убийц. Итак, познакомьтесь с этими жуткими людьми, за плечами каждого из которых не менее полсотни жертв: Эд Гейн, любивший снимать кожу со своих жертв, красавчик Тед Банди, использующий фальшивую гипсовую повязку на руке для привлечения наивных женщин, и Гари Хейдник, любитель держать своих жертв в глубокой яме, где они, как правило, и умирали от голода.",
    "Во время первой встречи Клариссы и доктора Лектера последний намекнул, где же можно найти Баффало Билла. Он описал свой рисунок, сделанный на стене камеры-одиночки: «Она называется Дуомо — видел эту картину в итальянском Бельведере». Чуть позднее Старлинг узнает, что Баффало Билл проживает в Бельведере, штат Огайо.",
    "Человек в синей кепке в заключительной сцене фильма на тропическом острове — режиссер Джонатан Демме, исполнивший в своей картине эпизодическую роль-камео.",
    "В фильме Джейма Гампа называют то Джейм, то женским именем Джейми. В книге над ним в детстве потешались из-за имени дети, что и послужило причиной его транссексуальности."
  ],
  "trailers": [],
  "seasons": [],
  "voiceActing": [
    "Рус. Дублированный",
    "Видеосервис",
    "Киномания",
    "Позитив",
    "НТВ+",
    "НТВ",
    "Союз Видео",
    "Лазер Видео",
    "Ю. Сербин",
    "Ю. Живов",
    "А. Михалев",
    "Г. Либергал",
    "Eng.Original"
  ],
  "subtitle": [],
  "parts": []
}
