{
  "id": 50317,
  "name": "Побег: Продолжение",
  "name_eng": "Prison Break: Sequel",
  "year": 2017,
  "slogan": "«The breakout return»",
  "age": "16+",
  "type": "series",
  "quality": "FHD (1080p)",
  "imdb": null,
  "imdb_id": null,
  "kinopoisk": "6.9",
  "kinopoisk_id": "968758",
  "world_art": null,
  "world_art_id": null,
  "time": "45 мин",
  "ads": false,
  "premier": "2017-03-30",
  "premier_rus": "2017-03-31",
  "availability": "2017-04-01",
  "serial_status": "offline",
  "activate_time": "2021-09-05 20:17:00",
  "budget": null,
  "fees_use": null,
  "fees_world": null,
  "fees_rus": null,
  "rate_mpaa": null,
  "description": "В руки Ти-Бэга попадает снимок, который доказывает, что Майкл Скофилд, считавшийся погибшим вот уже семь лет, все это время был жив. Ти-Бэг сообщает об этом Линкольну, и тот объединяется со старыми друзьями, чтобы найти брата. Поиски приводят их в тюрьму Йемена. Герои решают вытащить Майкла из-за решетки и планируют масштабный побег.",
  "iframe_url": "",
  "poster": "https://img.imgilall.me/movies/franchise/5/0/3/1/7/0/0/0/0/0/610x900_50317.jpg",
  "country": {
    "1": "США",
    "2": "Великобритания"
  },
  "collection": [],
  "genre": {
    "25": "Криминал",
    "24": "Детектив",
    "17": "Боевик",
    "13": "Триллер",
    "7": "Драма"
  },
  "director": [
    "Нельсон МакКормик",
    "Гай Ферленд"
  ],
  "screenwriter": [
    "Пол Шойринг"
  ],
  "producer": [
    "Марти Адельштейн",
    "Стив Бирс",
    "Нил Х. Мориц"
  ],
  "operator": [
    "Джеффри С. Майгатт"
  ],
  "composer": [
    "Рамин Джавади"
  ],
  "design": [],
  "editor": [
    "Джеймс Коблентц"
  ],
  "actors": [
    "Доминик Пёрселл",
    "Вентворт Миллер",
    "Сара Уэйн Кэллис",
    "Рокмонд Данбар",
    "Роберт Неппер",
    "Амори Ноласко",
    "Пол Адельштейн",
    "Марк Фойерстин"
  ],
  "actors_dubl": [],
  "trivia": [],
  "trailers": [],
  "seasons": [
    {
      "poster": null,
      "release_ru": null,
      "release_world": null,
      "availability": null,
      "iframe_url": "",
      "season": 1,
      "episodes": [
        {
          "episode": 1,
          "name": null,
          "iframe_url": "",
          "iframe_poster": null,
          "release_ru": null,
          "release_world": null,
          "availability": null,
          "voiceActing": [
            "Fox",
            "Eng.Original"
          ],
          "ads": false,
          "subtitle": [
            "Eng. full"
          ]
        },
        {
          "episode": 2,
          "name": null,
          "iframe_url": "",
          "iframe_poster": null,
          "release_ru": null,
          "release_world": null,
          "availability": null,
          "voiceActing": [
            "Fox",
            "Eng.Original"
          ],
          "ads": false,
          "subtitle": [
            "Eng. full"
          ]
        },
        {
          "episode": 3,
          "name": null,
          "iframe_url": "",
          "iframe_poster": null,
          "release_ru": null,
          "release_world": null,
          "availability": null,
          "voiceActing": [
            "Fox",
            "Eng.Original"
          ],
          "ads": false,
          "subtitle": [
            "Eng. full"
          ]
        },
        {
          "episode": 4,
          "name": null,
          "iframe_url": "",
          "iframe_poster": null,
          "release_ru": null,
          "release_world": null,
          "availability": null,
          "voiceActing": [
            "Fox",
            "Eng.Original"
          ],
          "ads": false,
          "subtitle": [
            "Eng. full"
          ]
        },
        {
          "episode": 5,
          "name": null,
          "iframe_url": "",
          "iframe_poster": null,
          "release_ru": null,
          "release_world": null,
          "availability": null,
          "voiceActing": [
            "Fox",
            "Eng.Original"
          ],
          "ads": false,
          "subtitle": [
            "Eng. full"
          ]
        },
        {
          "episode": 6,
          "name": null,
          "iframe_url": "",
          "iframe_poster": null,
          "release_ru": null,
          "release_world": null,
          "availability": null,
          "voiceActing": [
            "Fox",
            "Eng.Original"
          ],
          "ads": false,
          "subtitle": [
            "Eng. full"
          ]
        },
        {
          "episode": 7,
          "name": null,
          "iframe_url": "",
          "iframe_poster": null,
          "release_ru": null,
          "release_world": null,
          "availability": null,
          "voiceActing": [
            "Fox",
            "Eng.Original"
          ],
          "ads": false,
          "subtitle": [
            "Eng. full"
          ]
        },
        {
          "episode": 8,
          "name": null,
          "iframe_url": "",
          "iframe_poster": null,
          "release_ru": null,
          "release_world": null,
          "availability": null,
          "voiceActing": [
            "Fox",
            "Eng.Original"
          ],
          "ads": false,
          "subtitle": [
            "Eng. full"
          ]
        },
        {
          "episode": 9,
          "name": null,
          "iframe_url": "",
          "iframe_poster": null,
          "release_ru": null,
          "release_world": null,
          "availability": null,
          "voiceActing": [
            "Fox",
            "Eng.Original"
          ],
          "ads": false,
          "subtitle": [
            "Eng. full"
          ]
        }
      ]
    }
  ],
  "voiceActing": [
    "Fox",
    "Eng.Original"
  ],
  "subtitle": [
    "Eng. full"
  ],
  "parts": []
}
