{
  "id": 50388,
  "name": "Разговоры",
  "name_eng": "Conversaciones",
  "year": 2020,
  "slogan": "«Conversations. Some can change your life, others will end it»",
  "age": null,
  "type": "film",
  "quality": "HD (720p)",
  "imdb": "7.4",
  "imdb_id": "10106082",
  "kinopoisk": null,
  "kinopoisk_id": "1255802",
  "world_art": null,
  "world_art_id": null,
  "time": "97 мин. / 01:37",
  "ads": true,
  "premier": "2020-11-26",
  "premier_rus": "2020-11-27",
  "availability": "2020-11-28",
  "activate_time": "2021-09-07 10:06:00",
  "budget": null,
  "fees_use": null,
  "fees_world": null,
  "fees_rus": null,
  "rate_mpaa": null,
  "description": null,
  "iframe_url": "",
  "iframe_poster": null,
  "poster": "https://img.imgilall.me/movies/franchise/5/0/3/8/8/0/0/0/0/0/610x900_50388.jpg",
  "country": {
    "17": "Мексика"
  },
  "collection": [],
  "genre": {
    "24": "Детектив",
    "19": "Комедия",
    "7": "Драма"
  },
  "director": [
    "Eduardo M. Clorio"
  ],
  "screenwriter": [
    "Франсиско Эрриагада",
    "Karla Coronado",
    "Idalia Damián Azcoitia"
  ],
  "producer": [
    "Luli Monsalvo Espinosa",
    "Адриана Амор",
    "Rodrigo Glenn"
  ],
  "operator": [
    "Cesar Fuentes"
  ],
  "composer": [
    "Alejandro Karo",
    "Mayra Lepró"
  ],
  "design": [
    "Georgina Martinez",
    "Mariana Zermeño",
    "Tania Tello"
  ],
  "editor": [
    "Хорхе Варгас"
  ],
  "actors": [
    "Michele Abascal",
    "Christopher Aguilasocho",
    "Тато Александер",
    "Israel Amescua",
    "Roberto Cazares",
    "Karla Coronado",
    "Альберто Эстрелья",
    "Химена Гомес",
    "Xochiquetzal Martínez",
    "Iván Mondragón"
  ],
  "actors_dubl": [],
  "trivia": [],
  "trailers": [],
  "seasons": [],
  "voiceActing": [
    "Синема УС"
  ],
  "subtitle": [],
  "parts": []
}
