{
  "id": 50440,
  "name": "Сцены из супружеской жизни",
  "name_eng": "Scenes from a Marriage",
  "year": 2021,
  "slogan": "—",
  "age": "18+",
  "type": "series",
  "quality": "HD (720p)",
  "imdb": "7.6",
  "imdb_id": "12682218",
  "kinopoisk": "8.0",
  "kinopoisk_id": "1394680",
  "world_art": null,
  "world_art_id": null,
  "time": "54 мин",
  "ads": false,
  "premier": "2021-09-04",
  "premier_rus": "2021-09-05",
  "availability": "2021-09-06",
  "serial_status": "offline",
  "activate_time": "2021-09-13 09:26:00",
  "budget": null,
  "fees_use": null,
  "fees_world": null,
  "fees_rus": null,
  "rate_mpaa": null,
  "description": "История про уникальную связь двух людей, которая сводит их вместе даже после развода.",
  "iframe_url": "",
  "poster": "https://img.imgilall.me/movies/franchise/5/0/4/4/0/0/0/0/0/0/610x900_50440.jpg",
  "country": {
    "1": "США"
  },
  "collection": {
    "97": "HBO"
  },
  "genre": {
    "7": "Драма"
  },
  "director": [
    "Хагай Леви"
  ],
  "screenwriter": [
    "Хагай Леви",
    "Ингмар Бергман",
    "Эми Херцог"
  ],
  "producer": [
    "Блэр Бреард",
    "Эми Херцог",
    "Карвер Карацевски"
  ],
  "operator": [
    "Андрий Парекх"
  ],
  "composer": [
    "Евгений Гальперин",
    "Саша Гальперин"
  ],
  "design": [
    "Кевин Томпсон",
    "Дебора Дженсен",
    "Мияко Беллицци"
  ],
  "editor": [
    "Яэль Херсонский"
  ],
  "actors": [
    "Джессика Честейн",
    "Оскар Айзек",
    "Sophia Kopera",
    "Николь Бахари",
    "Кори Столл",
    "Сунита Мани",
    "Ширли Румирк",
    "Михаэль Алони",
    "Това Фелдшух",
    "Мори Гинсберг"
  ],
  "actors_dubl": [],
  "trivia": [],
  "trailers": [],
  "seasons": [
    {
      "poster": null,
      "release_ru": "2021-09-13",
      "release_world": "2021-09-12",
      "availability": "2021-09-14",
      "iframe_url": "",
      "season": 1,
      "episodes": [
        {
          "episode": 1,
          "name": "Innocence and Panic",
          "iframe_url": "",
          "iframe_poster": null,
          "release_ru": "2021-09-13",
          "release_world": "2021-09-12",
          "availability": "2021-09-14",
          "voiceActing": [
            "Amedia",
            "Eng.Original"
          ],
          "ads": false,
          "subtitle": [
            "Рус. полные"
          ]
        },
        {
          "episode": 2,
          "name": "Poli",
          "iframe_url": "",
          "iframe_poster": null,
          "release_ru": "2021-09-20",
          "release_world": "2021-09-19",
          "availability": "2021-09-21",
          "voiceActing": [
            "Amedia",
            "Eng.Original"
          ],
          "ads": false,
          "subtitle": [
            "Рус. полные"
          ]
        },
        {
          "episode": 3,
          "name": "The Vale of Tears",
          "iframe_url": "",
          "iframe_poster": null,
          "release_ru": "2021-09-27",
          "release_world": "2021-09-26",
          "availability": "2021-09-28",
          "voiceActing": [
            "Amedia",
            "Eng.Original"
          ],
          "ads": false,
          "subtitle": [
            "Рус. полные"
          ]
        },
        {
          "episode": 4,
          "name": "The Illiterates",
          "iframe_url": "",
          "iframe_poster": null,
          "release_ru": "2021-10-04",
          "release_world": "2021-10-03",
          "availability": "2021-10-05",
          "voiceActing": [
            "Amedia",
            "Eng.Original"
          ],
          "ads": false,
          "subtitle": [
            "Рус. полные"
          ]
        },
        {
          "episode": 5,
          "name": "In the Middle of the Night, in a Dark House, Somewhere in the World",
          "iframe_url": "",
          "iframe_poster": null,
          "release_ru": "2021-10-11",
          "release_world": "2021-10-10",
          "availability": "2021-10-12",
          "voiceActing": [
            "Amedia",
            "Eng.Original"
          ],
          "ads": false,
          "subtitle": [
            "Рус. полные"
          ]
        }
      ]
    }
  ],
  "voiceActing": [
    "Amedia",
    "Eng.Original"
  ],
  "subtitle": [
    "Рус. полные"
  ],
  "parts": []
}
