{
  "id": 50448,
  "name": "Ла-Брея",
  "name_eng": "La Brea",
  "year": 2021,
  "slogan": "«One Family Torn Between Two Worlds...»",
  "age": null,
  "type": "series",
  "quality": "HD (720p)",
  "imdb": "5.2",
  "imdb_id": "11640018",
  "kinopoisk": null,
  "kinopoisk_id": "1355296",
  "world_art": null,
  "world_art_id": null,
  "time": "—",
  "ads": true,
  "premier": "2021-09-28",
  "premier_rus": "2021-09-29",
  "availability": "2021-09-30",
  "serial_status": "offline",
  "activate_time": "2021-09-29 09:09:00",
  "budget": null,
  "fees_use": null,
  "fees_world": null,
  "fees_rus": null,
  "rate_mpaa": null,
  "description": null,
  "iframe_url": "",
  "poster": "https://img.imgilall.me/movies/franchise/5/0/4/4/8/0/0/0/0/0/610x900_50448.jpg",
  "country": {
    "1": "США"
  },
  "collection": [],
  "genre": {
    "9": "Приключения",
    "11": "Фантастика",
    "6": "Фэнтези",
    "24": "Детектив",
    "13": "Триллер",
    "7": "Драма"
  },
  "director": [
    "Тор Фройденталь",
    "Адам Дэвидсон",
    "Грег МакЛин"
  ],
  "screenwriter": [
    "Дэвид Аппелбаум"
  ],
  "producer": [
    "Наоми Кливер",
    "Дэвид Аппелбаум",
    "Адам Дэвидсон"
  ],
  "operator": [
    "Дэмиэн Уайвилл",
    "Марк Уэрхем"
  ],
  "composer": [],
  "design": [
    "Кэрри Кеннеди",
    "Бен Мориесон",
    "Дженнифер А. Дэвис"
  ],
  "editor": [
    "Лелэнд Секстон",
    "Финниан Мюррэй"
  ],
  "actors": [
    "Натали Зи",
    "Оуэн Мэкен",
    "Чике Оконкво",
    "Карина Лог",
    "Zyra Gorecki",
    "Джек Мартин",
    "Вероника Санчес",
    "Джон Седа",
    "Рохан Мирчандани",
    "Lily Santiago"
  ],
  "actors_dubl": [],
  "trivia": [],
  "trailers": [],
  "seasons": [
    {
      "poster": null,
      "release_ru": "2021-09-29",
      "release_world": "2021-09-28",
      "availability": "2021-09-30",
      "iframe_url": "",
      "season": 1,
      "episodes": [
        {
          "episode": 1,
          "name": "TBA",
          "iframe_url": "",
          "iframe_poster": null,
          "release_ru": "2021-09-29",
          "release_world": "2021-09-28",
          "availability": "2021-09-30",
          "voiceActing": [
            "TVShows",
            "Eng.Original"
          ],
          "ads": false,
          "subtitle": [
            "Eng. SDH"
          ]
        },
        {
          "episode": 2,
          "name": null,
          "iframe_url": "",
          "iframe_poster": null,
          "release_ru": "2021-10-06",
          "release_world": "2021-10-05",
          "availability": "2021-10-06",
          "voiceActing": [
            "TVShows",
            "Eng.Original"
          ],
          "ads": false,
          "subtitle": [
            "Eng. full"
          ]
        },
        {
          "episode": 3,
          "name": null,
          "iframe_url": "",
          "iframe_poster": null,
          "release_ru": "2021-10-13",
          "release_world": "2021-10-12",
          "availability": "2021-10-13",
          "voiceActing": [
            "TVShows",
            "Eng.Original"
          ],
          "ads": false,
          "subtitle": [
            "Eng. full"
          ]
        },
        {
          "episode": 4,
          "name": null,
          "iframe_url": "",
          "iframe_poster": null,
          "release_ru": "2021-10-20",
          "release_world": "2021-10-19",
          "availability": "2021-10-20",
          "voiceActing": [
            "TVShows",
            "Eng.Original"
          ],
          "ads": false,
          "subtitle": [
            "Eng. SDH"
          ]
        },
        {
          "episode": 5,
          "name": null,
          "iframe_url": "",
          "iframe_poster": null,
          "release_ru": "2021-10-27",
          "release_world": "2021-10-26",
          "availability": "2021-10-27",
          "voiceActing": [
            "TVShows",
            "Eng.Original"
          ],
          "ads": false,
          "subtitle": [
            "Eng. full"
          ]
        },
        {
          "episode": 6,
          "name": null,
          "iframe_url": "",
          "iframe_poster": null,
          "release_ru": null,
          "release_world": null,
          "availability": null,
          "voiceActing": [
            "TVShows",
            "Eng.Original"
          ],
          "ads": false,
          "subtitle": [
            "Eng. full"
          ]
        },
        {
          "episode": 7,
          "name": null,
          "iframe_url": "",
          "iframe_poster": null,
          "release_ru": null,
          "release_world": null,
          "availability": null,
          "voiceActing": [
            "TVShows",
            "Eng.Original"
          ],
          "ads": false,
          "subtitle": [
            "Eng. full"
          ]
        },
        {
          "episode": 8,
          "name": null,
          "iframe_url": "",
          "iframe_poster": null,
          "release_ru": null,
          "release_world": null,
          "availability": null,
          "voiceActing": [
            "TVShows",
            "Eng.Original"
          ],
          "ads": false,
          "subtitle": [
            "Eng. full"
          ]
        },
        {
          "episode": 9,
          "name": null,
          "iframe_url": "",
          "iframe_poster": null,
          "release_ru": null,
          "release_world": null,
          "availability": null,
          "voiceActing": [
            "TVShows",
            "Eng.Original"
          ],
          "ads": false,
          "subtitle": [
            "Eng. full"
          ]
        },
        {
          "episode": 10,
          "name": null,
          "iframe_url": "",
          "iframe_poster": null,
          "release_ru": null,
          "release_world": null,
          "availability": null,
          "voiceActing": [
            "Cold Film"
          ],
          "ads": true,
          "subtitle": []
        }
      ]
    }
  ],
  "voiceActing": [
    "TVShows",
    "Eng.Original",
    "Cold Film"
  ],
  "subtitle": [
    "Eng. SDH",
    "Eng. full"
  ],
  "parts": []
}
