{
  "id": 50657,
  "name": "Великий Мерлин",
  "name_eng": "Merlin",
  "year": 1998,
  "slogan": "«Imagine a world where dreams come true...and magic is real»",
  "age": "12+",
  "type": "series",
  "quality": "SD",
  "imdb": "7.1",
  "imdb_id": "0130414",
  "kinopoisk": "7.7",
  "kinopoisk_id": "77213",
  "world_art": null,
  "world_art_id": null,
  "time": "182 мин. всего",
  "ads": false,
  "premier": "1998-04-26",
  "premier_rus": "1998-04-27",
  "availability": "1998-04-28",
  "serial_status": "offline",
  "activate_time": "2021-09-17 16:29:00",
  "budget": "$30 000 000",
  "fees_use": null,
  "fees_world": null,
  "fees_rus": null,
  "rate_mpaa": null,
  "description": "В стародавние времена никто не удивлялся чудесам, а волшебники, маги феи и драконы жили рядом с людьми. Но когда люди поверили в единого бога, колдунов и волшебниц стали забывать.Тогда королева тьмы Мэб с помощью злого короля Вортингера и злой феи Морганы решила сделать волшебника Мерлина вождем темных сил. А Мерлин хотел воспитать короля Артура, построить золотой замок Камелот и найти священный грааль, который избавит мир от страданий.",
  "iframe_url": "",
  "poster": "https://img.imgilall.me/movies/franchise/5/0/6/5/7/0/0/0/0/0/610x900_50657.jpg",
  "country": {
    "1": "США",
    "2": "Великобритания"
  },
  "collection": [],
  "genre": {
    "9": "Приключения",
    "6": "Фэнтези",
    "17": "Боевик",
    "8": "Мелодрама",
    "7": "Драма"
  },
  "director": [
    "Стив Бэррон"
  ],
  "screenwriter": [
    "Питер Барнс",
    "Эдвард Хмара",
    "Дэвид Стивенс"
  ],
  "producer": [
    "Роберт Холми ст.",
    "Дайсон Ловелл",
    "Крис Томпсон"
  ],
  "operator": [
    "Сергей Козлов"
  ],
  "composer": [
    "Тревор Джонс"
  ],
  "design": [
    "Роджер Холл",
    "Майкл Бун",
    "Джон Кинг"
  ],
  "editor": [
    "Колин Грин"
  ],
  "actors": [
    "Сэм Нил",
    "Хелена Бонем Картер",
    "Джон Гилгуд",
    "Рутгер Хауэр",
    "Джеймс Эрл Джонс",
    "Миранда Ричардсон",
    "Изабелла Росселлини",
    "Мартин Шорт",
    "Пол Каррен",
    "Лина Хиди"
  ],
  "actors_dubl": [],
  "trivia": [],
  "trailers": [],
  "seasons": [
    {
      "poster": null,
      "release_ru": null,
      "release_world": null,
      "availability": null,
      "iframe_url": "",
      "season": 1,
      "episodes": [
        {
          "episode": 1,
          "name": null,
          "iframe_url": "",
          "iframe_poster": null,
          "release_ru": null,
          "release_world": null,
          "availability": null,
          "voiceActing": [
            "Рус. Проф. многоголосый"
          ],
          "ads": false,
          "subtitle": []
        },
        {
          "episode": 2,
          "name": null,
          "iframe_url": "",
          "iframe_poster": null,
          "release_ru": null,
          "release_world": null,
          "availability": null,
          "voiceActing": [
            "Рус. Проф. многоголосый"
          ],
          "ads": false,
          "subtitle": []
        }
      ]
    }
  ],
  "voiceActing": [
    "Рус. Проф. многоголосый"
  ],
  "subtitle": [],
  "parts": []
}
