{
  "id": 50664,
  "name": "Австралийский гангстер",
  "name_eng": "Australian Gangster",
  "year": 2018,
  "slogan": "—",
  "age": null,
  "type": "film",
  "quality": "FHD (1080p)",
  "imdb": null,
  "imdb_id": "9265262",
  "kinopoisk": null,
  "kinopoisk_id": "1209313",
  "world_art": null,
  "world_art_id": null,
  "time": "180 мин. всего",
  "ads": true,
  "premier": null,
  "premier_rus": null,
  "availability": null,
  "activate_time": "2021-09-17 11:59:00",
  "budget": null,
  "fees_use": null,
  "fees_world": null,
  "fees_rus": null,
  "rate_mpaa": null,
  "description": null,
  "iframe_url": "",
  "iframe_poster": null,
  "poster": "https://img.imgilall.me/movies/franchise/5/0/6/6/4/0/0/0/0/0/610x900_50664.jpg",
  "country": {
    "4": "Австралия"
  },
  "collection": [],
  "genre": {
    "25": "Криминал",
    "19": "Комедия",
    "7": "Драма"
  },
  "director": [
    "Грегор Джордан"
  ],
  "screenwriter": [
    "Грегор Джордан"
  ],
  "producer": [
    "Дэниэл Эдвардс",
    "Джон Эдвардс"
  ],
  "operator": [
    "Гарри Филлипс"
  ],
  "composer": [
    "Richard Pike"
  ],
  "design": [
    "Ники Гардинер"
  ],
  "editor": [],
  "actors": [
    "Насрин Эмин",
    "Adrian Giribon",
    "Costa Prasoulas",
    "Karla Tonkich"
  ],
  "actors_dubl": [],
  "trivia": [],
  "trailers": [],
  "seasons": [],
  "voiceActing": [
    "Синема УС"
  ],
  "subtitle": [],
  "parts": []
}
