{
  "id": 508,
  "name": "Нокдаун",
  "name_eng": "Cinderella Man",
  "year": 2005,
  "slogan": "«Самый знаменитый боксер Америки»",
  "age": "12+",
  "type": "film",
  "quality": "FHD (1080p)",
  "imdb": "8.0",
  "imdb_id": "0352248",
  "kinopoisk": "8.2",
  "kinopoisk_id": "12244",
  "world_art": null,
  "world_art_id": null,
  "time": "144 мин. / 02:24",
  "ads": false,
  "premier": "2005-05-23",
  "premier_rus": "2005-09-15",
  "availability": null,
  "activate_time": "2018-06-18 11:04:51",
  "budget": "$88 000 000",
  "fees_use": "$61 649 911",
  "fees_world": "$108 539 911",
  "fees_rus": "$605 000",
  "rate_mpaa": "PG-13",
  "description": "Потерпев несколько поражений кряду, подававший надежды боксёр-тяжеловес Джим Брэддок вынужден бросить спорт. Во времена Великой депрессии Брэддок берётся за любую работу, чтобы прокормить свою жену Мэй и детей. При этом он всё ещё надеется вернуться на ринг. И однажды ему предоставляется такой шанс. В последнюю минуту Джим заменяет другого боксёра и выходит на поединок с претендентом на титул чемпиона мира…",
  "iframe_url": "",
  "iframe_poster": null,
  "poster": "https://img.imgilall.me/movies/franchise/5/0/8/0/0/0/0/0/0/0/610x900_508.jpg",
  "country": {
    "1": "США"
  },
  "collection": {
    "78": "Биографии",
    "76": "Про спорт",
    "12": "Для мужчин",
    "34": "Мотивирующие",
    "16": "Про боевые искусства"
  },
  "genre": {
    "27": "Биографический",
    "23": "Спортивный",
    "10": "Зарубежный",
    "7": "Драма"
  },
  "director": [
    "Рон Ховард"
  ],
  "screenwriter": [
    "Клифф Холлингсворт",
    "Акива Голдсман"
  ],
  "producer": [
    "Брайан Грейзер",
    "Рон Ховард",
    "Пенни Маршалл"
  ],
  "operator": [
    "Сальваторе Тотино"
  ],
  "composer": [
    "Томас Ньюман"
  ],
  "design": [
    "Винн Томас",
    "Питер Гранди",
    "Дэн Ярхи"
  ],
  "editor": [
    "Дэниэл П. Хэнли",
    "Майк Хилл"
  ],
  "actors": [
    "Рассел Кроу",
    "Рене Зеллвегер",
    "Пол Джаматти",
    "Крэйг Бирко",
    "Пэдди Консидайн",
    "Брюс МакГилл",
    "Дэвид Хубанд",
    "Коннор Прайс",
    "Эриель Уоллер",
    "Патрик Луис"
  ],
  "actors_dubl": [
    "Станислав Концевич",
    "Елена Шульман",
    "Валерий Кухарешин",
    "Валерий Соловьев",
    "Артем Веселов"
  ],
  "trivia": [
    "Изначально планировалось, что картину поставит Лассе Халльстрём.",
    "Во время одной из тренировок Рассел Кроу вывихнул плечо. Из-за этого пришлось отложить съемки на целых два месяца.",
    "Соперниками Кроу на ринге были профессиональные боксеры. Для того чтобы убедить зрителя, свои удары они должны были останавливать настолько близко к телу Рассела, насколько это было возможно. Как и следовало ожидать, иногда актеру хорошенько доставалось.",
    "Помимо остальных повреждений, Рассел Кроу получил сотрясения мозга и сломал несколько зубов.",
    "Розмари ДеУитт, исполняющая роль соседки Сары Уилсон на самом деле приходится внучкой настоящему Джимми Брэддоку.",
    "Слабые кассовые сборы картины стали причиной уникальной акции. Ряд кинотеатров пообещал возвращать деньги за билет тем, кому не понравится «Нокдаун».",
    "Многие топовые актеры претендовали на роль Джимми Брэддока. Среди них: Клайв Оуэн, Мэтт Дэймон, Билли Боб Торнтон и Марк Уолберг.",
    "Для роли в фильме Расселл Кроу похудел на 22 кг.",
    "Для усиления драматического эффекта последний и самый опасный (по фильму) противник Джимми Брэддока знаменитый боксер Макс Бэр был сделан резко отрицательным персонажем, что абсолютно не соответствует исторической правде. В жизни Макс Бэр был добрым и обаятельным человеком, что отмечали все, кто его знал (редкий случай для среды профессионального бокса, в которой личная конкуренция чрезвычайно высока). Двое его противников действительно погибли после встречи с Бэром на ринге, но Бэр не только никогда не гордился этим (как показано в фильме), но воспринимал эти несчастные случаи как личную трагедию.\nПотомки Макса Бэра пытались подать в суд на создателей фильма за искажение образа знаменитого боксера. Популярность Бэра была не намного меньше, чем популярность Брэддока. Публика ценила его за чувство юмора, которое он, случалось, проявлял даже на ринге, обмениваясь шутками со зрителями (причем шутил он над собой, а не над соперниками). Кроме того, Бэр, имевший еврейские корни, был кумиром еврейской общины Нью-Йорка, то есть значительной части аудитории профессионального бокса тех лет."
  ],
  "trailers": [],
  "seasons": [],
  "voiceActing": [
    "R5",
    "Tycoon",
    "Ю. Немахов",
    "ICTV (укр.)",
    "Eng.Original"
  ],
  "subtitle": [
    "Рус. полные"
  ],
  "parts": []
}
