{
  "id": 50963,
  "name": "Балаган",
  "name_eng": "Circus",
  "year": 2020,
  "slogan": "«A Shakespearean movie of terror»",
  "age": null,
  "type": "film",
  "quality": "HD (720p)",
  "imdb": "3.1",
  "imdb_id": "13566356",
  "kinopoisk": null,
  "kinopoisk_id": "2001564",
  "world_art": null,
  "world_art_id": null,
  "time": "83 мин. / 01:23",
  "ads": true,
  "premier": null,
  "premier_rus": null,
  "availability": null,
  "activate_time": "2021-09-28 10:56:00",
  "budget": null,
  "fees_use": null,
  "fees_world": null,
  "fees_rus": null,
  "rate_mpaa": null,
  "description": null,
  "iframe_url": "",
  "iframe_poster": null,
  "poster": "https://img.imgilall.me/movies/franchise/5/0/9/6/3/0/0/0/0/0/610x900_50963.jpg",
  "country": {
    "8": "Италия"
  },
  "collection": [],
  "genre": {
    "26": "Ужасы"
  },
  "director": [
    "Alyson Moon"
  ],
  "screenwriter": [
    "Alsyon Moon"
  ],
  "producer": [
    "Rocky Karlage",
    "Alyson Moon"
  ],
  "operator": [
    "Alyson Moon"
  ],
  "composer": [],
  "design": [],
  "editor": [
    "Rocky Karlage",
    "Alyson Moon"
  ],
  "actors": [
    "Alyson Moon",
    "Drew Wilson"
  ],
  "actors_dubl": [],
  "trivia": [],
  "trailers": [],
  "seasons": [],
  "voiceActing": [
    "Синема УС"
  ],
  "subtitle": [],
  "parts": []
}
