{
  "id": 51143,
  "name": "Чёрная книга",
  "name_eng": "The Black Book",
  "year": 2021,
  "slogan": "«A collector of rare curiosities finds himself the piece to die for»",
  "age": null,
  "type": "film",
  "quality": "FHD (1080p)",
  "imdb": null,
  "imdb_id": "6472860",
  "kinopoisk": null,
  "kinopoisk_id": "1034066",
  "world_art": null,
  "world_art_id": null,
  "time": "75 мин. / 01:15",
  "ads": true,
  "premier": null,
  "premier_rus": null,
  "availability": null,
  "activate_time": "2021-10-04 21:53:00",
  "budget": "$75 000",
  "fees_use": null,
  "fees_world": null,
  "fees_rus": null,
  "rate_mpaa": null,
  "description": null,
  "iframe_url": "",
  "iframe_poster": null,
  "poster": "https://img.imgilall.me/movies/franchise/5/1/1/4/3/0/0/0/0/0/610x900_51143.jpg",
  "country": {
    "1": "США"
  },
  "collection": [],
  "genre": {
    "26": "Ужасы"
  },
  "director": [
    "Topher Chambers",
    "Джим Догерти",
    "Дональд А. Бекер"
  ],
  "screenwriter": [
    "Topher Chambers",
    "Джим Догерти",
    "Джо Херберт"
  ],
  "producer": [
    "Topher Chambers",
    "Joe Buser",
    "Daniel J. Cavallini"
  ],
  "operator": [
    "Topher Chambers",
    "Джим Догерти",
    "Kelly McKinney"
  ],
  "composer": [
    "Вирджил Франклин"
  ],
  "design": [],
  "editor": [
    "Topher Chambers",
    "Джим Догерти",
    "Джо Херберт"
  ],
  "actors": [
    "Ари Леман",
    "Рэйчел Дж. Уиттл",
    "Марк А. Нэш",
    "Katherine Smith-Rodden",
    "Синди Мэйплс",
    "Эммануэль Картер",
    "Кассандра Шомер",
    "Джефф Пирсон",
    "Доминик Уилкинс",
    "Olivia Peck"
  ],
  "actors_dubl": [],
  "trivia": [],
  "trailers": [],
  "seasons": [],
  "voiceActing": [
    "Рус. Люб. многоголосый"
  ],
  "subtitle": [],
  "parts": []
}
