{
  "id": 51167,
  "name": "Неспортивный интерес",
  "name_eng": "Bad Sport",
  "year": 2021,
  "slogan": "—",
  "age": null,
  "type": "series",
  "quality": "FHD (1080p)",
  "imdb": "7.3",
  "imdb_id": "15402912",
  "kinopoisk": null,
  "kinopoisk_id": "4659055",
  "world_art": null,
  "world_art_id": null,
  "time": "55 мин",
  "ads": true,
  "premier": "2021-10-06",
  "premier_rus": "2021-10-07",
  "availability": "2021-10-08",
  "serial_status": "offline",
  "activate_time": "2021-10-06 12:43:00",
  "budget": null,
  "fees_use": null,
  "fees_world": null,
  "fees_rus": null,
  "rate_mpaa": null,
  "description": "Набор скандальных историй из мира современного спорта.",
  "iframe_url": "",
  "poster": "https://img.imgilall.me/movies/franchise/5/1/1/6/7/0/0/0/0/0/610x900_51167.jpg",
  "country": {
    "1": "США"
  },
  "collection": {
    "76": "Про спорт",
    "40": "Netflix"
  },
  "genre": {
    "25": "Криминал",
    "54": "Документальный",
    "23": "Спортивный"
  },
  "director": [
    "Miles Blayden-Ryall",
    "Georgina Cammalleri",
    "Джеймс Хаус"
  ],
  "screenwriter": [],
  "producer": [
    "Адам Хоукинс",
    "Александр Маренго",
    "Тим Уордл"
  ],
  "operator": [
    "Патрик Смит",
    "Нил Баррет",
    "Тим Крегг"
  ],
  "composer": [
    "Дэвид Швайтцер"
  ],
  "design": [
    "Элли Джонс"
  ],
  "editor": [
    "Майкл Харт",
    "Toby Clarkson",
    "Оуэн Дейвис"
  ],
  "actors": [
    "Jamie Salé",
    "Randy Lanier",
    "Pino Narducci",
    "Kent Somers",
    "Pete Cullen",
    "Allan",
    "Dwayne Fontana",
    "Tommy Burns",
    "Gabriele Marcotti",
    "Франс Кронже"
  ],
  "actors_dubl": [],
  "trivia": [],
  "trailers": [],
  "seasons": [
    {
      "poster": null,
      "release_ru": null,
      "release_world": null,
      "availability": null,
      "iframe_url": "",
      "season": 1,
      "episodes": [
        {
          "episode": 1,
          "name": null,
          "iframe_url": "",
          "iframe_poster": null,
          "release_ru": null,
          "release_world": null,
          "availability": null,
          "voiceActing": [
            "TVShows"
          ],
          "ads": false,
          "subtitle": []
        },
        {
          "episode": 2,
          "name": null,
          "iframe_url": "",
          "iframe_poster": null,
          "release_ru": null,
          "release_world": null,
          "availability": null,
          "voiceActing": [
            "TVShows"
          ],
          "ads": false,
          "subtitle": []
        },
        {
          "episode": 3,
          "name": null,
          "iframe_url": "",
          "iframe_poster": null,
          "release_ru": null,
          "release_world": null,
          "availability": null,
          "voiceActing": [
            "Ultradox"
          ],
          "ads": true,
          "subtitle": []
        },
        {
          "episode": 4,
          "name": null,
          "iframe_url": "",
          "iframe_poster": null,
          "release_ru": null,
          "release_world": null,
          "availability": null,
          "voiceActing": [
            "Ultradox"
          ],
          "ads": true,
          "subtitle": []
        },
        {
          "episode": 5,
          "name": null,
          "iframe_url": "",
          "iframe_poster": null,
          "release_ru": null,
          "release_world": null,
          "availability": null,
          "voiceActing": [
            "Ultradox"
          ],
          "ads": true,
          "subtitle": []
        },
        {
          "episode": 6,
          "name": null,
          "iframe_url": "",
          "iframe_poster": null,
          "release_ru": null,
          "release_world": null,
          "availability": null,
          "voiceActing": [
            "Ultradox"
          ],
          "ads": true,
          "subtitle": []
        }
      ]
    }
  ],
  "voiceActing": [
    "TVShows",
    "Ultradox"
  ],
  "subtitle": [],
  "parts": []
}
