{
  "id": 5118,
  "name": "Старик с пистолетом",
  "name_eng": "The Old Man & the Gun",
  "year": 2018,
  "slogan": "«This Story is Mostly True»",
  "age": "12+",
  "type": "film",
  "quality": "HD (720p)",
  "imdb": "6.7",
  "imdb_id": "2837574",
  "kinopoisk": "6.5",
  "kinopoisk_id": "756223",
  "world_art": null,
  "world_art_id": null,
  "time": "93 мин. / 01:33",
  "ads": false,
  "premier": "2018-08-31",
  "premier_rus": null,
  "availability": null,
  "activate_time": "2019-01-02 20:30:38",
  "budget": null,
  "fees_use": "$11 277 120",
  "fees_world": "$17 860 397",
  "fees_rus": null,
  "rate_mpaa": "PG-13",
  "description": "История неисправимого вора Форреста Таккера, который большую часть жизни посвятил обчищению банков и побегам из тюрем. На закате своей беспокойной карьеры 78-летний Таккер никак не может избавиться от старых привычек.",
  "iframe_url": "",
  "iframe_poster": null,
  "poster": "https://img.imgilall.me/movies/franchise/5/1/1/8/0/0/0/0/0/0/610x900_5118.jpg",
  "country": {
    "1": "США"
  },
  "collection": [],
  "genre": {
    "25": "Криминал",
    "27": "Биографический",
    "19": "Комедия",
    "10": "Зарубежный",
    "7": "Драма"
  },
  "director": [
    "Дэвид Лоури"
  ],
  "screenwriter": [
    "Дэвид Лоури",
    "Дэвид Гранн"
  ],
  "producer": [
    "Джули Голдштейн",
    "Тоби Хальбрукс",
    "Кен Хэллоуэй"
  ],
  "operator": [
    "Джо Андерсон"
  ],
  "composer": [
    "Дэниэл Харт"
  ],
  "design": [
    "Скотт Кузио",
    "Майлз Майкл",
    "Аннелль Бродо"
  ],
  "editor": [
    "Лиза Зено Чургин"
  ],
  "actors": [
    "Роберт Редфорд",
    "Кейси Аффлек",
    "Сисси Спейсек",
    "Дэнни Гловер",
    "Том Уэйтс",
    "Тика Самптер",
    "Эри Элизабет Джонсон",
    "Тиган Джонсон",
    "Джин Джонс",
    "Джон Дэвид Вашингтон"
  ],
  "actors_dubl": [
    "Владимир Еремин",
    "Александр Коврижных",
    "Ольга Сирина",
    "Олег Куценко",
    "Александр Казаков"
  ],
  "trivia": [
    "В основу сценария положена статья Дэвида Гранна 2003 года для журнала The New Yorker под названием «Старик с пистолетом». Впоследствии она вошла в книгу Гранна «Дьявол и Шерлок Холмс» (2010).",
    "В сцену побега из тюрьмы вмонтировали кадры из криминальной драмы «Погоня» (Артур Пенн, 1966) с Робертом Редфордом в главной роли."
  ],
  "trailers": [],
  "seasons": [],
  "voiceActing": [
    "Рус. Дублированный",
    "Eng.Original"
  ],
  "subtitle": [],
  "parts": []
}
