{
  "id": 51276,
  "name": "Евгения Гранде",
  "name_eng": "Eugénie Grandet",
  "year": 2021,
  "slogan": "—",
  "age": null,
  "type": "film",
  "quality": "TS",
  "imdb": null,
  "imdb_id": "10196108",
  "kinopoisk": null,
  "kinopoisk_id": "1330387",
  "world_art": null,
  "world_art_id": null,
  "time": "103 мин. / 01:43",
  "ads": true,
  "premier": "2021-06-10",
  "premier_rus": "2021-06-11",
  "availability": "2021-06-12",
  "activate_time": "2021-10-09 22:06:00",
  "budget": null,
  "fees_use": null,
  "fees_world": "$440 774",
  "fees_rus": null,
  "rate_mpaa": null,
  "description": null,
  "iframe_url": "",
  "iframe_poster": null,
  "poster": "https://img.imgilall.me/movies/franchise/5/1/2/7/6/0/0/0/0/0/610x900_51276.jpg",
  "country": {
    "2": "Великобритания",
    "9": "Франция",
    "29": "Бельгия"
  },
  "collection": [],
  "genre": {
    "7": "Драма"
  },
  "director": [
    "Марк Дюген"
  ],
  "screenwriter": [
    "Марк Дюген",
    "Оноре де Бальзак"
  ],
  "producer": [
    "Патрик Андре",
    "Жюльен Лоффлер",
    "Фабрис Смаджа"
  ],
  "operator": [
    "Жиль Порте"
  ],
  "composer": [],
  "design": [
    "Séverine Baehrel",
    "Фабио Перрон",
    "Деви Тируванзям"
  ],
  "editor": [
    "Катрин Шварц"
  ],
  "actors": [
    "Жозефин Жапи",
    "Оливье Гурме",
    "Валери Боннетон",
    "Сезар Домбой",
    "Франсуа Марторе",
    "Натали Бекю",
    "Бруно Раффаэлли",
    "Jean Chevalier",
    "Филипп дю Жанеран",
    "Пьер-Оливье Скотто"
  ],
  "actors_dubl": [],
  "trivia": [],
  "trailers": [],
  "seasons": [],
  "voiceActing": [
    "Синема УС"
  ],
  "subtitle": [],
  "parts": []
}
