{
  "id": 51294,
  "name": "О матерях",
  "name_eng": "Madres",
  "year": 2021,
  "slogan": "—",
  "age": null,
  "type": "film",
  "quality": "FHD (1080p)",
  "imdb": "5.5",
  "imdb_id": "13372944",
  "kinopoisk": null,
  "kinopoisk_id": "1445414",
  "world_art": null,
  "world_art_id": null,
  "time": "83 мин. / 01:23",
  "ads": false,
  "premier": "2021-10-08",
  "premier_rus": "2021-10-09",
  "availability": "2021-10-10",
  "activate_time": "2021-10-12 13:05:00",
  "budget": null,
  "fees_use": null,
  "fees_world": null,
  "fees_rus": null,
  "rate_mpaa": null,
  "description": null,
  "iframe_url": "",
  "iframe_poster": null,
  "poster": "https://img.imgilall.me/movies/franchise/5/1/2/9/4/0/0/0/0/0/610x900_51294.jpg",
  "country": {
    "1": "США"
  },
  "collection": [],
  "genre": {
    "26": "Ужасы"
  },
  "director": [
    "Райан Сарагоса"
  ],
  "screenwriter": [
    "Марио Мисионе",
    "Марселла Очоа"
  ],
  "producer": [
    "Джон Х. Бристер",
    "Джейсон Блум",
    "Лиза Брюс"
  ],
  "operator": [
    "Фелипе Вара де Рей"
  ],
  "composer": [
    "Isabelle Engman-Bredvik",
    "Жерардо Гарсиа мл."
  ],
  "design": [
    "Райан Мартин Двайер",
    "Спенсер Дэвисон",
    "Эулин Колетт Хафки"
  ],
  "editor": [
    "Кристина Хэмилтон"
  ],
  "actors": [
    "Ариана Гуерра",
    "Теноч Уэрта",
    "Джейсон Бэйл",
    "Сарай Боррего",
    "Керри Кехилл",
    "Эльпидия Каррильо",
    "Sam Fisicaro",
    "Джозеф А. Гарсиа",
    "Эвелин Гонзалез",
    "Роберт Ларривьер"
  ],
  "actors_dubl": [],
  "trivia": [],
  "trailers": [],
  "seasons": [],
  "voiceActing": [
    "HDRezka Studio",
    "Eng.Original"
  ],
  "subtitle": [
    "Рус. форсированные"
  ],
  "parts": []
}
