{
  "id": 51363,
  "name": "Шпионы Варшавы",
  "name_eng": "Spies of Warsaw",
  "year": 2013,
  "slogan": "—",
  "age": null,
  "type": "series",
  "quality": "SD",
  "imdb": "6.8",
  "imdb_id": "2343137",
  "kinopoisk": "7.1",
  "kinopoisk_id": "676430",
  "world_art": null,
  "world_art_id": null,
  "time": "120 мин. всего",
  "ads": false,
  "premier": "2013-01-09",
  "premier_rus": "2013-01-10",
  "availability": "2013-01-11",
  "serial_status": "offline",
  "activate_time": "2021-10-12 00:32:00",
  "budget": null,
  "fees_use": null,
  "fees_world": null,
  "fees_rus": null,
  "rate_mpaa": null,
  "description": "Варшава, 1937 год. Нацистская военная машина готова вот-вот запуститься, город наводнён немецкими, русскими и западноевропейскими шпионами. В тёмных уголках и на мрачных улицах — нации неофициально уже вступили в войну, вовлечённые в суровую битву интриг, предательств и похищений. Полковник Жан-Франсуа Мерсье, награждённый герой войны, служит военным атташе во французском посольстве в Варшаве. Играя роль очаровательного посла, Мерсье оказывается увлечён Анной, парижским адвокатом Лиги Наций, но кроме того он играет тайную роль — дерзкого шпиона, намеренного раскрыть планы немецкого вторжения. Тогда как война подбирается всё ближе, миссия Мерсье приводит его в Германию, в самое сердце нацистской операции. Тогда как в Варшаве хаос всё нарастает — а его страстный роман с Анной обретает собственный разрушительный курс...",
  "iframe_url": "",
  "poster": "https://img.imgilall.me/movies/franchise/5/1/3/6/3/0/0/0/0/0/610x900_51363.jpg",
  "country": {
    "1": "США",
    "2": "Великобритания",
    "9": "Франция",
    "14": "Польша"
  },
  "collection": [],
  "genre": {
    "9": "Приключения",
    "32": "Военный",
    "17": "Боевик",
    "8": "Мелодрама",
    "7": "Драма"
  },
  "director": [
    "Коки Гидройч",
    "Вероника Мигон",
    "Kiaran Murray-Smith"
  ],
  "screenwriter": [
    "Дик Клемент",
    "Алан Ферст",
    "Йен Ла Френас"
  ],
  "producer": [
    "Ричард Фелл",
    "Рой Экерман",
    "Джоани Блэйки"
  ],
  "operator": [
    "Войцех Шепель"
  ],
  "composer": [
    "Роберт Лэйн"
  ],
  "design": [
    "Том Бертон",
    "Эва Скочковска",
    "Мария Уилк"
  ],
  "editor": [
    "Гарет С. Скейлс"
  ],
  "actors": [
    "Дэвид Теннант",
    "Джанет Монтгомери",
    "Марчин Дорочиньский",
    "Мирослав Зброевич",
    "Элли Хаддингтон",
    "Берн Горман",
    "Радослав Каим",
    "Линда Бэссет",
    "Аллан Кордунер",
    "Антон Лессер"
  ],
  "actors_dubl": [],
  "trivia": [],
  "trailers": [],
  "seasons": [
    {
      "poster": null,
      "release_ru": null,
      "release_world": null,
      "availability": null,
      "iframe_url": "",
      "season": 1,
      "episodes": [
        {
          "episode": 1,
          "name": null,
          "iframe_url": "",
          "iframe_poster": null,
          "release_ru": null,
          "release_world": null,
          "availability": null,
          "voiceActing": [
            "Baibako",
            "Eng.Original"
          ],
          "ads": false,
          "subtitle": []
        },
        {
          "episode": 2,
          "name": null,
          "iframe_url": "",
          "iframe_poster": null,
          "release_ru": null,
          "release_world": null,
          "availability": null,
          "voiceActing": [
            "Baibako",
            "Eng.Original"
          ],
          "ads": false,
          "subtitle": []
        }
      ]
    }
  ],
  "voiceActing": [
    "Baibako",
    "Eng.Original"
  ],
  "subtitle": [],
  "parts": []
}
