{
  "id": 51448,
  "name": "Одержимость: Ее последняя месть",
  "name_eng": "Obsession: Her Final Vengeance",
  "year": 2020,
  "slogan": "—",
  "age": null,
  "type": "film",
  "quality": "HD (720p)",
  "imdb": "6.0",
  "imdb_id": "11347414",
  "kinopoisk": null,
  "kinopoisk_id": "1326176",
  "world_art": null,
  "world_art_id": null,
  "time": "85 мин. / 01:25",
  "ads": true,
  "premier": "2020-07-12",
  "premier_rus": "2020-07-13",
  "availability": "2020-07-14",
  "activate_time": "2021-10-15 16:32:00",
  "budget": null,
  "fees_use": null,
  "fees_world": null,
  "fees_rus": null,
  "rate_mpaa": null,
  "description": null,
  "iframe_url": "",
  "iframe_poster": null,
  "poster": "https://img.imgilall.me/movies/franchise/5/1/4/4/8/0/0/0/0/0/610x900_51448.jpg",
  "country": {
    "7": "Канада"
  },
  "collection": [],
  "genre": {
    "13": "Триллер"
  },
  "director": [
    "Кертис Кроуфорд"
  ],
  "screenwriter": [
    "Melissa Cassera"
  ],
  "producer": [
    "Стив Бойсверт",
    "Нил Брегман",
    "Кертис Кроуфорд"
  ],
  "operator": [
    "Билл Ст. Джон"
  ],
  "composer": [
    "Ричард Бауэрс"
  ],
  "design": [
    "Коуди Джонсон"
  ],
  "editor": [
    "Джордан Дженсен"
  ],
  "actors": [
    "Селеста Дежардинс",
    "Анастасия Филлипс",
    "Трэвис Нельсон",
    "Келли Хоуп Тейлор",
    "Лекси Эйнсуорт",
    "Райан Брюс",
    "Дэрил Бэнкс",
    "Бритт МакЛеннан",
    "Тонджа Ричардсон",
    "Джулия Шантри"
  ],
  "actors_dubl": [],
  "trivia": [],
  "trailers": [],
  "seasons": [],
  "voiceActing": [
    "Синема УС"
  ],
  "subtitle": [],
  "parts": []
}
