{
  "id": 51490,
  "name": "От смерти до смерти",
  "name_eng": "Sepelenmis Ölümler Arasinda",
  "year": 2020,
  "slogan": "—",
  "age": null,
  "type": "film",
  "quality": "HD (720p)",
  "imdb": "6.1",
  "imdb_id": "11268864",
  "kinopoisk": null,
  "kinopoisk_id": "1320738",
  "world_art": null,
  "world_art_id": null,
  "time": "88 мин. / 01:28",
  "ads": true,
  "premier": "2020-09-10",
  "premier_rus": "2020-09-11",
  "availability": "2020-09-12",
  "activate_time": "2021-10-18 02:47:00",
  "budget": null,
  "fees_use": null,
  "fees_world": "$914",
  "fees_rus": null,
  "rate_mpaa": null,
  "description": "Молодой человек пытается найти свою «настоящую» семью. За день он проживает целую жизнь. В конце этого дня он находит свою любовь - ту, которая всегда была рядом. Находит, но слишком поздно.",
  "iframe_url": "",
  "iframe_poster": null,
  "poster": "https://img.imgilall.me/movies/franchise/5/1/4/9/0/0/0/0/0/0/610x900_51490.jpg",
  "country": {
    "17": "Мексика",
    "1": "США",
    "122": "Азербайджан"
  },
  "collection": [],
  "genre": {
    "7": "Драма"
  },
  "director": [
    "Хилал Байдаров"
  ],
  "screenwriter": [
    "Хилал Байдаров",
    "Rashad Safar"
  ],
  "producer": [
    "Эльшан Аббасов",
    "Хилал Байдаров",
    "Джослин Барнс"
  ],
  "operator": [
    "Эльшан Аббасов"
  ],
  "composer": [
    "Kanan Rustamli"
  ],
  "design": [],
  "editor": [
    "Хилал Байдаров"
  ],
  "actors": [
    "Orkhan Iskandarli",
    "Rana Asgarova",
    "Huseyn Nasirov",
    "Samir Abbasov",
    "Kamran Huseynov",
    "Мэриам Нагиева",
    "Kubra Shukurova",
    "Narmin Hasanova",
    "Oktay Namazov",
    "Murvat Abdulazizov"
  ],
  "actors_dubl": [],
  "trivia": [],
  "trailers": [],
  "seasons": [],
  "voiceActing": [
    "Синема УС"
  ],
  "subtitle": [],
  "parts": []
}
