{
  "id": 51502,
  "name": "Инсайт",
  "name_eng": "",
  "year": 2021,
  "slogan": "—",
  "age": null,
  "type": "series",
  "quality": "SD",
  "imdb": null,
  "imdb_id": null,
  "kinopoisk": null,
  "kinopoisk_id": "4473741",
  "world_art": null,
  "world_art_id": null,
  "time": "—",
  "ads": false,
  "premier": null,
  "premier_rus": null,
  "availability": null,
  "serial_status": "offline",
  "activate_time": "2021-10-18 13:51:00",
  "budget": null,
  "fees_use": null,
  "fees_world": null,
  "fees_rus": null,
  "rate_mpaa": null,
  "description": null,
  "iframe_url": "",
  "poster": "https://img.imgilall.me/movies/franchise/5/1/5/0/2/0/0/0/0/0/610x900_51502.jpeg",
  "country": {
    "5": "Россия"
  },
  "collection": [],
  "genre": {
    "24": "Детектив"
  },
  "director": [
    "Ольга Кандидатова"
  ],
  "screenwriter": [
    "Екатерина Попечителева"
  ],
  "producer": [
    "Екатерина Попечителева",
    "Алексей Моисеев",
    "Мария Пирумова"
  ],
  "operator": [
    "Кирилл Сперанский"
  ],
  "composer": [],
  "design": [],
  "editor": [],
  "actors": [
    "Алексей Митин",
    "Сергей Мардарь",
    "Елена Руфанова",
    "Дмитрий Воробьев",
    "Любовь Макеева",
    "Алексей Шильников",
    "Дмитрий Сутырин",
    "Руслан Барабанов",
    "Андрей Некрасов",
    "Ульяна Плащевская"
  ],
  "actors_dubl": [],
  "trivia": [],
  "trailers": [],
  "seasons": [
    {
      "poster": null,
      "release_ru": null,
      "release_world": null,
      "availability": null,
      "iframe_url": "",
      "season": 1,
      "episodes": [
        {
          "episode": 1,
          "name": null,
          "iframe_url": "",
          "iframe_poster": null,
          "release_ru": null,
          "release_world": null,
          "availability": null,
          "voiceActing": [
            "Рус. Оригинальный"
          ],
          "ads": false,
          "subtitle": []
        },
        {
          "episode": 2,
          "name": null,
          "iframe_url": "",
          "iframe_poster": null,
          "release_ru": null,
          "release_world": null,
          "availability": null,
          "voiceActing": [
            "Рус. Оригинальный"
          ],
          "ads": false,
          "subtitle": []
        },
        {
          "episode": 3,
          "name": null,
          "iframe_url": "",
          "iframe_poster": null,
          "release_ru": null,
          "release_world": null,
          "availability": null,
          "voiceActing": [
            "Рус. Оригинальный"
          ],
          "ads": false,
          "subtitle": []
        },
        {
          "episode": 4,
          "name": null,
          "iframe_url": "",
          "iframe_poster": null,
          "release_ru": null,
          "release_world": null,
          "availability": null,
          "voiceActing": [
            "Рус. Оригинальный"
          ],
          "ads": false,
          "subtitle": []
        },
        {
          "episode": 5,
          "name": null,
          "iframe_url": "",
          "iframe_poster": null,
          "release_ru": null,
          "release_world": null,
          "availability": null,
          "voiceActing": [
            "Рус. Оригинальный"
          ],
          "ads": false,
          "subtitle": []
        }
      ]
    }
  ],
  "voiceActing": [
    "Рус. Оригинальный"
  ],
  "subtitle": [],
  "parts": []
}
