{
  "id": 51501,
  "name": "Чёрное солнце",
  "name_eng": "The Veil / Geomeun Taeyang",
  "year": 2021,
  "slogan": "—",
  "age": null,
  "type": "series",
  "quality": "HD (720p)",
  "imdb": "7.7",
  "imdb_id": "14482296",
  "kinopoisk": null,
  "kinopoisk_id": "2044776",
  "world_art": null,
  "world_art_id": null,
  "time": "70 мин",
  "ads": true,
  "premier": "2021-09-17",
  "premier_rus": "2021-09-18",
  "availability": "2021-09-19",
  "serial_status": "offline",
  "activate_time": "2021-10-20 12:28:00",
  "budget": null,
  "fees_use": null,
  "fees_world": null,
  "fees_rus": null,
  "rate_mpaa": null,
  "description": "Спецагент с разрушенной год назад репутацией возвращается в разведку, чтобы найти того, кто его подставил.",
  "iframe_url": "",
  "poster": "https://img.imgilall.me/movies/franchise/5/1/5/0/1/0/0/0/0/0/610x900_51501.jpg",
  "country": {
    "16": "Корея Южная"
  },
  "collection": {
    "115": "Дорамы"
  },
  "genre": {
    "24": "Детектив",
    "17": "Боевик",
    "13": "Триллер"
  },
  "director": [
    "Ким Сон-ён"
  ],
  "screenwriter": [
    "Пак Сок-хо"
  ],
  "producer": [],
  "operator": [],
  "composer": [],
  "design": [],
  "editor": [],
  "actors": [
    "Намгун Мин",
    "Пак Ха-сон",
    "Ким Джи-ын",
    "Квон Со-хён",
    "Ю О-сон",
    "Ким Бён-ги",
    "Ли Гён-ён",
    "Чан Ён-нам",
    "Ким Джон-тхэ",
    "Ким Мин-сан"
  ],
  "actors_dubl": [],
  "trivia": [],
  "trailers": [],
  "seasons": [
    {
      "poster": null,
      "release_ru": null,
      "release_world": null,
      "availability": null,
      "iframe_url": "",
      "season": 1,
      "episodes": [
        {
          "episode": 1,
          "name": null,
          "iframe_url": "",
          "iframe_poster": null,
          "release_ru": null,
          "release_world": null,
          "availability": null,
          "voiceActing": [
            "STEPonee"
          ],
          "ads": false,
          "subtitle": []
        },
        {
          "episode": 2,
          "name": null,
          "iframe_url": "",
          "iframe_poster": null,
          "release_ru": null,
          "release_world": null,
          "availability": null,
          "voiceActing": [
            "STEPonee"
          ],
          "ads": false,
          "subtitle": []
        },
        {
          "episode": 3,
          "name": null,
          "iframe_url": "",
          "iframe_poster": null,
          "release_ru": null,
          "release_world": null,
          "availability": null,
          "voiceActing": [
            "STEPonee"
          ],
          "ads": false,
          "subtitle": []
        },
        {
          "episode": 4,
          "name": null,
          "iframe_url": "",
          "iframe_poster": null,
          "release_ru": null,
          "release_world": null,
          "availability": null,
          "voiceActing": [
            "STEPonee"
          ],
          "ads": false,
          "subtitle": []
        },
        {
          "episode": 5,
          "name": null,
          "iframe_url": "",
          "iframe_poster": null,
          "release_ru": null,
          "release_world": null,
          "availability": null,
          "voiceActing": [
            "STEPonee"
          ],
          "ads": false,
          "subtitle": []
        },
        {
          "episode": 6,
          "name": null,
          "iframe_url": "",
          "iframe_poster": null,
          "release_ru": null,
          "release_world": null,
          "availability": null,
          "voiceActing": [
            "STEPonee"
          ],
          "ads": false,
          "subtitle": []
        },
        {
          "episode": 7,
          "name": null,
          "iframe_url": "",
          "iframe_poster": null,
          "release_ru": null,
          "release_world": null,
          "availability": null,
          "voiceActing": [
            "STEPonee"
          ],
          "ads": false,
          "subtitle": []
        },
        {
          "episode": 8,
          "name": null,
          "iframe_url": "",
          "iframe_poster": null,
          "release_ru": null,
          "release_world": null,
          "availability": null,
          "voiceActing": [
            "STEPonee"
          ],
          "ads": false,
          "subtitle": []
        },
        {
          "episode": 9,
          "name": null,
          "iframe_url": "",
          "iframe_poster": null,
          "release_ru": null,
          "release_world": null,
          "availability": null,
          "voiceActing": [
            "STEPonee"
          ],
          "ads": false,
          "subtitle": []
        },
        {
          "episode": 10,
          "name": null,
          "iframe_url": "",
          "iframe_poster": null,
          "release_ru": null,
          "release_world": null,
          "availability": null,
          "voiceActing": [
            "SOFTBOX"
          ],
          "ads": true,
          "subtitle": []
        },
        {
          "episode": 11,
          "name": null,
          "iframe_url": "",
          "iframe_poster": null,
          "release_ru": null,
          "release_world": null,
          "availability": null,
          "voiceActing": [
            "SOFTBOX"
          ],
          "ads": true,
          "subtitle": []
        },
        {
          "episode": 12,
          "name": null,
          "iframe_url": "",
          "iframe_poster": null,
          "release_ru": null,
          "release_world": null,
          "availability": null,
          "voiceActing": [
            "SOFTBOX"
          ],
          "ads": true,
          "subtitle": []
        }
      ]
    }
  ],
  "voiceActing": [
    "STEPonee",
    "SOFTBOX"
  ],
  "subtitle": [],
  "parts": []
}
