{
  "id": 51520,
  "name": "Казанова",
  "name_eng": "Casanova",
  "year": 2005,
  "slogan": "—",
  "age": "16+",
  "type": "film",
  "quality": "SD",
  "imdb": "7.9",
  "imdb_id": "0427042",
  "kinopoisk": "8.1",
  "kinopoisk_id": "153022",
  "world_art": null,
  "world_art_id": null,
  "time": "174 мин. всего",
  "ads": false,
  "premier": "2005-03-13",
  "premier_rus": "2005-03-14",
  "availability": "2005-03-15",
  "activate_time": "2021-10-19 12:37:00",
  "budget": null,
  "fees_use": null,
  "fees_world": null,
  "fees_rus": null,
  "rate_mpaa": null,
  "description": "Молодая девушка, работающая в замке, узнает, что господина, явно благородного происхождения, работающем в замке библиотекарем, зовут Джакомо Казанова. Она решает выведать, правда ли всё то, что ей довелось о нём услышать. Старик, обрадованный неожиданному собеседнику рассказывает девушке историю своей жизни,  полную приключений, великолепных интриг, взлётов и падений...",
  "iframe_url": "",
  "iframe_poster": null,
  "poster": "https://img.imgilall.me/movies/franchise/5/1/5/2/0/0/0/0/0/0/610x900_51520.jpg",
  "country": {
    "2": "Великобритания"
  },
  "collection": [],
  "genre": {
    "28": "Исторический",
    "27": "Биографический",
    "19": "Комедия",
    "8": "Мелодрама",
    "7": "Драма"
  },
  "director": [
    "Шери Фоксон"
  ],
  "screenwriter": [
    "Расселл Т. Дэвис"
  ],
  "producer": [
    "Джастин Бодл",
    "Мишель Бак",
    "Расселл Т. Дэвис"
  ],
  "operator": [
    "Тат Рэдклифф"
  ],
  "composer": [
    "Мюррэй Голд"
  ],
  "design": [
    "Элисон Доминитц",
    "Грант Монтгомери",
    "Мишель Клэптон"
  ],
  "editor": [
    "Ник Артурс"
  ],
  "actors": [
    "Дэвид Теннант",
    "Роуз Бирн",
    "Питер О’Тул",
    "Руперт Пенри-Джонс",
    "Шон Паркес",
    "Лора Фрейзер",
    "Нина Сосанья",
    "Антонио Луяк",
    "Клэр Хиггинс",
    "Джеймс Холли"
  ],
  "actors_dubl": [],
  "trivia": [],
  "trailers": [],
  "seasons": [],
  "voiceActing": [
    "Рус. Проф. многоголосый"
  ],
  "subtitle": [],
  "parts": []
}
