{
  "id": 51673,
  "name": "Список желаний",
  "name_eng": "La lista de los deseos",
  "year": 2020,
  "slogan": "—",
  "age": null,
  "type": "film",
  "quality": "HD (720p)",
  "imdb": "5.8",
  "imdb_id": "9660666",
  "kinopoisk": null,
  "kinopoisk_id": "1237625",
  "world_art": null,
  "world_art_id": null,
  "time": "102 мин. / 01:42",
  "ads": true,
  "premier": "2020-06-26",
  "premier_rus": "2020-06-27",
  "availability": "2020-06-28",
  "activate_time": "2021-10-26 15:09:00",
  "budget": null,
  "fees_use": null,
  "fees_world": null,
  "fees_rus": null,
  "rate_mpaa": null,
  "description": null,
  "iframe_url": "",
  "iframe_poster": null,
  "poster": "https://img.imgilall.me/movies/franchise/5/1/6/7/3/0/0/0/0/0/610x900_51673.jpg",
  "country": {
    "3": "Испания"
  },
  "collection": [],
  "genre": {
    "19": "Комедия",
    "7": "Драма"
  },
  "director": [
    "Альваро Диаз Лоренцо"
  ],
  "screenwriter": [
    "Альваро Диаз Лоренцо"
  ],
  "producer": [
    "Антонио П. Перес",
    "Адольфо Бланко",
    "Маноло Лимон"
  ],
  "operator": [
    "Валентин Алварез"
  ],
  "composer": [
    "Хулио де ла Роса"
  ],
  "design": [
    "Lala Obrero",
    "Carlos Saponi"
  ],
  "editor": [
    "Кристина Пастор"
  ],
  "actors": [
    "Мария Леон",
    "Виктория Абриль",
    "Сильвия Алонсо",
    "Боре Буика",
    "Сальва Реина",
    "Пако Тоус",
    "Хвида",
    "Ammar Alkatib",
    "Мара Гуилл",
    "Senae Refrade"
  ],
  "actors_dubl": [],
  "trivia": [],
  "trailers": [],
  "seasons": [],
  "voiceActing": [
    "Рус. Люб. многоголосый"
  ],
  "subtitle": [],
  "parts": []
}
