{
  "id": 51687,
  "name": "Подожди до весны, Бандини",
  "name_eng": "Wait Until Spring, Bandini",
  "year": 1989,
  "slogan": "—",
  "age": null,
  "type": "film",
  "quality": "SD",
  "imdb": "6.2",
  "imdb_id": "0098615",
  "kinopoisk": null,
  "kinopoisk_id": "7324",
  "world_art": null,
  "world_art_id": null,
  "time": "100 мин. / 01:40",
  "ads": false,
  "premier": "1989-11-02",
  "premier_rus": "1989-11-03",
  "availability": "1989-11-04",
  "activate_time": "2021-10-26 23:59:00",
  "budget": null,
  "fees_use": null,
  "fees_world": null,
  "fees_rus": null,
  "rate_mpaa": "PG",
  "description": "Действие фильма происходит в 20-е годы XX века в Колорадо. Семья итальянских иммигрантов Бандини с трудом сводит концы с концами. Глава семьи, безработный каменщик, находит утешение в алкоголе и играх. Он знакомится с богатой вдовой, ради которой готов оставить жену Марию и троих сыновей.",
  "iframe_url": "",
  "iframe_poster": null,
  "poster": "https://img.imgilall.me/movies/franchise/5/1/6/8/7/0/0/0/0/0/610x900_51687.jpg",
  "country": {
    "1": "США",
    "8": "Италия",
    "9": "Франция",
    "29": "Бельгия"
  },
  "collection": [],
  "genre": {
    "7": "Драма"
  },
  "director": [
    "Доминик Дерюддер"
  ],
  "screenwriter": [
    "Доминик Дерюддер",
    "Джон Фанте"
  ],
  "producer": [
    "Шэй Канлифф",
    "Том Ладди",
    "Эрвин Провуст"
  ],
  "operator": [
    "Жан-Франсуа Робен"
  ],
  "composer": [
    "Анджело Бадаламенти"
  ],
  "design": [
    "Боб Зимбицки",
    "Роджер Крэндолл",
    "Шэй Канлифф"
  ],
  "editor": [
    "Лудо Трох"
  ],
  "actors": [
    "Джо Мантенья",
    "Орнелла Мути",
    "Фэй Данауэй",
    "Майкл Бэколл",
    "Дэниэл Уилсон",
    "Алекс Винсент",
    "Берт Янг",
    "Таня Лопер",
    "Рената Ванни",
    "Франсуа Букелаэрс"
  ],
  "actors_dubl": [],
  "trivia": [],
  "trailers": [],
  "seasons": [],
  "voiceActing": [
    "Рус. Одноголосый",
    "Eng.Original"
  ],
  "subtitle": [],
  "parts": []
}
