{
  "id": 51782,
  "name": "Девять дней",
  "name_eng": "Nine Days",
  "year": 2020,
  "slogan": "«Life Begins at the End»",
  "age": "18+",
  "type": "film",
  "quality": "FHD (1080p)",
  "imdb": "7.5",
  "imdb_id": "10451852",
  "kinopoisk": "7.8",
  "kinopoisk_id": "1274590",
  "world_art": null,
  "world_art_id": null,
  "time": "124 мин. / 02:04",
  "ads": false,
  "premier": "2020-01-27",
  "premier_rus": "2020-01-28",
  "availability": "2020-01-29",
  "activate_time": "2021-10-31 17:15:00",
  "budget": null,
  "fees_use": "$694 358",
  "fees_world": "+ $204 665 = $899 023",
  "fees_rus": null,
  "rate_mpaa": "R",
  "description": "Отшельник живёт в доме, расположенном за границами обычной реальности. Там он общается с разными кандидатами — олицетворениями человеческих душ. Один из этих кандидатов будет удостоен права быть рождённым.",
  "iframe_url": "",
  "iframe_poster": null,
  "poster": "https://img.imgilall.me/movies/franchise/5/1/7/8/2/0/0/0/0/0/610x900_51782.jpg",
  "country": {
    "1": "США"
  },
  "collection": [],
  "genre": {
    "6": "Фэнтези",
    "7": "Драма"
  },
  "director": [
    "Эдсон Ода"
  ],
  "screenwriter": [
    "Эдсон Ода"
  ],
  "producer": [
    "Датари Тернер",
    "Келлон Аким",
    "Джейсон Майкл Берман"
  ],
  "operator": [
    "Уайатт Гарфилд"
  ],
  "composer": [
    "Антонио Пинто"
  ],
  "design": [
    "Дэн Хермансен",
    "Фернандо Родригес"
  ],
  "editor": [
    "Джефф Бетанкорт",
    "Майкл Тейлор"
  ],
  "actors": [
    "Уинстон Дьюк",
    "Зази Битц",
    "Билл Скарсгард",
    "Бенедикт Вонг",
    "Тони Хейл",
    "Дэвид Рисдаль",
    "Арианна Ортиз",
    "Джеральдин Хьюз",
    "Эрика Васкес",
    "Перри Смит"
  ],
  "actors_dubl": [],
  "trivia": [],
  "trailers": [],
  "seasons": [],
  "voiceActing": [
    "Рус. Проф. многоголосый",
    "Eng.Original"
  ],
  "subtitle": [
    "Рус. полные"
  ],
  "parts": []
}
