{
  "id": 51823,
  "name": "Кёртис",
  "name_eng": "Curtis",
  "year": 2020,
  "slogan": "—",
  "age": null,
  "type": "film",
  "quality": "FHD (1080p)",
  "imdb": "5.7",
  "imdb_id": "9080846",
  "kinopoisk": null,
  "kinopoisk_id": "1198064",
  "world_art": null,
  "world_art_id": null,
  "time": "85 мин. / 01:25",
  "ads": true,
  "premier": null,
  "premier_rus": null,
  "availability": null,
  "activate_time": "2021-11-02 18:39:00",
  "budget": null,
  "fees_use": null,
  "fees_world": null,
  "fees_rus": null,
  "rate_mpaa": null,
  "description": null,
  "iframe_url": "",
  "iframe_poster": null,
  "poster": "https://img.imgilall.me/movies/franchise/5/1/8/2/3/0/0/0/0/0/610x900_51823.jpg",
  "country": {
    "1": "США"
  },
  "collection": {
    "122": "Про баскетбол",
    "5": "С наградами"
  },
  "genre": {
    "23": "Спортивный",
    "7": "Драма"
  },
  "director": [
    "Chris Bailey"
  ],
  "screenwriter": [
    "Chris Bailey"
  ],
  "producer": [
    "Челси Девенпорт",
    "Kimberly Hwang",
    "Desi Bee Richardson"
  ],
  "operator": [
    "Colin Oh"
  ],
  "composer": [],
  "design": [],
  "editor": [
    "Синди Триссел"
  ],
  "actors": [
    "Дуайт Генри",
    "Алекс Хендерсон",
    "Тадеус Стрит",
    "Даррен Вашингтон"
  ],
  "actors_dubl": [],
  "trivia": [],
  "trailers": [],
  "seasons": [],
  "voiceActing": [
    "Синема УС"
  ],
  "subtitle": [],
  "parts": []
}
