{
  "id": 51955,
  "name": "Молоко птицы",
  "name_eng": "",
  "year": 2021,
  "slogan": "—",
  "age": "16+",
  "type": "film",
  "quality": "TS",
  "imdb": null,
  "imdb_id": null,
  "kinopoisk": null,
  "kinopoisk_id": "1390618",
  "world_art": null,
  "world_art_id": null,
  "time": "78 мин. / 01:18",
  "ads": true,
  "premier": null,
  "premier_rus": "2021-11-18",
  "availability": "2021-11-19",
  "activate_time": "2021-11-23 23:39:00",
  "budget": null,
  "fees_use": null,
  "fees_world": null,
  "fees_rus": null,
  "rate_mpaa": null,
  "description": "16-летний Андриан живет в маленьком городке. Его жизнь — бесконечные конфликты со сверстниками, предательство друга и попытки разобраться в отношениях в семье. Стремясь убежать от реальности, Андриан мечтает уехать в Италию, которую воспринимает как символ освобождения. Но его планам не дано сбыться.",
  "iframe_url": "",
  "iframe_poster": null,
  "poster": "https://img.imgilall.me/movies/franchise/5/1/9/5/5/0/0/0/0/0/610x900_51955.jpg",
  "country": {
    "5": "Россия"
  },
  "collection": {
    "43": "Про подростков",
    "27": "Про жизнь"
  },
  "genre": {
    "7": "Драма"
  },
  "director": [
    "Евгений Марьян"
  ],
  "screenwriter": [
    "Евгений Марьян"
  ],
  "producer": [
    "Роман Борисевич",
    "Александр Кушаев",
    "Сергей Демьяненко"
  ],
  "operator": [
    "Николай Желудович"
  ],
  "composer": [
    "Фёдор Веткалов"
  ],
  "design": [
    "Екатерина Джагарова"
  ],
  "editor": [
    "Евгений Марьян"
  ],
  "actors": [
    "Виталий Назаренко",
    "Елена Лядова",
    "Валериу Андрюцэ",
    "Камиль Хардин",
    "Влада Ерофеева",
    "Дмитрий Тополь",
    "Илья Кипоренко",
    "Александр Ратовский",
    "Игор Бабиак",
    "Сержиу Волок"
  ],
  "actors_dubl": [],
  "trivia": [],
  "trailers": [],
  "seasons": [],
  "voiceActing": [
    "Рус. Оригинальный"
  ],
  "subtitle": [],
  "parts": []
}
