{
  "id": 5200,
  "name": "Десять процентов",
  "name_eng": "Dix pour cent",
  "year": 2015,
  "slogan": null,
  "age": "16+",
  "type": "series",
  "quality": "HD (720p)",
  "imdb": "8.3",
  "imdb_id": "4277922",
  "kinopoisk": "7.8",
  "kinopoisk_id": "1046111",
  "world_art": null,
  "world_art_id": null,
  "time": "52 мин.",
  "ads": false,
  "premier": "2015-09-25",
  "premier_rus": "2019-05-27",
  "availability": "2019-05-28",
  "serial_status": "online",
  "activate_time": "2019-01-07 14:30:09",
  "budget": null,
  "fees_use": null,
  "fees_world": null,
  "fees_rus": null,
  "rate_mpaa": null,
  "description": "Сотрудники агентства ASK занимаются работой со знаменитостями. Каждый день им приходится лавировать между капризными клиентами-звёздами, журналистами, норовящими раскопать шокирующие новости о подопечных ASK, а также режиссёрами и продюсерами, которые отбирают актёров в фильмы. Неожиданно, кроме ежедневных стрессов и скандалов, агентство сталкивается с новой проблемой: умирает один из основателей. Теперь четвёрке героев предстоит самим заботиться о своём завтрашнем дне и сделать всё, чтобы компания не пошла на дно. Всё это накладывается на их непростые взаимоотношения между собой и запутанную личную жизнь.",
  "iframe_url": "",
  "poster": "https://img.imgilall.me/movies/franchise/5/2/0/0/0/0/0/0/0/0/610x900_5200.jpg",
  "country": {
    "9": "Франция"
  },
  "collection": [],
  "genre": {
    "19": "Комедия",
    "10": "Зарубежный"
  },
  "director": [
    "Антуан Гарсо",
    "Марк Фитусси",
    "Лола Дуайон"
  ],
  "screenwriter": [
    "Доминик Беснеар",
    "Fanny Herero",
    "Julien Messemackers"
  ],
  "producer": [
    "Доминик Беснеар",
    "Мишель Феллер",
    "Aurélien Larger"
  ],
  "operator": [
    "Ив Кап",
    "Дени Руден",
    "Антуан Рош"
  ],
  "composer": [
    "Лоик Дюри",
    "Кристоф Минк"
  ],
  "design": [
    "Laurent Avoyne",
    "Эммануэль Дюпле",
    "Сандрин Жаррон"
  ],
  "editor": [
    "Катрин Шварц",
    "Guillaume Lauras",
    "Софи Брунет"
  ],
  "actors": [
    "Камилль Коттен",
    "Тибо де Монталембер",
    "Грегори Монтель",
    "Фанни Сидни",
    "Стефи Сельма",
    "Лилиан Ровер",
    "Николя Мори",
    "Лор Калами",
    "Офелия Колб",
    "Филиппин Леруа-Больё"
  ],
  "actors_dubl": [],
  "trivia": [],
  "trailers": [],
  "seasons": [
    {
      "poster": "https://img.imgilall.me/movies/season/3/2/7/8/0/0/0/0/0/0/610x900_3278.jpg",
      "release_ru": "2015-10-15",
      "release_world": "2015-10-14",
      "availability": "2015-10-16",
      "iframe_url": "",
      "season": 1,
      "episodes": [
        {
          "episode": 1,
          "name": "Cécile",
          "iframe_url": "",
          "iframe_poster": "https://img.imgilall.me/movies/video/1/0/9/1/7/8/0/0/0/0/800x450_109178.jpeg",
          "release_ru": "2015-10-15",
          "release_world": "2015-10-14",
          "availability": "2015-10-16",
          "voiceActing": [
            "Рус. Дублированный"
          ],
          "ads": false,
          "subtitle": []
        },
        {
          "episode": 2,
          "name": "Line et Françoise",
          "iframe_url": "",
          "iframe_poster": "https://img.imgilall.me/movies/video/1/0/9/1/7/9/0/0/0/0/800x450_109179.jpeg",
          "release_ru": "2015-10-15",
          "release_world": "2015-10-14",
          "availability": "2015-10-16",
          "voiceActing": [
            "Рус. Дублированный"
          ],
          "ads": false,
          "subtitle": []
        },
        {
          "episode": 3,
          "name": "Nathalie et Laura",
          "iframe_url": "",
          "iframe_poster": "https://img.imgilall.me/movies/video/1/0/9/1/8/0/0/0/0/0/800x450_109180.jpeg",
          "release_ru": "2015-10-22",
          "release_world": "2015-10-21",
          "availability": "2015-10-23",
          "voiceActing": [
            "Рус. Дублированный"
          ],
          "ads": false,
          "subtitle": []
        },
        {
          "episode": 4,
          "name": "Audrey",
          "iframe_url": "",
          "iframe_poster": "https://img.imgilall.me/movies/video/1/0/9/1/8/1/0/0/0/0/800x450_109181.jpeg",
          "release_ru": "2015-10-22",
          "release_world": "2015-10-21",
          "availability": "2015-10-23",
          "voiceActing": [
            "Рус. Дублированный"
          ],
          "ads": false,
          "subtitle": []
        },
        {
          "episode": 5,
          "name": "Julie et Joey",
          "iframe_url": "",
          "iframe_poster": "https://img.imgilall.me/movies/video/1/0/9/1/8/2/0/0/0/0/800x450_109182.jpeg",
          "release_ru": "2015-10-29",
          "release_world": "2015-10-28",
          "availability": "2015-10-30",
          "voiceActing": [
            "Рус. Дублированный"
          ],
          "ads": false,
          "subtitle": []
        },
        {
          "episode": 6,
          "name": "François",
          "iframe_url": "",
          "iframe_poster": "https://img.imgilall.me/movies/video/1/0/9/1/8/3/0/0/0/0/800x450_109183.jpeg",
          "release_ru": "2015-10-29",
          "release_world": "2015-10-28",
          "availability": "2015-10-30",
          "voiceActing": [
            "Рус. Дублированный"
          ],
          "ads": false,
          "subtitle": []
        }
      ]
    },
    {
      "poster": "https://img.imgilall.me/movies/season/3/2/8/5/0/0/0/0/0/0/610x900_3285.jpg",
      "release_ru": "2017-04-20",
      "release_world": "2017-04-19",
      "availability": "2017-04-21",
      "iframe_url": "",
      "season": 2,
      "episodes": [
        {
          "episode": 1,
          "name": "Virginie et Ramzy",
          "iframe_url": "",
          "iframe_poster": "https://img.imgilall.me/movies/video/1/0/9/3/6/8/0/0/0/0/800x450_109368.jpeg",
          "release_ru": "2017-04-20",
          "release_world": "2017-04-19",
          "availability": "2017-04-21",
          "voiceActing": [
            "Рус. Дублированный"
          ],
          "ads": false,
          "subtitle": []
        },
        {
          "episode": 2,
          "name": "Fabrice and Christophe",
          "iframe_url": "",
          "iframe_poster": "https://img.imgilall.me/movies/video/1/0/9/3/6/9/0/0/0/0/800x450_109369.jpeg",
          "release_ru": "2017-04-20",
          "release_world": "2017-04-19",
          "availability": "2017-04-21",
          "voiceActing": [
            "Рус. Дублированный"
          ],
          "ads": false,
          "subtitle": []
        },
        {
          "episode": 3,
          "name": "Norman",
          "iframe_url": "",
          "iframe_poster": "https://img.imgilall.me/movies/video/1/0/9/3/7/0/0/0/0/0/800x450_109370.jpeg",
          "release_ru": "2017-04-27",
          "release_world": "2017-04-26",
          "availability": "2017-04-28",
          "voiceActing": [
            "Рус. Дублированный"
          ],
          "ads": false,
          "subtitle": []
        },
        {
          "episode": 4,
          "name": "Isabelle",
          "iframe_url": "",
          "iframe_poster": "https://img.imgilall.me/movies/video/1/0/9/3/7/1/0/0/0/0/800x450_109371.jpeg",
          "release_ru": "2017-04-27",
          "release_world": "2017-04-26",
          "availability": "2017-04-28",
          "voiceActing": [
            "Рус. Дублированный"
          ],
          "ads": false,
          "subtitle": []
        },
        {
          "episode": 5,
          "name": "Guy et Julien",
          "iframe_url": "",
          "iframe_poster": "https://img.imgilall.me/movies/video/1/0/9/3/7/2/0/0/0/0/800x450_109372.jpeg",
          "release_ru": "2017-05-11",
          "release_world": "2017-05-10",
          "availability": "2017-05-12",
          "voiceActing": [
            "Рус. Дублированный"
          ],
          "ads": false,
          "subtitle": []
        },
        {
          "episode": 6,
          "name": "Juliette",
          "iframe_url": "",
          "iframe_poster": "https://img.imgilall.me/movies/video/1/0/9/3/7/3/0/0/0/0/800x450_109373.jpeg",
          "release_ru": "2017-05-11",
          "release_world": "2017-05-10",
          "availability": "2017-05-12",
          "voiceActing": [
            "Рус. Дублированный"
          ],
          "ads": false,
          "subtitle": []
        }
      ]
    },
    {
      "poster": "https://img.imgilall.me/movies/season/3/0/6/3/0/0/0/0/0/0/610x900_3063.jpg",
      "release_ru": "2018-11-15",
      "release_world": "2018-11-14",
      "availability": "2018-11-16",
      "iframe_url": "",
      "season": 3,
      "episodes": [
        {
          "episode": 1,
          "name": "Jean",
          "iframe_url": "",
          "iframe_poster": null,
          "release_ru": "2018-11-15",
          "release_world": "2018-11-14",
          "availability": "2018-11-16",
          "voiceActing": [
            "TVShows"
          ],
          "ads": false,
          "subtitle": []
        },
        {
          "episode": 2,
          "name": "Monica",
          "iframe_url": "",
          "iframe_poster": null,
          "release_ru": "2018-11-15",
          "release_world": "2018-11-14",
          "availability": "2018-11-16",
          "voiceActing": [
            "TVShows"
          ],
          "ads": false,
          "subtitle": []
        },
        {
          "episode": 3,
          "name": "Gérard",
          "iframe_url": "",
          "iframe_poster": null,
          "release_ru": "2018-11-22",
          "release_world": "2018-11-21",
          "availability": "2018-11-23",
          "voiceActing": [
            "TVShows"
          ],
          "ads": false,
          "subtitle": []
        },
        {
          "episode": 4,
          "name": "Isabelle",
          "iframe_url": "",
          "iframe_poster": null,
          "release_ru": "2018-11-22",
          "release_world": "2018-11-21",
          "availability": "2018-11-23",
          "voiceActing": [
            "TVShows"
          ],
          "ads": false,
          "subtitle": []
        },
        {
          "episode": 5,
          "name": "Béatrice",
          "iframe_url": "",
          "iframe_poster": null,
          "release_ru": "2018-11-29",
          "release_world": "2018-11-28",
          "availability": "2018-11-30",
          "voiceActing": [
            "TVShows"
          ],
          "ads": false,
          "subtitle": []
        },
        {
          "episode": 6,
          "name": "ASK",
          "iframe_url": "",
          "iframe_poster": null,
          "release_ru": "2018-11-29",
          "release_world": "2018-11-28",
          "availability": "2018-11-30",
          "voiceActing": [
            "TVShows"
          ],
          "ads": false,
          "subtitle": []
        }
      ]
    },
    {
      "poster": null,
      "release_ru": "2020-10-22",
      "release_world": "2020-10-21",
      "availability": "2020-10-23",
      "iframe_url": "",
      "season": 4,
      "episodes": [
        {
          "episode": 1,
          "name": "Charlotte",
          "iframe_url": "",
          "iframe_poster": null,
          "release_ru": "2020-10-22",
          "release_world": "2020-10-21",
          "availability": "2020-10-23",
          "voiceActing": [
            "TVShows"
          ],
          "ads": false,
          "subtitle": []
        },
        {
          "episode": 2,
          "name": "Franck",
          "iframe_url": "",
          "iframe_poster": null,
          "release_ru": "2020-10-22",
          "release_world": "2020-10-21",
          "availability": "2020-10-23",
          "voiceActing": [
            "TVShows"
          ],
          "ads": false,
          "subtitle": []
        },
        {
          "episode": 3,
          "name": "José",
          "iframe_url": "",
          "iframe_poster": null,
          "release_ru": "2020-10-29",
          "release_world": "2020-10-28",
          "availability": "2020-10-30",
          "voiceActing": [
            "TVShows"
          ],
          "ads": false,
          "subtitle": []
        },
        {
          "episode": 4,
          "name": "Sandrine",
          "iframe_url": "",
          "iframe_poster": null,
          "release_ru": "2020-10-29",
          "release_world": "2020-10-28",
          "availability": "2020-10-30",
          "voiceActing": [
            "TVShows"
          ],
          "ads": false,
          "subtitle": []
        },
        {
          "episode": 5,
          "name": "Sigourney",
          "iframe_url": "",
          "iframe_poster": null,
          "release_ru": "2020-11-05",
          "release_world": "2020-11-04",
          "availability": "2020-11-06",
          "voiceActing": [
            "TVShows"
          ],
          "ads": false,
          "subtitle": []
        },
        {
          "episode": 6,
          "name": "Jean",
          "iframe_url": "",
          "iframe_poster": null,
          "release_ru": "2020-11-05",
          "release_world": "2020-11-04",
          "availability": "2020-11-06",
          "voiceActing": [
            "TVShows"
          ],
          "ads": false,
          "subtitle": []
        }
      ]
    }
  ],
  "voiceActing": [
    "Рус. Дублированный",
    "TVShows"
  ],
  "subtitle": [],
  "parts": []
}
