{
  "id": 52153,
  "name": "Риз: Падение королевства",
  "name_eng": "Riese",
  "year": 2009,
  "slogan": "—",
  "age": null,
  "type": "series",
  "quality": "SD",
  "imdb": "6.2",
  "imdb_id": "1542543",
  "kinopoisk": "6.0",
  "kinopoisk_id": "490123",
  "world_art": null,
  "world_art_id": null,
  "time": "10 мин",
  "ads": false,
  "premier": "2009-11-02",
  "premier_rus": "2011-03-29",
  "availability": "2011-03-30",
  "serial_status": "offline",
  "activate_time": "2021-11-12 01:44:00",
  "budget": null,
  "fees_use": null,
  "fees_world": null,
  "fees_rus": null,
  "rate_mpaa": null,
  "description": "История о «героине поневоле», которая путешествует вместе со своим волком, Фенриром,  по разрушающемуся миру Элизии, скрываясь от последователей опасного религиозного культа. Сражаясь с врагами своего королевства, она пытается вернуть себе трон Элизии, принадлежащий ей по праву. Эпизод за эпизодом, каждый из которых длится не более 8 минут, зрители вместе с таинственной странницей будут постигать тайны ее прошлого и бороться за мирное будущее некогда процветающей Элизии.",
  "iframe_url": "",
  "poster": "https://img.imgilall.me/movies/franchise/5/2/1/5/3/0/0/0/0/0/610x900_52153.jpg",
  "country": {
    "7": "Канада",
    "1": "США"
  },
  "collection": [],
  "genre": {
    "9": "Приключения",
    "11": "Фантастика",
    "6": "Фэнтези",
    "17": "Боевик",
    "7": "Драма"
  },
  "director": [
    "Николас Хемфрис",
    "Калина Кифф"
  ],
  "screenwriter": [
    "Ева Мария Питерс",
    "Алисса Сиккарелли",
    "Райан Коппл"
  ],
  "producer": [
    "Бен Коппл",
    "Райан Коппл",
    "Калина Кифф"
  ],
  "operator": [
    "Крис Кемпински"
  ],
  "composer": [
    "Рич Уолтерс"
  ],
  "design": [
    "Чад Кровчук",
    "Аарон Харовиц",
    "Меган Лесон"
  ],
  "editor": [
    "Кирби Джинна",
    "Мэттью Смит Лайонс"
  ],
  "actors": [
    "Кристин Шателейн",
    "Патрик Гилмор",
    "Аманда Таппинг",
    "Шэрон Тейлор",
    "Бен Коттон",
    "Ричард Хэрмон",
    "Алессандро Джулиани",
    "Райан Грэнтхем",
    "Эллисон Мэк",
    "Райан Роббинс"
  ],
  "actors_dubl": [],
  "trivia": [],
  "trailers": [],
  "seasons": [
    {
      "poster": null,
      "release_ru": null,
      "release_world": null,
      "availability": null,
      "iframe_url": "",
      "season": 1,
      "episodes": [
        {
          "episode": 1,
          "name": null,
          "iframe_url": "",
          "iframe_poster": null,
          "release_ru": null,
          "release_world": null,
          "availability": null,
          "voiceActing": [
            "Рус. Люб. многоголосый"
          ],
          "ads": false,
          "subtitle": []
        },
        {
          "episode": 2,
          "name": null,
          "iframe_url": "",
          "iframe_poster": null,
          "release_ru": null,
          "release_world": null,
          "availability": null,
          "voiceActing": [
            "Рус. Люб. многоголосый"
          ],
          "ads": false,
          "subtitle": []
        },
        {
          "episode": 3,
          "name": null,
          "iframe_url": "",
          "iframe_poster": null,
          "release_ru": null,
          "release_world": null,
          "availability": null,
          "voiceActing": [
            "Рус. Люб. многоголосый"
          ],
          "ads": false,
          "subtitle": []
        },
        {
          "episode": 4,
          "name": null,
          "iframe_url": "",
          "iframe_poster": null,
          "release_ru": null,
          "release_world": null,
          "availability": null,
          "voiceActing": [
            "Рус. Люб. многоголосый"
          ],
          "ads": false,
          "subtitle": []
        },
        {
          "episode": 5,
          "name": null,
          "iframe_url": "",
          "iframe_poster": null,
          "release_ru": null,
          "release_world": null,
          "availability": null,
          "voiceActing": [
            "Рус. Люб. многоголосый"
          ],
          "ads": false,
          "subtitle": []
        },
        {
          "episode": 6,
          "name": null,
          "iframe_url": "",
          "iframe_poster": null,
          "release_ru": null,
          "release_world": null,
          "availability": null,
          "voiceActing": [
            "Рус. Люб. многоголосый"
          ],
          "ads": false,
          "subtitle": []
        },
        {
          "episode": 7,
          "name": null,
          "iframe_url": "",
          "iframe_poster": null,
          "release_ru": null,
          "release_world": null,
          "availability": null,
          "voiceActing": [
            "Рус. Люб. многоголосый"
          ],
          "ads": false,
          "subtitle": []
        },
        {
          "episode": 8,
          "name": null,
          "iframe_url": "",
          "iframe_poster": null,
          "release_ru": null,
          "release_world": null,
          "availability": null,
          "voiceActing": [
            "Рус. Люб. многоголосый"
          ],
          "ads": false,
          "subtitle": []
        },
        {
          "episode": 9,
          "name": null,
          "iframe_url": "",
          "iframe_poster": null,
          "release_ru": null,
          "release_world": null,
          "availability": null,
          "voiceActing": [
            "Рус. Люб. многоголосый"
          ],
          "ads": false,
          "subtitle": []
        },
        {
          "episode": 10,
          "name": null,
          "iframe_url": "",
          "iframe_poster": null,
          "release_ru": null,
          "release_world": null,
          "availability": null,
          "voiceActing": [
            "Рус. Люб. многоголосый"
          ],
          "ads": false,
          "subtitle": []
        }
      ]
    }
  ],
  "voiceActing": [
    "Рус. Люб. многоголосый"
  ],
  "subtitle": [],
  "parts": []
}
