{
  "id": 52309,
  "name": "Закон Гарроу",
  "name_eng": "Garrow's Law",
  "year": 2009,
  "slogan": "—",
  "age": null,
  "type": "series",
  "quality": "SD",
  "imdb": "8.3",
  "imdb_id": "1477131",
  "kinopoisk": "7.9",
  "kinopoisk_id": "481088",
  "world_art": null,
  "world_art_id": null,
  "time": "43 мин",
  "ads": false,
  "premier": "2009-11-01",
  "premier_rus": "2009-11-02",
  "availability": "2009-11-03",
  "serial_status": "offline",
  "activate_time": "2021-11-17 23:09:00",
  "budget": null,
  "fees_use": null,
  "fees_world": null,
  "fees_rus": null,
  "rate_mpaa": null,
  "description": "Уильям Гарроу — талантливый адвокат. Для него не существует никаких преград. Он борется за истину и справедливость. Придерживаясь своей теории «невиновен, пока не предъявлены доказательства», ему удается спасти от заключения многих невиновных жертв на суде в Олд-Бейли. Прислушиваясь к своему наставнику Сутхаусу, Гарроу решает во что бы то ни стало изменить общий порядок провождения судебных процессов.",
  "iframe_url": "",
  "poster": "https://img.imgilall.me/movies/franchise/5/2/3/0/9/0/0/0/0/0/610x900_52309.jpg",
  "country": {
    "2": "Великобритания"
  },
  "collection": [],
  "genre": {
    "27": "Биографический",
    "7": "Драма"
  },
  "director": [
    "Питер Лайдон",
    "Эшли Пирс",
    "Брин Хиггинс"
  ],
  "screenwriter": [
    "Тони Мэрчент",
    "Дэмиэн Уэйлинг",
    "Стивен Расселл"
  ],
  "producer": [
    "Доминик Барлоу",
    "Ник Питт",
    "Джэми Исаак"
  ],
  "operator": [
    "Гэвин Стразерс",
    "Тони Колдуэлл",
    "Лукас Штребель"
  ],
  "composer": [
    "Чарли Моул",
    "Эдмунд Батт"
  ],
  "design": [
    "Марк Лиз",
    "Брайан Сайкес",
    "Сара Финлэй"
  ],
  "editor": [
    "Стив Синглтон",
    "Иэн Эрскин"
  ],
  "actors": [
    "Эндрю Бакан",
    "Линдси Маршал",
    "Руперт Грейвз",
    "Эйдан МакАрдл",
    "Майкл Калкин",
    "Алан Армстронг",
    "Энтони Бауэрс",
    "Стефен Боксер",
    "Victoria Balnaves",
    "Антон Лессер"
  ],
  "actors_dubl": [],
  "trivia": [],
  "trailers": [],
  "seasons": [
    {
      "poster": null,
      "release_ru": null,
      "release_world": null,
      "availability": null,
      "iframe_url": "",
      "season": 1,
      "episodes": [
        {
          "episode": 1,
          "name": null,
          "iframe_url": "",
          "iframe_poster": null,
          "release_ru": null,
          "release_world": null,
          "availability": null,
          "voiceActing": [
            "Рус. Одноголосый",
            "Eng.Original"
          ],
          "ads": false,
          "subtitle": []
        },
        {
          "episode": 2,
          "name": null,
          "iframe_url": "",
          "iframe_poster": null,
          "release_ru": null,
          "release_world": null,
          "availability": null,
          "voiceActing": [
            "Рус. Одноголосый",
            "Eng.Original"
          ],
          "ads": false,
          "subtitle": []
        },
        {
          "episode": 3,
          "name": null,
          "iframe_url": "",
          "iframe_poster": null,
          "release_ru": null,
          "release_world": null,
          "availability": null,
          "voiceActing": [
            "Рус. Одноголосый",
            "Eng.Original"
          ],
          "ads": false,
          "subtitle": []
        },
        {
          "episode": 4,
          "name": null,
          "iframe_url": "",
          "iframe_poster": null,
          "release_ru": null,
          "release_world": null,
          "availability": null,
          "voiceActing": [
            "Рус. Одноголосый",
            "Eng.Original"
          ],
          "ads": false,
          "subtitle": []
        }
      ]
    },
    {
      "poster": null,
      "release_ru": null,
      "release_world": null,
      "availability": null,
      "iframe_url": "",
      "season": 2,
      "episodes": [
        {
          "episode": 1,
          "name": null,
          "iframe_url": "",
          "iframe_poster": null,
          "release_ru": null,
          "release_world": null,
          "availability": null,
          "voiceActing": [
            "Рус. Одноголосый",
            "Eng.Original"
          ],
          "ads": false,
          "subtitle": []
        },
        {
          "episode": 2,
          "name": null,
          "iframe_url": "",
          "iframe_poster": null,
          "release_ru": null,
          "release_world": null,
          "availability": null,
          "voiceActing": [
            "Рус. Одноголосый",
            "Eng.Original"
          ],
          "ads": false,
          "subtitle": []
        },
        {
          "episode": 3,
          "name": null,
          "iframe_url": "",
          "iframe_poster": null,
          "release_ru": null,
          "release_world": null,
          "availability": null,
          "voiceActing": [
            "Рус. Одноголосый",
            "Eng.Original"
          ],
          "ads": false,
          "subtitle": []
        },
        {
          "episode": 4,
          "name": null,
          "iframe_url": "",
          "iframe_poster": null,
          "release_ru": null,
          "release_world": null,
          "availability": null,
          "voiceActing": [
            "Рус. Одноголосый",
            "Eng.Original"
          ],
          "ads": false,
          "subtitle": []
        }
      ]
    },
    {
      "poster": null,
      "release_ru": null,
      "release_world": null,
      "availability": null,
      "iframe_url": "",
      "season": 3,
      "episodes": [
        {
          "episode": 1,
          "name": null,
          "iframe_url": "",
          "iframe_poster": null,
          "release_ru": null,
          "release_world": null,
          "availability": null,
          "voiceActing": [
            "Рус. Проф. двухголосый",
            "Original"
          ],
          "ads": false,
          "subtitle": []
        },
        {
          "episode": 2,
          "name": null,
          "iframe_url": "",
          "iframe_poster": null,
          "release_ru": null,
          "release_world": null,
          "availability": null,
          "voiceActing": [
            "Рус. Проф. двухголосый",
            "Original"
          ],
          "ads": false,
          "subtitle": []
        },
        {
          "episode": 3,
          "name": null,
          "iframe_url": "",
          "iframe_poster": null,
          "release_ru": null,
          "release_world": null,
          "availability": null,
          "voiceActing": [
            "Рус. Проф. двухголосый",
            "Eng.Original"
          ],
          "ads": false,
          "subtitle": []
        },
        {
          "episode": 4,
          "name": null,
          "iframe_url": "",
          "iframe_poster": null,
          "release_ru": null,
          "release_world": null,
          "availability": null,
          "voiceActing": [
            "Рус. Проф. двухголосый",
            "Eng.Original"
          ],
          "ads": false,
          "subtitle": []
        }
      ]
    }
  ],
  "voiceActing": [
    "Рус. Одноголосый",
    "Eng.Original",
    "Рус. Проф. двухголосый",
    "Original"
  ],
  "subtitle": [],
  "parts": []
}
