{
  "id": 52326,
  "name": "Дом из стекла",
  "name_eng": "Glasshouse",
  "year": 2021,
  "slogan": "«Oblivion is bliss»",
  "age": null,
  "type": "film",
  "quality": "FHD (1080p)",
  "imdb": "7.6",
  "imdb_id": "13724054",
  "kinopoisk": null,
  "kinopoisk_id": "4512362",
  "world_art": null,
  "world_art_id": null,
  "time": "94 мин. / 01:34",
  "ads": true,
  "premier": "2021-08-16",
  "premier_rus": "2021-08-17",
  "availability": "2021-08-18",
  "activate_time": "2021-11-19 04:06:00",
  "budget": null,
  "fees_use": null,
  "fees_world": null,
  "fees_rus": null,
  "rate_mpaa": null,
  "description": null,
  "iframe_url": "",
  "iframe_poster": null,
  "poster": "https://img.imgilall.me/movies/franchise/5/2/3/2/6/0/0/0/0/0/610x900_52326.jpg",
  "country": {
    "27": "ЮАР"
  },
  "collection": [],
  "genre": {
    "11": "Фантастика",
    "13": "Триллер",
    "7": "Драма"
  },
  "director": [
    "Келси Иган"
  ],
  "screenwriter": [
    "Эмма де Вет",
    "Келси Иган"
  ],
  "producer": [
    "Грег Бакл",
    "Эмма де Вет",
    "Ян дю Плесси"
  ],
  "operator": [
    "Юстус де Ягер"
  ],
  "composer": [
    "Патрик Кэннел"
  ],
  "design": [
    "Kerry Von Lillienveld",
    "Catherine McIntosh"
  ],
  "editor": [],
  "actors": [
    "Джессика Александр",
    "Kitty Harris",
    "Эдриэнн Пирс",
    "Хилтон Пелсер",
    "Anja Taljaard",
    "Brent Vermeulen"
  ],
  "actors_dubl": [],
  "trivia": [],
  "trailers": [],
  "seasons": [],
  "voiceActing": [
    "Синема УС"
  ],
  "subtitle": [],
  "parts": []
}
