{
  "id": 52388,
  "name": "Невидимый страж",
  "name_eng": "El guardián invisible",
  "year": 2017,
  "slogan": "«Discover the mystery hiding in the valley»",
  "age": null,
  "type": "film",
  "quality": "FHD (1080p)",
  "imdb": "6.4",
  "imdb_id": "4924942",
  "kinopoisk": "6.0",
  "kinopoisk_id": "958062",
  "world_art": null,
  "world_art_id": null,
  "time": "129 мин. / 02:09",
  "ads": false,
  "premier": "2017-03-03",
  "premier_rus": "2017-03-04",
  "availability": "2017-03-05",
  "activate_time": "2021-11-20 03:00:00",
  "budget": "€5 000 000",
  "fees_use": null,
  "fees_world": "$3 955 278",
  "fees_rus": null,
  "rate_mpaa": null,
  "description": "Инспектор Амайя Салазар возглавляет расследование по поимке серийного убийцы в дождливом городе в самом сердце страны басков. В котором она родилась и куда надеялась никогда не возвращаться. Разрываясь между рациональной частью работы и местными мифами, Амайя должна побороть своих внутренних демонов, чтобы противостоять вполне реальному злу.",
  "iframe_url": "",
  "iframe_poster": null,
  "poster": "https://img.imgilall.me/movies/franchise/5/2/3/8/8/0/0/0/0/0/610x900_52388.jpg",
  "country": {
    "3": "Испания",
    "20": "Германия"
  },
  "collection": [],
  "genre": {
    "25": "Криминал",
    "13": "Триллер"
  },
  "director": [
    "Фернандо Гонзалез Молина"
  ],
  "screenwriter": [
    "Луисо Бердехо",
    "Долорес Редондо"
  ],
  "producer": [
    "Мерседес Гамеро",
    "Адриан Герра",
    "Петер Надерман"
  ],
  "operator": [
    "Флавио Мартинес Лабиано"
  ],
  "composer": [
    "Фернандо Веласкес"
  ],
  "design": [
    "Антон Лагуна",
    "Лолес Гарсия Галеан",
    "Rosa Pérez"
  ],
  "editor": [
    "Вероника Кайон"
  ],
  "actors": [
    "Марта Этура",
    "Эльвира Мингес",
    "Нене",
    "Франсеск Орелья",
    "Itziar Aizpuru",
    "Бенджамин Нортовер",
    "Miren Gaztañaga",
    "Idurre Puertas",
    "Патриция Лопез",
    "Микель Фернандес"
  ],
  "actors_dubl": [],
  "trivia": [],
  "trailers": [],
  "seasons": [],
  "voiceActing": [
    "Синема УС",
    "Eng.Original"
  ],
  "subtitle": [
    "Eng. full"
  ],
  "parts": []
}
