{
  "id": 52398,
  "name": "Последний американский девственник",
  "name_eng": "The Last American Virgin",
  "year": 1982,
  "slogan": "«The comedy that puts ZIP into being a teen...»",
  "age": "18+",
  "type": "film",
  "quality": "HD (720p)",
  "imdb": "6.3",
  "imdb_id": "0084234",
  "kinopoisk": "6.9",
  "kinopoisk_id": "20157",
  "world_art": null,
  "world_art_id": null,
  "time": "92 мин. / 01:32",
  "ads": false,
  "premier": "1982-06-26",
  "premier_rus": "1982-06-27",
  "availability": "1982-06-28",
  "activate_time": "2021-11-20 02:25:00",
  "budget": null,
  "fees_use": "$5 829 781",
  "fees_world": null,
  "fees_rus": null,
  "rate_mpaa": "R",
  "description": "Комедия о первых эротических переживаниях трех незадачливых старшеклассников - ловкача, толстяка и скромника. Последнему очень хочется, но долго не удается покончить с собственной невинностью.Несмотря на то, что герои фильма говорят в основном о сексе, все происходящее в нем, с сегодняшней точки зрения, более чем скромно.",
  "iframe_url": "",
  "iframe_poster": null,
  "poster": "https://img.imgilall.me/movies/franchise/5/2/3/9/8/0/0/0/0/0/610x900_52398.jpg",
  "country": {
    "1": "США"
  },
  "collection": [],
  "genre": {
    "19": "Комедия",
    "8": "Мелодрама",
    "7": "Драма"
  },
  "director": [
    "Боаз Дэвидсон"
  ],
  "screenwriter": [
    "Боаз Дэвидсон"
  ],
  "producer": [
    "Йорам Глобус",
    "Менахем Голан",
    "Дэвид Уомарк"
  ],
  "operator": [
    "Адам Гринберг"
  ],
  "composer": [],
  "design": [
    "Джим Далтц"
  ],
  "editor": [
    "Брурия Дэвидсон"
  ],
  "actors": [
    "Лоуренс Моносон",
    "Дайан Франклин",
    "Стив Энтин",
    "Джо Руббо",
    "Луиза Мориц",
    "Брайан Пек",
    "Кимми Робертсон",
    "Тесса Ричард",
    "Винифред Фридман",
    "Джерри Айдол"
  ],
  "actors_dubl": [],
  "trivia": [],
  "trailers": [],
  "seasons": [],
  "voiceActing": [
    "Рус. Проф. многоголосый",
    "Рус. Люб. одноголосый",
    "Рус. Одноголосый",
    "Eng.Original"
  ],
  "subtitle": [
    "Рус. полные"
  ],
  "parts": []
}
