{
  "id": 5241,
  "name": "Беспредел",
  "name_eng": "",
  "year": 1989,
  "slogan": "«Зона - это проверка на прочность»",
  "age": "16+",
  "type": "film",
  "quality": "HD (720p)",
  "imdb": "7.3",
  "imdb_id": "0286502",
  "kinopoisk": "7.8",
  "kinopoisk_id": "46100",
  "world_art": null,
  "world_art_id": null,
  "time": "102 мин. / 01:42",
  "ads": false,
  "premier": null,
  "premier_rus": null,
  "availability": null,
  "activate_time": "2019-01-08 14:50:16",
  "budget": null,
  "fees_use": null,
  "fees_world": null,
  "fees_rus": null,
  "rate_mpaa": null,
  "description": "Фильм основан на подлинных фактах жизни в колонии строгого режима и повествует о «жестоких играх» заключённых и роли администрации в этой жизни. Суровые и беспощадные законы «зоны» определяют жизнь каждого из героев. Впервые зритель воочию может приоткрыть для себя, возможно, одну из самых тяжёлых завес в истории России — завесу негласного молчания о том, что на самом деле происходило за решётками тюрем.Используя изощрённую систему доносов, замыкая иерархию власти, начальник зоны ловко управляет заключёнными. Бывалому уголовнику здесь не в тягость. Страх и раболепие — закон местной жизни. Против этого закона и пытается восстать зэк Филателист.",
  "iframe_url": "",
  "iframe_poster": "https://img.imgilall.me/movies/video/4/9/5/0/5/0/0/0/0/0/800x450_49505.jpeg",
  "poster": "https://img.imgilall.me/movies/franchise/5/2/4/1/0/0/0/0/0/0/610x900_5241.jpg",
  "country": {
    "24": "СССР"
  },
  "collection": {
    "56": "Про тюрьму"
  },
  "genre": {
    "25": "Криминал",
    "22": "Русский",
    "7": "Драма"
  },
  "director": [
    "Игорь Гостев"
  ],
  "screenwriter": [
    "Игорь Гостев",
    "Леонид Никитинский"
  ],
  "producer": [],
  "operator": [
    "Григорий Беленький"
  ],
  "composer": [
    "Андрей Петров"
  ],
  "design": [
    "Иван Пластинкин"
  ],
  "editor": [
    "Тамара Зуброва"
  ],
  "actors": [
    "Андрей Ташков",
    "Антон Андросов",
    "Александр Мохов",
    "Сергей Гармаш",
    "Лев Дуров",
    "Виктор Павлов",
    "Александр Кузнецов",
    "Алексей Аблепихин",
    "Наиль Идрисов",
    "Михаил Жигалов"
  ],
  "actors_dubl": [
    "Александр Филиппенко"
  ],
  "trivia": [],
  "trailers": [],
  "seasons": [],
  "voiceActing": [
    "Рус. Оригинальный"
  ],
  "subtitle": [],
  "parts": []
}
