{
  "id": 52435,
  "name": "Очарованный странник",
  "name_eng": "",
  "year": 1990,
  "slogan": "—",
  "age": "16+",
  "type": "film",
  "quality": "SD",
  "imdb": "7.1",
  "imdb_id": "0186409",
  "kinopoisk": "7.5",
  "kinopoisk_id": "42710",
  "world_art": null,
  "world_art_id": null,
  "time": "103 мин. / 01:43",
  "ads": false,
  "premier": null,
  "premier_rus": null,
  "availability": null,
  "activate_time": "2021-11-21 01:35:00",
  "budget": null,
  "fees_use": null,
  "fees_world": null,
  "fees_rus": null,
  "rate_mpaa": null,
  "description": "Между пассажирами парохода возникает спор о том, что есть ли на Руси праведники? Никто не хочет рассказывать о своей жизни. И лишь один священник, хотя и предупреждает, что он «большой грешник», решается поведать свою историю.",
  "iframe_url": "",
  "iframe_poster": null,
  "poster": "https://img.imgilall.me/movies/franchise/5/2/4/3/5/0/0/0/0/0/610x900_52435.jpg",
  "country": {
    "24": "СССР"
  },
  "collection": {
    "46": "Советские"
  },
  "genre": {
    "28": "Исторический",
    "7": "Драма"
  },
  "director": [
    "Ирина Поплавская"
  ],
  "screenwriter": [
    "Ирина Поплавская",
    "Василий Соловьев",
    "Николай Лесков"
  ],
  "producer": [],
  "operator": [
    "Борис Новоселов",
    "Сергей Тараскин"
  ],
  "composer": [
    "Кирилл Волков"
  ],
  "design": [
    "Анатолий Кузнецов",
    "Павел Сафонов",
    "Е. Ендасова"
  ],
  "editor": [
    "Татьяна Морозова"
  ],
  "actors": [
    "Александр Михайлов",
    "Андрей Ростоцкий",
    "Ольга Остроумова",
    "Василий Кривун",
    "Лидия Вележева",
    "Калык Акматов",
    "Болот Бейшеналиев",
    "Майя Булгакова",
    "Валерий Фролов",
    "Борис Кащеев"
  ],
  "actors_dubl": [],
  "trivia": [],
  "trailers": [],
  "seasons": [],
  "voiceActing": [
    "Рус. Оригинальный"
  ],
  "subtitle": [],
  "parts": []
}
