{
  "id": 52696,
  "name": "Горячая точка",
  "name_eng": "",
  "year": 1998,
  "slogan": "—",
  "age": "16+",
  "type": "film",
  "quality": "SD",
  "imdb": "5.1",
  "imdb_id": "5159376",
  "kinopoisk": "6.1",
  "kinopoisk_id": "271703",
  "world_art": null,
  "world_art_id": null,
  "time": "70 мин. / 01:10",
  "ads": false,
  "premier": null,
  "premier_rus": null,
  "availability": null,
  "activate_time": "2021-11-30 01:56:00",
  "budget": null,
  "fees_use": null,
  "fees_world": null,
  "fees_rus": null,
  "rate_mpaa": null,
  "description": "«Горячие точки» — это те места на Земле, где даже в мирное время идут боевые действия. В одну из таких «горячих точек» приехал в командировку майор Ларин, офицер — пограничник.",
  "iframe_url": "",
  "iframe_poster": null,
  "poster": "https://img.imgilall.me/movies/franchise/5/2/6/9/6/0/0/0/0/0/610x900_52696.jpg",
  "country": {
    "5": "Россия"
  },
  "collection": [],
  "genre": {
    "9": "Приключения",
    "17": "Боевик"
  },
  "director": [
    "Иван Соловов"
  ],
  "screenwriter": [
    "Александр Машевский"
  ],
  "producer": [
    "Владимир Григорьев",
    "Владимир Жечков"
  ],
  "operator": [
    "Сергей Филиппов"
  ],
  "composer": [
    "Евгений Крылатов"
  ],
  "design": [],
  "editor": [],
  "actors": [
    "Александр Панкратов-Черный",
    "Игорь Янковский",
    "Владимир Стеклов",
    "Вячеслав Кулаков",
    "Илона Беляева",
    "Александр Машевский"
  ],
  "actors_dubl": [
    "Дмитрий Матвеев"
  ],
  "trivia": [],
  "trailers": [],
  "seasons": [],
  "voiceActing": [
    "Рус. Оригинальный"
  ],
  "subtitle": [],
  "parts": []
}
