{
  "id": 5308,
  "name": "Звонок мертвецу",
  "name_eng": "Abgeschnitten",
  "year": 2018,
  "slogan": null,
  "age": "18+",
  "type": "film",
  "quality": "FHD (1080p)",
  "imdb": "6.6",
  "imdb_id": "3645988",
  "kinopoisk": "6.7",
  "kinopoisk_id": "914415",
  "world_art": null,
  "world_art_id": null,
  "time": "132 мин. / 02:12",
  "ads": false,
  "premier": "2018-10-11",
  "premier_rus": "2019-03-14",
  "availability": null,
  "activate_time": "2019-01-09 12:58:46",
  "budget": null,
  "fees_use": null,
  "fees_world": "$1 228 051",
  "fees_rus": "$171 884",
  "rate_mpaa": null,
  "description": "Судмедэксперт Пауль Херцфельд обнаруживает в голове изуродованного трупа записку, на которой значится телефонный номер с указанием: позвони и узнаешь судьбу похищенной дочери. На острове Хельголанд, отрезанном от суши ураганом, Пауля поджидает ещё один мертвец, а внутри — дальнейшие указания. И это только начало цепочки смертей. Психопат-похититель не прочь поиграть с жертвами в кошки-мышки. Тот, кто разгадает головоломку из тел, имеет шансы остаться в живых.",
  "iframe_url": "",
  "iframe_poster": null,
  "poster": "https://img.imgilall.me/movies/franchise/5/3/0/8/0/0/0/0/0/0/610x900_5308.jpg",
  "country": {
    "20": "Германия"
  },
  "collection": {
    "21": "Для молодёжи",
    "13": "С неожиданным концом"
  },
  "genre": {
    "25": "Криминал",
    "26": "Ужасы",
    "24": "Детектив",
    "17": "Боевик",
    "13": "Триллер",
    "10": "Зарубежный"
  },
  "director": [
    "Кристиан Альварт"
  ],
  "screenwriter": [
    "Кристиан Альварт",
    "Себастьян Фицек",
    "Michael Tsokos"
  ],
  "producer": [
    "Кристиан Альварт",
    "Зигфрид Камль",
    "Хартмут Колер"
  ],
  "operator": [
    "Якуб Бейнарович"
  ],
  "composer": [
    "Маурус Роннер",
    "Christoph Schauer"
  ],
  "design": [
    "Томас Стаммер",
    "Штеффен Гайтнер",
    "Хайке Фадемрехт"
  ],
  "editor": [
    "Марк Хофмайстер",
    "Paul Scherz"
  ],
  "actors": [
    "Мориц Бляйбтрой",
    "Ясна Фритци Бауэр",
    "Ларс Айдингер",
    "Фахри Огюн Ярдим",
    "Энно Хессе",
    "Кристиан Кухенбух",
    "Урс Юккер",
    "Барбара Пракопенка",
    "Стефани Амарелль",
    "Dirk Nocker"
  ],
  "actors_dubl": [
    "Вадим Медведев",
    "Алёна Андронова",
    "Антон Савенков",
    "Владимир Тишко",
    "Роман Куперман"
  ],
  "trivia": [],
  "trailers": [
    {
      "name": "трейлер №1",
      "number": 1,
      "iframe_poster": "https://img.imgilall.me/movies/trailer/1/1/8/0/0/0/0/0/0/0/800x450_118.jpeg",
      "season": null,
      "iframe_url": ""
    }
  ],
  "seasons": [],
  "voiceActing": [
    "Рус. Дублированный"
  ],
  "subtitle": [],
  "parts": []
}
