{
  "id": 5410,
  "name": "Окулус",
  "name_eng": "Oculus",
  "year": 2013,
  "slogan": "«Хочешь жить – закрой глаза»",
  "age": "16+",
  "type": "film",
  "quality": "HD (720p)",
  "imdb": "6.5",
  "imdb_id": "2388715",
  "kinopoisk": "6.4",
  "kinopoisk_id": "680499",
  "world_art": null,
  "world_art_id": null,
  "time": "105 мин. / 01:45",
  "ads": false,
  "premier": "2013-09-08",
  "premier_rus": "2014-04-10",
  "availability": null,
  "activate_time": "2019-01-11 09:46:39",
  "budget": "$5 000 000",
  "fees_use": "$27 695 246",
  "fees_world": "$44 446 287",
  "fees_rus": "$2 007 486",
  "rate_mpaa": "R",
  "description": "Смерть родителей сильно повлияла на судьбу двух осиротевших детей. По прошествии времени, в двадцатилетнем возрасте, сестра все еще продолжает так считать и хочет доказать брату, что привидение, вышедшее из зеркала, стало причиной гибели близких людей и всех случившихся последующих бед…",
  "iframe_url": "",
  "iframe_poster": "https://img.imgilall.me/movies/video/5/5/1/8/1/0/0/0/0/0/800x450_55181.jpeg",
  "poster": "https://img.imgilall.me/movies/franchise/5/4/1/0/0/0/0/0/0/0/610x900_5410.jpg",
  "country": {
    "1": "США"
  },
  "collection": {
    "45": "Фильмы на Хэллоуин",
    "21": "Для молодёжи"
  },
  "genre": {
    "26": "Ужасы",
    "13": "Триллер",
    "10": "Зарубежный"
  },
  "director": [
    "Майк Флэнеган"
  ],
  "screenwriter": [
    "Майк Флэнеган",
    "Джефф Ховард",
    "Джефф Сейдман"
  ],
  "producer": [
    "Марк Д. Эванс",
    "Тревор Мэйси",
    "Джейсон Блум"
  ],
  "operator": [
    "Майкл Фимоньяри"
  ],
  "composer": [
    "The Newton Brothers"
  ],
  "design": [
    "Расселл Барнс",
    "Элизабет Боллер",
    "Линн Фалконер"
  ],
  "editor": [
    "Майк Флэнеган"
  ],
  "actors": [
    "Карен Гиллан",
    "Брентон Туэйтс",
    "Кэти Сакхофф",
    "Рори Кокрейн",
    "Анналиса Бассо",
    "Гаррет Райан",
    "Джеймс Лэфферти",
    "Мигель Сандовал",
    "Кейт Сигел",
    "Скотт Грэхэм"
  ],
  "actors_dubl": [
    "Екатерина Семенова",
    "Николай Быстров",
    "Инна Королёва",
    "Илья Исаев",
    "Полина Ильюшенко"
  ],
  "trivia": [
    "Зеркало из фильма висело на стене кабинета психолога в фильме Отсутствие, Майка Флэнегана."
  ],
  "trailers": [],
  "seasons": [],
  "voiceActing": [
    "Рус. Дублированный",
    "Eng.Original"
  ],
  "subtitle": [],
  "parts": []
}
