{
  "id": 5434,
  "name": "Набережная Орфевр, 36",
  "name_eng": "36 Quai des Orfèvres",
  "year": 2004,
  "slogan": null,
  "age": "16+",
  "type": "film",
  "quality": "HD (720p)",
  "imdb": "7.1",
  "imdb_id": "0390808",
  "kinopoisk": "7.5",
  "kinopoisk_id": "77583",
  "world_art": null,
  "world_art_id": null,
  "time": "111 мин. / 01:51",
  "ads": false,
  "premier": "2004-11-24",
  "premier_rus": "2005-03-31",
  "availability": null,
  "activate_time": "2019-01-14 16:57:18",
  "budget": "сборы",
  "fees_use": null,
  "fees_world": null,
  "fees_rus": "сборы",
  "rate_mpaa": null,
  "description": "Хорошо вооружённая банда матёрых преступников безнаказанно совершает дерзкие налёты на отделения столичных банков, жестоко расстреливая охрану. За расследование этих преступлений возьмутся сразу два департамента полиции, во главе которых стоят бывшие друзья Денис Клейн и Лео Вринкс. У них совершенно разные методы работы и цели. Два полисмена начинают совместное расследование, и когда Вринкс максимально близко приближается к разгадке, попадая в тяжелую ситуацию, Клейн подло подставляет его, не осознавая, чем это может закончиться.",
  "iframe_url": "",
  "iframe_poster": "https://img.imgilall.me/movies/video/5/0/5/3/8/0/0/0/0/0/800x450_50538.jpeg",
  "poster": "https://img.imgilall.me/movies/franchise/5/4/3/4/0/0/0/0/0/0/610x900_5434.jpg",
  "country": {
    "9": "Франция"
  },
  "collection": {
    "62": "Про полицию"
  },
  "genre": {
    "25": "Криминал",
    "17": "Боевик",
    "13": "Триллер",
    "10": "Зарубежный",
    "7": "Драма"
  },
  "director": [
    "Оливье Маршаль"
  ],
  "screenwriter": [
    "Оливье Маршаль",
    "Франк Манкузо",
    "Жюльен Рапно"
  ],
  "producer": [
    "Франк Шоро",
    "Сирил Кольбо-Жюстен",
    "Жан-Батист Дюпон"
  ],
  "operator": [
    "Дени Руден"
  ],
  "composer": [
    "Эрванн Керморвант",
    "Аксель Ренуар"
  ],
  "design": [
    "Амре Фернандез",
    "Фредерик Теллье",
    "Натали дю Роскот"
  ],
  "editor": [
    "Хью Дармо"
  ],
  "actors": [
    "Даниель Отой",
    "Жерар Депардье",
    "Андре Дюссолье",
    "Рошди Зем",
    "Валерия Голино",
    "Даниэль Дюваль",
    "Франсис Рено",
    "Катрин Маршаль",
    "Ги Леклюиз",
    "Ален Фиглаж"
  ],
  "actors_dubl": [
    "Олег Куценко",
    "Александр Клюквин",
    "Олег Форостенко",
    "Александр Груздев",
    "Мария Овчинникова"
  ],
  "trivia": [
    "Оливье Маршаль знаком с полицейской работой не понаслышке — в молодости он сам работал в полиции.",
    "Картина стала третьей полноценной совместной работой в карьерах Даниеля Отойя и Жерара Депардье.",
    "Адрес Набережная Орфевр, 36 является адресом штаб-квартиры французской криминальной полиции."
  ],
  "trailers": [],
  "seasons": [],
  "voiceActing": [
    "А. Гаврилов",
    "Fr. Original"
  ],
  "subtitle": [],
  "parts": []
}
