{
  "id": 5457,
  "name": "Воскрешение",
  "name_eng": "Resurrection",
  "year": 2014,
  "slogan": "«What if someone you lost...returned?»",
  "age": "16+",
  "type": "series",
  "quality": "HD (720p)",
  "imdb": "7.3",
  "imdb_id": "2647586",
  "kinopoisk": "7.0",
  "kinopoisk_id": "732373",
  "world_art": null,
  "world_art_id": null,
  "time": "43 мин.",
  "ads": false,
  "premier": "2014-03-09",
  "premier_rus": "2015-04-16",
  "availability": null,
  "serial_status": "offline",
  "activate_time": "2019-01-15 16:21:59",
  "budget": null,
  "fees_use": null,
  "fees_world": null,
  "fees_rus": null,
  "rate_mpaa": null,
  "description": "В центре сюжета находятся жители маленького городка, которые сталкиваются с возвращением из мёртвых своих близких людей...",
  "iframe_url": "",
  "poster": "https://img.imgilall.me/movies/franchise/5/4/5/7/0/0/0/0/0/0/610x900_5457.jpg",
  "country": {
    "1": "США"
  },
  "collection": {
    "33": "Экранизация книг"
  },
  "genre": {
    "6": "Фэнтези",
    "10": "Зарубежный",
    "7": "Драма"
  },
  "director": [
    "Дэниэл Эттиэс",
    "Крис Мисиано",
    "Кевин Даулинг"
  ],
  "screenwriter": [
    "Аарон Зелман",
    "Джейсон Мотт",
    "Натаниэл Халперн"
  ],
  "producer": [
    "Билли Реднер",
    "Аарон Зелман",
    "Гидеон Амир"
  ],
  "operator": [
    "Джеф Джёр",
    "Терри Стэйси"
  ],
  "composer": [
    "Блейк Нили"
  ],
  "design": [
    "Кен Харди",
    "Пол Д. Келли",
    "Кларк Хантер"
  ],
  "editor": [
    "Кристофер Кук",
    "Памела Малуф",
    "Марк Хартцелл"
  ],
  "actors": [
    "Омар Эппс",
    "Фрэнсис Фишер",
    "Мэтт Крэйвен",
    "Девин Келли",
    "Марк Хилдрет",
    "Самира Армстронг",
    "Лэндон Хименес",
    "Кертвуд Смит",
    "Кэтлин Манро",
    "Мишель Фэйрли"
  ],
  "actors_dubl": [
    "Борис Хасанов",
    "Матвей Мельников",
    "Сергей Куницкий",
    "Арина Хасанова"
  ],
  "trivia": [],
  "trailers": [],
  "seasons": [
    {
      "poster": "https://img.imgilall.me/movies/season/3/2/3/2/0/0/0/0/0/0/610x900_3232.jpg",
      "release_ru": "2014-03-10",
      "release_world": "2014-03-09",
      "availability": "2014-03-11",
      "iframe_url": "",
      "season": 1,
      "episodes": [
        {
          "episode": 1,
          "name": "The Returned",
          "iframe_url": "",
          "iframe_poster": "https://img.imgilall.me/movies/video/5/1/1/5/1/0/0/0/0/0/800x450_51151.jpeg",
          "release_ru": "2014-03-10",
          "release_world": "2014-03-09",
          "availability": "2014-03-11",
          "voiceActing": [
            "NewStudio",
            "Eng.Original"
          ],
          "ads": false,
          "subtitle": []
        },
        {
          "episode": 2,
          "name": "Unearth",
          "iframe_url": "",
          "iframe_poster": "https://img.imgilall.me/movies/video/5/1/1/5/4/0/0/0/0/0/800x450_51154.jpeg",
          "release_ru": "2014-03-17",
          "release_world": "2014-03-16",
          "availability": "2014-03-18",
          "voiceActing": [
            "NewStudio",
            "Eng.Original"
          ],
          "ads": false,
          "subtitle": []
        },
        {
          "episode": 3,
          "name": "Two Rivers",
          "iframe_url": "",
          "iframe_poster": "https://img.imgilall.me/movies/video/5/1/1/5/5/0/0/0/0/0/800x450_51155.jpeg",
          "release_ru": "2014-03-24",
          "release_world": "2014-03-23",
          "availability": "2014-03-25",
          "voiceActing": [
            "NewStudio",
            "Eng.Original"
          ],
          "ads": false,
          "subtitle": []
        },
        {
          "episode": 4,
          "name": "Us Against the World",
          "iframe_url": "",
          "iframe_poster": "https://img.imgilall.me/movies/video/5/1/1/4/9/0/0/0/0/0/800x450_51149.jpeg",
          "release_ru": "2014-03-31",
          "release_world": "2014-03-30",
          "availability": "2014-04-01",
          "voiceActing": [
            "NewStudio",
            "Eng.Original"
          ],
          "ads": false,
          "subtitle": []
        },
        {
          "episode": 5,
          "name": "Insomnia",
          "iframe_url": "",
          "iframe_poster": "https://img.imgilall.me/movies/video/5/1/1/5/2/0/0/0/0/0/800x450_51152.jpeg",
          "release_ru": "2014-04-07",
          "release_world": "2014-04-06",
          "availability": "2014-04-08",
          "voiceActing": [
            "NewStudio",
            "Eng.Original"
          ],
          "ads": false,
          "subtitle": []
        },
        {
          "episode": 6,
          "name": "Home",
          "iframe_url": "",
          "iframe_poster": "https://img.imgilall.me/movies/video/5/1/1/5/0/0/0/0/0/0/800x450_51150.jpeg",
          "release_ru": "2014-04-14",
          "release_world": "2014-04-13",
          "availability": "2014-04-15",
          "voiceActing": [
            "NewStudio",
            "Eng.Original"
          ],
          "ads": false,
          "subtitle": []
        },
        {
          "episode": 7,
          "name": "Schemes of the Devil",
          "iframe_url": "",
          "iframe_poster": "https://img.imgilall.me/movies/video/5/1/1/5/3/0/0/0/0/0/800x450_51153.jpeg",
          "release_ru": "2014-04-28",
          "release_world": "2014-04-27",
          "availability": "2014-04-29",
          "voiceActing": [
            "NewStudio",
            "Eng.Original"
          ],
          "ads": false,
          "subtitle": []
        },
        {
          "episode": 8,
          "name": "Torn Apart",
          "iframe_url": "",
          "iframe_poster": "https://img.imgilall.me/movies/video/5/1/1/4/8/0/0/0/0/0/800x450_51148.jpeg",
          "release_ru": "2014-05-05",
          "release_world": "2014-05-04",
          "availability": "2014-05-06",
          "voiceActing": [
            "NewStudio",
            "Eng.Original"
          ],
          "ads": false,
          "subtitle": []
        }
      ]
    },
    {
      "poster": "https://img.imgilall.me/movies/season/3/2/3/3/0/0/0/0/0/0/610x900_3233.jpg",
      "release_ru": "2014-09-29",
      "release_world": "2014-09-28",
      "availability": "2014-09-30",
      "iframe_url": "",
      "season": 2,
      "episodes": [
        {
          "episode": 1,
          "name": "Revelation",
          "iframe_url": "",
          "iframe_poster": "https://img.imgilall.me/movies/video/5/1/1/1/5/0/0/0/0/0/800x450_51115.jpeg",
          "release_ru": "2014-09-29",
          "release_world": "2014-09-28",
          "availability": "2014-09-30",
          "voiceActing": [
            "NewStudio",
            "Eng.Original"
          ],
          "ads": false,
          "subtitle": []
        },
        {
          "episode": 2,
          "name": "Echoes",
          "iframe_url": "",
          "iframe_poster": "https://img.imgilall.me/movies/video/5/1/1/2/3/0/0/0/0/0/800x450_51123.jpeg",
          "release_ru": "2014-10-06",
          "release_world": "2014-10-05",
          "availability": "2014-10-07",
          "voiceActing": [
            "NewStudio",
            "Eng.Original"
          ],
          "ads": false,
          "subtitle": []
        },
        {
          "episode": 3,
          "name": "Multiple",
          "iframe_url": "",
          "iframe_poster": "https://img.imgilall.me/movies/video/5/1/1/1/3/0/0/0/0/0/800x450_51113.jpeg",
          "release_ru": "2014-10-13",
          "release_world": "2014-10-12",
          "availability": "2014-10-14",
          "voiceActing": [
            "NewStudio",
            "Eng.Original"
          ],
          "ads": false,
          "subtitle": []
        },
        {
          "episode": 4,
          "name": "Old Scars",
          "iframe_url": "",
          "iframe_poster": "https://img.imgilall.me/movies/video/5/1/1/2/0/0/0/0/0/0/800x450_51120.jpeg",
          "release_ru": "2014-10-20",
          "release_world": "2014-10-19",
          "availability": "2014-10-21",
          "voiceActing": [
            "NewStudio",
            "Eng.Original"
          ],
          "ads": false,
          "subtitle": []
        },
        {
          "episode": 5,
          "name": "Will",
          "iframe_url": "",
          "iframe_poster": "https://img.imgilall.me/movies/video/5/1/1/1/8/0/0/0/0/0/800x450_51118.jpeg",
          "release_ru": "2014-10-27",
          "release_world": "2014-10-26",
          "availability": "2014-10-28",
          "voiceActing": [
            "NewStudio",
            "Eng.Original"
          ],
          "ads": false,
          "subtitle": []
        },
        {
          "episode": 6,
          "name": "Afflictions",
          "iframe_url": "",
          "iframe_poster": "https://img.imgilall.me/movies/video/5/1/1/1/9/0/0/0/0/0/800x450_51119.jpeg",
          "release_ru": "2014-11-03",
          "release_world": "2014-11-02",
          "availability": "2014-11-04",
          "voiceActing": [
            "NewStudio",
            "Eng.Original"
          ],
          "ads": false,
          "subtitle": []
        },
        {
          "episode": 7,
          "name": "Miracles",
          "iframe_url": "",
          "iframe_poster": "https://img.imgilall.me/movies/video/5/1/1/2/2/0/0/0/0/0/800x450_51122.jpeg",
          "release_ru": "2014-11-10",
          "release_world": "2014-11-09",
          "availability": "2014-11-11",
          "voiceActing": [
            "NewStudio",
            "Eng.Original"
          ],
          "ads": false,
          "subtitle": []
        },
        {
          "episode": 8,
          "name": "Forsaken",
          "iframe_url": "",
          "iframe_poster": "https://img.imgilall.me/movies/video/5/1/1/2/1/0/0/0/0/0/800x450_51121.jpeg",
          "release_ru": "2014-12-01",
          "release_world": "2014-11-30",
          "availability": "2014-12-02",
          "voiceActing": [
            "NewStudio",
            "Eng.Original"
          ],
          "ads": false,
          "subtitle": []
        },
        {
          "episode": 9,
          "name": "Aftermath",
          "iframe_url": "",
          "iframe_poster": "https://img.imgilall.me/movies/video/5/1/1/1/6/0/0/0/0/0/800x450_51116.jpeg",
          "release_ru": "2014-12-08",
          "release_world": "2014-12-07",
          "availability": "2014-12-09",
          "voiceActing": [
            "NewStudio",
            "Eng.Original"
          ],
          "ads": false,
          "subtitle": []
        },
        {
          "episode": 10,
          "name": "Prophecy",
          "iframe_url": "",
          "iframe_poster": "https://img.imgilall.me/movies/video/5/1/1/2/4/0/0/0/0/0/800x450_51124.jpeg",
          "release_ru": "2015-01-05",
          "release_world": "2015-01-04",
          "availability": "2015-01-06",
          "voiceActing": [
            "NewStudio",
            "Eng.Original"
          ],
          "ads": false,
          "subtitle": []
        },
        {
          "episode": 11,
          "name": "True Believer",
          "iframe_url": "",
          "iframe_poster": "https://img.imgilall.me/movies/video/5/1/1/1/7/0/0/0/0/0/800x450_51117.jpeg",
          "release_ru": "2015-01-12",
          "release_world": "2015-01-11",
          "availability": "2015-01-13",
          "voiceActing": [
            "NewStudio",
            "Eng.Original"
          ],
          "ads": false,
          "subtitle": []
        },
        {
          "episode": 12,
          "name": "Steal Away",
          "iframe_url": "",
          "iframe_poster": "https://img.imgilall.me/movies/video/5/1/1/1/4/0/0/0/0/0/800x450_51114.jpeg",
          "release_ru": "2015-01-19",
          "release_world": "2015-01-18",
          "availability": "2015-01-20",
          "voiceActing": [
            "NewStudio",
            "Eng.Original"
          ],
          "ads": false,
          "subtitle": []
        },
        {
          "episode": 13,
          "name": "Love in Return",
          "iframe_url": "",
          "iframe_poster": "https://img.imgilall.me/movies/video/5/1/1/1/2/0/0/0/0/0/800x450_51112.jpeg",
          "release_ru": "2015-01-26",
          "release_world": "2015-01-25",
          "availability": "2015-01-27",
          "voiceActing": [
            "NewStudio",
            "Eng.Original"
          ],
          "ads": false,
          "subtitle": []
        }
      ]
    }
  ],
  "voiceActing": [
    "NewStudio",
    "Eng.Original"
  ],
  "subtitle": [],
  "parts": []
}
