{
  "id": 5546,
  "name": "В состоянии стресса",
  "name_eng": "Stressed",
  "year": 2019,
  "slogan": "",
  "age": "16+",
  "type": "film",
  "quality": "HD (720p)",
  "imdb": "4.2",
  "imdb_id": "9428026",
  "kinopoisk": null,
  "kinopoisk_id": "1230766",
  "world_art": null,
  "world_art_id": null,
  "time": "62 мин. / 01:02",
  "ads": true,
  "premier": "2019-01-02",
  "premier_rus": null,
  "availability": null,
  "activate_time": "2019-01-21 22:39:45",
  "budget": "",
  "fees_use": "",
  "fees_world": "",
  "fees_rus": "",
  "rate_mpaa": "",
  "description": "Это недавнее научное исследование такого явления как эмоционально направленный стресс и его разительные изменения в мире. Картина покажет нашу жизнь, раскроет нам тайну, почему мы пришли к депрессивному расстройству, куда держим путь и где пребываем в данный момент. Даниэль Монти, директор интегративного Института здоровья имени Маркуса, вместе с высококвалифицированным нейробиологом, доктором наук Эндрю Ньюбергом вдохнут новую жизнь в ислледование этого психологического недуга. Благодаря им и институции интегрально направленной охраны здоровья имени сэра Маркуса, сейчас всплывают всё новые и новые способы того вмешательства, которое должно излечить стрессозависимых людей по всему миру. Кино обладает стилистикой, до этого момента невиданной в индустрии. В сюжете киноленты на удивление просматриваются многие глубокие мысли авторов, которые были заложены туда преднамеренно. Любителям жанра довольно приятно будет узнать, что создатели фильма проделали тяжелейшую работу, дабы воплотить в жизнь то, что они задумали - полностью перевернуть вектор и стилистические характеристики подобных кинофильмов, тем самым дав новый толчок концепции съёмки.\r\n\r\n",
  "iframe_url": "",
  "iframe_poster": "https://img.imgilall.me/movies/video/5/2/5/2/1/0/0/0/0/0/800x450_52521.jpeg",
  "poster": "https://img.imgilall.me/movies/franchise/5/5/4/6/0/0/0/0/0/0/610x900_5546.jpg",
  "country": {
    "1": "США"
  },
  "collection": [],
  "genre": {
    "54": "Документальный",
    "10": "Зарубежный"
  },
  "director": [
    "Luke Segreto"
  ],
  "screenwriter": [],
  "producer": [
    "Veronica Yezo"
  ],
  "operator": [
    "Luke Segreto"
  ],
  "composer": [
    "Brandon Tuzio"
  ],
  "design": [],
  "editor": [
    "Luke Segreto"
  ],
  "actors": [
    "Др. Эндрю Ньюберг",
    "Дэниэл Монти",
    "Scott Walker",
    "Deb Walker",
    "Allen Knecht",
    "Howard Cohn",
    "Nicole Krakora",
    "Frank Segreto",
    "Christine Cohn",
    "Jennifer Redmond"
  ],
  "actors_dubl": [],
  "trivia": [],
  "trailers": [],
  "seasons": [],
  "voiceActing": [
    "Рус. Проф. многоголосый"
  ],
  "subtitle": [],
  "parts": []
}
