{
  "id": 5576,
  "name": "Мальчики-налетчики",
  "name_eng": "Takers",
  "year": 2010,
  "slogan": "«Чем живёшь, молодежь...»",
  "age": "16+",
  "type": "film",
  "quality": "HD (720p)",
  "imdb": "6.2",
  "imdb_id": "1135084",
  "kinopoisk": "6.9",
  "kinopoisk_id": "420986",
  "world_art": null,
  "world_art_id": null,
  "time": "103 мин. / 01:43",
  "ads": false,
  "premier": "2010-08-04",
  "premier_rus": "2010-11-04",
  "availability": null,
  "activate_time": "2019-01-22 14:14:29",
  "budget": "$32 000 000",
  "fees_use": "$57 744 720",
  "fees_world": "$69 055 695",
  "fees_rus": "$1 278 755",
  "rate_mpaa": "PG-13",
  "description": "После серии блестяще спланированных ограблений банков команда взломщиков-профи, известных на всю Калифорнию, решается пойти на последнее, самое прибыльное дело. Такой шанс просто нельзя упустить, ведь на кону 25 миллионов долларов. Вот только есть один упертый полицейский, который готов на все, чтобы уничтожить банду мальчиков-налетчиков…",
  "iframe_url": "",
  "iframe_poster": "https://img.imgilall.me/movies/video/5/2/7/8/5/0/0/0/0/0/800x450_52785.jpeg",
  "poster": "https://img.imgilall.me/movies/franchise/5/5/7/6/0/0/0/0/0/0/610x900_5576.jpg",
  "country": {
    "1": "США"
  },
  "collection": {
    "19": "Про ограбления, аферы и мошенников"
  },
  "genre": {
    "25": "Криминал",
    "17": "Боевик",
    "10": "Зарубежный"
  },
  "director": [
    "Джон Льюсенхоп"
  ],
  "screenwriter": [
    "Питер Аллен",
    "Гэбриел Коссес",
    "Джон Льюсенхоп"
  ],
  "producer": [
    "Джейсон Гетер",
    "Уильям Пэкер",
    "Крис Браун"
  ],
  "operator": [
    "Майкл Баррет"
  ],
  "composer": [
    "Пол Хаслингер"
  ],
  "design": [
    "Джон Гари Стил",
    "Крис Корнвэлл",
    "Майя Либерман"
  ],
  "editor": [
    "Армен Минасян"
  ],
  "actors": [
    "Пол Уокер",
    "Хейден Кристенсен",
    "Мэтт Диллон",
    "Зои Салдана",
    "Марианн Жан-Батист",
    "Крис Браун",
    "Майкл Или",
    "Идрис Эльба",
    "Стив Харрис",
    "Ти-Ай"
  ],
  "actors_dubl": [
    "Алексей Мясников",
    "Михаил Тихонов",
    "Василий Дахненко",
    "Инна Королёва",
    "Антон Эльдаров"
  ],
  "trivia": [],
  "trailers": [],
  "seasons": [],
  "voiceActing": [
    "Рус. Дублированный",
    "Eng.Original"
  ],
  "subtitle": [],
  "parts": []
}
