{
  "id": 5671,
  "name": "Открытое море: Новые жертвы",
  "name_eng": "The Reef",
  "year": 2010,
  "slogan": "«Молись, чтобы утонуть первым»",
  "age": "16+",
  "type": "film",
  "quality": "HD (720p)",
  "imdb": "5.8",
  "imdb_id": "1320291",
  "kinopoisk": "5.8",
  "kinopoisk_id": "471909",
  "world_art": null,
  "world_art_id": null,
  "time": "88 мин. / 01:28",
  "ads": false,
  "premier": "2010-05-17",
  "premier_rus": null,
  "availability": null,
  "activate_time": "2019-01-25 16:24:48",
  "budget": null,
  "fees_use": null,
  "fees_world": "$57 986",
  "fees_rus": null,
  "rate_mpaa": "R",
  "description": "Несколько молодых людей терпят кораблекрушение. Днище лодки пробито, скоро она затонет. А самое главное — горе-мореплавателей преследует огромная акула.",
  "iframe_url": "",
  "iframe_poster": "https://img.imgilall.me/movies/video/5/3/3/0/3/0/0/0/0/0/800x450_53303.jpeg",
  "poster": "https://img.imgilall.me/movies/franchise/5/6/7/1/0/0/0/0/0/0/610x900_5671.jpg",
  "country": {
    "4": "Австралия"
  },
  "collection": {
    "80": "Про акул"
  },
  "genre": {
    "26": "Ужасы",
    "13": "Триллер",
    "10": "Зарубежный"
  },
  "director": [
    "Эндрю Трауки"
  ],
  "screenwriter": [
    "Эндрю Трауки",
    "Джеймс Майкл Вернон"
  ],
  "producer": [
    "Майкл Робертсон",
    "Эндрю Трауки",
    "Майкл Баскин"
  ],
  "operator": [
    "Дэниэл Ардилли"
  ],
  "composer": [
    "Рафаэль Мэй"
  ],
  "design": [
    "Адам Хэд"
  ],
  "editor": [
    "Питер Кромби"
  ],
  "actors": [
    "Дэмиэн Уолш-Хоулинг",
    "Гайтон Грантли",
    "Эдриэнн Пикеринг",
    "Зои Нэйлор",
    "Киран Дарси-Смит",
    "Марк Симпсон"
  ],
  "actors_dubl": [],
  "trivia": [
    "Фильм основан на реальных событиях, произошедших с Рэем Баунди в 1983 году. Яхта, на которой он путешествовал с другом Дэннисом Мёрфи и его подружкой Линдой Энн Хортон, опрокинулась недалеко от Таунсвилла, Австралия, и все трое оказались в кишащем акулами море. Используя доски для сёрфинга, Баунди, Мёрфи и Хортон попытались добраться до рифа, где надеялись дождаться помощи, однако вскоре поняли, что на них охотится почти пятиметровая тигровая акула. Хищница откусила Мёрфи ногу, после чего тот направил доску для сёрфинга в сторону от остальных, чтобы увести акулу за собой. Ему это удалось, правда, ценой собственной жизни. После этого акула вернулась и утащила под воду девушку. Затем настала очередь Баунди, которому, однако, повезло. Спасатели вытащили его из воды в самый последний момент.",
    "В фильме сняты самые настоящие акулы. Съёмки проходили возле Порт-Линкольна, города в штате Южная Австралия.",
    "Съёмки фильма продолжались 5 недель."
  ],
  "trailers": [],
  "seasons": [],
  "voiceActing": [
    "Рус. Проф. многоголосый",
    "Eng.Original"
  ],
  "subtitle": [],
  "parts": [
    5665,
    5668,
    5671
  ]
}
