{
  "id": 5723,
  "name": "Мы, животные",
  "name_eng": "We the Animals",
  "year": 2018,
  "slogan": "«Based on the Acclaimed Novel»",
  "age": "18+",
  "type": "film",
  "quality": "HD (720p)",
  "imdb": "6.9",
  "imdb_id": "7681824",
  "kinopoisk": "6.3",
  "kinopoisk_id": "1108432",
  "world_art": null,
  "world_art_id": null,
  "time": "94 мин. / 01:34",
  "ads": false,
  "premier": "2018-01-20",
  "premier_rus": null,
  "availability": null,
  "activate_time": "2019-01-28 20:23:46",
  "budget": null,
  "fees_use": "$400 961",
  "fees_world": null,
  "fees_rus": null,
  "rate_mpaa": "R",
  "description": "История взросления Джоны, который пытается примириться со своей сексуальностью и мужественностью в смешанной белой и пуэрториканской семье в штате Нью-Йорк.",
  "iframe_url": "",
  "iframe_poster": null,
  "poster": "https://img.imgilall.me/movies/franchise/5/7/2/3/0/0/0/0/0/0/610x900_5723.jpg",
  "country": {
    "1": "США"
  },
  "collection": [],
  "genre": {
    "10": "Зарубежный",
    "7": "Драма"
  },
  "director": [
    "Джеремайя Сагар"
  ],
  "screenwriter": [
    "Дэниэл Китроссер",
    "Джеремайя Сагар",
    "Justin Torres"
  ],
  "producer": [
    "Эндрю Голдман",
    "Кристина Д. Кинг",
    "Пол Мези"
  ],
  "operator": [
    "Зак Маллиган"
  ],
  "composer": [
    "Nick Zammuto"
  ],
  "design": [
    "Кэти Хикман",
    "Мелани Мэрилл",
    "Lance Mitchell"
  ],
  "editor": [
    "Кэйко Дэгути",
    "Брайан А. Кейтс"
  ],
  "actors": [
    "Ивэн Росадо",
    "Рауль Кастильо",
    "Шейла Ванд",
    "Isaiah Kristian",
    "Josiah Gabriel",
    "Giovanni Pacciarelli",
    "Moe Isaac",
    "Майкл Пембертон",
    "Амелия Кэмпбелл",
    "Mickey Anthony"
  ],
  "actors_dubl": [],
  "trivia": [],
  "trailers": [],
  "seasons": [],
  "voiceActing": [
    "HDRezka Studio",
    "JASKIER",
    "Eng.Original"
  ],
  "subtitle": [],
  "parts": []
}
