{
  "id": 5850,
  "name": "Великолепный дуэт / Великолепная двойка",
  "name_eng": "Muhtesem Ikili",
  "year": 2018,
  "slogan": null,
  "age": "16+",
  "type": "series",
  "quality": "HD (720p)",
  "imdb": "6.2",
  "imdb_id": "9083954",
  "kinopoisk": "7.4",
  "kinopoisk_id": "1200377",
  "world_art": null,
  "world_art_id": null,
  "time": "120 мин.",
  "ads": false,
  "premier": "2018-11-01",
  "premier_rus": "2018-11-02",
  "availability": "2018-11-03",
  "serial_status": "offline",
  "activate_time": "2019-02-04 18:40:38",
  "budget": null,
  "fees_use": null,
  "fees_world": null,
  "fees_rus": null,
  "rate_mpaa": null,
  "description": "История двух успешных комиссаров полиции с противоположными характерами. Они совершенно не ладят между собой, но будут вынуждены вместе работать, чтобы поймать международную преступную группировку.",
  "iframe_url": "",
  "poster": "https://img.imgilall.me/movies/franchise/5/8/5/0/0/0/0/0/0/0/610x900_5850.jpg",
  "country": {
    "36": "Турция"
  },
  "collection": [],
  "genre": {
    "25": "Криминал",
    "17": "Боевик",
    "10": "Зарубежный"
  },
  "director": [
    "Чагатай Тосун",
    "Барис Эрджетин"
  ],
  "screenwriter": [
    "Basar Basaran",
    "Эмре Оздюр",
    "Gülhis Kutu"
  ],
  "producer": [
    "Эрол Авджи",
    "Engin Sari"
  ],
  "operator": [
    "Selim Demiratar"
  ],
  "composer": [
    "Зейнеп Аласья",
    "Алпай Гёлтекин",
    "Джанер Озкан"
  ],
  "design": [
    "Бурхан Турк",
    "Yasemin Akdas"
  ],
  "editor": [
    "Бюлент Тасар",
    "Бахадыр Айдин"
  ],
  "actors": [
    "Ибрагим Челиккол",
    "Керем Бюрсин",
    "Озге Гюрель",
    "Ойкю Караель",
    "Энгин Шенкан",
    "Зафер Алгёз",
    "Сабахаттин Якут",
    "Özbek Kaplan",
    "Алпер Байтекин",
    "Гёкай Мюфтюоглу"
  ],
  "actors_dubl": [],
  "trivia": [],
  "trailers": [],
  "seasons": [
    {
      "poster": "https://img.imgilall.me/movies/season/3/4/3/7/0/0/0/0/0/0/610x900_3437.jpg",
      "release_ru": "2018-11-02",
      "release_world": "2018-11-01",
      "availability": "2018-11-03",
      "iframe_url": "",
      "season": 1,
      "episodes": [
        {
          "episode": 1,
          "name": null,
          "iframe_url": "",
          "iframe_poster": null,
          "release_ru": "2018-11-02",
          "release_world": "2018-11-01",
          "availability": "2018-11-03",
          "voiceActing": [
            "Рус. Люб. двухголосый"
          ],
          "ads": false,
          "subtitle": []
        },
        {
          "episode": 2,
          "name": null,
          "iframe_url": "",
          "iframe_poster": null,
          "release_ru": "2018-11-09",
          "release_world": "2018-11-08",
          "availability": "2018-11-10",
          "voiceActing": [
            "Рус. Люб. двухголосый"
          ],
          "ads": false,
          "subtitle": []
        },
        {
          "episode": 3,
          "name": null,
          "iframe_url": "",
          "iframe_poster": null,
          "release_ru": "2018-11-16",
          "release_world": "2018-11-15",
          "availability": "2018-11-17",
          "voiceActing": [
            "Рус. Люб. двухголосый"
          ],
          "ads": false,
          "subtitle": []
        },
        {
          "episode": 4,
          "name": null,
          "iframe_url": "",
          "iframe_poster": null,
          "release_ru": "2018-11-23",
          "release_world": "2018-11-22",
          "availability": "2018-11-24",
          "voiceActing": [
            "Рус. Люб. двухголосый"
          ],
          "ads": false,
          "subtitle": []
        },
        {
          "episode": 5,
          "name": null,
          "iframe_url": "",
          "iframe_poster": null,
          "release_ru": "2018-11-30",
          "release_world": "2018-11-29",
          "availability": "2018-12-01",
          "voiceActing": [
            "Рус. Люб. двухголосый"
          ],
          "ads": false,
          "subtitle": []
        },
        {
          "episode": 6,
          "name": "6. Bölüm",
          "iframe_url": "",
          "iframe_poster": null,
          "release_ru": "2018-12-07",
          "release_world": "2018-12-06",
          "availability": "2018-12-08",
          "voiceActing": [
            "Рус. Люб. двухголосый"
          ],
          "ads": false,
          "subtitle": []
        },
        {
          "episode": 7,
          "name": "episode 7",
          "iframe_url": "",
          "iframe_poster": null,
          "release_ru": "2018-12-14",
          "release_world": "2018-12-13",
          "availability": "2018-12-15",
          "voiceActing": [
            "Рус. Люб. двухголосый"
          ],
          "ads": false,
          "subtitle": []
        },
        {
          "episode": 8,
          "name": null,
          "iframe_url": "",
          "iframe_poster": null,
          "release_ru": "2018-12-21",
          "release_world": "2018-12-20",
          "availability": "2018-12-22",
          "voiceActing": [
            "Рус. Люб. двухголосый"
          ],
          "ads": false,
          "subtitle": []
        },
        {
          "episode": 9,
          "name": null,
          "iframe_url": "",
          "iframe_poster": null,
          "release_ru": "2018-12-28",
          "release_world": "2018-12-27",
          "availability": "2018-12-29",
          "voiceActing": [
            "Рус. Люб. двухголосый"
          ],
          "ads": false,
          "subtitle": []
        },
        {
          "episode": 10,
          "name": "10. Bölüm",
          "iframe_url": "",
          "iframe_poster": null,
          "release_ru": "2019-01-23",
          "release_world": "2019-01-22",
          "availability": "2019-01-24",
          "voiceActing": [
            "Рус. Люб. двухголосый"
          ],
          "ads": false,
          "subtitle": []
        },
        {
          "episode": 11,
          "name": "11. Bölüm",
          "iframe_url": "",
          "iframe_poster": null,
          "release_ru": "2019-02-06",
          "release_world": "2019-02-05",
          "availability": "2019-02-07",
          "voiceActing": [
            "Рус. Люб. двухголосый"
          ],
          "ads": false,
          "subtitle": []
        },
        {
          "episode": 12,
          "name": "12. Bölüm",
          "iframe_url": "",
          "iframe_poster": null,
          "release_ru": "2019-02-13",
          "release_world": "2019-02-12",
          "availability": "2019-02-14",
          "voiceActing": [
            "Рус. Люб. двухголосый"
          ],
          "ads": false,
          "subtitle": []
        }
      ]
    }
  ],
  "voiceActing": [
    "Рус. Люб. двухголосый"
  ],
  "subtitle": [],
  "parts": []
}
