{
  "id": 5914,
  "name": "На своём поле",
  "name_eng": "Heimebane",
  "year": 2018,
  "slogan": "«You will walk alone»",
  "age": "16+",
  "type": "series",
  "quality": "HD (720p)",
  "imdb": "8.0",
  "imdb_id": "7766104",
  "kinopoisk": "7.7",
  "kinopoisk_id": "1112725",
  "world_art": null,
  "world_art_id": null,
  "time": "50 мин.",
  "ads": true,
  "premier": "2018-03-04",
  "premier_rus": null,
  "availability": null,
  "serial_status": "offline",
  "activate_time": "2019-02-08 16:53:19",
  "budget": null,
  "fees_use": null,
  "fees_world": null,
  "fees_rus": null,
  "rate_mpaa": null,
  "description": "В небольшом городке праздник: скоро местная команда по футболу начнёт свой турнир. Жители уверены, что их ждет триумф, однако прямо перед стартом сезона клуб покидает тренер, который посвятил много времени подготовке команды. Срочно нужен новый тренер, и им неожиданно вызывается быть Хелена Миккельсен. Женщина готова вести команду к вершинам турнирной таблицы, однако на этом пути ей предстоит столкнуться с типичными предрассудками, травлей и личностными проблемами.",
  "iframe_url": "",
  "poster": "https://img.imgilall.me/movies/franchise/5/9/1/4/0/0/0/0/0/0/610x900_5914.jpg",
  "country": {
    "53": "Норвегия"
  },
  "collection": [],
  "genre": {
    "23": "Спортивный",
    "10": "Зарубежный",
    "7": "Драма"
  },
  "director": [
    "Ингвилд Све Фликке",
    "Стайан Кристиансен",
    "Арилд Андресен"
  ],
  "screenwriter": [
    "Johan Fasting",
    "Christian Almerud Owe",
    "H.M. Hvattum"
  ],
  "producer": [
    "Вегард Эриксен Штенберг",
    "Vilje Kathrine Hagen",
    "Magnus Ramsdalen"
  ],
  "operator": [
    "Джон-Эрлинг Х. Фредриксен",
    "Торкел Риисе Свенсон",
    "Сьюр Ортун"
  ],
  "composer": [
    "Аслак Хартберг"
  ],
  "design": [
    "Астрид Сатрен",
    "Astrid Marie Sætren",
    "Томас Ойёрдсбаккен"
  ],
  "editor": [
    "Мирья Мелберг",
    "Elise Solberg",
    "Finn Krogvig"
  ],
  "actors": [
    "Эни Даль Торп",
    "Axel Bøyum",
    "Emma Bones",
    "Nader Khademi",
    "Morten Svartveit",
    "Rune Sæter",
    "André Sørum",
    "Kristian Dolmen",
    "Endre Synnes Hagerup",
    "Per Jan Vinje"
  ],
  "actors_dubl": [],
  "trivia": [],
  "trailers": [],
  "seasons": [
    {
      "poster": "https://img.imgilall.me/movies/season/3/5/1/9/0/0/0/0/0/0/610x900_3519.jpg",
      "release_ru": "2018-03-05",
      "release_world": "2018-03-04",
      "availability": "2018-03-06",
      "iframe_url": "",
      "season": 1,
      "episodes": [
        {
          "episode": 1,
          "name": "Den som vil det mest",
          "iframe_url": "",
          "iframe_poster": "https://img.imgilall.me/movies/video/5/6/3/8/0/0/0/0/0/0/800x450_56380.jpeg",
          "release_ru": "2018-03-05",
          "release_world": "2018-03-04",
          "availability": "2018-03-06",
          "voiceActing": [
            "Baibako"
          ],
          "ads": true,
          "subtitle": []
        },
        {
          "episode": 2,
          "name": "Steikje bra",
          "iframe_url": "",
          "iframe_poster": "https://img.imgilall.me/movies/video/5/6/3/8/1/0/0/0/0/0/800x450_56381.jpeg",
          "release_ru": "2018-03-05",
          "release_world": "2018-03-04",
          "availability": "2018-03-06",
          "voiceActing": [
            "Baibako"
          ],
          "ads": true,
          "subtitle": []
        },
        {
          "episode": 3,
          "name": "Debutantar",
          "iframe_url": "",
          "iframe_poster": "https://img.imgilall.me/movies/video/5/6/3/8/2/0/0/0/0/0/800x450_56382.jpeg",
          "release_ru": "2018-03-12",
          "release_world": "2018-03-11",
          "availability": "2018-03-13",
          "voiceActing": [
            "Baibako"
          ],
          "ads": true,
          "subtitle": []
        },
        {
          "episode": 4,
          "name": "Medgangssupportare",
          "iframe_url": "",
          "iframe_poster": "https://img.imgilall.me/movies/video/5/6/3/8/3/0/0/0/0/0/800x450_56383.jpeg",
          "release_ru": "2018-03-19",
          "release_world": "2018-03-18",
          "availability": "2018-03-20",
          "voiceActing": [
            "Baibako"
          ],
          "ads": true,
          "subtitle": []
        },
        {
          "episode": 5,
          "name": "Fair Play",
          "iframe_url": "",
          "iframe_poster": "https://img.imgilall.me/movies/video/5/6/3/8/4/0/0/0/0/0/800x450_56384.jpeg",
          "release_ru": "2018-03-26",
          "release_world": "2018-03-25",
          "availability": "2018-03-27",
          "voiceActing": [
            "Baibako"
          ],
          "ads": true,
          "subtitle": []
        },
        {
          "episode": 6,
          "name": "Ingen kommentar",
          "iframe_url": "",
          "iframe_poster": "https://img.imgilall.me/movies/video/5/6/3/8/5/0/0/0/0/0/800x450_56385.jpeg",
          "release_ru": "2018-04-02",
          "release_world": "2018-04-01",
          "availability": "2018-04-03",
          "voiceActing": [
            "Baibako"
          ],
          "ads": true,
          "subtitle": []
        },
        {
          "episode": 7,
          "name": "Deadline Day",
          "iframe_url": "",
          "iframe_poster": "https://img.imgilall.me/movies/video/5/6/3/8/6/0/0/0/0/0/800x450_56386.jpeg",
          "release_ru": "2018-04-09",
          "release_world": "2018-04-08",
          "availability": "2018-04-10",
          "voiceActing": [
            "Baibako"
          ],
          "ads": true,
          "subtitle": []
        },
        {
          "episode": 8,
          "name": "Straffeskyttarane",
          "iframe_url": "",
          "iframe_poster": "https://img.imgilall.me/movies/video/5/6/3/8/7/0/0/0/0/0/800x450_56387.jpeg",
          "release_ru": "2018-04-16",
          "release_world": "2018-04-15",
          "availability": "2018-04-17",
          "voiceActing": [
            "Baibako"
          ],
          "ads": true,
          "subtitle": []
        },
        {
          "episode": 9,
          "name": "Over streken",
          "iframe_url": "",
          "iframe_poster": "https://img.imgilall.me/movies/video/5/6/3/8/8/0/0/0/0/0/800x450_56388.jpeg",
          "release_ru": "2018-04-23",
          "release_world": "2018-04-22",
          "availability": "2018-04-24",
          "voiceActing": [
            "Baibako"
          ],
          "ads": true,
          "subtitle": []
        },
        {
          "episode": 10,
          "name": "The Great Escape",
          "iframe_url": "",
          "iframe_poster": "https://img.imgilall.me/movies/video/5/6/3/8/9/0/0/0/0/0/800x450_56389.jpeg",
          "release_ru": "2018-04-30",
          "release_world": "2018-04-29",
          "availability": "2018-05-01",
          "voiceActing": [
            "Baibako"
          ],
          "ads": true,
          "subtitle": []
        }
      ]
    },
    {
      "poster": "https://img.imgilall.me/movies/season/3/5/2/0/0/0/0/0/0/0/610x900_3520.jpg",
      "release_ru": "2019-02-18",
      "release_world": "2019-02-17",
      "availability": "2019-02-19",
      "iframe_url": "",
      "season": 2,
      "episodes": [
        {
          "episode": 1,
          "name": "Stolt fortid, stor framtid",
          "iframe_url": null,
          "iframe_poster": null,
          "release_ru": "2019-02-18",
          "release_world": "2019-02-17",
          "availability": "2019-02-19",
          "voiceActing": []
        },
        {
          "episode": 2,
          "name": "Alt for Noreg",
          "iframe_url": null,
          "iframe_poster": null,
          "release_ru": "2019-02-25",
          "release_world": "2019-02-24",
          "availability": "2019-02-26",
          "voiceActing": []
        },
        {
          "episode": 3,
          "name": "Sviræv",
          "iframe_url": null,
          "iframe_poster": null,
          "release_ru": "2019-03-04",
          "release_world": "2019-03-03",
          "availability": "2019-03-05",
          "voiceActing": []
        },
        {
          "episode": 4,
          "name": "Go Your Own Way",
          "iframe_url": null,
          "iframe_poster": null,
          "release_ru": "2019-03-11",
          "release_world": "2019-03-10",
          "availability": "2019-03-12",
          "voiceActing": []
        },
        {
          "episode": 5,
          "name": "Ikkje til sals",
          "iframe_url": null,
          "iframe_poster": null,
          "release_ru": "2019-03-18",
          "release_world": "2019-03-17",
          "availability": "2019-03-19",
          "voiceActing": []
        },
        {
          "episode": 6,
          "name": "Reservelaget",
          "iframe_url": null,
          "iframe_poster": null,
          "release_ru": "2019-03-25",
          "release_world": "2019-03-24",
          "availability": "2019-03-26",
          "voiceActing": []
        },
        {
          "episode": 7,
          "name": "Jævla Ålesund",
          "iframe_url": null,
          "iframe_poster": null,
          "release_ru": "2019-04-01",
          "release_world": "2019-03-31",
          "availability": "2019-04-02",
          "voiceActing": []
        },
        {
          "episode": 8,
          "name": "Never Walk Alone",
          "iframe_url": null,
          "iframe_poster": null,
          "release_ru": "2019-04-08",
          "release_world": "2019-04-07",
          "availability": "2019-04-09",
          "voiceActing": []
        }
      ]
    }
  ],
  "voiceActing": [
    "Baibako"
  ],
  "subtitle": [],
  "parts": []
}
