{
  "id": 6037,
  "name": "Жизнь",
  "name_eng": "Une vie",
  "year": 2016,
  "slogan": null,
  "age": "16+",
  "type": "film",
  "quality": "HD (720p)",
  "imdb": "6.4",
  "imdb_id": "5078134",
  "kinopoisk": "5.7",
  "kinopoisk_id": "936758",
  "world_art": null,
  "world_art_id": null,
  "time": "119 мин. / 01:59",
  "ads": false,
  "premier": "2016-09-06",
  "premier_rus": "2017-06-22",
  "availability": null,
  "activate_time": "2019-02-15 15:47:55",
  "budget": null,
  "fees_use": "$37 626",
  "fees_world": null,
  "fees_rus": null,
  "rate_mpaa": null,
  "description": "Семнадцатилетняя Жанна покидает монастырь, в котором прошли её отроческие годы, и возвращается в имение Тополя, расположенное в Нормандии. Здесь она знакомится с сыном разорившегося дворянина Жюльеном, который пробудил ее сердце. Вскоре молодые люди сочетаются браком, но семейное счастье длится недолго.",
  "iframe_url": "",
  "iframe_poster": "https://img.imgilall.me/movies/video/5/8/3/4/5/0/0/0/0/0/800x450_58345.jpeg",
  "poster": "https://img.imgilall.me/movies/franchise/6/0/3/7/0/0/0/0/0/0/610x900_6037.jpg",
  "country": {
    "9": "Франция",
    "29": "Бельгия"
  },
  "collection": [],
  "genre": {
    "10": "Зарубежный",
    "7": "Драма"
  },
  "director": [
    "Стефан Бризе"
  ],
  "screenwriter": [
    "Стефан Бризе",
    "Флоренс Виньон",
    "Ги де Мопассан"
  ],
  "producer": [
    "Милена Пойло",
    "Жиль Сакуто",
    "Жак-Анри Бронкар"
  ],
  "operator": [
    "Антуан Эберле"
  ],
  "composer": [
    "Оливье Бомон"
  ],
  "design": [
    "Валери Сараджьян",
    "Мадлин Фонтен"
  ],
  "editor": [
    "Энн Клотц"
  ],
  "actors": [
    "Жюдит Шемла",
    "Жан-Пьер Дарруссен",
    "Иоланда Моро",
    "Сванн Арло",
    "Нина Мерисс",
    "Оливье Перье",
    "Клотильда Эсме",
    "Ален Бежель",
    "Финнегэн Олдфилд",
    "Lucette Beudin"
  ],
  "actors_dubl": [],
  "trivia": [
    "Экранизация одноименного романа Ги де Мопассана."
  ],
  "trailers": [],
  "seasons": [],
  "voiceActing": [
    "Рус. Проф. многоголосый"
  ],
  "subtitle": [],
  "parts": []
}
