{
  "id": 61,
  "name": "Движение вверх",
  "name_eng": "",
  "year": 2018,
  "slogan": null,
  "age": "6+",
  "type": "film",
  "quality": "FHD (1080p)",
  "imdb": "6.6",
  "imdb_id": "5987402",
  "kinopoisk": "7.5",
  "kinopoisk_id": "840817",
  "world_art": null,
  "world_art_id": null,
  "time": "133 мин. / 02:13",
  "ads": false,
  "premier": "2018-01-05",
  "premier_rus": "2017-12-28",
  "availability": null,
  "activate_time": "2018-05-28 12:14:17",
  "budget": "450 000 000 руб.",
  "fees_use": null,
  "fees_world": "$59 884 129",
  "fees_rus": "$53 876 764",
  "rate_mpaa": null,
  "description": "Есть победы, которые меняют ход истории. Победы духа, победы страны, победы всего мира. Таким триумфом стали легендарные «три секунды» — выигрыш сборной СССР по баскетболу на роковой мюнхенской Олимпиаде 1972 г. Впервые за 36 лет была повержена «непобедимая» команда США. Никто даже помыслить не мог о том, что это возможно — обыграть великолепных непогрешимых американцев на Олимпийских играх! Никто, кроме советских баскетболистов (русских и грузин, украинцев и казахов, белорусов и литовцев).Когда проигрыш означал поражение страны, когда нужно было выходить и бороться в раскаленной обстановке из-за произошедшего теракта, великий тренер сборной СССР был готов на все, лишь бы помочь своим подопечным разбить американский миф о непотопляемой команде мечты. Ведь он знал, что создал самую сильную сборную на планете, и в начале заставил поверить в это своих игроков, а затем весь мир.",
  "iframe_url": "",
  "iframe_poster": null,
  "poster": "https://img.imgilall.me/movies/franchise/6/1/0/0/0/0/0/0/0/0/610x900_61.jpg",
  "country": {
    "5": "Россия"
  },
  "collection": {
    "76": "Про спорт",
    "21": "Для молодёжи",
    "11": "Для женщин"
  },
  "genre": {
    "23": "Спортивный",
    "22": "Русский",
    "7": "Драма"
  },
  "director": [
    "Антон Мегердичев"
  ],
  "screenwriter": [
    "Николай Куликов",
    "Андрей Курейчик"
  ],
  "producer": [
    "Леонид Верещагин",
    "Антон Златопольский",
    "Никита Михалков"
  ],
  "operator": [
    "Игорь Гринякин"
  ],
  "composer": [],
  "design": [
    "Сергей Агин",
    "Сергей Стручев",
    "Олег Колодько"
  ],
  "editor": [
    "Петр Зеленов",
    "Антон Мегердичев",
    "Вазген Каграманян"
  ],
  "actors": [
    "Владимир Машков",
    "Андрей Смоляков",
    "Иван Колесников",
    "Кирилл Зайцев",
    "Джон Сэвэдж",
    "Марат Башаров",
    "Александра Ревенко",
    "Виктория Толстоганова",
    "Сергей Гармаш",
    "Джеймс Тратас"
  ],
  "actors_dubl": [],
  "trivia": [
    "В основу фильма легла автобиографическая книга великого баскетболиста Сергея Белова «Движение вверх».",
    "Золото Летних Олимпийских игр 1972 года – первая в истории олимпийская победа отечественных баскетболистов.",
    "Финальная версия сценария фильма была 22-й.",
    "Консультантами проекта выступили участник золотого матча Иван Едешко, а также сын Сергея Белова, Александр, который исполнил небольшую роль (игрока сборной СССР Геннадия Вольнова) и был постановщиком игровых баскетбольных сцен в фильме.",
    "Съемки проходили с июля по ноябрь 2016 года.",
    "Число актеров массовых сцен достигало 500 человек.",
    "CG Factory («Экипаж», «Он – дракон», «Метро») под руководством Александра Горохова создала систему клонирования массовки, позволяющую работать с фотореалистичными персонажами на планах от сверхобщих до средних.",
    "Подавляющее большинство баскетболистов в фильме – профессиональные баскетболисты и в жизни. Дебютировавший в кино баскетболист Александр Ряполов полтора месяца занимался актерским мастерством, чтобы сыграть Алжана Жармухамедова.",
    "При подготовке к съемкам исполнители главных ролей тренировались по несколько часов в день на протяжении нескольких месяцев.",
    "Художник по костюмам Сергей Стручев подробно изучил архивные фото- и видеоматериалы, нюансы кроя и фактур тканей, которые в тот период использовались в спорте в нашей стране и за рубежом. Так, например, выяснилось, что трусы баскетболистов советской сборной шились из хлопчатобумажного сатина, в то время как американцы уже играли в трикотаже. «Это мы соблюли, — делится Сергей, — но некоторыми другими документальными вещами вынуждены были пожертвовать в пользу эстетической и кинематографической правды. К примеру, в картине у советских баскетболистов не такая тесная и узкая игровая форма, как была на самом деле».",
    "Специально для проекта было сшито более 500 костюмов – гражданских и спортивных комплектов.",
    "На актерах массовых сцен можно увидеть винтажную одежду конца 1960-х — начала 1970-х годов.",
    "Для главных героев было создано по четыре комплекта игровой формы, а также спортивные костюмы и повседневные образы.",
    "Для картины заказали более 20 исторически точных баскетбольных мячей: по советским стандартам, для международных соревнований и мягких, использовавшихся во время трюков.",
    "На подготовительном этапе в течение полугода оператор и режиссер производили тестовые съемки баскетбольных сцен в поисках наиболее выигрышных выразительных средств. В том числе Игорь Гринякин пробовал снимать, передвигаясь на роликовых коньках (снятые таким образом сцены вошли в фильм).",
    "Баскетбол снимали шесть операторских команд на шесть камер – уникальный случай в отечественной киноиндустрии. Перемещавшаяся по тросам под потолком камера-паук отвечала за скорость и географию спортивных элементов. Другая камера постоянно на поле. Третья снимала крупные планы, четвертая — соперников советской сборной. Еще одна камера отвечала за рост и ракурс, а камера-«рапид» фиксировала происходящее, замедляя время. Воедино все сигналы с площадки сводила синхронизирующая аппаратура Q-take.",
    "Систему для камеры-паука с нуля создали молодые инженеры из МГУ. Она быстрее, мобильнее и дешевле всех зарубежных аналогов.",
    "Сцена легендарного матча снималась во время первых съёмочных дней. Съемки финальной игры продлились месяц.",
    "Из-за судебных исков со стороны Евгении Кондрашиной и Александры Овчинниковой (вдов Владимира Кондрашина и Александра Белова) к авторам фильма имя главного тренера мужской сборной СССР по баскетболу было изменено на Владимир Гаранжин. Настоящее имя тренера — Кондрашин Владимир Петрович.",
    "Название фильма для зарубежных кинофестивалей — «Три секунды» («Three Seconds»).",
    "Для зрелищности авторы фильма исказили некоторые исторические факты, такие как: Александр Белов не был смертельно болен в 1972, Модестас Паулаускас не пытался сбежать из СССР, у Сергея Белова не болели колени и у него не было усов, Алжан Жармухамедов не носил линзы. Некоторые из этих фактов имели место в жизни спортсменов, но в иные моменты их жизни."
  ],
  "trailers": [],
  "seasons": [],
  "voiceActing": [
    "Рус. Оригинальный"
  ],
  "subtitle": [],
  "parts": []
}
