{
  "id": 6143,
  "name": "Шекспир и Хэтэуэй: Частные детективы",
  "name_eng": "Shakespeare & Hathaway: Private Investigators",
  "year": 2018,
  "slogan": null,
  "age": "12+",
  "type": "series",
  "quality": "FHD (1080p)",
  "imdb": "7.6",
  "imdb_id": "7526498",
  "kinopoisk": "7.0",
  "kinopoisk_id": "1115322",
  "world_art": null,
  "world_art_id": null,
  "time": "45 мин.",
  "ads": false,
  "premier": "2018-02-26",
  "premier_rus": "2019-02-18",
  "availability": "2019-02-19",
  "serial_status": "online",
  "activate_time": "2019-02-20 14:36:57",
  "budget": null,
  "fees_use": null,
  "fees_world": null,
  "fees_rus": null,
  "rate_mpaa": null,
  "description": "Луэлла Шекспир и Фрэнк Хэтэуэй, пара детективов-чудаков, расследуют преступления в Стратфорд-апон-Эйвоне.",
  "iframe_url": "",
  "poster": "https://img.imgilall.me/movies/franchise/6/1/4/3/0/0/0/0/0/0/610x900_6143.jpg",
  "country": {
    "2": "Великобритания"
  },
  "collection": {
    "104": "BBC"
  },
  "genre": {
    "24": "Детектив",
    "19": "Комедия",
    "10": "Зарубежный",
    "7": "Драма"
  },
  "director": [
    "Пётр Шкопяк",
    "Йен Барбер",
    "Пол Гибсон"
  ],
  "screenwriter": [
    "Пол Мэттью Томпсон",
    "Джуд Тиндел",
    "Кит Ламберт"
  ],
  "producer": [
    "Фиона Блэк",
    "Нил Ирвин",
    "Элла Келли"
  ],
  "operator": [
    "Крис Престон",
    "Аль Бич",
    "Марк Саутхолл"
  ],
  "composer": [
    "Дэбби Вайсман"
  ],
  "design": [
    "Ник Тернер",
    "Хелен Уотсон",
    "Грэхэм Дэнс"
  ],
  "editor": [
    "Джеймс Хей",
    "Луиз Пирсон",
    "Стив Киллик"
  ],
  "actors": [
    "Марк Бентон",
    "Джо Джойнер",
    "Патрик Уолш МакБрайд",
    "Эмбер Ага",
    "Томос Имс",
    "Yasmin Kaur Barn",
    "Роберта Тейлор",
    "Ашек Ахтар",
    "Даррен Эванс",
    "Джулия Дикин"
  ],
  "actors_dubl": [
    "Артур Агаджанян",
    "Ольга Макарова",
    "Денис Шалдин",
    "Светлана Климович",
    "Юрий Красиков"
  ],
  "trivia": [
    "Название паба The mucky mallard являет собой отсылку к названию паба The dirty duck в городе Стратфорд-апон-Эйвон, в который любят захаживать актёры."
  ],
  "trailers": [
    {
      "name": "трейлер №1",
      "number": 1,
      "iframe_poster": "https://img.imgilall.me/movies/trailer/2/4/1/0/0/0/0/0/0/0/800x450_241.jpeg",
      "season": 2,
      "iframe_url": ""
    }
  ],
  "seasons": [
    {
      "poster": "https://img.imgilall.me/movies/season/3/7/9/8/0/0/0/0/0/0/610x900_3798.jpg",
      "release_ru": "2018-02-27",
      "release_world": "2018-02-26",
      "availability": "2018-02-28",
      "iframe_url": "",
      "season": 1,
      "episodes": [
        {
          "episode": 1,
          "name": "O Brave New World",
          "iframe_url": "",
          "iframe_poster": null,
          "release_ru": "2018-02-27",
          "release_world": "2018-02-26",
          "availability": "2018-02-28",
          "voiceActing": [
            "TVShows",
            "Eng.Original"
          ],
          "ads": false,
          "subtitle": []
        },
        {
          "episode": 2,
          "name": "The Chimes at Midnight",
          "iframe_url": "",
          "iframe_poster": null,
          "release_ru": "2018-02-28",
          "release_world": "2018-02-27",
          "availability": "2018-03-01",
          "voiceActing": [
            "TVShows",
            "Eng.Original"
          ],
          "ads": false,
          "subtitle": []
        },
        {
          "episode": 3,
          "name": "This Promised End",
          "iframe_url": "",
          "iframe_poster": null,
          "release_ru": "2018-03-01",
          "release_world": "2018-02-28",
          "availability": "2018-03-02",
          "voiceActing": [
            "TVShows",
            "Eng.Original"
          ],
          "ads": false,
          "subtitle": []
        },
        {
          "episode": 4,
          "name": "This Rough Magic",
          "iframe_url": "",
          "iframe_poster": null,
          "release_ru": "2018-03-02",
          "release_world": "2018-03-01",
          "availability": "2018-03-03",
          "voiceActing": [
            "TVShows",
            "Eng.Original"
          ],
          "ads": false,
          "subtitle": []
        },
        {
          "episode": 5,
          "name": "Toil and Trouble",
          "iframe_url": "",
          "iframe_poster": null,
          "release_ru": "2018-03-03",
          "release_world": "2018-03-02",
          "availability": "2018-03-04",
          "voiceActing": [
            "TVShows",
            "Eng.Original"
          ],
          "ads": false,
          "subtitle": []
        },
        {
          "episode": 6,
          "name": "Exit, Pursued by a Bear",
          "iframe_url": "",
          "iframe_poster": null,
          "release_ru": "2018-03-06",
          "release_world": "2018-03-05",
          "availability": "2018-03-07",
          "voiceActing": [
            "TVShows",
            "Eng.Original"
          ],
          "ads": false,
          "subtitle": []
        },
        {
          "episode": 7,
          "name": "The Fairest Show Means Most Deceit",
          "iframe_url": "",
          "iframe_poster": null,
          "release_ru": "2018-03-07",
          "release_world": "2018-03-06",
          "availability": "2018-03-08",
          "voiceActing": [
            "TVShows",
            "Eng.Original"
          ],
          "ads": false,
          "subtitle": []
        },
        {
          "episode": 8,
          "name": "The Chameleon's Dish",
          "iframe_url": "",
          "iframe_poster": null,
          "release_ru": "2018-03-08",
          "release_world": "2018-03-07",
          "availability": "2018-03-09",
          "voiceActing": [
            "TVShows",
            "Eng.Original"
          ],
          "ads": false,
          "subtitle": []
        },
        {
          "episode": 9,
          "name": "The Rascal Cook",
          "iframe_url": "",
          "iframe_poster": null,
          "release_ru": "2018-03-09",
          "release_world": "2018-03-08",
          "availability": "2018-03-10",
          "voiceActing": [
            "TVShows",
            "Eng.Original"
          ],
          "ads": false,
          "subtitle": []
        },
        {
          "episode": 10,
          "name": "Ill Met by Moonlight",
          "iframe_url": "",
          "iframe_poster": null,
          "release_ru": "2018-03-10",
          "release_world": "2018-03-09",
          "availability": "2018-03-11",
          "voiceActing": [
            "TVShows",
            "Eng.Original"
          ],
          "ads": false,
          "subtitle": []
        }
      ]
    },
    {
      "poster": "https://img.imgilall.me/movies/season/3/7/9/9/0/0/0/0/0/0/610x900_3799.jpg",
      "release_ru": "2019-02-26",
      "release_world": "2019-02-25",
      "availability": "2019-02-27",
      "iframe_url": "",
      "season": 2,
      "episodes": [
        {
          "episode": 1,
          "name": "Outrageous Fortune",
          "iframe_url": "",
          "iframe_poster": null,
          "release_ru": "2019-02-26",
          "release_world": "2019-02-25",
          "availability": "2019-02-27",
          "voiceActing": [
            "TVShows",
            "Eng.Original"
          ],
          "ads": false,
          "subtitle": []
        },
        {
          "episode": 2,
          "name": "The Play's the Thing",
          "iframe_url": "",
          "iframe_poster": null,
          "release_ru": "2019-02-27",
          "release_world": "2019-02-26",
          "availability": "2019-02-28",
          "voiceActing": [
            "TVShows",
            "Eng.Original"
          ],
          "ads": false,
          "subtitle": []
        },
        {
          "episode": 3,
          "name": "This Cursed Hand",
          "iframe_url": "",
          "iframe_poster": null,
          "release_ru": "2019-02-28",
          "release_world": "2019-02-27",
          "availability": "2019-03-01",
          "voiceActing": [
            "TVShows",
            "Eng.Original"
          ],
          "ads": false,
          "subtitle": []
        },
        {
          "episode": 4,
          "name": "Beware the Ides of March",
          "iframe_url": "",
          "iframe_poster": null,
          "release_ru": "2019-03-01",
          "release_world": "2019-02-28",
          "availability": "2019-03-02",
          "voiceActing": [
            "TVShows",
            "Eng.Original"
          ],
          "ads": false,
          "subtitle": []
        },
        {
          "episode": 5,
          "name": "No More Cakes and Ale",
          "iframe_url": "",
          "iframe_poster": null,
          "release_ru": "2019-03-02",
          "release_world": "2019-03-01",
          "availability": "2019-03-03",
          "voiceActing": [
            "TVShows",
            "Eng.Original"
          ],
          "ads": false,
          "subtitle": []
        },
        {
          "episode": 6,
          "name": "The Offered Fallacy",
          "iframe_url": "",
          "iframe_poster": null,
          "release_ru": "2019-03-05",
          "release_world": "2019-03-04",
          "availability": "2019-03-06",
          "voiceActing": [
            "TVShows",
            "Eng.Original"
          ],
          "ads": false,
          "subtitle": []
        },
        {
          "episode": 7,
          "name": "Nothing Will Come of Nothing",
          "iframe_url": "",
          "iframe_poster": null,
          "release_ru": "2019-03-06",
          "release_world": "2019-03-05",
          "availability": "2019-03-07",
          "voiceActing": [
            "TVShows",
            "Eng.Original"
          ],
          "ads": false,
          "subtitle": []
        },
        {
          "episode": 8,
          "name": "In My Memory Lock'd",
          "iframe_url": "",
          "iframe_poster": null,
          "release_ru": "2019-03-07",
          "release_world": "2019-03-06",
          "availability": "2019-03-08",
          "voiceActing": [
            "TVShows",
            "Eng.Original"
          ],
          "ads": false,
          "subtitle": []
        },
        {
          "episode": 9,
          "name": "The Envious Court",
          "iframe_url": "",
          "iframe_poster": null,
          "release_ru": "2019-03-08",
          "release_world": "2019-03-07",
          "availability": "2019-03-09",
          "voiceActing": [
            "TVShows",
            "Eng.Original"
          ],
          "ads": false,
          "subtitle": []
        },
        {
          "episode": 10,
          "name": "Too Cold for Hell",
          "iframe_url": "",
          "iframe_poster": null,
          "release_ru": "2019-03-09",
          "release_world": "2019-03-08",
          "availability": "2019-03-10",
          "voiceActing": [
            "TVShows",
            "Eng.Original"
          ],
          "ads": false,
          "subtitle": []
        }
      ]
    },
    {
      "poster": null,
      "release_ru": "2020-02-04",
      "release_world": "2020-02-03",
      "availability": "2020-02-05",
      "iframe_url": "",
      "season": 3,
      "episodes": [
        {
          "episode": 1,
          "name": "How the Rogue Roar'd",
          "iframe_url": "",
          "iframe_poster": null,
          "release_ru": "2020-02-04",
          "release_world": "2020-02-03",
          "availability": "2020-02-05",
          "voiceActing": [
            "TVShows",
            "Eng.Original"
          ],
          "ads": false,
          "subtitle": []
        },
        {
          "episode": 2,
          "name": "See Thyself, Devil!",
          "iframe_url": "",
          "iframe_poster": null,
          "release_ru": "2020-02-05",
          "release_world": "2020-02-04",
          "availability": "2020-02-06",
          "voiceActing": [
            "TVShows",
            "Eng.Original"
          ],
          "ads": false,
          "subtitle": []
        },
        {
          "episode": 3,
          "name": "The Sticking Place",
          "iframe_url": "",
          "iframe_poster": null,
          "release_ru": "2020-02-06",
          "release_world": "2020-02-05",
          "availability": "2020-02-07",
          "voiceActing": [
            "TVShows",
            "Eng.Original"
          ],
          "ads": false,
          "subtitle": []
        },
        {
          "episode": 4,
          "name": "A Serpent's Tooth",
          "iframe_url": "",
          "iframe_poster": null,
          "release_ru": "2020-02-07",
          "release_world": "2020-02-06",
          "availability": "2020-02-08",
          "voiceActing": [
            "TVShows",
            "Eng.Original"
          ],
          "ads": false,
          "subtitle": []
        },
        {
          "episode": 5,
          "name": "Thy Fury Spent",
          "iframe_url": "",
          "iframe_poster": null,
          "release_ru": "2020-02-08",
          "release_world": "2020-02-07",
          "availability": "2020-02-09",
          "voiceActing": [
            "TVShows",
            "Eng.Original"
          ],
          "ads": false,
          "subtitle": []
        },
        {
          "episode": 6,
          "name": "Reputation, Reputation, Reputation!",
          "iframe_url": "",
          "iframe_poster": null,
          "release_ru": "2020-02-11",
          "release_world": "2020-02-10",
          "availability": "2020-02-12",
          "voiceActing": [
            "TVShows",
            "Eng.Original"
          ],
          "ads": false,
          "subtitle": []
        },
        {
          "episode": 7,
          "name": "Best Beware My Sting",
          "iframe_url": "",
          "iframe_poster": null,
          "release_ru": "2020-02-12",
          "release_world": "2020-02-11",
          "availability": "2020-02-13",
          "voiceActing": [
            "TVShows",
            "Eng.Original"
          ],
          "ads": false,
          "subtitle": []
        },
        {
          "episode": 8,
          "name": "All That Glisters",
          "iframe_url": "",
          "iframe_poster": null,
          "release_ru": "2020-02-13",
          "release_world": "2020-02-12",
          "availability": "2020-02-14",
          "voiceActing": [
            "TVShows",
            "Eng.Original"
          ],
          "ads": false,
          "subtitle": []
        },
        {
          "episode": 9,
          "name": "O Thou Invisible Spirit of Wine",
          "iframe_url": "",
          "iframe_poster": null,
          "release_ru": "2020-02-14",
          "release_world": "2020-02-13",
          "availability": "2020-02-15",
          "voiceActing": [
            "TVShows",
            "Eng.Original"
          ],
          "ads": false,
          "subtitle": []
        },
        {
          "episode": 10,
          "name": "Teach Me, Dear Creature",
          "iframe_url": "",
          "iframe_poster": null,
          "release_ru": "2020-02-15",
          "release_world": "2020-02-14",
          "availability": "2020-02-16",
          "voiceActing": [
            "TVShows",
            "Eng.Original"
          ],
          "ads": false,
          "subtitle": []
        }
      ]
    }
  ],
  "voiceActing": [
    "TVShows",
    "Eng.Original"
  ],
  "subtitle": [],
  "parts": []
}
