{
  "id": 6178,
  "name": "Оттепель",
  "name_eng": "",
  "year": 2013,
  "slogan": null,
  "age": "16+",
  "type": "series",
  "quality": "HD (720p)",
  "imdb": "7.7",
  "imdb_id": "3398314",
  "kinopoisk": "7.7",
  "kinopoisk_id": "713333",
  "world_art": null,
  "world_art_id": null,
  "time": "55 мин.",
  "ads": false,
  "premier": "2013-12-02",
  "premier_rus": "2013-12-02",
  "availability": null,
  "serial_status": "offline",
  "activate_time": "2019-02-20 17:46:45",
  "budget": null,
  "fees_use": null,
  "fees_world": null,
  "fees_rus": null,
  "rate_mpaa": null,
  "description": "Студия «Мосфильм», 1961 год. Виктор Хрусталев - молодой, талантливый оператор. Однажды он выпивал со своим другом-сценаристом Костиком в общаге ВГИКа. И нужно же было такому случиться, Костя выпал из окна и погиб. После его смерти он обнаруживает сценарий, который не был в свое время утвержден, и понимает, что это совершенно чумовая вещь. Он мечтает снять по этому сценарию фильм.",
  "iframe_url": "",
  "poster": "https://img.imgilall.me/movies/franchise/6/1/7/8/0/0/0/0/0/0/610x900_6178.jpg",
  "country": {
    "5": "Россия"
  },
  "collection": [],
  "genre": {
    "22": "Русский",
    "7": "Драма"
  },
  "director": [
    "Валерий Тодоровский"
  ],
  "screenwriter": [
    "Валерий Тодоровский",
    "Алена Званцова",
    "Дмитрий Константинов"
  ],
  "producer": [
    "Валерий Тодоровский",
    "Максим Коропцов",
    "Елена Кожанова"
  ],
  "operator": [
    "Иван Гудков",
    "Федор Лясс"
  ],
  "composer": [
    "Константин Меладзе"
  ],
  "design": [
    "Владимир Гудилин",
    "Владимир Купцов",
    "Евгений Подоляк"
  ],
  "editor": [
    "Алексей Бобров"
  ],
  "actors": [
    "Евгений Цыганов",
    "Александр Яценко",
    "Анна Чиповская",
    "Виктория Исакова",
    "Михаил Ефремов",
    "Светлана Колпакова",
    "Яна Сексте",
    "Нина Дворжецкая",
    "Павел Деревянко",
    "Евгений Волоцкий"
  ],
  "actors_dubl": [],
  "trivia": [
    "Идея снять сериал появилась у Валерия Тодоровского, когда он познакомился с Мэттью Уайнером, создателем культового американского сериала «Безумцы». На вопрос: откуда взялся его сериал, Мэттью Уайнер ответил, что его папа был рекламщиком, он вырос в этой среде. Валерий Тодоровский вырос в среде кинематографистов, и он решил снять сериал, основываясь на жизни отца (оператора и режиссёра Петра Ефимовича Тодоровского) и людей, окружавших его.",
    "По словам Тодоровского, в образе директора киностудии есть черты директора «Мосфильма» Сизова (в прошлом — генерала МВД), замминистра кинематографии Павлёнка (в прошлом — белорусского партизана) и режиссёра Пырьева, в образе кинооператора Хрусталёва есть черты операторов Рерберга, Княжинского, Юсова и Лебешева, в образе режиссёра-стажёра Мячина — много от молодого Эльдара Рязанова времён «Карнавальной ночи». Прообразом персонажа «Петя из Одессы», к которому в финале уезжает Хрусталёв, послужил Пётр Тодоровский.",
    "Валерий Тодоровский впервые выступил в качестве режиссёра-постановщика телесериала (до этого он только продюсировал телевизионные сериалы и снимал полнометражные художественные фильмы).",
    "Сценарий писался полтора года, а сняли все 12 серий всего за три месяца. Натурные съёмки проходили в Минске.",
    "Для фильма было пошито более сотни костюмов, и какое-то количество вещей было куплено в антикварных магазинах и на блошиных рынках. Больше всего костюмов было у двух главных героинь — Анны Чиповской и Виктории Исаковой. У каждой из них было порядка 25 нарядов. По словам Анны Чиповской, для создания атмосферы у актрис под платьями были все атрибуты — белье шестидесятых, с поясом, с чулками. Экипировка сложнейшая для ношения каждый день, но помогала создавать нужный силуэт. Художники нашли в хорошем состоянии настоящие антикварные корсеты, лифчики, трусы того времени, подчеркивающие фигуру. Актрисы с радостью надевали это бельё. И даже когда не было откровенных сцен, предпочитали вниз надевать именно его.",
    "Красный «Москвич», на котором разъезжает Виктор Хрусталёв, — точно такой же, какой был у Петра Тодоровского. Валерий Тодоровский вспоминает, что денег не хватало, жили в коммуналке, но Пётр Ефимович всё равно купил машину. А в компаниях родителей, которые собирались у них дома — половина была в белых брюках и модных очках.",
    "Среди претензий, предъявляемых к сериалу, часто упоминаются многочисленные сцены с курением. Так Ассоциация «Здоровые регионы» (Тверь) подала жалобы в Останкинскую межрайонную прокуратуру города Москвы и Роскомнадзор по фактам нарушения федеральных законов Первым каналом российского телевидения. В заявлении говорится, что никаким художественным замыслом объяснить столь частую демонстрацию курения в фильме «Оттепель» невозможно, и тем самым нарушается требования Федерального закона Российской Федерации от 23 февраля 2013 г. № 15-ФЗ «Об охране здоровья граждан от воздействия окружающего табачного дыма и последствий потребления табака». Автор жалобы хотел привлечь к ответственности Тодоровского за каждую показанную в кадре затяжку.",
    "Лидер ЛДПР Владимир Жириновский был возмущен тем, что на Первом канале в прайм-тайм показывают сериал, в котором герои беспрерывно курят и пьют, и предложил убрать его из эфира.",
    "7 декабря 2013 года режиссёр Марк Захаров поделился своим впечатлением от просмотренных серий: «Из своего кинематографического опыта я знаю: часто бывает, режиссёр и актёр не знают, что делать. Тогда они закуривают. А бывает, покурят-покурят да и выпьют. Глядишь, и дело само сдвинулось с мёртвой точки. Но если бы я снимал картину о кинематографе, таких сцен избегал бы. Или чередовал их и содержательные эпизоды. Иначе возникает ощущение, что создателям картины нечего сказать»."
  ],
  "trailers": [],
  "seasons": [
    {
      "poster": "https://img.imgilall.me/movies/season/3/8/7/5/0/0/0/0/0/0/610x900_3875.jpg",
      "release_ru": "2013-12-03",
      "release_world": "2013-12-02",
      "availability": "2013-12-04",
      "iframe_url": "",
      "season": 1,
      "episodes": [
        {
          "episode": 1,
          "name": null,
          "iframe_url": "",
          "iframe_poster": "https://img.imgilall.me/movies/video/6/2/9/1/8/0/0/0/0/0/800x450_62918.jpeg",
          "release_ru": "2013-12-03",
          "release_world": "2013-12-02",
          "availability": "2013-12-04",
          "voiceActing": [
            "Рус. Оригинальный"
          ],
          "ads": false,
          "subtitle": []
        },
        {
          "episode": 2,
          "name": null,
          "iframe_url": "",
          "iframe_poster": "https://img.imgilall.me/movies/video/6/2/9/1/9/0/0/0/0/0/800x450_62919.jpeg",
          "release_ru": "2013-12-03",
          "release_world": "2013-12-02",
          "availability": "2013-12-04",
          "voiceActing": [
            "Рус. Оригинальный"
          ],
          "ads": false,
          "subtitle": []
        },
        {
          "episode": 3,
          "name": null,
          "iframe_url": "",
          "iframe_poster": "https://img.imgilall.me/movies/video/6/2/9/2/0/0/0/0/0/0/800x450_62920.jpeg",
          "release_ru": "2013-12-04",
          "release_world": "2013-12-03",
          "availability": "2013-12-05",
          "voiceActing": [
            "Рус. Оригинальный"
          ],
          "ads": false,
          "subtitle": []
        },
        {
          "episode": 4,
          "name": null,
          "iframe_url": "",
          "iframe_poster": "https://img.imgilall.me/movies/video/6/2/9/2/1/0/0/0/0/0/800x450_62921.jpeg",
          "release_ru": "2013-12-04",
          "release_world": "2013-12-03",
          "availability": "2013-12-05",
          "voiceActing": [
            "Рус. Оригинальный"
          ],
          "ads": false,
          "subtitle": []
        },
        {
          "episode": 5,
          "name": null,
          "iframe_url": "",
          "iframe_poster": "https://img.imgilall.me/movies/video/6/2/9/2/2/0/0/0/0/0/800x450_62922.jpeg",
          "release_ru": "2013-12-05",
          "release_world": "2013-12-04",
          "availability": "2013-12-06",
          "voiceActing": [
            "Рус. Оригинальный"
          ],
          "ads": false,
          "subtitle": []
        },
        {
          "episode": 6,
          "name": null,
          "iframe_url": "",
          "iframe_poster": "https://img.imgilall.me/movies/video/6/2/9/2/3/0/0/0/0/0/800x450_62923.jpeg",
          "release_ru": "2013-12-05",
          "release_world": "2013-12-04",
          "availability": "2013-12-06",
          "voiceActing": [
            "Рус. Оригинальный"
          ],
          "ads": false,
          "subtitle": []
        },
        {
          "episode": 7,
          "name": null,
          "iframe_url": "",
          "iframe_poster": "https://img.imgilall.me/movies/video/6/2/9/2/4/0/0/0/0/0/800x450_62924.jpeg",
          "release_ru": "2013-12-06",
          "release_world": "2013-12-05",
          "availability": "2013-12-07",
          "voiceActing": [
            "Рус. Оригинальный"
          ],
          "ads": false,
          "subtitle": []
        },
        {
          "episode": 8,
          "name": null,
          "iframe_url": "",
          "iframe_poster": "https://img.imgilall.me/movies/video/6/2/9/2/5/0/0/0/0/0/800x450_62925.jpeg",
          "release_ru": "2013-12-06",
          "release_world": "2013-12-05",
          "availability": "2013-12-07",
          "voiceActing": [
            "Рус. Оригинальный"
          ],
          "ads": false,
          "subtitle": []
        },
        {
          "episode": 9,
          "name": null,
          "iframe_url": "",
          "iframe_poster": "https://img.imgilall.me/movies/video/6/2/9/2/6/0/0/0/0/0/800x450_62926.jpeg",
          "release_ru": "2013-12-10",
          "release_world": "2013-12-09",
          "availability": "2013-12-11",
          "voiceActing": [
            "Рус. Оригинальный"
          ],
          "ads": false,
          "subtitle": []
        },
        {
          "episode": 10,
          "name": null,
          "iframe_url": "",
          "iframe_poster": "https://img.imgilall.me/movies/video/6/2/9/2/7/0/0/0/0/0/800x450_62927.jpeg",
          "release_ru": "2013-12-10",
          "release_world": "2013-12-09",
          "availability": "2013-12-11",
          "voiceActing": [
            "Рус. Оригинальный"
          ],
          "ads": false,
          "subtitle": []
        },
        {
          "episode": 11,
          "name": null,
          "iframe_url": "",
          "iframe_poster": "https://img.imgilall.me/movies/video/6/2/9/2/8/0/0/0/0/0/800x450_62928.jpeg",
          "release_ru": "2013-12-11",
          "release_world": "2013-12-10",
          "availability": "2013-12-12",
          "voiceActing": [
            "Рус. Оригинальный"
          ],
          "ads": false,
          "subtitle": []
        },
        {
          "episode": 12,
          "name": null,
          "iframe_url": "",
          "iframe_poster": "https://img.imgilall.me/movies/video/6/2/9/2/9/0/0/0/0/0/800x450_62929.jpeg",
          "release_ru": "2013-12-11",
          "release_world": "2013-12-10",
          "availability": "2013-12-12",
          "voiceActing": [
            "Рус. Оригинальный"
          ],
          "ads": false,
          "subtitle": []
        }
      ]
    }
  ],
  "voiceActing": [
    "Рус. Оригинальный"
  ],
  "subtitle": [],
  "parts": []
}
