{
  "id": 6204,
  "name": "Только между влюбленными",
  "name_eng": "Just Between Lovers",
  "year": 2017,
  "slogan": null,
  "age": "12+",
  "type": "series",
  "quality": "HD (720p)",
  "imdb": "8.1",
  "imdb_id": "7521898",
  "kinopoisk": "7.9",
  "kinopoisk_id": "1047915",
  "world_art": null,
  "world_art_id": null,
  "time": "70 мин. / 01:10",
  "ads": false,
  "premier": "2017-12-11",
  "premier_rus": null,
  "availability": null,
  "serial_status": "offline",
  "activate_time": "2019-02-21 12:26:28",
  "budget": null,
  "fees_use": null,
  "fees_world": null,
  "fees_rus": null,
  "rate_mpaa": null,
  "description": "Когда-то Ли Ган-ду мечтал стать футболистом, но в жизнь вмешалась череда трагедий. Отец парня умирает в результате несчастного случая, а сам он ломает ногу и целых три года проводит в реабилитационном центре. Лишённый семьи и мечты парень бесцельно проводит жизнь, а затем встречает Ха Мун-су.",
  "iframe_url": "",
  "poster": "https://img.imgilall.me/movies/franchise/6/2/0/4/0/0/0/0/0/0/610x900_6204.jpg",
  "country": {
    "16": "Корея Южная"
  },
  "collection": {
    "11": "Для женщин"
  },
  "genre": {
    "10": "Зарубежный",
    "8": "Мелодрама",
    "7": "Драма"
  },
  "director": [
    "Ким Джин-вон"
  ],
  "screenwriter": [
    "Ю Бо-ра"
  ],
  "producer": [],
  "operator": [],
  "composer": [],
  "design": [],
  "editor": [],
  "actors": [
    "Ли Джун-хо",
    "Вон Джин-а",
    "На Мун-хи",
    "Ли Ги-у",
    "Ким Ган-хён",
    "Тхэ Ин-хо",
    "Пак Хи-бон",
    "Юн Сэ-а",
    "Хан Со-джин",
    "Кан Хан-на"
  ],
  "actors_dubl": [],
  "trivia": [],
  "trailers": [],
  "seasons": [
    {
      "poster": "https://img.imgilall.me/movies/season/3/9/2/7/0/0/0/0/0/0/610x900_3927.jpg",
      "release_ru": "2017-12-12",
      "release_world": "2017-12-11",
      "availability": "2017-12-13",
      "iframe_url": "",
      "season": 1,
      "episodes": [
        {
          "episode": 1,
          "name": null,
          "iframe_url": "",
          "iframe_poster": "https://img.imgilall.me/movies/video/6/3/1/5/6/0/0/0/0/0/800x450_63156.jpeg",
          "release_ru": "2017-12-12",
          "release_world": "2017-12-11",
          "availability": "2017-12-13",
          "voiceActing": [
            "JoyStudio"
          ],
          "ads": false,
          "subtitle": []
        },
        {
          "episode": 2,
          "name": null,
          "iframe_url": "",
          "iframe_poster": "https://img.imgilall.me/movies/video/6/3/1/5/8/0/0/0/0/0/800x450_63158.jpeg",
          "release_ru": "2017-12-13",
          "release_world": "2017-12-12",
          "availability": "2017-12-14",
          "voiceActing": [
            "JoyStudio"
          ],
          "ads": false,
          "subtitle": []
        },
        {
          "episode": 3,
          "name": null,
          "iframe_url": "",
          "iframe_poster": "https://img.imgilall.me/movies/video/6/3/1/5/9/0/0/0/0/0/800x450_63159.jpeg",
          "release_ru": "2017-12-19",
          "release_world": "2017-12-18",
          "availability": "2017-12-20",
          "voiceActing": [
            "JoyStudio"
          ],
          "ads": false,
          "subtitle": []
        },
        {
          "episode": 4,
          "name": null,
          "iframe_url": "",
          "iframe_poster": "https://img.imgilall.me/movies/video/6/3/1/6/0/0/0/0/0/0/800x450_63160.jpeg",
          "release_ru": "2017-12-20",
          "release_world": "2017-12-19",
          "availability": "2017-12-21",
          "voiceActing": [
            "JoyStudio"
          ],
          "ads": false,
          "subtitle": []
        },
        {
          "episode": 5,
          "name": null,
          "iframe_url": "",
          "iframe_poster": "https://img.imgilall.me/movies/video/6/3/1/6/2/0/0/0/0/0/800x450_63162.jpeg",
          "release_ru": "2017-12-26",
          "release_world": "2017-12-25",
          "availability": "2017-12-27",
          "voiceActing": [
            "JoyStudio"
          ],
          "ads": false,
          "subtitle": []
        },
        {
          "episode": 6,
          "name": null,
          "iframe_url": "",
          "iframe_poster": "https://img.imgilall.me/movies/video/6/3/1/6/3/0/0/0/0/0/800x450_63163.jpeg",
          "release_ru": "2017-12-27",
          "release_world": "2017-12-26",
          "availability": "2017-12-28",
          "voiceActing": [
            "JoyStudio"
          ],
          "ads": false,
          "subtitle": []
        },
        {
          "episode": 7,
          "name": null,
          "iframe_url": "",
          "iframe_poster": "https://img.imgilall.me/movies/video/6/3/1/6/4/0/0/0/0/0/800x450_63164.jpeg",
          "release_ru": "2018-01-02",
          "release_world": "2018-01-01",
          "availability": "2018-01-03",
          "voiceActing": [
            "JoyStudio"
          ],
          "ads": false,
          "subtitle": []
        },
        {
          "episode": 8,
          "name": null,
          "iframe_url": "",
          "iframe_poster": "https://img.imgilall.me/movies/video/6/3/1/6/5/0/0/0/0/0/800x450_63165.jpeg",
          "release_ru": "2018-01-03",
          "release_world": "2018-01-02",
          "availability": "2018-01-04",
          "voiceActing": [
            "JoyStudio"
          ],
          "ads": false,
          "subtitle": []
        },
        {
          "episode": 9,
          "name": null,
          "iframe_url": "",
          "iframe_poster": "https://img.imgilall.me/movies/video/6/3/1/6/6/0/0/0/0/0/800x450_63166.jpeg",
          "release_ru": "2018-01-09",
          "release_world": "2018-01-08",
          "availability": "2018-01-10",
          "voiceActing": [
            "JoyStudio"
          ],
          "ads": false,
          "subtitle": []
        },
        {
          "episode": 10,
          "name": null,
          "iframe_url": "",
          "iframe_poster": "https://img.imgilall.me/movies/video/6/3/1/6/7/0/0/0/0/0/800x450_63167.jpeg",
          "release_ru": "2018-01-10",
          "release_world": "2018-01-09",
          "availability": "2018-01-11",
          "voiceActing": [
            "JoyStudio"
          ],
          "ads": false,
          "subtitle": []
        },
        {
          "episode": 11,
          "name": null,
          "iframe_url": "",
          "iframe_poster": "https://img.imgilall.me/movies/video/6/3/1/6/8/0/0/0/0/0/800x450_63168.jpeg",
          "release_ru": "2018-01-16",
          "release_world": "2018-01-15",
          "availability": "2018-01-17",
          "voiceActing": [
            "JoyStudio"
          ],
          "ads": false,
          "subtitle": []
        },
        {
          "episode": 12,
          "name": null,
          "iframe_url": "",
          "iframe_poster": "https://img.imgilall.me/movies/video/6/3/1/6/9/0/0/0/0/0/800x450_63169.jpeg",
          "release_ru": "2018-01-17",
          "release_world": "2018-01-16",
          "availability": "2018-01-18",
          "voiceActing": [
            "JoyStudio"
          ],
          "ads": false,
          "subtitle": []
        },
        {
          "episode": 13,
          "name": null,
          "iframe_url": "",
          "iframe_poster": "https://img.imgilall.me/movies/video/6/3/1/7/0/0/0/0/0/0/800x450_63170.jpeg",
          "release_ru": "2018-01-23",
          "release_world": "2018-01-22",
          "availability": "2018-01-24",
          "voiceActing": [
            "JoyStudio"
          ],
          "ads": false,
          "subtitle": []
        },
        {
          "episode": 14,
          "name": null,
          "iframe_url": "",
          "iframe_poster": "https://img.imgilall.me/movies/video/6/3/1/7/1/0/0/0/0/0/800x450_63171.jpeg",
          "release_ru": "2018-01-24",
          "release_world": "2018-01-23",
          "availability": "2018-01-25",
          "voiceActing": [
            "JoyStudio"
          ],
          "ads": false,
          "subtitle": []
        },
        {
          "episode": 15,
          "name": null,
          "iframe_url": "",
          "iframe_poster": "https://img.imgilall.me/movies/video/6/3/1/7/2/0/0/0/0/0/800x450_63172.jpeg",
          "release_ru": "2018-01-30",
          "release_world": "2018-01-29",
          "availability": "2018-01-31",
          "voiceActing": [
            "JoyStudio"
          ],
          "ads": false,
          "subtitle": []
        },
        {
          "episode": 16,
          "name": null,
          "iframe_url": "",
          "iframe_poster": "https://img.imgilall.me/movies/video/6/3/1/7/3/0/0/0/0/0/800x450_63173.jpeg",
          "release_ru": "2018-01-31",
          "release_world": "2018-01-30",
          "availability": "2018-02-01",
          "voiceActing": [
            "JoyStudio"
          ],
          "ads": false,
          "subtitle": []
        }
      ]
    }
  ],
  "voiceActing": [
    "JoyStudio"
  ],
  "subtitle": [],
  "parts": []
}
