{
  "id": 6299,
  "name": "Игры Эллен",
  "name_eng": "Ellen's Game of Games",
  "year": 2017,
  "slogan": null,
  "age": "16+",
  "type": "tv-show",
  "quality": "HD (720p)",
  "imdb": "5.0",
  "imdb_id": "7369770",
  "kinopoisk": null,
  "kinopoisk_id": null,
  "world_art": null,
  "world_art_id": null,
  "time": null,
  "ads": true,
  "premier": "2017-12-18",
  "premier_rus": "2017-12-19",
  "availability": "2017-12-20",
  "serial_status": "online",
  "activate_time": "2019-02-25 12:49:30",
  "budget": null,
  "fees_use": null,
  "fees_world": null,
  "fees_rus": null,
  "rate_mpaa": null,
  "description": null,
  "iframe_url": "",
  "poster": "https://img.imgilall.me/movies/franchise/6/2/9/9/0/0/0/0/0/0/610x900_6299.jpg",
  "country": {
    "1": "США"
  },
  "collection": [],
  "genre": {
    "72": "Развлекательный",
    "10": "Зарубежный"
  },
  "director": [],
  "screenwriter": [],
  "producer": [],
  "operator": [],
  "composer": [],
  "design": [],
  "editor": [],
  "actors": [],
  "actors_dubl": [],
  "trivia": [],
  "trailers": [],
  "seasons": [
    {
      "poster": "https://img.imgilall.me/movies/season/4/1/2/9/0/0/0/0/0/0/610x900_4129.jpg",
      "release_ru": "2017-12-19",
      "release_world": "2017-12-18",
      "availability": "2017-12-20",
      "iframe_url": "",
      "season": 1,
      "episodes": [
        {
          "episode": 1,
          "name": "Ellen's Game of Games",
          "iframe_url": "",
          "iframe_poster": "https://img.imgilall.me/movies/video/6/4/9/8/6/0/0/0/0/0/800x450_64986.jpeg",
          "release_ru": "2017-12-19",
          "release_world": "2017-12-18",
          "availability": "2017-12-20",
          "voiceActing": [
            "GoldTeam"
          ],
          "ads": true,
          "subtitle": []
        },
        {
          "episode": 2,
          "name": "I'll Have What She's Playing",
          "iframe_url": "",
          "iframe_poster": "https://img.imgilall.me/movies/video/6/4/9/8/4/0/0/0/0/0/800x450_64984.jpeg",
          "release_ru": "2018-01-03",
          "release_world": "2018-01-02",
          "availability": "2018-01-04",
          "voiceActing": [
            "GoldTeam"
          ],
          "ads": true,
          "subtitle": []
        },
        {
          "episode": 3,
          "name": "Say Hello to My Little Friends",
          "iframe_url": "",
          "iframe_poster": "https://img.imgilall.me/movies/video/6/4/9/9/0/0/0/0/0/0/800x450_64990.jpeg",
          "release_ru": "2018-01-03",
          "release_world": "2018-01-02",
          "availability": "2018-01-04",
          "voiceActing": [
            "GoldTeam"
          ],
          "ads": true,
          "subtitle": []
        },
        {
          "episode": 4,
          "name": "Hasta La Vista, Honey!",
          "iframe_url": "",
          "iframe_poster": "https://img.imgilall.me/movies/video/6/4/9/8/5/0/0/0/0/0/800x450_64985.jpeg",
          "release_ru": "2018-01-10",
          "release_world": "2018-01-09",
          "availability": "2018-01-11",
          "voiceActing": [
            "GoldTeam"
          ],
          "ads": true,
          "subtitle": []
        },
        {
          "episode": 5,
          "name": "Just Keep Spinning",
          "iframe_url": "",
          "iframe_poster": "https://img.imgilall.me/movies/video/6/4/9/8/7/0/0/0/0/0/800x450_64987.jpeg",
          "release_ru": "2018-01-17",
          "release_world": "2018-01-16",
          "availability": "2018-01-18",
          "voiceActing": [
            "GoldTeam"
          ],
          "ads": true,
          "subtitle": []
        },
        {
          "episode": 6,
          "name": "You Can't Handle the Toothpaste",
          "iframe_url": "",
          "iframe_poster": "https://img.imgilall.me/movies/video/6/4/9/8/3/0/0/0/0/0/800x450_64983.jpeg",
          "release_ru": "2018-01-24",
          "release_world": "2018-01-23",
          "availability": "2018-01-25",
          "voiceActing": [
            "GoldTeam"
          ],
          "ads": true,
          "subtitle": []
        },
        {
          "episode": 7,
          "name": "Ellen, We Have a Problem",
          "iframe_url": "",
          "iframe_poster": "https://img.imgilall.me/movies/video/6/4/9/8/8/0/0/0/0/0/800x450_64988.jpeg",
          "release_ru": "2018-01-31",
          "release_world": "2018-01-30",
          "availability": "2018-02-01",
          "voiceActing": [
            "GoldTeam"
          ],
          "ads": true,
          "subtitle": []
        },
        {
          "episode": 8,
          "name": "I See Dizzy People",
          "iframe_url": "",
          "iframe_poster": "https://img.imgilall.me/movies/video/6/4/9/8/9/0/0/0/0/0/800x450_64989.jpeg",
          "release_ru": "2018-02-07",
          "release_world": "2018-02-06",
          "availability": "2018-02-08",
          "voiceActing": [
            "GoldTeam"
          ],
          "ads": true,
          "subtitle": []
        }
      ]
    },
    {
      "poster": "https://img.imgilall.me/movies/season/4/1/3/0/0/0/0/0/0/0/610x900_4130.jpg",
      "release_ru": "2018-12-13",
      "release_world": "2018-12-12",
      "availability": "2018-12-14",
      "iframe_url": "",
      "season": 2,
      "episodes": [
        {
          "episode": 1,
          "name": "Holiday Spectacular",
          "iframe_url": "",
          "iframe_poster": "https://img.imgilall.me/movies/video/6/4/9/9/2/0/0/0/0/0/800x450_64992.jpeg",
          "release_ru": "2018-12-13",
          "release_world": "2018-12-12",
          "availability": "2018-12-14",
          "voiceActing": [
            "GoldTeam"
          ],
          "ads": true,
          "subtitle": []
        },
        {
          "episode": 2,
          "name": "The Stink Tank Strikes Back",
          "iframe_url": "",
          "iframe_poster": "https://img.imgilall.me/movies/video/6/4/9/9/3/0/0/0/0/0/800x450_64993.jpeg",
          "release_ru": "2019-01-09",
          "release_world": "2019-01-08",
          "availability": "2019-01-10",
          "voiceActing": [
            "GoldTeam"
          ],
          "ads": true,
          "subtitle": []
        },
        {
          "episode": 3,
          "name": "Parent Snapped",
          "iframe_url": "",
          "iframe_poster": "https://img.imgilall.me/movies/video/6/4/9/9/5/0/0/0/0/0/800x450_64995.jpeg",
          "release_ru": "2019-01-16",
          "release_world": "2019-01-15",
          "availability": "2019-01-17",
          "voiceActing": [
            "GoldTeam"
          ],
          "ads": true,
          "subtitle": []
        },
        {
          "episode": 4,
          "name": "Air Force One Eyed Monster",
          "iframe_url": "",
          "iframe_poster": "https://img.imgilall.me/movies/video/6/4/9/9/6/0/0/0/0/0/800x450_64996.jpeg",
          "release_ru": "2019-01-23",
          "release_world": "2019-01-22",
          "availability": "2019-01-24",
          "voiceActing": [
            "GoldTeam"
          ],
          "ads": true,
          "subtitle": []
        },
        {
          "episode": 5,
          "name": "The Sound of Musical Chairs",
          "iframe_url": "",
          "iframe_poster": "https://img.imgilall.me/movies/video/6/4/9/9/4/0/0/0/0/0/800x450_64994.jpeg",
          "release_ru": "2019-01-30",
          "release_world": "2019-01-29",
          "availability": "2019-01-31",
          "voiceActing": [
            "GoldTeam"
          ],
          "ads": true,
          "subtitle": []
        },
        {
          "episode": 6,
          "name": "One Eyed Monster's Inc.",
          "iframe_url": "",
          "iframe_poster": "https://img.imgilall.me/movies/video/6/4/9/9/7/0/0/0/0/0/800x450_64997.jpeg",
          "release_ru": "2019-01-30",
          "release_world": "2019-01-29",
          "availability": "2019-01-31",
          "voiceActing": [
            "GoldTeam"
          ],
          "ads": true,
          "subtitle": []
        },
        {
          "episode": 7,
          "name": "Life As We Know Or Go It",
          "iframe_url": "",
          "iframe_poster": "https://img.imgilall.me/movies/video/6/4/9/9/8/0/0/0/0/0/800x450_64998.jpeg",
          "release_ru": "2019-02-06",
          "release_world": "2019-02-05",
          "availability": "2019-02-07",
          "voiceActing": [
            "GoldTeam"
          ],
          "ads": true,
          "subtitle": []
        },
        {
          "episode": 8,
          "name": "Gone With the Win",
          "iframe_url": "",
          "iframe_poster": "https://img.imgilall.me/movies/video/6/4/9/9/1/0/0/0/0/0/800x450_64991.jpeg",
          "release_ru": "2019-02-13",
          "release_world": "2019-02-12",
          "availability": "2019-02-14",
          "voiceActing": [
            "GoldTeam"
          ],
          "ads": true,
          "subtitle": []
        },
        {
          "episode": 10,
          "name": "Beauty and the Boots",
          "iframe_url": null,
          "iframe_poster": null,
          "release_ru": "2019-03-13",
          "release_world": "2019-03-12",
          "availability": "2019-03-14",
          "voiceActing": []
        }
      ]
    }
  ],
  "voiceActing": [
    "GoldTeam"
  ],
  "subtitle": [],
  "parts": []
}
