{
  "id": 6329,
  "name": "Северное спасение",
  "name_eng": "Northern Rescue",
  "year": 2019,
  "slogan": "«Life in a New Direction»",
  "age": "12+",
  "type": "series",
  "quality": "FHD (1080p)",
  "imdb": "7.1",
  "imdb_id": "8462412",
  "kinopoisk": null,
  "kinopoisk_id": "1154024",
  "world_art": null,
  "world_art_id": null,
  "time": "45 мин.",
  "ads": false,
  "premier": "2019-03-01",
  "premier_rus": null,
  "availability": null,
  "serial_status": "offline",
  "activate_time": "2019-02-26 12:25:42",
  "budget": null,
  "fees_use": null,
  "fees_world": null,
  "fees_rus": null,
  "rate_mpaa": null,
  "description": "После смерти жены от рака отец троих детей решает переехать в родной город. Там он приступает к работе в поисково-спасательном отряде, а подросткам предстоит освоиться на новом месте и завести друзей.",
  "iframe_url": "",
  "poster": "https://img.imgilall.me/movies/franchise/6/3/2/9/0/0/0/0/0/0/610x900_6329.jpg",
  "country": {
    "7": "Канада"
  },
  "collection": [],
  "genre": {
    "33": "Семейный",
    "10": "Зарубежный",
    "7": "Драма"
  },
  "director": [
    "Брэдли Уолш",
    "Гэйл Харви",
    "Элинор Линдо"
  ],
  "screenwriter": [
    "Марк Баччи",
    "Кэйтлин Кармоди",
    "Мика Коллинз"
  ],
  "producer": [
    "Марк Баччи",
    "Уильям Болдуин",
    "Джефф Болтон"
  ],
  "operator": [
    "Бретт Ван Дайк"
  ],
  "composer": [
    "Эри Познер"
  ],
  "design": [
    "Энтони Коули",
    "Aleks Cameron",
    "Грег Чоун"
  ],
  "editor": [
    "Мишель Шемберг",
    "Брайан Эткинсон",
    "Дэниэл Сэдлер"
  ],
  "actors": [
    "Уильям Болдуин",
    "Кэтлин Робертсон",
    "Амалия Уильямсон",
    "Спенсер Макферсон",
    "Taylor Thorne",
    "Мишель Нолден",
    "Ивэн Марш",
    "Майкл Ксавьер",
    "Элиана Джонс",
    "Себастьен Робертс"
  ],
  "actors_dubl": [],
  "trivia": [],
  "trailers": [
    {
      "name": "трейлер №1",
      "number": 1,
      "iframe_poster": "https://img.imgilall.me/movies/trailer/2/6/0/0/0/0/0/0/0/0/800x450_260.jpeg",
      "season": 1,
      "iframe_url": ""
    }
  ],
  "seasons": [
    {
      "poster": "https://img.imgilall.me/movies/season/4/1/4/9/0/0/0/0/0/0/610x900_4149.jpg",
      "release_ru": "2019-03-02",
      "release_world": "2019-03-01",
      "availability": "2019-03-03",
      "iframe_url": "",
      "season": 1,
      "episodes": [
        {
          "episode": 1,
          "name": "Qué Sera",
          "iframe_url": "",
          "iframe_poster": null,
          "release_ru": "2019-03-02",
          "release_world": "2019-03-01",
          "availability": "2019-03-03",
          "voiceActing": [
            "HDRezka Studio"
          ],
          "ads": false,
          "subtitle": []
        },
        {
          "episode": 2,
          "name": "Making Lemonade",
          "iframe_url": "",
          "iframe_poster": null,
          "release_ru": "2019-03-02",
          "release_world": "2019-03-01",
          "availability": "2019-03-03",
          "voiceActing": [
            "HDRezka Studio"
          ],
          "ads": false,
          "subtitle": []
        },
        {
          "episode": 3,
          "name": "Sarah's Stuff",
          "iframe_url": "",
          "iframe_poster": null,
          "release_ru": "2019-03-02",
          "release_world": "2019-03-01",
          "availability": "2019-03-03",
          "voiceActing": [
            "HDRezka Studio"
          ],
          "ads": false,
          "subtitle": []
        },
        {
          "episode": 4,
          "name": "D-U-A-L-I-T-Y",
          "iframe_url": "",
          "iframe_poster": null,
          "release_ru": "2019-03-02",
          "release_world": "2019-03-01",
          "availability": "2019-03-03",
          "voiceActing": [
            "HDRezka Studio"
          ],
          "ads": false,
          "subtitle": []
        },
        {
          "episode": 5,
          "name": "12 Months to the Day",
          "iframe_url": "",
          "iframe_poster": null,
          "release_ru": "2019-03-02",
          "release_world": "2019-03-01",
          "availability": "2019-03-03",
          "voiceActing": [
            "HDRezka Studio"
          ],
          "ads": false,
          "subtitle": []
        },
        {
          "episode": 6,
          "name": "The Little Things",
          "iframe_url": "",
          "iframe_poster": null,
          "release_ru": "2019-03-02",
          "release_world": "2019-03-01",
          "availability": "2019-03-03",
          "voiceActing": [
            "HDRezka Studio"
          ],
          "ads": false,
          "subtitle": []
        },
        {
          "episode": 7,
          "name": "The Dividing Line",
          "iframe_url": "",
          "iframe_poster": null,
          "release_ru": "2019-03-02",
          "release_world": "2019-03-01",
          "availability": "2019-03-03",
          "voiceActing": [
            "HDRezka Studio"
          ],
          "ads": false,
          "subtitle": []
        },
        {
          "episode": 8,
          "name": "The Bear",
          "iframe_url": "",
          "iframe_poster": null,
          "release_ru": "2019-03-02",
          "release_world": "2019-03-01",
          "availability": "2019-03-03",
          "voiceActing": [
            "HDRezka Studio"
          ],
          "ads": false,
          "subtitle": []
        },
        {
          "episode": 9,
          "name": "Wake Up",
          "iframe_url": "",
          "iframe_poster": null,
          "release_ru": "2019-03-02",
          "release_world": "2019-03-01",
          "availability": "2019-03-03",
          "voiceActing": [
            "HDRezka Studio"
          ],
          "ads": false,
          "subtitle": []
        },
        {
          "episode": 10,
          "name": "Dad Knows Best",
          "iframe_url": "",
          "iframe_poster": null,
          "release_ru": "2019-03-02",
          "release_world": "2019-03-01",
          "availability": "2019-03-03",
          "voiceActing": [
            "HDRezka Studio"
          ],
          "ads": false,
          "subtitle": []
        }
      ]
    }
  ],
  "voiceActing": [
    "HDRezka Studio"
  ],
  "subtitle": [],
  "parts": []
}
