{
  "id": 6346,
  "name": "Саманта!",
  "name_eng": "Samantha!",
  "year": 2018,
  "slogan": "«She was huge in the '80s. So was faxing»",
  "age": "16+",
  "type": "series",
  "quality": "HD (720p)",
  "imdb": "6.6",
  "imdb_id": "6626676",
  "kinopoisk": null,
  "kinopoisk_id": "1171660",
  "world_art": null,
  "world_art_id": null,
  "time": "27 мин.",
  "ads": true,
  "premier": "2018-07-06",
  "premier_rus": null,
  "availability": null,
  "serial_status": "offline",
  "activate_time": "2019-02-27 15:43:18",
  "budget": null,
  "fees_use": null,
  "fees_world": null,
  "fees_rus": null,
  "rate_mpaa": null,
  "description": "Когда-то Саманта была безумно популярной. В 80-е девочке не было равных, в Бразилии говорили только о ней. Но прошло порядка тридцати лет, и от былой славы не осталось и следа. Однако подобное положение дел совершенно не устраивает Саманту. Она постарается сделать всё возможное, чтобы вернуть популярность.",
  "iframe_url": "",
  "poster": "https://img.imgilall.me/movies/franchise/6/3/4/6/0/0/0/0/0/0/610x900_6346.jpg",
  "country": {
    "30": "Бразилия"
  },
  "collection": [],
  "genre": {
    "19": "Комедия",
    "10": "Зарубежный"
  },
  "director": [
    "Júlia Pacheco Jordão",
    "Луис Пиньейро",
    "Фелипе Брага"
  ],
  "screenwriter": [
    "Фелипе Брага",
    "Патриция Корсо",
    "Lipe Fleury"
  ],
  "producer": [
    "Артуро Диас",
    "Victoria Dafner",
    "Rodrigo Díaz"
  ],
  "operator": [
    "Хосе Роберто Элизер"
  ],
  "composer": [],
  "design": [
    "Marghe Pennacchi",
    "Dudu Jiménez",
    "Летисия Барбиери"
  ],
  "editor": [
    "Mari T. Becker",
    "Helena Chaves"
  ],
  "actors": [
    "Эммануэль Араужо",
    "Дуглас Силва",
    "Cauã Gonçalves",
    "Sabrina Nonata",
    "Duda Gonçalves",
    "Fernanda Matias",
    "Дэниэл Фурлан",
    "Шэйни Атиас",
    "Cali DiCapo",
    "Лорена Компрату"
  ],
  "actors_dubl": [],
  "trivia": [],
  "trailers": [
    {
      "name": "трейлер №1",
      "number": 1,
      "iframe_poster": "https://img.imgilall.me/movies/trailer/3/1/7/0/0/0/0/0/0/0/800x450_317.jpeg",
      "season": 2,
      "iframe_url": ""
    }
  ],
  "seasons": [
    {
      "poster": "https://img.imgilall.me/movies/season/4/1/7/7/0/0/0/0/0/0/610x900_4177.jpg",
      "release_ru": "2018-07-07",
      "release_world": "2018-07-06",
      "availability": "2018-07-08",
      "iframe_url": "",
      "season": 1,
      "episodes": [
        {
          "episode": 1,
          "name": null,
          "iframe_url": "",
          "iframe_poster": "https://img.imgilall.me/movies/video/6/5/8/0/2/0/0/0/0/0/800x450_65802.jpeg",
          "release_ru": "2018-07-07",
          "release_world": "2018-07-06",
          "availability": "2018-07-08",
          "voiceActing": [
            "KANSAI"
          ],
          "ads": true,
          "subtitle": []
        },
        {
          "episode": 2,
          "name": null,
          "iframe_url": "",
          "iframe_poster": "https://img.imgilall.me/movies/video/6/5/8/0/3/0/0/0/0/0/800x450_65803.jpeg",
          "release_ru": "2018-07-07",
          "release_world": "2018-07-06",
          "availability": "2018-07-08",
          "voiceActing": [
            "KANSAI"
          ],
          "ads": true,
          "subtitle": []
        },
        {
          "episode": 3,
          "name": null,
          "iframe_url": "",
          "iframe_poster": "https://img.imgilall.me/movies/video/6/5/8/0/4/0/0/0/0/0/800x450_65804.jpeg",
          "release_ru": "2018-07-07",
          "release_world": "2018-07-06",
          "availability": "2018-07-08",
          "voiceActing": [
            "KANSAI"
          ],
          "ads": true,
          "subtitle": []
        },
        {
          "episode": 4,
          "name": null,
          "iframe_url": "",
          "iframe_poster": "https://img.imgilall.me/movies/video/6/5/8/0/5/0/0/0/0/0/800x450_65805.jpeg",
          "release_ru": "2018-07-07",
          "release_world": "2018-07-06",
          "availability": "2018-07-08",
          "voiceActing": [
            "KANSAI"
          ],
          "ads": true,
          "subtitle": []
        },
        {
          "episode": 5,
          "name": null,
          "iframe_url": "",
          "iframe_poster": "https://img.imgilall.me/movies/video/6/5/8/0/6/0/0/0/0/0/800x450_65806.jpeg",
          "release_ru": "2018-07-07",
          "release_world": "2018-07-06",
          "availability": "2018-07-08",
          "voiceActing": [
            "KANSAI"
          ],
          "ads": true,
          "subtitle": []
        },
        {
          "episode": 6,
          "name": null,
          "iframe_url": "",
          "iframe_poster": "https://img.imgilall.me/movies/video/6/5/8/0/7/0/0/0/0/0/800x450_65807.jpeg",
          "release_ru": "2018-07-07",
          "release_world": "2018-07-06",
          "availability": "2018-07-08",
          "voiceActing": [
            "KANSAI"
          ],
          "ads": true,
          "subtitle": []
        },
        {
          "episode": 7,
          "name": null,
          "iframe_url": "",
          "iframe_poster": "https://img.imgilall.me/movies/video/6/5/8/0/8/0/0/0/0/0/800x450_65808.jpeg",
          "release_ru": "2018-07-07",
          "release_world": "2018-07-06",
          "availability": "2018-07-08",
          "voiceActing": [
            "KANSAI"
          ],
          "ads": true,
          "subtitle": []
        }
      ]
    },
    {
      "poster": "https://img.imgilall.me/movies/season/4/8/3/7/0/0/0/0/0/0/610x900_4837.jpg",
      "release_ru": "2019-04-20",
      "release_world": "2019-04-19",
      "availability": "2019-04-21",
      "iframe_url": "",
      "season": 2,
      "episodes": [
        {
          "episode": 1,
          "name": null,
          "iframe_url": "",
          "iframe_poster": "https://img.imgilall.me/movies/video/8/3/8/3/5/0/0/0/0/0/800x450_83835.jpeg",
          "release_ru": "2019-04-20",
          "release_world": "2019-04-19",
          "availability": "2019-04-21",
          "voiceActing": [
            "Cold Film"
          ],
          "ads": true,
          "subtitle": []
        },
        {
          "episode": 2,
          "name": null,
          "iframe_url": "",
          "iframe_poster": "https://img.imgilall.me/movies/video/8/3/8/4/0/0/0/0/0/0/800x450_83840.jpeg",
          "release_ru": "2019-04-20",
          "release_world": "2019-04-19",
          "availability": "2019-04-21",
          "voiceActing": [
            "Cold Film"
          ],
          "ads": true,
          "subtitle": []
        },
        {
          "episode": 3,
          "name": null,
          "iframe_url": "",
          "iframe_poster": "https://img.imgilall.me/movies/video/8/3/8/4/1/0/0/0/0/0/800x450_83841.jpeg",
          "release_ru": "2019-04-20",
          "release_world": "2019-04-19",
          "availability": "2019-04-21",
          "voiceActing": [
            "Cold Film"
          ],
          "ads": true,
          "subtitle": []
        },
        {
          "episode": 4,
          "name": null,
          "iframe_url": "",
          "iframe_poster": "https://img.imgilall.me/movies/video/8/3/8/4/2/0/0/0/0/0/800x450_83842.jpeg",
          "release_ru": "2019-04-20",
          "release_world": "2019-04-19",
          "availability": "2019-04-21",
          "voiceActing": [
            "Cold Film"
          ],
          "ads": true,
          "subtitle": []
        },
        {
          "episode": 5,
          "name": null,
          "iframe_url": "",
          "iframe_poster": "https://img.imgilall.me/movies/video/8/3/8/4/3/0/0/0/0/0/800x450_83843.jpeg",
          "release_ru": "2019-04-20",
          "release_world": "2019-04-19",
          "availability": "2019-04-21",
          "voiceActing": [
            "Cold Film"
          ],
          "ads": true,
          "subtitle": []
        },
        {
          "episode": 6,
          "name": null,
          "iframe_url": "",
          "iframe_poster": "https://img.imgilall.me/movies/video/8/3/8/4/4/0/0/0/0/0/800x450_83844.jpeg",
          "release_ru": "2019-04-20",
          "release_world": "2019-04-19",
          "availability": "2019-04-21",
          "voiceActing": [
            "Cold Film"
          ],
          "ads": true,
          "subtitle": []
        },
        {
          "episode": 7,
          "name": null,
          "iframe_url": "",
          "iframe_poster": "https://img.imgilall.me/movies/video/1/1/9/7/0/2/0/0/0/0/800x450_119702.jpeg",
          "release_ru": "2019-04-20",
          "release_world": "2019-04-19",
          "availability": "2019-04-21",
          "voiceActing": [
            "Cold Film"
          ],
          "ads": true,
          "subtitle": []
        }
      ]
    }
  ],
  "voiceActing": [
    "KANSAI",
    "Cold Film"
  ],
  "subtitle": [],
  "parts": []
}
