{
  "id": 646,
  "name": "Голдберги",
  "name_eng": "The Goldbergs",
  "year": 2013,
  "slogan": "«Oh, like your family was so cool in the '80s»",
  "age": "16+",
  "type": "series",
  "quality": "HD (720p)",
  "imdb": "8.0",
  "imdb_id": "2712740",
  "kinopoisk": "7.1",
  "kinopoisk_id": "738519",
  "world_art": null,
  "world_art_id": null,
  "time": "22 мин",
  "ads": true,
  "premier": "2013-09-24",
  "premier_rus": "2017-10-26",
  "availability": "2017-10-27",
  "serial_status": "online",
  "activate_time": "2018-06-25 15:18:40",
  "budget": null,
  "fees_use": null,
  "fees_world": null,
  "fees_rus": null,
  "rate_mpaa": null,
  "description": "В центре сюжета находится семейство Голдбергов, живущих в Америке восьмидесятых.",
  "iframe_url": "",
  "poster": "https://img.imgilall.me/movies/franchise/6/4/6/0/0/0/0/0/0/0/610x900_646.jpg",
  "country": {
    "1": "США"
  },
  "collection": {
    "4": "Ситкомы",
    "11": "Для женщин"
  },
  "genre": {
    "19": "Комедия",
    "10": "Зарубежный"
  },
  "director": [
    "Лью Шнайдер",
    "Дэвид Катценберг",
    "Джей Чандрашекхар"
  ],
  "screenwriter": [
    "Адам Ф. Голдберг",
    "Aaron Kaczander",
    "Lauren Bans"
  ],
  "producer": [
    "Даг Робинсон",
    "Аннетт Д. Саакян",
    "Кортни Уиден"
  ],
  "operator": [
    "Джейсон Блонт",
    "Джозеф Галлахер",
    "Скотт Броунер"
  ],
  "composer": [
    "Майкл Вандмахер"
  ],
  "design": [
    "Кори Лорензен",
    "Шеперд Франкель",
    "Билл Браунелл"
  ],
  "editor": [
    "Кевин Леффлер",
    "Рути Аслан",
    "Брайан Барр"
  ],
  "actors": [
    "Венди Маклендон-Кови",
    "Шон Джамброун",
    "Трой Джентиле",
    "Хейли Оррантия",
    "Джефф Гарлин",
    "Джордж Сигал",
    "Пэттон Освальт",
    "Сэм Лернер",
    "Ной Манк",
    "Кенни Ридван"
  ],
  "actors_dubl": [
    "Елена Шульман",
    "Лина Иванова",
    "Степан Летковский",
    "Алексей Костричкин",
    "Ольга Голованова"
  ],
  "trivia": [],
  "trailers": [
    {
      "name": "трейлер №1",
      "number": 1,
      "iframe_poster": "https://img.imgilall.me/movies/trailer/8/8/8/0/0/0/0/0/0/0/800x450_888.jpeg",
      "season": 7,
      "iframe_url": ""
    }
  ],
  "seasons": [
    {
      "poster": "https://img.imgilall.me/movies/season/6/3/3/0/0/0/0/0/0/0/610x900_633.jpg",
      "release_ru": "2013-09-25",
      "release_world": "2013-09-24",
      "availability": "2013-09-26",
      "iframe_url": "",
      "season": 1,
      "episodes": [
        {
          "episode": 1,
          "name": "Circle Of Driving",
          "iframe_url": "",
          "iframe_poster": null,
          "release_ru": "2013-09-25",
          "release_world": "2013-09-24",
          "availability": "2013-09-26",
          "voiceActing": [
            "Paramount comedy",
            "Eng.Original"
          ],
          "ads": false,
          "subtitle": [
            "Eng. full"
          ]
        },
        {
          "episode": 2,
          "name": "Daddy Daughter Day",
          "iframe_url": "",
          "iframe_poster": null,
          "release_ru": "2013-10-02",
          "release_world": "2013-10-01",
          "availability": "2013-10-03",
          "voiceActing": [
            "Paramount comedy",
            "Eng.Original"
          ],
          "ads": false,
          "subtitle": [
            "Eng. full"
          ]
        },
        {
          "episode": 3,
          "name": "Mini Murray",
          "iframe_url": "",
          "iframe_poster": null,
          "release_ru": "2013-10-09",
          "release_world": "2013-10-08",
          "availability": "2013-10-10",
          "voiceActing": [
            "Paramount comedy",
            "Eng.Original"
          ],
          "ads": false,
          "subtitle": [
            "Eng. full"
          ]
        },
        {
          "episode": 4,
          "name": "Why're You Hitting Yourself?",
          "iframe_url": "",
          "iframe_poster": null,
          "release_ru": "2013-10-16",
          "release_world": "2013-10-15",
          "availability": "2013-10-17",
          "voiceActing": [
            "Paramount comedy",
            "Eng.Original"
          ],
          "ads": false,
          "subtitle": [
            "Eng. full"
          ]
        },
        {
          "episode": 5,
          "name": "The Ring",
          "iframe_url": "",
          "iframe_poster": null,
          "release_ru": "2013-10-23",
          "release_world": "2013-10-22",
          "availability": "2013-10-24",
          "voiceActing": [
            "Paramount comedy",
            "Eng.Original"
          ],
          "ads": false,
          "subtitle": [
            "Eng. full"
          ]
        },
        {
          "episode": 6,
          "name": "Who Are You Going to Telephone?",
          "iframe_url": "",
          "iframe_poster": null,
          "release_ru": "2013-10-30",
          "release_world": "2013-10-29",
          "availability": "2013-10-31",
          "voiceActing": [
            "Paramount comedy",
            "Eng.Original"
          ],
          "ads": false,
          "subtitle": [
            "Eng. full"
          ]
        },
        {
          "episode": 7,
          "name": "Call Me When You Get There",
          "iframe_url": "",
          "iframe_poster": null,
          "release_ru": "2013-11-06",
          "release_world": "2013-11-05",
          "availability": "2013-11-07",
          "voiceActing": [
            "Paramount comedy",
            "Eng.Original"
          ],
          "ads": false,
          "subtitle": [
            "Eng. full"
          ]
        },
        {
          "episode": 8,
          "name": "The Kremps",
          "iframe_url": "",
          "iframe_poster": null,
          "release_ru": "2013-11-13",
          "release_world": "2013-11-12",
          "availability": "2013-11-14",
          "voiceActing": [
            "Paramount comedy",
            "Eng.Original"
          ],
          "ads": false,
          "subtitle": [
            "Eng. full"
          ]
        },
        {
          "episode": 9,
          "name": "Stop Arguing and Start Thanking",
          "iframe_url": "",
          "iframe_poster": null,
          "release_ru": "2013-11-20",
          "release_world": "2013-11-19",
          "availability": "2013-11-21",
          "voiceActing": [
            "Paramount comedy",
            "Eng.Original"
          ],
          "ads": false,
          "subtitle": [
            "Eng. full"
          ]
        },
        {
          "episode": 10,
          "name": "Shopping",
          "iframe_url": "",
          "iframe_poster": null,
          "release_ru": "2013-12-04",
          "release_world": "2013-12-03",
          "availability": "2013-12-05",
          "voiceActing": [
            "Paramount comedy",
            "Eng.Original"
          ],
          "ads": false,
          "subtitle": [
            "Eng. full"
          ]
        },
        {
          "episode": 11,
          "name": "Kara-Te",
          "iframe_url": "",
          "iframe_poster": null,
          "release_ru": "2013-12-11",
          "release_world": "2013-12-10",
          "availability": "2013-12-12",
          "voiceActing": [
            "Paramount comedy",
            "Eng.Original"
          ],
          "ads": false,
          "subtitle": [
            "Eng. full"
          ]
        },
        {
          "episode": 12,
          "name": "You're Under Foot",
          "iframe_url": "",
          "iframe_poster": null,
          "release_ru": "2014-01-08",
          "release_world": "2014-01-07",
          "availability": "2014-01-09",
          "voiceActing": [
            "Paramount comedy",
            "Eng.Original"
          ],
          "ads": false,
          "subtitle": [
            "Eng. full"
          ]
        },
        {
          "episode": 13,
          "name": "The Other Smother",
          "iframe_url": "",
          "iframe_poster": null,
          "release_ru": "2014-01-15",
          "release_world": "2014-01-14",
          "availability": "2014-01-16",
          "voiceActing": [
            "Paramount comedy",
            "Eng.Original"
          ],
          "ads": false,
          "subtitle": [
            "Eng. full"
          ]
        },
        {
          "episode": 14,
          "name": "You Opened the Door",
          "iframe_url": "",
          "iframe_poster": null,
          "release_ru": "2014-01-22",
          "release_world": "2014-01-21",
          "availability": "2014-01-23",
          "voiceActing": [
            "Paramount comedy",
            "Eng.Original"
          ],
          "ads": false,
          "subtitle": [
            "Eng. full"
          ]
        },
        {
          "episode": 15,
          "name": "Muscles Mirsky",
          "iframe_url": "",
          "iframe_poster": null,
          "release_ru": "2014-02-05",
          "release_world": "2014-02-04",
          "availability": "2014-02-06",
          "voiceActing": [
            "Paramount comedy",
            "Eng.Original"
          ],
          "ads": false,
          "subtitle": [
            "Eng. full"
          ]
        },
        {
          "episode": 16,
          "name": "Goldbergs Never Say Die!",
          "iframe_url": "",
          "iframe_poster": null,
          "release_ru": "2014-03-05",
          "release_world": "2014-03-04",
          "availability": "2014-03-06",
          "voiceActing": [
            "Paramount comedy",
            "Eng.Original"
          ],
          "ads": false,
          "subtitle": [
            "Eng. full"
          ]
        },
        {
          "episode": 17,
          "name": "Lame Gretzky",
          "iframe_url": "",
          "iframe_poster": null,
          "release_ru": "2014-03-12",
          "release_world": "2014-03-11",
          "availability": "2014-03-13",
          "voiceActing": [
            "Paramount comedy",
            "Eng.Original"
          ],
          "ads": false,
          "subtitle": [
            "Eng. full"
          ]
        },
        {
          "episode": 18,
          "name": "For Your Own Good",
          "iframe_url": "",
          "iframe_poster": null,
          "release_ru": "2014-03-19",
          "release_world": "2014-03-18",
          "availability": "2014-03-20",
          "voiceActing": [
            "Paramount comedy",
            "Eng.Original"
          ],
          "ads": false,
          "subtitle": [
            "Eng. full"
          ]
        },
        {
          "episode": 19,
          "name": "The President's Fitness Test",
          "iframe_url": "",
          "iframe_poster": null,
          "release_ru": "2014-04-02",
          "release_world": "2014-04-01",
          "availability": "2014-04-03",
          "voiceActing": [
            "Paramount comedy",
            "Eng.Original"
          ],
          "ads": false,
          "subtitle": [
            "Eng. full"
          ]
        },
        {
          "episode": 20,
          "name": "You're Not Invited",
          "iframe_url": "",
          "iframe_poster": null,
          "release_ru": "2014-04-09",
          "release_world": "2014-04-08",
          "availability": "2014-04-10",
          "voiceActing": [
            "Paramount comedy",
            "Eng.Original"
          ],
          "ads": false,
          "subtitle": [
            "Eng. full"
          ]
        },
        {
          "episode": 21,
          "name": "The Age of Darkness",
          "iframe_url": "",
          "iframe_poster": null,
          "release_ru": "2014-04-30",
          "release_world": "2014-04-29",
          "availability": "2014-05-01",
          "voiceActing": [
            "Paramount comedy",
            "Eng.Original"
          ],
          "ads": false,
          "subtitle": [
            "Eng. full"
          ]
        },
        {
          "episode": 22,
          "name": "A Wrestler Named Goldberg",
          "iframe_url": "",
          "iframe_poster": null,
          "release_ru": "2014-05-07",
          "release_world": "2014-05-06",
          "availability": "2014-05-08",
          "voiceActing": [
            "Paramount comedy",
            "Eng.Original"
          ],
          "ads": false,
          "subtitle": [
            "Eng. full"
          ]
        },
        {
          "episode": 23,
          "name": "Livin' on a Prayer",
          "iframe_url": "",
          "iframe_poster": null,
          "release_ru": "2014-05-14",
          "release_world": "2014-05-13",
          "availability": "2014-05-15",
          "voiceActing": [
            "Paramount comedy",
            "Eng.Original"
          ],
          "ads": false,
          "subtitle": [
            "Eng. full"
          ]
        }
      ]
    },
    {
      "poster": "https://img.imgilall.me/movies/season/6/4/0/0/0/0/0/0/0/0/610x900_640.jpg",
      "release_ru": "2014-09-25",
      "release_world": "2014-09-24",
      "availability": "2014-09-26",
      "iframe_url": "",
      "season": 2,
      "episodes": [
        {
          "episode": 1,
          "name": "Love is a Mixtape",
          "iframe_url": "",
          "iframe_poster": null,
          "release_ru": "2014-09-25",
          "release_world": "2014-09-24",
          "availability": "2014-09-26",
          "voiceActing": [
            "Paramount comedy",
            "Eng.Original"
          ],
          "ads": false,
          "subtitle": [
            "Eng. full"
          ]
        },
        {
          "episode": 2,
          "name": "Mama Drama",
          "iframe_url": "",
          "iframe_poster": null,
          "release_ru": "2014-10-02",
          "release_world": "2014-10-01",
          "availability": "2014-10-03",
          "voiceActing": [
            "Paramount comedy",
            "Eng.Original"
          ],
          "ads": false,
          "subtitle": [
            "Eng. full"
          ]
        },
        {
          "episode": 3,
          "name": "The Facts of Bleeping Life",
          "iframe_url": "",
          "iframe_poster": null,
          "release_ru": "2014-10-09",
          "release_world": "2014-10-08",
          "availability": "2014-10-10",
          "voiceActing": [
            "Paramount comedy",
            "Eng.Original"
          ],
          "ads": false,
          "subtitle": [
            "Eng. full"
          ]
        },
        {
          "episode": 4,
          "name": "Shall We Play a Game?",
          "iframe_url": "",
          "iframe_poster": null,
          "release_ru": "2014-10-23",
          "release_world": "2014-10-22",
          "availability": "2014-10-24",
          "voiceActing": [
            "Paramount comedy",
            "Eng.Original"
          ],
          "ads": false,
          "subtitle": []
        },
        {
          "episode": 5,
          "name": "Family Takes Care of Beverly",
          "iframe_url": "",
          "iframe_poster": null,
          "release_ru": "2014-10-30",
          "release_world": "2014-10-29",
          "availability": "2014-10-31",
          "voiceActing": [
            "Paramount comedy",
            "Eng.Original"
          ],
          "ads": false,
          "subtitle": [
            "Eng. full"
          ]
        },
        {
          "episode": 6,
          "name": "Big Baby Ball",
          "iframe_url": "",
          "iframe_poster": null,
          "release_ru": "2014-11-13",
          "release_world": "2014-11-12",
          "availability": "2014-11-14",
          "voiceActing": [
            "Paramount comedy",
            "Eng.Original"
          ],
          "ads": false,
          "subtitle": [
            "Eng. full"
          ]
        },
        {
          "episode": 7,
          "name": "A Goldberg Thanksgiving",
          "iframe_url": "",
          "iframe_poster": null,
          "release_ru": "2014-11-20",
          "release_world": "2014-11-19",
          "availability": "2014-11-21",
          "voiceActing": [
            "Paramount comedy",
            "Eng.Original"
          ],
          "ads": false,
          "subtitle": [
            "Eng. full"
          ]
        },
        {
          "episode": 8,
          "name": "I Rode A Hoverboard!",
          "iframe_url": "",
          "iframe_poster": null,
          "release_ru": "2014-12-04",
          "release_world": "2014-12-03",
          "availability": "2014-12-05",
          "voiceActing": [
            "Paramount comedy",
            "Eng.Original"
          ],
          "ads": false,
          "subtitle": [
            "Eng. full"
          ]
        },
        {
          "episode": 9,
          "name": "The Most Handsome Boy on the Planet",
          "iframe_url": "",
          "iframe_poster": null,
          "release_ru": "2014-12-11",
          "release_world": "2014-12-10",
          "availability": "2014-12-12",
          "voiceActing": [
            "Paramount comedy",
            "Eng.Original"
          ],
          "ads": false,
          "subtitle": [
            "Eng. full"
          ]
        },
        {
          "episode": 10,
          "name": "Dannydonniejoejonjordan",
          "iframe_url": "",
          "iframe_poster": null,
          "release_ru": "2015-01-08",
          "release_world": "2015-01-07",
          "availability": "2015-01-09",
          "voiceActing": [
            "Paramount comedy",
            "Eng.Original"
          ],
          "ads": false,
          "subtitle": [
            "Eng. full"
          ]
        },
        {
          "episode": 11,
          "name": "The Darryl Dawkins Dance",
          "iframe_url": "",
          "iframe_poster": null,
          "release_ru": "2015-01-15",
          "release_world": "2015-01-14",
          "availability": "2015-01-16",
          "voiceActing": [
            "Paramount comedy",
            "Eng.Original"
          ],
          "ads": false,
          "subtitle": [
            "Eng. full"
          ]
        },
        {
          "episode": 12,
          "name": "Cowboy Country",
          "iframe_url": "",
          "iframe_poster": null,
          "release_ru": "2015-02-12",
          "release_world": "2015-02-11",
          "availability": "2015-02-13",
          "voiceActing": [
            "Paramount comedy",
            "Eng.Original"
          ],
          "ads": false,
          "subtitle": [
            "Eng. full"
          ]
        },
        {
          "episode": 13,
          "name": "Van People",
          "iframe_url": "",
          "iframe_poster": null,
          "release_ru": "2015-02-19",
          "release_world": "2015-02-18",
          "availability": "2015-02-20",
          "voiceActing": [
            "Paramount comedy",
            "Eng.Original"
          ],
          "ads": false,
          "subtitle": [
            "Eng. full"
          ]
        },
        {
          "episode": 14,
          "name": "Barry Goldberg's Day Off",
          "iframe_url": "",
          "iframe_poster": null,
          "release_ru": "2015-02-26",
          "release_world": "2015-02-25",
          "availability": "2015-02-27",
          "voiceActing": [
            "Paramount comedy",
            "Eng.Original"
          ],
          "ads": false,
          "subtitle": [
            "Eng. full"
          ]
        },
        {
          "episode": 15,
          "name": "Happy Mom, Happy Life",
          "iframe_url": "",
          "iframe_poster": null,
          "release_ru": "2015-03-05",
          "release_world": "2015-03-04",
          "availability": "2015-03-06",
          "voiceActing": [
            "Paramount comedy",
            "Eng.Original"
          ],
          "ads": false,
          "subtitle": [
            "Eng. full"
          ]
        },
        {
          "episode": 16,
          "name": "The Lost Boy",
          "iframe_url": "",
          "iframe_poster": null,
          "release_ru": "2015-03-26",
          "release_world": "2015-03-25",
          "availability": "2015-03-27",
          "voiceActing": [
            "Paramount comedy",
            "Eng.Original"
          ],
          "ads": false,
          "subtitle": [
            "Eng. full"
          ]
        },
        {
          "episode": 17,
          "name": "The Adam Bomb",
          "iframe_url": "",
          "iframe_poster": null,
          "release_ru": "2015-04-02",
          "release_world": "2015-04-01",
          "availability": "2015-04-03",
          "voiceActing": [
            "Paramount comedy",
            "Eng.Original"
          ],
          "ads": false,
          "subtitle": [
            "Eng. full"
          ]
        },
        {
          "episode": 18,
          "name": "I Drank the Mold!",
          "iframe_url": "",
          "iframe_poster": null,
          "release_ru": "2015-04-09",
          "release_world": "2015-04-08",
          "availability": "2015-04-10",
          "voiceActing": [
            "Paramount comedy",
            "Eng.Original"
          ],
          "ads": false,
          "subtitle": [
            "Eng. full"
          ]
        },
        {
          "episode": 19,
          "name": "La Biblioteca Es Libros",
          "iframe_url": "",
          "iframe_poster": null,
          "release_ru": "2015-04-16",
          "release_world": "2015-04-15",
          "availability": "2015-04-17",
          "voiceActing": [
            "Paramount comedy",
            "Eng.Original"
          ],
          "ads": false,
          "subtitle": [
            "Eng. full"
          ]
        },
        {
          "episode": 20,
          "name": "Just Say No",
          "iframe_url": "",
          "iframe_poster": null,
          "release_ru": "2015-04-16",
          "release_world": "2015-04-15",
          "availability": "2015-04-17",
          "voiceActing": [
            "Paramount comedy",
            "Eng.Original"
          ],
          "ads": false,
          "subtitle": [
            "Eng. full"
          ]
        },
        {
          "episode": 21,
          "name": "As You Wish",
          "iframe_url": "",
          "iframe_poster": null,
          "release_ru": "2015-04-23",
          "release_world": "2015-04-22",
          "availability": "2015-04-24",
          "voiceActing": [
            "Paramount comedy",
            "Eng.Original"
          ],
          "ads": false,
          "subtitle": [
            "Eng. full"
          ]
        },
        {
          "episode": 22,
          "name": "Dance Party Usa",
          "iframe_url": "",
          "iframe_poster": null,
          "release_ru": "2015-04-30",
          "release_world": "2015-04-29",
          "availability": "2015-05-01",
          "voiceActing": [
            "Paramount comedy",
            "Eng.Original"
          ],
          "ads": false,
          "subtitle": [
            "Eng. full"
          ]
        },
        {
          "episode": 23,
          "name": "Bill/Murray",
          "iframe_url": "",
          "iframe_poster": null,
          "release_ru": "2015-05-07",
          "release_world": "2015-05-06",
          "availability": "2015-05-08",
          "voiceActing": [
            "Paramount comedy",
            "Eng.Original"
          ],
          "ads": false,
          "subtitle": [
            "Eng. full"
          ]
        },
        {
          "episode": 24,
          "name": "Goldbergs Feel Hard",
          "iframe_url": "",
          "iframe_poster": null,
          "release_ru": "2015-05-14",
          "release_world": "2015-05-13",
          "availability": "2015-05-15",
          "voiceActing": [
            "Paramount comedy",
            "Eng.Original"
          ],
          "ads": false,
          "subtitle": [
            "Eng. full"
          ]
        }
      ]
    },
    {
      "poster": "https://img.imgilall.me/movies/season/8/9/1/0/0/0/0/0/0/0/610x900_891.jpg",
      "release_ru": "2015-09-24",
      "release_world": "2015-09-23",
      "availability": "2015-09-25",
      "iframe_url": "",
      "season": 3,
      "episodes": [
        {
          "episode": 1,
          "name": "A Kick-Ass Risky Business Party",
          "iframe_url": "",
          "iframe_poster": null,
          "release_ru": "2015-09-24",
          "release_world": "2015-09-23",
          "availability": "2015-09-25",
          "voiceActing": [
            "Paramount comedy",
            "Eng.Original"
          ],
          "ads": false,
          "subtitle": [
            "Eng. full"
          ]
        },
        {
          "episode": 2,
          "name": "A Chorus Lie",
          "iframe_url": "",
          "iframe_poster": null,
          "release_ru": "2015-10-01",
          "release_world": "2015-09-30",
          "availability": "2015-10-02",
          "voiceActing": [
            "Paramount comedy",
            "Eng.Original"
          ],
          "ads": false,
          "subtitle": [
            "Eng. full"
          ]
        },
        {
          "episode": 3,
          "name": "Jimmy 5 is Alive",
          "iframe_url": "",
          "iframe_poster": null,
          "release_ru": "2015-10-08",
          "release_world": "2015-10-07",
          "availability": "2015-10-09",
          "voiceActing": [
            "Paramount comedy",
            "Eng.Original"
          ],
          "ads": false,
          "subtitle": [
            "Eng. full"
          ]
        },
        {
          "episode": 4,
          "name": "I Caddyshacked the Pool",
          "iframe_url": "",
          "iframe_poster": null,
          "release_ru": "2015-10-15",
          "release_world": "2015-10-14",
          "availability": "2015-10-16",
          "voiceActing": [
            "Paramount comedy",
            "Eng.Original"
          ],
          "ads": false,
          "subtitle": [
            "Eng. full"
          ]
        },
        {
          "episode": 5,
          "name": "Boy Barry",
          "iframe_url": "",
          "iframe_poster": null,
          "release_ru": "2015-10-22",
          "release_world": "2015-10-21",
          "availability": "2015-10-23",
          "voiceActing": [
            "Paramount comedy",
            "Eng.Original"
          ],
          "ads": false,
          "subtitle": [
            "Eng. full"
          ]
        },
        {
          "episode": 6,
          "name": "Couples Costume",
          "iframe_url": "",
          "iframe_poster": null,
          "release_ru": "2015-10-29",
          "release_world": "2015-10-28",
          "availability": "2015-10-30",
          "voiceActing": [
            "Paramount comedy",
            "Eng.Original"
          ],
          "ads": false,
          "subtitle": [
            "Eng. full"
          ]
        },
        {
          "episode": 7,
          "name": "Lucky",
          "iframe_url": "",
          "iframe_poster": null,
          "release_ru": "2015-11-12",
          "release_world": "2015-11-11",
          "availability": "2015-11-13",
          "voiceActing": [
            "Paramount comedy",
            "Eng.Original"
          ],
          "ads": false,
          "subtitle": [
            "Eng. full"
          ]
        },
        {
          "episode": 8,
          "name": "In Conclusion, Thanksgiving",
          "iframe_url": "",
          "iframe_poster": null,
          "release_ru": "2015-11-19",
          "release_world": "2015-11-18",
          "availability": "2015-11-20",
          "voiceActing": [
            "Paramount comedy",
            "Eng.Original"
          ],
          "ads": false,
          "subtitle": [
            "Eng. full"
          ]
        },
        {
          "episode": 9,
          "name": "Wingmom",
          "iframe_url": "",
          "iframe_poster": null,
          "release_ru": "2015-12-03",
          "release_world": "2015-12-02",
          "availability": "2015-12-04",
          "voiceActing": [
            "Paramount comedy",
            "Eng.Original"
          ],
          "ads": false,
          "subtitle": [
            "Eng. full"
          ]
        },
        {
          "episode": 10,
          "name": "A Christmas Story",
          "iframe_url": "",
          "iframe_poster": null,
          "release_ru": "2015-12-10",
          "release_world": "2015-12-09",
          "availability": "2015-12-11",
          "voiceActing": [
            "Paramount comedy",
            "Eng.Original"
          ],
          "ads": false,
          "subtitle": [
            "Eng. full"
          ]
        },
        {
          "episode": 11,
          "name": "The Tasty Boys",
          "iframe_url": "",
          "iframe_poster": null,
          "release_ru": "2016-01-07",
          "release_world": "2016-01-06",
          "availability": "2016-01-08",
          "voiceActing": [
            "Paramount comedy",
            "Eng.Original"
          ],
          "ads": false,
          "subtitle": [
            "Eng. full"
          ]
        },
        {
          "episode": 12,
          "name": "Baio and Switch",
          "iframe_url": "",
          "iframe_poster": null,
          "release_ru": "2016-01-14",
          "release_world": "2016-01-13",
          "availability": "2016-01-15",
          "voiceActing": [
            "Paramount comedy",
            "Eng.Original"
          ],
          "ads": false,
          "subtitle": [
            "Eng. full"
          ]
        },
        {
          "episode": 13,
          "name": "Double Dare",
          "iframe_url": "",
          "iframe_poster": null,
          "release_ru": "2016-01-21",
          "release_world": "2016-01-20",
          "availability": "2016-01-22",
          "voiceActing": [
            "Paramount comedy",
            "Eng.Original"
          ],
          "ads": false,
          "subtitle": [
            "Eng. full"
          ]
        },
        {
          "episode": 14,
          "name": "Lainey Loves Lionel",
          "iframe_url": "",
          "iframe_poster": null,
          "release_ru": "2016-02-11",
          "release_world": "2016-02-10",
          "availability": "2016-02-12",
          "voiceActing": [
            "Paramount comedy",
            "Eng.Original"
          ],
          "ads": false,
          "subtitle": [
            "Eng. full"
          ]
        },
        {
          "episode": 15,
          "name": "Weird Al",
          "iframe_url": "",
          "iframe_poster": null,
          "release_ru": "2016-02-18",
          "release_world": "2016-02-17",
          "availability": "2016-02-19",
          "voiceActing": [
            "Paramount comedy",
            "Eng.Original"
          ],
          "ads": false,
          "subtitle": [
            "Eng. full"
          ]
        },
        {
          "episode": 16,
          "name": "Edward 'Eddie the Eagle' Edwards",
          "iframe_url": "",
          "iframe_poster": null,
          "release_ru": "2016-02-25",
          "release_world": "2016-02-24",
          "availability": "2016-02-26",
          "voiceActing": [
            "Paramount comedy",
            "Eng.Original"
          ],
          "ads": false,
          "subtitle": [
            "Eng. full"
          ]
        },
        {
          "episode": 17,
          "name": "The Dirty Dancing Dance",
          "iframe_url": "",
          "iframe_poster": null,
          "release_ru": "2016-03-03",
          "release_world": "2016-03-02",
          "availability": "2016-03-04",
          "voiceActing": [
            "Paramount comedy",
            "Eng.Original"
          ],
          "ads": false,
          "subtitle": [
            "Eng. full"
          ]
        },
        {
          "episode": 18,
          "name": "12 Tapes for a Penny",
          "iframe_url": "",
          "iframe_poster": null,
          "release_ru": "2016-03-17",
          "release_world": "2016-03-16",
          "availability": "2016-03-18",
          "voiceActing": [
            "Paramount comedy",
            "Eng.Original"
          ],
          "ads": false,
          "subtitle": [
            "Eng. full"
          ]
        },
        {
          "episode": 19,
          "name": "Magic Is Real",
          "iframe_url": "",
          "iframe_poster": null,
          "release_ru": "2016-03-24",
          "release_world": "2016-03-23",
          "availability": "2016-03-25",
          "voiceActing": [
            "Paramount comedy",
            "Eng.Original"
          ],
          "ads": false,
          "subtitle": [
            "Eng. full"
          ]
        },
        {
          "episode": 20,
          "name": "Dungeons and Dragons, Anyone?",
          "iframe_url": "",
          "iframe_poster": null,
          "release_ru": "2016-04-07",
          "release_world": "2016-04-06",
          "availability": "2016-04-08",
          "voiceActing": [
            "Paramount comedy",
            "Eng.Original"
          ],
          "ads": false,
          "subtitle": [
            "Eng. full"
          ]
        },
        {
          "episode": 21,
          "name": "Rush",
          "iframe_url": "",
          "iframe_poster": null,
          "release_ru": "2016-04-14",
          "release_world": "2016-04-13",
          "availability": "2016-04-15",
          "voiceActing": [
            "Paramount comedy",
            "Eng.Original"
          ],
          "ads": false,
          "subtitle": [
            "Eng. full"
          ]
        },
        {
          "episode": 22,
          "name": "Smother's Day",
          "iframe_url": "",
          "iframe_poster": null,
          "release_ru": "2016-05-05",
          "release_world": "2016-05-04",
          "availability": "2016-05-06",
          "voiceActing": [
            "Paramount comedy",
            "Eng.Original"
          ],
          "ads": false,
          "subtitle": [
            "Eng. full"
          ]
        },
        {
          "episode": 23,
          "name": "Big Orange",
          "iframe_url": "",
          "iframe_poster": null,
          "release_ru": "2016-05-12",
          "release_world": "2016-05-11",
          "availability": "2016-05-13",
          "voiceActing": [
            "Paramount comedy",
            "Eng.Original"
          ],
          "ads": false,
          "subtitle": [
            "Eng. full"
          ]
        },
        {
          "episode": 24,
          "name": "Have a Summer",
          "iframe_url": "",
          "iframe_poster": null,
          "release_ru": "2016-05-19",
          "release_world": "2016-05-18",
          "availability": "2016-05-20",
          "voiceActing": [
            "Paramount comedy",
            "Eng.Original"
          ],
          "ads": false,
          "subtitle": [
            "Eng. full"
          ]
        }
      ]
    },
    {
      "poster": "https://img.imgilall.me/movies/season/8/9/2/0/0/0/0/0/0/0/610x900_892.jpg",
      "release_ru": "2016-09-22",
      "release_world": "2016-09-21",
      "availability": "2016-09-23",
      "iframe_url": "",
      "season": 4,
      "episodes": [
        {
          "episode": 1,
          "name": "Breakfast Club",
          "iframe_url": "",
          "iframe_poster": null,
          "release_ru": "2016-09-22",
          "release_world": "2016-09-21",
          "availability": "2016-09-23",
          "voiceActing": [
            "Paramount comedy",
            "Eng.Original"
          ],
          "ads": false,
          "subtitle": [
            "Eng. full"
          ]
        },
        {
          "episode": 2,
          "name": "I Heart Video Dating",
          "iframe_url": "",
          "iframe_poster": null,
          "release_ru": "2016-09-29",
          "release_world": "2016-09-28",
          "availability": "2016-09-30",
          "voiceActing": [
            "Paramount comedy",
            "Eng.Original"
          ],
          "ads": false,
          "subtitle": [
            "Eng. full"
          ]
        },
        {
          "episode": 3,
          "name": "George! George Glass!",
          "iframe_url": "",
          "iframe_poster": null,
          "release_ru": "2016-10-06",
          "release_world": "2016-10-05",
          "availability": "2016-10-07",
          "voiceActing": [
            "Paramount comedy",
            "Eng.Original"
          ],
          "ads": false,
          "subtitle": [
            "Eng. full"
          ]
        },
        {
          "episode": 4,
          "name": "Crazy Calls",
          "iframe_url": "",
          "iframe_poster": null,
          "release_ru": "2016-10-13",
          "release_world": "2016-10-12",
          "availability": "2016-10-14",
          "voiceActing": [
            "Paramount comedy",
            "Eng.Original"
          ],
          "ads": false,
          "subtitle": [
            "Eng. full"
          ]
        },
        {
          "episode": 5,
          "name": "Stefan King",
          "iframe_url": "",
          "iframe_poster": null,
          "release_ru": "2016-10-27",
          "release_world": "2016-10-26",
          "availability": "2016-10-28",
          "voiceActing": [
            "Paramount comedy",
            "Eng.Original"
          ],
          "ads": false,
          "subtitle": [
            "Eng. full"
          ]
        },
        {
          "episode": 6,
          "name": "Recipe for Death II: Kiss the Cook",
          "iframe_url": "",
          "iframe_poster": null,
          "release_ru": "2016-11-10",
          "release_world": "2016-11-09",
          "availability": "2016-11-11",
          "voiceActing": [
            "Paramount comedy",
            "Eng.Original"
          ],
          "ads": false,
          "subtitle": [
            "Eng. full"
          ]
        },
        {
          "episode": 7,
          "name": "Ho-ly K.I.T.T.",
          "iframe_url": "",
          "iframe_poster": null,
          "release_ru": "2016-11-17",
          "release_world": "2016-11-16",
          "availability": "2016-11-18",
          "voiceActing": [
            "Paramount comedy",
            "Eng.Original"
          ],
          "ads": false,
          "subtitle": [
            "Eng. full"
          ]
        },
        {
          "episode": 8,
          "name": "The Greatest Musical Ever Written",
          "iframe_url": "",
          "iframe_poster": null,
          "release_ru": "2016-12-01",
          "release_world": "2016-11-30",
          "availability": "2016-12-02",
          "voiceActing": [
            "Paramount comedy",
            "Eng.Original"
          ],
          "ads": false,
          "subtitle": [
            "Eng. full"
          ]
        },
        {
          "episode": 9,
          "name": "Globetrotters",
          "iframe_url": "",
          "iframe_poster": null,
          "release_ru": "2016-12-08",
          "release_world": "2016-12-07",
          "availability": "2016-12-09",
          "voiceActing": [
            "Paramount comedy",
            "Eng.Original"
          ],
          "ads": false,
          "subtitle": [
            "Eng. full"
          ]
        },
        {
          "episode": 10,
          "name": "Han Ukkah Solo",
          "iframe_url": "",
          "iframe_poster": null,
          "release_ru": "2016-12-15",
          "release_world": "2016-12-14",
          "availability": "2016-12-16",
          "voiceActing": [
            "Paramount comedy",
            "Eng.Original"
          ],
          "ads": false,
          "subtitle": [
            "Eng. full"
          ]
        },
        {
          "episode": 11,
          "name": "O Captain! My Captain!",
          "iframe_url": "",
          "iframe_poster": null,
          "release_ru": "2017-01-05",
          "release_world": "2017-01-04",
          "availability": "2017-01-06",
          "voiceActing": [
            "Paramount comedy",
            "Eng.Original"
          ],
          "ads": false,
          "subtitle": [
            "Eng. full"
          ]
        },
        {
          "episode": 12,
          "name": "Snow Day",
          "iframe_url": "",
          "iframe_poster": null,
          "release_ru": "2017-01-12",
          "release_world": "2017-01-11",
          "availability": "2017-01-13",
          "voiceActing": [
            "Paramount comedy",
            "Eng.Original"
          ],
          "ads": false,
          "subtitle": [
            "Eng. full"
          ]
        },
        {
          "episode": 13,
          "name": "Agassi",
          "iframe_url": "",
          "iframe_poster": null,
          "release_ru": "2017-02-09",
          "release_world": "2017-02-08",
          "availability": "2017-02-10",
          "voiceActing": [
            "Paramount comedy",
            "Eng.Original"
          ],
          "ads": false,
          "subtitle": [
            "Eng. full"
          ]
        },
        {
          "episode": 14,
          "name": "The Spencer's Gift",
          "iframe_url": "",
          "iframe_poster": null,
          "release_ru": "2017-02-16",
          "release_world": "2017-02-15",
          "availability": "2017-02-17",
          "voiceActing": [
            "Paramount comedy",
            "Eng.Original"
          ],
          "ads": false,
          "subtitle": [
            "Eng. full"
          ]
        },
        {
          "episode": 15,
          "name": "So Swayze It's Crazy",
          "iframe_url": "",
          "iframe_poster": null,
          "release_ru": "2017-02-23",
          "release_world": "2017-02-22",
          "availability": "2017-02-24",
          "voiceActing": [
            "Paramount comedy",
            "Eng.Original"
          ],
          "ads": false,
          "subtitle": [
            "Eng. full"
          ]
        },
        {
          "episode": 16,
          "name": "The Kara-te Kid",
          "iframe_url": "",
          "iframe_poster": null,
          "release_ru": "2017-03-02",
          "release_world": "2017-03-01",
          "availability": "2017-03-03",
          "voiceActing": [
            "Paramount comedy",
            "Eng.Original"
          ],
          "ads": false,
          "subtitle": [
            "Eng. full"
          ]
        },
        {
          "episode": 17,
          "name": "Deadheads",
          "iframe_url": "",
          "iframe_poster": null,
          "release_ru": "2017-03-09",
          "release_world": "2017-03-08",
          "availability": "2017-03-10",
          "voiceActing": [
            "Paramount comedy",
            "Eng.Original"
          ],
          "ads": false,
          "subtitle": [
            "Eng. full"
          ]
        },
        {
          "episode": 18,
          "name": "Baré (FKA Doggie Howser)",
          "iframe_url": "",
          "iframe_poster": null,
          "release_ru": "2017-03-16",
          "release_world": "2017-03-15",
          "availability": "2017-03-17",
          "voiceActing": [
            "Paramount comedy",
            "Eng.Original"
          ],
          "ads": false,
          "subtitle": [
            "Eng. full"
          ]
        },
        {
          "episode": 19,
          "name": "A Night to Remember",
          "iframe_url": "",
          "iframe_poster": null,
          "release_ru": "2017-03-30",
          "release_world": "2017-03-29",
          "availability": "2017-03-31",
          "voiceActing": [
            "Paramount comedy",
            "Eng.Original"
          ],
          "ads": false,
          "subtitle": [
            "Eng. full"
          ]
        },
        {
          "episode": 20,
          "name": "The Dynamic Duo",
          "iframe_url": "",
          "iframe_poster": null,
          "release_ru": "2017-04-06",
          "release_world": "2017-04-05",
          "availability": "2017-04-07",
          "voiceActing": [
            "Paramount comedy",
            "Eng.Original"
          ],
          "ads": false,
          "subtitle": [
            "Eng. full"
          ]
        },
        {
          "episode": 21,
          "name": "Fonzie Scheme",
          "iframe_url": "",
          "iframe_poster": null,
          "release_ru": "2017-04-27",
          "release_world": "2017-04-26",
          "availability": "2017-04-28",
          "voiceActing": [
            "Paramount comedy",
            "Eng.Original"
          ],
          "ads": false,
          "subtitle": [
            "Eng. full"
          ]
        },
        {
          "episode": 22,
          "name": "The Day After the Day After",
          "iframe_url": "",
          "iframe_poster": null,
          "release_ru": "2017-05-04",
          "release_world": "2017-05-03",
          "availability": "2017-05-05",
          "voiceActing": [
            "Paramount comedy",
            "Eng.Original"
          ],
          "ads": false,
          "subtitle": [
            "Eng. full"
          ]
        },
        {
          "episode": 23,
          "name": "Jedi Master Adam Skywalker",
          "iframe_url": "",
          "iframe_poster": null,
          "release_ru": "2017-05-11",
          "release_world": "2017-05-10",
          "availability": "2017-05-12",
          "voiceActing": [
            "Paramount comedy",
            "Eng.Original"
          ],
          "ads": false,
          "subtitle": [
            "Eng. full"
          ]
        },
        {
          "episode": 24,
          "name": "Graduation Day",
          "iframe_url": "",
          "iframe_poster": null,
          "release_ru": "2017-05-18",
          "release_world": "2017-05-17",
          "availability": "2017-05-19",
          "voiceActing": [
            "Paramount comedy",
            "Eng.Original"
          ],
          "ads": false,
          "subtitle": [
            "Eng. full"
          ]
        }
      ]
    },
    {
      "poster": "https://img.imgilall.me/movies/season/4/5/7/7/0/0/0/0/0/0/610x900_4577.jpg",
      "release_ru": "2017-09-28",
      "release_world": "2017-09-27",
      "availability": "2017-09-29",
      "iframe_url": "",
      "season": 5,
      "episodes": [
        {
          "episode": 1,
          "name": "Weird Science",
          "iframe_url": "",
          "iframe_poster": null,
          "release_ru": "2017-09-28",
          "release_world": "2017-09-27",
          "availability": "2017-09-29",
          "voiceActing": [
            "Paramount comedy",
            "Eng.Original"
          ],
          "ads": false,
          "subtitle": [
            "Eng. full"
          ]
        },
        {
          "episode": 2,
          "name": "Hogan is My Grandfather",
          "iframe_url": "",
          "iframe_poster": null,
          "release_ru": "2017-10-05",
          "release_world": "2017-10-04",
          "availability": "2017-10-06",
          "voiceActing": [
            "Paramount comedy",
            "Eng.Original"
          ],
          "ads": false,
          "subtitle": [
            "Eng. full"
          ]
        },
        {
          "episode": 3,
          "name": "Goldberg on the Goldbergs",
          "iframe_url": "",
          "iframe_poster": null,
          "release_ru": "2017-10-12",
          "release_world": "2017-10-11",
          "availability": "2017-10-13",
          "voiceActing": [
            "Paramount comedy",
            "Eng.Original"
          ],
          "ads": false,
          "subtitle": [
            "Eng. full"
          ]
        },
        {
          "episode": 4,
          "name": "Revenge O' The Nerds",
          "iframe_url": "",
          "iframe_poster": null,
          "release_ru": "2017-10-19",
          "release_world": "2017-10-18",
          "availability": "2017-10-20",
          "voiceActing": [
            "Paramount comedy",
            "Eng.Original"
          ],
          "ads": false,
          "subtitle": [
            "Eng. full"
          ]
        },
        {
          "episode": 5,
          "name": "Jackie Likes Star Trek",
          "iframe_url": "",
          "iframe_poster": null,
          "release_ru": "2017-10-26",
          "release_world": "2017-10-25",
          "availability": "2017-10-27",
          "voiceActing": [
            "Paramount comedy",
            "Eng.Original"
          ],
          "ads": false,
          "subtitle": []
        },
        {
          "episode": 6,
          "name": "Girl Talk",
          "iframe_url": "",
          "iframe_poster": null,
          "release_ru": "2017-11-02",
          "release_world": "2017-11-01",
          "availability": "2017-11-03",
          "voiceActing": [
            "Paramount comedy",
            "Eng.Original"
          ],
          "ads": false,
          "subtitle": [
            "Eng. full"
          ]
        },
        {
          "episode": 7,
          "name": "A Wall Street Thanksgiving",
          "iframe_url": "",
          "iframe_poster": null,
          "release_ru": "2017-11-16",
          "release_world": "2017-11-15",
          "availability": "2017-11-17",
          "voiceActing": [
            "Paramount comedy",
            "Eng.Original"
          ],
          "ads": false,
          "subtitle": [
            "Eng. full"
          ]
        },
        {
          "episode": 8,
          "name": "The Circle of Driving Again",
          "iframe_url": "",
          "iframe_poster": null,
          "release_ru": "2017-11-30",
          "release_world": "2017-11-29",
          "availability": "2017-12-01",
          "voiceActing": [
            "Paramount comedy",
            "Eng.Original"
          ],
          "ads": false,
          "subtitle": [
            "Eng. full"
          ]
        },
        {
          "episode": 9,
          "name": "Parents Just Don't Understand",
          "iframe_url": "",
          "iframe_poster": null,
          "release_ru": "2017-12-07",
          "release_world": "2017-12-06",
          "availability": "2017-12-08",
          "voiceActing": [
            "Paramount comedy",
            "Eng.Original"
          ],
          "ads": false,
          "subtitle": [
            "Eng. full"
          ]
        },
        {
          "episode": 10,
          "name": "We Didn't Start the Fire",
          "iframe_url": "",
          "iframe_poster": null,
          "release_ru": "2017-12-14",
          "release_world": "2017-12-13",
          "availability": "2017-12-15",
          "voiceActing": [
            "Paramount comedy",
            "Eng.Original"
          ],
          "ads": false,
          "subtitle": [
            "Eng. full"
          ]
        },
        {
          "episode": 11,
          "name": "The Goldberg Girls",
          "iframe_url": "",
          "iframe_poster": null,
          "release_ru": "2018-01-04",
          "release_world": "2018-01-03",
          "availability": "2018-01-05",
          "voiceActing": [
            "Paramount comedy",
            "Eng.Original"
          ],
          "ads": false,
          "subtitle": [
            "Рус. форсированные"
          ]
        },
        {
          "episode": 12,
          "name": "Dinner with the Goldbergs",
          "iframe_url": "",
          "iframe_poster": null,
          "release_ru": "2018-01-11",
          "release_world": "2018-01-10",
          "availability": "2018-01-12",
          "voiceActing": [
            "Paramount comedy",
            "Eng.Original"
          ],
          "ads": false,
          "subtitle": [
            "Eng. full"
          ]
        },
        {
          "episode": 13,
          "name": "The Hooters",
          "iframe_url": "",
          "iframe_poster": null,
          "release_ru": "2018-01-18",
          "release_world": "2018-01-17",
          "availability": "2018-01-19",
          "voiceActing": [
            "Paramount comedy",
            "Eng.Original"
          ],
          "ads": false,
          "subtitle": [
            "Eng. full"
          ]
        },
        {
          "episode": 14,
          "name": "Hail Barry",
          "iframe_url": "",
          "iframe_poster": null,
          "release_ru": "2018-03-01",
          "release_world": "2018-02-28",
          "availability": "2018-03-02",
          "voiceActing": [
            "Paramount comedy",
            "Eng.Original"
          ],
          "ads": false,
          "subtitle": [
            "Eng. full"
          ]
        },
        {
          "episode": 15,
          "name": "Adam Spielberg",
          "iframe_url": "",
          "iframe_poster": null,
          "release_ru": "2018-03-08",
          "release_world": "2018-03-07",
          "availability": "2018-03-09",
          "voiceActing": [
            "Paramount comedy",
            "Eng.Original"
          ],
          "ads": false,
          "subtitle": [
            "Eng. full"
          ]
        },
        {
          "episode": 16,
          "name": "The Scrunchie Rule",
          "iframe_url": "",
          "iframe_poster": null,
          "release_ru": "2018-03-22",
          "release_world": "2018-03-21",
          "availability": "2018-03-23",
          "voiceActing": [
            "Paramount comedy",
            "Eng.Original"
          ],
          "ads": false,
          "subtitle": [
            "Eng. full"
          ]
        },
        {
          "episode": 17,
          "name": "Colors",
          "iframe_url": "",
          "iframe_poster": null,
          "release_ru": "2018-03-29",
          "release_world": "2018-03-28",
          "availability": "2018-03-30",
          "voiceActing": [
            "Paramount comedy",
            "Eng.Original"
          ],
          "ads": false,
          "subtitle": []
        },
        {
          "episode": 18,
          "name": "MTV Spring Break",
          "iframe_url": "",
          "iframe_poster": null,
          "release_ru": "2018-04-05",
          "release_world": "2018-04-04",
          "availability": "2018-04-06",
          "voiceActing": [
            "Paramount comedy",
            "Eng.Original"
          ],
          "ads": false,
          "subtitle": [
            "Eng. full"
          ]
        },
        {
          "episode": 19,
          "name": "Flashy Little Flashdancer",
          "iframe_url": "",
          "iframe_poster": null,
          "release_ru": "2018-04-12",
          "release_world": "2018-04-11",
          "availability": "2018-04-13",
          "voiceActing": [
            "Paramount comedy",
            "Eng.Original"
          ],
          "ads": false,
          "subtitle": [
            "Eng. full"
          ]
        },
        {
          "episode": 20,
          "name": "The Opportunity of a Lifetime",
          "iframe_url": "",
          "iframe_poster": null,
          "release_ru": "2018-05-03",
          "release_world": "2018-05-02",
          "availability": "2018-05-04",
          "voiceActing": [
            "Paramount comedy",
            "Eng.Original"
          ],
          "ads": false,
          "subtitle": [
            "Eng. full"
          ]
        },
        {
          "episode": 21,
          "name": "Spaceballs",
          "iframe_url": "",
          "iframe_poster": null,
          "release_ru": "2018-05-10",
          "release_world": "2018-05-09",
          "availability": "2018-05-11",
          "voiceActing": [
            "Paramount comedy",
            "Eng.Original"
          ],
          "ads": false,
          "subtitle": [
            "Eng. full"
          ]
        },
        {
          "episode": 22,
          "name": "Let's Val Kilmer This Car",
          "iframe_url": "",
          "iframe_poster": null,
          "release_ru": "2018-05-17",
          "release_world": "2018-05-16",
          "availability": "2018-05-18",
          "voiceActing": [
            "Paramount comedy",
            "Eng.Original"
          ],
          "ads": false,
          "subtitle": [
            "Eng. full"
          ]
        }
      ]
    },
    {
      "poster": "https://img.imgilall.me/movies/season/4/5/7/0/0/0/0/0/0/0/610x900_4570.jpg",
      "release_ru": "2018-09-27",
      "release_world": "2018-09-26",
      "availability": "2018-09-28",
      "iframe_url": "",
      "season": 6,
      "episodes": [
        {
          "episode": 1,
          "name": "Sixteen Candles",
          "iframe_url": "",
          "iframe_poster": null,
          "release_ru": "2018-09-27",
          "release_world": "2018-09-26",
          "availability": "2018-09-28",
          "voiceActing": [
            "Рус. Дублированный",
            "Eng.Original"
          ],
          "ads": false,
          "subtitle": [
            "Eng. full"
          ]
        },
        {
          "episode": 2,
          "name": "You Got Zuko'd",
          "iframe_url": "",
          "iframe_poster": null,
          "release_ru": "2018-10-04",
          "release_world": "2018-10-03",
          "availability": "2018-10-05",
          "voiceActing": [
            "Рус. Дублированный",
            "Eng.Original"
          ],
          "ads": false,
          "subtitle": [
            "Eng. full"
          ]
        },
        {
          "episode": 3,
          "name": "Rad!",
          "iframe_url": "",
          "iframe_poster": null,
          "release_ru": "2018-10-11",
          "release_world": "2018-10-10",
          "availability": "2018-10-12",
          "voiceActing": [
            "Рус. Дублированный",
            "Eng.Original"
          ],
          "ads": false,
          "subtitle": [
            "Eng. full"
          ]
        },
        {
          "episode": 4,
          "name": "Hershey Park",
          "iframe_url": "",
          "iframe_poster": null,
          "release_ru": "2018-10-18",
          "release_world": "2018-10-17",
          "availability": "2018-10-19",
          "voiceActing": [
            "Рус. Дублированный",
            "Eng.Original"
          ],
          "ads": false,
          "subtitle": [
            "Eng. full"
          ]
        },
        {
          "episode": 5,
          "name": "Mister Knifey-Hands",
          "iframe_url": "",
          "iframe_poster": null,
          "release_ru": "2018-10-25",
          "release_world": "2018-10-24",
          "availability": "2018-10-26",
          "voiceActing": [
            "Рус. Дублированный",
            "Eng.Original"
          ],
          "ads": false,
          "subtitle": [
            "Eng. full"
          ]
        },
        {
          "episode": 6,
          "name": "Fiddler",
          "iframe_url": "",
          "iframe_poster": null,
          "release_ru": "2018-11-01",
          "release_world": "2018-10-31",
          "availability": "2018-11-02",
          "voiceActing": [
            "Рус. Дублированный",
            "Eng.Original"
          ],
          "ads": false,
          "subtitle": [
            "Eng. full"
          ]
        },
        {
          "episode": 7,
          "name": "Bohemian Rap City",
          "iframe_url": "",
          "iframe_poster": null,
          "release_ru": "2018-11-08",
          "release_world": "2018-11-07",
          "availability": "2018-11-09",
          "voiceActing": [
            "Рус. Дублированный",
            "Eng.Original"
          ],
          "ads": false,
          "subtitle": [
            "Eng. full"
          ]
        },
        {
          "episode": 8,
          "name": "The Living Room: A 100% True Story",
          "iframe_url": "",
          "iframe_poster": null,
          "release_ru": "2018-11-29",
          "release_world": "2018-11-28",
          "availability": "2018-11-30",
          "voiceActing": [
            "Рус. Дублированный",
            "Eng.Original"
          ],
          "ads": false,
          "subtitle": [
            "Eng. full"
          ]
        },
        {
          "episode": 9,
          "name": "Bachelor Party",
          "iframe_url": "",
          "iframe_poster": null,
          "release_ru": "2018-12-06",
          "release_world": "2018-12-05",
          "availability": "2018-12-07",
          "voiceActing": [
            "Рус. Дублированный",
            "Eng.Original"
          ],
          "ads": false,
          "subtitle": [
            "Eng. full"
          ]
        },
        {
          "episode": 10,
          "name": "Yippee Ki Yay Melon Farmer",
          "iframe_url": "",
          "iframe_poster": null,
          "release_ru": "2018-12-13",
          "release_world": "2018-12-12",
          "availability": "2018-12-14",
          "voiceActing": [
            "Рус. Дублированный",
            "Eng.Original"
          ],
          "ads": false,
          "subtitle": [
            "Eng. full"
          ]
        },
        {
          "episode": 11,
          "name": "The Wedding Singer",
          "iframe_url": "",
          "iframe_poster": null,
          "release_ru": "2019-01-10",
          "release_world": "2019-01-09",
          "availability": "2019-01-11",
          "voiceActing": [
            "Рус. Дублированный",
            "Eng.Original"
          ],
          "ads": false,
          "subtitle": [
            "Eng. full"
          ]
        },
        {
          "episode": 12,
          "name": "The Pina Colada Episode",
          "iframe_url": "",
          "iframe_poster": null,
          "release_ru": "2019-01-17",
          "release_world": "2019-01-16",
          "availability": "2019-01-18",
          "voiceActing": [
            "Рус. Дублированный",
            "Eng.Original"
          ],
          "ads": false,
          "subtitle": [
            "Eng. full"
          ]
        },
        {
          "episode": 13,
          "name": "I Coulda Been a Lawyer",
          "iframe_url": "",
          "iframe_poster": null,
          "release_ru": "2019-01-24",
          "release_world": "2019-01-23",
          "availability": "2019-01-25",
          "voiceActing": [
            "Рус. Дублированный",
            "Eng.Original"
          ],
          "ads": false,
          "subtitle": [
            "Eng. full"
          ]
        },
        {
          "episode": 14,
          "name": "Major League'd",
          "iframe_url": "",
          "iframe_poster": null,
          "release_ru": "2019-01-31",
          "release_world": "2019-01-30",
          "availability": "2019-02-01",
          "voiceActing": [
            "Рус. Дублированный",
            "Eng.Original"
          ],
          "ads": false,
          "subtitle": [
            "Eng. full"
          ]
        },
        {
          "episode": 15,
          "name": "My Valentine Boy",
          "iframe_url": "",
          "iframe_poster": null,
          "release_ru": "2019-02-14",
          "release_world": "2019-02-13",
          "availability": "2019-02-15",
          "voiceActing": [
            "Рус. Дублированный",
            "Eng.Original"
          ],
          "ads": false,
          "subtitle": [
            "Eng. full"
          ]
        },
        {
          "episode": 16,
          "name": "There Can Be Only One Highlander Club",
          "iframe_url": "",
          "iframe_poster": null,
          "release_ru": "2019-02-21",
          "release_world": "2019-02-20",
          "availability": "2019-02-22",
          "voiceActing": [
            "Рус. Дублированный",
            "Eng.Original"
          ],
          "ads": false,
          "subtitle": [
            "Eng. full"
          ]
        },
        {
          "episode": 17,
          "name": "Our Perfect Strangers",
          "iframe_url": "",
          "iframe_poster": null,
          "release_ru": "2019-02-28",
          "release_world": "2019-02-27",
          "availability": "2019-03-01",
          "voiceActing": [
            "Рус. Дублированный",
            "Eng.Original"
          ],
          "ads": false,
          "subtitle": [
            "Eng. full"
          ]
        },
        {
          "episode": 18,
          "name": "The Beverly Goldberg Cookbook",
          "iframe_url": "",
          "iframe_poster": null,
          "release_ru": "2019-03-14",
          "release_world": "2019-03-13",
          "availability": "2019-03-15",
          "voiceActing": [
            "Рус. Дублированный",
            "Eng.Original"
          ],
          "ads": false,
          "subtitle": [
            "Eng. full"
          ]
        },
        {
          "episode": 19,
          "name": "8-bit Goldbergs",
          "iframe_url": "",
          "iframe_poster": null,
          "release_ru": "2019-03-21",
          "release_world": "2019-03-20",
          "availability": "2019-03-22",
          "voiceActing": [
            "Рус. Дублированный",
            "Eng.Original"
          ],
          "ads": false,
          "subtitle": [
            "Eng. full"
          ]
        },
        {
          "episode": 20,
          "name": "This is This is Spinal Tap",
          "iframe_url": "",
          "iframe_poster": null,
          "release_ru": "2019-04-04",
          "release_world": "2019-04-03",
          "availability": "2019-04-05",
          "voiceActing": [
            "Рус. Дублированный",
            "Eng.Original"
          ],
          "ads": false,
          "subtitle": [
            "Eng. full"
          ]
        },
        {
          "episode": 21,
          "name": "I Lost On Jeopardy",
          "iframe_url": "",
          "iframe_poster": null,
          "release_ru": "2019-04-11",
          "release_world": "2019-04-10",
          "availability": "2019-04-12",
          "voiceActing": [
            "Рус. Дублированный",
            "Eng.Original"
          ],
          "ads": false,
          "subtitle": [
            "Eng. full"
          ]
        },
        {
          "episode": 22,
          "name": "Mom Trumps Willow",
          "iframe_url": "",
          "iframe_poster": null,
          "release_ru": "2019-05-02",
          "release_world": "2019-05-01",
          "availability": "2019-05-03",
          "voiceActing": [
            "Рус. Дублированный",
            "Eng.Original"
          ],
          "ads": false,
          "subtitle": [
            "Eng. full"
          ]
        },
        {
          "episode": 23,
          "name": "Breakin'",
          "iframe_url": "",
          "iframe_poster": null,
          "release_ru": "2019-05-09",
          "release_world": "2019-05-08",
          "availability": "2019-05-10",
          "voiceActing": [
            "Рус. Дублированный",
            "Eng.Original"
          ],
          "ads": false,
          "subtitle": [
            "Eng. full"
          ]
        }
      ]
    },
    {
      "poster": null,
      "release_ru": "2019-09-26",
      "release_world": "2019-09-25",
      "availability": "2019-09-27",
      "iframe_url": "",
      "season": 7,
      "episodes": [
        {
          "episode": 1,
          "name": "Vacation",
          "iframe_url": "",
          "iframe_poster": null,
          "release_ru": "2019-09-26",
          "release_world": "2019-09-25",
          "availability": "2019-09-27",
          "voiceActing": [
            "TVShows",
            "Eng.Original"
          ],
          "ads": false,
          "subtitle": [
            "Eng. full"
          ]
        },
        {
          "episode": 2,
          "name": "Dana's Back",
          "iframe_url": "",
          "iframe_poster": null,
          "release_ru": "2019-10-03",
          "release_world": "2019-10-02",
          "availability": "2019-10-04",
          "voiceActing": [
            "TVShows",
            "Eng.Original"
          ],
          "ads": false,
          "subtitle": [
            "Eng. full"
          ]
        },
        {
          "episode": 3,
          "name": "Food in a Geoffy",
          "iframe_url": "",
          "iframe_poster": null,
          "release_ru": "2019-10-09",
          "release_world": "2019-10-09",
          "availability": "2019-10-10",
          "voiceActing": [
            "TVShows",
            "Eng.Original"
          ],
          "ads": false,
          "subtitle": [
            "Eng. full"
          ]
        },
        {
          "episode": 4,
          "name": "Animal House",
          "iframe_url": "",
          "iframe_poster": null,
          "release_ru": "2019-10-16",
          "release_world": "2019-10-16",
          "availability": "2019-10-17",
          "voiceActing": [
            "TVShows",
            "Eng.Original"
          ],
          "ads": false,
          "subtitle": [
            "Eng. full"
          ]
        },
        {
          "episode": 5,
          "name": "Parents Thursday",
          "iframe_url": "",
          "iframe_poster": null,
          "release_ru": "2019-10-23",
          "release_world": "2019-10-23",
          "availability": "2019-10-24",
          "voiceActing": [
            "TVShows",
            "Eng.Original"
          ],
          "ads": false,
          "subtitle": [
            "Eng. full"
          ]
        },
        {
          "episode": 6,
          "name": "A 100% True Ghost Story",
          "iframe_url": "",
          "iframe_poster": null,
          "release_ru": "2019-10-30",
          "release_world": "2019-10-30",
          "availability": "2019-10-31",
          "voiceActing": [
            "TVShows",
            "Eng.Original"
          ],
          "ads": false,
          "subtitle": [
            "Eng. full"
          ]
        },
        {
          "episode": 7,
          "name": "Wrestlemania",
          "iframe_url": "",
          "iframe_poster": null,
          "release_ru": "2019-11-06",
          "release_world": "2019-11-06",
          "availability": "2019-11-07",
          "voiceActing": [
            "TVShows",
            "Eng.Original"
          ],
          "ads": false,
          "subtitle": [
            "Eng. full"
          ]
        },
        {
          "episode": 8,
          "name": "Angst-giving",
          "iframe_url": "",
          "iframe_poster": null,
          "release_ru": "2019-11-20",
          "release_world": "2019-11-20",
          "availability": "2019-11-21",
          "voiceActing": [
            "TVShows",
            "Eng.Original"
          ],
          "ads": false,
          "subtitle": [
            "Eng. SDH"
          ]
        },
        {
          "episode": 9,
          "name": "The Beverly Goldberg Cookbook: Part 2",
          "iframe_url": "",
          "iframe_poster": null,
          "release_ru": "2019-12-04",
          "release_world": "2019-12-04",
          "availability": "2019-12-05",
          "voiceActing": [
            "TVShows",
            "Eng.Original"
          ],
          "ads": false,
          "subtitle": [
            "Eng. full"
          ]
        },
        {
          "episode": 10,
          "name": "It's a Wonderful Life",
          "iframe_url": "",
          "iframe_poster": null,
          "release_ru": "2019-12-11",
          "release_world": "2019-12-11",
          "availability": "2019-12-12",
          "voiceActing": [
            "TVShows",
            "Eng.Original"
          ],
          "ads": false,
          "subtitle": [
            "Eng. SDH"
          ]
        },
        {
          "episode": 11,
          "name": "Pickleball",
          "iframe_url": "",
          "iframe_poster": null,
          "release_ru": "2020-01-15",
          "release_world": "2020-01-15",
          "availability": "2020-01-16",
          "voiceActing": [
            "TVShows",
            "Eng.Original"
          ],
          "ads": false,
          "subtitle": [
            "Eng. SDH"
          ]
        },
        {
          "episode": 12,
          "name": "Game Night",
          "iframe_url": "",
          "iframe_poster": null,
          "release_ru": "2020-01-22",
          "release_world": "2020-01-22",
          "availability": "2020-01-23",
          "voiceActing": [
            "TVShows",
            "Eng.Original"
          ],
          "ads": false,
          "subtitle": []
        },
        {
          "episode": 13,
          "name": "Geoff The Pleaser",
          "iframe_url": "",
          "iframe_poster": null,
          "release_ru": "2020-01-30",
          "release_world": "2020-01-29",
          "availability": "2020-01-30",
          "voiceActing": [
            "TVShows",
            "Eng.Original"
          ],
          "ads": false,
          "subtitle": [
            "Eng. full"
          ]
        },
        {
          "episode": 14,
          "name": "Preventa Mode",
          "iframe_url": "",
          "iframe_poster": null,
          "release_ru": "2020-02-13",
          "release_world": "2020-02-12",
          "availability": "2020-02-13",
          "voiceActing": [
            "TVShows",
            "Eng.Original"
          ],
          "ads": false,
          "subtitle": []
        },
        {
          "episode": 15,
          "name": "Dave Kim's Party",
          "iframe_url": "",
          "iframe_poster": null,
          "release_ru": "2020-02-20",
          "release_world": "2020-02-19",
          "availability": "2020-02-20",
          "voiceActing": [
            "TVShows",
            "Eng.Original"
          ],
          "ads": false,
          "subtitle": []
        },
        {
          "episode": 16,
          "name": "Body Swap",
          "iframe_url": "",
          "iframe_poster": null,
          "release_ru": "2020-02-27",
          "release_world": "2020-02-26",
          "availability": "2020-02-27",
          "voiceActing": [
            "TVShows",
            "Eng.Original"
          ],
          "ads": false,
          "subtitle": []
        },
        {
          "episode": 17,
          "name": "A Fish Story",
          "iframe_url": "",
          "iframe_poster": null,
          "release_ru": "2020-03-19",
          "release_world": "2020-03-18",
          "availability": "2020-03-19",
          "voiceActing": [
            "TVShows",
            "Eng.Original"
          ],
          "ads": false,
          "subtitle": [
            "Eng. Full"
          ]
        },
        {
          "episode": 18,
          "name": "Schmoopie's Big Adventure",
          "iframe_url": "",
          "iframe_poster": null,
          "release_ru": "2020-03-26",
          "release_world": "2020-03-25",
          "availability": "2020-03-26",
          "voiceActing": [
            "TVShows",
            "Eng.Original"
          ],
          "ads": false,
          "subtitle": [
            "Eng. Full"
          ]
        },
        {
          "episode": 19,
          "name": "Island Time",
          "iframe_url": "",
          "iframe_poster": null,
          "release_ru": "2020-04-02",
          "release_world": "2020-04-01",
          "availability": "2020-04-02",
          "voiceActing": [
            "TVShows",
            "Eng.Original"
          ],
          "ads": false,
          "subtitle": [
            "Eng. Full"
          ]
        },
        {
          "episode": 20,
          "name": "The Return of the Formica King",
          "iframe_url": "",
          "iframe_poster": null,
          "release_ru": "2020-04-16",
          "release_world": "2020-04-15",
          "availability": "2020-04-16",
          "voiceActing": [
            "TVShows",
            "Eng.Original"
          ],
          "ads": false,
          "subtitle": [
            "Eng. full"
          ]
        },
        {
          "episode": 21,
          "name": "Oates & Oates",
          "iframe_url": "",
          "iframe_poster": null,
          "release_ru": "2020-04-23",
          "release_world": "2020-04-22",
          "availability": "2020-04-23",
          "voiceActing": [
            "Cold Film"
          ],
          "ads": true,
          "subtitle": []
        },
        {
          "episode": 22,
          "name": "The Fake-up",
          "iframe_url": "",
          "iframe_poster": null,
          "release_ru": "2020-05-07",
          "release_world": "2020-05-06",
          "availability": "2020-05-07",
          "voiceActing": [
            "Cold Film"
          ],
          "ads": true,
          "subtitle": []
        },
        {
          "episode": 23,
          "name": "Pretty In Pink",
          "iframe_url": "",
          "iframe_poster": null,
          "release_ru": "2020-05-14",
          "release_world": "2020-05-13",
          "availability": "2020-05-14",
          "voiceActing": [
            "Cold Film"
          ],
          "ads": true,
          "subtitle": []
        }
      ]
    },
    {
      "poster": null,
      "release_ru": "2020-10-22",
      "release_world": "2020-10-21",
      "availability": "2020-10-23",
      "iframe_url": "",
      "season": 8,
      "episodes": [
        {
          "episode": 1,
          "name": "Airplane!",
          "iframe_url": "",
          "iframe_poster": null,
          "release_ru": "2020-10-22",
          "release_world": "2020-10-21",
          "availability": "2020-10-23",
          "voiceActing": [
            "TVShows"
          ],
          "ads": false,
          "subtitle": []
        },
        {
          "episode": 2,
          "name": "The Prettiest Boy In School",
          "iframe_url": "",
          "iframe_poster": null,
          "release_ru": "2020-10-22",
          "release_world": "2020-10-21",
          "availability": "2020-10-23",
          "voiceActing": [
            "TVShows"
          ],
          "ads": false,
          "subtitle": []
        },
        {
          "episode": 3,
          "name": "It's All About Comptrol",
          "iframe_url": "",
          "iframe_poster": null,
          "release_ru": "2020-10-29",
          "release_world": "2020-10-28",
          "availability": "2020-10-30",
          "voiceActing": [
            "TVShows"
          ],
          "ads": false,
          "subtitle": []
        },
        {
          "episode": 4,
          "name": "Bill's Wedding",
          "iframe_url": "",
          "iframe_poster": null,
          "release_ru": "2020-11-05",
          "release_world": "2020-11-04",
          "availability": "2020-11-06",
          "voiceActing": [
            "TVShows"
          ],
          "ads": false,
          "subtitle": []
        },
        {
          "episode": 5,
          "name": "Dee-vorced",
          "iframe_url": "",
          "iframe_poster": null,
          "release_ru": "2020-11-19",
          "release_world": "2020-11-18",
          "availability": "2020-11-20",
          "voiceActing": [
            "TVShows"
          ],
          "ads": false,
          "subtitle": []
        },
        {
          "episode": 6,
          "name": "Eracism",
          "iframe_url": "",
          "iframe_poster": null,
          "release_ru": "2020-11-26",
          "release_world": "2020-11-25",
          "availability": "2020-11-27",
          "voiceActing": [
            "TVShows"
          ],
          "ads": false,
          "subtitle": []
        },
        {
          "episode": 7,
          "name": "Hanukkah on the Seas",
          "iframe_url": "",
          "iframe_poster": null,
          "release_ru": "2020-12-03",
          "release_world": "2020-12-02",
          "availability": "2020-12-04",
          "voiceActing": [
            "TVShows"
          ],
          "ads": false,
          "subtitle": []
        },
        {
          "episode": 8,
          "name": "Bevy's Big Murder Mystery Party",
          "iframe_url": "",
          "iframe_poster": null,
          "release_ru": "2021-01-14",
          "release_world": "2021-01-13",
          "availability": "2021-01-15",
          "voiceActing": [
            "TVShows"
          ],
          "ads": false,
          "subtitle": []
        },
        {
          "episode": 9,
          "name": "Cocoon",
          "iframe_url": "",
          "iframe_poster": null,
          "release_ru": "2021-01-28",
          "release_world": "2021-01-27",
          "availability": "2021-01-29",
          "voiceActing": [
            "TVShows"
          ],
          "ads": false,
          "subtitle": []
        },
        {
          "episode": 10,
          "name": "Geoff's New Hat",
          "iframe_url": "",
          "iframe_poster": null,
          "release_ru": "2021-02-04",
          "release_world": "2021-02-03",
          "availability": "2021-02-05",
          "voiceActing": [
            "TVShows"
          ],
          "ads": false,
          "subtitle": []
        },
        {
          "episode": 11,
          "name": "Quaker Warden",
          "iframe_url": "",
          "iframe_poster": null,
          "release_ru": "2021-02-11",
          "release_world": "2021-02-10",
          "availability": "2021-02-12",
          "voiceActing": [
            "TVShows"
          ],
          "ads": false,
          "subtitle": []
        },
        {
          "episode": 12,
          "name": "The Lasagna You Deserve",
          "iframe_url": "",
          "iframe_poster": null,
          "release_ru": "2021-02-25",
          "release_world": "2021-02-24",
          "availability": "2021-02-26",
          "voiceActing": [
            "TVShows"
          ],
          "ads": false,
          "subtitle": []
        },
        {
          "episode": 13,
          "name": "Mr. Ships Ahoy",
          "iframe_url": "",
          "iframe_poster": null,
          "release_ru": "2021-03-04",
          "release_world": "2021-03-03",
          "availability": "2021-03-05",
          "voiceActing": [
            "TVShows"
          ],
          "ads": false,
          "subtitle": []
        },
        {
          "episode": 14,
          "name": "Love Triangle",
          "iframe_url": "",
          "iframe_poster": null,
          "release_ru": "2021-03-25",
          "release_world": "2021-03-24",
          "availability": "2021-03-26",
          "voiceActing": [
            "TVShows"
          ],
          "ads": false,
          "subtitle": []
        },
        {
          "episode": 15,
          "name": "Bever-lé",
          "iframe_url": "",
          "iframe_poster": null,
          "release_ru": "2021-04-01",
          "release_world": "2021-03-31",
          "availability": "2021-04-02",
          "voiceActing": [
            "TVShows"
          ],
          "ads": false,
          "subtitle": []
        },
        {
          "episode": 16,
          "name": "Couple Off",
          "iframe_url": "",
          "iframe_poster": null,
          "release_ru": "2021-04-08",
          "release_world": "2021-04-07",
          "availability": "2021-04-09",
          "voiceActing": [
            "TVShows"
          ],
          "ads": false,
          "subtitle": []
        },
        {
          "episode": 17,
          "name": "Who's Afraid Of Brea Bee?",
          "iframe_url": "",
          "iframe_poster": null,
          "release_ru": "2021-04-15",
          "release_world": "2021-04-14",
          "availability": "2021-04-16",
          "voiceActing": [
            "TVShows"
          ],
          "ads": false,
          "subtitle": []
        },
        {
          "episode": 18,
          "name": "The Dating Game",
          "iframe_url": "",
          "iframe_poster": null,
          "release_ru": "2021-04-22",
          "release_world": "2021-04-21",
          "availability": "2021-04-23",
          "voiceActing": [
            "TVShows"
          ],
          "ads": false,
          "subtitle": []
        },
        {
          "episode": 19,
          "name": "Daddy Daughter Day 2",
          "iframe_url": "",
          "iframe_poster": null,
          "release_ru": "2021-04-29",
          "release_world": "2021-04-28",
          "availability": "2021-04-30",
          "voiceActing": [
            "TVShows"
          ],
          "ads": false,
          "subtitle": []
        },
        {
          "episode": 20,
          "name": "Poker Night",
          "iframe_url": "",
          "iframe_poster": null,
          "release_ru": "2021-05-06",
          "release_world": "2021-05-05",
          "availability": "2021-05-07",
          "voiceActing": [
            "TVShows"
          ],
          "ads": false,
          "subtitle": []
        },
        {
          "episode": 21,
          "name": "Alligator Schwartz",
          "iframe_url": "",
          "iframe_poster": null,
          "release_ru": "2021-05-13",
          "release_world": "2021-05-12",
          "availability": "2021-05-14",
          "voiceActing": [
            "TVShows"
          ],
          "ads": false,
          "subtitle": []
        },
        {
          "episode": 22,
          "name": "The Proposal",
          "iframe_url": "",
          "iframe_poster": null,
          "release_ru": "2021-05-20",
          "release_world": "2021-05-19",
          "availability": "2021-05-21",
          "voiceActing": [
            "TVShows"
          ],
          "ads": false,
          "subtitle": []
        }
      ]
    },
    {
      "poster": null,
      "release_ru": "2021-09-23",
      "release_world": "2021-09-22",
      "availability": "2021-09-24",
      "iframe_url": "",
      "season": 9,
      "episodes": [
        {
          "episode": 1,
          "name": "The Goldbergs' Excellent Adventure",
          "iframe_url": "",
          "iframe_poster": null,
          "release_ru": "2021-09-23",
          "release_world": "2021-09-22",
          "availability": "2021-09-24",
          "voiceActing": [
            "TVShows"
          ],
          "ads": false,
          "subtitle": []
        },
        {
          "episode": 2,
          "name": "Horse Play",
          "iframe_url": "",
          "iframe_poster": null,
          "release_ru": "2021-09-30",
          "release_world": "2021-09-29",
          "availability": "2021-10-01",
          "voiceActing": [
            "TVShows"
          ],
          "ads": false,
          "subtitle": []
        },
        {
          "episode": 3,
          "name": "Riptide Waters",
          "iframe_url": "",
          "iframe_poster": null,
          "release_ru": "2021-10-07",
          "release_world": "2021-10-06",
          "availability": "2021-10-08",
          "voiceActing": [
            "TVShows"
          ],
          "ads": false,
          "subtitle": []
        },
        {
          "episode": 4,
          "name": "The William Penn Years",
          "iframe_url": "",
          "iframe_poster": null,
          "release_ru": "2021-10-14",
          "release_world": "2021-10-13",
          "availability": "2021-10-14",
          "voiceActing": [
            "TVShows"
          ],
          "ads": false,
          "subtitle": []
        },
        {
          "episode": 5,
          "name": "An Itch Like No Other",
          "iframe_url": "",
          "iframe_poster": null,
          "release_ru": "2021-10-21",
          "release_world": "2021-10-20",
          "availability": "2021-10-22",
          "voiceActing": [
            "TVShows"
          ],
          "ads": false,
          "subtitle": []
        },
        {
          "episode": 6,
          "name": "The Hunt for the Great Albino Pumpkin",
          "iframe_url": "",
          "iframe_poster": null,
          "release_ru": "2021-10-28",
          "release_world": "2021-10-27",
          "availability": "2021-10-29",
          "voiceActing": [
            "TVShows"
          ],
          "ads": false,
          "subtitle": []
        },
        {
          "episode": 7,
          "name": "The Rose-Kissy Thing",
          "iframe_url": "",
          "iframe_poster": null,
          "release_ru": "2021-11-04",
          "release_world": "2021-11-03",
          "availability": "2021-11-05",
          "voiceActing": [
            "TVShows"
          ],
          "ads": false,
          "subtitle": []
        },
        {
          "episode": 8,
          "name": "A Light Thanksgiving Nosh",
          "iframe_url": "",
          "iframe_poster": null,
          "release_ru": "2021-11-18",
          "release_world": "2021-11-17",
          "availability": "2021-11-19",
          "voiceActing": [
            "TVShows"
          ],
          "ads": false,
          "subtitle": []
        },
        {
          "episode": 9,
          "name": "Tennis People",
          "iframe_url": null,
          "iframe_poster": null,
          "release_ru": "2021-12-02",
          "release_world": "2021-12-01",
          "availability": "2021-12-03",
          "voiceActing": []
        },
        {
          "episode": 10,
          "name": "You Only Die Once, Or Twice, But Never Three Times",
          "iframe_url": null,
          "iframe_poster": null,
          "release_ru": "2022-01-06",
          "release_world": "2022-01-05",
          "availability": "2022-01-07",
          "voiceActing": []
        },
        {
          "episode": 11,
          "name": "Hip-Shaking and Booty-Quaking",
          "iframe_url": null,
          "iframe_poster": null,
          "release_ru": "2022-01-13",
          "release_world": "2022-01-12",
          "availability": "2022-01-14",
          "voiceActing": []
        }
      ]
    }
  ],
  "voiceActing": [
    "Paramount comedy",
    "Eng.Original",
    "Рус. Дублированный",
    "TVShows",
    "Cold Film"
  ],
  "subtitle": [
    "Eng. full",
    "Рус. форсированные",
    "Eng. SDH",
    "Eng. Full"
  ],
  "parts": []
}
