{
  "id": 6474,
  "name": "Уловка-22",
  "name_eng": "Catch-22",
  "year": 2019,
  "slogan": null,
  "age": "16+",
  "type": "series",
  "quality": "FHD (1080p)",
  "imdb": "7.8",
  "imdb_id": "5056196",
  "kinopoisk": "7.8",
  "kinopoisk_id": "1134613",
  "world_art": null,
  "world_art_id": null,
  "time": "45 мин.",
  "ads": false,
  "premier": "2019-05-17",
  "premier_rus": "2019-05-18",
  "availability": "2019-05-19",
  "serial_status": "offline",
  "activate_time": "2019-03-04 17:23:43",
  "budget": null,
  "fees_use": null,
  "fees_world": null,
  "fees_rus": null,
  "rate_mpaa": null,
  "description": "1944 год. Бомбардировочный полк, в котором служит капитан Йоссариан, дислоцировался на острове в Тирренском море. Чтобы выйти в запас, военнослужащему нужно совершить определенное количество боевых вылетов согласно норме, установленной в ВВС США. Однако командир полка, выслуживая очередной чин, постоянно повышает планку. Йоссариан пытается убраться подальше от войны и ссылается на сумасшествие, поскольку это заболевание является официальной причиной для отстранения от полётов. Но согласно некоему правительственному постановлению, «Уловке-22», всякий, кто называет себя сумасшедшим с целью освободиться от воинской обязанности, тем самым доказывает обратное, ведь подобное заявление явно свидетельствует о здравомыслии.",
  "iframe_url": "",
  "poster": "https://img.imgilall.me/movies/franchise/6/4/7/4/0/0/0/0/0/0/610x900_6474.jpg",
  "country": {
    "1": "США"
  },
  "collection": {
    "118": "Hulu"
  },
  "genre": {
    "25": "Криминал",
    "32": "Военный",
    "19": "Комедия",
    "10": "Зарубежный",
    "7": "Драма"
  },
  "director": [
    "Джордж Клуни",
    "Грант Хеслов",
    "Эллен Кёрас"
  ],
  "screenwriter": [
    "Люк Дейвис",
    "Джозеф Хеллер",
    "Дэвид Мишо"
  ],
  "producer": [
    "Ричард Браун",
    "Джордж Клуни",
    "Люк Дейвис"
  ],
  "operator": [
    "Мартин Руе"
  ],
  "composer": [
    "Гарри Грегсон-Уильямс",
    "Руперт Грегсон-Уильямс"
  ],
  "design": [
    "Дэвид Гропмэн",
    "Джанпаоло Рифино",
    "Алессандро Сантуччи"
  ],
  "editor": [
    "Майкл Руссо",
    "Таня М. Свелинг"
  ],
  "actors": [
    "Кристофер Эбботт",
    "Кайл Чандлер",
    "Дэниэл Дэвид Стюарт",
    "Рафи Гаврон",
    "Грэхэм Патрик Мартин",
    "Кевин Дж. О’Коннор",
    "Остин Стоуэлл",
    "Джон Рудницкий",
    "Герран Хауэлл",
    "Тесса Феррер"
  ],
  "actors_dubl": [],
  "trivia": [
    "«Уловка-22» - это книга, увидевшая свет в 1961 году, и вышедший в 1970 году фильм с участием Алана Аркина, Мартина Болсама, Ричарда Бенджамина, Арта Гарфанкела и других."
  ],
  "trailers": [
    {
      "name": "трейлер №1",
      "number": 1,
      "iframe_poster": "https://img.imgilall.me/movies/trailer/2/6/9/0/0/0/0/0/0/0/800x450_269.jpeg",
      "season": 1,
      "iframe_url": ""
    }
  ],
  "seasons": [
    {
      "poster": "https://img.imgilall.me/movies/season/4/3/7/7/0/0/0/0/0/0/610x900_4377.jpg",
      "release_ru": "2019-05-18",
      "release_world": "2019-05-17",
      "availability": "2019-05-19",
      "iframe_url": "",
      "season": 1,
      "episodes": [
        {
          "episode": 1,
          "name": null,
          "iframe_url": "",
          "iframe_poster": null,
          "release_ru": "2019-05-18",
          "release_world": "2019-05-17",
          "availability": "2019-05-19",
          "voiceActing": [
            "LostFilm",
            "TVShows",
            "Profix Media",
            "Eng.Original"
          ],
          "ads": false,
          "subtitle": [
            "Рус. полные"
          ]
        },
        {
          "episode": 2,
          "name": null,
          "iframe_url": "",
          "iframe_poster": null,
          "release_ru": "2019-05-18",
          "release_world": "2019-05-17",
          "availability": "2019-05-19",
          "voiceActing": [
            "LostFilm",
            "TVShows",
            "Profix Media",
            "Eng.Original"
          ],
          "ads": false,
          "subtitle": [
            "Рус. полные"
          ]
        },
        {
          "episode": 3,
          "name": null,
          "iframe_url": "",
          "iframe_poster": null,
          "release_ru": "2019-05-18",
          "release_world": "2019-05-17",
          "availability": "2019-05-19",
          "voiceActing": [
            "LostFilm",
            "TVShows",
            "Profix Media",
            "Eng.Original"
          ],
          "ads": false,
          "subtitle": [
            "Рус. полные"
          ]
        },
        {
          "episode": 4,
          "name": null,
          "iframe_url": "",
          "iframe_poster": null,
          "release_ru": "2019-05-18",
          "release_world": "2019-05-17",
          "availability": "2019-05-19",
          "voiceActing": [
            "LostFilm",
            "TVShows",
            "Profix Media",
            "Eng.Original"
          ],
          "ads": false,
          "subtitle": [
            "Рус. полные"
          ]
        },
        {
          "episode": 5,
          "name": null,
          "iframe_url": "",
          "iframe_poster": null,
          "release_ru": "2019-05-18",
          "release_world": "2019-05-17",
          "availability": "2019-05-19",
          "voiceActing": [
            "LostFilm",
            "TVShows",
            "Profix Media",
            "Eng.Original"
          ],
          "ads": false,
          "subtitle": [
            "Рус. полные"
          ]
        },
        {
          "episode": 6,
          "name": null,
          "iframe_url": "",
          "iframe_poster": null,
          "release_ru": "2019-05-18",
          "release_world": "2019-05-17",
          "availability": "2019-05-19",
          "voiceActing": [
            "LostFilm",
            "TVShows",
            "Profix Media",
            "Eng.Original"
          ],
          "ads": false,
          "subtitle": [
            "Рус. полные"
          ]
        }
      ]
    }
  ],
  "voiceActing": [
    "LostFilm",
    "TVShows",
    "Profix Media",
    "Eng.Original"
  ],
  "subtitle": [
    "Рус. полные"
  ],
  "parts": []
}
