{
  "id": 6478,
  "name": "Имя розы",
  "name_eng": "The Name of the Rose",
  "year": 2019,
  "slogan": null,
  "age": "18+",
  "type": "series",
  "quality": "HD (720p)",
  "imdb": "6.9",
  "imdb_id": "7572868",
  "kinopoisk": "6.8",
  "kinopoisk_id": "1209813",
  "world_art": null,
  "world_art_id": null,
  "time": "60 мин.",
  "ads": false,
  "premier": "2019-03-05",
  "premier_rus": "2019-03-05",
  "availability": null,
  "serial_status": "offline",
  "activate_time": "2019-03-04 17:38:03",
  "budget": null,
  "fees_use": null,
  "fees_world": null,
  "fees_rus": null,
  "rate_mpaa": null,
  "description": "Действие происходит в 1327 году в монастыре на северо-западе Италии, куда прибывают влиятельный монах-францисканец Вильгельм Баскервильский и его спутник, молодой послушник Адсон. Монахи должны организовать переговоры для представителей папы Иоанна XXII и ордена, который собираются признать еретическим. Однако в монастыре, мощной крепости, отгороженной от мира и посетителей, происходит загадочное убийство. В ходе расследования, которое начинают Вильгельмм и его послушник, они сталкиваются со странными и подозрительными событиями.",
  "iframe_url": "",
  "poster": "https://img.imgilall.me/movies/franchise/6/4/7/8/0/0/0/0/0/0/610x900_6478.jpg",
  "country": {
    "8": "Италия",
    "20": "Германия"
  },
  "collection": {
    "33": "Экранизация книг"
  },
  "genre": {
    "28": "Исторический",
    "24": "Детектив",
    "13": "Триллер",
    "10": "Зарубежный",
    "7": "Драма"
  },
  "director": [
    "Джакомо Баттиато"
  ],
  "screenwriter": [
    "Джакомо Баттиато",
    "Андреа Порпорати",
    "Джон Туртурро"
  ],
  "producer": [
    "Marta Aceto",
    "Элеонора Андреатта",
    "Марко Камилли"
  ],
  "operator": [
    "Джон Конрой"
  ],
  "composer": [
    "Фолькер Бертельман"
  ],
  "design": [
    "Франческо Фриджери",
    "Риккардо Монти",
    "Маурицио Милленотти"
  ],
  "editor": [
    "Стивен О’Коннелл"
  ],
  "actors": [
    "Джон Туртурро",
    "Руперт Эверетт",
    "Дамиан Хардунг",
    "Фабрицио Бентивольо",
    "Грета Скарано",
    "Рихард Заммель",
    "Стефано Фрези",
    "Роберто Херлицка",
    "Фаусто Мария Шиараппа",
    "Маурицио Ломбарди"
  ],
  "actors_dubl": [],
  "trivia": [
    "Диалоги на окситанский язык переводила группа специалистов из университета в Салерно.",
    "Экранизация одноимённого романа (1980) итальянского писателя Умберто Эко (1932-2016)."
  ],
  "trailers": [],
  "seasons": [
    {
      "poster": "https://img.imgilall.me/movies/season/4/3/8/0/0/0/0/0/0/0/610x900_4380.jpg",
      "release_ru": "2019-03-05",
      "release_world": "2019-03-04",
      "availability": "2019-03-06",
      "iframe_url": "",
      "season": 1,
      "episodes": [
        {
          "episode": 1,
          "name": null,
          "iframe_url": "",
          "iframe_poster": null,
          "release_ru": "2019-03-05",
          "release_world": "2019-03-04",
          "availability": "2019-03-06",
          "voiceActing": [
            "SDI Media",
            "Eng.Original"
          ],
          "ads": false,
          "subtitle": []
        },
        {
          "episode": 2,
          "name": null,
          "iframe_url": "",
          "iframe_poster": null,
          "release_ru": "2019-03-05",
          "release_world": "2019-03-04",
          "availability": "2019-03-06",
          "voiceActing": [
            "SDI Media",
            "Eng.Original"
          ],
          "ads": false,
          "subtitle": []
        },
        {
          "episode": 3,
          "name": null,
          "iframe_url": "",
          "iframe_poster": null,
          "release_ru": "2019-03-12",
          "release_world": "2019-03-11",
          "availability": "2019-03-13",
          "voiceActing": [
            "SDI Media",
            "Eng.Original"
          ],
          "ads": false,
          "subtitle": []
        },
        {
          "episode": 4,
          "name": null,
          "iframe_url": "",
          "iframe_poster": null,
          "release_ru": "2019-03-12",
          "release_world": "2019-03-11",
          "availability": "2019-03-13",
          "voiceActing": [
            "SDI Media",
            "Eng.Original"
          ],
          "ads": false,
          "subtitle": []
        },
        {
          "episode": 5,
          "name": null,
          "iframe_url": "",
          "iframe_poster": null,
          "release_ru": "2019-03-19",
          "release_world": "2019-03-18",
          "availability": "2019-03-20",
          "voiceActing": [
            "SDI Media",
            "Eng.Original"
          ],
          "ads": false,
          "subtitle": []
        },
        {
          "episode": 6,
          "name": null,
          "iframe_url": "",
          "iframe_poster": null,
          "release_ru": "2019-03-19",
          "release_world": "2019-03-18",
          "availability": "2019-03-20",
          "voiceActing": [
            "SDI Media",
            "Eng.Original"
          ],
          "ads": false,
          "subtitle": []
        },
        {
          "episode": 7,
          "name": null,
          "iframe_url": "",
          "iframe_poster": null,
          "release_ru": "2019-03-26",
          "release_world": "2019-03-25",
          "availability": "2019-03-27",
          "voiceActing": [
            "SDI Media",
            "Eng.Original"
          ],
          "ads": false,
          "subtitle": []
        },
        {
          "episode": 8,
          "name": null,
          "iframe_url": "",
          "iframe_poster": null,
          "release_ru": "2019-03-26",
          "release_world": "2019-03-25",
          "availability": "2019-03-27",
          "voiceActing": [
            "SDI Media",
            "Eng.Original"
          ],
          "ads": false,
          "subtitle": []
        }
      ]
    }
  ],
  "voiceActing": [
    "SDI Media",
    "Eng.Original"
  ],
  "subtitle": [],
  "parts": []
}
