{
  "id": 6809,
  "name": "Ангел спустился ко мне!",
  "name_eng": "Wataten! an Angel Flew Down to Me",
  "year": 2019,
  "slogan": "—",
  "age": "12+",
  "type": "anime-series",
  "quality": "HD (720p)",
  "imdb": "6.6",
  "imdb_id": "9622614",
  "kinopoisk": null,
  "kinopoisk_id": "1230361",
  "world_art": "6.9",
  "world_art_id": "9719",
  "time": "23 мин",
  "ads": false,
  "premier": "2019-01-08",
  "premier_rus": "2019-01-09",
  "availability": "2019-01-10",
  "serial_status": "online",
  "activate_time": "2019-03-15 17:21:58",
  "budget": "",
  "fees_use": "",
  "fees_world": "",
  "fees_rus": "",
  "rate_mpaa": "",
  "description": "Однажды застенчивая студентка-отаку Мияко встретила девочку-ангелочка! Это неземное создание зовут Хана, и она подружка младшей сестры Мияко. От одного взгляда на Хану сердце Мияко начинает колотиться, как сумасшедшее. Сумеет ли она подружиться с девочкой?",
  "iframe_url": "",
  "poster": "https://img.imgilall.me/movies/franchise/6/8/0/9/0/0/0/0/0/0/610x900_6809.jpg",
  "country": {
    "18": "Япония"
  },
  "collection": [],
  "genre": {
    "19": "Комедия",
    "10": "Зарубежный",
    "8": "Мелодрама"
  },
  "director": [
    "Дайсукэ Хирамаки",
    "Фудзий Такафуми",
    "Ёсиюки Фудзивара"
  ],
  "screenwriter": [
    "Дайсукэ Хирамаки",
    "Фумихико Симо",
    "Юка Ямада"
  ],
  "producer": [],
  "operator": [
    "Yasushi Kudô"
  ],
  "composer": [
    "Такуро Ига"
  ],
  "design": [
    "Юкари Ясуда"
  ],
  "editor": [
    "Кэнтаро Цубонэ"
  ],
  "actors": [
    "Рэина Уэда",
    "Мария Сасидэ",
    "Рика Нагаэ",
    "Акари Кито",
    "Хитоми Овада",
    "Наоми Одзора",
    "Ринн"
  ],
  "actors_dubl": [],
  "trivia": [],
  "trailers": [],
  "seasons": [
    {
      "poster": "https://img.imgilall.me/movies/season/4/6/6/4/0/0/0/0/0/0/610x900_4664.jpg",
      "release_ru": null,
      "release_world": null,
      "availability": null,
      "iframe_url": "",
      "season": 1,
      "episodes": [
        {
          "episode": 1,
          "name": null,
          "iframe_url": "",
          "iframe_poster": "https://img.imgilall.me/movies/video/7/2/4/7/9/0/0/0/0/0/800x450_72479.jpeg",
          "release_ru": null,
          "release_world": null,
          "availability": null,
          "voiceActing": [
            "Рус. Люб. двухголосый"
          ],
          "ads": false,
          "subtitle": []
        },
        {
          "episode": 2,
          "name": null,
          "iframe_url": "",
          "iframe_poster": "https://img.imgilall.me/movies/video/7/2/4/8/0/0/0/0/0/0/800x450_72480.jpeg",
          "release_ru": null,
          "release_world": null,
          "availability": null,
          "voiceActing": [
            "Рус. Люб. двухголосый"
          ],
          "ads": false,
          "subtitle": []
        },
        {
          "episode": 3,
          "name": null,
          "iframe_url": "",
          "iframe_poster": "https://img.imgilall.me/movies/video/7/2/4/8/1/0/0/0/0/0/800x450_72481.jpeg",
          "release_ru": null,
          "release_world": null,
          "availability": null,
          "voiceActing": [
            "Рус. Люб. двухголосый"
          ],
          "ads": false,
          "subtitle": []
        },
        {
          "episode": 4,
          "name": null,
          "iframe_url": "",
          "iframe_poster": "https://img.imgilall.me/movies/video/7/2/4/8/2/0/0/0/0/0/800x450_72482.jpeg",
          "release_ru": null,
          "release_world": null,
          "availability": null,
          "voiceActing": [
            "Рус. Люб. двухголосый"
          ],
          "ads": false,
          "subtitle": []
        },
        {
          "episode": 5,
          "name": null,
          "iframe_url": "",
          "iframe_poster": "https://img.imgilall.me/movies/video/7/2/4/8/3/0/0/0/0/0/800x450_72483.jpeg",
          "release_ru": null,
          "release_world": null,
          "availability": null,
          "voiceActing": [
            "Рус. Люб. двухголосый"
          ],
          "ads": false,
          "subtitle": []
        },
        {
          "episode": 6,
          "name": null,
          "iframe_url": "",
          "iframe_poster": "https://img.imgilall.me/movies/video/7/2/4/8/4/0/0/0/0/0/800x450_72484.jpeg",
          "release_ru": null,
          "release_world": null,
          "availability": null,
          "voiceActing": [
            "Рус. Люб. двухголосый"
          ],
          "ads": false,
          "subtitle": []
        },
        {
          "episode": 7,
          "name": null,
          "iframe_url": "",
          "iframe_poster": "https://img.imgilall.me/movies/video/7/2/4/8/5/0/0/0/0/0/800x450_72485.jpeg",
          "release_ru": null,
          "release_world": null,
          "availability": null,
          "voiceActing": [
            "Рус. Люб. двухголосый"
          ],
          "ads": false,
          "subtitle": []
        },
        {
          "episode": 8,
          "name": null,
          "iframe_url": "",
          "iframe_poster": "https://img.imgilall.me/movies/video/7/2/4/8/6/0/0/0/0/0/800x450_72486.jpeg",
          "release_ru": null,
          "release_world": null,
          "availability": null,
          "voiceActing": [
            "Рус. Люб. двухголосый"
          ],
          "ads": false,
          "subtitle": []
        },
        {
          "episode": 9,
          "name": null,
          "iframe_url": "",
          "iframe_poster": "https://img.imgilall.me/movies/video/7/2/4/8/7/0/0/0/0/0/800x450_72487.jpeg",
          "release_ru": null,
          "release_world": null,
          "availability": null,
          "voiceActing": [
            "Рус. Люб. двухголосый"
          ],
          "ads": false,
          "subtitle": []
        },
        {
          "episode": 10,
          "name": null,
          "iframe_url": "",
          "iframe_poster": "https://img.imgilall.me/movies/video/7/2/4/8/8/0/0/0/0/0/800x450_72488.jpeg",
          "release_ru": null,
          "release_world": null,
          "availability": null,
          "voiceActing": [
            "Рус. Люб. двухголосый"
          ],
          "ads": false,
          "subtitle": []
        },
        {
          "episode": 11,
          "name": null,
          "iframe_url": "",
          "iframe_poster": "https://img.imgilall.me/movies/video/7/4/3/2/4/0/0/0/0/0/800x450_74324.jpeg",
          "release_ru": null,
          "release_world": null,
          "availability": null,
          "voiceActing": [
            "Рус. Люб. многоголосый"
          ],
          "ads": false,
          "subtitle": []
        },
        {
          "episode": 12,
          "name": null,
          "iframe_url": "",
          "iframe_poster": "https://img.imgilall.me/movies/video/7/7/2/3/3/0/0/0/0/0/800x450_77233.jpeg",
          "release_ru": null,
          "release_world": null,
          "availability": null,
          "voiceActing": [
            "Рус. Люб. многоголосый"
          ],
          "ads": false,
          "subtitle": []
        }
      ]
    }
  ],
  "voiceActing": [
    "Рус. Люб. двухголосый",
    "Рус. Люб. многоголосый"
  ],
  "subtitle": [],
  "parts": []
}
