{
  "id": 6829,
  "name": "Не состарится",
  "name_eng": "Never Grow Old",
  "year": 2019,
  "slogan": "—",
  "age": "16+",
  "type": "film",
  "quality": "HD (720p)",
  "imdb": "5.9",
  "imdb_id": "1158939",
  "kinopoisk": "5.9",
  "kinopoisk_id": "1209711",
  "world_art": null,
  "world_art_id": null,
  "time": "100 мин. / 01:40",
  "ads": true,
  "premier": "2019-03-15",
  "premier_rus": null,
  "availability": null,
  "activate_time": "2019-03-18 09:36:02",
  "budget": null,
  "fees_use": null,
  "fees_world": "$106 796",
  "fees_rus": null,
  "rate_mpaa": "R",
  "description": "В небольшой набожный городок прибывает банда убийц и воров и начинает сеять смерть и хаос. В плюсе остаётся только местный гробовщик, хоронящий жертв. Но в итоге он должен решить, что для него важнее — сохранность семьи или деньги.",
  "iframe_url": "",
  "iframe_poster": "https://img.imgilall.me/movies/video/7/2/5/9/6/0/0/0/0/0/800x450_72596.jpeg",
  "poster": "https://img.imgilall.me/movies/franchise/6/8/2/9/0/0/0/0/0/0/610x900_6829.jpg",
  "country": {
    "21": "Ирландия"
  },
  "collection": [],
  "genre": {
    "29": "Вестерн",
    "17": "Боевик",
    "13": "Триллер",
    "10": "Зарубежный",
    "7": "Драма"
  },
  "director": [
    "Айван Кэвэна"
  ],
  "screenwriter": [
    "Айван Кэвэна"
  ],
  "producer": [
    "Жаклин Керрен",
    "Николас Стейл",
    "Доминик Райт"
  ],
  "operator": [
    "Пирс Макгрейл"
  ],
  "composer": [
    "Aza Hand",
    "Гаст Вальтцинг"
  ],
  "design": [
    "Джон Лесли",
    "Марк Ридремон",
    "Жаки Фоконнье"
  ],
  "editor": [
    "Бернар Беетс",
    "Дермот Дискин"
  ],
  "actors": [
    "Эмиль Хирш",
    "Джон Кьюсак",
    "Дебора Франсуа",
    "Молли Макканн",
    "Quinn Topper Marcus",
    "Сэм Лаувейк",
    "Дэниэл Уэбб",
    "Тим Ахерн",
    "Блейк Беррис",
    "Никкель Бёзенберг"
  ],
  "actors_dubl": [],
  "trivia": [],
  "trailers": [],
  "seasons": [],
  "voiceActing": [
    "Рус. Люб. многоголосый"
  ],
  "subtitle": [],
  "parts": []
}
