{
  "id": 6873,
  "name": "Модус Операнди",
  "name_eng": "Modus",
  "year": 2015,
  "slogan": "—",
  "age": "16+",
  "type": "series",
  "quality": "HD (720p)",
  "imdb": "6.7",
  "imdb_id": "4600404",
  "kinopoisk": "6.7",
  "kinopoisk_id": "938865",
  "world_art": null,
  "world_art_id": null,
  "time": "45 мин",
  "ads": false,
  "premier": "2015-09-23",
  "premier_rus": null,
  "availability": null,
  "serial_status": "offline",
  "activate_time": "2019-03-18 17:28:40",
  "budget": null,
  "fees_use": null,
  "fees_world": null,
  "fees_rus": null,
  "rate_mpaa": null,
  "description": "Наступает Рождество, и психолог, а в прошлом сотрудница ФБР Ингер Юханне Вик вместе с дочерьми Стиной и Линнеей хотят провести праздники в кругу семьи, но этому не суждено сбыться — Стина оказывается свидетельницей жестокого убийства местной телеведущей, но что хуже всего — убийца заметил ее. Однако Стина, будучи больной аутизмом, еще больше замыкается в себе и никому не рассказывает о том, что видела. Вскоре Ингер Юханне знакомится с Ингваром Нюманном из Национального бюро расследований, который предлагает ей вернуться в полицию — какое-то время назад Ингер ушла из ФБР, решив посвятить себя семье и написать парочку книг, но теперь ее знания и опыт снова могут пригодиться.",
  "iframe_url": "",
  "poster": "https://img.imgilall.me/movies/franchise/6/8/7/3/0/0/0/0/0/0/610x900_6873.jpg",
  "country": {
    "2": "Великобритания",
    "9": "Франция",
    "11": "Исландия",
    "20": "Германия",
    "25": "Дания",
    "28": "Швеция",
    "53": "Норвегия"
  },
  "collection": [],
  "genre": {
    "13": "Триллер",
    "10": "Зарубежный"
  },
  "director": [
    "Лиза Сиве",
    "Мани Масеррат Агах",
    "Håkan Lindhé"
  ],
  "screenwriter": [
    "Mai Brostrøm",
    "Peter Thorsboe",
    "Энн Холт"
  ],
  "producer": [
    "Йонас Аллен",
    "Петер Бозе",
    "Thomas Disch"
  ],
  "operator": [
    "Эрик Перссон",
    "Линда Вассберг",
    "Карл Сандберг"
  ],
  "composer": [
    "Якоб Грот"
  ],
  "design": [
    "Ульрика фон Вегезак",
    "Cian Bornebusch",
    "Цилла Рёгби"
  ],
  "editor": [
    "Роберт Норд",
    "Андерс Нюландер",
    "Михал Лещиловский"
  ],
  "actors": [
    "Мелинда Киннаман",
    "Хенрик Норлен",
    "Esmeralda Struwe",
    "Саймон Дж. Бергер",
    "Анника Халлин",
    "Герхард Хобберсторфен",
    "Лили Вальстин",
    "Грег Уайз",
    "Марек Оравек",
    "Самуэль Фрёлер"
  ],
  "actors_dubl": [],
  "trivia": [],
  "trailers": [],
  "seasons": [
    {
      "poster": "https://img.imgilall.me/movies/season/4/6/9/4/0/0/0/0/0/0/610x900_4694.jpg",
      "release_ru": "2015-09-24",
      "release_world": "2015-09-23",
      "availability": "2015-09-25",
      "iframe_url": "",
      "season": 1,
      "episodes": [
        {
          "episode": 1,
          "name": "Avsnitt 1",
          "iframe_url": "",
          "iframe_poster": null,
          "release_ru": "2015-09-24",
          "release_world": "2015-09-23",
          "availability": "2015-09-25",
          "voiceActing": [
            "ViruseProject"
          ],
          "ads": false,
          "subtitle": []
        },
        {
          "episode": 2,
          "name": "Avsnitt 2",
          "iframe_url": "",
          "iframe_poster": null,
          "release_ru": "2015-10-01",
          "release_world": "2015-09-30",
          "availability": "2015-10-02",
          "voiceActing": [
            "ViruseProject"
          ],
          "ads": false,
          "subtitle": []
        },
        {
          "episode": 3,
          "name": "Avsnitt 3",
          "iframe_url": "",
          "iframe_poster": null,
          "release_ru": "2015-10-08",
          "release_world": "2015-10-07",
          "availability": "2015-10-09",
          "voiceActing": [
            "ViruseProject"
          ],
          "ads": false,
          "subtitle": []
        },
        {
          "episode": 4,
          "name": "Avsnitt 4",
          "iframe_url": "",
          "iframe_poster": null,
          "release_ru": "2015-10-15",
          "release_world": "2015-10-14",
          "availability": "2015-10-16",
          "voiceActing": [
            "ViruseProject"
          ],
          "ads": false,
          "subtitle": []
        },
        {
          "episode": 5,
          "name": "Avsnitt 5",
          "iframe_url": "",
          "iframe_poster": null,
          "release_ru": "2015-10-22",
          "release_world": "2015-10-21",
          "availability": "2015-10-23",
          "voiceActing": [
            "ViruseProject"
          ],
          "ads": false,
          "subtitle": []
        },
        {
          "episode": 6,
          "name": "Avsnitt 6",
          "iframe_url": "",
          "iframe_poster": null,
          "release_ru": "2015-10-29",
          "release_world": "2015-10-28",
          "availability": "2015-10-30",
          "voiceActing": [
            "ViruseProject"
          ],
          "ads": false,
          "subtitle": []
        },
        {
          "episode": 7,
          "name": "Avsnitt 7",
          "iframe_url": "",
          "iframe_poster": null,
          "release_ru": "2015-11-05",
          "release_world": "2015-11-04",
          "availability": "2015-11-06",
          "voiceActing": [
            "ViruseProject"
          ],
          "ads": false,
          "subtitle": []
        },
        {
          "episode": 8,
          "name": "Avsnitt 8",
          "iframe_url": "",
          "iframe_poster": null,
          "release_ru": "2015-11-12",
          "release_world": "2015-11-11",
          "availability": "2015-11-13",
          "voiceActing": [
            "ViruseProject"
          ],
          "ads": false,
          "subtitle": []
        }
      ]
    },
    {
      "poster": "https://img.imgilall.me/movies/season/4/6/9/5/0/0/0/0/0/0/610x900_4695.jpg",
      "release_ru": "2017-11-03",
      "release_world": "2017-11-02",
      "availability": "2017-11-04",
      "iframe_url": "",
      "season": 2,
      "episodes": [
        {
          "episode": 1,
          "name": "Avsnitt 1",
          "iframe_url": "",
          "iframe_poster": null,
          "release_ru": "2017-11-03",
          "release_world": "2017-11-02",
          "availability": "2017-11-04",
          "voiceActing": [
            "ViruseProject",
            "Eng.Original"
          ],
          "ads": false,
          "subtitle": []
        },
        {
          "episode": 2,
          "name": "Avsnitt 2",
          "iframe_url": "",
          "iframe_poster": null,
          "release_ru": "2017-11-03",
          "release_world": "2017-11-02",
          "availability": "2017-11-04",
          "voiceActing": [
            "ViruseProject"
          ],
          "ads": false,
          "subtitle": []
        },
        {
          "episode": 3,
          "name": "Avsnitt 3",
          "iframe_url": "",
          "iframe_poster": null,
          "release_ru": "2017-11-10",
          "release_world": "2017-11-09",
          "availability": "2017-11-11",
          "voiceActing": [
            "ViruseProject"
          ],
          "ads": false,
          "subtitle": []
        },
        {
          "episode": 4,
          "name": "Avsnitt 4",
          "iframe_url": "",
          "iframe_poster": null,
          "release_ru": "2017-11-17",
          "release_world": "2017-11-16",
          "availability": "2017-11-18",
          "voiceActing": [
            "ViruseProject",
            "Eng.Original"
          ],
          "ads": false,
          "subtitle": []
        },
        {
          "episode": 5,
          "name": "Avsnitt 5",
          "iframe_url": "",
          "iframe_poster": null,
          "release_ru": "2017-11-24",
          "release_world": "2017-11-23",
          "availability": "2017-11-25",
          "voiceActing": [
            "ViruseProject",
            "Eng.Original"
          ],
          "ads": false,
          "subtitle": []
        },
        {
          "episode": 6,
          "name": "Avsnitt 6",
          "iframe_url": "",
          "iframe_poster": null,
          "release_ru": "2017-12-01",
          "release_world": "2017-11-30",
          "availability": "2017-12-02",
          "voiceActing": [
            "ViruseProject",
            "Eng.Original"
          ],
          "ads": false,
          "subtitle": []
        },
        {
          "episode": 7,
          "name": "Avsnitt 7",
          "iframe_url": "",
          "iframe_poster": null,
          "release_ru": "2017-12-08",
          "release_world": "2017-12-07",
          "availability": "2017-12-09",
          "voiceActing": [
            "Рус. Люб. двухголосый"
          ],
          "ads": false,
          "subtitle": []
        },
        {
          "episode": 8,
          "name": "Avsnitt 8",
          "iframe_url": "",
          "iframe_poster": null,
          "release_ru": "2017-12-15",
          "release_world": "2017-12-14",
          "availability": "2017-12-16",
          "voiceActing": [
            "Рус. Люб. двухголосый"
          ],
          "ads": false,
          "subtitle": []
        }
      ]
    }
  ],
  "voiceActing": [
    "ViruseProject",
    "Eng.Original",
    "Рус. Люб. двухголосый"
  ],
  "subtitle": [],
  "parts": []
}
