{
  "id": 7094,
  "name": "На войне",
  "name_eng": "En guerre",
  "year": 2018,
  "slogan": "—",
  "age": "16+",
  "type": "film",
  "quality": "HD (720p)",
  "imdb": "6.9",
  "imdb_id": "7555774",
  "kinopoisk": "5.9",
  "kinopoisk_id": "1099295",
  "world_art": null,
  "world_art_id": null,
  "time": "113 мин. / 01:53",
  "ads": true,
  "premier": "2018-05-15",
  "premier_rus": null,
  "availability": null,
  "activate_time": "2019-03-27 12:01:56",
  "budget": null,
  "fees_use": null,
  "fees_world": null,
  "fees_rus": null,
  "rate_mpaa": null,
  "description": "Начальство завода даёт обещание, что они сохранят 1100 работникам их законные рабочие места. Но внезапно ситуация меняется, и производство закрывается. Уволенные люди во главе с профсоюзным лидером Эриком Лораном вступают на тропу войны с директорами завода.",
  "iframe_url": "",
  "iframe_poster": "https://img.imgilall.me/movies/video/7/5/7/0/7/0/0/0/0/0/800x450_75707.jpeg",
  "poster": "https://img.imgilall.me/movies/franchise/7/0/9/4/0/0/0/0/0/0/610x900_7094.jpg",
  "country": {
    "9": "Франция"
  },
  "collection": [],
  "genre": {
    "10": "Зарубежный",
    "7": "Драма"
  },
  "director": [
    "Стефан Бризе"
  ],
  "screenwriter": [
    "Ralph Blindauer",
    "Стефан Бризе",
    "Оливье Горс"
  ],
  "producer": [
    "Филипп Боэффард",
    "Кристоф Россиньон",
    "Стефан Бризе"
  ],
  "operator": [
    "Эрик Дюмон"
  ],
  "composer": [
    "Bertrand Blessing"
  ],
  "design": [
    "Валери Сараджьян",
    "Лукас Вернье",
    "Энн Дансфорд"
  ],
  "editor": [
    "Мэтт Бюруа",
    "Энн Клотц"
  ],
  "actors": [
    "Венсан Линдон",
    "Mélanie Rover",
    "Jacques Borderie",
    "David Rey",
    "Olivier Lemaire",
    "Isabelle Rufin",
    "Bruno Bourthol",
    "Sébastien Vamelle",
    "Jean-Noel Tronc",
    "Валери Ламон"
  ],
  "actors_dubl": [],
  "trivia": [],
  "trailers": [],
  "seasons": [],
  "voiceActing": [
    "Рус. Люб. многоголосый"
  ],
  "subtitle": [],
  "parts": []
}
