{
  "id": 723,
  "name": "Жизнь Дэвида Гейла",
  "name_eng": "The Life of David Gale",
  "year": 2003,
  "slogan": "«Солгать всегда проще, чем сказать правду»",
  "age": "18+",
  "type": "film",
  "quality": "FHD (1080p)",
  "imdb": "7.5",
  "imdb_id": "0289992",
  "kinopoisk": "8.1",
  "kinopoisk_id": "738",
  "world_art": null,
  "world_art_id": null,
  "time": "130 мин. / 02:10",
  "ads": false,
  "premier": "2003-02-07",
  "premier_rus": "2003-07-17",
  "availability": null,
  "activate_time": "2018-06-28 12:13:14",
  "budget": "$38 000 000",
  "fees_use": "$19 955 598",
  "fees_world": "+ $19 000 000 = $38 955 598",
  "fees_rus": null,
  "rate_mpaa": "R",
  "description": "Дэвид Гейл - человек, который пробовал жить в соответствии со своими принципами, но, в причудливом повороте судьбы, этот преданный отец, популярный профессор и ярый противник смертной казни окажется в камере смертников за убийство активистки Констанции Харравей. За три дня до исполнения приговора Гейл соглашается дать интервью репортеру Битси Блум.Но журналистка вскоре понимает, что ее участие в этом деле не ограничится одним интервью и что жизнь человека находится в ее руках. Поставив на кон свою собственную безопасность, она начинает расследовать те ужасные события, которые окружали смерть Констанции.",
  "iframe_url": "",
  "iframe_poster": null,
  "poster": "https://img.imgilall.me/movies/franchise/7/2/3/0/0/0/0/0/0/0/610x900_723.jpg",
  "country": {
    "1": "США",
    "2": "Великобритания",
    "20": "Германия"
  },
  "collection": {
    "27": "Про жизнь",
    "14": "Для взрослых"
  },
  "genre": {
    "25": "Криминал",
    "13": "Триллер",
    "10": "Зарубежный",
    "7": "Драма"
  },
  "director": [
    "Алан Паркер"
  ],
  "screenwriter": [
    "Чарльз Рэндольф"
  ],
  "producer": [
    "Алан Паркер",
    "Николас Кейдж",
    "Мориц Борман"
  ],
  "operator": [
    "Майкл Серезин"
  ],
  "composer": [
    "Алекс Паркер",
    "Джейк Паркер"
  ],
  "design": [
    "Джеффри Керклэнд",
    "Стив Арнольд",
    "Дженнифер Уильямс"
  ],
  "editor": [
    "Джерри Хэмблинг"
  ],
  "actors": [
    "Кевин Спейси",
    "Кейт Уинслет",
    "Лора Линни",
    "Гэбриел Манн",
    "Мэтт Крэйвен",
    "Леон Риппи",
    "Мелисса Маккарти",
    "Рона Митра",
    "Элизабет Гэст",
    "Джим Бивер"
  ],
  "actors_dubl": [
    "Александр Рахленко",
    "Марианна Шульц",
    "Любовь Германова",
    "Алексей Иващенко",
    "Борис Токарев"
  ],
  "trivia": [
    "Алан Паркер рассматривал Джорджа Клуни и Николаса Кейджа в качестве претендентов на роль Гейла.",
    "В роли Битси Блум должна была сняться Николь Кидман, но актриса отказалась принять участие в фильме.",
    "Мэтт Крэвен, исполнитель роли Дасти Райта, лично управлял автомобилем во время сцены погони, не прибегая к помощи каскадера.",
    "В сцене последнего разговора с Битси Дэвид произносит ключевую фразу, которая в русской версии фильма звучит так: «Всё, что я могу сказать тебе, это что завтра в это же время я буду уже мертв. Я знаю когда, но не знаю, почему». На самом деле фраза звучит так: «All I can tell you is that by this time tomorrow I`ll be dead. I know when. I just cannot say why» (Я знаю когда, но не могу сказать, почему). За все время общения с Битси Дэвид ни разу прямо не сказал о своей невиновности или о том, что он не знает, как всё произошло на самом деле. Он всегда использует нейтральные фразы, упирая на то, что она (не он) должна узнать правду и очистить имя Дэвида для его сына. То есть Дэвид не пытался обмануть её, а лишь умалчивает правду. Неверный русский перевод ключевой фразы приводит к искаженному восприятию русскоязычной аудиторией мотивов главного героя."
  ],
  "trailers": [],
  "seasons": [],
  "voiceActing": [
    "R5",
    "Рус. Проф. многоголосый",
    "Рус. Люб. многоголосый",
    "C. Визгунов",
    "Ю. Живов",
    "Eng.Original"
  ],
  "subtitle": [
    "Рус. полные"
  ],
  "parts": []
}
