{
  "id": 7342,
  "name": "Кровь и сокровища",
  "name_eng": "Blood & Treasure",
  "year": 2019,
  "slogan": "—",
  "age": "16+",
  "type": "series",
  "quality": "HD (720p)",
  "imdb": "6.7",
  "imdb_id": "7712598",
  "kinopoisk": "6.3",
  "kinopoisk_id": "1127589",
  "world_art": null,
  "world_art_id": null,
  "time": "60 мин",
  "ads": false,
  "premier": "2019-05-21",
  "premier_rus": null,
  "availability": null,
  "serial_status": "online",
  "activate_time": "2019-04-03 16:43:34",
  "budget": null,
  "fees_use": null,
  "fees_world": null,
  "fees_rus": null,
  "rate_mpaa": null,
  "description": "Эксперт по античности Дэнни Макнамара и воровка произведений искусства Лекси объединяются, чтобы выследить и поймать террориста, который финансирует свою деятельность, продавая украденные исторические артефакты.",
  "iframe_url": "",
  "poster": "https://img.imgilall.me/movies/franchise/7/3/4/2/0/0/0/0/0/0/610x900_7342.jpg",
  "country": {
    "1": "США"
  },
  "collection": [],
  "genre": {
    "9": "Приключения",
    "17": "Боевик",
    "10": "Зарубежный"
  },
  "director": [
    "Стив Бойум",
    "Стивен Скайя",
    "Гай Норман Би"
  ],
  "screenwriter": [
    "Мэттью Федерман",
    "Стивен Скайя",
    "Кевин Чесли"
  ],
  "producer": [
    "Марта Фернандез",
    "Шон Канино",
    "Ирен Литинский"
  ],
  "operator": [
    "Энтони Вольберг",
    "Мишель Ст. Мартин",
    "Рональд Планте"
  ],
  "composer": [
    "Кайл Ньюмастер"
  ],
  "design": [
    "Гай Лаланд",
    "Роберто Карузо",
    "Дэвид Гоше"
  ],
  "editor": [
    "Саймон Уэбб",
    "Энни Илков",
    "Д. Джиллиан Трастер"
  ],
  "actors": [
    "Мэтт Барр",
    "София Пернас",
    "Джеймс Кэллис",
    "Катя Винтер",
    "Одед Фер",
    "Антонио Цупо",
    "Марк Джальярди",
    "Тони Нэш",
    "Майкл Джеймс Шоу",
    "Алисия Коппола"
  ],
  "actors_dubl": [],
  "trivia": [],
  "trailers": [
    {
      "name": "трейлер №1",
      "number": 1,
      "iframe_poster": null,
      "season": 1,
      "iframe_url": ""
    }
  ],
  "seasons": [
    {
      "poster": "https://img.imgilall.me/movies/season/5/0/3/0/0/0/0/0/0/0/610x900_5030.jpg",
      "release_ru": "2019-05-22",
      "release_world": "2019-05-21",
      "availability": "2019-05-23",
      "iframe_url": "",
      "season": 1,
      "episodes": [
        {
          "episode": "1-2",
          "name": "The Curse of Cleopatra – Part II",
          "iframe_url": "",
          "iframe_poster": "https://img.imgilall.me/movies/video/9/3/8/6/4/0/0/0/0/0/800x450_93864.jpeg",
          "release_ru": "2019-05-22",
          "release_world": "2019-05-21",
          "availability": "2019-05-23",
          "voiceActing": [
            "TUMBLER Studio",
            "Eng.Original"
          ],
          "ads": false,
          "subtitle": []
        },
        {
          "episode": 3,
          "name": "Code of the Hawaladar",
          "iframe_url": "",
          "iframe_poster": "https://img.imgilall.me/movies/video/9/7/1/2/8/0/0/0/0/0/800x450_97128.jpeg",
          "release_ru": "2019-05-29",
          "release_world": "2019-05-28",
          "availability": "2019-05-30",
          "voiceActing": [
            "TUMBLER Studio",
            "Eng.Original"
          ],
          "ads": false,
          "subtitle": []
        },
        {
          "episode": 4,
          "name": "The Secret of Macho Grande",
          "iframe_url": "",
          "iframe_poster": "https://img.imgilall.me/movies/video/9/7/1/2/9/0/0/0/0/0/800x450_97129.jpeg",
          "release_ru": "2019-06-05",
          "release_world": "2019-06-04",
          "availability": "2019-06-06",
          "voiceActing": [
            "TUMBLER Studio",
            "Eng.Original"
          ],
          "ads": false,
          "subtitle": []
        },
        {
          "episode": 5,
          "name": "The Brotherhood of Serapis",
          "iframe_url": "",
          "iframe_poster": "https://img.imgilall.me/movies/video/9/8/2/5/0/0/0/0/0/0/800x450_98250.jpeg",
          "release_ru": "2019-06-12",
          "release_world": "2019-06-11",
          "availability": "2019-06-13",
          "voiceActing": [
            "TUMBLER Studio",
            "Eng.Original"
          ],
          "ads": false,
          "subtitle": []
        },
        {
          "episode": 6,
          "name": "The Ghost Train of Sierra Perdida",
          "iframe_url": "",
          "iframe_poster": "https://img.imgilall.me/movies/video/9/9/8/4/7/0/0/0/0/0/800x450_99847.jpeg",
          "release_ru": "2019-06-19",
          "release_world": "2019-06-18",
          "availability": "2019-06-20",
          "voiceActing": [
            "TUMBLER Studio",
            "Eng.Original"
          ],
          "ads": false,
          "subtitle": []
        },
        {
          "episode": 7,
          "name": "Escape from Casablanca",
          "iframe_url": "",
          "iframe_poster": "https://img.imgilall.me/movies/video/9/9/8/4/8/0/0/0/0/0/800x450_99848.jpeg",
          "release_ru": "2019-06-26",
          "release_world": "2019-06-25",
          "availability": "2019-06-27",
          "voiceActing": [
            "TUMBLER Studio",
            "Eng.Original"
          ],
          "ads": false,
          "subtitle": []
        },
        {
          "episode": 8,
          "name": "The Lunchbox of Destiny",
          "iframe_url": "",
          "iframe_poster": "https://img.imgilall.me/movies/video/1/0/0/5/1/4/0/0/0/0/800x450_100514.jpeg",
          "release_ru": "2019-07-03",
          "release_world": "2019-07-02",
          "availability": "2019-07-04",
          "voiceActing": [
            "TUMBLER Studio",
            "Eng.Original"
          ],
          "ads": false,
          "subtitle": []
        },
        {
          "episode": 9,
          "name": "The Shadow of Projekt Athena",
          "iframe_url": "",
          "iframe_poster": "https://img.imgilall.me/movies/video/1/0/2/4/9/6/0/0/0/0/800x450_102496.jpeg",
          "release_ru": "2019-07-10",
          "release_world": "2019-07-09",
          "availability": "2019-07-11",
          "voiceActing": [
            "TUMBLER Studio",
            "Eng.Original"
          ],
          "ads": false,
          "subtitle": []
        },
        {
          "episode": 10,
          "name": "The Wages of Vengeance",
          "iframe_url": "",
          "iframe_poster": "https://img.imgilall.me/movies/video/1/0/5/1/4/1/0/0/0/0/800x450_105141.jpeg",
          "release_ru": "2019-07-17",
          "release_world": "2019-07-16",
          "availability": "2019-07-18",
          "voiceActing": [
            "TUMBLER Studio",
            "Eng.Original"
          ],
          "ads": false,
          "subtitle": []
        },
        {
          "episode": 11,
          "name": "Return of the Queen",
          "iframe_url": "",
          "iframe_poster": "https://img.imgilall.me/movies/video/1/0/6/4/3/0/0/0/0/0/800x450_106430.jpeg",
          "release_ru": "2019-07-24",
          "release_world": "2019-07-23",
          "availability": "2019-07-25",
          "voiceActing": [
            "TUMBLER Studio",
            "Eng.Original"
          ],
          "ads": false,
          "subtitle": []
        },
        {
          "episode": 12,
          "name": "Legacy of the Father",
          "iframe_url": "",
          "iframe_poster": "https://img.imgilall.me/movies/video/1/0/7/5/4/3/0/0/0/0/800x450_107543.jpeg",
          "release_ru": "2019-07-31",
          "release_world": "2019-07-30",
          "availability": "2019-08-01",
          "voiceActing": [
            "TUMBLER Studio",
            "Eng.Original"
          ],
          "ads": false,
          "subtitle": []
        },
        {
          "episode": 13,
          "name": "The Revenge of Farouk",
          "iframe_url": "",
          "iframe_poster": "https://img.imgilall.me/movies/video/1/0/9/3/1/3/0/0/0/0/800x450_109313.jpeg",
          "release_ru": "2019-08-07",
          "release_world": "2019-08-06",
          "availability": "2019-08-08",
          "voiceActing": [
            "TUMBLER Studio",
            "Eng.Original"
          ],
          "ads": false,
          "subtitle": []
        }
      ]
    }
  ],
  "voiceActing": [
    "TUMBLER Studio",
    "Eng.Original"
  ],
  "subtitle": [],
  "parts": []
}
