{
  "id": 7439,
  "name": "Пуанты для Плюшки",
  "name_eng": "",
  "year": 2016,
  "slogan": "—",
  "age": "12+",
  "type": "series",
  "quality": "HD (720p)",
  "imdb": null,
  "imdb_id": null,
  "kinopoisk": "6.2",
  "kinopoisk_id": "904911",
  "world_art": null,
  "world_art_id": null,
  "time": "—",
  "ads": false,
  "premier": "2016-03-19",
  "premier_rus": null,
  "availability": null,
  "serial_status": "offline",
  "activate_time": "2019-04-05 17:51:34",
  "budget": null,
  "fees_use": null,
  "fees_world": null,
  "fees_rus": null,
  "rate_mpaa": null,
  "description": "Несколько лет назад Наташа была балериной. Теперь же она весит больше 90 кг, а муж называет ее «Плюшкой», – как из-за лишнего веса, так и из-за пристрастия к сладостям «от Сергеича». Съедая любимую плюшку, она нет-нет да пожалуется нарисованному на упаковке «Сергеичу» на скучную работу, отсутствие детей, неработающего мужа. И Сергеич всегда ее понимает.После встречи с бывшей наставницей жизнь Наташи круто меняется – ей предлагают преподавать балет. После первого же занятия Наташа встречает настоящего Сергеича – он пришел за своей дочкой, которая занимается в ее группе. И скоро Наташа понимает, что это – настоящая любовь. Но что ей делать с мужем и планами завести ребенка, а также со своими комплексами и лишними килограммами?",
  "iframe_url": "",
  "poster": "https://img.imgilall.me/movies/franchise/7/4/3/9/0/0/0/0/0/0/610x900_7439.jpg",
  "country": {
    "5": "Россия"
  },
  "collection": [],
  "genre": {
    "22": "Русский",
    "8": "Мелодрама"
  },
  "director": [
    "Ангелина Никонова"
  ],
  "screenwriter": [
    "Екатерина Корчемкина",
    "Татьяна Новикова"
  ],
  "producer": [
    "Рубен Дишдишян",
    "Ирина Путятина",
    "Вазген Хачатрян"
  ],
  "operator": [
    "Виталий Коневцов"
  ],
  "composer": [
    "Игорь Бабаев"
  ],
  "design": [
    "Павел Романов"
  ],
  "editor": [],
  "actors": [
    "Дарья Калмыкова",
    "Олеся Железняк",
    "Ольга Дыховичная",
    "Сергей Фролов",
    "Михаил Богдасаров",
    "Ярослава Базаева",
    "Прохор Дубравин",
    "Анвер Ягудин",
    "Амина Хасанова",
    "Антон Васильев"
  ],
  "actors_dubl": [],
  "trivia": [],
  "trailers": [],
  "seasons": [
    {
      "poster": "https://img.imgilall.me/movies/season/5/0/8/8/0/0/0/0/0/0/610x900_5088.jpg",
      "release_ru": "2016-03-20",
      "release_world": "2016-03-19",
      "availability": "2016-03-21",
      "iframe_url": "",
      "season": 1,
      "episodes": [
        {
          "episode": 1,
          "name": null,
          "iframe_url": "",
          "iframe_poster": "https://img.imgilall.me/movies/video/7/9/7/3/3/0/0/0/0/0/800x450_79733.jpeg",
          "release_ru": "2016-03-20",
          "release_world": "2016-03-19",
          "availability": "2016-03-21",
          "voiceActing": [
            "Рус. Оригинальный"
          ],
          "ads": false,
          "subtitle": []
        },
        {
          "episode": 2,
          "name": null,
          "iframe_url": "",
          "iframe_poster": "https://img.imgilall.me/movies/video/7/9/7/3/4/0/0/0/0/0/800x450_79734.jpeg",
          "release_ru": "2016-03-20",
          "release_world": "2016-03-19",
          "availability": "2016-03-21",
          "voiceActing": [
            "Рус. Оригинальный"
          ],
          "ads": false,
          "subtitle": []
        },
        {
          "episode": 3,
          "name": null,
          "iframe_url": "",
          "iframe_poster": "https://img.imgilall.me/movies/video/7/9/7/3/5/0/0/0/0/0/800x450_79735.jpeg",
          "release_ru": "2016-03-20",
          "release_world": "2016-03-19",
          "availability": "2016-03-21",
          "voiceActing": [
            "Рус. Оригинальный"
          ],
          "ads": false,
          "subtitle": []
        },
        {
          "episode": 4,
          "name": null,
          "iframe_url": "",
          "iframe_poster": "https://img.imgilall.me/movies/video/7/9/7/3/6/0/0/0/0/0/800x450_79736.jpeg",
          "release_ru": "2016-03-20",
          "release_world": "2016-03-19",
          "availability": "2016-03-21",
          "voiceActing": [
            "Рус. Оригинальный"
          ],
          "ads": false,
          "subtitle": []
        }
      ]
    }
  ],
  "voiceActing": [
    "Рус. Оригинальный"
  ],
  "subtitle": [],
  "parts": []
}
