{
  "id": 7527,
  "name": "Максимилиан первый: игры престолов и любви",
  "name_eng": "Maximilian",
  "year": 2016,
  "slogan": "—",
  "age": "12+",
  "type": "series",
  "quality": "HD (720p)",
  "imdb": "7.5",
  "imdb_id": "5833846",
  "kinopoisk": "7.4",
  "kinopoisk_id": "1044208",
  "world_art": null,
  "world_art_id": null,
  "time": "275 мин. всего",
  "ads": true,
  "premier": "2016-12-12",
  "premier_rus": null,
  "availability": null,
  "serial_status": "offline",
  "activate_time": "2019-04-09 22:15:34",
  "budget": "€10 000 000",
  "fees_use": null,
  "fees_world": null,
  "fees_rus": null,
  "rate_mpaa": null,
  "description": "1477 год. Герцог Бургундский Карл Смелый погибает в битве при Нанси и оставляет своей наследницей единственную дочь Марию, которой кроме обширных владений достается противостояние с французским королем Людовиком, желающим прибрать к рукам богатое наследство. Единственный выход - найти могущественного союзника, которым и становится Максимилиан - сын императора Священной Римской империи Фридриха Третьего.",
  "iframe_url": "",
  "poster": "https://img.imgilall.me/movies/franchise/7/5/2/7/0/0/0/0/0/0/610x900_7527.jpg",
  "country": {
    "4": "Австралия"
  },
  "collection": [],
  "genre": {
    "28": "Исторический",
    "10": "Зарубежный",
    "7": "Драма"
  },
  "director": [
    "Андреас Прохаска"
  ],
  "screenwriter": [
    "Мартин Амброш"
  ],
  "producer": [
    "Оливер Оспитц",
    "Вики Треппер",
    "Эстер Туран"
  ],
  "operator": [
    "Томас В. Киннаст"
  ],
  "composer": [
    "Матиас Вебер"
  ],
  "design": [
    "Бертрам Рейтер",
    "Гизела Хессер",
    "Томас Ола"
  ],
  "editor": [
    "Аларих Ленц",
    "Дэниэл Прохазка"
  ],
  "actors": [
    "Криста Тере",
    "Яннис Нивёнер",
    "Аликс Пуасон",
    "Жан-Юг Англад",
    "Miriam Fussenegger",
    "Стефан Пол",
    "Николас Ваншицкий",
    "Андре Пенверн",
    "Сильви Тестю",
    "Рафаэль Ленгле"
  ],
  "actors_dubl": [],
  "trivia": [],
  "trailers": [],
  "seasons": [
    {
      "poster": "https://img.imgilall.me/movies/season/5/1/1/7/0/0/0/0/0/0/610x900_5117.jpg",
      "release_ru": "2016-12-13",
      "release_world": "2016-12-12",
      "availability": "2016-12-14",
      "iframe_url": "",
      "season": 1,
      "episodes": [
        {
          "episode": 1,
          "name": "Part 1",
          "iframe_url": "",
          "iframe_poster": "https://img.imgilall.me/movies/video/8/0/3/0/1/0/0/0/0/0/800x450_80301.jpeg",
          "release_ru": "2016-12-13",
          "release_world": "2016-12-12",
          "availability": "2016-12-14",
          "voiceActing": [
            "ViruseProject"
          ],
          "ads": true,
          "subtitle": []
        },
        {
          "episode": 2,
          "name": "Part 2",
          "iframe_url": "",
          "iframe_poster": "https://img.imgilall.me/movies/video/8/0/3/0/2/0/0/0/0/0/800x450_80302.jpeg",
          "release_ru": "2017-03-03",
          "release_world": "2017-03-02",
          "availability": "2017-03-04",
          "voiceActing": [
            "ViruseProject"
          ],
          "ads": true,
          "subtitle": []
        },
        {
          "episode": 3,
          "name": "Part 3",
          "iframe_url": "",
          "iframe_poster": "https://img.imgilall.me/movies/video/1/1/1/9/4/2/0/0/0/0/800x450_111942.jpeg",
          "release_ru": "2017-03-04",
          "release_world": "2017-03-03",
          "availability": "2017-03-05",
          "voiceActing": [
            "ViruseProject"
          ],
          "ads": true,
          "subtitle": []
        }
      ]
    }
  ],
  "voiceActing": [
    "ViruseProject"
  ],
  "subtitle": [],
  "parts": []
}
