{
  "id": 759,
  "name": "Волшебная сила",
  "name_eng": "",
  "year": 1970,
  "slogan": "—",
  "age": "0+",
  "type": "film",
  "quality": "SD",
  "imdb": "7.4",
  "imdb_id": "0334650",
  "kinopoisk": "8.0",
  "kinopoisk_id": "85188",
  "world_art": null,
  "world_art_id": null,
  "time": "64 мин. / 01:04",
  "ads": false,
  "premier": null,
  "premier_rus": null,
  "availability": null,
  "activate_time": "2018-07-04 10:43:23",
  "budget": null,
  "fees_use": null,
  "fees_world": null,
  "fees_rus": null,
  "rate_mpaa": null,
  "description": "Фильм состоит из 3-х новелл. Первая о том, как второклассники помогали «неуловимым мстителям» разбить «белых», вторая — о первой любви семиклассников, их переписке с помощью фраз из «Евгения Онегина».Но самая знаменитая новелла — заглавная. Бывший ученик помогает старушке — учительнице перевоспитать хамов — соседей по коммуналке.",
  "iframe_url": "",
  "iframe_poster": null,
  "poster": "https://img.imgilall.me/movies/franchise/7/5/9/0/0/0/0/0/0/0/610x900_759.jpg",
  "country": {
    "24": "СССР"
  },
  "collection": {
    "46": "Советские"
  },
  "genre": {
    "38": "Мюзикл",
    "33": "Семейный",
    "22": "Русский",
    "19": "Комедия"
  },
  "director": [
    "Наум Бирман"
  ],
  "screenwriter": [
    "Виктор Драгунский"
  ],
  "producer": [],
  "operator": [
    "Александр Чиров"
  ],
  "composer": [
    "Александр Колкер"
  ],
  "design": [
    "Алексей Федоров",
    "Алексей Федотов"
  ],
  "editor": [
    "Мария Пен"
  ],
  "actors": [
    "Людмила Сенчина",
    "Николай Трофимов",
    "Константин Ценкаев",
    "Нина Ургант",
    "Татьяна Доронина",
    "Игорь Королев",
    "Аркадий Райкин",
    "Людмила Васютинская",
    "Павел Панков",
    "Анна Лисянская"
  ],
  "actors_dubl": [],
  "trivia": [],
  "trailers": [],
  "seasons": [],
  "voiceActing": [
    "Original"
  ],
  "subtitle": [],
  "parts": []
}
