{
  "id": 7628,
  "name": "Десять Маленьких Петушат",
  "name_eng": "Ten Little Roosters",
  "year": 2014,
  "slogan": null,
  "age": "16+",
  "type": "series",
  "quality": "HD (720p)",
  "imdb": "8.3",
  "imdb_id": "4176650",
  "kinopoisk": null,
  "kinopoisk_id": null,
  "world_art": null,
  "world_art_id": null,
  "time": null,
  "ads": false,
  "premier": "2014-11-04",
  "premier_rus": "2014-11-05",
  "availability": "2014-11-06",
  "serial_status": "offline",
  "activate_time": "2019-04-11 17:51:30",
  "budget": null,
  "fees_use": null,
  "fees_world": null,
  "fees_rus": null,
  "rate_mpaa": null,
  "description": null,
  "iframe_url": "",
  "poster": "https://img.imgilall.me/movies/franchise/7/6/2/8/0/0/0/0/0/0/610x900_7628.jpg",
  "country": {
    "1": "США"
  },
  "collection": [],
  "genre": {
    "19": "Комедия",
    "13": "Триллер",
    "10": "Зарубежный"
  },
  "director": [],
  "screenwriter": [],
  "producer": [],
  "operator": [],
  "composer": [],
  "design": [],
  "editor": [],
  "actors": [],
  "actors_dubl": [],
  "trivia": [],
  "trailers": [],
  "seasons": [
    {
      "poster": "https://img.imgilall.me/movies/season/5/1/7/6/0/0/0/0/0/0/610x900_5176.jpg",
      "release_ru": "2014-11-05",
      "release_world": "2014-11-04",
      "availability": "2014-11-06",
      "iframe_url": "",
      "season": 1,
      "episodes": [
        {
          "episode": 1,
          "name": "And Then There Were Nine",
          "iframe_url": "",
          "iframe_poster": "https://img.imgilall.me/movies/video/8/1/5/3/3/0/0/0/0/0/800x450_81533.jpeg",
          "release_ru": "2014-11-05",
          "release_world": "2014-11-04",
          "availability": "2014-11-06",
          "voiceActing": [
            "NewStation",
            "Eng.Original"
          ],
          "ads": false,
          "subtitle": []
        },
        {
          "episode": 2,
          "name": "And Then There Were Eight",
          "iframe_url": "",
          "iframe_poster": "https://img.imgilall.me/movies/video/8/1/5/3/2/0/0/0/0/0/800x450_81532.jpeg",
          "release_ru": "2014-11-12",
          "release_world": "2014-11-11",
          "availability": "2014-11-13",
          "voiceActing": [
            "NewStation",
            "Eng.Original"
          ],
          "ads": false,
          "subtitle": []
        },
        {
          "episode": 3,
          "name": "And Then There Were Seven",
          "iframe_url": "",
          "iframe_poster": "https://img.imgilall.me/movies/video/8/1/5/3/4/0/0/0/0/0/800x450_81534.jpeg",
          "release_ru": "2014-11-19",
          "release_world": "2014-11-18",
          "availability": "2014-11-20",
          "voiceActing": [
            "NewStation",
            "Eng.Original"
          ],
          "ads": false,
          "subtitle": []
        },
        {
          "episode": 4,
          "name": "And Then There Were Six",
          "iframe_url": "",
          "iframe_poster": "https://img.imgilall.me/movies/video/8/1/5/3/1/0/0/0/0/0/800x450_81531.jpeg",
          "release_ru": "2014-11-26",
          "release_world": "2014-11-25",
          "availability": "2014-11-27",
          "voiceActing": [
            "NewStation",
            "Eng.Original"
          ],
          "ads": false,
          "subtitle": []
        },
        {
          "episode": 5,
          "name": "And Then There Were Five",
          "iframe_url": "",
          "iframe_poster": "https://img.imgilall.me/movies/video/8/1/5/3/6/0/0/0/0/0/800x450_81536.jpeg",
          "release_ru": "2014-12-03",
          "release_world": "2014-12-02",
          "availability": "2014-12-04",
          "voiceActing": [
            "NewStation",
            "Eng.Original"
          ],
          "ads": false,
          "subtitle": []
        },
        {
          "episode": 6,
          "name": "And Then There Were Four",
          "iframe_url": "",
          "iframe_poster": "https://img.imgilall.me/movies/video/8/1/5/3/5/0/0/0/0/0/800x450_81535.jpeg",
          "release_ru": "2014-12-10",
          "release_world": "2014-12-09",
          "availability": "2014-12-11",
          "voiceActing": [
            "NewStation",
            "Eng.Original"
          ],
          "ads": false,
          "subtitle": []
        },
        {
          "episode": 7,
          "name": "And Then There Were Three",
          "iframe_url": "",
          "iframe_poster": "https://img.imgilall.me/movies/video/8/1/5/3/0/0/0/0/0/0/800x450_81530.jpeg",
          "release_ru": "2014-12-17",
          "release_world": "2014-12-16",
          "availability": "2014-12-18",
          "voiceActing": [
            "NewStation",
            "Eng.Original"
          ],
          "ads": false,
          "subtitle": []
        },
        {
          "episode": 8,
          "name": "And Then There Were Two & One",
          "iframe_url": "",
          "iframe_poster": "https://img.imgilall.me/movies/video/8/1/5/3/7/0/0/0/0/0/800x450_81537.jpeg",
          "release_ru": "2014-12-24",
          "release_world": "2014-12-23",
          "availability": "2014-12-25",
          "voiceActing": [
            "NewStation",
            "Eng.Original"
          ],
          "ads": false,
          "subtitle": []
        }
      ]
    }
  ],
  "voiceActing": [
    "NewStation",
    "Eng.Original"
  ],
  "subtitle": [],
  "parts": []
}
