{
  "id": 784,
  "name": "Мачеха",
  "name_eng": "Stepmom",
  "year": 1998,
  "slogan": "«Be there for the joy. Be there for the tears. Be there for each other»",
  "age": "12+",
  "type": "film",
  "quality": "FHD (1080p)",
  "imdb": "6.8",
  "imdb_id": "0120686",
  "kinopoisk": "8.0",
  "kinopoisk_id": "1949",
  "world_art": null,
  "world_art_id": null,
  "time": "120 мин. / 02:00",
  "ads": false,
  "premier": "1998-12-15",
  "premier_rus": "1999-02-18",
  "availability": null,
  "activate_time": "2018-07-04 11:54:34",
  "budget": "$50 000 000",
  "fees_use": "$91 137 662",
  "fees_world": "+ $68 573 131 = $159 710 793",
  "fees_rus": null,
  "rate_mpaa": "PG-13",
  "description": "Семейные узы настолько тесно сближают людей, что рано или поздно кто-то оказывается лишним. И в жизни двенадцатилетней Анны и шестилетнего Бена появилась Изабель, любовница их разведенного отца. Она делает все возможное, чтобы завоевать любовь чужих детей. Но Джеки, их настоящая мать, использует весь свой авторитет и влияние, чтобы этого не допустить.Голос крови оказывается сильнее доброты и обаяния Изабель. Она хотела стать для Анны и Бена искренним другом, но так и осталась мачехой. Однако в тот момент, когда Джеки добилась желаемого, неожиданно выясняется, что она смертельно больна. И вот Изабель, с которой заботливая мать не мыслила жизни своих детей, оказывается тем единственным человеком, без которого их жизнь немыслима...",
  "iframe_url": "",
  "iframe_poster": null,
  "poster": "https://img.imgilall.me/movies/franchise/7/8/4/0/0/0/0/0/0/0/610x900_784.jpg",
  "country": {
    "1": "США"
  },
  "collection": {
    "77": "Лучшие фильмы 20 века",
    "11": "Для женщин"
  },
  "genre": {
    "19": "Комедия",
    "10": "Зарубежный",
    "7": "Драма"
  },
  "director": [
    "Крис Коламбус"
  ],
  "screenwriter": [
    "Джиджи Леванджи",
    "Джесси Нельсон",
    "Стивен Роджерс"
  ],
  "producer": [
    "Майкл Барнатан",
    "Крис Коламбус",
    "Венди Файнерман"
  ],
  "operator": [
    "Дональд МакЭлпайн"
  ],
  "composer": [
    "Джон Уильямс"
  ],
  "design": [
    "Стюарт Вурцель",
    "Рэй Клуга",
    "Джозеф Дж. Олиси"
  ],
  "editor": [
    "Нил Трэвис"
  ],
  "actors": [
    "Джулия Робертс",
    "Сьюзен Сарандон",
    "Эд Харрис",
    "Джена Мэлоун",
    "Лиам Эйкен",
    "Линн Уитфилд",
    "Даррел Ларсон",
    "Мэри Луиза Уилсон",
    "Андре Б. Блейк",
    "Джек Эгил"
  ],
  "actors_dubl": [
    "Светлана Шейченко",
    "Галина Чигинская",
    "Владимир Летенков",
    "Игорь Семенов",
    "Елена Ставрогина"
  ],
  "trivia": [
    "Отклонённые названия фильма: «Доброй ночи, Луна» («Goodnight Moon»), «Обещания держат» («Promises Kept»), «Увидимся в моих снах» («See You in My Dreams») и «Всегда, Всегда» («Always, Always»).",
    "Фильм был посвящен памяти Ирен Коламбус, матери режиссёра Криса Коламбуса, которая умерла от рака за год до выхода фильма.",
    "Песня, которую Изабел (Julia Roberts) поёт Бену (Liam Aiken) в больнице, называется «If I Needed You». Она была написана бывшим мужем Робертс Лайлом Лаветтом (Lyle Lovett) и вошла в его альбом «Step Inside This House» (1998).",
    "Дочь Криса Коламбуса, Элеонор Коламбус играет эпизодическую роль маленькой девочки в классе балета (но в титрах не указана).",
    "Патрик Дойл (Patrick Doyle) написал саундтрек к фильму, который был отклонен.",
    "Это был первый театральный фильм премьера телевизионной сети WB.",
    "Фильм известен во всем мире под многочисленными альтернативными названиями. Например: «Будьте на моей стороне» («Stay to My Side») (Испания), «Мой лучший враг» («My Best Enemy») (Франция), и «Бок о Бок» («Side by Side») (Португалия, Германия)."
  ],
  "trailers": [],
  "seasons": [],
  "voiceActing": [
    "Рус. Дублированный",
    "Рус. Проф. двухголосый",
    "Ю. Живов",
    "Eng.Original"
  ],
  "subtitle": [
    "Рус. полные"
  ],
  "parts": []
}
