{
  "id": 8049,
  "name": "Что/если",
  "name_eng": "What/If",
  "year": 2019,
  "slogan": "«Fate is a Lie. There is Only Choice»",
  "age": "12+",
  "type": "series",
  "quality": "HD (720p)",
  "imdb": "6.3",
  "imdb_id": "8860450",
  "kinopoisk": "6.4",
  "kinopoisk_id": "1187937",
  "world_art": null,
  "world_art_id": null,
  "time": "55 мин",
  "ads": false,
  "premier": "2019-05-24",
  "premier_rus": "2019-05-25",
  "availability": "2019-05-26",
  "serial_status": "paused",
  "activate_time": "2019-04-24 15:25:11",
  "budget": null,
  "fees_use": null,
  "fees_world": null,
  "fees_rus": null,
  "rate_mpaa": null,
  "description": "Состоятельная немолодая женщина Анна делает паре молодоженов из Сан-Франциско, отчаянно нуждающихся в деньгах, крайне рискованное предложение. За их согласием следует целая вереница событий, которая приводит к самым неожиданным результатам. В центре событий оказываются не только главные герои, но и их близкие люди, друзья и коллеги.Анна мастерски манипулирует людьми, и в итоге изначально положительные герои совершают некрасивые, а порой и подлые поступки.",
  "iframe_url": "",
  "poster": "https://img.imgilall.me/movies/franchise/8/0/4/9/0/0/0/0/0/0/610x900_8049.jpg",
  "country": {
    "1": "США"
  },
  "collection": [],
  "genre": {
    "13": "Триллер",
    "10": "Зарубежный"
  },
  "director": [
    "Филлип Нойс",
    "Джессика Борсицки",
    "Фернандо Коимбра"
  ],
  "screenwriter": [
    "Майк Келли",
    "Бренна Коуф",
    "Дэвид Грациано"
  ],
  "producer": [
    "Robert Amidon",
    "Элизабет Бенжамин",
    "Elsa Boccuzzi"
  ],
  "operator": [
    "Джеффри С. Майгатт"
  ],
  "composer": [
    "Филь Эйслер"
  ],
  "design": [
    "Л.Дж. Ходишелл",
    "Брайан Джуэлл",
    "Шон Холли Куксон"
  ],
  "editor": [
    "Адам Блюминг",
    "Грег Бэйбор",
    "Марк С. Манос"
  ],
  "actors": [
    "Джейн Леви",
    "Блейк Дженнер",
    "Кит Пауэрс",
    "Саманта Мари Уэр",
    "Хуан Кастано",
    "Рене Зеллвегер",
    "Дэйв Эннэйбл",
    "Саамер Усмани",
    "Луис Хертэм",
    "Даниэлла Пинеда"
  ],
  "actors_dubl": [
    "Анна Киселёва",
    "Олег Новиков",
    "Александр Арзин",
    "Юлия Горохова",
    "Антон Колесников"
  ],
  "trivia": [],
  "trailers": [
    {
      "name": "трейлер №1",
      "number": 1,
      "iframe_poster": "https://img.imgilall.me/movies/trailer/6/0/3/0/0/0/0/0/0/0/800x450_603.jpeg",
      "season": 1,
      "iframe_url": ""
    },
    {
      "name": "трейлер №1",
      "number": 1,
      "iframe_poster": "https://img.imgilall.me/movies/trailer/4/9/8/0/0/0/0/0/0/0/800x450_498.jpeg",
      "season": 1,
      "iframe_url": ""
    }
  ],
  "seasons": [
    {
      "poster": "https://img.imgilall.me/movies/season/5/3/9/8/0/0/0/0/0/0/610x900_5398.jpg",
      "release_ru": "2019-05-25",
      "release_world": "2019-05-24",
      "availability": "2019-05-26",
      "iframe_url": "",
      "season": 1,
      "episodes": [
        {
          "episode": 1,
          "name": "Pilot",
          "iframe_url": "",
          "iframe_poster": "https://img.imgilall.me/movies/video/9/3/7/3/7/0/0/0/0/0/800x450_93737.jpeg",
          "release_ru": "2019-05-25",
          "release_world": "2019-05-24",
          "availability": "2019-05-26",
          "voiceActing": [
            "SDI Media",
            "Eng.Original"
          ],
          "ads": false,
          "subtitle": []
        },
        {
          "episode": 2,
          "name": "What Now",
          "iframe_url": "",
          "iframe_poster": "https://img.imgilall.me/movies/video/9/3/7/3/8/0/0/0/0/0/800x450_93738.jpeg",
          "release_ru": "2019-05-25",
          "release_world": "2019-05-24",
          "availability": "2019-05-26",
          "voiceActing": [
            "SDI Media",
            "Eng.Original"
          ],
          "ads": false,
          "subtitle": []
        },
        {
          "episode": 3,
          "name": "What Happened",
          "iframe_url": "",
          "iframe_poster": "https://img.imgilall.me/movies/video/9/3/7/3/9/0/0/0/0/0/800x450_93739.jpeg",
          "release_ru": "2019-05-25",
          "release_world": "2019-05-24",
          "availability": "2019-05-26",
          "voiceActing": [
            "SDI Media",
            "Eng.Original"
          ],
          "ads": false,
          "subtitle": []
        },
        {
          "episode": 4,
          "name": "What Drama",
          "iframe_url": "",
          "iframe_poster": "https://img.imgilall.me/movies/video/9/3/7/4/0/0/0/0/0/0/800x450_93740.jpeg",
          "release_ru": "2019-05-25",
          "release_world": "2019-05-24",
          "availability": "2019-05-26",
          "voiceActing": [
            "SDI Media",
            "Eng.Original"
          ],
          "ads": false,
          "subtitle": []
        },
        {
          "episode": 5,
          "name": "What Next",
          "iframe_url": "",
          "iframe_poster": "https://img.imgilall.me/movies/video/9/3/7/4/1/0/0/0/0/0/800x450_93741.jpeg",
          "release_ru": "2019-05-25",
          "release_world": "2019-05-24",
          "availability": "2019-05-26",
          "voiceActing": [
            "SDI Media",
            "Eng.Original"
          ],
          "ads": false,
          "subtitle": []
        },
        {
          "episode": 6,
          "name": "What History",
          "iframe_url": "",
          "iframe_poster": "https://img.imgilall.me/movies/video/9/3/7/4/2/0/0/0/0/0/800x450_93742.jpeg",
          "release_ru": "2019-05-25",
          "release_world": "2019-05-24",
          "availability": "2019-05-26",
          "voiceActing": [
            "SDI Media",
            "Eng.Original"
          ],
          "ads": false,
          "subtitle": []
        },
        {
          "episode": 7,
          "name": "What Ghosts",
          "iframe_url": "",
          "iframe_poster": "https://img.imgilall.me/movies/video/9/3/7/4/3/0/0/0/0/0/800x450_93743.jpeg",
          "release_ru": "2019-05-25",
          "release_world": "2019-05-24",
          "availability": "2019-05-26",
          "voiceActing": [
            "SDI Media",
            "Eng.Original"
          ],
          "ads": false,
          "subtitle": []
        },
        {
          "episode": 8,
          "name": "What Secrets",
          "iframe_url": "",
          "iframe_poster": "https://img.imgilall.me/movies/video/9/3/7/4/4/0/0/0/0/0/800x450_93744.jpeg",
          "release_ru": "2019-05-25",
          "release_world": "2019-05-24",
          "availability": "2019-05-26",
          "voiceActing": [
            "SDI Media",
            "Eng.Original"
          ],
          "ads": false,
          "subtitle": []
        },
        {
          "episode": 9,
          "name": "WTF",
          "iframe_url": "",
          "iframe_poster": "https://img.imgilall.me/movies/video/9/3/7/4/5/0/0/0/0/0/800x450_93745.jpeg",
          "release_ru": "2019-05-25",
          "release_world": "2019-05-24",
          "availability": "2019-05-26",
          "voiceActing": [
            "SDI Media",
            "Eng.Original"
          ],
          "ads": false,
          "subtitle": []
        },
        {
          "episode": 10,
          "name": "What Remains",
          "iframe_url": "",
          "iframe_poster": "https://img.imgilall.me/movies/video/9/3/7/4/6/0/0/0/0/0/800x450_93746.jpeg",
          "release_ru": "2019-05-25",
          "release_world": "2019-05-24",
          "availability": "2019-05-26",
          "voiceActing": [
            "SDI Media",
            "Eng.Original"
          ],
          "ads": false,
          "subtitle": []
        }
      ]
    }
  ],
  "voiceActing": [
    "SDI Media",
    "Eng.Original"
  ],
  "subtitle": [],
  "parts": []
}
