{
  "id": 812,
  "name": "Орел и решка",
  "name_eng": "",
  "year": 1995,
  "slogan": null,
  "age": "12+",
  "type": "film",
  "quality": "SD",
  "imdb": "7.0",
  "imdb_id": "0114054",
  "kinopoisk": "7.8",
  "kinopoisk_id": "40866",
  "world_art": null,
  "world_art_id": null,
  "time": "82 мин. / 01:22",
  "ads": false,
  "premier": null,
  "premier_rus": "1995-11-03",
  "availability": null,
  "activate_time": "2018-07-04 12:49:47",
  "budget": null,
  "fees_use": null,
  "fees_world": null,
  "fees_rus": null,
  "rate_mpaa": null,
  "description": "Получив письмо о том, что его невеста вышла замуж, Олег возвращается с нефтепромыслов в Москву. Желая отвоевать Лену обратно, Олег устраивается к ней на работу. Его знакомый Гоша оставляет ему на попечение квартиру. Олег неожиданно увлекается Зиной и сопровождает ее в Сочи, но узнав о том, что Лена попала в больницу, возвращается в Москву.",
  "iframe_url": "",
  "iframe_poster": null,
  "poster": "https://img.imgilall.me/movies/franchise/8/1/2/0/0/0/0/0/0/0/610x900_812.jpg",
  "country": {
    "5": "Россия"
  },
  "collection": {
    "11": "Для женщин"
  },
  "genre": {
    "22": "Русский",
    "19": "Комедия",
    "8": "Мелодрама"
  },
  "director": [
    "Георгий Данелия"
  ],
  "screenwriter": [
    "Георгий Данелия",
    "Сергей Дернов",
    "Владимир Маканин"
  ],
  "producer": [
    "Владимир Чудовский",
    "Юрий Кушнерев"
  ],
  "operator": [
    "Геннадий Карюк"
  ],
  "composer": [
    "Гия Канчели"
  ],
  "design": [
    "Юрий Кладиенко"
  ],
  "editor": [
    "Елена Тараскина"
  ],
  "actors": [
    "Кирилл Пирогов",
    "Полина Кутепова",
    "Станислав Говорухин",
    "Леонид Ярмольник",
    "Иван Рыжов",
    "Олег Басилашвили",
    "Сергей Швыдкой",
    "Геннадий Назаров",
    "Наталья Рассиева",
    "Ольга Машная"
  ],
  "actors_dubl": [
    "Дмитрий Матвеев",
    "Наталья Гурзо"
  ],
  "trivia": [],
  "trailers": [],
  "seasons": [],
  "voiceActing": [
    "Рус. Оригинальный"
  ],
  "subtitle": [],
  "parts": []
}
