{
  "id": 8156,
  "name": "Огнем и мечом",
  "name_eng": "Ogniem i mieczem",
  "year": 1999,
  "slogan": "«Based on a novel by Henryk Sienkiewicz»",
  "age": "16+",
  "type": "film",
  "quality": "HD (720p)",
  "imdb": "7.0",
  "imdb_id": "0128378",
  "kinopoisk": "7.9",
  "kinopoisk_id": "33444",
  "world_art": null,
  "world_art_id": null,
  "time": "204 мин. / 03:24",
  "ads": false,
  "premier": "1999-02-08",
  "premier_rus": "2000-03-14",
  "availability": null,
  "activate_time": "2019-04-25 17:45:43",
  "budget": "$8 000 000",
  "fees_use": null,
  "fees_world": null,
  "fees_rus": null,
  "rate_mpaa": null,
  "description": "XVII век. Речь Посполита объята огнем, спровоцированным ссорой православного полковника Богдана Хмельницкого с паном Чаплинским, который запорол насмерть сына полковника. Оскорбленный Хмельницкий поднял Запорожскую Сечь, призвал крымских татар под предводительством Туган-бея, разбил войска короля Владислава.На фоне диких грабежей, погромов, грандиозных батальных сцен благородный шляхтич Скшетуский и жестокий казацкий атаман Богун добиваются любви красавицы-полячки…",
  "iframe_url": "",
  "iframe_poster": "https://img.imgilall.me/movies/video/8/7/3/1/8/0/0/0/0/0/800x450_87318.jpeg",
  "poster": "https://img.imgilall.me/movies/franchise/8/1/5/6/0/0/0/0/0/0/610x900_8156.jpg",
  "country": {
    "14": "Польша"
  },
  "collection": [],
  "genre": {
    "9": "Приключения",
    "28": "Исторический",
    "10": "Зарубежный",
    "7": "Драма"
  },
  "director": [
    "Ежи Гоффман"
  ],
  "screenwriter": [
    "Ежи Гоффман",
    "Анджей Краковски",
    "Хенрик Сенкевич"
  ],
  "producer": [
    "Ежи Фриковски",
    "Ежи Гоффман",
    "Ежи Р. Михалюк"
  ],
  "operator": [
    "Гжегож Кендзерский"
  ],
  "composer": [
    "Кшесимир Дембский"
  ],
  "design": [
    "Анджей Галински",
    "Магдалена Бьернавска-Теславска",
    "Павел Грабарчик"
  ],
  "editor": [
    "Марцин Кот Башковски",
    "Цезари Гришук"
  ],
  "actors": [
    "Михал Жебровский",
    "Александр Домогаров",
    "Изабелла Скорупко",
    "Кшиштоф Ковалевский",
    "Богдан Ступка",
    "Анджей Северин",
    "Збигнев Замаховский",
    "Виктор Зборовский",
    "Войчех Малайкат",
    "Эва Висьневска"
  ],
  "actors_dubl": [],
  "trivia": [
    "Фильм снят по мотивам романа Хенрика Сенкевича «Огнем и мечом» (Ogniem i mieczem, 1884).",
    "Премьера телеверсии (4 серии почти по часу) состоялась 14 апреля 2001 года.",
    "Пожилой Даниэль Ольбрыхский исполняет в фильме роль крымского полководца Тугай Бея. В фильме «Пан Володыевский» (1969) он же сыграл сына Тугай Бея, Азию Тугайбеевича.",
    "Музыкальная тема польских войск и финальная — песня «Гэй, соколы».",
    "В сцене переправы через реку пан Заглоба, переодетый в странствующего лирника, исполняет песню, «Наливаймо, браття». Это явный анахронизм, так как сама песня появилась в 1960-е года и принадлежит перу Вадима Крищенко (слова) и Виктора Лисовола (музыка). Тем не менее, из-за её популярности Ежи Гоффман посчитал песню народной и использовал в фильме, даже не подозревая о том, что могут быть затронуты авторские права. Авторы же, в свою очередь, были только рады такому повороту событий и никаких жалоб не подавали.",
    "В начале 3-й серии можно заметить, что пехотинцы Польши вооружены винтовками Мосина."
  ],
  "trailers": [],
  "seasons": [],
  "voiceActing": [
    "Рус. Проф. многоголосый",
    "Укр. Проф. багатоголосий"
  ],
  "subtitle": [],
  "parts": []
}
