{
  "id": 82,
  "name": "Оно",
  "name_eng": "It",
  "year": 2017,
  "slogan": "«А чего боишься ты?»",
  "age": "18+",
  "type": "film",
  "quality": "FHD (1080p)",
  "imdb": "7.3",
  "imdb_id": "1396484",
  "kinopoisk": "7.3",
  "kinopoisk_id": "453397",
  "world_art": null,
  "world_art_id": null,
  "time": "135 мин. / 02:15",
  "ads": false,
  "premier": "2017-09-05",
  "premier_rus": "2017-09-07",
  "availability": null,
  "activate_time": "2018-05-28 14:02:42",
  "budget": "$35 000 000",
  "fees_use": "$327 481 748",
  "fees_world": "$700 381 748",
  "fees_rus": "$18 644 099",
  "rate_mpaa": "R",
  "description": "Когда в городке Дерри штата Мэн начинают пропадать дети, несколько ребят сталкиваются со своими величайшими страхами — не только с группой школьных хулиганов, но со злобным клоуном Пеннивайзом, чьи проявления жестокости и список жертв уходят в глубь веков.",
  "iframe_url": "",
  "iframe_poster": null,
  "poster": "https://img.imgilall.me/movies/franchise/8/2/0/0/0/0/0/0/0/0/610x900_82.jpg",
  "country": {
    "7": "Канада",
    "1": "США"
  },
  "collection": {
    "45": "Фильмы на Хэллоуин",
    "25": "Про маньяков",
    "21": "Для молодёжи",
    "14": "Для взрослых"
  },
  "genre": {
    "9": "Приключения",
    "26": "Ужасы",
    "13": "Триллер",
    "10": "Зарубежный",
    "7": "Драма"
  },
  "director": [
    "Андрес Мускетти"
  ],
  "screenwriter": [
    "Чейз Палмер",
    "Кэри Фукунага",
    "Гари Доберман"
  ],
  "producer": [
    "Ричард Бренер",
    "Даг Дэвисон",
    "Тоби Эммерих"
  ],
  "operator": [
    "Чон Джон-хун"
  ],
  "composer": [
    "Бенджамин Уоллфиш"
  ],
  "design": [
    "Клод Паре",
    "Брандт Гордон",
    "Питер Гранди"
  ],
  "editor": [
    "Джейсон Бэллэнтайн"
  ],
  "actors": [
    "Джейден Мартелл",
    "Джереми Рэй Тейлор",
    "София Лиллис",
    "Финн Вулфард",
    "Чоузен Джейкобс",
    "Джек Дилан Грейзер",
    "Уайатт Олефф",
    "Билл Скарсгард",
    "Николас Хэмилтон",
    "Джейк Сим"
  ],
  "actors_dubl": [
    "Максим Чихачёв",
    "Владимир Войтюк",
    "Дарья Шевчук",
    "Даниил Бледный",
    "Даниил Трещов"
  ],
  "trivia": [
    "В романе Стивена Кинга «Оно» сюжетная линия с главными героями в детстве разворачивается в 1958 году. В фильме все события происходят в 1989 году.",
    "Роль клоуна Пеннивайза предлагали Марку Райлэнсу и Бену Мендельсону. Её предлагали даже Тиму Карри, который сыграл клоуна в мини-сериале 1990 года. Актёр отказался, сославшись на проблемы со здоровьем.",
    "Создатели сериала «Очень странные дела» (2016) братья Мэтт и Росс Даффер предлагали свои услуги в работе над фильмом, однако предложение было отвергнуто, так как их посчитали недостаточно известными.",
    "Предполагалось, что режиссёром станет Кэри Фукунага, однако он покинул проект из-за несогласия с бюджетными ограничениями и творческих разногласий. Сюжет, с которым собирался работать Кэри Фукунага, содержал такие откровенные сцены с участием детей, что родители нескольких юных актёров отозвали разрешение им сниматься. Руководство студии попросило режиссёра переписать сценарий, на что он ответил категорическим отказом. Фукунага считал, что эти сцены слишком важны для фильма. Фукунага требовал оставить за ним право решать, на какой рейтинг Американской киноассоциации ориентироваться при съёмках фильма. Фукунага хотел сделать фильм под рейтинг NC-17 (лица 17-летнего возраста и младше на фильм не допускаются), тогда как продюсеры настаивали на рейтинге R (лица, не достигшие 17-летнего возраста, допускаются только в сопровождении одного из родителей либо законного представителя).",
    "На протяжении практически всего периода съёмок Билл Скарсгард присутствовал на съёмочной площадке, однако сам стал сниматься далеко не сразу. Актёр проводил очень много времени с Андресом Мускетти и продюсерами, работая над образом клоуна Пеннивайза. Скарсгард хотел исполнить роль идеально и тем самым отдать дань уважения Тиму Карри, чьё исполнение этой роли в мини-сериале 1990 года признано великолепным.",
    "Чоузен Джейкобс, сыгравший Майка Хенлона, отметил своё 15-летие на съёмочной площадке фильма. Джереми Рэй Тейлор, исполнитель роли Бена Хенскома, в качестве подарка сводил именинника на приключенческий боевик «Тарзан. Легенда» (Дэвид Йейтс, 2016), главную роль в котором сыграл Александр Скарсгард, брат Билла Скарсгарда, утверждённого на роль Пеннивайза.",
    "Билл Скарсгард отметил своё 26-летие незадолго до начала съёмок. В качестве дружеской подначки режиссёр Андрес Мускетти выложил в «Инстаграме» свой снимок в маске Пеннивайза и с поднятым вверх средним пальцем. Перед Мускетти на снимке стоит сам Скарсгард.",
    "Финн Вулфард — единственный задействованный в фильме актёр, кто остался после того, как Андрес Мускетти сменил в роли режиссёра Кэри Фукунагу.",
    "В первые недели съёмок Уайатт Олефф купил-таки себе роман Стивена Кинга «Оно», чтобы лучше узнать и понять своего героя. В фильме он сыграл Стэнли Уриса.",
    "В предсъёмочный период на роль Беверли рассматривалась Хлоя Грейс Морец, однако тот затянулся настолько, что к моменту подбора актёров ей уже исполнилось 19 лет. Было решено, что для роли Беверли она больше не подходит по возрасту, и Беверли сыграла София Лиллис.",
    "Билл Скарсгард значительно моложе и выше Тима Карри в то время, когда тот играл Пеннивайза в мини-сериале 1990 года. Скарсгарду на момент съёмок было 26 лет, а росту в нём 192 см. Карри было 44 года, а его рост — 175 см. Роль Пеннивайза предлагали сначала Уиллу Поултеру. Актёру ростом 182 см было на тот момент 22 года.",
    "Предсъёмочный период фильма занял 7 лет.",
    "Съёмки начались 27 июня и закончились 20 сентября 2016 года, за день до дня рождения Стивена Кинга, которому исполнилось 69 лет.",
    "Дебют Джексона Роберта Скотта в кинематографе. Он сыграл младшего брата Билла по имени Джорджи. До съёмок в фильме «Оно» Скотт появился лишь в одном эпизоде телесериала «Мыслить как преступник» (2005).",
    "Когда предполагалось, что режиссёром фильма станет Кэри Фукунага, на роль Билла Денбро был утверждён Тай Симпкинс. Когда режиссёром стал Андрес Мускетти, роль Симпкинса передали Джейдену Мартеллу.",
    "После ухода Кэри Фукунаги режиссёр Андрес Мускетти переписал сценарий, добавив к нему наиболее известные эпизоды из романа Стивена Кинга. Изменением сценария он занимался сам, однако к работе приложил руку и Гари Доберман.",
    "Примерно за полгода до выхода фильма был устроен специальный показ для Стивена Кинга.",
    "В романе Пеннивайз появляется в Дерри каждые 27 лет. Сериал по роману вышел на экраны в 1990 году. Этот ремейк увидел свет 27 лет спустя, в 2017 году.",
    "Съёмки некоторых эпизодов прошли в Порт-Хоп в канадской провинции Онтарио. Там же Крэйг Р. Бэксли снимал мини-сериал «Буря столетия» (1999) по сценарию Стивена Кинга.",
    "Андрес и Барбара Мускетти сделали всё возможное, чтобы включить в фильм как можно больше эпизодов и сцен из романа. В основном им это удалось, но некоторые эпизоды (как, например, тот, в котором так называемый «Клуб неудачников» проводит древний индейский ритуал) продюсеры отвергли, посчитав, что их съёмки окажутся чересчур дорогими.",
    "Жилище Пеннивайза построили и сняли в Ошаве в канадской провинции Онтарио.",
    "В эпизодической роли в фильме снялся британский комик, сатирик и актёр Джон Оливер, большой поклонник романа «Оно» (1986).",
    "В интервью Билл Скарсгард рассказал, что, когда снимали сцену, где Пеннивайз пугает большую группу детей, он впервые появился на съемочной площадке полностью загримированный. Увидев его, некоторые из юных актеров были заинтригованы, некоторые напуганы, а одного вообще начало трясти от страха. После съемок сцены все они расплакались из-за того, насколько ужасающей была игра Скарсгарда. Актер признался, что он чувствовал себя виноватым за это, и когда камера перестала снимать, он подошел и извинился перед ними всеми и заверил, что это все была лишь игра на камеру.",
    "В феврале 2016 года продюсер Рой Ли говорил о том, что у создателей фильма есть мысль разделить его на две части.",
    "Первоначально режиссер Андрес Мускетти планировал при помощи компьютерной графики добавить в фильм кадры, в которых у Пеннивайза глаза смотрели в разные стороны. Когда он сообщил об этом актеру Биллу Скарсгарду, тот продемонстрировал режиссеру, что он и сам может это сделать. В результате все соответствующие кадры были сняты вживую.",
    "В интервью членов «Клуба неудачников» спросили, кого бы они выбрали на свои роли во втором фильме. В итоге получился следующий состав: Ричи – Билл Хейдер, Беверли – Джессика Честейн, Майк – Чедвик Боузман, Эдди – Джейк Джилленхол, Стэн – Джозеф Гордон-Левитт, Бен – Крис Пратт.",
    "Билл Скарсгард признался, что он настолько глубоко погрузился в образ Пеннивайза, что в период съемок его постоянно мучили кошмары.",
    "Готовясь к своей роли, Билл Скарсгард тренировался с профессиональным акробатом.",
    "София Лиллис, сыгравшая роль Беверли, не боится фильмов ужасов. Когда она впервые увидела Билла Скарсгарда в образе Пеннивайза, она засмеялась.",
    "Первый тизер-трейлер фильма был просмотрен 197 миллионов раз за первые 24 часа с момента его появления. И тем самым побил рекорд, который ранее установил трейлер фильма «Форсаж 8» (2017) – 139 миллионов просмотров за первые сутки.",
    "Популярной идеей среди фанатов было вернуть актеров, которые сыграли детей в оригинальном фильме, чтобы они исполнили роли своих же персонажей только уже взрослых. Сыгравший Билла Джонатан Брэндис скончался в 2003 году, а Марлон Тейлор и Джаред Бланшар, исполнившие роли Майка и Генри, сказали, что если бы им поступило подобное предложение, то они бы согласились.",
    "Одна из ипостасей Оно — сошедшая с картины женщина, названная в титрах Юдифь (Judith), отсутствует в книге. Этот образ вдохновлён творчеством итальянского художника Амедео Модильяни (1884-1920). Репродукция одной из его картин висела в доме матери Андреса и Барбары Мускетти и пугала будущего режиссёра. Влияние творчества Модильяни очевидно и в образе заглавного существа из предыдущего фильма Мускетти — «Мама» (2013).",
    "22 сентября 2017 года российская сеть закусочных «Бургер Кинг» подала жалобу на фильм «Оно». Причиной стало то, что клоун Пеннивайз, главный злодей, очень похож на клоуна Рональда Макдональда, символа McDonald’s. Это, по их мнению, является рекламой конкурента. Федеральная антимонопольная служба и сотрудники Burger King подтвердили заявку от компании. Несмотря на это, развёрнутых комментариев никто не дал.",
    "По требованию режиссёра Билл Скарсгард ни разу не встречался с юными актёрами до съёмок эпизода схватки Пеннивайза с ребятами из так называемого «Клуба неудачников». Андрес Мускетти хотел, чтобы молодые актёры действительно испугались клоуна, и, как он рассказывал впоследствии, так и получилось.",
    "Когда Ричи (Финн Вулфард) находится в наполненной клоунами комнате, там можно заметить сидящую на полу куклу, которая выглядит так же, как Пеннивайз Тима Карри из оригинального фильма «Оно» (1990).",
    "Режиссер Андрес Мускетти рассказал, что многие формы, которые принимает Оно в романе, в фильме были заменены на другие, чтобы сделать фильм менее предсказуемым для тех, кто читал книгу.",
    "Хотя концовка романа «Оно» неоднозначна, и до конца не ясно осталось ли Оно в живых, Стивен Кинг поклялся, что никогда больше не будет писать о Пеннивайзе, поскольку этот персонаж слишком страшный даже для него самого.",
    "17 сентября 2017 года актёр Билл Скарсгард, который исполнил роль танцующего клоуна Пеннивайза, поведал, что студия отсняла сцену с ним, которая разворачивалась в прошлом. Как сообщил Скарсгард, в одной из ранних версий фильма присутствовал момент с флешбэком в 1600-х годах. Тогда ещё в городе Дерри не было Пеннивайза. Актёр исполнял роль персонажа не в гриме клоуна. В сцене было показано происхождение Пеннивайза. Сцена, как добавил актёр, заключалась в том, чтобы показать существование монстра в недрах Земли на протяжении многих лет. Портал Variety отметил, что в раннем сценарии «Оно», которым занимался Кэри Фукунага, также была подобная сцена. Там Пеннивайз играл на пианино и пожирал детей в 1800-х.",
    "В романе Пеннивайз отрывает Джорджи левую руку, а не правую, как в фильме. Кроме того, сценаристы изменили и факт исчезновения Джорджи — в книге он остался на мостовой и был найден соседом сразу после нападения."
  ],
  "trailers": [],
  "seasons": [],
  "voiceActing": [
    "Рус. Дублированный"
  ],
  "subtitle": [
    "Рус. форсированные"
  ],
  "parts": [
    82,
    7107
  ]
}
