{
  "id": 8249,
  "name": "Артур Миллер: Писатель",
  "name_eng": "Arthur Miller: Writer",
  "year": 2017,
  "slogan": "«Очень личный портрет выдающегося человека»",
  "age": "16+",
  "type": "film",
  "quality": "SD",
  "imdb": "7.3",
  "imdb_id": "7302488",
  "kinopoisk": null,
  "kinopoisk_id": "1114906",
  "world_art": null,
  "world_art_id": null,
  "time": "98 мин. / 01:38",
  "ads": true,
  "premier": "2017-12-08",
  "premier_rus": "2018-03-20",
  "availability": null,
  "activate_time": "2019-05-01 11:52:17",
  "budget": null,
  "fees_use": null,
  "fees_world": null,
  "fees_rus": null,
  "rate_mpaa": null,
  "description": "Тонкий и правдивый портрет знаменитого американского драматурга и прозаика, обладателя Пулитцеровской премии Артура Миллера, созданный его дочерью. Ребекка Миллер десятилетиями снимала импровизированные интервью с отцом – именно этот бесценный материал лег в основу документального проекта. Опираясь на богатство семейного архива, фильм дает новое представление о жизни Миллера как творца и исследует его характер во всей сложности и противоречивости. Мы узнаем, как один из самых острых социальных комментаторов Америки сформулировал свои принципы, и как его жизнь в определенной степени повлияла на культуру страны в 20 веке.",
  "iframe_url": "",
  "iframe_poster": "https://img.imgilall.me/movies/video/8/9/4/4/5/0/0/0/0/0/800x450_89445.jpeg",
  "poster": "https://img.imgilall.me/movies/franchise/8/2/4/9/0/0/0/0/0/0/610x900_8249.jpg",
  "country": {
    "1": "США"
  },
  "collection": {
    "39": "На реальных событиях"
  },
  "genre": {
    "54": "Документальный",
    "10": "Зарубежный"
  },
  "director": [
    "Ребекка Миллер"
  ],
  "screenwriter": [],
  "producer": [
    "Дэймон Кардасис",
    "Синди Толан",
    "Изабель Хендерсон"
  ],
  "operator": [],
  "composer": [
    "Майкл Рохатин"
  ],
  "design": [],
  "editor": [
    "Дэвид Бартнер"
  ],
  "actors": [
    "Джоан Аллен",
    "Джоан Коуплэнд",
    "Питер Фальк",
    "Кларк Гейбл",
    "Джон Гуар",
    "Дж. Эдгар Гувер",
    "Джон Хьюстон",
    "Элиа Казан",
    "Тони Кушнер",
    "Джон Ховард Лосон"
  ],
  "actors_dubl": [],
  "trivia": [],
  "trailers": [],
  "seasons": [],
  "voiceActing": [
    "Рус. Люб. многоголосый"
  ],
  "subtitle": [],
  "parts": []
}
