{
  "id": 8361,
  "name": "Маленькие Эйнштейны",
  "name_eng": "Disney's Little Einsteins",
  "year": 2005,
  "slogan": "—",
  "age": "0+",
  "type": "cartoon-series",
  "quality": "HD (720p)",
  "imdb": "6.3",
  "imdb_id": "0756522",
  "kinopoisk": "4.8",
  "kinopoisk_id": "420186",
  "world_art": null,
  "world_art_id": null,
  "time": "30 мин",
  "ads": false,
  "premier": "2005-10-05",
  "premier_rus": "2010-08-12",
  "availability": null,
  "serial_status": "offline",
  "activate_time": "2019-09-12 16:43:00",
  "budget": null,
  "fees_use": null,
  "fees_world": null,
  "fees_rus": null,
  "rate_mpaa": null,
  "description": "Главные герои Лео, Джун, Куинси и Энни путешествуют по миру на музыкальном космическом корабле, Ракете, осуществляя различные «миссии». В каждой серии ребятам предстоит найти решение из сложной ситуации.",
  "iframe_url": "",
  "poster": "https://img.imgilall.me/movies/franchise/8/3/6/1/0/0/0/0/0/0/610x900_8361.jpg",
  "country": {
    "1": "США"
  },
  "collection": [],
  "genre": {
    "9": "Приключения",
    "37": "Детский",
    "33": "Семейный",
    "19": "Комедия",
    "10": "Зарубежный"
  },
  "director": [
    "Олекса Хьюрик",
    "Энди Том",
    "Майкл Джеймс Луцци"
  ],
  "screenwriter": [
    "Эрик Уэйнер",
    "Дуглас Вуд",
    "Джефф Боркин"
  ],
  "producer": [
    "Эрик Уэйнер",
    "Крис Грингроув",
    "Сьюзэн Холден"
  ],
  "operator": [],
  "composer": [
    "Матиас Гол",
    "Билли Штраус"
  ],
  "design": [
    "Олекса Хьюрик",
    "Кирк-Альберт Этьен",
    "Арам Сонг"
  ],
  "editor": [
    "Томас Браун",
    "Киган Ким",
    "Эдриэнн Бретен"
  ],
  "actors": [
    "Дэвид Джейсон",
    "Эйден Помпи",
    "Джесси Шварц",
    "Наталия Вуйчик",
    "Эрика Хуанг",
    "Поппи Ли Фрайер",
    "Пьерс Стаббс",
    "Харрисон Чад",
    "Джесси Голдберг",
    "Эмма Штраус"
  ],
  "actors_dubl": [
    "Владислав Мурох",
    "Денис Горбатенко",
    "Константин Ефимов",
    "Вера Светлова",
    "Елизавета Нивалайнен"
  ],
  "trivia": [],
  "trailers": [],
  "seasons": [
    {
      "poster": "https://img.imgilall.me/movies/season/5/5/5/2/0/0/0/0/0/0/610x900_5552.jpg",
      "release_ru": null,
      "release_world": null,
      "availability": null,
      "iframe_url": "",
      "season": 1,
      "episodes": [
        {
          "episode": 1,
          "name": "Колечко для планеты (Ring Around the Planet)",
          "iframe_url": "",
          "iframe_poster": "https://img.imgilall.me/movies/video/1/0/4/1/3/0/0/0/0/0/800x450_104130.jpeg",
          "release_ru": null,
          "release_world": null,
          "availability": null,
          "voiceActing": [
            "Рус. Дублированный"
          ],
          "ads": false,
          "subtitle": []
        },
        {
          "episode": 2,
          "name": "Люблю я дирижировать (I Love to Conduct)",
          "iframe_url": "",
          "iframe_poster": "https://img.imgilall.me/movies/video/1/0/4/1/3/1/0/0/0/0/800x450_104131.jpeg",
          "release_ru": null,
          "release_world": null,
          "availability": null,
          "voiceActing": [
            "Рус. Дублированный"
          ],
          "ads": false,
          "subtitle": []
        },
        {
          "episode": 3,
          "name": "Венгерская икота (Hungarian Hiccups)",
          "iframe_url": "",
          "iframe_poster": "https://img.imgilall.me/movies/video/1/0/4/1/3/2/0/0/0/0/800x450_104132.jpeg",
          "release_ru": null,
          "release_world": null,
          "availability": null,
          "voiceActing": [
            "Рус. Дублированный"
          ],
          "ads": false,
          "subtitle": []
        },
        {
          "episode": 4,
          "name": "Про китов (Whale Tale)",
          "iframe_url": "",
          "iframe_poster": "https://img.imgilall.me/movies/video/1/0/4/1/3/4/0/0/0/0/800x450_104134.jpeg",
          "release_ru": null,
          "release_world": null,
          "availability": null,
          "voiceActing": [
            "Рус. Дублированный"
          ],
          "ads": false,
          "subtitle": []
        },
        {
          "episode": 5,
          "name": "Пиратский клад (Pirates Treasure)",
          "iframe_url": "",
          "iframe_poster": "https://img.imgilall.me/movies/video/1/0/4/1/3/7/0/0/0/0/800x450_104137.jpeg",
          "release_ru": null,
          "release_world": null,
          "availability": null,
          "voiceActing": [
            "Рус. Дублированный"
          ],
          "ads": false,
          "subtitle": []
        },
        {
          "episode": 6,
          "name": "Воздушные шарики (The Birthday Balloons)",
          "iframe_url": "",
          "iframe_poster": "https://img.imgilall.me/movies/video/1/0/4/1/4/0/0/0/0/0/800x450_104140.jpeg",
          "release_ru": null,
          "release_world": null,
          "availability": null,
          "voiceActing": [
            "Рус. Дублированный"
          ],
          "ads": false,
          "subtitle": []
        },
        {
          "episode": 7,
          "name": "Легенда о Золотой Пирамиде (The Legend of the Golden Pyramid)",
          "iframe_url": "",
          "iframe_poster": "https://img.imgilall.me/movies/video/1/0/4/1/4/2/0/0/0/0/800x450_104142.jpeg",
          "release_ru": null,
          "release_world": null,
          "availability": null,
          "voiceActing": [
            "Рус. Дублированный"
          ],
          "ads": false,
          "subtitle": []
        },
        {
          "episode": 8,
          "name": "Воздушный змей (Dragon Kite)",
          "iframe_url": "",
          "iframe_poster": "https://img.imgilall.me/movies/video/1/0/4/1/4/4/0/0/0/0/800x450_104144.jpeg",
          "release_ru": null,
          "release_world": null,
          "availability": null,
          "voiceActing": [
            "Рус. Дублированный"
          ],
          "ads": false,
          "subtitle": []
        },
        {
          "episode": 9,
          "name": "Держи на запад, паровозик (Go West Young Train)",
          "iframe_url": "",
          "iframe_poster": "https://img.imgilall.me/movies/video/1/0/4/1/4/6/0/0/0/0/800x450_104146.jpeg",
          "release_ru": null,
          "release_world": null,
          "availability": null,
          "voiceActing": [
            "Рус. Дублированный"
          ],
          "ads": false,
          "subtitle": []
        },
        {
          "episode": 10,
          "name": "Энни садовод (Farmer Annie)",
          "iframe_url": "",
          "iframe_poster": "https://img.imgilall.me/movies/video/1/0/4/1/4/9/0/0/0/0/800x450_104149.jpeg",
          "release_ru": null,
          "release_world": null,
          "availability": null,
          "voiceActing": [
            "Рус. Дублированный"
          ],
          "ads": false,
          "subtitle": []
        },
        {
          "episode": 11,
          "name": "Наш веселый Хэллоуин (A Little Einsteins Halloween)",
          "iframe_url": "",
          "iframe_poster": "https://img.imgilall.me/movies/video/1/0/4/1/5/1/0/0/0/0/800x450_104151.jpeg",
          "release_ru": null,
          "release_world": null,
          "availability": null,
          "voiceActing": [
            "Рус. Дублированный"
          ],
          "ads": false,
          "subtitle": []
        },
        {
          "episode": 12,
          "name": "Энни очень храбрая (Annie's Solo Mission)",
          "iframe_url": "",
          "iframe_poster": "https://img.imgilall.me/movies/video/1/0/4/1/5/3/0/0/0/0/800x450_104153.jpeg",
          "release_ru": null,
          "release_world": null,
          "availability": null,
          "voiceActing": [
            "Рус. Дублированный"
          ],
          "ads": false,
          "subtitle": []
        },
        {
          "episode": 13,
          "name": "Мышонок и луна (The Mouse and the Moon)",
          "iframe_url": "",
          "iframe_poster": "https://img.imgilall.me/movies/video/1/0/4/1/6/7/0/0/0/0/800x450_104167.jpeg",
          "release_ru": null,
          "release_world": null,
          "availability": null,
          "voiceActing": [
            "Рус. Дублированный"
          ],
          "ads": false,
          "subtitle": []
        },
        {
          "episode": 14,
          "name": "Рыцарь добрый и рыцарь злой (The Good Knight and the Bad Knight)",
          "iframe_url": "",
          "iframe_poster": "https://img.imgilall.me/movies/video/1/0/4/1/6/9/0/0/0/0/800x450_104169.jpeg",
          "release_ru": null,
          "release_world": null,
          "availability": null,
          "voiceActing": [
            "Рус. Дублированный"
          ],
          "ads": false,
          "subtitle": []
        },
        {
          "episode": 15,
          "name": "Рождественское желание (The Christmas Wish)",
          "iframe_url": "",
          "iframe_poster": "https://img.imgilall.me/movies/video/1/0/4/1/7/1/0/0/0/0/800x450_104171.jpeg",
          "release_ru": null,
          "release_world": null,
          "availability": null,
          "voiceActing": [
            "Рус. Дублированный"
          ],
          "ads": false,
          "subtitle": []
        },
        {
          "episode": 16,
          "name": "Правдивая история маленьких Эйнштейнов (How We Became Little Einsteins. the True Story)",
          "iframe_url": "",
          "iframe_poster": "https://img.imgilall.me/movies/video/1/0/4/1/7/3/0/0/0/0/800x450_104173.jpeg",
          "release_ru": null,
          "release_world": null,
          "availability": null,
          "voiceActing": [
            "Рус. Дублированный"
          ],
          "ads": false,
          "subtitle": []
        },
        {
          "episode": 17,
          "name": "Прыг-скок Джони (Jump for Joey)",
          "iframe_url": "",
          "iframe_poster": "https://img.imgilall.me/movies/video/1/0/4/1/7/5/0/0/0/0/800x450_104175.jpeg",
          "release_ru": null,
          "release_world": null,
          "availability": null,
          "voiceActing": [
            "Рус. Дублированный"
          ],
          "ads": false,
          "subtitle": []
        },
        {
          "episode": 18,
          "name": "Полярное сияние (The Northern Night Light)",
          "iframe_url": "",
          "iframe_poster": "https://img.imgilall.me/movies/video/1/0/4/1/7/4/0/0/0/0/800x450_104174.jpeg",
          "release_ru": null,
          "release_world": null,
          "availability": null,
          "voiceActing": [
            "Рус. Дублированный"
          ],
          "ads": false,
          "subtitle": []
        },
        {
          "episode": 19,
          "name": "Весна, о да, весна! (Oh Yes, Oh Yes, It's Springtime!)",
          "iframe_url": "",
          "iframe_poster": "https://img.imgilall.me/movies/video/1/0/4/1/7/6/0/0/0/0/800x450_104176.jpeg",
          "release_ru": null,
          "release_world": null,
          "availability": null,
          "voiceActing": [
            "Рус. Дублированный"
          ],
          "ads": false,
          "subtitle": []
        },
        {
          "episode": 20,
          "name": "История большого тотема (A Tall Totem Tale)",
          "iframe_url": "",
          "iframe_poster": "https://img.imgilall.me/movies/video/1/0/4/1/7/7/0/0/0/0/800x450_104177.jpeg",
          "release_ru": null,
          "release_world": null,
          "availability": null,
          "voiceActing": [
            "Рус. Дублированный"
          ],
          "ads": false,
          "subtitle": []
        },
        {
          "episode": 21,
          "name": "Невероятно съеженное приключение (The Incredible Shrinking Adventure)",
          "iframe_url": "",
          "iframe_poster": "https://img.imgilall.me/movies/video/1/0/4/1/7/8/0/0/0/0/800x450_104178.jpeg",
          "release_ru": null,
          "release_world": null,
          "availability": null,
          "voiceActing": [
            "Рус. Дублированный"
          ],
          "ads": false,
          "subtitle": []
        },
        {
          "episode": 22,
          "name": "Ути-ути Джун (Duck Duck June)",
          "iframe_url": "",
          "iframe_poster": "https://img.imgilall.me/movies/video/1/0/4/1/7/9/0/0/0/0/800x450_104179.jpeg",
          "release_ru": null,
          "release_world": null,
          "availability": null,
          "voiceActing": [
            "Рус. Дублированный"
          ],
          "ads": false,
          "subtitle": []
        },
        {
          "episode": 23,
          "name": "Ракета и сафари (Rocket Safari)",
          "iframe_url": "",
          "iframe_poster": "https://img.imgilall.me/movies/video/1/0/4/1/2/9/0/0/0/0/800x450_104129.jpeg",
          "release_ru": null,
          "release_world": null,
          "availability": null,
          "voiceActing": [
            "Рус. Дублированный",
            "Eng.Original"
          ],
          "ads": false,
          "subtitle": []
        },
        {
          "episode": 24,
          "name": "Стучим по дереву (Knock on Wood)",
          "iframe_url": "",
          "iframe_poster": "https://img.imgilall.me/movies/video/1/0/4/1/8/0/0/0/0/0/800x450_104180.jpeg",
          "release_ru": null,
          "release_world": null,
          "availability": null,
          "voiceActing": [
            "Рус. Дублированный"
          ],
          "ads": false,
          "subtitle": []
        },
        {
          "episode": 25,
          "name": "Межиланетная колыбельная (A Galactic Goodnight)",
          "iframe_url": "",
          "iframe_poster": "https://img.imgilall.me/movies/video/1/0/4/1/8/6/0/0/0/0/800x450_104186.jpeg",
          "release_ru": null,
          "release_world": null,
          "availability": null,
          "voiceActing": [
            "Рус. Дублированный"
          ],
          "ads": false,
          "subtitle": []
        },
        {
          "episode": 26,
          "name": "Поздравительная машинка (The Birthday Machine)",
          "iframe_url": "",
          "iframe_poster": "https://img.imgilall.me/movies/video/1/0/4/1/8/8/0/0/0/0/800x450_104188.jpeg",
          "release_ru": null,
          "release_world": null,
          "availability": null,
          "voiceActing": [
            "Рус. Дублированный"
          ],
          "ads": false,
          "subtitle": []
        },
        {
          "episode": 27,
          "name": "Чудесное новое платье (A Brand New Outfit)",
          "iframe_url": "",
          "iframe_poster": "https://img.imgilall.me/movies/video/1/0/4/1/9/0/0/0/0/0/800x450_104190.jpeg",
          "release_ru": null,
          "release_world": null,
          "availability": null,
          "voiceActing": [
            "Рус. Дублированный"
          ],
          "ads": false,
          "subtitle": []
        },
        {
          "episode": 28,
          "name": "Квинси и волшебные инструменты (Quincy and the Magic Instruments)",
          "iframe_url": "",
          "iframe_poster": "https://img.imgilall.me/movies/video/1/0/4/1/9/5/0/0/0/0/800x450_104195.jpeg",
          "release_ru": null,
          "release_world": null,
          "availability": null,
          "voiceActing": [
            "Рус. Дублированный"
          ],
          "ads": false,
          "subtitle": []
        },
        {
          "episode": 29,
          "name": "Братишки и сестренки, на помощь! (Brothers and Sisters to the Rescue)",
          "iframe_url": "",
          "iframe_poster": "https://img.imgilall.me/movies/video/1/0/4/1/9/7/0/0/0/0/800x450_104197.jpeg",
          "release_ru": null,
          "release_world": null,
          "availability": null,
          "voiceActing": [
            "Рус. Дублированный"
          ],
          "ads": false,
          "subtitle": []
        },
        {
          "episode": 30,
          "name": "Бал хрустального башмачка (The Glass Slipper Ball)",
          "iframe_url": "",
          "iframe_poster": "https://img.imgilall.me/movies/video/1/0/4/1/9/9/0/0/0/0/800x450_104199.jpeg",
          "release_ru": null,
          "release_world": null,
          "availability": null,
          "voiceActing": [
            "Рус. Дублированный"
          ],
          "ads": false,
          "subtitle": []
        },
        {
          "episode": 31,
          "name": "Песня Энни о любви (Annie's Love Song)",
          "iframe_url": "",
          "iframe_poster": "https://img.imgilall.me/movies/video/1/0/4/2/0/1/0/0/0/0/800x450_104201.jpeg",
          "release_ru": null,
          "release_world": null,
          "availability": null,
          "voiceActing": [
            "Рус. Дублированный"
          ],
          "ads": false,
          "subtitle": []
        },
        {
          "episode": 32,
          "name": "Музыкальный питомец - Мелодия (Melody, the Music Pet)",
          "iframe_url": "",
          "iframe_poster": "https://img.imgilall.me/movies/video/1/0/4/2/0/8/0/0/0/0/800x450_104208.jpeg",
          "release_ru": null,
          "release_world": null,
          "availability": null,
          "voiceActing": [
            "Рус. Дублированный"
          ],
          "ads": false,
          "subtitle": []
        },
        {
          "episode": 33,
          "name": "Принцесса кукол (Puppet Princess)",
          "iframe_url": "",
          "iframe_poster": "https://img.imgilall.me/movies/video/1/0/4/2/1/1/0/0/0/0/800x450_104211.jpeg",
          "release_ru": null,
          "release_world": null,
          "availability": null,
          "voiceActing": [
            "Рус. Дублированный"
          ],
          "ads": false,
          "subtitle": []
        },
        {
          "episode": 34,
          "name": "Супербыстро (Super Fast!!)",
          "iframe_url": "",
          "iframe_poster": "https://img.imgilall.me/movies/video/1/0/4/2/1/3/0/0/0/0/800x450_104213.jpeg",
          "release_ru": null,
          "release_world": null,
          "availability": null,
          "voiceActing": [
            "Рус. Дублированный"
          ],
          "ads": false,
          "subtitle": []
        },
        {
          "episode": 35,
          "name": "Он говорит музыкой (He Speaks Music)",
          "iframe_url": "",
          "iframe_poster": "https://img.imgilall.me/movies/video/1/0/4/2/1/5/0/0/0/0/800x450_104215.jpeg",
          "release_ru": null,
          "release_world": null,
          "availability": null,
          "voiceActing": [
            "Рус. Дублированный"
          ],
          "ads": false,
          "subtitle": []
        },
        {
          "episode": 36,
          "name": "Привет, Виолончель (Hello, Cello)",
          "iframe_url": "",
          "iframe_poster": "https://img.imgilall.me/movies/video/1/0/4/2/1/6/0/0/0/0/800x450_104216.jpeg",
          "release_ru": null,
          "release_world": null,
          "availability": null,
          "voiceActing": [
            "Рус. Дублированный"
          ],
          "ads": false,
          "subtitle": []
        },
        {
          "episode": 37,
          "name": "Энни и игрушечный самолетик (Annie and the Little Toy Plane)",
          "iframe_url": "",
          "iframe_poster": "https://img.imgilall.me/movies/video/1/0/4/2/1/7/0/0/0/0/800x450_104217.jpeg",
          "release_ru": null,
          "release_world": null,
          "availability": null,
          "voiceActing": [
            "Рус. Дублированный"
          ],
          "ads": false,
          "subtitle": []
        },
        {
          "episode": 38,
          "name": "Большие гонки Кармайна (Carmine's Big Race)",
          "iframe_url": "",
          "iframe_poster": "https://img.imgilall.me/movies/video/1/0/4/2/1/8/0/0/0/0/800x450_104218.jpeg",
          "release_ru": null,
          "release_world": null,
          "availability": null,
          "voiceActing": [
            "Рус. Дублированный"
          ],
          "ads": false,
          "subtitle": []
        },
        {
          "episode": 39,
          "name": "Небесные гонки - Большой реванш (The Great Sky Race Rematch)",
          "iframe_url": "",
          "iframe_poster": "https://img.imgilall.me/movies/video/1/0/4/2/1/9/0/0/0/0/800x450_104219.jpeg",
          "release_ru": null,
          "release_world": null,
          "availability": null,
          "voiceActing": [
            "Рус. Дублированный"
          ],
          "ads": false,
          "subtitle": []
        },
        {
          "episode": 40,
          "name": "Спящая фагот (Sleeping Bassoon)",
          "iframe_url": "",
          "iframe_poster": "https://img.imgilall.me/movies/video/1/0/4/2/2/1/0/0/0/0/800x450_104221.jpeg",
          "release_ru": null,
          "release_world": null,
          "availability": null,
          "voiceActing": [
            "Рус. Дублированный"
          ],
          "ads": false,
          "subtitle": []
        },
        {
          "episode": 41,
          "name": "Суп для ракеты (Rocket Soup)",
          "iframe_url": "",
          "iframe_poster": "https://img.imgilall.me/movies/video/1/0/4/2/2/3/0/0/0/0/800x450_104223.jpeg",
          "release_ru": null,
          "release_world": null,
          "availability": null,
          "voiceActing": [
            "Рус. Дублированный"
          ],
          "ads": false,
          "subtitle": []
        },
        {
          "episode": 42,
          "name": "Танец голубоногой Олуши (The Blue-Footed Booby Bird Ballet)",
          "iframe_url": "",
          "iframe_poster": "https://img.imgilall.me/movies/video/1/0/4/2/3/7/0/0/0/0/800x450_104237.jpeg",
          "release_ru": null,
          "release_world": null,
          "availability": null,
          "voiceActing": [
            "Рус. Дублированный"
          ],
          "ads": false,
          "subtitle": []
        },
        {
          "episode": 43,
          "name": "Ракета - Красная Шапочка (Little Red Rockethood)",
          "iframe_url": "",
          "iframe_poster": "https://img.imgilall.me/movies/video/1/0/4/2/3/8/0/0/0/0/800x450_104238.jpeg",
          "release_ru": null,
          "release_world": null,
          "availability": null,
          "voiceActing": [
            "Рус. Дублированный"
          ],
          "ads": false,
          "subtitle": []
        },
        {
          "episode": 44,
          "name": "Мозаика сфинкса (The Puzzle of the Sphinx)",
          "iframe_url": "",
          "iframe_poster": "https://img.imgilall.me/movies/video/1/0/4/2/3/9/0/0/0/0/800x450_104239.jpeg",
          "release_ru": null,
          "release_world": null,
          "availability": null,
          "voiceActing": [
            "Рус. Дублированный"
          ],
          "ads": false,
          "subtitle": []
        },
        {
          "episode": 45,
          "name": "Погоня за дикими гусями (The Wild Goose Chase)",
          "iframe_url": "",
          "iframe_poster": "https://img.imgilall.me/movies/video/1/0/4/2/4/0/0/0/0/0/800x450_104240.jpeg",
          "release_ru": null,
          "release_world": null,
          "availability": null,
          "voiceActing": [
            "Рус. Дублированный"
          ],
          "ads": false,
          "subtitle": []
        },
        {
          "episode": 46,
          "name": "Энни и бобовый стебель (Annie and the Beanstalk)",
          "iframe_url": "",
          "iframe_poster": "https://img.imgilall.me/movies/video/1/0/4/2/4/1/0/0/0/0/800x450_104241.jpeg",
          "release_ru": null,
          "release_world": null,
          "availability": null,
          "voiceActing": [
            "Рус. Дублированный"
          ],
          "ads": false,
          "subtitle": []
        },
        {
          "episode": 47,
          "name": "Заводной принц игрушек (The Wind-Up Toy Prince)",
          "iframe_url": "",
          "iframe_poster": "https://img.imgilall.me/movies/video/1/0/4/2/4/2/0/0/0/0/800x450_104242.jpeg",
          "release_ru": null,
          "release_world": null,
          "availability": null,
          "voiceActing": [
            "Рус. Дублированный"
          ],
          "ads": false,
          "subtitle": []
        },
        {
          "episode": 48,
          "name": "Приключение господина Пингвина и его мороженного (Mr. Penguin's Ice Cream Adventure)",
          "iframe_url": "",
          "iframe_poster": "https://img.imgilall.me/movies/video/1/0/4/2/4/3/0/0/0/0/800x450_104243.jpeg",
          "release_ru": null,
          "release_world": null,
          "availability": null,
          "voiceActing": [
            "Рус. Дублированный"
          ],
          "ads": false,
          "subtitle": []
        },
        {
          "episode": 49,
          "name": "Энни получает микрофон (Annie, Get Your Microphone)",
          "iframe_url": "",
          "iframe_poster": "https://img.imgilall.me/movies/video/1/0/4/2/4/4/0/0/0/0/800x450_104244.jpeg",
          "release_ru": null,
          "release_world": null,
          "availability": null,
          "voiceActing": [
            "Рус. Дублированный"
          ],
          "ads": false,
          "subtitle": []
        },
        {
          "episode": 50,
          "name": "Сокровище за маленькой красной дверью (The Treasure Behind The Little Red Door)",
          "iframe_url": "",
          "iframe_poster": "https://img.imgilall.me/movies/video/1/0/4/2/4/5/0/0/0/0/800x450_104245.jpeg",
          "release_ru": null,
          "release_world": null,
          "availability": null,
          "voiceActing": [
            "Рус. Дублированный"
          ],
          "ads": false,
          "subtitle": []
        },
        {
          "episode": 51,
          "name": "Загадочное сокровище (The Sekret Mystery Prize)",
          "iframe_url": "",
          "iframe_poster": "https://img.imgilall.me/movies/video/1/0/4/2/4/6/0/0/0/0/800x450_104246.jpeg",
          "release_ru": null,
          "release_world": null,
          "availability": null,
          "voiceActing": [
            "Рус. Дублированный"
          ],
          "ads": false,
          "subtitle": []
        },
        {
          "episode": 52,
          "name": "Зверям пора перекусить (Animal Snack Time)",
          "iframe_url": "",
          "iframe_poster": "https://img.imgilall.me/movies/video/1/0/4/2/5/7/0/0/0/0/800x450_104257.jpeg",
          "release_ru": null,
          "release_world": null,
          "availability": null,
          "voiceActing": [
            "Рус. Дублированный"
          ],
          "ads": false,
          "subtitle": []
        },
        {
          "episode": 53,
          "name": "Угадайка великого Шуберта (The Great Schubert's Guessing Game)",
          "iframe_url": "",
          "iframe_poster": "https://img.imgilall.me/movies/video/1/0/4/2/5/3/0/0/0/0/800x450_104253.jpeg",
          "release_ru": null,
          "release_world": null,
          "availability": null,
          "voiceActing": [
            "Рус. Дублированный"
          ],
          "ads": false,
          "subtitle": []
        },
        {
          "episode": 54,
          "name": "Квинси и его музыкальные динозавры (Quincy and the Instrument Dinosaurs)",
          "iframe_url": "",
          "iframe_poster": "https://img.imgilall.me/movies/video/1/0/4/2/5/1/0/0/0/0/800x450_104251.jpeg",
          "release_ru": null,
          "release_world": null,
          "availability": null,
          "voiceActing": [
            "Рус. Дублированный"
          ],
          "ads": false,
          "subtitle": []
        },
        {
          "episode": 55,
          "name": "Строй, Ракета, строй! (Build It, Rocket!)",
          "iframe_url": "",
          "iframe_poster": "https://img.imgilall.me/movies/video/1/0/4/2/6/6/0/0/0/0/800x450_104266.jpeg",
          "release_ru": null,
          "release_world": null,
          "availability": null,
          "voiceActing": [
            "Рус. Дублированный"
          ],
          "ads": false,
          "subtitle": []
        },
        {
          "episode": 56,
          "name": "Мелодия и я (Melody and Me)",
          "iframe_url": "",
          "iframe_poster": "https://img.imgilall.me/movies/video/1/0/4/2/6/9/0/0/0/0/800x450_104269.jpeg",
          "release_ru": null,
          "release_world": null,
          "availability": null,
          "voiceActing": [
            "Рус. Дублированный"
          ],
          "ads": false,
          "subtitle": []
        },
        {
          "episode": 57,
          "name": "Музыкальные монстры (Music Monsters)",
          "iframe_url": "",
          "iframe_poster": "https://img.imgilall.me/movies/video/1/0/4/2/7/0/0/0/0/0/800x450_104270.jpeg",
          "release_ru": null,
          "release_world": null,
          "availability": null,
          "voiceActing": [
            "Рус. Дублированный"
          ],
          "ads": false,
          "subtitle": []
        },
        {
          "episode": 58,
          "name": "Песня волшебного единорога (The Song of the Unicorn)",
          "iframe_url": "",
          "iframe_poster": "https://img.imgilall.me/movies/video/1/0/4/2/7/1/0/0/0/0/800x450_104271.jpeg",
          "release_ru": null,
          "release_world": null,
          "availability": null,
          "voiceActing": [
            "Рус. Дублированный"
          ],
          "ads": false,
          "subtitle": []
        },
        {
          "episode": 59,
          "name": "Полет музыкальных фей (Flight of the Instrument Fairies)",
          "iframe_url": "",
          "iframe_poster": "https://img.imgilall.me/movies/video/1/0/4/2/7/2/0/0/0/0/800x450_104272.jpeg",
          "release_ru": null,
          "release_world": null,
          "availability": null,
          "voiceActing": [
            "Рус. Дублированный"
          ],
          "ads": false,
          "subtitle": []
        },
        {
          "episode": 60,
          "name": "Глупый носок спасает цирк (Silly Sock Saves the Circus)",
          "iframe_url": "",
          "iframe_poster": "https://img.imgilall.me/movies/video/1/0/4/2/7/4/0/0/0/0/800x450_104274.jpeg",
          "release_ru": null,
          "release_world": null,
          "availability": null,
          "voiceActing": [
            "Рус. Дублированный"
          ],
          "ads": false,
          "subtitle": []
        },
        {
          "episode": 61,
          "name": "Вперед, команда! (Go Team!)",
          "iframe_url": "",
          "iframe_poster": "https://img.imgilall.me/movies/video/1/0/4/2/7/5/0/0/0/0/800x450_104275.jpeg",
          "release_ru": null,
          "release_world": null,
          "availability": null,
          "voiceActing": [
            "Рус. Дублированный"
          ],
          "ads": false,
          "subtitle": []
        },
        {
          "episode": 62,
          "name": "Музыкальный робот из космоса (The Music Robot From Outer Space)",
          "iframe_url": "",
          "iframe_poster": "https://img.imgilall.me/movies/video/1/0/4/2/7/6/0/0/0/0/800x450_104276.jpeg",
          "release_ru": null,
          "release_world": null,
          "availability": null,
          "voiceActing": [
            "Рус. Дублированный"
          ],
          "ads": false,
          "subtitle": []
        },
        {
          "episode": 63,
          "name": "Покажи и расскажи (Show and Tell)",
          "iframe_url": "",
          "iframe_poster": "https://img.imgilall.me/movies/video/1/0/4/2/7/7/0/0/0/0/800x450_104277.jpeg",
          "release_ru": null,
          "release_world": null,
          "availability": null,
          "voiceActing": [
            "Рус. Дублированный"
          ],
          "ads": false,
          "subtitle": []
        },
        {
          "episode": 64,
          "name": "Ракета - Пожарная машина (Fire Truck Rocket)",
          "iframe_url": "",
          "iframe_poster": "https://img.imgilall.me/movies/video/1/0/4/2/7/8/0/0/0/0/800x450_104278.jpeg",
          "release_ru": null,
          "release_world": null,
          "availability": null,
          "voiceActing": [
            "Рус. Дублированный"
          ],
          "ads": false,
          "subtitle": []
        },
        {
          "episode": 65,
          "name": "Ракета - букашка (Rocket The Bug)",
          "iframe_url": "",
          "iframe_poster": "https://img.imgilall.me/movies/video/1/0/4/2/7/9/0/0/0/0/800x450_104279.jpeg",
          "release_ru": null,
          "release_world": null,
          "availability": null,
          "voiceActing": [
            "Рус. Дублированный"
          ],
          "ads": false,
          "subtitle": []
        },
        {
          "episode": 66,
          "name": "Большой парад маленького слоненка (Little Elephant's Big Parade)",
          "iframe_url": "",
          "iframe_poster": "https://img.imgilall.me/movies/video/1/0/4/2/8/0/0/0/0/0/800x450_104280.jpeg",
          "release_ru": null,
          "release_world": null,
          "availability": null,
          "voiceActing": [
            "Рус. Дублированный"
          ],
          "ads": false,
          "subtitle": []
        }
      ]
    }
  ],
  "voiceActing": [
    "Рус. Дублированный",
    "Eng.Original"
  ],
  "subtitle": [],
  "parts": []
}
