{
  "id": 840,
  "name": "Эльвира, Повелительница тьмы",
  "name_eng": "Elvira, Mistress of the Dark",
  "year": 1988,
  "slogan": "«Here comes Elvira... There goes the neighbourhood!»",
  "age": "16+",
  "type": "film",
  "quality": "FHD (1080p)",
  "imdb": "6.6",
  "imdb_id": "0095088",
  "kinopoisk": "6.9",
  "kinopoisk_id": "34186",
  "world_art": null,
  "world_art_id": null,
  "time": "92 мин. / 01:32",
  "ads": false,
  "premier": "1988-09-30",
  "premier_rus": null,
  "availability": null,
  "activate_time": "2018-07-04 15:36:10",
  "budget": "$7 500 000",
  "fees_use": "$5 596 267",
  "fees_world": null,
  "fees_rus": null,
  "rate_mpaa": "PG-13",
  "description": "На телезвезду Эльвиру неожиданно обрушивается наследство в виде тетушкиного поместья в маленьком городишке. Местное население при виде Эльвиры в сногсшибательном платье со сногсшибательным декольте испытывает настоящий шок. Женская половина обитателей города приходит в негодование, мужская - в восторг. Но Эльвира дает отпор не только местным ханжам, но и зловещему Князю Тьмы, оказавшемуся здесь же...",
  "iframe_url": "",
  "iframe_poster": null,
  "poster": "https://img.imgilall.me/movies/franchise/8/4/0/0/0/0/0/0/0/0/610x900_840.jpg",
  "country": {
    "1": "США"
  },
  "collection": {
    "45": "Фильмы на Хэллоуин"
  },
  "genre": {
    "26": "Ужасы",
    "6": "Фэнтези",
    "19": "Комедия",
    "10": "Зарубежный"
  },
  "director": [
    "Джеймс Синьорелли"
  ],
  "screenwriter": [
    "Сэм Иган",
    "Джон Парагон",
    "Кассандра Петерсон"
  ],
  "producer": [
    "Эрик Гарднер",
    "Марк Пирсон",
    "Майкл И. Рахмил"
  ],
  "operator": [
    "Ханания Баэр"
  ],
  "composer": [
    "Джеймс Б. Кэмпбелл"
  ],
  "design": [
    "Джон ДеКуир мл.",
    "Бетси Хайман",
    "Брюс А. Гибесон"
  ],
  "editor": [
    "Бэттл Дэвис"
  ],
  "actors": [
    "Кассандра Петерсон",
    "Уильям Морган Шеппард",
    "Дэниэл Грин",
    "Сьюзэн Келлерман",
    "Эди Макклёрг",
    "Курт Фуллер",
    "Джефф Конэвей",
    "Уильям Дюэл",
    "Пэт Кроуфорд Браун",
    "Эллен Даннинг"
  ],
  "actors_dubl": [],
  "trivia": [
    "Машину главной героине сделали особенной. За $2 500 был куплен заднеприводной люксовый Ford Thunderbird 1958 года выпуска и полностью переоборудован, но что ушло свыше $7 000. После съёмок автомобиль остался у исполнительницы главной роли актрисы Кассандры Петерсон. Она им пользовалась для поездок на рекламные и благотворительные мероприятия, которые посещала в образе Эльвиры.",
    "Образ телеведущей, которую сыграла Тресс МакНилл, был списан с реально существовавшей ведущей с местного телевизионного канала, с которой Кассандра Петерсон в своё время не ладила.",
    "На портрете тётушки Морганы Тэлботт изображена в действительности сама Кассандра Петерсон — только без макияжа и парика.",
    "Сонный городок в массачусетской глубинке снимали на самом деле на одной из улиц натурной съёмочной площадки студии Warner Bros.",
    "На съёмки сцены, в которой Эльвиру сжигают на костре, ушло 5 дней. Каждый день съёмок актрисе Кассандре Петерсон приходилось проводить долгие часы, стоя привязанной к столбу. Во время съёмок сожжения Эльвиры на костре жар оказался настолько сильным, что расплавил чёрный парик Кассандры.",
    "Перед заправкой была выкопана двенадцатиметровая канава, в которую залили бензин. Это было сделано для съёмок сцены со взрывом автозаправочной станции."
  ],
  "trailers": [],
  "seasons": [],
  "voiceActing": [
    "Рус. Проф. многоголосый",
    "Рус. Проф. двухголосый",
    "Рус. Люб. одноголосый",
    "Рус. Одноголосый",
    "Укр. Проф. багатоголосий",
    "Eng.Original"
  ],
  "subtitle": [
    "Рус. полные"
  ],
  "parts": [
    840,
    841
  ]
}
