{
  "id": 8483,
  "name": "Ох уж этот Бруно!",
  "name_eng": "It’s Bruno!",
  "year": 2019,
  "slogan": "",
  "age": "16+",
  "type": "series",
  "quality": "HD (720p)",
  "imdb": "7.6",
  "imdb_id": "10186846",
  "kinopoisk": null,
  "kinopoisk_id": "1254282",
  "world_art": null,
  "world_art_id": null,
  "time": "15 мин.",
  "ads": false,
  "premier": "2019-05-17",
  "premier_rus": "2019-05-18",
  "availability": "2019-05-19",
  "serial_status": "paused",
  "activate_time": "2019-05-09 11:12:31",
  "budget": "",
  "fees_use": "",
  "fees_world": "",
  "fees_rus": "",
  "rate_mpaa": "",
  "description": "Часто говорят, что питомцы являются отражением своих хозяев. Но действительно ли это так? Авторы комедийного сериала «Это Бруно» дают своим зрителям возможность убедиться в этом на примере одного очень забавного животного и его владельца.\r\n\r\nВ центре истории оказывается пес, которого зовут Бруно. Он живет вместе со своим не самым приветливым и добродушным владельцем. Они так сильно привыкли друг к другу, что уже даже не представляют, как могут жить по раздельности. Герои живут вместе уже много лет, поэтому они считают себя за полноценную семью. Да и местные жители маленького провинциального городка, где живут герои, считают аналогичным образом. Все в округе прекрасно знают Малькольма и его верного пса Бруно. Но особенно хорошо прохожие знают, что никому не позволено прикасаться к любимому питомцу Малькольма. Молодой человек так сильно не любит, когда его другу уделяют подобное внимание, что он начинает сильно нервничать. А иногда дело даже доходит до скандала. Из-за этого он регулярно попадает в неловкие и нелепые ситуации.\r\n\r\nСмотрите серии комедийного сериала «Это Бруно» на нашем сайте онлайн, если хотите понаблюдать за этими двумя эксцентричными персонажами.\r\n",
  "iframe_url": "",
  "poster": "https://img.imgilall.me/movies/franchise/8/4/8/3/0/0/0/0/0/0/610x900_8483.jpg",
  "country": {
    "1": "США"
  },
  "collection": [],
  "genre": {
    "19": "Комедия",
    "10": "Зарубежный"
  },
  "director": [
    "Солван Наим"
  ],
  "screenwriter": [
    "Солван Наим",
    "Дэвид Чарльз Эберт"
  ],
  "producer": [
    "Аманда Бауэрс",
    "Молли Коннерс",
    "Хавьер Гонзалез"
  ],
  "operator": [
    "Симус Тирни"
  ],
  "composer": [
    "Chris Hierro"
  ],
  "design": [
    "Лорен Кроуфорд",
    "Sukrit Kevin Boonruang",
    "Мария Хупер"
  ],
  "editor": [
    "Ryan McIlraith"
  ],
  "actors": [
    "Солван Наим",
    "Bruno",
    "Sam Eliad",
    "Доннел Роулингс",
    "Шакира Баррера",
    "Роб Морган",
    "Иден Меришоу",
    "Devale Ellis",
    "J. Ray Acosta",
    "Адриан Ленокс"
  ],
  "actors_dubl": [],
  "trivia": [],
  "trailers": [
    {
      "name": "трейлер №1",
      "number": 1,
      "iframe_poster": "https://img.imgilall.me/movies/trailer/5/1/9/0/0/0/0/0/0/0/800x450_519.jpeg",
      "season": 1,
      "iframe_url": ""
    }
  ],
  "seasons": [
    {
      "poster": "https://img.imgilall.me/movies/season/5/6/3/3/0/0/0/0/0/0/610x900_5633.jpg",
      "release_ru": "2019-05-18",
      "release_world": "2019-05-17",
      "availability": "2019-05-19",
      "iframe_url": "",
      "season": 1,
      "episodes": [
        {
          "episode": 1,
          "name": "Operation Turkey Meat",
          "iframe_url": "",
          "iframe_poster": "https://img.imgilall.me/movies/video/9/7/6/5/7/0/0/0/0/0/800x450_97657.jpeg",
          "release_ru": "2019-05-18",
          "release_world": "2019-05-17",
          "availability": "2019-05-19",
          "voiceActing": [
            "Sound Film"
          ],
          "ads": false,
          "subtitle": []
        },
        {
          "episode": 2,
          "name": "Shit and Run",
          "iframe_url": "",
          "iframe_poster": "https://img.imgilall.me/movies/video/9/7/6/5/5/0/0/0/0/0/800x450_97655.jpeg",
          "release_ru": "2019-05-18",
          "release_world": "2019-05-17",
          "availability": "2019-05-19",
          "voiceActing": [
            "Sound Film"
          ],
          "ads": false,
          "subtitle": []
        },
        {
          "episode": 3,
          "name": "An Angie Is Born",
          "iframe_url": "",
          "iframe_poster": "https://img.imgilall.me/movies/video/9/7/6/5/4/0/0/0/0/0/800x450_97654.jpeg",
          "release_ru": "2019-05-18",
          "release_world": "2019-05-17",
          "availability": "2019-05-19",
          "voiceActing": [
            "Sound Film"
          ],
          "ads": false,
          "subtitle": []
        },
        {
          "episode": 4,
          "name": "Lovely Lulu",
          "iframe_url": "",
          "iframe_poster": "https://img.imgilall.me/movies/video/9/7/6/5/6/0/0/0/0/0/800x450_97656.jpeg",
          "release_ru": "2019-05-18",
          "release_world": "2019-05-17",
          "availability": "2019-05-19",
          "voiceActing": [
            "Sound Film"
          ],
          "ads": false,
          "subtitle": []
        },
        {
          "episode": 5,
          "name": "War of the Walkers",
          "iframe_url": "",
          "iframe_poster": "https://img.imgilall.me/movies/video/9/7/6/5/8/0/0/0/0/0/800x450_97658.jpeg",
          "release_ru": "2019-05-18",
          "release_world": "2019-05-17",
          "availability": "2019-05-19",
          "voiceActing": [
            "Sound Film"
          ],
          "ads": false,
          "subtitle": []
        },
        {
          "episode": 6,
          "name": "Rock Bottom",
          "iframe_url": "",
          "iframe_poster": "https://img.imgilall.me/movies/video/9/7/6/5/9/0/0/0/0/0/800x450_97659.jpeg",
          "release_ru": "2019-05-18",
          "release_world": "2019-05-17",
          "availability": "2019-05-19",
          "voiceActing": [
            "Sound Film"
          ],
          "ads": false,
          "subtitle": []
        },
        {
          "episode": 7,
          "name": "Ranger Danger",
          "iframe_url": "",
          "iframe_poster": "https://img.imgilall.me/movies/video/9/7/9/4/0/0/0/0/0/0/800x450_97940.jpeg",
          "release_ru": "2019-05-18",
          "release_world": "2019-05-17",
          "availability": "2019-05-19",
          "voiceActing": [
            "Sound Film"
          ],
          "ads": false,
          "subtitle": []
        },
        {
          "episode": 8,
          "name": "Welcome Bruno",
          "iframe_url": "",
          "iframe_poster": "https://img.imgilall.me/movies/video/9/7/9/4/1/0/0/0/0/0/800x450_97941.jpeg",
          "release_ru": "2019-05-18",
          "release_world": "2019-05-17",
          "availability": "2019-05-19",
          "voiceActing": [
            "Sound Film"
          ],
          "ads": false,
          "subtitle": []
        }
      ]
    }
  ],
  "voiceActing": [
    "Sound Film"
  ],
  "subtitle": [],
  "parts": []
}
