{
  "id": 8502,
  "name": "Красавчик со стажем",
  "name_eng": "Just a Gigolo",
  "year": 2019,
  "slogan": "—",
  "age": "16+",
  "type": "film",
  "quality": "FHD (1080p)",
  "imdb": "5.5",
  "imdb_id": "8163224",
  "kinopoisk": "6.3",
  "kinopoisk_id": "1190636",
  "world_art": null,
  "world_art_id": null,
  "time": "94 мин. / 01:34",
  "ads": false,
  "premier": "2019-04-17",
  "premier_rus": "2019-07-11",
  "availability": null,
  "activate_time": "2019-07-17 15:42:00",
  "budget": null,
  "fees_use": null,
  "fees_world": "$6 994",
  "fees_rus": "$318 456",
  "rate_mpaa": null,
  "description": "Встречайте мужчину мечты! Он знает секреты обольщения и вовсю этим пользуется, чтобы жить в свое удовольствие. Возможно, опытный мачо уже немного растерял обаяние, но отказываться от роскошной жизни не входит в его планы. Применяя весь свой арсенал, он вновь готов вернуться в игру.",
  "iframe_url": "",
  "iframe_poster": null,
  "poster": "https://img.imgilall.me/movies/franchise/8/5/0/2/0/0/0/0/0/0/610x900_8502.jpg",
  "country": {
    "9": "Франция"
  },
  "collection": [],
  "genre": {
    "19": "Комедия",
    "10": "Зарубежный"
  },
  "director": [
    "Оливье Барру"
  ],
  "screenwriter": [
    "Оливье Барру",
    "Кад Мерад",
    "Chris Spain"
  ],
  "producer": [
    "Ришар Гранпьер",
    "Дмитрий Рассам",
    "Эухенио Дербес"
  ],
  "operator": [
    "Кристиан Абомн"
  ],
  "composer": [
    "Мартин Раппено"
  ],
  "design": [
    "Жиль Ишчан"
  ],
  "editor": [
    "Стефани Кутерье"
  ],
  "actors": [
    "Кад Мерад",
    "Анн Шаррье",
    "Леопольд Моати",
    "Паскаль Элбе",
    "Тьерри Лермитт",
    "Анни Дюпере",
    "Лионель Абелански",
    "Ги Леклюиз",
    "Андреа Ферреоль",
    "Ян Папин"
  ],
  "actors_dubl": [
    "Владимир Рыбальченко",
    "Елена Шульман",
    "Владимир Войтюк",
    "Александр Коврижных",
    "Андрей Бархударов"
  ],
  "trivia": [],
  "trailers": [
    {
      "name": "трейлер №1",
      "number": 1,
      "iframe_poster": "https://img.imgilall.me/movies/trailer/5/4/1/0/0/0/0/0/0/0/800x450_541.jpeg",
      "season": null,
      "iframe_url": ""
    }
  ],
  "seasons": [],
  "voiceActing": [
    "Рус. Дублированный",
    "Eng.Original"
  ],
  "subtitle": [
    "Рус. полные"
  ],
  "parts": []
}
