{
  "id": 8506,
  "name": "Покемон: Судьба Деоксиса",
  "name_eng": "Pokemon: Destiny Deoxys",
  "year": 2004,
  "slogan": "«Beware. The face of the earth is falling apart»",
  "age": "12+",
  "type": "anime-film",
  "quality": "SD",
  "imdb": "6.1",
  "imdb_id": "0435286",
  "kinopoisk": "5.9",
  "kinopoisk_id": "85151",
  "world_art": "7.6",
  "world_art_id": "3551",
  "time": "98 мин. / 01:38",
  "ads": false,
  "premier": "2004-07-17",
  "premier_rus": null,
  "availability": null,
  "activate_time": "2019-12-13 15:07:00",
  "budget": "¥ 10 203 000",
  "fees_use": null,
  "fees_world": null,
  "fees_rus": null,
  "rate_mpaa": null,
  "description": "Когда Эш, Пикачу и друзья приезжают в сверхсовременный город Ларусс, чтобы сразиться в знаменитой башне, появляется космический гигант Деоксис! Он угрожает городу, и Эш с друзьями, пытаясь защитить жителей, оказываются в самом захватывающем приключение в своей жизни!",
  "iframe_url": "",
  "iframe_poster": null,
  "poster": "https://img.imgilall.me/movies/franchise/8/5/0/6/0/0/0/0/0/0/610x900_8506.jpg",
  "country": {
    "1": "США",
    "18": "Япония"
  },
  "collection": [],
  "genre": {
    "9": "Приключения",
    "11": "Фантастика",
    "6": "Фэнтези",
    "33": "Семейный",
    "17": "Боевик",
    "10": "Зарубежный",
    "7": "Драма"
  },
  "director": [
    "Кунихико Юяма",
    "Даррен Данстэн"
  ],
  "screenwriter": [
    "Джеймс Картер Каткарт",
    "Норман Дж. Гроссфелд",
    "Кэти Пилон"
  ],
  "producer": [
    "Юкако Мацусако",
    "Такэмото Мори",
    "Дзюнъя Окамото"
  ],
  "operator": [
    "Такая Мидзутани"
  ],
  "composer": [
    "Синдзи Миядзаки"
  ],
  "design": [
    "Минору Акиба"
  ],
  "editor": [
    "Тосио Хэнми"
  ],
  "actors": [
    "Вероника Тейлор",
    "Эрик Стюарт",
    "Эми Бернбаум",
    "Мадлен Блауштейн",
    "Рэйчел Лиллис",
    "Икуэ Отани",
    "Тара Джейн",
    "Майк Поллок",
    "Кайзи Роджерс",
    "Себастьян Арселус"
  ],
  "actors_dubl": [],
  "trivia": [],
  "trailers": [],
  "seasons": [],
  "voiceActing": [
    "Рус. Проф. многоголосый"
  ],
  "subtitle": [],
  "parts": [
    5453,
    8456,
    8457,
    8458,
    8459,
    8498,
    8501,
    8506,
    8507,
    8509,
    8510,
    8512,
    8513,
    8515,
    8518,
    8519,
    8545,
    8546,
    8547,
    8548,
    8549,
    8550
  ]
}
