{
  "id": 8863,
  "name": "Третий глаз",
  "name_eng": "The Third Eye / The 3rd Eye",
  "year": 2017,
  "slogan": "«Believing is seeing»",
  "age": null,
  "type": "film",
  "quality": "HD (720p)",
  "imdb": "5.2",
  "imdb_id": "6506146",
  "kinopoisk": "4.9",
  "kinopoisk_id": "1072722",
  "world_art": null,
  "world_art_id": null,
  "time": "108 мин. / 01:48",
  "ads": false,
  "premier": "2017-11-30",
  "premier_rus": null,
  "availability": null,
  "activate_time": "2019-05-20 14:24:33",
  "budget": null,
  "fees_use": null,
  "fees_world": null,
  "fees_rus": null,
  "rate_mpaa": null,
  "description": "Ещё с детства маленькая Абэл всё время что-то видела, слышала и чего-то боялась, поэтому обеспеченному семейству пришлось уехать из роскошного особняка, где девочке было особенно страшно.Несколько лет спустя, после гибели родителей, сёстры Алия и Абэл вынуждены снова вернуться в том дом. Жить им больше негде, поэтому старшая Алия по голо сыта истериками младшей и уговаривает её отправиться к психологу, но вместо этого девушки приходят к шаманке Бу Винду. Там выясняется, что у Абэл открыт третий глаз, и женщина многие годы учила девушку, как с этим жить. Но Алия не верит в эту мистическую чушь и, желая убедиться сама, требует, чтобы Винду открыла ей третий глаз.",
  "iframe_url": "",
  "iframe_poster": "https://img.imgilall.me/movies/video/9/2/9/7/6/0/0/0/0/0/800x450_92976.jpeg",
  "poster": "https://img.imgilall.me/movies/franchise/8/8/6/3/0/0/0/0/0/0/610x900_8863.jpg",
  "country": {
    "40": "Индонезия"
  },
  "collection": [],
  "genre": {
    "26": "Ужасы",
    "13": "Триллер",
    "10": "Зарубежный"
  },
  "director": [
    "Роки Сорайя"
  ],
  "screenwriter": [
    "Riheam Junianti",
    "Фаджар Умбара",
    "Роки Сорайя"
  ],
  "producer": [
    "Раам Сорайя",
    "Роки Сорайя",
    "Mohan Nankani"
  ],
  "operator": [
    "Асеп Калила"
  ],
  "composer": [
    "Nara Anindyaguna",
    "Randy Nidji"
  ],
  "design": [
    "Луна Майя"
  ],
  "editor": [
    "Sastha Sunu"
  ],
  "actors": [
    "Джессика Мила",
    "Denny Sumargo",
    "Читра Прима",
    "Бьянка Хелло",
    "Эпи Куснандар",
    "Anita Hara",
    "Derry Drajat",
    "Voke Victoria",
    "Шофия Ширин",
    "Afdhal Yusman"
  ],
  "actors_dubl": [],
  "trivia": [],
  "trailers": [],
  "seasons": [],
  "voiceActing": [
    "Baibako"
  ],
  "subtitle": [],
  "parts": [
    8863,
    9541
  ]
}
