{
  "id": 8983,
  "name": "Земля До Начала Времен 12: Великий День Птиц",
  "name_eng": "The Land Before Time XII: The Great Day of the Flyers",
  "year": 2006,
  "slogan": "—",
  "age": "0+",
  "type": "cartoon",
  "quality": "SD",
  "imdb": "6.0",
  "imdb_id": "0933064",
  "kinopoisk": "6.8",
  "kinopoisk_id": "307343",
  "world_art": null,
  "world_art_id": null,
  "time": "77 мин. / 01:17",
  "ads": false,
  "premier": "2006-11-23",
  "premier_rus": null,
  "availability": null,
  "activate_time": "2019-11-10 21:34:00",
  "budget": null,
  "fees_use": null,
  "fees_world": null,
  "fees_rus": null,
  "rate_mpaa": "G",
  "description": "Веселье начинает свой полет в компании наших доисторических друзей Литлфута, Сэры, Питри, Спайка и Даки в новом парящем приключении! «Великий День Птиц» - важное событие в жизни всех летающих Великой Долины - совсем скоро наступит, но независимый свободный стиль Питри не позволяет герою вписаться в стаю своих близких. Друзья стараются помочь ему, но новичок по имени Гвидо дает самый полезный совет - иногда лучше оставаться «самим собой». Никто никогда не видел такого как Гвидо, и когда команда пытается выяснить, к какому виду динозавров он принадлежит, они неожиданно оказываются вовлечены в волнующее таинственное путешествие.",
  "iframe_url": "",
  "iframe_poster": null,
  "poster": "https://img.imgilall.me/movies/franchise/8/9/8/3/0/0/0/0/0/0/610x900_8983.jpg",
  "country": {
    "1": "США"
  },
  "collection": {
    "91": "Про динозавров",
    "71": "Про путешествия"
  },
  "genre": {
    "9": "Приключения",
    "37": "Детский",
    "33": "Семейный",
    "10": "Зарубежный"
  },
  "director": [
    "Чарльз Гросвенор"
  ],
  "screenwriter": [
    "Джон Лой",
    "Джуди Фредберг",
    "Тони Гейсс"
  ],
  "producer": [
    "Косма Пол Болджер мл.",
    "Чарльз Гросвенор",
    "Джеймс Ванг"
  ],
  "operator": [],
  "composer": [
    "Кайл Кеннет Баттер",
    "Майкл Тавера"
  ],
  "design": [
    "Фламарион Феррейра"
  ],
  "editor": [
    "Джей Бикссен"
  ],
  "actors": [
    "Джон Ингл",
    "Ник Прайс",
    "Ария Ноэль Курзон",
    "Роб Полсен",
    "Камрин Менхейм",
    "Энди МакЭфи",
    "Джефф Беннетт",
    "Ника Футтерман",
    "Сьюзэн Блу",
    "Тресс МакНилл"
  ],
  "actors_dubl": [],
  "trivia": [],
  "trailers": [
    {
      "name": "трейлер №1",
      "number": 1,
      "iframe_poster": null,
      "season": null,
      "iframe_url": ""
    }
  ],
  "seasons": [],
  "voiceActing": [
    "Рус. Дублированный"
  ],
  "subtitle": [],
  "parts": [
    8975,
    2965,
    2966,
    2967,
    8976,
    8977,
    8978,
    8979,
    8980,
    8981,
    8982,
    8983,
    8984,
    8985
  ]
}
