{
  "id": 8993,
  "name": "Альфа и Омега 4: Легенда о Зубастой Пещере",
  "name_eng": "Alpha and Omega 4: The Legend of the Saw Toothed Cave",
  "year": 2014,
  "slogan": "«The wolf pack is back! In theaters and DVD October 7th!»",
  "age": "0+",
  "type": "cartoon",
  "quality": "HD (720p)",
  "imdb": "5.4",
  "imdb_id": "4061848",
  "kinopoisk": "5.7",
  "kinopoisk_id": "844169",
  "world_art": null,
  "world_art_id": null,
  "time": "45 мин.",
  "ads": false,
  "premier": "2014-09-23",
  "premier_rus": null,
  "availability": null,
  "activate_time": "2019-05-23 12:53:07",
  "budget": "$7 000 000",
  "fees_use": null,
  "fees_world": null,
  "fees_rus": null,
  "rate_mpaa": null,
  "description": "Волкам предстоит разгадать тайну Зубастой пещеры, которая до сих пор оставалась загадкой для всех. По легенде, там живет злой дух древнего волка, который теперь не доволен объединением двух стай. Волчонок Кроха, считающийся слабым омегой, показывает себя с самой лучшей стороны.",
  "iframe_url": "",
  "iframe_poster": "https://img.imgilall.me/movies/video/9/3/4/1/6/0/0/0/0/0/800x450_93416.jpeg",
  "poster": "https://img.imgilall.me/movies/franchise/8/9/9/3/0/0/0/0/0/0/610x900_8993.jpg",
  "country": {
    "1": "США"
  },
  "collection": [],
  "genre": {
    "6": "Фэнтези",
    "37": "Детский",
    "33": "Семейный",
    "17": "Боевик",
    "13": "Триллер",
    "10": "Зарубежный"
  },
  "director": [
    "Ричард Рич"
  ],
  "screenwriter": [
    "Стив Мур",
    "Том Кэйн"
  ],
  "producer": [
    "Дэниэл Энгельхардт",
    "Ной Фогельсон",
    "Сьюзэн Гелб"
  ],
  "operator": [],
  "composer": [],
  "design": [],
  "editor": [],
  "actors": [
    "Кейт Хиггинс",
    "Бен Дискин",
    "Деби Дерриберри",
    "Мариев Херингтон",
    "Ларри Томас",
    "Роберт Мартин Клейн",
    "Синди Робинсон",
    "Крис Кент",
    "Гилберт Боус",
    "Dennis Cox"
  ],
  "actors_dubl": [
    "Иван Калинин",
    "Ольга Голованова",
    "Андрей Гриневич",
    "Илья Хвостиков",
    "Жанна Никонова"
  ],
  "trivia": [],
  "trailers": [
    {
      "name": "трейлер №1",
      "number": 1,
      "iframe_poster": null,
      "season": null,
      "iframe_url": ""
    }
  ],
  "seasons": [],
  "voiceActing": [
    "Рус. Дублированный",
    "Eng.Original"
  ],
  "subtitle": [],
  "parts": [
    2111,
    8991,
    8992,
    8993,
    8994,
    8995,
    8996,
    8997
  ]
}
