{
  "id": 9308,
  "name": "Бешенство: Эр Канаро",
  "name_eng": "Rabbia furiosa / Dogman's Rabies",
  "year": 2018,
  "slogan": "—",
  "age": "18+",
  "type": "film",
  "quality": "HD (720p)",
  "imdb": "5.9",
  "imdb_id": "8406750",
  "kinopoisk": null,
  "kinopoisk_id": "1139012",
  "world_art": null,
  "world_art_id": null,
  "time": "120 мин. / 02:00",
  "ads": true,
  "premier": "2018-06-07",
  "premier_rus": "2018-06-08",
  "availability": "2018-06-09",
  "activate_time": "2019-09-13 17:24:00",
  "budget": "",
  "fees_use": "",
  "fees_world": "",
  "fees_rus": "",
  "rate_mpaa": "",
  "description": "События разворачиваются в одном из районов Рима. Фабио выходит из тюрьмы, где провел последние девять месяцев за преступление, которого не совершал. Он взял на себя вину своего друга Клаудио, бывшего боксера, который мечтает стать криминальным боссом, а пока зарабатывает на продаже наркотиков и собачьих боях. Добродушный Фабио, занимающийся лечением пострадавших на арене псов, стремится порвать с преступным миром, но Клаудио не отпускает его, продолжая использовать в своих целях и постоянно унижая \"друга\". Однажды, вытерпев очередную жестокую выходку Клаудио, Фабио срывается и отправляется мстить тому, кто разрушил его жизнь...",
  "iframe_url": "",
  "iframe_poster": "https://img.imgilall.me/movies/video/9/7/1/2/5/0/0/0/0/0/800x450_97125.jpeg",
  "poster": "https://img.imgilall.me/movies/franchise/9/3/0/8/0/0/0/0/0/0/610x900_9308.jpg",
  "country": {
    "8": "Италия"
  },
  "collection": [],
  "genre": {
    "25": "Криминал",
    "26": "Ужасы",
    "13": "Триллер",
    "10": "Зарубежный"
  },
  "director": [
    "Серджио Стивалетти"
  ],
  "screenwriter": [
    "Antonio Lusci",
    "Серджио Стивалетти",
    "Антонио Тентори"
  ],
  "producer": [
    "Giuseppe Manfrè",
    "Серджио Стивалетти"
  ],
  "operator": [
    "Франческо Чикконе"
  ],
  "composer": [
    "Маурицио Абени"
  ],
  "design": [
    "Francesco Bureca"
  ],
  "editor": [
    "Крешенцо Мацца",
    "Alfredo Angelo Orlandi"
  ],
  "actors": [
    "Риккардо Де Филиппис",
    "Марко Фелли",
    "Джанни Франко",
    "Eleonora Gentileschi",
    "Ромуальд Анджей Клос",
    "Джованни Ломбардо Радиче",
    "Emanuele Marchetti",
    "Луис Мольтени",
    "Ромина Монделло",
    "Eugen Neagu"
  ],
  "actors_dubl": [],
  "trivia": [],
  "trailers": [],
  "seasons": [],
  "voiceActing": [
    "Рус. Люб. многоголосый"
  ],
  "subtitle": [],
  "parts": []
}
