{
  "id": 940,
  "name": "Мысли о свободе",
  "name_eng": "Duma",
  "year": 2005,
  "slogan": "«Иногда друзья бывают дикими»",
  "age": "12+",
  "type": "film",
  "quality": "FHD (1080p)",
  "imdb": "7.2",
  "imdb_id": "0361715",
  "kinopoisk": "7.7",
  "kinopoisk_id": "47056",
  "world_art": null,
  "world_art_id": null,
  "time": "100 мин. / 01:40",
  "ads": false,
  "premier": "2005-04-22",
  "premier_rus": null,
  "availability": null,
  "activate_time": "2018-07-05 10:37:01",
  "budget": "$12 000 000",
  "fees_use": "$870 067",
  "fees_world": "+ $124 723 = $994 790",
  "fees_rus": null,
  "rate_mpaa": "PG",
  "description": "Удивительная история о 12-летнем мальчике Ксане, который вырастил гепарда, а затем вернул его в родные края и отпустил на волю. Суровые южноафриканские пейзажи, львы, крокодилы, бурные реки и таинственный странник, который надеется обернуть гепарда в деньги — все это станет испытанием мужества и решимости Ксана…",
  "iframe_url": "",
  "iframe_poster": null,
  "poster": "https://img.imgilall.me/movies/franchise/9/4/0/0/0/0/0/0/0/0/610x900_940.jpg",
  "country": {
    "1": "США"
  },
  "collection": {
    "39": "На реальных событиях",
    "18": "Про животных"
  },
  "genre": {
    "9": "Приключения",
    "33": "Семейный",
    "10": "Зарубежный",
    "7": "Драма"
  },
  "director": [
    "Кэррол Бэллард"
  ],
  "screenwriter": [
    "Карен Джансзен",
    "Марк Ст. Джермейн",
    "Кэрол  Кавтра Хопкрафт"
  ],
  "producer": [
    "Стэйси Коэн",
    "Е.К. Гэйлорд II",
    "Кристин Хармс"
  ],
  "operator": [
    "Вернер Маритц"
  ],
  "composer": [
    "Джордж Экогни",
    "Джон Дебни"
  ],
  "design": [
    "Джонни Бридт",
    "Джейн Форбс",
    "Эстель Баллак"
  ],
  "editor": [
    "Т.М. Кристофер"
  ],
  "actors": [
    "Алекс Микаэлетос",
    "Имонн Уокер",
    "Хоуп Дэвис",
    "Кэмпбелл Скотт",
    "Мэри Махато",
    "Нтабисенг Кеноши",
    "Дженнифер Штейн",
    "Никки Ребелло",
    "Гарт Ренекл",
    "Андре Штольц"
  ],
  "actors_dubl": [],
  "trivia": [
    "Фильм снят по мотивам автобиографической книги Ксана Хопкрафта и Кэрола Кавтра Хопкрафта «Жизнь с гепардами» (How it Was With Dooms, 1997)."
  ],
  "trailers": [],
  "seasons": [],
  "voiceActing": [
    "Рус. Проф. многоголосый",
    "Eng.Original"
  ],
  "subtitle": [
    "Рус. полные"
  ],
  "parts": []
}
