{
  "id": 9513,
  "name": "Лучшие планы",
  "name_eng": "The Best Laid Plans",
  "year": 2019,
  "slogan": "—",
  "age": "16+",
  "type": "film",
  "quality": "HD (720p)",
  "imdb": "7.5",
  "imdb_id": "5838376",
  "kinopoisk": null,
  "kinopoisk_id": "997471",
  "world_art": null,
  "world_art_id": null,
  "time": "73 мин. / 01:13",
  "ads": true,
  "premier": "2019-03-01",
  "premier_rus": null,
  "availability": null,
  "activate_time": "2019-06-18 14:49:07",
  "budget": "$10 000",
  "fees_use": "",
  "fees_world": "",
  "fees_rus": "",
  "rate_mpaa": "",
  "description": "Кевин, Аллен и Джон - лучшие друзья, они недавно получили дипломы и никак не могут найти работу. Когда Кевин узнает, что его семью скоро могут выселить из дома, он придумывает план, как раздобыть денег - забрать часть выигрыша в лотерею у их бывшего одноклассника, Томми.",
  "iframe_url": "",
  "iframe_poster": "https://img.imgilall.me/movies/video/9/8/5/2/0/0/0/0/0/0/800x450_98520.jpeg",
  "poster": "https://img.imgilall.me/movies/franchise/9/5/1/3/0/0/0/0/0/0/610x900_9513.jpg",
  "country": {
    "1": "США"
  },
  "collection": [],
  "genre": {
    "19": "Комедия",
    "10": "Зарубежный"
  },
  "director": [
    "Michael LiCastri"
  ],
  "screenwriter": [
    "Michael LiCastri"
  ],
  "producer": [
    "Michael LiCastri",
    "Росс Аланья",
    "Мика Лайонс"
  ],
  "operator": [
    "Scott Sullivan"
  ],
  "composer": [
    "Росс Аланья"
  ],
  "design": [],
  "editor": [
    "Devin Payne"
  ],
  "actors": [
    "Линни Куигли",
    "Эдвин Нил",
    "Yvelisse Cedrez",
    "Michael LiCastri",
    "Nat Fennell",
    "Марти Марреро",
    "Брайан Бэлланс",
    "Keith Surplus",
    "David Plowden",
    "Brandy Hensley"
  ],
  "actors_dubl": [],
  "trivia": [],
  "trailers": [],
  "seasons": [],
  "voiceActing": [
    "Octopus"
  ],
  "subtitle": [],
  "parts": []
}
