{
  "id": 9546,
  "name": "Пакт",
  "name_eng": "El pacto",
  "year": 2018,
  "slogan": "«Evil always claims its debt»",
  "age": "16+",
  "type": "film",
  "quality": "HD (720p)",
  "imdb": "5.3",
  "imdb_id": "7690762",
  "kinopoisk": "5.2",
  "kinopoisk_id": "1108594",
  "world_art": null,
  "world_art_id": null,
  "time": "106 мин. / 01:46",
  "ads": false,
  "premier": "2018-08-17",
  "premier_rus": null,
  "availability": "2018-08-18",
  "activate_time": "2019-06-24 19:19:53",
  "budget": null,
  "fees_use": "$2 488",
  "fees_world": "+ $1 853 159 = $1 855 647",
  "fees_rus": null,
  "rate_mpaa": "R",
  "description": "Дочь Моники Клара впадает в кому, врачи дают самые неутешительные прогнозы. Сходящая с ума от отчаяния мать готова на все, чтобы вернуть любимую дочь из небытия, — даже на сделку со сверхъестественными силами, которая грозит самыми ужасными последствиями.",
  "iframe_url": "",
  "iframe_poster": "https://img.imgilall.me/movies/video/9/9/1/8/3/0/0/0/0/0/800x450_99183.jpeg",
  "poster": "https://img.imgilall.me/movies/franchise/9/5/4/6/0/0/0/0/0/0/610x900_9546.jpg",
  "country": {
    "3": "Испания"
  },
  "collection": [],
  "genre": {
    "26": "Ужасы",
    "13": "Триллер"
  },
  "director": [
    "Давид Виктори"
  ],
  "screenwriter": [
    "Хорди Вальехо",
    "Давид Виктори",
    "Salvador Victori"
  ],
  "producer": [
    "Виктория Боррас",
    "Фернандо Бальделлу",
    "Клевер Беретта Кустодио"
  ],
  "operator": [
    "Элиас М. Феликс"
  ],
  "composer": [
    "Микель Колл"
  ],
  "design": [
    "Патрик Сальвадор",
    "Патриция Мартинез Феликс"
  ],
  "editor": [
    "Гильермо де ла Каль",
    "Давид Виктори"
  ],
  "actors": [
    "Белен Руэда",
    "Дарио Грандинетти",
    "Mireia Oriol",
    "Антонио Дуран «Моррис»",
    "Jordi Recasens",
    "Карлос Фабрегас",
    "Vanessa Buchaca",
    "Frederic Llobregat",
    "Хосеан Бенгоэчеа",
    "Льюиса Мальоль"
  ],
  "actors_dubl": [],
  "trivia": [],
  "trailers": [],
  "seasons": [],
  "voiceActing": [
    "HiWay Grope"
  ],
  "subtitle": [],
  "parts": [
    9546,
    19678
  ]
}
