{
  "id": 9575,
  "name": "VKадре",
  "name_eng": "Framed",
  "year": 2017,
  "slogan": "—",
  "age": "18++",
  "type": "film",
  "quality": "HD (720p)",
  "imdb": "4.8",
  "imdb_id": "5065346",
  "kinopoisk": null,
  "kinopoisk_id": "973122",
  "world_art": null,
  "world_art_id": null,
  "time": "80 мин. / 01:20",
  "ads": true,
  "premier": "2017-11-10",
  "premier_rus": "2020-08-10",
  "availability": null,
  "activate_time": "2019-09-11 17:36:00",
  "budget": "",
  "fees_use": "",
  "fees_world": "$39 071",
  "fees_rus": "",
  "rate_mpaa": "",
  "description": "Группа молодых людей подверглась нападению трёх человек. Жестокие игры и пытки будут транслироваться в прямом эфире.",
  "iframe_url": "",
  "iframe_poster": "https://img.imgilall.me/movies/video/9/9/8/6/4/0/0/0/0/0/800x450_99864.jpeg",
  "poster": "https://img.imgilall.me/movies/franchise/9/5/7/5/0/0/0/0/0/0/610x900_9575.jpg",
  "country": {
    "3": "Испания"
  },
  "collection": {
    "25": "Про маньяков"
  },
  "genre": {
    "26": "Ужасы",
    "10": "Зарубежный"
  },
  "director": [
    "Марк Мартинес"
  ],
  "screenwriter": [
    "Марк Мартинес",
    "Хаум Каспинера"
  ],
  "producer": [
    "Карлес Херрера",
    "Хоан Рамон Армадас",
    "Марк Каррете"
  ],
  "operator": [
    "Юсе Риера"
  ],
  "composer": [
    "Жорди Дальмау"
  ],
  "design": [
    "Таня Габриэлли",
    "Паула Аревало",
    "Атена Поу"
  ],
  "editor": [
    "Марк Мартинес",
    "Раймон Валлс"
  ],
  "actors": [
    "Энрик Окер",
    "Алекс Маруни",
    "Дэниэл Хорват",
    "Джо Манхон",
    "Бил Монторо",
    "Юлия Молинс",
    "Лидия Касанова",
    "Мерсе Монтала",
    "Клаудия Понс",
    "Карлос Фабрегас"
  ],
  "actors_dubl": [],
  "trivia": [],
  "trailers": [],
  "seasons": [],
  "voiceActing": [
    "Рус. Люб. многоголосый"
  ],
  "subtitle": [],
  "parts": []
}
