{
  "id": 9741,
  "name": "Мулан",
  "name_eng": "Mulan",
  "year": 2020,
  "slogan": "«Loyal, Brave, True»",
  "age": "6+",
  "type": "film",
  "quality": "FHD (1080p)",
  "imdb": "5.7",
  "imdb_id": "4566758",
  "kinopoisk": "6.3",
  "kinopoisk_id": "918722",
  "world_art": null,
  "world_art_id": null,
  "time": "115 мин. / 01:55",
  "ads": false,
  "premier": "2020-07-24",
  "premier_rus": "2020-07-24",
  "availability": "2020-07-25",
  "activate_time": "2019-08-18 20:15:00",
  "budget": "$200 000 000",
  "fees_use": null,
  "fees_world": "$66 800 000",
  "fees_rus": "$4 309 732",
  "rate_mpaa": "PG-13",
  "description": "Изданный императором Китая указ о призыве на службу в армии одного мужчины из каждой семьи для защиты страны от северных захватчиков вдохновляет Мулан, старшую дочь почетного воина, занять в войсках место больного отца. Одевшись мужчиной, девушка подвергается испытаниям на каждом шагу, проявляя свои внутреннюю силу и истинный потенциал. Мулан ждет эпичное путешествие, которое превратит её в доблестного воина, позволит заслужить уважение народа и стать гордостью отца.",
  "iframe_url": "",
  "iframe_poster": null,
  "poster": "https://img.imgilall.me/movies/franchise/9/7/4/1/0/0/0/0/0/0/610x900_9741.jpg",
  "country": {
    "1": "США"
  },
  "collection": [],
  "genre": {
    "9": "Приключения",
    "6": "Фэнтези",
    "10": "Зарубежный",
    "7": "Драма"
  },
  "director": [
    "Ники Каро"
  ],
  "screenwriter": [
    "Рик Джаффа",
    "Аманда Сильвер",
    "Элизабет Мартин"
  ],
  "producer": [
    "Тендо Нагенда",
    "Крис Бендер",
    "Питер Клюс"
  ],
  "operator": [
    "Мэнди Уокер"
  ],
  "composer": [
    "Гарри Грегсон-Уильямс"
  ],
  "design": [
    "Грант Мейджор",
    "Джейсон Т. Кларк",
    "Джилл Кормак"
  ],
  "editor": [
    "Дэвид Колсон"
  ],
  "actors": [
    "Лю Ифэй",
    "Донни Йен",
    "Гун Ли",
    "Джет Ли",
    "Джейсон Скотт Ли",
    "Йосон Ань",
    "Ма Ци",
    "Розалинд Чао",
    "Чжэн Пэйпэй",
    "Сюзанна Тан"
  ],
  "actors_dubl": [
    "Анастасия Лазо",
    "Александр Койгеров",
    "Мария Цветкова-Овсянникова",
    "Алексей Макрецкий",
    "Олег Фёдоров"
  ],
  "trivia": [
    "В поисках актрисы на роль Мулан ассистенты режиссёра побывали в пяти странах и встретились с почти 1 000 кандидатками. Требования к кандидаткам предъявлялись следующие: владение боевыми искусствами, знание английского языка и хотя бы относительная известность.",
    "По правилам имя главной героини на русский должно транскрибироваться как «Мулань».",
    "Съёмки происходили на 20 локациях в Китае, включая провинцию Хубэй в\nцентральном Китае, так называемую гору звенящего песка Миншашань в провинции Ганьсу и Национальный геологический парк Чжанъе Данься на северо-западе Китая, Огненные горы пустыни Такла-Макан, деревню Мацзар, а также уезды Дуньхуан и Цзюцюань в провинции Ганьсу и студийные павильоны в провинции Чжэцзян на востоке Китая.",
    "В мультфильме 1998 года главным антагонистом был Шань-Ю, военачальник гуннов, тогда как здесь в роли злодея выступает ведьма. Такое решение было принято, чтобы максимально приблизить фильм к усе (жанру кино и литературы о приключениях в древнем Китае с упором на демонстрацию боевых искусств и зачастую с элементами фэнтези) и оправдать наличие сверхъестественных элементов и персонажей."
  ],
  "trailers": [
    {
      "name": "трейлер №1",
      "number": 1,
      "iframe_poster": "https://img.imgilall.me/movies/trailer/6/8/6/0/0/0/0/0/0/0/800x450_686.jpeg",
      "season": null,
      "iframe_url": ""
    },
    {
      "name": "трейлер №2",
      "number": 2,
      "iframe_poster": null,
      "season": null,
      "iframe_url": ""
    }
  ],
  "seasons": [],
  "voiceActing": [
    "Рус. Дублированный",
    "Eng.Original"
  ],
  "subtitle": [
    "Рус. форсированные"
  ],
  "parts": []
}
