{
  "id": 9763,
  "name": "Бандит, полицейский, дьявол",
  "name_eng": "Akinjeon",
  "year": 2019,
  "slogan": "«Не дай дьяволу выиграть»",
  "age": "18+",
  "type": "film",
  "quality": "FHD (1080p)",
  "imdb": "6.9",
  "imdb_id": "10208198",
  "kinopoisk": "7.1",
  "kinopoisk_id": "1177510",
  "world_art": null,
  "world_art_id": null,
  "time": "110 мин. / 01:50",
  "ads": false,
  "premier": "2019-05-15",
  "premier_rus": null,
  "availability": null,
  "activate_time": "2019-07-24 12:13:00",
  "budget": "$6 500 000",
  "fees_use": "$216 494",
  "fees_world": "+ $25 558 877 = $25 775 371",
  "fees_rus": null,
  "rate_mpaa": null,
  "description": "2005 год. Криминальный босс провинциального города Чхонан Чан Дон-су подвергается нападению серийного убийцы и оказывается единственной выжившей жертвой. Репутация подмочена, единственный способ восстановить авторитет в глазах братвы — найти нападавшего и отомстить. Местный детектив Чон Тхэ-сок всей своей полицейской душой ненавидит организованную преступность, но ему приходится объединить силы с бандитом Дон-су, чтобы изловить ещё более ненавистного маньяка.",
  "iframe_url": "",
  "iframe_poster": null,
  "poster": "https://img.imgilall.me/movies/franchise/9/7/6/3/0/0/0/0/0/0/610x900_9763.jpg",
  "country": {
    "16": "Корея Южная"
  },
  "collection": [],
  "genre": {
    "25": "Криминал",
    "17": "Боевик",
    "13": "Триллер",
    "10": "Зарубежный"
  },
  "director": [
    "Ли Вон-тхэ"
  ],
  "screenwriter": [
    "Ли Вон-тхэ"
  ],
  "producer": [
    "Чан Вон-сок",
    "Со Ган-хо"
  ],
  "operator": [
    "Пак Сэ-сын"
  ],
  "composer": [
    "Чо Ён-ук"
  ],
  "design": [
    "Чо Хва-сон",
    "Чон И-джин",
    "Нам Джи-су"
  ],
  "editor": [
    "Хо Сон-ми"
  ],
  "actors": [
    "Ма Дон-сок",
    "Ким Му-ёль",
    "Ким Сон-гю",
    "Ю Сын-мок",
    "Чхве Мин-чхоль",
    "Ким Юн-сон",
    "Хо Дон-вон",
    "У Ган-мин",
    "Ким Гю-ри",
    "Ю Джэ-мён"
  ],
  "actors_dubl": [
    "Геннадий Новиков",
    "Андрей Бархударов",
    "Александр Лучинин",
    "Александр Коврижных",
    "Дмитрий Кривощапов"
  ],
  "trivia": [
    "Оригинальное название фильма переводится как «История злодея».",
    "Съёмочный период — с 31 июля по 18 ноября 2018 года.",
    "Фильм основан на реальных событиях."
  ],
  "trailers": [],
  "seasons": [],
  "voiceActing": [
    "Рус. Дублированный",
    "Рус. Проф. многоголосый",
    "Eng.Original"
  ],
  "subtitle": [
    "Рус. форсированные"
  ],
  "parts": []
}
