{
  "id": 9995,
  "name": "Медведи-соседи: Большое уменьшение",
  "name_eng": "Boonie Bears: The Big Shrink",
  "year": 2018,
  "slogan": "—",
  "age": "6+",
  "type": "cartoon",
  "quality": "HD (720p)",
  "imdb": "5.6",
  "imdb_id": "8028526",
  "kinopoisk": null,
  "kinopoisk_id": "1112659",
  "world_art": null,
  "world_art_id": null,
  "time": "90 мин. / 01:30",
  "ads": true,
  "premier": "2018-02-16",
  "premier_rus": null,
  "availability": null,
  "activate_time": "2019-09-02 16:14:00",
  "budget": "",
  "fees_use": "",
  "fees_world": "",
  "fees_rus": "",
  "rate_mpaa": "",
  "description": "Изобретатель Виктор и парочка медведей стали крохотными, случайно попав под действие уменьшающего фонарика, созданного самим Виктором. Они отправляются в путешествие, чтобы вернуть себе прежний размер, а заодно спасти от загрязнения реку, по которой проходит миграция лосося.\r\n",
  "iframe_url": "",
  "iframe_poster": "https://img.imgilall.me/movies/video/1/0/5/1/0/3/0/0/0/0/800x450_105103.jpeg",
  "poster": "https://img.imgilall.me/movies/franchise/9/9/9/5/0/0/0/0/0/0/610x900_9995.jpg",
  "country": {
    "19": "Китай"
  },
  "collection": [],
  "genre": {
    "9": "Приключения",
    "19": "Комедия",
    "10": "Зарубежный"
  },
  "director": [
    "Линь Юнчан",
    "Линь Хуэйда",
    "Дин Лян"
  ],
  "screenwriter": [
    "Рэйчел Сюй",
    "Вань Цинь"
  ],
  "producer": [],
  "operator": [],
  "composer": [],
  "design": [],
  "editor": [],
  "actors": [
    "Чжан Вэй",
    "Чжан Бинцзюнь",
    "Тань Сяо"
  ],
  "actors_dubl": [],
  "trivia": [],
  "trailers": [],
  "seasons": [],
  "voiceActing": [
    "Рус. Люб. многоголосый"
  ],
  "subtitle": [],
  "parts": []
}
