{
  "id": 18195,
  "name": "Любовь-морковь по-французски",
  "name_eng": "L'un dans l'autre",
  "year": 2017,
  "slogan": "—",
  "age": "18+",
  "type": "film",
  "quality": "SD",
  "imdb": "5.4",
  "imdb_id": "6096500",
  "kinopoisk": "5.5",
  "kinopoisk_id": "1006220",
  "world_art": null,
  "world_art_id": null,
  "time": "85 мин. / 01:25",
  "ads": false,
  "premier": "2017-08-23",
  "premier_rus": "2017-11-16",
  "availability": "2017-11-17",
  "activate_time": "2020-05-08 10:49:00",
  "budget": null,
  "fees_use": null,
  "fees_world": "$1 943 343",
  "fees_rus": "$21 887",
  "rate_mpaa": null,
  "description": "Пьер и Эми и Эрик и Пенелопа дружат тысячу лет. Но вдруг Пьер и Пенелопа становятся любовниками. Не в силах выйти из ситуации, они решают прекратить отношения. Но после ночи, которая должна была стать последней, они просыпаются… в телах друг друга! Теперь им нужно сохранить свою тайну и как-то вывернуться из всех проблем.",
  "iframe_url": "",
  "iframe_poster": null,
  "poster": "https://img.imgilall.me/movies/franchise/1/8/1/9/5/0/0/0/0/0/610x900_18195.jpg",
  "country": {
    "9": "Франция",
    "29": "Бельгия"
  },
  "collection": [],
  "genre": {
    "19": "Комедия"
  },
  "director": [
    "Бруно Шиш"
  ],
  "screenwriter": [
    "Бруно Шиш",
    "Николя Мерсье",
    "Clément Peny"
  ],
  "producer": [
    "Летиция Голицына",
    "Филипп  Руссле",
    "Серж де Пук"
  ],
  "operator": [
    "Nicolas Brunet"
  ],
  "composer": [
    "Филипп Ромби"
  ],
  "design": [
    "Пьер Дюбуаберранже",
    "Стефани Лоран Делару",
    "Изабель Матьё"
  ],
  "editor": [
    "Сильви Ландра"
  ],
  "actors": [
    "Стефан Де Гродт",
    "Луиз Бургуан",
    "Ор Атика",
    "Пьер-Франсуа Мартен-Лаваль",
    "Энн Бенуа",
    "Эллиот Дора",
    "Жуд Гайстлих",
    "Филипп Вие",
    "Констанс Лаббе",
    "Людивин де Шасне"
  ],
  "actors_dubl": [
    "Владимир Рыбальченко",
    "Таисия Тришина",
    "Полина Щербакова",
    "Антон Савенков",
    "Ольга Кузнецова"
  ],
  "trivia": [],
  "trailers": [],
  "seasons": [],
  "voiceActing": [
    "Рус. Дублированный"
  ],
  "subtitle": [],
  "parts": []
}
