{
  "id": 26481,
  "name": "Охота на монстра 2",
  "name_eng": "Zhuo yao ji 2",
  "year": 2018,
  "slogan": "—",
  "age": null,
  "type": "film",
  "quality": "HD (720p)",
  "imdb": "5.4",
  "imdb_id": "6170484",
  "kinopoisk": "6.1",
  "kinopoisk_id": "1008195",
  "world_art": null,
  "world_art_id": null,
  "time": "110 мин. / 01:50",
  "ads": false,
  "premier": "2018-02-16",
  "premier_rus": "2018-02-17",
  "availability": "2018-02-18",
  "activate_time": "2020-07-08 03:43:00",
  "budget": "$143 000 000",
  "fees_use": "$706 153",
  "fees_world": "+ $360 976 465 = $361 682 618",
  "fees_rus": null,
  "rate_mpaa": null,
  "description": "Поскольку маленький Уба является потомком Короля монстров, за ним снова начинают охоту коварные соплеменники, жаждущие заполучить силу и власть. Спасаясь от преследователей, Уба встречает доброго монстра Бэньбэня и шулера Ту. А тем временем Сяолань и Тяньинь скучают по маленькому монстрику и решают разыскать его во что бы то ни стало.",
  "iframe_url": "",
  "iframe_poster": null,
  "poster": "https://img.imgilall.me/movies/franchise/2/6/4/8/1/0/0/0/0/0/610x900_26481.jpg",
  "country": {
    "12": "Гонконг",
    "19": "Китай"
  },
  "collection": [],
  "genre": {
    "9": "Приключения",
    "6": "Фэнтези",
    "19": "Комедия"
  },
  "director": [
    "Раман Хуэй"
  ],
  "screenwriter": [
    "Нг Вай-Лунь",
    "Санни Чань"
  ],
  "producer": [
    "Дорис Тсе",
    "Кеннет И",
    "Томас Чоу"
  ],
  "operator": [
    "Энтони Пунь"
  ],
  "composer": [
    "Леон Ко"
  ],
  "design": [
    "Гийом Аретос",
    "Ёхэй Танэда",
    "Аттис Ли"
  ],
  "editor": [
    "Чун Ка-Фай",
    "Jordan Dieselberg"
  ],
  "actors": [
    "Тони Люн Чу Вай",
    "Бай Байхэ",
    "Цзин Божань",
    "Ли Юйчунь",
    "Тони Ян",
    "Сандра Нг",
    "Эрик Цан",
    "Шон Сяо"
  ],
  "actors_dubl": [],
  "trivia": [],
  "trailers": [],
  "seasons": [],
  "voiceActing": [
    "Колобок"
  ],
  "subtitle": [],
  "parts": []
}
