{
  "id": 8726,
  "name": "В погоне за Буллиттом",
  "name_eng": "Chasing Bullitt",
  "year": 2018,
  "slogan": "«Man. Myth. McQueen»",
  "age": "12+",
  "type": "film",
  "quality": "FHD (1080p)",
  "imdb": "4.6",
  "imdb_id": "6692926",
  "kinopoisk": null,
  "kinopoisk_id": "1043278",
  "world_art": null,
  "world_art_id": null,
  "time": "90 мин. / 01:30",
  "ads": false,
  "premier": "2018-06-08",
  "premier_rus": null,
  "availability": null,
  "activate_time": "2019-11-07 11:25:00",
  "budget": "",
  "fees_use": "",
  "fees_world": "",
  "fees_rus": "",
  "rate_mpaa": "",
  "description": "События разворачиваются в 1971 году. После неожиданной встречи со своим агентом бывшая голливудская звезда Стив МакКвин заключает необычную сделку. Актёр не хочет возвращаться на съемочную площадку, поэтому заявляет, что согласится на участие в новом фильме только при одном условии: агент должен найти культовый Ford Mustang GT 390 из его старой и невероятно популярной ленты. Получив информацию о новом владельце машины, Стив отправляется в путешествие через пустыню, вспоминая о своих взлётах и падениях, разваливающемся браке, проблемах с деньгами и угасающей карьере...",
  "iframe_url": "",
  "iframe_poster": null,
  "poster": "https://img.imgilall.me/movies/franchise/8/7/2/6/0/0/0/0/0/0/610x900_8726.jpg",
  "country": {
    "1": "США"
  },
  "collection": [],
  "genre": {
    "27": "Биографический",
    "10": "Зарубежный",
    "7": "Драма"
  },
  "director": [
    "Джо Эдди"
  ],
  "screenwriter": [
    "Джо Эдди"
  ],
  "producer": [
    "Джо Эдди",
    "Райан Рихтер",
    "Торбен Аренд"
  ],
  "operator": [
    "Дэниэл Стиллинг"
  ],
  "composer": [],
  "design": [],
  "editor": [
    "Харви Машман"
  ],
  "actors": [
    "Андре Брукс",
    "Джен Броберг",
    "Дориан Чирилло",
    "Кристал Миэль Косси",
    "Энтони Дилио",
    "Оги Дьюк",
    "Дэннис В. Холл",
    "Мэтт Хобби",
    "Давид О. Ридель",
    "Чантс Симпсон"
  ],
  "actors_dubl": [],
  "trivia": [],
  "trailers": [],
  "seasons": [],
  "voiceActing": [
    "HDRezka Studio",
    "Eng.Original"
  ],
  "subtitle": [
    "Eng. SDH"
  ],
  "parts": []
}
