{
  "id": 21066,
  "name": "Мой папа – рестлер-злодей",
  "name_eng": "Papa wa warumono champion",
  "year": 2018,
  "slogan": "—",
  "age": null,
  "type": "film",
  "quality": "HD (720p)",
  "imdb": "7.0",
  "imdb_id": "7295568",
  "kinopoisk": null,
  "kinopoisk_id": "1057352",
  "world_art": null,
  "world_art_id": null,
  "time": "110 мин. / 01:50",
  "ads": true,
  "premier": "2018-09-21",
  "premier_rus": "2018-09-22",
  "availability": "2018-09-23",
  "activate_time": "2020-06-02 03:59:00",
  "budget": null,
  "fees_use": null,
  "fees_world": null,
  "fees_rus": null,
  "rate_mpaa": null,
  "description": "Младшеклассник Сёта обожает смотреть рестлинг. Но однажды парня постигает шок: оказывается, что за маской злодейского рестлера Чёрного Таракана скрывается не кто иной, как его родной отец. Мальчик не может раскрыть эту ужасную тайну одноклассникам, поэтому врет, что его папа — популярный рестлер.",
  "iframe_url": "",
  "iframe_poster": null,
  "poster": "https://img.imgilall.me/movies/franchise/2/1/0/6/6/0/0/0/0/0/610x900_21066.jpg",
  "country": {
    "18": "Япония"
  },
  "collection": [],
  "genre": {
    "33": "Семейный",
    "23": "Спортивный",
    "7": "Драма"
  },
  "director": [
    "Кёхэй Фудзимура"
  ],
  "screenwriter": [
    "Масахиро Итабаси",
    "Хисанори Ёсида"
  ],
  "producer": [],
  "operator": [],
  "composer": [],
  "design": [],
  "editor": [],
  "actors": [
    "Хироси Танахаси",
    "Кокоро Тэрада",
    "Ёсино Кимура",
    "Ясуси Футиками",
    "Хирооки Гото",
    "Тоги Макабэ",
    "Укё Мацумото",
    "Юджи Нагата",
    "Рииса Нака",
    "Манабу Наканиси"
  ],
  "actors_dubl": [],
  "trivia": [],
  "trailers": [],
  "seasons": [],
  "voiceActing": [
    "Рус. Люб. многоголосый"
  ],
  "subtitle": [],
  "parts": []
}
