{
  "id": 44333,
  "name": "Перемены",
  "name_eng": "Things Don't Stay Fixed",
  "year": 2021,
  "slogan": "—",
  "age": null,
  "type": "film",
  "quality": "FHD (1080p)",
  "imdb": "4.8",
  "imdb_id": "7029534",
  "kinopoisk": null,
  "kinopoisk_id": "1094455",
  "world_art": null,
  "world_art_id": null,
  "time": "—",
  "ads": true,
  "premier": null,
  "premier_rus": null,
  "availability": null,
  "activate_time": "2021-02-16 14:12:00",
  "budget": null,
  "fees_use": null,
  "fees_world": null,
  "fees_rus": null,
  "rate_mpaa": null,
  "description": null,
  "iframe_url": "",
  "iframe_poster": null,
  "poster": "https://img.imgilall.me/movies/franchise/4/4/3/3/3/0/0/0/0/0/610x900_44333.jpg",
  "country": {
    "1": "США"
  },
  "collection": [],
  "genre": {
    "7": "Драма"
  },
  "director": [
    "Bo Bartlett"
  ],
  "screenwriter": [
    "Sandra Deer"
  ],
  "producer": [
    "Стэйси Каннингэм",
    "Betsy Eby"
  ],
  "operator": [
    "Брайан Фаулер"
  ],
  "composer": [],
  "design": [
    "Ben Coolik",
    "Carson DeMars",
    "Brandy M. White"
  ],
  "editor": [
    "Мэтт Гарнер",
    "Патрик Перри",
    "Герхардт Славичка"
  ],
  "actors": [
    "Уильям Грегори Ли",
    "Тара Окс",
    "Бренда Бинум",
    "Мелисса Сент-Аманд",
    "Desi Evans",
    "Lorenzo Battle",
    "Yolanda Sewell",
    "Lucy Sheftall",
    "Дэвид Силверман",
    "Jonah C. Miller"
  ],
  "actors_dubl": [],
  "trivia": [],
  "trailers": [],
  "seasons": [],
  "voiceActing": [
    "Рус. Люб. многоголосый"
  ],
  "subtitle": [],
  "parts": []
}
