{
  "id": 23080,
  "name": "Проверка",
  "name_eng": "The Departure",
  "year": 2018,
  "slogan": "—",
  "age": null,
  "type": "film",
  "quality": "FHD (1080p)",
  "imdb": "3.8",
  "imdb_id": "7305198",
  "kinopoisk": null,
  "kinopoisk_id": "1056926",
  "world_art": null,
  "world_art_id": null,
  "time": "70 мин. / 01:10",
  "ads": true,
  "premier": "2020-06-12",
  "premier_rus": null,
  "availability": null,
  "activate_time": "2020-06-12 11:29:00",
  "budget": null,
  "fees_use": null,
  "fees_world": null,
  "fees_rus": null,
  "rate_mpaa": null,
  "description": null,
  "iframe_url": "",
  "iframe_poster": null,
  "poster": "https://img.imgilall.me/movies/franchise/2/3/0/8/0/0/0/0/0/0/610x900_23080.jpg",
  "country": {
    "1": "США"
  },
  "collection": [],
  "genre": {
    "10": "Зарубежный",
    "7": "Драма"
  },
  "director": [
    "Merland Hoxha"
  ],
  "screenwriter": [
    "Merland Hoxha"
  ],
  "producer": [
    "Merland Hoxha"
  ],
  "operator": [
    "Людовика Исидоре",
    "Вэй Ванг"
  ],
  "composer": [],
  "design": [
    "Мадлен О’Брайэн"
  ],
  "editor": [
    "Juliette Edwards"
  ],
  "actors": [
    "Джон Бридделл",
    "Kendall Chappell",
    "Grant Wright Gunderson",
    "Остин Лоэр",
    "Оливия Леммон"
  ],
  "actors_dubl": [],
  "trivia": [],
  "trailers": [],
  "seasons": [],
  "voiceActing": [
    "Рус. Люб. многоголосый"
  ],
  "subtitle": [],
  "parts": []
}
