{
  "id": 33954,
  "name": "Соломон и Шеба",
  "name_eng": "Solomon and Sheba",
  "year": 1959,
  "slogan": "«The Mightiest Motion Picture Ever Created!»",
  "age": "12+",
  "type": "film",
  "quality": "HD (720p)",
  "imdb": "6.2",
  "imdb_id": "0",
  "kinopoisk": "6.8",
  "kinopoisk_id": "10379",
  "world_art": null,
  "world_art_id": null,
  "time": "141 мин. / 02:21",
  "ads": false,
  "premier": "1959-10-27",
  "premier_rus": "1959-10-28",
  "availability": "1959-10-29",
  "activate_time": "2020-07-17 12:21:00",
  "budget": "$5 000 000",
  "fees_use": "$12 200 000",
  "fees_world": null,
  "fees_rus": null,
  "rate_mpaa": null,
  "description": "Этот библейский эпос, поставленный режиссером Кингом Вайдером является кинематографическим осмыслением плотских грехов и языческих богопреклонений.  Картина, снятая в Испании, запечатлела подвиги незабвенных персонажей. Юл Бриннер олицетворяет здесь сильного и идеалистического Соломона. А чувственная Джина Лоллобриджида - великолепна в роли величественной и соблазнительной Царицы.",
  "iframe_url": "",
  "iframe_poster": null,
  "poster": "https://img.imgilall.me/movies/franchise/3/3/9/5/4/0/0/0/0/0/610x900_33954.jpg",
  "country": {
    "1": "США"
  },
  "collection": [],
  "genre": {
    "32": "Военный",
    "28": "Исторический",
    "8": "Мелодрама",
    "7": "Драма"
  },
  "director": [
    "Кинг Видор"
  ],
  "screenwriter": [
    "Энтони Вейллер",
    "Пол Дадли",
    "Джордж Брюс"
  ],
  "producer": [
    "Т. Ричмонд",
    "Тайрон Пауэр"
  ],
  "operator": [
    "Фредди Янг"
  ],
  "composer": [
    "Марио Нашимбене",
    "Малкольм Арнольд"
  ],
  "design": [
    "Ричард Дэй",
    "Луис Перес Эспиноса",
    "Альфред Суини"
  ],
  "editor": [
    "Отто Людвиг"
  ],
  "actors": [
    "Юл Бриннер",
    "Джина Лоллобриджида",
    "Джордж Сэндерс",
    "Мариса Паван",
    "Дэвид Фаррар",
    "Джон Кроуфорд",
    "Финлэй Карри",
    "Гарри Эндрюс",
    "Хосе Ньето",
    "Маручи Фресно"
  ],
  "actors_dubl": [],
  "trivia": [
    "На роль Соломона первоначально был утверждён Тайрон Пауэр, но во время съёмок первых сцен в Мадриде от неожиданно скончался от сердечного приступа в возрасте 44 лет.",
    "Фильм стал вторым после «Спящей красавицы», использовавшим широкоформатную технологию «Супер Технирама 70»."
  ],
  "trailers": [],
  "seasons": [],
  "voiceActing": [
    "Diva Universal"
  ],
  "subtitle": [],
  "parts": []
}
