{
  "id": 8866,
  "name": "Рис и фасоль",
  "name_eng": "Spilling the Beans",
  "year": 2018,
  "slogan": "—",
  "age": "12+",
  "type": "film",
  "quality": "HD (720p)",
  "imdb": "5.8",
  "imdb_id": "6747420",
  "kinopoisk": null,
  "kinopoisk_id": "1066204",
  "world_art": null,
  "world_art_id": null,
  "time": "117 мин. / 01:57",
  "ads": true,
  "premier": "2018-10-13",
  "premier_rus": null,
  "availability": null,
  "activate_time": "2019-09-05 13:02:00",
  "budget": "",
  "fees_use": "",
  "fees_world": "",
  "fees_rus": "",
  "rate_mpaa": "",
  "description": "Отец-новичок в интернете использует социальные сети, чтобы улучшить свои отношения с сыном.",
  "iframe_url": "",
  "iframe_poster": "https://img.imgilall.me/movies/video/1/1/2/8/0/5/0/0/0/0/800x450_112805.jpeg",
  "poster": "https://img.imgilall.me/movies/franchise/8/8/6/6/0/0/0/0/0/0/610x900_8866.jpg",
  "country": {
    "26": "Индия"
  },
  "collection": [],
  "genre": {
    "33": "Семейный",
    "19": "Комедия",
    "10": "Зарубежный",
    "7": "Драма"
  },
  "director": [
    "Лиина Ядав"
  ],
  "screenwriter": [
    "Вивек Анчалиа",
    "Маню Риши",
    "Лиина Ядав"
  ],
  "producer": [
    "Асим Баджадж",
    "Гулаб Сингх Танвар",
    "Лиина Ядав"
  ],
  "operator": [
    "Дональд МакЭлпайн"
  ],
  "composer": [
    "Хитеш Соник"
  ],
  "design": [
    "Сонал Савант",
    "Прасад Сурве",
    "Hemant Wagh"
  ],
  "editor": [
    "Том Ноубл"
  ],
  "actors": [
    "Амира Дастур",
    "Риши Капур",
    "Апаршакти Хурана",
    "Мукеш Чхабра",
    "Бриджендра Кала",
    "Шиба Чадха",
    "Нирмал Риши",
    "Маню Риши",
    "Анирудх Танвар",
    "Хариш Ханна"
  ],
  "actors_dubl": [],
  "trivia": [],
  "trailers": [],
  "seasons": [],
  "voiceActing": [
    "LakeFilms"
  ],
  "subtitle": [],
  "parts": []
}
