{
  "id": 25040,
  "name": "Ублюдок",
  "name_eng": "Bastaard",
  "year": 2019,
  "slogan": "«Grief is a necessary evil»",
  "age": null,
  "type": "film",
  "quality": "HD (720p)",
  "imdb": "6.0",
  "imdb_id": "7524624",
  "kinopoisk": null,
  "kinopoisk_id": "1076531",
  "world_art": null,
  "world_art_id": null,
  "time": "104 мин. / 01:44",
  "ads": true,
  "premier": "2019-10-02",
  "premier_rus": "2019-10-03",
  "availability": "2019-10-04",
  "activate_time": "2020-06-23 10:42:00",
  "budget": "€2 000 000",
  "fees_use": null,
  "fees_world": null,
  "fees_rus": null,
  "rate_mpaa": null,
  "description": null,
  "iframe_url": "",
  "iframe_poster": null,
  "poster": "https://img.imgilall.me/movies/franchise/2/5/0/4/0/0/0/0/0/0/610x900_25040.jpg",
  "country": {
    "29": "Бельгия"
  },
  "collection": [],
  "genre": {
    "13": "Триллер"
  },
  "director": [
    "Mathieu Mortelmans"
  ],
  "screenwriter": [
    "Jan Pepermans",
    "Stefanie Vanhecke",
    "Mathieu Mortelmans"
  ],
  "producer": [
    "Yoshi Aesaert",
    "Аннелис Мас"
  ],
  "operator": [
    "Брехт  Гойвартс"
  ],
  "composer": [
    "Раф Кюнен"
  ],
  "design": [
    "Курт Лойенс"
  ],
  "editor": [],
  "actors": [
    "Спенсер Богерт",
    "Тине Реймер",
    "Bjarne Devolder",
    "Коэн Де Боу",
    "Lukas Bulteel",
    "Сизар Де Саттер",
    "Arne De Tremerie",
    "Bruno Mazereel",
    "Amir Motaffaf",
    "Els Olaerts"
  ],
  "actors_dubl": [],
  "trivia": [],
  "trailers": [],
  "seasons": [],
  "voiceActing": [
    "Рус. Люб. многоголосый"
  ],
  "subtitle": [],
  "parts": []
}
