{
  "id": 14568,
  "name": "Американская история девочки: Айви и Джули 1976 - счастливый баланс",
  "name_eng": "An American Girl Story: Ivy & Julie 1976 - A Happy Balance",
  "year": 2017,
  "slogan": "—",
  "age": null,
  "type": "film",
  "quality": "HD (720p)",
  "imdb": "6.6",
  "imdb_id": "6509214",
  "kinopoisk": null,
  "kinopoisk_id": "1027733",
  "world_art": null,
  "world_art_id": null,
  "time": "43 мин.",
  "ads": true,
  "premier": "2017-03-24",
  "premier_rus": null,
  "availability": "2017-03-25",
  "activate_time": "2020-01-21 12:36:00",
  "budget": "",
  "fees_use": "",
  "fees_world": "",
  "fees_rus": "",
  "rate_mpaa": "",
  "description": "Айви Лин - дочь китайских иммигрантов во втором поколении, которая испытывает проблемы с культурной идентичностью. Но когда важные для неё соревнования по гимнастике совпадают с ужином в честь Китайского Нового года, ей придётся сделать непростой выбор, конечно же, не без помощи лучшей подруги - Джули.",
  "iframe_url": "",
  "iframe_poster": null,
  "poster": "https://img.imgilall.me/movies/franchise/1/4/5/6/8/0/0/0/0/0/610x900_14568.jpg",
  "country": {
    "1": "США"
  },
  "collection": {
    "29": "Психологические",
    "27": "Про жизнь",
    "21": "Для молодёжи"
  },
  "genre": {
    "33": "Семейный",
    "10": "Зарубежный"
  },
  "director": [
    "Сеси Сили"
  ],
  "screenwriter": [],
  "producer": [
    "Сеси Сили",
    "Джоди Голдберг",
    "Кристофер Кинэн"
  ],
  "operator": [
    "Стив  Гэйнер"
  ],
  "composer": [
    "Дэнни Люкс"
  ],
  "design": [
    "Кристан Эндрюс",
    "Сара Палмроз",
    "Барбара Шенно"
  ],
  "editor": [
    "Шерил Кампсмит",
    "Anna Sweeney"
  ],
  "actors": [
    "Nina Lu",
    "Ханна Нордберг",
    "Гвендолин Ео",
    "Роб Янг",
    "Лэнс Лим",
    "Элизабет Санг",
    "Ма Ци",
    "Кэйтлин МакГи",
    "Карен Хюи",
    "Kyra Lyn"
  ],
  "actors_dubl": [],
  "trivia": [],
  "trailers": [],
  "seasons": [],
  "voiceActing": [
    "Рус. Люб. многоголосый"
  ],
  "subtitle": [],
  "parts": []
}
