{
  "id": 48859,
  "name": "Искушение",
  "name_eng": "Benedetta",
  "year": 2021,
  "slogan": "—",
  "age": "18+",
  "type": "film",
  "quality": "FHD (1080p)",
  "imdb": "6.6",
  "imdb_id": "6823148",
  "kinopoisk": "6.9",
  "kinopoisk_id": "1044589",
  "world_art": null,
  "world_art_id": null,
  "time": "131 мин. / 02:11",
  "ads": false,
  "premier": "2021-07-09",
  "premier_rus": "2021-10-07",
  "availability": "2021-10-08",
  "activate_time": "2021-07-22 11:06:00",
  "budget": null,
  "fees_use": null,
  "fees_world": "$3 181 249",
  "fees_rus": null,
  "rate_mpaa": null,
  "description": "Италия эпохи Возрождения. Место, где великая красота хладела в руках инквизиторов. Терзаемая эротическими видениями монахиня Бенедетта Карлини влюбляется в новую послушницу, пылкую и безрассудную. Вскоре об их запретной страсти узнают за пределами монастыря.",
  "iframe_url": "",
  "iframe_poster": null,
  "poster": "https://img.imgilall.me/movies/franchise/4/8/8/5/9/0/0/0/0/0/610x900_48859.jpg",
  "country": {
    "31": "Нидерланды",
    "9": "Франция"
  },
  "collection": [],
  "genre": {
    "28": "Исторический",
    "27": "Биографический",
    "8": "Мелодрама",
    "7": "Драма"
  },
  "director": [
    "Пол Верховен"
  ],
  "screenwriter": [
    "Дэвид Бирк",
    "Пол Верховен",
    "Джудит С. Браун"
  ],
  "producer": [
    "Саид Бен Саид",
    "Мишель Меркт",
    "Жером Сейду"
  ],
  "operator": [
    "Жанна Лапуари"
  ],
  "composer": [
    "Энн Дадли"
  ],
  "design": [
    "Катя Вышкоп",
    "Эрик Бурже",
    "Пьер-Жан Ларрок"
  ],
  "editor": [
    "Йоб тер Бург"
  ],
  "actors": [
    "Виржини Эфира",
    "Шарлотта Рэмплинг",
    "Дафна Патакия",
    "Ламбер Вильсон",
    "Оливье Рабурден",
    "Луиз Шевильот",
    "Эрве Пьер",
    "Клотильда Куро",
    "Давид Клавель",
    "Гилен Лондез"
  ],
  "actors_dubl": [],
  "trivia": [],
  "trailers": [],
  "seasons": [],
  "voiceActing": [
    "JASKIER",
    "Fr. Original"
  ],
  "subtitle": [
    "Рус. полные"
  ],
  "parts": []
}
