{
  "id": 30251,
  "name": "Милла",
  "name_eng": "Milla",
  "year": 2017,
  "slogan": "—",
  "age": "12+",
  "type": "film",
  "quality": "HD (720p)",
  "imdb": "6.1",
  "imdb_id": "0",
  "kinopoisk": null,
  "kinopoisk_id": "1059433",
  "world_art": null,
  "world_art_id": null,
  "time": "128 мин. / 02:08",
  "ads": false,
  "premier": "2017-08-05",
  "premier_rus": "2017-08-06",
  "availability": "2017-08-07",
  "activate_time": "2020-07-11 16:26:00",
  "budget": null,
  "fees_use": null,
  "fees_world": null,
  "fees_rus": null,
  "rate_mpaa": null,
  "description": "Милле 17, Лео немногим больше. Они сбегают в небольшой городок у Ла-Манша. Любовь – прожить, жизнь – придумать и удержать, Всегда, невзирая ни на что.",
  "iframe_url": "",
  "iframe_poster": null,
  "poster": "https://img.imgilall.me/movies/franchise/3/0/2/5/1/0/0/0/0/0/610x900_30251.jpg",
  "country": {
    "9": "Франция",
    "62": "Португалия"
  },
  "collection": [],
  "genre": {
    "7": "Драма"
  },
  "director": [
    "Валери Массадян"
  ],
  "screenwriter": [
    "Валери Массадян"
  ],
  "producer": [],
  "operator": [
    "Робен Фрессон",
    "Мэл Массадьян"
  ],
  "composer": [],
  "design": [],
  "editor": [],
  "actors": [
    "Северин Жонкере",
    "Люк Шессель",
    "Этан Жонкере"
  ],
  "actors_dubl": [],
  "trivia": [],
  "trailers": [],
  "seasons": [],
  "voiceActing": [
    "Рус. Люб. многоголосый"
  ],
  "subtitle": [],
  "parts": []
}
