{
  "id": 20327,
  "name": "Линкольн",
  "name_eng": "Lincoln",
  "year": 2012,
  "slogan": "—",
  "age": "16+",
  "type": "film",
  "quality": "FHD (1080p)",
  "imdb": "7.3",
  "imdb_id": "0443272",
  "kinopoisk": "6.9",
  "kinopoisk_id": "102122",
  "world_art": null,
  "world_art_id": null,
  "time": "150 мин. / 02:30",
  "ads": true,
  "premier": "2012-10-08",
  "premier_rus": "2013-01-24",
  "availability": "2013-01-25",
  "activate_time": "2020-05-28 12:27:00",
  "budget": "$65 000 000",
  "fees_use": "$182 207 973",
  "fees_world": "+ $93 085 477 = $275 293 450",
  "fees_rus": "$719 539",
  "rate_mpaa": "PG-13",
  "description": "1865 год. Шестнадцатый президент США Авраам Линкольн находится на пике популярности. Но перед ним стоят серьёзные задачи: провести запрещающую рабство поправку к Конституции через Палату представителей и завершить Гражданскую войну.",
  "iframe_url": "",
  "iframe_poster": null,
  "poster": "https://img.imgilall.me/movies/franchise/2/0/3/2/7/0/0/0/0/0/610x900_20327.jpg",
  "country": {
    "1": "США",
    "26": "Индия"
  },
  "collection": {
    "78": "Биографии",
    "39": "На реальных событиях"
  },
  "genre": {
    "32": "Военный",
    "28": "Исторический",
    "27": "Биографический",
    "7": "Драма"
  },
  "director": [
    "Стивен Спилберг"
  ],
  "screenwriter": [
    "Тони Кушнер",
    "Дорис Кернс Гудвин"
  ],
  "producer": [
    "Стивен Спилберг",
    "Кэтлин Кеннеди",
    "Джонатан Кинг"
  ],
  "operator": [
    "Януш Камински"
  ],
  "composer": [
    "Джон Уильямс"
  ],
  "design": [
    "Рик Картер",
    "Курт Бич",
    "Дэвид Крэнк"
  ],
  "editor": [
    "Майкл Кан"
  ],
  "actors": [
    "Дэниэл Дэй-Льюис",
    "Салли Филд",
    "Дэвид Стрэтэйрн",
    "Джозеф Гордон-Левитт",
    "Джеймс Спэйдер",
    "Хэл Холбрук",
    "Томми Ли Джонс",
    "Джон Хоукс",
    "Джеки Эрл Хейли",
    "Брюс МакГилл"
  ],
  "actors_dubl": [
    "Алексей Иващенко",
    "Любовь Германова",
    "Никита Прозоровский",
    "Николай Быстров",
    "Всеволод Кузнецов"
  ],
  "trivia": [
    "Фильм снят по мотивам книги Дорис Кернс Гудвин «Команда соперников» (Team of Rivals: The Political Genius of Abraham Lincoln, 2005).",
    "Джон Логан и Пол Уэбб занимались ранними версиями сценария, прежде чем к проекту присоединился Тони Кушнер. Стивен Спилберг был впечатлен работой Кушнера в фильме «Мюнхен» (2005), что и послужило причиной его найма.",
    "Стивен Спилберг выражал заинтересованность в том, чтобы вождя революции в его фильме исполнил актер Ремо Винценс.",
    "Письмо миссис Биксби Авраама Линкольна было косвенным элементом сюжета в раннем фильме Стивена Спилберга «Спасти рядового Райана» (1998). Кроме того, «Геттисбергская речь» цитируется школьником в открывающей сцене другого фильма Спилберга — ленты «Особое мнение» (2002).",
    "Лиам Нисон, долгое время приписанный к главной роли Авраама Линкольна, покинул проект, пояснив, что уже слишком стар для роли, которую требуется ждать несколько лет. Кстати, Дэниэл Дэй-Льюис, получивший эту роль, всего лишь на 5 лет моложе Нисона, хотя при этом он максимально близок по возрасту к своему персонажу, Линкольну, которому было 55-56 лет в тот период, в котором он изображен в фильме.",
    "Стивен Спилберг уже работал над этим фильмом, когда он встретился с Дорис Кернс Гудвин и рассказал ей, что хочет снять фильм об Аврааме Линкольне. Она же рассказала ему, что только что закончила свою книгу «Команда соперников» (Team of Rivals). Спилберг прочитал ее и решил использовать в качестве основы для фильма.",
    "Хэл Холбрук, который играет Фрэнсиса Престона Блэра, получил «Эмми» за роль Авраама Линкольна в сериале «Линкольн» (1974-1975). Он также играл Линкольна в сериале «Север и Юг» (1985) и появлялся в этом образе на шоу Эда Салливана «Городской тост» (1948-1971).",
    "Актер Дэниэл Дэй-Льюис ранее играл Билла «Мясника» Каттинга в фильме Мартина Скорсезе «Банды Нью-Йорка» (2002) — персонажа, который выступал против политических планов Авраама Линкольна.",
    "Дэвид Стрэтэйрн (сыграл Уильяма Сьюарда) ранее играл Линкольна в LA Theatre Works в постановке Нормана Коруина «Соперничество» (The Rivalry) 2008 года, в которой изображались дебаты Линкольна и Дугласа.",
    "Когда Дэниэл Дэй-Льюис определился с голосом для своего персонажа, он послал аудиозапись с этим голосом режиссеру Стивену Спилбергу в коробке, помеченной черепом со скрещенными костями, чтобы никто раньше него не услышал эту запись.",
    "Прадед Майкла Стэнтона Кеннеди был журналистом в городе, где жил его персонаж, Хирам Прайс. Когда снимали сцену, где принималась 13-я поправка, Кеннеди расплакался. Позже он рассказал Стивену Спилбергу о том, почему так произошло: «Мы находимся в этой комнате, воссоздаем один из самых важных моментов американской истории… А там, на балконе, с прессой сидел мой прадед».",
    "Стивен Спилберг провел 12 лет в исследованиях к этому фильму. Он точно воссоздал резиденцию президента Авраама Линкольна, с теми же обоями и книгами, которые использовал Линкольн. Звук тиканья часов Линкольна в фильме — это звук его настоящих карманных часов. Часы Линкольна хранятся в Kentucky Historical Society во Франкфурте, штат Кентукки (не в Президентской библиотеке Линкольна). Эти часы он носил в день его убийства.",
    "Рассказывая о своей роли Линкольна, Дэниэл Дэй-Льюис сказал: «Я никогда в жизни не чувствовал столь глубокой любви к человеку, которого я никогда не встречал. И я думаю, что, возможно, такое же впечатление Линкольн производил на большинство людей, которые интересовались его историей… Мне бы хотелось, чтобы его образ остался со мной навсегда».",
    "В течение трех с половиной месяцев съемок Стивен Спилберг обращался к своим актерам как к их персонажам. Он называл Дэниэла Дэй-Льюиса господином президентом, Салли Филд — миссис Линкольн или Молли. Кроме того, каждый день на съемочной площадке он носил костюм: «Я думаю, я хотел войти в роль больше, чем кто-либо другой, хотел быть частью этого всего, потому что мы воссоздавали часть истории. И я не хотел выделяться и быть парнем в бейсболке из XXI века, я хотел слиться с актерами».",
    "Во время продакшна в списке вызываемых на съемку актеров рядом со сценами с Авраамом Линкольном был указан Авраам Линкольн, а не исполняющий его роль Дэниэл Дэй-Льюис.",
    "Салли Филд была полна решимости сыграть Мэри Тодд Линкольн. Она умоляла Стивена Спилберга дать ей возможность попасть на кинопробы вместе с Дэниэлом Дэй-Льюисом. Спилберг считал, что она слишком стара для этой роли, но Филд была непреклонна. Она вспоминала: «Я на 10 лет старше Дэниэла и на 20 лет старше, чем была тогда жена Линкольна. И Стивен сказал, что не видит меня в этой роли. Но я знала, что подхожу, и попросила его разрешить мне пройти прослушивание. Он любезно согласился, и Дэниэл был так мил, что прилетел со своей родины, из Ирландии, на кинопробы со мной. Я буду вечно благодарна ему за это».",
    "Стивен Спилберг рассказал аудитории на предварительном показе в Манхэттене, что сценарист Тони Кушнер потратил около шести лет, работая над этим фильмом. Первоначально он был задуман как фильм-биография, который показывает полностью всю историю жизни Линкольна, но в итоге был сокращен до событий, связанных с принятием 13-й поправки, отменяющей рабство в США, и подробно описанных в книге Дорис Кернс Гудвин «Команда соперников» (Team of Rivals).",
    "По словам Стивена Спилберга, это была идея Джеймса Спэйдера — показать хобби его персонажа (вырезание деревянной утки). Как показали личные исследования Спэйдера, это было одно из основных увлечений времен Гражданской войны в Америке.",
    "Стивен Спилберг объяснил, что в кульминационной сцене фильма, в которой произносят имена членов палаты представителей во время голосования за принятие 13-й поправки, имена тех, кто голосовал против (по разным причинам), были изменены в фильме, чтобы не смущать живущих потомков этих людей и не пачкать их репутацию.",
    "Одна из знаменитых стычек Авраама Линкольна и Мэри — та, в которой он угрожает отправить ее в сумасшедший дом. В этом же фильме предметом их спора стало зачисление Роберта Линкольна в армию. Кстати, в конечном итоге Роберт и отправил ее в психиатрическую лечебницу, что привело к их полному отчуждению.",
    "В одной сцене в фильме Линкольн презрительно упоминает Таммани-Холл. В более ранней работе Дэниэла Дэй-Льюиса — фильме «Банды Нью-Йорка» (2002) — персонаж Дэй-Льюиса находится в квазисоюзе с Боссом Твидом, который руководил Таммани-Холлом во время Гражданской войны.",
    "Образ лоббиста Уилльяма Н. Бильбо (Джеймс Спэйдер) был создан с нуля, потому что не было ни одной фотографии с ним, а его манера поведения была взята из различных источников.",
    "В нескольких сценах в кабинете можно заметить трубку, висящую между потолком и столом. Это резиновый шланг, по которому природный газ (метан) из верхней системы освещения поступал в настольную лампу. Шланг иногда немного перемещается, как будто сам по себе. Это происходит из-за колебаний давления газовой системы.",
    "После 10 лет работы режиссер Стивен Спилберг решил, что он будет «снимать этот фильм, только если Дэниэл Дэй-Льюис сыграет роль Линкольна, а если Дэниэл откажется, то съемок не будет».",
    "После того как Лиам Нисон покинул проект, Стивен Спилберг вернулся к актеру, которого выбрал изначально для этой роли, то есть к Дэниэлу Дэй-Льюису. Дэй-Льюис отказался, потому что не был уверен, что у него получится сыграть такую культовую личность. После его отказа Спилберг рассказал об этом Леонардо ДиКаприо. Неизвестно, как так получилось, но тот убедил Дэй-Льюиса все же сыграть роль Линкольна.",
    "Аса-Люк Тукроу, который играет подполковника Эли Паркера, был также членом такелажной команды Линкольна. Его сходство с вождем племени сенека было просто сверхъестественным, и кастинг-департамент обратился к нему с предложением сыграть эту роль. Он одевался в костюм секретаря Гранта, снимался в сцене, затем переодевался в члена корабельной команды и продолжал сниматься, но уже в роли такелажника.",
    "Билл Кэмп и Элизабет Марвел, которые сыграли мистера и миссис Джолли (пара, которая приходит к Линкольну, чтобы он решил вопрос с постом у заставы), также состоят в браке друг с другом и в реальной жизни.",
    "В этом фильме Линкольн иногда обращается к своей жене Мэрри Тодд Линкольн по имени Молли. Это действительно было ласковое прозвище, которое Линкольн использовал в обращении к ней.",
    "Произнося пламенную речь против Линкольна, Фернандо Вуд называет его «африканским королем Авраамом Линкольном». Этот эпитет основан на реальных брошюрах 1864 года с названием «Авраам Африканский I: Его тайная жизнь, выявленная под гипнозом, тайны Белого дома». Эта брошюра, напечатанная группой Copperheads (группа демократов из-за пределов Конфедерации, которая симпатизировала делу Конфедерации и противостояла Линкольну), утверждала, что Линкольн подписал контракт с Сатаной, чтобы захватить пост президента США и «разрушить свободу американского народа и развратить их гражданские устремления, обрушить на них свою хитрость и обмануть их двусмысленными речами и ложными обещаниями, чтобы прочно закрепить свою династию». Настоящий Фернандо Вуд состоял в группе Copperheads.",
    "По словам продюсера Кэтлин Кеннеди, кинокомиссия в Ричмонде (Вирджиния) способствовала сохранению исторической достоверности фильма, предоставив съемочной группе широкий доступ к правительственным зданиям.",
    "Салли Филд набрала около 11 килограмм, для того чтобы быть максимально похожей на миссис Линкольн.",
    "Все основные герои фильма были созданы по образу реальных людей, а также в фильме старались отразить реальные действия и мысли исторических личностей.",
    "Джозеф Гордон-Левитт и Гулливер МакГрат, которые играют сыновей Линкольна, Роберта и Тэда, оба исполняли роль Дэвида Коллинза. Гордон-Левитт — в сериале «Мрачные тени» (1991), а МакГрат — в фильме «Мрачные тени» (2012) Тима Бёртона.",
    "Хотя немного неожиданно было использование в фильме слова «fuck», но, согласно данным Оксфордского словаря английского языка, оно появилось вначале 1500-х, а это за 350 лет до Гражданской войны в США и президентства Линкольна. В фильме это слово используется только дважды, и оба раза вульгарным и грубым персонажем Бильбо специально для демонстрации его неотесанности.",
    "Дэниэл Дэй-Льюис первоначально отказался от роли Линкольна, отправив Стивену Спилбергу следующее письмо: «Дорогой Стивен! Было очень приятно просто посидеть и поговорить с вами. Я очень внимательно выслушал все ваши мысли об этой истории и, после того как прочел сценарий, могу сказать, что нахожу его — со всеми деталями, в которых он описывает эти монументальные события и вызывающие сострадание портреты всех основных героев — сильным и трогательным. Но я точно знаю, что смог бы взяться за эту работу только в том случае, если бы чувствовал, что выбора нет. Эта тема необъяснимо совпадает с очень личной необходимостью и очень специфичным моментом времени. В этом случае я скорее хотел бы быть зрителем, нежели участником. Так я чувствую это сейчас, хотя и не могу быть уверен, что мое отношение не изменится. Я рад, что вы занимаетесь этим фильмом. Желаю, чтобы вам хватило сил на этот проект, и примите мою искреннюю благодарность за то, что рассматривали мою кандидатуру. Дэниэл».",
    "Дэниэл Дэй-Льюис персонально инструктировал Джеймса Спэйдера в том, как в роли Уилльяма Н. Бильбо быть «настолько мерзким, насколько возможно».",
    "Этот фильм стал первым фильмом после «Места в сердце» (1984), за который Салли Филд номинировали на «Оскар». Также она впервые номинирована как лучшая актриса второго плана.",
    "Палочка, которую использует дирижер в сцене оперы Фауст с президентом и миссис Линкольн, принадлежала отцу Тони Кушнера. Это подлинная дирижерская палочка XIX-го века из черного дерева, с ручкой из слоновой кости. Тони попросил использовать ее в фильме в честь своего отца."
  ],
  "trailers": [],
  "seasons": [],
  "voiceActing": [
    "Рус. Дублированный",
    "Eng.Original"
  ],
  "subtitle": [
    "Рус. форсированные"
  ],
  "parts": []
}
