{
  "id": 47978,
  "name": "Кровавая гора",
  "name_eng": "Blood Mountain",
  "year": 2017,
  "slogan": "—",
  "age": null,
  "type": "film",
  "quality": "HD (720p)",
  "imdb": "4.5",
  "imdb_id": "5356326",
  "kinopoisk": null,
  "kinopoisk_id": "1001357",
  "world_art": null,
  "world_art_id": null,
  "time": "81 мин. / 01:21",
  "ads": true,
  "premier": "2017-04-21",
  "premier_rus": "2017-04-22",
  "availability": "2017-04-23",
  "activate_time": "2021-06-14 13:11:00",
  "budget": "CA$ 275 000",
  "fees_use": null,
  "fees_world": null,
  "fees_rus": null,
  "rate_mpaa": null,
  "description": "Трое друзей отправляются съехать со склона на горных велосипедах. Но приключение, которое они собирались записать на камеры, оказывается смертельно опасным.",
  "iframe_url": "",
  "iframe_poster": null,
  "poster": "https://img.imgilall.me/movies/franchise/4/7/9/7/8/0/0/0/0/0/610x900_47978.jpg",
  "country": {
    "7": "Канада"
  },
  "collection": [],
  "genre": {
    "13": "Триллер"
  },
  "director": [
    "Джейсон Ван Лим"
  ],
  "screenwriter": [
    "Кайл Купер",
    "Джейсон Ван Лим"
  ],
  "producer": [
    "Джейсон Ван Лим",
    "Кайл Купер",
    "Дэйв Годдар"
  ],
  "operator": [
    "Чарльз Хэмилтон"
  ],
  "composer": [
    "Тайлер Брагг"
  ],
  "design": [
    "Таня Ван Лим"
  ],
  "editor": [
    "Крис Брэгг",
    "Джой Фредриксон"
  ],
  "actors": [
    "Стэффорд Перри",
    "Джо Перри",
    "Джошуа Мердок",
    "Женевьева Карре",
    "Джейсон Шнайдер",
    "Мередит Бэйли",
    "Ллевин Перри",
    "Энтони Де Альмейда",
    "Билли Пич",
    "Фрэнк Островский"
  ],
  "actors_dubl": [],
  "trivia": [],
  "trailers": [],
  "seasons": [],
  "voiceActing": [
    "Синема УС"
  ],
  "subtitle": [],
  "parts": []
}
