{
  "id": 15263,
  "name": "Праздные мысли",
  "name_eng": "Idle Thoughts",
  "year": 2018,
  "slogan": "«Fake it 'till you make it!»",
  "age": null,
  "type": "film",
  "quality": "SD",
  "imdb": "5.5",
  "imdb_id": "6032718",
  "kinopoisk": null,
  "kinopoisk_id": "1031027",
  "world_art": null,
  "world_art_id": null,
  "time": "95 мин. / 01:35",
  "ads": true,
  "premier": "2018-03-14",
  "premier_rus": "2018-03-15",
  "availability": "2018-03-15",
  "activate_time": "2020-04-16 16:11:00",
  "budget": "",
  "fees_use": "",
  "fees_world": "",
  "fees_rus": "",
  "rate_mpaa": "",
  "description": "Когда ты писатель, и ничего не наступает тебе на хвост, вести праздную жизнь очень легко. Но праздность не терпит крайних сроков. Поппи, самой неисполнительной из всех людей, приходится изображать серьёзные отношения, чтобы закончить книгу в отведённые временные рамки.",
  "iframe_url": "",
  "iframe_poster": null,
  "poster": "https://img.imgilall.me/movies/franchise/1/5/2/6/3/0/0/0/0/0/610x900_15263.jpg",
  "country": {
    "7": "Канада"
  },
  "collection": {
    "27": "Про жизнь"
  },
  "genre": {
    "19": "Комедия",
    "10": "Зарубежный"
  },
  "director": [
    "Andrew Willig"
  ],
  "screenwriter": [
    "Andrew Willig"
  ],
  "producer": [
    "Andrew Willig"
  ],
  "operator": [
    "Andrew Willig"
  ],
  "composer": [],
  "design": [
    "Shauna Supeene"
  ],
  "editor": [
    "Andrew Willig"
  ],
  "actors": [
    "Кими Александр",
    "Джиллиан Барбер",
    "Leah Beaudry",
    "Gavi Beigel",
    "A.J. Birtwistle",
    "Мишель Брезински",
    "Nathalie J. Cerny",
    "Alan Colodey",
    "Wonser De-Gbon",
    "Эмма Флемингтон"
  ],
  "actors_dubl": [],
  "trivia": [],
  "trailers": [],
  "seasons": [],
  "voiceActing": [
    "Рус. Люб. многоголосый"
  ],
  "subtitle": [],
  "parts": []
}
