{
  "id": 48600,
  "name": "Альфа: Пробуждение",
  "name_eng": "Nebulous Dark",
  "year": 2021,
  "slogan": "«He thought it was just the end of humanity!»",
  "age": null,
  "type": "film",
  "quality": "HD (720p)",
  "imdb": "3.5",
  "imdb_id": "5911072",
  "kinopoisk": null,
  "kinopoisk_id": "1072857",
  "world_art": null,
  "world_art_id": null,
  "time": "75 мин. / 01:15",
  "ads": true,
  "premier": "2021-07-09",
  "premier_rus": null,
  "availability": null,
  "activate_time": "2021-07-11 16:37:00",
  "budget": null,
  "fees_use": null,
  "fees_world": null,
  "fees_rus": null,
  "rate_mpaa": null,
  "description": null,
  "iframe_url": "",
  "iframe_poster": null,
  "poster": "https://img.imgilall.me/movies/franchise/4/8/6/0/0/0/0/0/0/0/610x900_48600.jpg",
  "country": {
    "1": "США"
  },
  "collection": [],
  "genre": {
    "11": "Фантастика"
  },
  "director": [
    "Син Солимон"
  ],
  "screenwriter": [
    "Син Солимон"
  ],
  "producer": [
    "Ginger Christie",
    "Brian Erickson",
    "Robert Kohan"
  ],
  "operator": [
    "Madelyn Solimon"
  ],
  "composer": [],
  "design": [],
  "editor": [],
  "actors": [
    "Син Солимон",
    "Ginger Christie",
    "Кент Хэтч",
    "Kaya Chyla",
    "Megan Gainey",
    "Aria Bigy",
    "Shannon Bengston",
    "Lili Fox-Lim",
    "Джим Маршалл",
    "Минерва Мендес"
  ],
  "actors_dubl": [],
  "trivia": [],
  "trailers": [],
  "seasons": [],
  "voiceActing": [
    "@MUZOBOZ@"
  ],
  "subtitle": [],
  "parts": []
}
