{
  "id": 8956,
  "name": "Сквозь чёрное стекло",
  "name_eng": "",
  "year": 2018,
  "slogan": "«Трагическое столкновение двух мировоззрений»",
  "age": "16+",
  "type": "film",
  "quality": "HD (720p)",
  "imdb": "6.4",
  "imdb_id": "6845324",
  "kinopoisk": "6.3",
  "kinopoisk_id": "1046195",
  "world_art": null,
  "world_art_id": null,
  "time": "139 мин. / 02:19",
  "ads": false,
  "premier": "2019-11-28",
  "premier_rus": "2019-08-03",
  "availability": null,
  "activate_time": "2019-08-18 20:23:00",
  "budget": null,
  "fees_use": null,
  "fees_world": null,
  "fees_rus": null,
  "rate_mpaa": null,
  "description": "История незрячей девушки, судьба которой преподносит уникальный шанс. Состоятельный мужчина готов подарить ей зрение, если она вслепую станет его женой. Этот дар открывает героине жестокую правду жизни...",
  "iframe_url": "",
  "iframe_poster": null,
  "poster": "https://img.imgilall.me/movies/franchise/8/9/5/6/0/0/0/0/0/0/610x900_8956.jpg",
  "country": {
    "5": "Россия"
  },
  "collection": [],
  "genre": {
    "22": "Русский",
    "7": "Драма"
  },
  "director": [
    "Константин Лопушанский"
  ],
  "screenwriter": [
    "Константин Лопушанский"
  ],
  "producer": [
    "Андрей Сигле",
    "Дмитрий Никитин"
  ],
  "operator": [
    "Димитрий Масс"
  ],
  "composer": [],
  "design": [
    "Алексей Падерин",
    "Тамара Сеферян"
  ],
  "editor": [
    "Ефим Берсон"
  ],
  "actors": [
    "Максим Суханов",
    "Василиса Денисова",
    "Надежда Маркина",
    "Ольга Онищенко",
    "Андрей Полищук",
    "Анна Екатерининская",
    "Елена Зимина",
    "Анна Дулова",
    "Александра Мамкаева",
    "Алексей Манцыгин"
  ],
  "actors_dubl": [],
  "trivia": [],
  "trailers": [
    {
      "name": "трейлер №1",
      "number": 1,
      "iframe_poster": "https://img.imgilall.me/movies/trailer/6/1/5/0/0/0/0/0/0/0/800x450_615.jpeg",
      "season": null,
      "iframe_url": ""
    }
  ],
  "seasons": [],
  "voiceActing": [
    "Рус. Оригинальный"
  ],
  "subtitle": [],
  "parts": []
}
