{
  "id": 25647,
  "name": "Коварная няня",
  "name_eng": "Devious Nanny",
  "year": 2018,
  "slogan": "—",
  "age": null,
  "type": "film",
  "quality": "HD (720p)",
  "imdb": "5.4",
  "imdb_id": "7133170",
  "kinopoisk": null,
  "kinopoisk_id": "1091070",
  "world_art": null,
  "world_art_id": null,
  "time": "90 мин. / 01:30",
  "ads": false,
  "premier": "2018-03-02",
  "premier_rus": "2018-03-03",
  "availability": "2018-03-04",
  "activate_time": "2020-06-26 18:21:00",
  "budget": null,
  "fees_use": null,
  "fees_world": null,
  "fees_rus": null,
  "rate_mpaa": null,
  "description": "Брайан изменил Элизе. Но она прощает его, и супруги начинают всё заново. Элиза нанимает няней для сына самую симпатичную из кандидаток, чтобы испытать мужа, но она не учитывает, что голубоглазая простушка может оказаться хитрее, чем кажется.",
  "iframe_url": "",
  "iframe_poster": null,
  "poster": "https://img.imgilall.me/movies/franchise/2/5/6/4/7/0/0/0/0/0/610x900_25647.jpg",
  "country": {
    "1": "США"
  },
  "collection": [],
  "genre": {
    "13": "Триллер"
  },
  "director": [
    "Девон Даунс",
    "Кенни Гейдж"
  ],
  "screenwriter": [
    "Адам Рокофф"
  ],
  "producer": [
    "Кимберли А. Рэй",
    "Майкл Моран",
    "Фернандо Шев"
  ],
  "operator": [
    "Тео Энджелл"
  ],
  "composer": [
    "Тодд Хаберман"
  ],
  "design": [
    "Тейлор Жан",
    "Фи Трэн",
    "Дарра Марморштайн"
  ],
  "editor": [
    "Бретт Солем"
  ],
  "actors": [
    "Мишель Борт",
    "Антонио Цупо",
    "Олеся Рулин",
    "Майкл Роарк",
    "Скайлер Райт",
    "Калила Харрис",
    "Эрика Рингор",
    "Николас Гест",
    "Kapri Hockaday",
    "Марк Барнс"
  ],
  "actors_dubl": [],
  "trivia": [],
  "trailers": [],
  "seasons": [],
  "voiceActing": [
    "Рус. Люб. многоголосый"
  ],
  "subtitle": [],
  "parts": []
}
