{
  "id": 7266,
  "name": "Красная комната",
  "name_eng": "Red Room",
  "year": 2017,
  "slogan": "«How Much Is Your Life Worth»",
  "age": null,
  "type": "film",
  "quality": "HD (720p)",
  "imdb": "3.5",
  "imdb_id": "5738830",
  "kinopoisk": null,
  "kinopoisk_id": "1022079",
  "world_art": null,
  "world_art_id": null,
  "time": "96 мин. / 01:36",
  "ads": true,
  "premier": "2017-10-31",
  "premier_rus": null,
  "availability": null,
  "activate_time": "2019-04-01 17:50:56",
  "budget": "€40 000",
  "fees_use": null,
  "fees_world": null,
  "fees_rus": null,
  "rate_mpaa": null,
  "description": "Киру похищают на улице и привозят в заброшенный дом на окраине Дублина. Здесь она оказывается в компании двух других узниц. Девушки предназначены для онлайн-аукциона миллионеров со всего мира, победивший в котором сможет выбрать как именно и как долго будет подвергаться пыткам понравившаяся ему жертва перед смертью.",
  "iframe_url": "",
  "iframe_poster": "https://img.imgilall.me/movies/video/7/7/2/7/1/0/0/0/0/0/800x450_77271.jpeg",
  "poster": "https://img.imgilall.me/movies/franchise/7/2/6/6/0/0/0/0/0/0/610x900_7266.jpg",
  "country": {
    "21": "Ирландия"
  },
  "collection": [],
  "genre": {
    "26": "Ужасы",
    "13": "Триллер",
    "10": "Зарубежный"
  },
  "director": [
    "Стивен Гаффни"
  ],
  "screenwriter": [
    "Стивен Гаффни",
    "Erica Keegan"
  ],
  "producer": [
    "Стивен Гаффни",
    "Marc Hughes"
  ],
  "operator": [
    "Эрик Гаффни"
  ],
  "composer": [
    "Damien Walsh"
  ],
  "design": [
    "Стивен Гаффни",
    "Erica Keegan"
  ],
  "editor": [],
  "actors": [
    "Брайан Форчун",
    "Фионна Хьюит-Туомли",
    "Эдди Джексон",
    "Кристина Райан",
    "Родриго Терневой",
    "Эйслинг О’Нилл",
    "Roisin Whelan",
    "Мартин О’Салливан",
    "Saoirse Doyle",
    "Эми Келли"
  ],
  "actors_dubl": [],
  "trivia": [],
  "trailers": [],
  "seasons": [],
  "voiceActing": [
    "Рус. Проф. многоголосый"
  ],
  "subtitle": [],
  "parts": []
}
