{
  "id": 48474,
  "name": "Кокоте",
  "name_eng": "Cocote",
  "year": 2017,
  "slogan": "—",
  "age": "18+",
  "type": "film",
  "quality": "HD (720p)",
  "imdb": "6.6",
  "imdb_id": null,
  "kinopoisk": null,
  "kinopoisk_id": "1049621",
  "world_art": null,
  "world_art_id": null,
  "time": "106 мин. / 01:46",
  "ads": true,
  "premier": "2017-08-03",
  "premier_rus": "2017-08-04",
  "availability": "2017-08-05",
  "activate_time": "2021-07-04 01:51:00",
  "budget": null,
  "fees_use": null,
  "fees_world": null,
  "fees_rus": null,
  "rate_mpaa": null,
  "description": "Альберто возвращается в родную деревню в Доминиканской Республике, чтобы выяснить обстоятельства убийства своего отца. Но его поискам правды препятствуют местные жители, по-прежнему почитающее архаичные религиозные культы.",
  "iframe_url": "",
  "iframe_poster": null,
  "poster": "https://img.imgilall.me/movies/franchise/4/8/4/7/4/0/0/0/0/0/610x900_48474.jpg",
  "country": {
    "22": "Аргентина",
    "64": "Доминикана",
    "20": "Германия",
    "85": "Катар"
  },
  "collection": [],
  "genre": {
    "7": "Драма"
  },
  "director": [
    "Нельсон Карло де Лос Сантос Ариас"
  ],
  "screenwriter": [
    "Нельсон Карло де Лос Сантос Ариас"
  ],
  "producer": [
    "Фернандо Сантос Диас",
    "Лукас Валента"
  ],
  "operator": [
    "Роман Кассероллер"
  ],
  "composer": [],
  "design": [
    "Наталия Апонте"
  ],
  "editor": [
    "Нельсон Карло де Лос Сантос Ариас"
  ],
  "actors": [
    "Винсент Сантос",
    "Юберби де ла Роза",
    "Хосе Мигель Фернандес",
    "Кальяне Линарес",
    "Энеролиза Нуньез",
    "Худит Родригес Перес",
    "Пепе Сьерра",
    "Изабель Спенсер",
    "Рикардо Эриель Торибио"
  ],
  "actors_dubl": [],
  "trivia": [],
  "trailers": [],
  "seasons": [],
  "voiceActing": [
    "Синема УС"
  ],
  "subtitle": [],
  "parts": []
}
