{
  "id": 20833,
  "name": "Попай",
  "name_eng": "Pop Aye",
  "year": 2017,
  "slogan": "—",
  "age": null,
  "type": "film",
  "quality": "SD",
  "imdb": "6.7",
  "imdb_id": "3740066",
  "kinopoisk": null,
  "kinopoisk_id": "1009176",
  "world_art": null,
  "world_art_id": null,
  "time": "104 мин. / 01:44",
  "ads": false,
  "premier": "2017-01-19",
  "premier_rus": "2017-01-20",
  "availability": "2017-01-21",
  "activate_time": "2020-05-29 16:33:00",
  "budget": null,
  "fees_use": "$77 976",
  "fees_world": null,
  "fees_rus": null,
  "rate_mpaa": null,
  "description": "Найдя на улицах Бангкока своего слона, разочарованный в жизни архитектор отправляется с ним на поиски фермы, где они вместе выросли.",
  "iframe_url": "",
  "iframe_poster": null,
  "poster": "https://img.imgilall.me/movies/franchise/2/0/8/3/3/0/0/0/0/0/610x900_20833.jpg",
  "country": {
    "47": "Сингапур",
    "66": "Таиланд"
  },
  "collection": [],
  "genre": {
    "7": "Драма"
  },
  "director": [
    "Кирстен Тан"
  ],
  "screenwriter": [
    "Кирстен Тан"
  ],
  "producer": [
    "Хуан Вэньхун",
    "Лай Вэйцзе",
    "Ден Ли"
  ],
  "operator": [
    "Чананун Чотрунгрой"
  ],
  "composer": [
    "Matthew James Kelly"
  ],
  "design": [
    "Расигыт Суккарн",
    "Маноп Ченгсаванг"
  ],
  "editor": [
    "Ли Чатаметикоол"
  ],
  "actors": [
    "Танет Варакулнукрох",
    "Бон",
    "Пенпак Сирикул",
    "Supanthu Julma",
    "Chaiwat Khumdee",
    "Wachira Supasu",
    "Сасапин Сириванджи",
    "Nattavut Trivisvavet",
    "Yukontorn Sukkijja",
    "Tossapol Leongsupporn"
  ],
  "actors_dubl": [],
  "trivia": [],
  "trailers": [],
  "seasons": [],
  "voiceActing": [
    "Рус. Люб. многоголосый"
  ],
  "subtitle": [],
  "parts": []
}
