{
  "id": 5536,
  "name": "Приемлемая потеря",
  "name_eng": "The Pages / An Acceptable Loss",
  "year": 2018,
  "slogan": "«The Truth is a Moving Target»",
  "age": "16+",
  "type": "film",
  "quality": "FHD (1080p)",
  "imdb": "5.4",
  "imdb_id": "7049542",
  "kinopoisk": null,
  "kinopoisk_id": "1095802",
  "world_art": null,
  "world_art_id": null,
  "time": "102 мин. / 01:42",
  "ads": true,
  "premier": "2018-10-13",
  "premier_rus": null,
  "availability": null,
  "activate_time": "2019-01-21 22:24:04",
  "budget": null,
  "fees_use": "$32 427",
  "fees_world": "$32 427",
  "fees_rus": null,
  "rate_mpaa": "R",
  "description": "Бывшему высокопоставленному советнику по безопасности США Элизабет Лэмм угрожают соратники из ее мрачного прошлого.",
  "iframe_url": "",
  "iframe_poster": null,
  "poster": "https://img.imgilall.me/movies/franchise/5/5/3/6/0/0/0/0/0/0/610x900_5536.jpg",
  "country": {
    "1": "США"
  },
  "collection": [],
  "genre": {
    "13": "Триллер",
    "10": "Зарубежный",
    "7": "Драма"
  },
  "director": [
    "Джо Чаппелль"
  ],
  "screenwriter": [
    "Джо Чаппелль"
  ],
  "producer": [
    "Коллин Гриффен",
    "Beverly Aisenbrey",
    "Сьюзэн Дж. Беван"
  ],
  "operator": [
    "Петра Корнер"
  ],
  "composer": [],
  "design": [
    "Дэниэл Б. Клэнси",
    "Сьюзан Кауфман",
    "James Hartnett"
  ],
  "editor": [
    "Джо Рэбиг"
  ],
  "actors": [
    "Тика Самптер",
    "Джейми Ли Кёртис",
    "Бен Тавассоли",
    "Джефф Хефнер",
    "Дианна Данаган",
    "Алекс Уайзман",
    "Ali Burch",
    "Кларк Питерс",
    "Дэвид Эйгенберг",
    "Алисия Райнер"
  ],
  "actors_dubl": [],
  "trivia": [],
  "trailers": [],
  "seasons": [],
  "voiceActing": [
    "HDRezka Studio"
  ],
  "subtitle": [],
  "parts": []
}
