{
  "id": 7713,
  "name": "Миррейес против Годинеса",
  "name_eng": "Mirreyes contra Godinez",
  "year": 2019,
  "slogan": "—",
  "age": "12+",
  "type": "film",
  "quality": "SD",
  "imdb": "5.2",
  "imdb_id": "7294400",
  "kinopoisk": null,
  "kinopoisk_id": "1076091",
  "world_art": null,
  "world_art_id": null,
  "time": "109 мин. / 01:49",
  "ads": true,
  "premier": "2019-01-25",
  "premier_rus": null,
  "availability": null,
  "activate_time": "2019-04-15 12:34:30",
  "budget": "MX$ 28 000 000",
  "fees_use": null,
  "fees_world": null,
  "fees_rus": null,
  "rate_mpaa": null,
  "description": "Дон Франциско Кури погибает в автокатастрофе и его обувная фабрика остаётся в наследство сыну Сантьяго и совладельцу Хавьеру, который мечтает продать компанию. Великовозрастный обормот Сантьяго никогда не вникал в бизнес отца, но ему, его сестре Мишель, друзьям и команде молодого управляющего Генаро придётся объединиться, чтобы отстоять бизнес дона Франциско.",
  "iframe_url": "",
  "iframe_poster": "https://img.imgilall.me/movies/video/8/2/5/5/8/0/0/0/0/0/800x450_82558.jpeg",
  "poster": "https://img.imgilall.me/movies/franchise/7/7/1/3/0/0/0/0/0/0/610x900_7713.jpg",
  "country": {
    "17": "Мексика"
  },
  "collection": [],
  "genre": {
    "19": "Комедия",
    "10": "Зарубежный"
  },
  "director": [
    "Сальвадор Картас"
  ],
  "screenwriter": [
    "Maria Hinojos"
  ],
  "producer": [
    "Франсиско Гонсалес Компеан",
    "Консепшн Табоада",
    "Ruth Cherem Daniel"
  ],
  "operator": [
    "Бету Касильяс"
  ],
  "composer": [],
  "design": [
    "Клаудио Контрерас",
    "Карлос Бенассини",
    "Julien Boisselier"
  ],
  "editor": [],
  "actors": [
    "Рехина Бландон",
    "Роберто Агуайр",
    "Диана Бовио",
    "Пабло Лайл",
    "Клаудия Рамирес",
    "Даниэль Товар",
    "Кристиан Васкес",
    "Эрнан Мендоса",
    "Мишель Родригес",
    "Алехандро де Марино"
  ],
  "actors_dubl": [],
  "trivia": [],
  "trailers": [],
  "seasons": [],
  "voiceActing": [
    "Рус. Проф. многоголосый"
  ],
  "subtitle": [],
  "parts": []
}
