{
  "id": 9279,
  "name": "Веселье, веселье",
  "name_eng": "Zabawa, zabawa",
  "year": 2018,
  "slogan": "«Kobiety na zakrecie»",
  "age": "12+",
  "type": "film",
  "quality": "HD (720p)",
  "imdb": "6.4",
  "imdb_id": "7419468",
  "kinopoisk": null,
  "kinopoisk_id": "1052209",
  "world_art": null,
  "world_art_id": null,
  "time": "88 мин. / 01:28",
  "ads": true,
  "premier": "2018-09-20",
  "premier_rus": null,
  "availability": null,
  "activate_time": "2019-09-23 17:42:00",
  "budget": null,
  "fees_use": null,
  "fees_world": null,
  "fees_rus": null,
  "rate_mpaa": null,
  "description": "Три переплетающиеся друг с другом истории женщин с алкогольной зависимостью. Дорота – успешный прокурор. Пользуясь служебной неприкосновенностью, она старается избежать ответственности за правонарушения, которые совершила «под градусом». Её муж, известный политик, помогает скрывать все ее выходки и спасает ее из разных передряг, но постепенно теряет свое терпение. Уважаемая всеми детский хирург Тереса из-за алкоголя потеряла семью, ей осталась только работа в больнице, в которой она ординатор. Ситуация совсем выходит из-под контроля, когда, будучи под влиянием алкоголя, она приходит на дежурство. Студентка Магда любит развлечься, а так как она отлично учится и у нее отличная работа, никто ее за это не упрекает. В какой-то момент она теряет почву под ногами, когда в состоянии похмелья с ней случается трагическое событие.",
  "iframe_url": "",
  "iframe_poster": "https://img.imgilall.me/movies/video/9/6/6/2/4/0/0/0/0/0/800x450_96624.jpeg",
  "poster": "https://img.imgilall.me/movies/franchise/9/2/7/9/0/0/0/0/0/0/610x900_9279.jpg",
  "country": {
    "14": "Польша"
  },
  "collection": [],
  "genre": {
    "10": "Зарубежный",
    "7": "Драма"
  },
  "director": [
    "Кинга Дембска"
  ],
  "screenwriter": [
    "Кинга Дембска",
    "Мика Дунин"
  ],
  "producer": [
    "Збигнев Домагальский",
    "Monika Blachnio",
    "Maciej Chyzynski"
  ],
  "operator": [
    "Анджей Войцеховский"
  ],
  "composer": [
    "Михал Новински"
  ],
  "design": [
    "Моника Судоль",
    "Дорота Рокепло"
  ],
  "editor": [
    "Бартош Карчинский"
  ],
  "actors": [
    "Агата Кулеша",
    "Мария Дембска",
    "Дорота Коляк",
    "Марчин Дорочиньский",
    "Monika Babula",
    "Мирослав Бака",
    "Mariusz Bakowski",
    "Катажина Баргеловска",
    "Magdalena Bieganska",
    "Пжемыслав Блущ"
  ],
  "actors_dubl": [],
  "trivia": [],
  "trailers": [],
  "seasons": [],
  "voiceActing": [
    "Рус. Люб. многоголосый"
  ],
  "subtitle": [],
  "parts": []
}
