{
  "id": 13890,
  "name": "Без связи",
  "name_eng": "Non c'e campo",
  "year": 2017,
  "slogan": "—",
  "age": null,
  "type": "film",
  "quality": "HD (720p)",
  "imdb": "4.2",
  "imdb_id": "5720558",
  "kinopoisk": null,
  "kinopoisk_id": "1021032",
  "world_art": null,
  "world_art_id": null,
  "time": "—",
  "ads": true,
  "premier": "2017-11-02",
  "premier_rus": null,
  "availability": null,
  "activate_time": "2019-12-29 13:59:00",
  "budget": "",
  "fees_use": "",
  "fees_world": "",
  "fees_rus": "",
  "rate_mpaa": "",
  "description": "Лаура — преподаватель лицея, в целях культурного просвещения организует для своих учеников недельную поездку в мастерскую известного художника и скульптора Гуалтьеро Мартелли. Она уезжает вместе со своей коллегой Алессандрой и ребятами, оставляя дома дочь Вирджинию и мужа Андреа. Но в маленьком городке провинции Саленто, куда прибывает экскурсионная группа, нет мобильной связи и проживание в прекрасном уголке Апульи превращается в настоящий кошмар. Вынужденные обходиться без интернетной и мобильной связи, молодые люди переходят к живому общению, которое провоцирует их на неожиданные реакции, признания и новые любовные увлечения.",
  "iframe_url": "",
  "iframe_poster": null,
  "poster": "https://img.imgilall.me/movies/franchise/1/3/8/9/0/0/0/0/0/0/610x900_13890.jpg",
  "country": {
    "8": "Италия"
  },
  "collection": [],
  "genre": {
    "8": "Мелодрама"
  },
  "director": [
    "Федерико Моччиа"
  ],
  "screenwriter": [
    "Chiara Bertini",
    "Francesca Cucci",
    "Федерико Моччиа"
  ],
  "producer": [
    "Де Анджелис Марко",
    "Де Анджелис Николя",
    "Джан Габриэле Фоскини"
  ],
  "operator": [
    "Даниэль Поли"
  ],
  "composer": [
    "Франческо Черази"
  ],
  "design": [
    "Francesco Nitti",
    "Вероника Лопез"
  ],
  "editor": [
    "Карло Балестрьери"
  ],
  "actors": [
    "Ванесса Инконтрада",
    "Джанмарко Тоньяцци",
    "Коррадо Фортуна",
    "Клаудиа Потенца",
    "Нева Леони",
    "Beatrice Arnera",
    "Mirko Trovato",
    "Eleonora Gaggero",
    "Caterina Biasiol",
    "Elodie Di Patrizi"
  ],
  "actors_dubl": [],
  "trivia": [],
  "trailers": [],
  "seasons": [],
  "voiceActing": [
    "Рус. Люб. многоголосый"
  ],
  "subtitle": [],
  "parts": []
}
