{
  "id": 15645,
  "name": "Черепа",
  "name_eng": "Skullz",
  "year": 2019,
  "slogan": "«Find the Skull - Break the Curse»",
  "age": null,
  "type": "film",
  "quality": "HD (720p)",
  "imdb": "3.5",
  "imdb_id": "5976054",
  "kinopoisk": null,
  "kinopoisk_id": "1013171",
  "world_art": null,
  "world_art_id": null,
  "time": "90 мин. / 01:30",
  "ads": false,
  "premier": "2019-05-01",
  "premier_rus": null,
  "availability": "2019-05-02",
  "activate_time": "2020-02-27 17:52:00",
  "budget": "£ 100 000",
  "fees_use": "",
  "fees_world": "",
  "fees_rus": "",
  "rate_mpaa": "",
  "description": "Супружеская пара страдает от таинственного проклятья. Для того, чтобы снять его, нужен магический череп, однако найти этот загадочный артефакт оказывается не так просто.",
  "iframe_url": "",
  "iframe_poster": null,
  "poster": "https://img.imgilall.me/movies/franchise/1/5/6/4/5/0/0/0/0/0/610x900_15645.jpg",
  "country": {
    "2": "Великобритания"
  },
  "collection": [],
  "genre": {
    "9": "Приключения",
    "6": "Фэнтези",
    "33": "Семейный",
    "24": "Детектив"
  },
  "director": [
    "Дианна Дьюи"
  ],
  "screenwriter": [
    "James DeMarco",
    "Дианна Дьюи"
  ],
  "producer": [
    "Джемма Уилкс"
  ],
  "operator": [
    "John E. Fry"
  ],
  "composer": [
    "Michael Walters"
  ],
  "design": [],
  "editor": [
    "Терри Вуки"
  ],
  "actors": [
    "Генри Даутуэйт",
    "Тим Фарадей",
    "Эми Лоутон",
    "Джемма Уилкс",
    "Гари Ронеки",
    "Джуди Норман",
    "Джиллиан Талли",
    "Debbie Tarrier",
    "Logan Blandford",
    "Niamh Blandford"
  ],
  "actors_dubl": [],
  "trivia": [],
  "trailers": [],
  "seasons": [],
  "voiceActing": [
    "Рус. Люб. многоголосый"
  ],
  "subtitle": [],
  "parts": []
}
