{
  "id": 32120,
  "name": "Босиком на рассвете",
  "name_eng": "Pieds nus dans l'aube",
  "year": 2017,
  "slogan": "—",
  "age": null,
  "type": "film",
  "quality": "HD (720p)",
  "imdb": "6.7",
  "imdb_id": "0",
  "kinopoisk": null,
  "kinopoisk_id": "1008063",
  "world_art": null,
  "world_art_id": null,
  "time": "118 мин. / 01:58",
  "ads": false,
  "premier": "2017-09-20",
  "premier_rus": "2017-09-21",
  "availability": "2017-09-22",
  "activate_time": "2020-07-14 06:35:00",
  "budget": "CA$ 5 300 000",
  "fees_use": null,
  "fees_world": null,
  "fees_rus": null,
  "rate_mpaa": null,
  "description": null,
  "iframe_url": "",
  "iframe_poster": null,
  "poster": "https://img.imgilall.me/movies/franchise/3/2/1/2/0/0/0/0/0/0/610x900_32120.jpg",
  "country": {
    "7": "Канада"
  },
  "collection": [],
  "genre": {
    "7": "Драма"
  },
  "director": [
    "Френсис Леклерк"
  ],
  "screenwriter": [
    "Френсис Леклерк",
    "Фред Пеллерин",
    "Феликс Леклерк"
  ],
  "producer": [
    "Антонелло Коссолино",
    "Марлин Больё",
    "Луиз Лантань"
  ],
  "operator": [
    "Стив Асселин"
  ],
  "composer": [
    "Мартин Рой",
    "Люк Сикард"
  ],
  "design": [
    "Мари-Клод Госселин",
    "Жози Кастонгуэй"
  ],
  "editor": [
    "Изабель Малинфант"
  ],
  "actors": [
    "Шона Бонадьюс",
    "Рой Дюпюи",
    "Марианн Фортье",
    "Кайл Гейтхаус",
    "Xavier Gaudreau-Poulin",
    "Микаель Гуэн",
    "Tristan Goyette-Plante",
    "Мари-Джинетт Гуай",
    "Julien Leclerc",
    "Клод Лего"
  ],
  "actors_dubl": [],
  "trivia": [],
  "trailers": [],
  "seasons": [],
  "voiceActing": [
    "Рус. Люб. многоголосый"
  ],
  "subtitle": [],
  "parts": []
}
