{
  "id": 10717,
  "name": "Еще один день жизни",
  "name_eng": "Another Day of Life",
  "year": 2018,
  "slogan": "—",
  "age": "12+",
  "type": "cartoon",
  "quality": "HD (720p)",
  "imdb": "7.3",
  "imdb_id": "2967856",
  "kinopoisk": "6.8",
  "kinopoisk_id": "1043950",
  "world_art": null,
  "world_art_id": null,
  "time": "85 мин. / 01:25",
  "ads": true,
  "premier": "2018-05-11",
  "premier_rus": null,
  "availability": null,
  "activate_time": "2019-09-23 17:43:00",
  "budget": "€6 100 000",
  "fees_use": null,
  "fees_world": null,
  "fees_rus": null,
  "rate_mpaa": null,
  "description": "Захватывающая история длящейся три месяца поездки замечательного польского репортера Рышарда Капущинского в захваченную войной и хаосом Анголу, в которой линия фронта постоянно смещается. Продолжается деколонизация страны после португальской «Революции гвоздик». Португальцы в спешке покидают элитные районы города. Они опасаются атаки на столицу страны. В Луанде закрываются магазины, исчезают городские коммунальные службы, растут горы мусора. Капущински каждый день высылает депеши из опустошенного города в Польское информационное агентство. Наконец отправляется в смертельно опасное путешествие вглубь страны. Чудом избежав смерти, он начинает отдавать себе отчет в том, что является свидетелем событий, которые будут требовать от него выйти из роли простого наблюдателя.",
  "iframe_url": "",
  "iframe_poster": "https://img.imgilall.me/movies/video/1/1/2/4/3/8/0/0/0/0/800x450_112438.jpeg",
  "poster": "https://img.imgilall.me/movies/franchise/1/0/7/1/7/0/0/0/0/0/610x900_10717.jpg",
  "country": {
    "3": "Испания",
    "9": "Франция",
    "14": "Польша",
    "20": "Германия",
    "29": "Бельгия",
    "32": "Венгрия"
  },
  "collection": [],
  "genre": {
    "27": "Биографический",
    "10": "Зарубежный"
  },
  "director": [
    "Рауль Де Ла Фуэнте",
    "Дамиан Ненов"
  ],
  "screenwriter": [
    "Рауль Де Ла Фуэнте",
    "Амайя Ремирец",
    "Найэлл Джонсон"
  ],
  "producer": [
    "Амайя Ремирец",
    "Франтишек Амбруш",
    "Рауль Де Ла Фуэнте"
  ],
  "operator": [
    "Рауль Де Ла Фуэнте",
    "Горка Гомез Андреу"
  ],
  "composer": [
    "Микель Салас"
  ],
  "design": [
    "Рафаль Войтуник"
  ],
  "editor": [
    "Рауль Де Ла Фуэнте"
  ],
  "actors": [
    "Миросляв Ханишевский",
    "Верджил Дж. Смит",
    "Томаш Зитек",
    "Ольга Болондзь",
    "Рафаль Фудалей",
    "Павел Пачесны",
    "Якуб Каменьский",
    "Керри Шейл",
    "Дэниэл Флинн",
    "Юссеф Керкур"
  ],
  "actors_dubl": [],
  "trivia": [
    "На создание фильма ушло 10 лет."
  ],
  "trailers": [],
  "seasons": [],
  "voiceActing": [
    "Рус. Люб. многоголосый"
  ],
  "subtitle": [],
  "parts": []
}
