{
  "id": 4544,
  "name": "Хорошая борьба",
  "name_eng": "The Good Fight",
  "year": 2017,
  "slogan": null,
  "age": "18+",
  "type": "series",
  "quality": "FHD (1080p)",
  "imdb": "8.3",
  "imdb_id": "5853176",
  "kinopoisk": "7.8",
  "kinopoisk_id": "1006633",
  "world_art": null,
  "world_art_id": null,
  "time": "45 мин.",
  "ads": true,
  "premier": "2017-02-19",
  "premier_rus": "2017-03-27",
  "availability": "2017-03-28",
  "serial_status": "online",
  "activate_time": "2018-12-11 10:24:17",
  "budget": null,
  "fees_use": null,
  "fees_world": null,
  "fees_rus": null,
  "rate_mpaa": null,
  "description": "В результате раскрытия ряда незаконных сделок Диана Локхарт теряет работу и сбережения, а её крестница, молодой адвокат Майя, — репутацию. Спустя некоторое время Диана становится партнёром одной из крупнейших юридических фирм Чикаго.",
  "iframe_url": "",
  "poster": "https://img.imgilall.me/movies/franchise/4/5/4/4/0/0/0/0/0/0/610x900_4544.jpg",
  "country": {
    "1": "США"
  },
  "collection": [],
  "genre": {
    "10": "Зарубежный",
    "7": "Драма"
  },
  "director": [
    "Брук Кеннеди",
    "Джим МакКэй",
    "Роберт Кинг"
  ],
  "screenwriter": [
    "Мишель Кинг",
    "Роберт Кинг",
    "Фил Олден Робинсон"
  ],
  "producer": [
    "Лиз Глоцер",
    "Уильям М. Финкельштейн",
    "Брук Кеннеди"
  ],
  "operator": [
    "Тим Гиннесс",
    "Фред Мерфи",
    "Петр Хиномац"
  ],
  "composer": [
    "Дэвид Бакли"
  ],
  "design": [
    "Стефен Хендирксон",
    "Хильда Старк",
    "Фрэнк Уайт III"
  ],
  "editor": [
    "Гари Леви",
    "Мэттью Крегор",
    "Аллисон С. Джонсон"
  ],
  "actors": [
    "Кристин Барански",
    "Каш Джамбо",
    "Делрой Линдо",
    "Сара Стил",
    "Ньямби Ньямби",
    "Роуз Лесли",
    "Майкл Ботмэн",
    "Одра МакДональд",
    "Джастин Барта",
    "Гэри Коул"
  ],
  "actors_dubl": [],
  "trivia": [
    "Спин-офф сериала \"Хорошая жена\" (2009-2016).",
    "Сцены юга Франции снимали на Лонг-Айленде в январе."
  ],
  "trailers": [
    {
      "name": "трейлер №1",
      "number": 1,
      "iframe_poster": "https://img.imgilall.me/movies/trailer/2/4/4/0/0/0/0/0/0/0/800x450_244.jpeg",
      "season": 3,
      "iframe_url": ""
    },
    {
      "name": "трейлер №1",
      "number": 1,
      "iframe_poster": null,
      "season": 4,
      "iframe_url": ""
    },
    {
      "name": "трейлер №1",
      "number": 1,
      "iframe_poster": null,
      "season": 4,
      "iframe_url": ""
    }
  ],
  "seasons": [
    {
      "poster": "https://img.imgilall.me/movies/season/2/4/9/3/0/0/0/0/0/0/610x900_2493.jpg",
      "release_ru": "2017-02-20",
      "release_world": "2017-02-19",
      "availability": "2017-02-21",
      "iframe_url": "",
      "season": 1,
      "episodes": [
        {
          "episode": 1,
          "name": "Inauguration",
          "iframe_url": "",
          "iframe_poster": null,
          "release_ru": "2017-02-20",
          "release_world": "2017-02-19",
          "availability": "2017-02-21",
          "voiceActing": [
            "Amedia",
            "Eng.Original"
          ],
          "ads": false,
          "subtitle": [
            "Рус. полные"
          ]
        },
        {
          "episode": 2,
          "name": "First Week",
          "iframe_url": "",
          "iframe_poster": null,
          "release_ru": "2017-02-20",
          "release_world": "2017-02-19",
          "availability": "2017-02-21",
          "voiceActing": [
            "Amedia",
            "Eng.Original"
          ],
          "ads": false,
          "subtitle": [
            "Рус. полные"
          ]
        },
        {
          "episode": 3,
          "name": "The Schtup List",
          "iframe_url": "",
          "iframe_poster": null,
          "release_ru": "2017-02-27",
          "release_world": "2017-02-26",
          "availability": "2017-02-28",
          "voiceActing": [
            "Amedia",
            "Eng.Original"
          ],
          "ads": false,
          "subtitle": [
            "Рус. полные"
          ]
        },
        {
          "episode": 4,
          "name": "Henceforth Known as Property",
          "iframe_url": "",
          "iframe_poster": null,
          "release_ru": "2017-03-06",
          "release_world": "2017-03-05",
          "availability": "2017-03-07",
          "voiceActing": [
            "Amedia",
            "Eng.Original"
          ],
          "ads": false,
          "subtitle": [
            "Рус. полные"
          ]
        },
        {
          "episode": 5,
          "name": "Stoppable: Requiem for an Airdate",
          "iframe_url": "",
          "iframe_poster": null,
          "release_ru": "2017-03-13",
          "release_world": "2017-03-12",
          "availability": "2017-03-14",
          "voiceActing": [
            "Amedia",
            "Eng.Original"
          ],
          "ads": false,
          "subtitle": [
            "Рус. полные"
          ]
        },
        {
          "episode": 6,
          "name": "Social Media and Its Discontents",
          "iframe_url": "",
          "iframe_poster": null,
          "release_ru": "2017-03-20",
          "release_world": "2017-03-19",
          "availability": "2017-03-21",
          "voiceActing": [
            "Amedia",
            "Eng.Original"
          ],
          "ads": false,
          "subtitle": [
            "Рус. полные"
          ]
        },
        {
          "episode": 7,
          "name": "Not So Grand Jury",
          "iframe_url": "",
          "iframe_poster": null,
          "release_ru": "2017-03-27",
          "release_world": "2017-03-26",
          "availability": "2017-03-28",
          "voiceActing": [
            "Amedia",
            "Eng.Original"
          ],
          "ads": false,
          "subtitle": [
            "Рус. полные"
          ]
        },
        {
          "episode": 8,
          "name": "Reddick v Boseman",
          "iframe_url": "",
          "iframe_poster": null,
          "release_ru": "2017-04-03",
          "release_world": "2017-04-02",
          "availability": "2017-04-04",
          "voiceActing": [
            "Amedia",
            "Eng.Original"
          ],
          "ads": false,
          "subtitle": [
            "Рус. полные"
          ]
        },
        {
          "episode": 9,
          "name": "Self Condemned",
          "iframe_url": "",
          "iframe_poster": null,
          "release_ru": "2017-04-10",
          "release_world": "2017-04-09",
          "availability": "2017-04-11",
          "voiceActing": [
            "Amedia",
            "Eng.Original"
          ],
          "ads": false,
          "subtitle": [
            "Рус. полные"
          ]
        },
        {
          "episode": 10,
          "name": "Chaos",
          "iframe_url": "",
          "iframe_poster": null,
          "release_ru": "2017-04-17",
          "release_world": "2017-04-16",
          "availability": "2017-04-18",
          "voiceActing": [
            "Amedia",
            "Eng.Original"
          ],
          "ads": false,
          "subtitle": [
            "Рус. полные"
          ]
        }
      ]
    },
    {
      "poster": "https://img.imgilall.me/movies/season/2/4/9/4/0/0/0/0/0/0/610x900_2494.jpg",
      "release_ru": "2018-03-05",
      "release_world": "2018-03-04",
      "availability": "2018-03-06",
      "iframe_url": "",
      "season": 2,
      "episodes": [
        {
          "episode": 1,
          "name": "Day 408",
          "iframe_url": "",
          "iframe_poster": null,
          "release_ru": "2018-03-05",
          "release_world": "2018-03-04",
          "availability": "2018-03-06",
          "voiceActing": [
            "SDI Media"
          ],
          "ads": false,
          "subtitle": []
        },
        {
          "episode": 2,
          "name": "Day 415",
          "iframe_url": "",
          "iframe_poster": null,
          "release_ru": "2018-03-12",
          "release_world": "2018-03-11",
          "availability": "2018-03-13",
          "voiceActing": [
            "SDI Media"
          ],
          "ads": false,
          "subtitle": []
        },
        {
          "episode": 3,
          "name": "Day 422",
          "iframe_url": "",
          "iframe_poster": null,
          "release_ru": "2018-03-19",
          "release_world": "2018-03-18",
          "availability": "2018-03-20",
          "voiceActing": [
            "SDI Media"
          ],
          "ads": false,
          "subtitle": []
        },
        {
          "episode": 4,
          "name": "Day 429",
          "iframe_url": "",
          "iframe_poster": null,
          "release_ru": "2018-03-26",
          "release_world": "2018-03-25",
          "availability": "2018-03-27",
          "voiceActing": [
            "SDI Media"
          ],
          "ads": false,
          "subtitle": []
        },
        {
          "episode": 5,
          "name": "Day 436",
          "iframe_url": "",
          "iframe_poster": null,
          "release_ru": "2018-04-02",
          "release_world": "2018-04-01",
          "availability": "2018-04-03",
          "voiceActing": [
            "SDI Media"
          ],
          "ads": false,
          "subtitle": []
        },
        {
          "episode": 6,
          "name": "Day 443",
          "iframe_url": "",
          "iframe_poster": null,
          "release_ru": "2018-04-09",
          "release_world": "2018-04-08",
          "availability": "2018-04-10",
          "voiceActing": [
            "SDI Media"
          ],
          "ads": false,
          "subtitle": []
        },
        {
          "episode": 7,
          "name": "Day 450",
          "iframe_url": "",
          "iframe_poster": null,
          "release_ru": "2018-04-16",
          "release_world": "2018-04-15",
          "availability": "2018-04-17",
          "voiceActing": [
            "SDI Media"
          ],
          "ads": false,
          "subtitle": []
        },
        {
          "episode": 8,
          "name": "Day 457",
          "iframe_url": "",
          "iframe_poster": null,
          "release_ru": "2018-04-23",
          "release_world": "2018-04-22",
          "availability": "2018-04-24",
          "voiceActing": [
            "SDI Media"
          ],
          "ads": false,
          "subtitle": []
        },
        {
          "episode": 9,
          "name": "Day 464",
          "iframe_url": "",
          "iframe_poster": null,
          "release_ru": "2018-04-30",
          "release_world": "2018-04-29",
          "availability": "2018-05-01",
          "voiceActing": [
            "SDI Media"
          ],
          "ads": false,
          "subtitle": []
        },
        {
          "episode": 10,
          "name": "Day 471",
          "iframe_url": "",
          "iframe_poster": null,
          "release_ru": "2018-05-07",
          "release_world": "2018-05-06",
          "availability": "2018-05-08",
          "voiceActing": [
            "SDI Media"
          ],
          "ads": false,
          "subtitle": []
        },
        {
          "episode": 11,
          "name": "Day 478",
          "iframe_url": "",
          "iframe_poster": null,
          "release_ru": "2018-05-14",
          "release_world": "2018-05-13",
          "availability": "2018-05-15",
          "voiceActing": [
            "SDI Media"
          ],
          "ads": false,
          "subtitle": []
        },
        {
          "episode": 12,
          "name": "Day 485",
          "iframe_url": "",
          "iframe_poster": null,
          "release_ru": "2018-05-21",
          "release_world": "2018-05-20",
          "availability": "2018-05-22",
          "voiceActing": [
            "SDI Media"
          ],
          "ads": false,
          "subtitle": []
        },
        {
          "episode": 13,
          "name": "Day 492",
          "iframe_url": "",
          "iframe_poster": null,
          "release_ru": "2018-05-28",
          "release_world": "2018-05-27",
          "availability": "2018-05-29",
          "voiceActing": [
            "SDI Media"
          ],
          "ads": false,
          "subtitle": []
        }
      ]
    },
    {
      "poster": "https://img.imgilall.me/movies/season/3/4/2/9/0/0/0/0/0/0/610x900_3429.jpg",
      "release_ru": "2019-03-15",
      "release_world": "2019-03-14",
      "availability": "2019-03-16",
      "iframe_url": "",
      "season": 3,
      "episodes": [
        {
          "episode": 1,
          "name": "The One About the Recent Troubles",
          "iframe_url": "",
          "iframe_poster": null,
          "release_ru": "2019-03-15",
          "release_world": "2019-03-14",
          "availability": "2019-03-16",
          "voiceActing": [
            "Amedia"
          ],
          "ads": false,
          "subtitle": []
        },
        {
          "episode": 2,
          "name": "The One Inspired by Roy Cohn",
          "iframe_url": "",
          "iframe_poster": null,
          "release_ru": "2019-03-22",
          "release_world": "2019-03-21",
          "availability": "2019-03-23",
          "voiceActing": [
            "Amedia"
          ],
          "ads": false,
          "subtitle": []
        },
        {
          "episode": 3,
          "name": "The One Where Diane Joins the Resistance",
          "iframe_url": "",
          "iframe_poster": null,
          "release_ru": "2019-03-29",
          "release_world": "2019-03-28",
          "availability": "2019-03-30",
          "voiceActing": [
            "Amedia"
          ],
          "ads": false,
          "subtitle": []
        },
        {
          "episode": 4,
          "name": "The One With Lucca Becoming a Meme",
          "iframe_url": "",
          "iframe_poster": null,
          "release_ru": "2019-04-05",
          "release_world": "2019-04-04",
          "availability": "2019-04-06",
          "voiceActing": [
            "Amedia"
          ],
          "ads": false,
          "subtitle": []
        },
        {
          "episode": 5,
          "name": "The One Where a Nazi Gets Punched",
          "iframe_url": "",
          "iframe_poster": null,
          "release_ru": "2019-04-12",
          "release_world": "2019-04-11",
          "availability": "2019-04-13",
          "voiceActing": [
            "Amedia"
          ],
          "ads": false,
          "subtitle": []
        },
        {
          "episode": 6,
          "name": "The One with the Celebrity Divorce",
          "iframe_url": "",
          "iframe_poster": null,
          "release_ru": "2019-04-19",
          "release_world": "2019-04-18",
          "availability": "2019-04-20",
          "voiceActing": [
            "Amedia"
          ],
          "ads": false,
          "subtitle": []
        },
        {
          "episode": 7,
          "name": "The One Where Diane and Liz Topple Democracy",
          "iframe_url": "",
          "iframe_poster": null,
          "release_ru": "2019-04-26",
          "release_world": "2019-04-25",
          "availability": "2019-04-27",
          "voiceActing": [
            "Amedia"
          ],
          "ads": false,
          "subtitle": []
        },
        {
          "episode": 8,
          "name": "The One Where Kurt Saves Diane",
          "iframe_url": "",
          "iframe_poster": null,
          "release_ru": "2019-05-03",
          "release_world": "2019-05-02",
          "availability": "2019-05-04",
          "voiceActing": [
            "Amedia"
          ],
          "ads": false,
          "subtitle": []
        },
        {
          "episode": 9,
          "name": "The One Where the Sun Comes Out",
          "iframe_url": "",
          "iframe_poster": null,
          "release_ru": "2019-05-10",
          "release_world": "2019-05-09",
          "availability": "2019-05-11",
          "voiceActing": [
            "Amedia"
          ],
          "ads": false,
          "subtitle": []
        },
        {
          "episode": 10,
          "name": "The One About the End of the World",
          "iframe_url": "",
          "iframe_poster": null,
          "release_ru": "2019-05-17",
          "release_world": "2019-05-16",
          "availability": "2019-05-18",
          "voiceActing": [
            "Amedia"
          ],
          "ads": false,
          "subtitle": []
        }
      ]
    },
    {
      "poster": null,
      "release_ru": "2020-04-10",
      "release_world": "2020-04-09",
      "availability": "2020-04-11",
      "iframe_url": "",
      "season": 4,
      "episodes": [
        {
          "episode": 1,
          "name": "The Gang Deals with Alternate Reality",
          "iframe_url": "",
          "iframe_poster": null,
          "release_ru": "2020-04-10",
          "release_world": "2020-04-09",
          "availability": "2020-04-11",
          "voiceActing": [
            "Amedia",
            "Eng.Original"
          ],
          "ads": false,
          "subtitle": [
            "Рус. полные"
          ]
        },
        {
          "episode": 2,
          "name": "TBA",
          "iframe_url": "",
          "iframe_poster": null,
          "release_ru": "2020-04-17",
          "release_world": "2020-04-16",
          "availability": "2020-04-17",
          "voiceActing": [
            "Amedia",
            "Eng.Original"
          ],
          "ads": false,
          "subtitle": [
            "Рус. полные"
          ]
        },
        {
          "episode": 3,
          "name": "TBA",
          "iframe_url": "",
          "iframe_poster": null,
          "release_ru": "2020-05-01",
          "release_world": "2020-04-30",
          "availability": "2020-05-01",
          "voiceActing": [
            "Amedia",
            "Eng.Original"
          ],
          "ads": false,
          "subtitle": [
            "Рус. полные"
          ]
        },
        {
          "episode": 4,
          "name": "The Gang is Satirized and Doesn't Like It",
          "iframe_url": "",
          "iframe_poster": null,
          "release_ru": "2020-05-08",
          "release_world": "2020-05-07",
          "availability": "2020-05-08",
          "voiceActing": [
            "Amedia",
            "Eng.Original"
          ],
          "ads": false,
          "subtitle": [
            "Рус. форсированные"
          ]
        },
        {
          "episode": 5,
          "name": "The Gang Goes to War",
          "iframe_url": "",
          "iframe_poster": null,
          "release_ru": "2020-05-15",
          "release_world": "2020-05-14",
          "availability": "2020-05-16",
          "voiceActing": [
            "Amedia",
            "Eng.Original"
          ],
          "ads": false,
          "subtitle": [
            "Рус. полные"
          ]
        },
        {
          "episode": 6,
          "name": "The Gang Offends Everyone",
          "iframe_url": "",
          "iframe_poster": null,
          "release_ru": "2020-05-22",
          "release_world": "2020-05-21",
          "availability": "2020-05-23",
          "voiceActing": [
            "Amedia",
            "Eng.Original"
          ],
          "ads": false,
          "subtitle": [
            "Рус. форсированные"
          ]
        },
        {
          "episode": 7,
          "name": "TBA",
          "iframe_url": "",
          "iframe_poster": null,
          "release_ru": "2020-05-29",
          "release_world": "2020-05-28",
          "availability": "2020-05-30",
          "voiceActing": [
            "Amedia",
            "Eng.Original"
          ],
          "ads": false,
          "subtitle": [
            "Рус. форсированные"
          ]
        }
      ]
    },
    {
      "poster": null,
      "release_ru": "2021-06-25",
      "release_world": "2021-06-24",
      "availability": "2021-06-26",
      "iframe_url": "",
      "season": 5,
      "episodes": [
        {
          "episode": 1,
          "name": "Previously on...",
          "iframe_url": "",
          "iframe_poster": null,
          "release_ru": "2021-06-25",
          "release_world": "2021-06-24",
          "availability": "2021-06-26",
          "voiceActing": [
            "Cold Film"
          ],
          "ads": true,
          "subtitle": []
        },
        {
          "episode": 2,
          "name": "Once there was a court...",
          "iframe_url": "",
          "iframe_poster": null,
          "release_ru": "2021-07-02",
          "release_world": "2021-07-01",
          "availability": "2021-07-03",
          "voiceActing": [
            "TVShows",
            "Eng.Original"
          ],
          "ads": false,
          "subtitle": [
            "Рус. полные"
          ]
        },
        {
          "episode": 3,
          "name": "And the court had a clerk…",
          "iframe_url": "",
          "iframe_poster": null,
          "release_ru": "2021-07-09",
          "release_world": "2021-07-08",
          "availability": "2021-07-10",
          "voiceActing": [
            "TVShows",
            "Eng.Original"
          ],
          "ads": false,
          "subtitle": [
            "Рус. полные"
          ]
        },
        {
          "episode": 4,
          "name": "And the clerk had a firm…",
          "iframe_url": "",
          "iframe_poster": null,
          "release_ru": "2021-07-16",
          "release_world": "2021-07-15",
          "availability": "2021-07-17",
          "voiceActing": [
            "TVShows",
            "Eng.Original"
          ],
          "ads": false,
          "subtitle": [
            "Рус. полные"
          ]
        },
        {
          "episode": 5,
          "name": "TBA",
          "iframe_url": "",
          "iframe_poster": null,
          "release_ru": "2021-07-23",
          "release_world": "2021-07-22",
          "availability": "2021-07-24",
          "voiceActing": [
            "TVShows",
            "Eng.Original"
          ],
          "ads": false,
          "subtitle": [
            "Рус. полные"
          ]
        },
        {
          "episode": 6,
          "name": "And the two partners had a fight…",
          "iframe_url": "",
          "iframe_poster": null,
          "release_ru": "2021-07-30",
          "release_world": "2021-07-29",
          "availability": "2021-07-31",
          "voiceActing": [
            "TVShows"
          ],
          "ads": false,
          "subtitle": []
        },
        {
          "episode": 7,
          "name": "And the fight had a detente...",
          "iframe_url": "",
          "iframe_poster": null,
          "release_ru": "2021-08-06",
          "release_world": "2021-08-05",
          "availability": "2021-08-07",
          "voiceActing": [
            "TVShows"
          ],
          "ads": false,
          "subtitle": []
        },
        {
          "episode": 8,
          "name": "And the Detente Had an End...",
          "iframe_url": "",
          "iframe_poster": null,
          "release_ru": "2021-08-13",
          "release_world": "2021-08-12",
          "availability": "2021-08-14",
          "voiceActing": [
            "TVShows"
          ],
          "ads": false,
          "subtitle": []
        },
        {
          "episode": 9,
          "name": "And the End Was Violent...",
          "iframe_url": "",
          "iframe_poster": null,
          "release_ru": "2021-08-20",
          "release_world": "2021-08-19",
          "availability": "2021-08-21",
          "voiceActing": [
            "TVShows"
          ],
          "ads": false,
          "subtitle": []
        },
        {
          "episode": 10,
          "name": "And the violence spread.",
          "iframe_url": "",
          "iframe_poster": null,
          "release_ru": "2021-08-27",
          "release_world": "2021-08-26",
          "availability": "2021-08-28",
          "voiceActing": [
            "TVShows"
          ],
          "ads": false,
          "subtitle": []
        }
      ]
    }
  ],
  "voiceActing": [
    "Amedia",
    "Eng.Original",
    "SDI Media",
    "Cold Film",
    "TVShows"
  ],
  "subtitle": [
    "Рус. полные",
    "Рус. форсированные"
  ],
  "parts": []
}
