{
  "id": 41442,
  "name": "Ten: Murder Island",
  "name_eng": "",
  "year": 2017,
  "slogan": "—",
  "age": null,
  "type": "film",
  "quality": "SD",
  "imdb": "4.5",
  "imdb_id": "6415838",
  "kinopoisk": null,
  "kinopoisk_id": "1036265",
  "world_art": null,
  "world_art_id": null,
  "time": "82 мин. / 01:22",
  "ads": false,
  "premier": "2017-09-16",
  "premier_rus": "2017-09-17",
  "availability": "2017-09-18",
  "activate_time": "2020-11-10 01:15:00",
  "budget": null,
  "fees_use": null,
  "fees_world": null,
  "fees_rus": null,
  "rate_mpaa": null,
  "description": "Группа подростков отправляется на заброшенный остров, чтобы устроить там вечеринку. Вскоре они понимают, что на них открыл охоту опасный хищник.",
  "iframe_url": "",
  "iframe_poster": null,
  "poster": "https://img.imgilall.me/movies/franchise/4/1/4/4/2/0/0/0/0/0/610x900_41442.jpg",
  "country": {
    "1": "США"
  },
  "collection": [],
  "genre": {
    "26": "Ужасы",
    "24": "Детектив",
    "13": "Триллер"
  },
  "director": [
    "Крис Роберт"
  ],
  "screenwriter": [
    "Крис Роберт",
    "Гретчен МаНил"
  ],
  "producer": [
    "Расселл Гейзер",
    "Джордан Йейл Ливайн",
    "Клей Пекорин"
  ],
  "operator": [
    "Ричард Клэбауг"
  ],
  "composer": [
    "Сейри Торджуссен"
  ],
  "design": [
    "Эрик Уитни",
    "Кэйли Оукс-Биссон",
    "Sally Del Castillo"
  ],
  "editor": [
    "Крэйг Кобб"
  ],
  "actors": [
    "Дилан Арнольд",
    "Meg Cashel",
    "Ракель Кастро",
    "Роум Флинн",
    "Кэссиди Гиффорд",
    "Катя Мартин",
    "Каллэн МакОлифф",
    "Чайна Энн Макклейн",
    "Мэтт Меркьюрио",
    "Энни Цянь"
  ],
  "actors_dubl": [],
  "trivia": [],
  "trailers": [],
  "seasons": [],
  "voiceActing": [
    "Рус. Люб. многоголосый"
  ],
  "subtitle": [],
  "parts": []
}
