{
  "id": 50321,
  "name": "Интервью с Путиным",
  "name_eng": "The Putin Interviews",
  "year": 2017,
  "slogan": "—",
  "age": null,
  "type": "series",
  "quality": "FHD (1080p)",
  "imdb": "7.5",
  "imdb_id": "6840134",
  "kinopoisk": "6.8",
  "kinopoisk_id": "1045121",
  "world_art": null,
  "world_art_id": null,
  "time": "56 мин. серия (221 мин. всего)",
  "ads": false,
  "premier": "2017-06-12",
  "premier_rus": null,
  "availability": null,
  "serial_status": "offline",
  "activate_time": "2021-09-05 23:36:00",
  "budget": null,
  "fees_use": null,
  "fees_world": null,
  "fees_rus": null,
  "rate_mpaa": null,
  "description": "На протяжении двух лет Владимир Путин и режиссёр ленты встречались в Кремле, в Сочи, в официальной резиденции президента под Москвой. Фильм предлагает зрителю портрет российского лидера во всей его сложности и полноте. В фильме использована хроника ключевых событий, о которых шла речь в интервью.",
  "iframe_url": "",
  "poster": "https://img.imgilall.me/movies/franchise/5/0/3/2/1/0/0/0/0/0/610x900_50321.jpg",
  "country": {
    "1": "США"
  },
  "collection": [],
  "genre": {
    "54": "Документальный",
    "27": "Биографический"
  },
  "director": [
    "Оливер Стоун"
  ],
  "screenwriter": [
    "Оливер Стоун"
  ],
  "producer": [
    "Korkut Akir",
    "Оливер Стоун",
    "Макс Арвелайз"
  ],
  "operator": [
    "Энтони Дод Мэнтл",
    "Родриго Прието"
  ],
  "composer": [
    "Джефф Бил"
  ],
  "design": [],
  "editor": [
    "Алекс Маркес"
  ],
  "actors": [
    "Оливер Стоун",
    "Сергей Чудинов",
    "Василий Христофоров",
    "Фернандо Суличин",
    "Аарон Браун",
    "Дэн Ратер",
    "Збигнев Бжезинский",
    "Хиллари Клинтон",
    "Joseph Dunford",
    "Михаил Саакашвили"
  ],
  "actors_dubl": [],
  "trivia": [],
  "trailers": [],
  "seasons": [
    {
      "poster": null,
      "release_ru": null,
      "release_world": null,
      "availability": null,
      "iframe_url": "",
      "season": 1,
      "episodes": [
        {
          "episode": 1,
          "name": null,
          "iframe_url": "",
          "iframe_poster": null,
          "release_ru": null,
          "release_world": null,
          "availability": null,
          "voiceActing": [
            "Первый Канал"
          ],
          "ads": false,
          "subtitle": []
        },
        {
          "episode": 2,
          "name": null,
          "iframe_url": "",
          "iframe_poster": null,
          "release_ru": null,
          "release_world": null,
          "availability": null,
          "voiceActing": [
            "Первый Канал"
          ],
          "ads": false,
          "subtitle": []
        },
        {
          "episode": 3,
          "name": null,
          "iframe_url": "",
          "iframe_poster": null,
          "release_ru": null,
          "release_world": null,
          "availability": null,
          "voiceActing": [
            "Первый Канал"
          ],
          "ads": false,
          "subtitle": []
        },
        {
          "episode": 4,
          "name": null,
          "iframe_url": "",
          "iframe_poster": null,
          "release_ru": null,
          "release_world": null,
          "availability": null,
          "voiceActing": [
            "Первый Канал"
          ],
          "ads": false,
          "subtitle": []
        }
      ]
    }
  ],
  "voiceActing": [
    "Первый Канал"
  ],
  "subtitle": [],
  "parts": []
}
