{
  "id": 33859,
  "name": "Рождество в Хоумстед",
  "name_eng": "Christmas in Homestead",
  "year": 2016,
  "slogan": "—",
  "age": null,
  "type": "film",
  "quality": "HD (720p)",
  "imdb": "6.6",
  "imdb_id": "0",
  "kinopoisk": null,
  "kinopoisk_id": "1008950",
  "world_art": null,
  "world_art_id": null,
  "time": "84 мин. / 01:24",
  "ads": false,
  "premier": "2016-11-24",
  "premier_rus": "2016-11-25",
  "availability": "2016-11-26",
  "activate_time": "2020-07-15 13:47:00",
  "budget": null,
  "fees_use": null,
  "fees_world": null,
  "fees_rus": null,
  "rate_mpaa": null,
  "description": "Кинозвезда Джессика МакЭлис продюсирует свой первый фильм и решает снимать его в маленьком городке под названием Хоумстед. Фильм нужно успеть снять до рождественского вечера. Однако мэр города не хочет, чтобы Голливуд приезжал и отнимал городские традиции и мешал отмечать Рождество. Джессика пытается найти выход из сложившейся ситуации, но появляются новые проблемы.",
  "iframe_url": "",
  "iframe_poster": null,
  "poster": "https://img.imgilall.me/movies/franchise/3/3/8/5/9/0/0/0/0/0/610x900_33859.jpg",
  "country": {
    "1": "США"
  },
  "collection": [],
  "genre": {
    "8": "Мелодрама"
  },
  "director": [
    "Стивен Р. Монро"
  ],
  "screenwriter": [
    "Рик Гарман"
  ],
  "producer": [
    "Грифф Ферст",
    "Сайделл Альберт",
    "Стефен Ферст"
  ],
  "operator": [],
  "composer": [
    "Лоуренс Шрагге"
  ],
  "design": [
    "Брендан Таррилл",
    "Джейми Бон",
    "Courtney Marbry"
  ],
  "editor": [
    "Нил Мандельберг"
  ],
  "actors": [
    "Тейлор Коул",
    "Майкл Рэди",
    "Бруклин Рэй Сильзер",
    "Джефф Брэнсон",
    "Брэндхайз Стэнли",
    "Катрина Норма",
    "Сильвия Джеффрис",
    "Майкл Нарделли",
    "Аарон Куик Нельсон",
    "Дэвид де Фриз"
  ],
  "actors_dubl": [],
  "trivia": [],
  "trailers": [],
  "seasons": [],
  "voiceActing": [
    "Рус. Люб. многоголосый"
  ],
  "subtitle": [],
  "parts": []
}
