{
  "id": 14821,
  "name": "Все боги небесные",
  "name_eng": "Tous les dieux du ciel",
  "year": 2018,
  "slogan": "—",
  "age": null,
  "type": "film",
  "quality": "HD (720p)",
  "imdb": "6.0",
  "imdb_id": "7543784",
  "kinopoisk": null,
  "kinopoisk_id": "1089026",
  "world_art": null,
  "world_art_id": null,
  "time": "110 мин. / 01:50",
  "ads": true,
  "premier": "2018-09-23",
  "premier_rus": null,
  "availability": "2018-09-24",
  "activate_time": "2020-01-28 11:48:00",
  "budget": "",
  "fees_use": "",
  "fees_world": "",
  "fees_rus": "",
  "rate_mpaa": "",
  "description": "Тридцатилетний Симон работает на фабрике и живёт на ветхой ферме в отдалённой французской деревне. Всё своё время он посвящает заботе о сестре, которая в результате несчастного случая, на всю жизнь осталась прикована к постели. Страдая от тяжёлой депрессии и чувства вины, Симон пытается найти помощи у потусторонних сил, чтобы избавить и себя и сестру от страданий.\r\n",
  "iframe_url": "",
  "iframe_poster": null,
  "poster": "https://img.imgilall.me/movies/franchise/1/4/8/2/1/0/0/0/0/0/610x900_14821.jpg",
  "country": {
    "9": "Франция"
  },
  "collection": {
    "29": "Психологические",
    "27": "Про жизнь"
  },
  "genre": {
    "26": "Ужасы",
    "11": "Фантастика",
    "10": "Зарубежный",
    "7": "Драма"
  },
  "director": [
    "Quarxx"
  ],
  "screenwriter": [
    "Quarxx"
  ],
  "producer": [
    "Венсан Брансон",
    "Франсуа Коньяр",
    "Жиль Даус"
  ],
  "operator": [
    "Антуан Карпентье"
  ],
  "composer": [],
  "design": [
    "Julia Mourot",
    "Thibault Pinto"
  ],
  "editor": [
    "Rémi Orth",
    "Quarxx"
  ],
  "actors": [
    "Жан-Люк Кушар",
    "Мелани Гейдос",
    "Зели Риксон",
    "Тьерри Фремон",
    "Альбер Дельпи",
    "Лоик Удре",
    "Ксавье Муссель",
    "Adeline Walter",
    "Себастьян Баррио",
    "Стефани Кулон"
  ],
  "actors_dubl": [],
  "trivia": [],
  "trailers": [],
  "seasons": [],
  "voiceActing": [
    "Рус. Люб. многоголосый"
  ],
  "subtitle": [],
  "parts": []
}
