{
  "id": 37178,
  "name": "Затопленное небо",
  "name_eng": "Overwhelm the Sky",
  "year": 2018,
  "slogan": "—",
  "age": null,
  "type": "film",
  "quality": "HD (720p)",
  "imdb": "8.1",
  "imdb_id": "6587272",
  "kinopoisk": null,
  "kinopoisk_id": "1040473",
  "world_art": null,
  "world_art_id": null,
  "time": "170 мин. / 02:50",
  "ads": true,
  "premier": "2019-02-08",
  "premier_rus": null,
  "availability": null,
  "activate_time": "2020-09-21 11:48:00",
  "budget": "$40 000",
  "fees_use": "",
  "fees_world": "",
  "fees_rus": "",
  "rate_mpaa": "",
  "description": "Эдгар \"Эдди\" Хантли переезжает в Сан-Франциско, чтобы жениться на сестре своего лучшего друга, Нила. Однако незадолго до этого Нила находят мертвым в парке. Эдди с одержимой регулярностью приходит на место его убийства. Один из таких визитов развязывает цепь непредсказуемых событий.",
  "iframe_url": "",
  "iframe_poster": null,
  "poster": "https://img.imgilall.me/movies/franchise/3/7/1/7/8/0/0/0/0/0/610x900_37178.jpg",
  "country": {
    "1": "США"
  },
  "collection": [],
  "genre": {
    "7": "Драма"
  },
  "director": [
    "Дэниэл Кремер"
  ],
  "screenwriter": [
    "Александр Хиро",
    "Аарон Холландер",
    "Дэниэл Кремер"
  ],
  "producer": [
    "Дэниэл Кремер",
    "Джоэль Рот",
    "David Usner"
  ],
  "operator": [
    "Аарон Холландер"
  ],
  "composer": [
    "Costas Dafnis"
  ],
  "design": [],
  "editor": [
    "Чарльз Теккерей"
  ],
  "actors": [
    "Александр Хиро",
    "Рауль Делароса",
    "Уильям Калли Аллен",
    "Catherine Lerza",
    "Нима Слоун",
    "Tiziana Perinotti",
    "Пенни Вернер",
    "Randall Zielinski",
    "Дайан Барнс",
    "Daniel da Silva"
  ],
  "actors_dubl": [],
  "trivia": [],
  "trailers": [],
  "seasons": [],
  "voiceActing": [
    "Рус. Люб. многоголосый"
  ],
  "subtitle": [],
  "parts": []
}
