{
  "id": 28230,
  "name": "Второе лето, я тебя опять не увижу",
  "name_eng": "Nidome no natsu, nidoto aenai kimi",
  "year": 2017,
  "slogan": "—",
  "age": null,
  "type": "film",
  "quality": "HD (720p)",
  "imdb": "5.4",
  "imdb_id": "5959970",
  "kinopoisk": null,
  "kinopoisk_id": "1000640",
  "world_art": null,
  "world_art_id": null,
  "time": "107 мин. / 01:47",
  "ads": false,
  "premier": "2017-09-01",
  "premier_rus": "2017-09-02",
  "availability": "2017-09-03",
  "activate_time": "2020-07-09 14:04:00",
  "budget": null,
  "fees_use": null,
  "fees_world": null,
  "fees_rus": null,
  "rate_mpaa": null,
  "description": "Старшеклассник Сатоси вместе с новой ученицей Рин готовится к школьному культурному фестивалю. В их школе существует запрет на образование групп, однако Сатоси и Рин пренебрегают этим правилом. Вместе они выступают на фестивале, после чего с Рин происходит несчастный случай. Раздавленный случившимся Сатоси отправляется в прошлое — в день, когда впервые встретил Рин, — чтобы попытаться всё исправить.",
  "iframe_url": "",
  "iframe_poster": null,
  "poster": "https://img.imgilall.me/movies/franchise/2/8/2/3/0/0/0/0/0/0/610x900_28230.jpg",
  "country": {
    "18": "Япония"
  },
  "collection": [],
  "genre": {
    "8": "Мелодрама"
  },
  "director": [
    "Кэндзи Наканиси"
  ],
  "screenwriter": [
    "Хиротака Акаги"
  ],
  "producer": [],
  "operator": [],
  "composer": [],
  "design": [],
  "editor": [],
  "actors": [
    "Нидзиро Мураками",
    "Мадока Ёсида",
    "Манами Хондзё",
    "Рэна Като",
    "Акико Кикути",
    "Мана Киндзё",
    "Юки Ямада"
  ],
  "actors_dubl": [],
  "trivia": [],
  "trailers": [],
  "seasons": [],
  "voiceActing": [
    "Рус. Люб. многоголосый"
  ],
  "subtitle": [],
  "parts": []
}
