{
  "id": 18571,
  "name": "Её звали Криста",
  "name_eng": "Her Name Was Christa",
  "year": 2020,
  "slogan": "«Love Conquers All.....Sometimes Even Death»",
  "age": null,
  "type": "film",
  "quality": "HD (720p)",
  "imdb": "4.5",
  "imdb_id": "7453138",
  "kinopoisk": null,
  "kinopoisk_id": "1064034",
  "world_art": null,
  "world_art_id": null,
  "time": "119 мин. / 01:59",
  "ads": true,
  "premier": "2020-02-14",
  "premier_rus": "2020-02-15",
  "availability": "2020-02-16",
  "activate_time": "2020-05-11 17:19:00",
  "budget": "",
  "fees_use": "",
  "fees_world": "",
  "fees_rus": "",
  "rate_mpaa": "",
  "description": "Застенчивый менеджер по продажам средних лет Стивен решает послушать совет своего коллеги и нанять девушку по вызову в качестве своей подружки, чтобы вспомнить, как общаться с женщинами. Заключив соглашение с секс-работницей, деловые отношения медленно перетекают в романтические, но тут неожиданно вмешивается смерть. На что готов пойти человек, чтобы сохранить свою любовь?",
  "iframe_url": "",
  "iframe_poster": null,
  "poster": "https://img.imgilall.me/movies/franchise/1/8/5/7/1/0/0/0/0/0/610x900_18571.jpg",
  "country": {
    "1": "США"
  },
  "collection": {
    "38": "Про любовь",
    "14": "Для взрослых"
  },
  "genre": {
    "26": "Ужасы",
    "13": "Триллер",
    "10": "Зарубежный",
    "8": "Мелодрама"
  },
  "director": [
    "Джеймс Л. Эдвардс"
  ],
  "screenwriter": [
    "Джеймс Л. Эдвардс"
  ],
  "producer": [
    "Shari Rose",
    "Xavier Bronkowitz",
    "Jason Kasper"
  ],
  "operator": [
    "Gordon Cameron"
  ],
  "composer": [
    "Matthew Sturgeon"
  ],
  "design": [
    "Дэвид Ланж"
  ],
  "editor": [
    "Jason Kasper"
  ],
  "actors": [
    "Shianne Daye",
    "Джеймс Л. Эдвардс",
    "Дрю Фортье",
    "Rick Jermain",
    "Кайли Уильямс",
    "Arn Argenio",
    "Christopher Benjamin",
    "Topher Benjamin",
    "Stephanie Bible",
    "Nick Boy"
  ],
  "actors_dubl": [],
  "trivia": [],
  "trailers": [],
  "seasons": [],
  "voiceActing": [
    "Рус. Люб. многоголосый"
  ],
  "subtitle": [],
  "parts": []
}
