{
  "id": 41613,
  "name": "Пари",
  "name_eng": "The Bet",
  "year": 2006,
  "slogan": "«What would you risk?»",
  "age": null,
  "type": "film",
  "quality": "SD",
  "imdb": "5.6",
  "imdb_id": "0452003",
  "kinopoisk": null,
  "kinopoisk_id": "106196",
  "world_art": null,
  "world_art_id": null,
  "time": "92 мин. / 01:32",
  "ads": false,
  "premier": "2006-03-04",
  "premier_rus": "2006-03-05",
  "availability": "2006-03-06",
  "activate_time": "2020-11-10 18:35:00",
  "budget": "A$ 3 000 000",
  "fees_use": null,
  "fees_world": null,
  "fees_rus": null,
  "rate_mpaa": null,
  "description": "Молодой биржевой маклер из Сиднея Уилл заключает пари со своим богатеньким другом Ангусом. Тот из них, кто за два месяца заработает больше денег, получит от проигравшего 100 000 долларов. Уилл не остановится ни перед чем, чтобы выиграть пари, и не задумывается о том, что, победив, может потерять все...",
  "iframe_url": "",
  "iframe_poster": null,
  "poster": "https://img.imgilall.me/movies/franchise/4/1/6/1/3/0/0/0/0/0/610x900_41613.jpg",
  "country": {
    "4": "Австралия"
  },
  "collection": [],
  "genre": {
    "25": "Криминал",
    "13": "Триллер",
    "7": "Драма"
  },
  "director": [
    "Марк Ли"
  ],
  "screenwriter": [
    "Кэролайн Герард"
  ],
  "producer": [
    "Кэролайн Герард",
    "Сандра Александр",
    "Триша МакГрат"
  ],
  "operator": [
    "Хью Миллер"
  ],
  "composer": [
    "Джон Грэй"
  ],
  "design": [
    "Сэм Уайлд",
    "Сэм Хоббс",
    "Лара Бломфилд"
  ],
  "editor": [
    "Джейсон Бэллэнтайн"
  ],
  "actors": [
    "Мэттью Ньютон",
    "Аден Янг",
    "Сибилла Бадд",
    "Тим Ричардс",
    "Рой Биллинг",
    "Рик Коснетт",
    "Энтони Харкин",
    "Алисса МакКлелланд",
    "Пета Сержант",
    "Пол Глисон"
  ],
  "actors_dubl": [],
  "trivia": [],
  "trailers": [],
  "seasons": [],
  "voiceActing": [
    "Diva Universal"
  ],
  "subtitle": [],
  "parts": []
}
