{
  "id": 22641,
  "name": "Баллистика: Экс против Сивер",
  "name_eng": "Ballistic: Ecks vs. Sever",
  "year": 2002,
  "slogan": "«Antonio Banderas is Agent Ecks. This September, he's going ballistic»",
  "age": "18+",
  "type": "film",
  "quality": "HD (720p)",
  "imdb": "3.7",
  "imdb_id": "0308208",
  "kinopoisk": "4.8",
  "kinopoisk_id": "1048",
  "world_art": null,
  "world_art_id": null,
  "time": "91 мин. / 01:31",
  "ads": false,
  "premier": "2002-09-18",
  "premier_rus": "2003-02-13",
  "availability": "2003-02-14",
  "activate_time": "2020-06-23 12:25:00",
  "budget": "$70 000 000",
  "fees_use": "$14 307 963",
  "fees_world": "+ $5 616 070 = $19 924 033",
  "fees_rus": null,
  "rate_mpaa": "R",
  "description": "Два лучших секретных агента в мире. Одна общая месть. Агент Экс - лучший оперативник, который когда-либо работал на ФБР. Китайский агент Сивер, бывшая сотрудница РУМО, - самая смертоносная женщина планеты. В войне спецслужб мира они - противники, ведущие друг с другом отчаянную игру в кошки-мышки, где ни один не может взять верх. Казалось, их противостояние могло бы длиться вечно, но однажды происходит неожиданное: герои вынуждены выступить вместе против общего, мощного, страшного врага, завладевшего новейшим оружием, ярая ненависть к которому затмевает их собственное соперничество.",
  "iframe_url": "",
  "iframe_poster": null,
  "poster": "https://img.imgilall.me/movies/franchise/2/2/6/4/1/0/0/0/0/0/610x900_22641.jpg",
  "country": {
    "1": "США",
    "20": "Германия"
  },
  "collection": {
    "12": "Для мужчин"
  },
  "genre": {
    "25": "Криминал",
    "11": "Фантастика",
    "17": "Боевик",
    "13": "Триллер"
  },
  "director": [
    "Вич Каосаянанда"
  ],
  "screenwriter": [
    "Алан Б. МакЭлрой"
  ],
  "producer": [
    "Крис Ли",
    "Эли Самаха",
    "Тарак Бен Аммар"
  ],
  "operator": [
    "Хулио Макат"
  ],
  "composer": [
    "Дон Дэвис"
  ],
  "design": [
    "Дуглас Хиггинс",
    "Лоуренс Ф. Певек",
    "Магали Гвидаси"
  ],
  "editor": [
    "Джей Кэссиди",
    "Кэролайн Росс"
  ],
  "actors": [
    "Антонио Бандерас",
    "Люси Лью",
    "Грегг Генри",
    "Рэй Парк",
    "Талиса Сото",
    "Мигель Сандовал",
    "Терри Чен",
    "Роджер Кросс",
    "Сандрин Холт",
    "Стив Бачич"
  ],
  "actors_dubl": [
    "Валерий Соловьев",
    "Анатолий Петров",
    "Сергей Дьячков",
    "Елена Шульман",
    "Вадим Гущин"
  ],
  "trivia": [],
  "trailers": [],
  "seasons": [],
  "voiceActing": [
    "Cartoon Network"
  ],
  "subtitle": [],
  "parts": []
}
