{
  "id": 36122,
  "name": "Канделария",
  "name_eng": "Candelaria",
  "year": 2017,
  "slogan": "«Love is a dance to the rhythm of your hearth»",
  "age": null,
  "type": "film",
  "quality": "HD (720p)",
  "imdb": "7.2",
  "imdb_id": "7264116",
  "kinopoisk": null,
  "kinopoisk_id": "1085208",
  "world_art": null,
  "world_art_id": null,
  "time": "87 мин. / 01:27",
  "ads": true,
  "premier": "2017-09-09",
  "premier_rus": "2017-09-10",
  "availability": "2017-09-11",
  "activate_time": "2020-08-14 10:32:00",
  "budget": null,
  "fees_use": null,
  "fees_world": null,
  "fees_rus": null,
  "rate_mpaa": null,
  "description": "1990-е годы. На Кубе царит голод, зато полно рома и сигар. В этих безрадостных обстоятельствах незаметно проходит жизнь пожилой пары — Канделарии и Виктора Гюго. Их любовь давно превратилась в привычку. Но однажды в руки Канделарии попадает чужая видеокамера, и эта находка чудесным образом преображает их судьбу.",
  "iframe_url": "",
  "iframe_poster": null,
  "poster": "https://img.imgilall.me/movies/franchise/3/6/1/2/2/0/0/0/0/0/610x900_36122.jpg",
  "country": {
    "22": "Аргентина",
    "20": "Германия",
    "53": "Норвегия",
    "63": "Колумбия",
    "74": "Куба"
  },
  "collection": [],
  "genre": {
    "7": "Драма"
  },
  "director": [
    "Джонни Хендрикс"
  ],
  "screenwriter": [
    "Maria Camila Arias",
    "Джонни Хендрикс",
    "Abel Arcos Soto"
  ],
  "producer": [
    "Клаудия Кальвиньо",
    "Federico Eibuszyc",
    "Джонни Хендрикс"
  ],
  "operator": [
    "Соледад Родригез"
  ],
  "composer": [],
  "design": [
    "Лисандра Рамос"
  ],
  "editor": [
    "Джонни Хендрикс",
    "Mauricio Leiva-Cock",
    "Anita Remon"
  ],
  "actors": [
    "Мануэль Виверос",
    "Alden Knigth",
    "Вероника Линн",
    "Филипп Хохмайр"
  ],
  "actors_dubl": [],
  "trivia": [],
  "trailers": [],
  "seasons": [],
  "voiceActing": [
    "Рус. Люб. многоголосый"
  ],
  "subtitle": [],
  "parts": []
}
