{
  "id": 12052,
  "name": "Джирга",
  "name_eng": "Jirga",
  "year": 2018,
  "slogan": "—",
  "age": null,
  "type": "film",
  "quality": "HD (720p)",
  "imdb": "6.1",
  "imdb_id": "7083846",
  "kinopoisk": null,
  "kinopoisk_id": "1085871",
  "world_art": null,
  "world_art_id": null,
  "time": "78 мин. / 01:18",
  "ads": true,
  "premier": "2018-06-08",
  "premier_rus": null,
  "availability": null,
  "activate_time": "2019-11-07 11:34:00",
  "budget": "",
  "fees_use": "",
  "fees_world": "",
  "fees_rus": "",
  "rate_mpaa": "",
  "description": "После выхода в отставку бывший австралийский военный, Майк Уилер, возвращается в Афганистан, и отправляется на территорию талибов, чтобы искать прощения у семьи пуштуна, случайно убитого им во время спецоперации.\r\n",
  "iframe_url": "",
  "iframe_poster": null,
  "poster": "https://img.imgilall.me/movies/franchise/1/2/0/5/2/0/0/0/0/0/610x900_12052.jpg",
  "country": {
    "4": "Австралия"
  },
  "collection": [],
  "genre": {
    "32": "Военный",
    "10": "Зарубежный",
    "7": "Драма"
  },
  "director": [
    "Бенжамин Гилмор"
  ],
  "screenwriter": [
    "Бенжамин Гилмор"
  ],
  "producer": [
    "Джон Мэйнард",
    "Gull Hussian Baizada",
    "Бенжамин Гилмор"
  ],
  "operator": [
    "Бенжамин Гилмор"
  ],
  "composer": [
    "AJ True"
  ],
  "design": [],
  "editor": [
    "Никки Стивенс"
  ],
  "actors": [
    "Сэм Смит",
    "Mohammad Mosam",
    "Kefayat Lag Humani",
    "Naqibullah Khan Shinwari",
    "Sharif Ullah",
    "Muhammad Shah Majroh",
    "Sher Alam Miskeen Ustad",
    "Самад Кхан",
    "Amir Shah Talash",
    "Janaat Gul Mastana"
  ],
  "actors_dubl": [],
  "trivia": [],
  "trailers": [],
  "seasons": [],
  "voiceActing": [
    "Рус. Люб. многоголосый"
  ],
  "subtitle": [],
  "parts": []
}
