{
  "id": 31865,
  "name": "Гук",
  "name_eng": "Gook",
  "year": 2017,
  "slogan": "«A heartfelt film exploring families and relationships between Korean and African American communities set during the LA Riots»",
  "age": null,
  "type": "film",
  "quality": "HD (720p)",
  "imdb": "7.0",
  "imdb_id": "0",
  "kinopoisk": null,
  "kinopoisk_id": "1003562",
  "world_art": null,
  "world_art_id": null,
  "time": "94 мин. / 01:34",
  "ads": false,
  "premier": "2017-01-21",
  "premier_rus": "2017-01-22",
  "availability": "2017-01-23",
  "activate_time": "2020-07-14 11:01:00",
  "budget": null,
  "fees_use": "$250 130",
  "fees_world": null,
  "fees_rus": null,
  "rate_mpaa": null,
  "description": "Штат Калифорния, 1992 год. Экономический кризис, расовые конфликты. Два брата корейского происхождения, Элай и Дэниел, владеют женским обувным магазином и дружат с афроамериканской девочкой Камиллой, которой запрещают ходить в обувной. У Камиллы нет друзей в школе, а есть только Элай и Дэниел, к которым она ходит почти каждый день втайне от семьи. Но однажды брат Камиллы узнаёт об этом и решает расправится с корейцами своими методами.",
  "iframe_url": "",
  "iframe_poster": null,
  "poster": "https://img.imgilall.me/movies/franchise/3/1/8/6/5/0/0/0/0/0/610x900_31865.jpg",
  "country": {
    "1": "США"
  },
  "collection": [],
  "genre": {
    "7": "Драма"
  },
  "director": [
    "Джастин Чон"
  ],
  "screenwriter": [
    "Джастин Чон"
  ],
  "producer": [
    "Алекс Чи",
    "Кирстин Бьянчи",
    "Морис Чэнь"
  ],
  "operator": [
    "Анте Чэн"
  ],
  "composer": [
    "Роджер Суэн"
  ],
  "design": [
    "Шэрон Роджо",
    "Jena Serbu",
    "Юнис Джера Ли"
  ],
  "editor": [
    "Рейнольдс Барни",
    "Рут Тан"
  ],
  "actors": [
    "Симон Бэйкер",
    "Джастин Чон",
    "Кёртис Кук мл.",
    "Дэвид Со",
    "Kirlew «bliss» Vilbon",
    "Крис Джай Алекс",
    "Доменик Батисте",
    "Ignacio Bautista",
    "Teaira T. Bryant",
    "Sang Chon"
  ],
  "actors_dubl": [],
  "trivia": [
    "Словом «гук» американцы называют корейцев или азиатов вообще. Это слово является уничижительным."
  ],
  "trailers": [],
  "seasons": [],
  "voiceActing": [
    "Рус. Люб. многоголосый"
  ],
  "subtitle": [],
  "parts": []
}
