{
  "id": 15879,
  "name": "Проспект обороны",
  "name_eng": "",
  "year": 2020,
  "slogan": "—",
  "age": null,
  "type": "series",
  "quality": "FHD (1080p)",
  "imdb": null,
  "imdb_id": null,
  "kinopoisk": "6.2",
  "kinopoisk_id": "1042518",
  "world_art": null,
  "world_art_id": null,
  "time": "—",
  "ads": false,
  "premier": null,
  "premier_rus": "2020-03-18",
  "availability": "2020-03-19",
  "serial_status": "offline",
  "activate_time": "2020-03-17 11:24:00",
  "budget": null,
  "fees_use": null,
  "fees_world": null,
  "fees_rus": null,
  "rate_mpaa": null,
  "description": "Денис Астахов на глазах у отца Александра, жены Наташи и брата Валентина ввязывается в драку накануне важного боя за звание чемпиона Санкт-Петербурга. Федерация решает отменить бой. Урегулировать ситуацию может только взятка спортивному чиновнику и вмешательство Сергеича, спонсора боксёра Олега Волка. У Александра, делавшего ставку на спортивную карьеру сына, и с другими взрослыми детьми проблемы: дочь Лиза вопреки запрету отца и брата встречается с бандитом по кличке Бандерас, а сын Валентин болезненно переживает развод и своё положение отца-одиночки. Чтобы собрать необходимую сумму, отец отправляет сына участвовать в коммерческих боях. Астахов-старший не знает, что сыну там отведена лишь роль статиста. Но Денис привык побеждать, а не проигрывать по заказу в третьем раунде. Но главное испытание Дениса ждёт впереди: он узнаёт, что его отец и любимая жена – любовники.",
  "iframe_url": "",
  "poster": "https://img.imgilall.me/movies/franchise/1/5/8/7/9/0/0/0/0/0/610x900_15879.jpg",
  "country": {
    "5": "Россия"
  },
  "collection": {
    "76": "Про спорт"
  },
  "genre": {
    "23": "Спортивный",
    "22": "Русский",
    "8": "Мелодрама",
    "7": "Драма"
  },
  "director": [
    "Сергей Быстрицкий",
    "Сергей Винокуров"
  ],
  "screenwriter": [
    "Антон Жданов",
    "Богдан Богданов",
    "Максим Есаулов"
  ],
  "producer": [
    "Юрий Сапронов",
    "Наталья Лазарева",
    "Авдей Кирьянов"
  ],
  "operator": [
    "Роман Бойко"
  ],
  "composer": [
    "Всеволод Саксонов",
    "Василий Тетерин"
  ],
  "design": [
    "Леонид Карпов"
  ],
  "editor": [],
  "actors": [
    "Макар Запорожский",
    "Роман Курцын",
    "Олег Фомин",
    "Виктория Романенко",
    "Кирилл Варакса",
    "Елена Руфанова",
    "Кирилл Полухин",
    "Яков Шамшин",
    "Сергей Кошонин",
    "Наталья Высочанская"
  ],
  "actors_dubl": [],
  "trivia": [
    "Съёмки картины проходили в исторической части Санкт-Петербурга. Некоторые сцены боксёрских поединков были сняты в Доме композиторов, где был установлен специальный ринг."
  ],
  "trailers": [
    {
      "name": "трейлер №1",
      "number": 1,
      "iframe_poster": null,
      "season": 1,
      "iframe_url": ""
    }
  ],
  "seasons": [
    {
      "poster": null,
      "release_ru": null,
      "release_world": null,
      "availability": null,
      "iframe_url": "",
      "season": 1,
      "episodes": [
        {
          "episode": 1,
          "name": null,
          "iframe_url": "",
          "iframe_poster": null,
          "release_ru": null,
          "release_world": null,
          "availability": null,
          "voiceActing": [
            "Рус. Оригинальный"
          ],
          "ads": false,
          "subtitle": []
        },
        {
          "episode": 2,
          "name": null,
          "iframe_url": "",
          "iframe_poster": null,
          "release_ru": null,
          "release_world": null,
          "availability": null,
          "voiceActing": [
            "Рус. Оригинальный"
          ],
          "ads": false,
          "subtitle": []
        },
        {
          "episode": 3,
          "name": null,
          "iframe_url": "",
          "iframe_poster": null,
          "release_ru": null,
          "release_world": null,
          "availability": null,
          "voiceActing": [
            "Рус. Оригинальный"
          ],
          "ads": false,
          "subtitle": []
        },
        {
          "episode": 4,
          "name": null,
          "iframe_url": "",
          "iframe_poster": null,
          "release_ru": null,
          "release_world": null,
          "availability": null,
          "voiceActing": [
            "Рус. Оригинальный"
          ],
          "ads": false,
          "subtitle": []
        },
        {
          "episode": 5,
          "name": null,
          "iframe_url": "",
          "iframe_poster": null,
          "release_ru": null,
          "release_world": null,
          "availability": null,
          "voiceActing": [
            "Рус. Оригинальный"
          ],
          "ads": false,
          "subtitle": []
        },
        {
          "episode": 6,
          "name": null,
          "iframe_url": "",
          "iframe_poster": null,
          "release_ru": null,
          "release_world": null,
          "availability": null,
          "voiceActing": [
            "Рус. Оригинальный"
          ],
          "ads": false,
          "subtitle": []
        },
        {
          "episode": 7,
          "name": null,
          "iframe_url": "",
          "iframe_poster": null,
          "release_ru": null,
          "release_world": null,
          "availability": null,
          "voiceActing": [
            "Рус. Оригинальный"
          ],
          "ads": false,
          "subtitle": []
        },
        {
          "episode": 8,
          "name": null,
          "iframe_url": "",
          "iframe_poster": null,
          "release_ru": null,
          "release_world": null,
          "availability": null,
          "voiceActing": [
            "Рус. Оригинальный"
          ],
          "ads": false,
          "subtitle": []
        },
        {
          "episode": 9,
          "name": null,
          "iframe_url": "",
          "iframe_poster": null,
          "release_ru": null,
          "release_world": null,
          "availability": null,
          "voiceActing": [
            "Рус. Оригинальный"
          ],
          "ads": false,
          "subtitle": []
        },
        {
          "episode": 10,
          "name": null,
          "iframe_url": "",
          "iframe_poster": null,
          "release_ru": null,
          "release_world": null,
          "availability": null,
          "voiceActing": [
            "Рус. Оригинальный"
          ],
          "ads": false,
          "subtitle": []
        },
        {
          "episode": 11,
          "name": null,
          "iframe_url": "",
          "iframe_poster": null,
          "release_ru": null,
          "release_world": null,
          "availability": null,
          "voiceActing": [
            "Рус. Оригинальный"
          ],
          "ads": false,
          "subtitle": []
        },
        {
          "episode": 12,
          "name": null,
          "iframe_url": "",
          "iframe_poster": null,
          "release_ru": null,
          "release_world": null,
          "availability": null,
          "voiceActing": [
            "Рус. Оригинальный"
          ],
          "ads": false,
          "subtitle": []
        },
        {
          "episode": 13,
          "name": null,
          "iframe_url": "",
          "iframe_poster": null,
          "release_ru": null,
          "release_world": null,
          "availability": null,
          "voiceActing": [
            "Рус. Оригинальный"
          ],
          "ads": false,
          "subtitle": []
        },
        {
          "episode": 14,
          "name": null,
          "iframe_url": "",
          "iframe_poster": null,
          "release_ru": null,
          "release_world": null,
          "availability": null,
          "voiceActing": [
            "Рус. Оригинальный"
          ],
          "ads": false,
          "subtitle": []
        },
        {
          "episode": 15,
          "name": null,
          "iframe_url": "",
          "iframe_poster": null,
          "release_ru": null,
          "release_world": null,
          "availability": null,
          "voiceActing": [
            "Рус. Оригинальный"
          ],
          "ads": false,
          "subtitle": []
        },
        {
          "episode": 16,
          "name": null,
          "iframe_url": "",
          "iframe_poster": null,
          "release_ru": null,
          "release_world": null,
          "availability": null,
          "voiceActing": [
            "Рус. Оригинальный"
          ],
          "ads": false,
          "subtitle": []
        }
      ]
    }
  ],
  "voiceActing": [
    "Рус. Оригинальный"
  ],
  "subtitle": [],
  "parts": []
}
