{
  "id": 34457,
  "name": "Король Карл III",
  "name_eng": "King Charles III",
  "year": 2017,
  "slogan": "—",
  "age": null,
  "type": "film",
  "quality": "HD (720p)",
  "imdb": "6.4",
  "imdb_id": "6253522",
  "kinopoisk": null,
  "kinopoisk_id": "1017704",
  "world_art": null,
  "world_art_id": null,
  "time": "88 мин. / 01:28",
  "ads": false,
  "premier": "2017-05-10",
  "premier_rus": "2017-05-11",
  "availability": "2017-05-12",
  "activate_time": "2020-07-17 02:57:00",
  "budget": null,
  "fees_use": null,
  "fees_world": null,
  "fees_rus": null,
  "rate_mpaa": null,
  "description": "После смерти Елизаветы II британский престол переходит к Карлу III. В первые же дни своего правления он вступает в конфликт с Премьер-министром и Парламентом из-за закона, регулирующего свободу слова в прессе.",
  "iframe_url": "",
  "iframe_poster": null,
  "poster": "https://img.imgilall.me/movies/franchise/3/4/4/5/7/0/0/0/0/0/610x900_34457.jpg",
  "country": {
    "2": "Великобритания"
  },
  "collection": [],
  "genre": {
    "11": "Фантастика",
    "7": "Драма"
  },
  "director": [
    "Руперт Гулд"
  ],
  "screenwriter": [
    "Майк Бартлетт"
  ],
  "producer": [
    "Саймон Малони",
    "Майк Бартлетт",
    "Роанна Бенн"
  ],
  "operator": [
    "Филипп Кресс"
  ],
  "composer": [
    "Жослин Пук"
  ],
  "design": [
    "Эндрю МакАлпайн",
    "Лиз Симпсон",
    "Луиз Стьернсворд"
  ],
  "editor": [
    "Элен Пирс Льюис"
  ],
  "actors": [
    "Тим Пиготт-Смит",
    "Оливер Крис",
    "Ричард Гулдинг",
    "Шарлотта Райли",
    "Марго Лейкестер",
    "Тамара Лоуренс",
    "Адам Джеймс",
    "Приянга Бёрфорд",
    "Тим Макмуллан",
    "Кэти Брэйбен"
  ],
  "actors_dubl": [],
  "trivia": [],
  "trailers": [],
  "seasons": [],
  "voiceActing": [
    "Рус. Люб. многоголосый"
  ],
  "subtitle": [],
  "parts": []
}
