{
  "id": 27961,
  "name": "120 ударов в минуту",
  "name_eng": "120 battements par minute",
  "year": 2017,
  "slogan": "«Paris, early 1990s»",
  "age": null,
  "type": "film",
  "quality": "HD (720p)",
  "imdb": "7.4",
  "imdb_id": "6135348",
  "kinopoisk": "6.6",
  "kinopoisk_id": "1032278",
  "world_art": null,
  "world_art_id": null,
  "time": "143 мин. / 02:23",
  "ads": false,
  "premier": "2017-05-20",
  "premier_rus": "2017-05-21",
  "availability": "2017-05-22",
  "activate_time": "2020-06-27 09:44:00",
  "budget": null,
  "fees_use": "$125 189",
  "fees_world": "+ $7 579 180 = $7 704 369",
  "fees_rus": null,
  "rate_mpaa": null,
  "description": "Действие разворачивается в начале 90-х, о СПИДе известно уже более десяти лет. Активисты Парижа всё чаще проводят акции против общего безразличия к проблеме. Натан примыкает к группе, которая занимается распространением информации о болезни. Его потрясает радикальный настрой одного из лидеров сообщества - Шона, который вкладывает в эту борьбу все свои силы и злость.",
  "iframe_url": "",
  "iframe_poster": null,
  "poster": "https://img.imgilall.me/movies/franchise/2/7/9/6/1/0/0/0/0/0/610x900_27961.jpg",
  "country": {
    "9": "Франция"
  },
  "collection": [],
  "genre": {
    "7": "Драма"
  },
  "director": [
    "Робен Кампийо"
  ],
  "screenwriter": [
    "Робен Кампийо",
    "Philippe Mangeot"
  ],
  "producer": [
    "Хью Шарбонно",
    "Мари-Анж Люсьяни",
    "Жак Одиар"
  ],
  "operator": [
    "Жанна Лапуари"
  ],
  "composer": [
    "Арно Реботини"
  ],
  "design": [
    "Сандра Кастелло",
    "Эммануэль Дюпле",
    "Изабель Паннетье"
  ],
  "editor": [
    "Робен Кампийо",
    "Sophie Hériat",
    "Стефани Леджер"
  ],
  "actors": [
    "Науэль Перес Бискаярт",
    "Арно Валуа",
    "Адель Энель",
    "Антуан Райнарц",
    "Феликс Марито",
    "Ariel Borenstein",
    "Алоиз Саваж",
    "Simon Bourgade",
    "Médhi Touré",
    "Симо Гела"
  ],
  "actors_dubl": [],
  "trivia": [],
  "trailers": [],
  "seasons": [],
  "voiceActing": [
    "Diva Universal"
  ],
  "subtitle": [],
  "parts": []
}
