{
  "id": 37280,
  "name": "Мама или папа?",
  "name_eng": "Mamma o papà?",
  "year": 2017,
  "slogan": "—",
  "age": null,
  "type": "film",
  "quality": "HD (720p)",
  "imdb": "5.5",
  "imdb_id": "6340296",
  "kinopoisk": null,
  "kinopoisk_id": "1009383",
  "world_art": null,
  "world_art_id": null,
  "time": "98 мин. / 01:38",
  "ads": true,
  "premier": "2017-02-14",
  "premier_rus": "2017-02-15",
  "availability": "2017-02-16",
  "activate_time": "2020-10-01 14:54:00",
  "budget": null,
  "fees_use": null,
  "fees_world": null,
  "fees_rus": null,
  "rate_mpaa": null,
  "description": "Супруги разводятся, в то же время они оба получают очень выгодные предложения по работе в других странах. И всё было бы отлично, если бы не трое детей, с которыми должен остаться  один из родителей...",
  "iframe_url": "",
  "iframe_poster": null,
  "poster": "https://img.imgilall.me/movies/franchise/3/7/2/8/0/0/0/0/0/0/610x900_37280.jpg",
  "country": {
    "8": "Италия"
  },
  "collection": [],
  "genre": {
    "19": "Комедия"
  },
  "director": [
    "Риккардо Милани"
  ],
  "screenwriter": [
    "Джулия Календа",
    "Паола Кортеллези",
    "Риккардо Милани"
  ],
  "producer": [
    "Фаусто Брицци",
    "Лоренцо Гангаросса",
    "Марио Джанани"
  ],
  "operator": [
    "Саверио Гуарна"
  ],
  "composer": [
    "Андреа Гуэрра"
  ],
  "design": [
    "Маурицио Леонарди",
    "Alberto Duelli",
    "Альберто Моретти"
  ],
  "editor": [
    "Патриция Черезани"
  ],
  "actors": [
    "Антонио Альбанезе",
    "Паола Кортеллези",
    "Luca Marino",
    "Marianna Cogo",
    "Alvise Marascalchi",
    "Анна Бонаюто",
    "Карло Буччироссо",
    "Клаудио Джоэ",
    "Матильда Джоли",
    "Стефания Рокка"
  ],
  "actors_dubl": [],
  "trivia": [],
  "trailers": [],
  "seasons": [],
  "voiceActing": [
    "Рус. Люб. многоголосый"
  ],
  "subtitle": [],
  "parts": []
}
