{
  "id": 18261,
  "name": "Мороз по коже",
  "name_eng": "",
  "year": 2016,
  "slogan": "—",
  "age": "12+",
  "type": "film",
  "quality": "SD",
  "imdb": null,
  "imdb_id": null,
  "kinopoisk": null,
  "kinopoisk_id": "1007521",
  "world_art": null,
  "world_art_id": null,
  "time": "—",
  "ads": false,
  "premier": null,
  "premier_rus": "2016-11-12",
  "availability": "2016-11-13",
  "activate_time": "2020-05-08 21:10:00",
  "budget": null,
  "fees_use": null,
  "fees_world": null,
  "fees_rus": null,
  "rate_mpaa": null,
  "description": "Валентина живет в небольшом поселке, работает на почте. Молодая женщина не относится к своей работе формально, она всегда готова помочь тем, кто в этом нуждается. Односельчане любят и уважают Валю, и в то же время сочувствуют ей…Вале не повезло, ее бывший муж – горький пьяница, и Валя теперь одна ведет хозяйство и растит сына. Сама Валя не унывает, ей вдвоем с сыном хорошо, а больше ей никто не нужен.Но вот однажды Валя обнаруживает у себя в сарае незнакомого мужчину. Незнакомец ранен, он умоляет Валю никому не говорить, что он здесь. Перед Валей встает трудный выбор…",
  "iframe_url": "",
  "iframe_poster": null,
  "poster": "https://img.imgilall.me/movies/franchise/1/8/2/6/1/0/0/0/0/0/610x900_18261.jpg",
  "country": {
    "5": "Россия"
  },
  "collection": [],
  "genre": [],
  "director": [
    "Андрей Хрулев"
  ],
  "screenwriter": [
    "Кира Худолей"
  ],
  "producer": [
    "Александр Кушаев",
    "Владимир Игнатьев"
  ],
  "operator": [
    "Алексей Колузов"
  ],
  "composer": [],
  "design": [],
  "editor": [],
  "actors": [
    "Наталия Солдатова",
    "Александр Кудренко",
    "Даниил Черник",
    "Александр Зеленко",
    "Зоя Фромичева-Корсакова",
    "Павел Яскевич",
    "Андрей Олефиренко",
    "Василий Козлов",
    "Людмила Баталова",
    "Олег Вебер"
  ],
  "actors_dubl": [],
  "trivia": [],
  "trailers": [],
  "seasons": [],
  "voiceActing": [
    "Рус. Оригинальный"
  ],
  "subtitle": [],
  "parts": []
}
