{
  "id": 25420,
  "name": "Уроки вождения",
  "name_eng": "Driving Lessons",
  "year": 2006,
  "slogan": "«All Ben wanted was a job. All Evie needed was a friend»",
  "age": "16+",
  "type": "film",
  "quality": "SD",
  "imdb": "6.7",
  "imdb_id": "0446687",
  "kinopoisk": "7.1",
  "kinopoisk_id": "102206",
  "world_art": null,
  "world_art_id": null,
  "time": "98 мин. / 01:38",
  "ads": true,
  "premier": "2006-02-21",
  "premier_rus": "2006-07-13",
  "availability": "2006-07-14",
  "activate_time": "2020-06-25 17:15:00",
  "budget": null,
  "fees_use": "$239 962",
  "fees_world": "+ $970 431 = $1 210 393",
  "fees_rus": "$26 200",
  "rate_mpaa": "PG-13",
  "description": "Летние каникулы Бена заняты изучением Библии, работой по дому и уроками вождения, которые он получает от своей властной и крайне религиозной матери. Это явно не может быть пределом мечтаний в семнадцать лет, но у него просто нет выбора.Однако его расписанная по минутам жизнь начинает стремительно меняться, когда он устраивается подрабатывать у Эви, экс- первой дамы британского театра и кино. Вульгарная, с чувством собственного достоинства и полная ребячества одновременно, Эви большую часть времени проводит в саду.Постепенно Бен втягивается в ее общество, несмотря на то, что это влечет за собой ссоры с матерью. В один прекрасный день Эви приглашает Бэна в путешествие на Эдинбургский фестиваль, где она планирует выступать. Бен, преодолев свой врожденный консерватизм, садится за руль.Далее - путешествие, напоминающее дорогу с двусторонним движением, по которой следуют Бен и Эви, и каждый помогает друг другу двигаться вперед по жизненному пути, который у них так различен.",
  "iframe_url": "",
  "iframe_poster": null,
  "poster": "https://img.imgilall.me/movies/franchise/2/5/4/2/0/0/0/0/0/0/610x900_25420.jpg",
  "country": {
    "2": "Великобритания"
  },
  "collection": {
    "36": "Романтические комедии"
  },
  "genre": {
    "19": "Комедия",
    "7": "Драма"
  },
  "director": [
    "Джереми Брок"
  ],
  "screenwriter": [
    "Джереми Брок"
  ],
  "producer": [
    "Джулия Чэсмэн",
    "Алессандро Камон",
    "Александрия Фергюсон"
  ],
  "operator": [
    "Дэвид Кацнелсон"
  ],
  "composer": [
    "Клив Кэрролл",
    "Джон Ренборн"
  ],
  "design": [
    "Аманда МакАртур",
    "Джон Рейд",
    "Робин Фрейзер-Пайе"
  ],
  "editor": [
    "Тревор Вейт"
  ],
  "actors": [
    "Руперт Гринт",
    "Джули Уолтерс",
    "Лора Линни",
    "Николас Фэррел",
    "Мишель Дункан",
    "Оливер Милберн",
    "Тэмзин Эджертон",
    "Фэй Коэн",
    "Руби Мортлок",
    "Дон Уэзерхед"
  ],
  "actors_dubl": [],
  "trivia": [
    "Фильм основан на личном опыте режиссера и сценариста Джереми Брока, когда он будучи подростком работал на Пегги Ашкрофт.",
    "Во время съемок фильма Руперт Гринт был несовершеннолетним и не мог водить машину, поэтому часть сцен были сняты на частных дорогах."
  ],
  "trailers": [],
  "seasons": [],
  "voiceActing": [
    "Рус. Дублированный"
  ],
  "subtitle": [],
  "parts": []
}
