{
  "id": 50062,
  "name": "Радужные поля",
  "name_eng": "Rainbow Fields",
  "year": 2021,
  "slogan": "—",
  "age": null,
  "type": "film",
  "quality": "SD",
  "imdb": null,
  "imdb_id": "6130284",
  "kinopoisk": null,
  "kinopoisk_id": "1054884",
  "world_art": null,
  "world_art_id": null,
  "time": "90 мин. / 01:30",
  "ads": true,
  "premier": null,
  "premier_rus": null,
  "availability": null,
  "activate_time": "2021-08-28 17:56:00",
  "budget": null,
  "fees_use": null,
  "fees_world": null,
  "fees_rus": null,
  "rate_mpaa": null,
  "description": null,
  "iframe_url": "",
  "iframe_poster": null,
  "poster": "https://img.imgilall.me/movies/franchise/5/0/0/6/2/0/0/0/0/0/610x900_50062.jpg",
  "country": {
    "26": "Индия"
  },
  "collection": [],
  "genre": {
    "7": "Драма"
  },
  "director": [
    "Bidyut Kotoky"
  ],
  "screenwriter": [
    "Bidyut Kotoky"
  ],
  "producer": [
    "K.R. Harish",
    "Трилок Малхотра",
    "Нитеш Батра"
  ],
  "operator": [
    "Satya Prakash Rath"
  ],
  "composer": [
    "Anurag Saikia"
  ],
  "design": [
    "Phatik Barua"
  ],
  "editor": [
    "Pallavi Kotoky"
  ],
  "actors": [
    "Виктор Банерджи",
    "Дипаннита Шарма",
    "Накул Ваид",
    "Навед Аслам",
    "Ниппон Госвами",
    "Nikumoni Baruah",
    "Панчи Бора",
    "Maharnav Mahanta",
    "Rishiraj Baruah",
    "Gia Baruah"
  ],
  "actors_dubl": [],
  "trivia": [],
  "trailers": [],
  "seasons": [],
  "voiceActing": [
    "Синема УС"
  ],
  "subtitle": [],
  "parts": []
}
