{
  "id": 23772,
  "name": "Простите за опоздание",
  "name_eng": "An Hour Behind",
  "year": 2017,
  "slogan": "—",
  "age": null,
  "type": "film",
  "quality": "HD (720p)",
  "imdb": "6.5",
  "imdb_id": "6133806",
  "kinopoisk": null,
  "kinopoisk_id": "1018549",
  "world_art": null,
  "world_art_id": null,
  "time": "90 мин. / 01:30",
  "ads": false,
  "premier": "2017-09-20",
  "premier_rus": "2017-09-21",
  "availability": "2017-09-22",
  "activate_time": "2020-10-14 18:45:00",
  "budget": null,
  "fees_use": null,
  "fees_world": null,
  "fees_rus": null,
  "rate_mpaa": null,
  "description": "В жизни Триш все прекрасно: она владеет кондитерской, у нее есть заботливая сестра, подруги, только вот в личной жизни что-то не ладится. Однажды девушка забывает перевести время и опаздывает на встречу с потенциальным ухажером. Но кто бы мог подумать, что это опоздание станет судьбоносным и именно в этот момент Триш найдет свое счастье.",
  "iframe_url": "",
  "iframe_poster": null,
  "poster": "https://img.imgilall.me/movies/franchise/2/3/7/7/2/0/0/0/0/0/610x900_23772.jpg",
  "country": {
    "1": "США"
  },
  "collection": {
    "38": "Про любовь"
  },
  "genre": {
    "8": "Мелодрама",
    "7": "Драма"
  },
  "director": [
    "Брайан Бру"
  ],
  "screenwriter": [
    "Бриттани Бру Уискомб"
  ],
  "producer": [
    "Брайан Бру",
    "Энтони Страга",
    "Бриттани Бру Уискомб"
  ],
  "operator": [
    "Джон Лойд"
  ],
  "composer": [
    "Джеймс Шафер"
  ],
  "design": [
    "Энтони Страга",
    "Соня Нельсон",
    "Monet Devilliers"
  ],
  "editor": [],
  "actors": [
    "Эмили Роуз",
    "Бэрри Уотсон",
    "Кэйси Эллиотт",
    "Скотт Кристофер",
    "Рен Барнс",
    "Майкл Биркеланд",
    "Brooklyn Brough",
    "Алесандра Дарэм",
    "К. Данор Джералд",
    "Камерон Харфорд"
  ],
  "actors_dubl": [],
  "trivia": [],
  "trailers": [],
  "seasons": [],
  "voiceActing": [
    "Diva Universal"
  ],
  "subtitle": [],
  "parts": []
}
