{
  "id": 7019,
  "name": "Карло и Малик",
  "name_eng": "Carlo & Malik",
  "year": 2018,
  "slogan": "—",
  "age": "16+",
  "type": "series",
  "quality": "HD (720p)",
  "imdb": "6.6",
  "imdb_id": "7197558",
  "kinopoisk": null,
  "kinopoisk_id": "1079095",
  "world_art": null,
  "world_art_id": null,
  "time": "60 мин",
  "ads": true,
  "premier": "2018-11-19",
  "premier_rus": "2018-11-20",
  "availability": "2018-11-21",
  "serial_status": "online",
  "activate_time": "2019-03-23 11:50:20",
  "budget": "",
  "fees_use": "",
  "fees_world": "",
  "fees_rus": "",
  "rate_mpaa": "",
  "description": "В центре сюжета - римский инспектор Карло Геррриери, ветеран полиции. Вместе с новым стажером Маликом, парни расследуют убийства на почве продажи наркотиков. Накал эмоций приходит на дело, на месте преступления которого Карло находит знакомое лицо. Удастся ли полиции понять, кто виновен?",
  "iframe_url": "",
  "poster": "https://img.imgilall.me/movies/franchise/7/0/1/9/0/0/0/0/0/0/610x900_7019.jpg",
  "country": {
    "8": "Италия"
  },
  "collection": [],
  "genre": {
    "10": "Зарубежный",
    "7": "Драма"
  },
  "director": [
    "Марко Понтекорво"
  ],
  "screenwriter": [
    "Giampaolo Simi",
    "Витторино Теста"
  ],
  "producer": [
    "Марко Кименц",
    "Джованни Стабилини",
    "Риккардо Тоцци"
  ],
  "operator": [
    "Винченцо Карпинета",
    "Роберто Медди"
  ],
  "composer": [
    "Франческо Де Люка",
    "Алессандро Форти"
  ],
  "design": [
    "Даниэла Чианчио"
  ],
  "editor": [
    "Марко Гаравалья"
  ],
  "actors": [
    "Клаудио Амендола",
    "Мигель Гоббо Диас",
    "Фортунато Серлино",
    "Роза Дилетта Росси",
    "Алессандро Спердути",
    "Маргерита Викарио",
    "Сандра Чеккарелли",
    "Алессия Барела",
    "Антония Лискова",
    "Анджела Финоккьяро"
  ],
  "actors_dubl": [],
  "trivia": [],
  "trailers": [],
  "seasons": [
    {
      "poster": "https://img.imgilall.me/movies/season/4/8/2/3/0/0/0/0/0/0/610x900_4823.jpg",
      "release_ru": "2018-11-20",
      "release_world": "2018-11-19",
      "availability": "2018-11-21",
      "iframe_url": "",
      "season": 1,
      "episodes": [
        {
          "episode": 1,
          "name": null,
          "iframe_url": "",
          "iframe_poster": "https://img.imgilall.me/movies/video/7/4/9/5/4/0/0/0/0/0/800x450_74954.jpeg",
          "release_ru": "2018-11-20",
          "release_world": "2018-11-19",
          "availability": "2018-11-21",
          "voiceActing": [
            "KosharaSerials"
          ],
          "ads": true,
          "subtitle": []
        },
        {
          "episode": 2,
          "name": null,
          "iframe_url": "",
          "iframe_poster": "https://img.imgilall.me/movies/video/7/4/9/5/6/0/0/0/0/0/800x450_74956.jpeg",
          "release_ru": "2018-11-20",
          "release_world": "2018-11-19",
          "availability": "2018-11-21",
          "voiceActing": [
            "KosharaSerials"
          ],
          "ads": true,
          "subtitle": []
        },
        {
          "episode": 3,
          "name": null,
          "iframe_url": "",
          "iframe_poster": "https://img.imgilall.me/movies/video/7/4/9/5/8/0/0/0/0/0/800x450_74958.jpeg",
          "release_ru": "2018-11-27",
          "release_world": "2018-11-26",
          "availability": "2018-11-28",
          "voiceActing": [
            "KosharaSerials"
          ],
          "ads": true,
          "subtitle": []
        },
        {
          "episode": 4,
          "name": null,
          "iframe_url": "",
          "iframe_poster": "https://img.imgilall.me/movies/video/7/4/9/6/2/0/0/0/0/0/800x450_74962.jpeg",
          "release_ru": "2018-11-27",
          "release_world": "2018-11-26",
          "availability": "2018-11-28",
          "voiceActing": [
            "KosharaSerials"
          ],
          "ads": true,
          "subtitle": []
        },
        {
          "episode": 5,
          "name": null,
          "iframe_url": "",
          "iframe_poster": "https://img.imgilall.me/movies/video/7/4/9/5/7/0/0/0/0/0/800x450_74957.jpeg",
          "release_ru": "2018-12-04",
          "release_world": "2018-12-03",
          "availability": "2018-12-05",
          "voiceActing": [
            "KosharaSerials"
          ],
          "ads": true,
          "subtitle": []
        },
        {
          "episode": 6,
          "name": null,
          "iframe_url": "",
          "iframe_poster": "https://img.imgilall.me/movies/video/7/4/9/6/0/0/0/0/0/0/800x450_74960.jpeg",
          "release_ru": "2018-12-04",
          "release_world": "2018-12-03",
          "availability": "2018-12-05",
          "voiceActing": [
            "KosharaSerials"
          ],
          "ads": true,
          "subtitle": []
        },
        {
          "episode": 7,
          "name": null,
          "iframe_url": "",
          "iframe_poster": "https://img.imgilall.me/movies/video/7/4/9/5/5/0/0/0/0/0/800x450_74955.jpeg",
          "release_ru": "2018-12-11",
          "release_world": "2018-12-10",
          "availability": "2018-12-12",
          "voiceActing": [
            "KosharaSerials"
          ],
          "ads": true,
          "subtitle": []
        },
        {
          "episode": 8,
          "name": null,
          "iframe_url": "",
          "iframe_poster": "https://img.imgilall.me/movies/video/7/4/9/6/3/0/0/0/0/0/800x450_74963.jpeg",
          "release_ru": "2018-12-11",
          "release_world": "2018-12-10",
          "availability": "2018-12-12",
          "voiceActing": [
            "KosharaSerials"
          ],
          "ads": true,
          "subtitle": []
        },
        {
          "episode": 9,
          "name": null,
          "iframe_url": "",
          "iframe_poster": "https://img.imgilall.me/movies/video/7/4/9/5/9/0/0/0/0/0/800x450_74959.jpeg",
          "release_ru": "2018-12-14",
          "release_world": "2018-12-13",
          "availability": "2018-12-15",
          "voiceActing": [
            "KosharaSerials"
          ],
          "ads": true,
          "subtitle": []
        },
        {
          "episode": 10,
          "name": null,
          "iframe_url": "",
          "iframe_poster": "https://img.imgilall.me/movies/video/7/4/9/6/1/0/0/0/0/0/800x450_74961.jpeg",
          "release_ru": "2018-12-14",
          "release_world": "2018-12-13",
          "availability": "2018-12-15",
          "voiceActing": [
            "KosharaSerials"
          ],
          "ads": true,
          "subtitle": []
        },
        {
          "episode": 11,
          "name": null,
          "iframe_url": "",
          "iframe_poster": "https://img.imgilall.me/movies/video/7/5/2/1/4/0/0/0/0/0/800x450_75214.jpeg",
          "release_ru": "2018-12-18",
          "release_world": "2018-12-17",
          "availability": "2018-12-19",
          "voiceActing": [
            "KosharaSerials"
          ],
          "ads": true,
          "subtitle": []
        },
        {
          "episode": 12,
          "name": null,
          "iframe_url": "",
          "iframe_poster": "https://img.imgilall.me/movies/video/7/5/2/1/5/0/0/0/0/0/800x450_75215.jpeg",
          "release_ru": "2018-12-18",
          "release_world": "2018-12-17",
          "availability": "2018-12-19",
          "voiceActing": [
            "KosharaSerials"
          ],
          "ads": true,
          "subtitle": []
        }
      ]
    }
  ],
  "voiceActing": [
    "KosharaSerials"
  ],
  "subtitle": [],
  "parts": []
}
