{
  "id": 37855,
  "name": "Крылья утра",
  "name_eng": "Wings of the Morning",
  "year": 1937,
  "slogan": "«RECKLESS YOUNG ROMANCE...A NEW STAR ALLURINGLY DIFFERENT...PULSE-TINGLING DERBY DAY THRILLS...SPECTACULAR ENTERTAINMENT GLORIFIED BY PERFECTED, NATURAL TECHNICOLOR!»",
  "age": null,
  "type": "film",
  "quality": "FHD (1080p)",
  "imdb": "5.8",
  "imdb_id": "0029785",
  "kinopoisk": null,
  "kinopoisk_id": "10004",
  "world_art": null,
  "world_art_id": null,
  "time": "87 мин. / 01:27",
  "ads": false,
  "premier": "1937-03-11",
  "premier_rus": "1937-03-12",
  "availability": "1937-03-13",
  "activate_time": "2020-10-12 12:13:00",
  "budget": null,
  "fees_use": null,
  "fees_world": null,
  "fees_rus": null,
  "rate_mpaa": null,
  "description": null,
  "iframe_url": "",
  "iframe_poster": null,
  "poster": "https://img.imgilall.me/movies/franchise/3/7/8/5/5/0/0/0/0/0/610x900_37855.jpg",
  "country": {
    "2": "Великобритания"
  },
  "collection": [],
  "genre": {
    "8": "Мелодрама",
    "7": "Драма"
  },
  "director": [
    "Харольд Д. Шустер",
    "Гленн Трайон"
  ],
  "screenwriter": [
    "Джон Миэн",
    "Томас Дж. Джерати",
    "Гилберт Уэйкфилд"
  ],
  "producer": [
    "Роберт Кэйн"
  ],
  "operator": [
    "Рей Реннахан"
  ],
  "composer": [
    "Артур Бенжамин"
  ],
  "design": [
    "Ральф В. Брайнтон",
    "Рене Хьюберт"
  ],
  "editor": [
    "Джеймс Б. Кларк"
  ],
  "actors": [
    "Аннабелла",
    "Генри Фонда",
    "Лесли Бэнкс",
    "Стюарт Роум",
    "Ирен Ванбург",
    "Гарри Тейт",
    "Хелен Хэй",
    "Эдвард Андердаун",
    "Марк Дейли",
    "Сэм Ливси"
  ],
  "actors_dubl": [],
  "trivia": [],
  "trailers": [],
  "seasons": [],
  "voiceActing": [
    "Важенин (BadBajo)"
  ],
  "subtitle": [],
  "parts": []
}
