{
  "id": 9675,
  "name": "На краю любви",
  "name_eng": "",
  "year": 2017,
  "slogan": "—",
  "age": "16+",
  "type": "series",
  "quality": "HD (720p)",
  "imdb": null,
  "imdb_id": null,
  "kinopoisk": null,
  "kinopoisk_id": "1048537",
  "world_art": null,
  "world_art_id": null,
  "time": "—",
  "ads": false,
  "premier": "2017-12-02",
  "premier_rus": "2019-06-21",
  "availability": null,
  "serial_status": "offline",
  "activate_time": "2019-07-04 10:28:15",
  "budget": null,
  "fees_use": null,
  "fees_world": null,
  "fees_rus": null,
  "rate_mpaa": null,
  "description": "Маша - абсолютно счастливая женщина. У неё есть любимый муж Вадим и чудесный сын Гриша. Но когда в городе появляется первая любовь Маши, Андрей, отношения в семье становятся натянутыми. Появление бывшего друга заставляет Вадима ревновать Машу к Андрею. Однажды Вадим как директор геодезической лаборатории отправляется со своими сотрудниками в экспедицию в карстовые пещеры…",
  "iframe_url": "",
  "poster": "https://img.imgilall.me/movies/franchise/9/6/7/5/0/0/0/0/0/0/610x900_9675.jpg",
  "country": {
    "5": "Россия"
  },
  "collection": [],
  "genre": {
    "22": "Русский",
    "8": "Мелодрама"
  },
  "director": [
    "Алексей Гусев"
  ],
  "screenwriter": [
    "Ольга Кулагина",
    "Валерий Любимов"
  ],
  "producer": [
    "Ирина Заря",
    "Ирина Чемерис"
  ],
  "operator": [],
  "composer": [
    "Владлен Пупков"
  ],
  "design": [],
  "editor": [],
  "actors": [
    "Ирина Таранник",
    "Александр Ратников",
    "Фатима Горбенко",
    "Артем Позняк",
    "Валерия Ходос",
    "Тарас Цимбалюк",
    "Лилия Нагорная",
    "Анна Абраменок",
    "Инга Нагорная"
  ],
  "actors_dubl": [],
  "trivia": [],
  "trailers": [],
  "seasons": [
    {
      "poster": "https://img.imgilall.me/movies/season/6/0/2/4/0/0/0/0/0/0/610x900_6024.jpg",
      "release_ru": "2017-12-03",
      "release_world": "2017-12-02",
      "availability": "2017-12-04",
      "iframe_url": "",
      "season": 1,
      "episodes": [
        {
          "episode": 1,
          "name": null,
          "iframe_url": "",
          "iframe_poster": "https://img.imgilall.me/movies/video/1/0/0/5/6/5/0/0/0/0/800x450_100565.jpeg",
          "release_ru": "2017-12-03",
          "release_world": "2017-12-02",
          "availability": "2017-12-04",
          "voiceActing": [
            "Рус. Оригинальный"
          ],
          "ads": false,
          "subtitle": []
        },
        {
          "episode": 2,
          "name": null,
          "iframe_url": "",
          "iframe_poster": "https://img.imgilall.me/movies/video/1/0/0/5/6/6/0/0/0/0/800x450_100566.jpeg",
          "release_ru": "2017-12-03",
          "release_world": "2017-12-02",
          "availability": "2017-12-04",
          "voiceActing": [
            "Рус. Оригинальный"
          ],
          "ads": false,
          "subtitle": []
        },
        {
          "episode": 3,
          "name": null,
          "iframe_url": "",
          "iframe_poster": "https://img.imgilall.me/movies/video/1/0/0/5/6/7/0/0/0/0/800x450_100567.jpeg",
          "release_ru": "2017-12-03",
          "release_world": "2017-12-02",
          "availability": "2017-12-04",
          "voiceActing": [
            "Рус. Оригинальный"
          ],
          "ads": false,
          "subtitle": []
        },
        {
          "episode": 4,
          "name": null,
          "iframe_url": "",
          "iframe_poster": "https://img.imgilall.me/movies/video/1/0/0/5/6/8/0/0/0/0/800x450_100568.jpeg",
          "release_ru": "2017-12-03",
          "release_world": "2017-12-02",
          "availability": "2017-12-04",
          "voiceActing": [
            "Рус. Оригинальный"
          ],
          "ads": false,
          "subtitle": []
        }
      ]
    }
  ],
  "voiceActing": [
    "Рус. Оригинальный"
  ],
  "subtitle": [],
  "parts": []
}
