{
  "id": 12049,
  "name": "Дверь в лесу",
  "name_eng": "Door in the Woods",
  "year": 2019,
  "slogan": "—",
  "age": "16+",
  "type": "film",
  "quality": "HD (720p)",
  "imdb": "3.8",
  "imdb_id": "6269942",
  "kinopoisk": "4.3",
  "kinopoisk_id": "1015319",
  "world_art": null,
  "world_art_id": null,
  "time": "89 мин. / 01:29",
  "ads": true,
  "premier": "2019-01-24",
  "premier_rus": null,
  "availability": null,
  "activate_time": "2019-11-06 10:21:00",
  "budget": "$175 000",
  "fees_use": "",
  "fees_world": "$18 861",
  "fees_rus": "",
  "rate_mpaa": "",
  "description": "Однажды, во время прогулки по лесу, семья из небольшого городка находит загадочную дверь и, не имея после переезда лишних средств для обустройства дома, принимает решение ею воспользоваться. С тех пор всё начинает идти наперекосяк. Так что же это – обычная дверь или врата во всепоглощающую тьму?..",
  "iframe_url": "",
  "iframe_poster": null,
  "poster": "https://img.imgilall.me/movies/franchise/1/2/0/4/9/0/0/0/0/0/610x900_12049.jpg",
  "country": {
    "1": "США"
  },
  "collection": [],
  "genre": {
    "13": "Триллер",
    "10": "Зарубежный"
  },
  "director": [
    "Билли Чейз Гофорт"
  ],
  "screenwriter": [
    "Билли Чейз Гофорт"
  ],
  "producer": [
    "Блейк Элдер",
    "Билли Чейз Гофорт",
    "Лорен Харпер"
  ],
  "operator": [
    "Блейк Элдер"
  ],
  "composer": [
    "Гарретт Боутц",
    "Амос Кохрэн"
  ],
  "design": [
    "Митчелл Крисп",
    "Джеймс Скотт Кук"
  ],
  "editor": [
    "Роберт Крисп"
  ],
  "actors": [
    "Дженнифер Пирс Матус",
    "Дэвид Риис Снелл",
    "С.Дж. Джонс",
    "Джон-Майл Фишер",
    "Кэтрин Форбс",
    "Кэсси Селф",
    "Элизабет Бэйт",
    "Леви Хадсон",
    "Картер Мур",
    "Марк Лэндон Смит"
  ],
  "actors_dubl": [],
  "trivia": [],
  "trailers": [],
  "seasons": [],
  "voiceActing": [
    "Рус. Люб. многоголосый"
  ],
  "subtitle": [],
  "parts": []
}
