{
  "id": 8571,
  "name": "Налог на любовь",
  "name_eng": "Taxing Love",
  "year": 2018,
  "slogan": "—",
  "age": "12+",
  "type": "film",
  "quality": "HD (720p)",
  "imdb": "5.7",
  "imdb_id": "7205938",
  "kinopoisk": null,
  "kinopoisk_id": "1052860",
  "world_art": null,
  "world_art_id": null,
  "time": "101 мин. / 01:41",
  "ads": true,
  "premier": "2018-01-26",
  "premier_rus": null,
  "availability": null,
  "activate_time": "2019-09-24 14:39:00",
  "budget": null,
  "fees_use": null,
  "fees_world": null,
  "fees_rus": null,
  "rate_mpaa": null,
  "description": "Строгий налоговый инспектор Клара преследует предполагаемого налогового обманщика - циничного, но очаровательного Мариана, у которого по неосторожности и доброте сердца возникли налоговые проблемы. Когда судьба «преследуемого», кажется, уже предрешена, неожиданно и вопреки всем правилам, Клара и Мариан влюбляются друг в друга.",
  "iframe_url": "",
  "iframe_poster": "https://img.imgilall.me/movies/video/9/1/2/6/6/0/0/0/0/0/800x450_91266.jpeg",
  "poster": "https://img.imgilall.me/movies/franchise/8/5/7/1/0/0/0/0/0/0/610x900_8571.jpg",
  "country": {
    "14": "Польша"
  },
  "collection": [],
  "genre": {
    "19": "Комедия",
    "10": "Зарубежный",
    "8": "Мелодрама"
  },
  "director": [
    "Bartlomiej Ignaciuk"
  ],
  "screenwriter": [
    "Piotr Bronowski",
    "Katarzyna Krzysztopik"
  ],
  "producer": [
    "Томаш Бляхницкий",
    "Анна Васневска-Гилл",
    "Marta Grela-Gorostiza"
  ],
  "operator": [
    "Яан Холоубек"
  ],
  "composer": [
    "Pawel Lucewicz"
  ],
  "design": [
    "Иоанна Маха",
    "Slawomir Blaszewski",
    "Марцелина Початек-Куниковская"
  ],
  "editor": [
    "Ярослав Барзан"
  ],
  "actors": [
    "Przemyslaw Bogdanowicz",
    "Sylwia Borowska",
    "Marta Bryla",
    "Михал Чернецкий",
    "Гжегож Даменцки",
    "Olaf Deriglasoff",
    "Александра Доманьска",
    "Бартломей Фирлет",
    "Рома Гонщёровска",
    "Эва Гаврилюк"
  ],
  "actors_dubl": [],
  "trivia": [],
  "trailers": [],
  "seasons": [],
  "voiceActing": [
    "Рус. Люб. многоголосый"
  ],
  "subtitle": [],
  "parts": []
}
