{
  "id": 8997,
  "name": "Альфа и Омега 8: Путешествие в медвежье королевство",
  "name_eng": "Alpha and Omega: Journey to Bear Kingdom",
  "year": 2017,
  "slogan": "—",
  "age": "0+",
  "type": "cartoon",
  "quality": "HD (720p)",
  "imdb": "3.8",
  "imdb_id": "6910772",
  "kinopoisk": null,
  "kinopoisk_id": "1045552",
  "world_art": null,
  "world_art_id": null,
  "time": "44 мин.",
  "ads": false,
  "premier": "2017-05-09",
  "premier_rus": null,
  "availability": null,
  "activate_time": "2019-05-23 13:03:38",
  "budget": null,
  "fees_use": null,
  "fees_world": null,
  "fees_rus": null,
  "rate_mpaa": null,
  "description": "В Восточную долину, где, уйдя из родных мест, поселились изгой-бездельник Хамфри и дисциплинированная дочь вожака Кейт со своим потомством, в гости прибыла Королева Медведица и ее красавица-дочурка. Во время их дружеского визита там разразилась Великая война, в которой злобные и агрессивные дикие волки атаковали мирную Западную стаю, а вместе с ними и медвежью армию. О возвращении коронованных путешественниц домой теперь и речи быть не может. Разве что отыщутся такие смельчаки, которые не побояться опасности и сопроводят двух милых дам до границ их владений. По счастливому стечению обстоятельств, Рант, Стинки и Клодетта узнают о том, что медведи нуждаются в охране и защите и вызываются оказать им посильную помощь. Сейчас только от этой неугомонной и бесстрашной серой троицы зависит насколько благополучно доберутся до своего жилища гостившие на востоке особы королевской крови.",
  "iframe_url": "",
  "iframe_poster": "https://img.imgilall.me/movies/video/9/3/4/7/7/0/0/0/0/0/800x450_93477.jpeg",
  "poster": "https://img.imgilall.me/movies/franchise/8/9/9/7/0/0/0/0/0/0/610x900_8997.jpg",
  "country": {
    "1": "США"
  },
  "collection": [],
  "genre": {
    "9": "Приключения",
    "37": "Детский",
    "33": "Семейный",
    "19": "Комедия",
    "10": "Зарубежный"
  },
  "director": [
    "Тим Молтби"
  ],
  "screenwriter": [],
  "producer": [
    "Кен Кацумото",
    "Эндрю Тайт",
    "Стив Розен"
  ],
  "operator": [],
  "composer": [],
  "design": [],
  "editor": [],
  "actors": [
    "Кейт Хиггинс",
    "Бен Дискин",
    "Деби Дерриберри",
    "Мариев Херингтон",
    "Крис Кент",
    "Эрин Фицджералд",
    "Гилберт Боус",
    "Джошуа Томар",
    "Ксандер Мобус",
    "Мишель Соуза"
  ],
  "actors_dubl": [
    "Иван Калинин",
    "Лина Иванова",
    "Алёна Созинова",
    "Татьяна Шитова",
    "Даниил Эльдаров"
  ],
  "trivia": [],
  "trailers": [
    {
      "name": "трейлер №1",
      "number": 1,
      "iframe_poster": null,
      "season": null,
      "iframe_url": ""
    }
  ],
  "seasons": [],
  "voiceActing": [
    "Рус. Люб. двухголосый"
  ],
  "subtitle": [],
  "parts": [
    2111,
    8991,
    8992,
    8993,
    8994,
    8995,
    8996,
    8997
  ]
}
