{
  "id": 4994,
  "name": "Ёлки новые",
  "name_eng": "",
  "year": 2017,
  "slogan": "«Нашли, с кем праздновать!»",
  "age": "6+",
  "type": "film",
  "quality": "HD (720p)",
  "imdb": "4.2",
  "imdb_id": "6907804",
  "kinopoisk": "5.8",
  "kinopoisk_id": "1045310",
  "world_art": null,
  "world_art_id": null,
  "time": "85 мин. / 01:25",
  "ads": false,
  "premier": "2017-12-21",
  "premier_rus": "2017-12-21",
  "availability": null,
  "activate_time": "2019-08-08 17:59:00",
  "budget": null,
  "fees_use": null,
  "fees_world": "$15 735 317",
  "fees_rus": "$16 199 453",
  "rate_mpaa": null,
  "description": "В декабре 2017 будет жарко! Дружба Жени и Бори едва не сгорит в огне семейного скандала; глубоко беременная Снегурочка отправится в Одиссею по нижегородским семьям; отчаянная Галя из Новосибирска пойдет на все, чтобы провести ночь с любимым врачом; экстремальный поход в лес за елкой станет проверкой на прочность для юного хипстера из Тюмени и его потенциального отчима. Новые и хорошо знакомые герои «Ёлок» влюбляются, ссорятся и мирятся, совершают геройские поступки и попадают впросак, лишь бы найти на Новый год настоящую родственную душу, как один смелый мальчик из Хабаровска, сбежавший в поисках новой мамы в Москву. И помочь им может только чудо… или вся страна!",
  "iframe_url": "",
  "iframe_poster": "https://img.imgilall.me/movies/video/1/0/8/8/8/6/0/0/0/0/800x450_108886.jpeg",
  "poster": "https://img.imgilall.me/movies/franchise/4/9/9/4/0/0/0/0/0/0/610x900_4994.jpg",
  "country": {
    "5": "Россия"
  },
  "collection": [],
  "genre": {
    "22": "Русский",
    "19": "Комедия",
    "8": "Мелодрама"
  },
  "director": [
    "Жора Крыжовников",
    "Дмитрий Киселёв",
    "Александр Карпиловский"
  ],
  "screenwriter": [
    "Жора Крыжовников",
    "Юлия Гулян",
    "Дмитрий Литвиненко"
  ],
  "producer": [
    "Тимур Бекмамбетов",
    "Жора Крыжовников",
    "Галина Стрижевская"
  ],
  "operator": [
    "Иван Лебедев",
    "Леван Капанадзе",
    "Семён Яковлев"
  ],
  "composer": [
    "Павел Есенин",
    "Юрий Потеенко",
    "Илья Лагутенко"
  ],
  "design": [
    "Жанна Пахомова",
    "Мухтар Мирзакеев",
    "Маргарита Аблаева"
  ],
  "editor": [
    "Константин Ларченко"
  ],
  "actors": [
    "Иван Ургант",
    "Сергей Светлаков",
    "Дмитрий Нагиев",
    "Юлия Александрова",
    "Антон Богданов",
    "Валентина Мазунина",
    "Елена Яковлева",
    "Сергей Пускепалис",
    "Екатерина Климова",
    "Андрей Бурковский"
  ],
  "actors_dubl": [
    "Юлия Хлынина"
  ],
  "trivia": [
    "Во время монтажа фильма выяснилось, что не хватает кадров с участием снегоуборочного трактора. Большинство сцен было снято в Москве, однако в Европейской части России снега практически не было (по сценарию, действие эпизода с трактором происходит в Нижнем Новгороде). Поэтому недостающие кадры сняли в Красноярске, где осень 2017 года выдалась снежной. В кадр попали улицы правобережья Красноярска: Щорса, Кутузова, Гастелло и Щербакова."
  ],
  "trailers": [],
  "seasons": [],
  "voiceActing": [
    "Рус. Оригинальный"
  ],
  "subtitle": [],
  "parts": [
    1403,
    3170,
    3207,
    3208,
    3209,
    3210,
    4994,
    5091
  ]
}
