{
  "id": 17378,
  "name": "Ледяная зона",
  "name_eng": "Cold Zone",
  "year": 2017,
  "slogan": "«You thought the Ice Age was over. Think again»",
  "age": null,
  "type": "film",
  "quality": "HD (720p)",
  "imdb": "3.5",
  "imdb_id": "6516590",
  "kinopoisk": null,
  "kinopoisk_id": "1041126",
  "world_art": null,
  "world_art_id": null,
  "time": "85 мин. / 01:25",
  "ads": true,
  "premier": "2017-05-16",
  "premier_rus": "2017-05-17",
  "availability": "2017-05-18",
  "activate_time": "2020-05-04 11:18:00",
  "budget": null,
  "fees_use": null,
  "fees_world": null,
  "fees_rus": null,
  "rate_mpaa": null,
  "description": "Без видимых на то причин погода меняется за считанные секунды, и температура падает до критической отметки. Люди гибнут прямо на улицах, выжить удаётся лишь тем, кто в этот момент находился в помещении. Главный герой - из их числа. Он думал, что ему с семьёй повезло, но очень скоро понял, что для спасения жизни им просто необходимо выбраться из дома.",
  "iframe_url": "",
  "iframe_poster": null,
  "poster": "https://img.imgilall.me/movies/franchise/1/7/3/7/8/0/0/0/0/0/610x900_17378.jpg",
  "country": {
    "1": "США"
  },
  "collection": [],
  "genre": {
    "11": "Фантастика",
    "17": "Боевик",
    "10": "Зарубежный"
  },
  "director": [
    "Джон МакКарти"
  ],
  "screenwriter": [
    "Hannah Davies",
    "Айван Хейден"
  ],
  "producer": [
    "Коста Вассос"
  ],
  "operator": [
    "Крис Кемпински"
  ],
  "composer": [
    "Кристофер Никел"
  ],
  "design": [
    "Хезер Лидберг"
  ],
  "editor": [],
  "actors": [
    "Мартин Камминс",
    "Кирстен Робек",
    "Ник Пурча",
    "Сара Дежарден",
    "Стив Бачич",
    "Сара-Джейн Редмонд",
    "Дэниэл Бойло",
    "Дарси Лори",
    "Кристиан Слоун",
    "Мелани МакЛарен"
  ],
  "actors_dubl": [],
  "trivia": [],
  "trailers": [],
  "seasons": [],
  "voiceActing": [
    "Рус. Люб. многоголосый"
  ],
  "subtitle": [],
  "parts": []
}
