{
  "id": 30072,
  "name": "Не хочу забывать",
  "name_eng": "Nae meorisokui jiugae",
  "year": 2004,
  "slogan": "—",
  "age": null,
  "type": "film",
  "quality": "HD (720p)",
  "imdb": "8.2",
  "imdb_id": "0",
  "kinopoisk": "8.0",
  "kinopoisk_id": "105996",
  "world_art": null,
  "world_art_id": null,
  "time": "117 мин. / 01:57",
  "ads": false,
  "premier": "2004-11-05",
  "premier_rus": "2004-11-06",
  "availability": "2004-11-07",
  "activate_time": "2020-07-11 08:53:00",
  "budget": null,
  "fees_use": null,
  "fees_world": "$20 865 847",
  "fees_rus": null,
  "rate_mpaa": "PG-13",
  "description": "После разрыва отношений с женатым любовником Су-джин старается забыть прошлое. Однажды она встречает плотника Чхоль-су, который очень хочет стать архитектором. Женщину тянет к нему, парень отвечает взаимностью, и через некоторое время они женятся. Теперь, когда Су-джин думает, что нашла правильного человека, она должна смело встретить свою болезнь, которая заставляет её терять воспоминания.",
  "iframe_url": "",
  "iframe_poster": null,
  "poster": "https://img.imgilall.me/movies/franchise/3/0/0/7/2/0/0/0/0/0/610x900_30072.jpg",
  "country": {
    "16": "Корея Южная"
  },
  "collection": [],
  "genre": {
    "8": "Мелодрама",
    "7": "Драма"
  },
  "director": [
    "Джон Х. Ли"
  ],
  "screenwriter": [
    "Джон Х. Ли"
  ],
  "producer": [
    "Чха Сын-джэ"
  ],
  "operator": [
    "Ли Джун-гю"
  ],
  "composer": [
    "Ким Тхэ-вон"
  ],
  "design": [
    "Чхве Ги-хо",
    "Юн Иль-лан"
  ],
  "editor": [
    "Стив М. Чхве",
    "Хам Сон-вон"
  ],
  "actors": [
    "Чон У-сон",
    "Сон Е-джин",
    "Пэк Чон-хак",
    "Ли Сон-джин",
    "Пак Сан-гю",
    "Ким Хи-рён",
    "Сон Джи-хён",
    "Ким Бу-сон",
    "Ким Джун-ги",
    "Хён Ён"
  ],
  "actors_dubl": [],
  "trivia": [
    "Режиссёрская версия фильма имеет продолжительность 144 минуты."
  ],
  "trailers": [],
  "seasons": [],
  "voiceActing": [
    "Важенин (BadBajo)"
  ],
  "subtitle": [],
  "parts": []
}
