{
  "id": 50681,
  "name": "Легавый",
  "name_eng": "The Fuzz",
  "year": 2017,
  "slogan": "—",
  "age": null,
  "type": "film",
  "quality": "HD (720p)",
  "imdb": null,
  "imdb_id": "6977434",
  "kinopoisk": null,
  "kinopoisk_id": "1094612",
  "world_art": null,
  "world_art_id": null,
  "time": "87 мин. / 01:27",
  "ads": true,
  "premier": "2017-05-02",
  "premier_rus": "2017-05-03",
  "availability": "2017-05-04",
  "activate_time": "2021-09-17 16:36:00",
  "budget": "$400 000",
  "fees_use": "$6 067",
  "fees_world": null,
  "fees_rus": null,
  "rate_mpaa": null,
  "description": null,
  "iframe_url": "",
  "iframe_poster": null,
  "poster": "https://img.imgilall.me/movies/franchise/5/0/6/8/1/0/0/0/0/0/610x900_50681.jpg",
  "country": {
    "1": "США"
  },
  "collection": [],
  "genre": {
    "25": "Криминал"
  },
  "director": [
    "Стив Хикс"
  ],
  "screenwriter": [
    "Стив Хикс"
  ],
  "producer": [
    "Maile Baird-Hicks",
    "Стив Хикс",
    "Megan Adell-Zakarian"
  ],
  "operator": [
    "Джонни Деранго"
  ],
  "composer": [
    "Адам Блау"
  ],
  "design": [
    "Lindsay Baird",
    "Michael Baird",
    "Carl Baird"
  ],
  "editor": [
    "Marcus Wagner"
  ],
  "actors": [
    "Джош Адэлл",
    "Тодд Роберт Андерсон",
    "Мэттью Эшфорд",
    "Дэн Дэвис",
    "Дэйв Флорек",
    "Адина Галупа",
    "Стив Хикс",
    "Джереми Люк",
    "War Machine",
    "Эбби Миллер"
  ],
  "actors_dubl": [],
  "trivia": [],
  "trailers": [],
  "seasons": [],
  "voiceActing": [
    "Синема УС"
  ],
  "subtitle": [],
  "parts": []
}
