{
  "id": 1994,
  "name": "Кондор",
  "name_eng": "Condor",
  "year": 2018,
  "slogan": "«Truth is the first victim»",
  "age": "16+",
  "type": "series",
  "quality": "FHD (1080p)",
  "imdb": "7.7",
  "imdb_id": "6510950",
  "kinopoisk": "7.1",
  "kinopoisk_id": "1044830",
  "world_art": null,
  "world_art_id": null,
  "time": "60 мин.",
  "ads": true,
  "premier": "2018-06-06",
  "premier_rus": "2018-09-06",
  "availability": "2018-09-07",
  "serial_status": "paused",
  "activate_time": "2018-09-02 17:30:43",
  "budget": null,
  "fees_use": null,
  "fees_world": null,
  "fees_rus": null,
  "rate_mpaa": null,
  "description": "Молодой работник ЦРУ Джо Тернер обнаруживает, что все сотрудники его отдела убиты. Расследование преступления раскрывает шокирующие тайны и крупный заговор, в центре которого находится он сам.",
  "iframe_url": "",
  "poster": "https://img.imgilall.me/movies/franchise/1/9/9/4/0/0/0/0/0/0/610x900_1994.jpg",
  "country": {
    "1": "США"
  },
  "collection": {
    "62": "Про полицию"
  },
  "genre": {
    "13": "Триллер",
    "10": "Зарубежный",
    "7": "Драма"
  },
  "director": [
    "Эндрю МакКарти",
    "Джейсон Смилович",
    "Лоуренс Триллинг"
  ],
  "screenwriter": [
    "Todd Katzberg",
    "Джейсон Смилович",
    "Джеймс Грэйди"
  ],
  "producer": [
    "Richard Charney",
    "Bryan Foster",
    "Дэвид Эллисон"
  ],
  "operator": [
    "Эванс Браун",
    "Джереми Беннинг"
  ],
  "composer": [
    "Тревор Моррис"
  ],
  "design": [
    "Рокко Маттео",
    "Мишель Лэннон",
    "Самир Зайдан"
  ],
  "editor": [
    "Кристофер Дональдсон",
    "Венди Халлам Мартин",
    "Dan Briceno"
  ],
  "actors": [
    "Макс Айронс",
    "Кристен Хагер",
    "Боб Бэлабан",
    "Гейдж Грэхэм-Арбутнот",
    "Уильям Хёрт",
    "Лим Лубани",
    "Анхель Бунани",
    "Мира Сорвино",
    "Тоби Леонард Мур",
    "Сэм Маккарти"
  ],
  "actors_dubl": [],
  "trivia": [
    "По мотивам романа \"Шесть дней Кондора\" и его экранизации \"Три дня Кондора\".",
    "Съёмки были организованы в Parkwood Estate, особняке в канадской провинции Онтарио, в котором когда-то проживал Сэмюэл Маклафлин (1871-1972), основавший в 1907 году компанию McLaughlin Motor Car Company (впоследствии она превратилась в General Motors of Canada Limited)."
  ],
  "trailers": [],
  "seasons": [
    {
      "poster": "https://img.imgilall.me/movies/season/9/1/8/0/0/0/0/0/0/0/610x900_918.jpg",
      "release_ru": "2018-06-07",
      "release_world": "2018-06-06",
      "availability": "2018-06-08",
      "iframe_url": "",
      "season": 1,
      "episodes": [
        {
          "episode": 1,
          "name": "What Loneliness",
          "iframe_url": "",
          "iframe_poster": null,
          "release_ru": "2018-06-07",
          "release_world": "2018-06-06",
          "availability": "2018-06-08",
          "voiceActing": [
            "LostFilm",
            "NewStudio",
            "Eng.Original"
          ],
          "ads": false,
          "subtitle": [
            "Рус. форсированные"
          ]
        },
        {
          "episode": 2,
          "name": "The Solution to All Problems",
          "iframe_url": "",
          "iframe_poster": null,
          "release_ru": "2018-06-14",
          "release_world": "2018-06-13",
          "availability": "2018-06-15",
          "voiceActing": [
            "LostFilm",
            "NewStudio",
            "Eng.Original"
          ],
          "ads": false,
          "subtitle": [
            "Рус. форсированные"
          ]
        },
        {
          "episode": 3,
          "name": "A Good Patriot",
          "iframe_url": "",
          "iframe_poster": null,
          "release_ru": "2018-06-21",
          "release_world": "2018-06-20",
          "availability": "2018-06-22",
          "voiceActing": [
            "LostFilm",
            "NewStudio",
            "Eng.Original"
          ],
          "ads": false,
          "subtitle": [
            "Рус. форсированные"
          ]
        },
        {
          "episode": 4,
          "name": "Trapped in History",
          "iframe_url": "",
          "iframe_poster": null,
          "release_ru": "2018-06-28",
          "release_world": "2018-06-27",
          "availability": "2018-06-29",
          "voiceActing": [
            "LostFilm",
            "NewStudio",
            "Eng.Original"
          ],
          "ads": false,
          "subtitle": [
            "Рус. форсированные"
          ]
        },
        {
          "episode": 5,
          "name": "A Diamond With a Flaw",
          "iframe_url": "",
          "iframe_poster": null,
          "release_ru": "2018-07-12",
          "release_world": "2018-07-11",
          "availability": "2018-07-13",
          "voiceActing": [
            "LostFilm",
            "NewStudio",
            "Eng.Original"
          ],
          "ads": false,
          "subtitle": [
            "Рус. форсированные"
          ]
        },
        {
          "episode": 6,
          "name": "No Such Thing",
          "iframe_url": "",
          "iframe_poster": null,
          "release_ru": "2018-07-19",
          "release_world": "2018-07-18",
          "availability": "2018-07-20",
          "voiceActing": [
            "LostFilm",
            "NewStudio",
            "Eng.Original"
          ],
          "ads": false,
          "subtitle": [
            "Рус. форсированные"
          ]
        },
        {
          "episode": 7,
          "name": "Within a Dark Wood",
          "iframe_url": "",
          "iframe_poster": null,
          "release_ru": "2018-07-26",
          "release_world": "2018-07-25",
          "availability": "2018-07-27",
          "voiceActing": [
            "LostFilm",
            "NewStudio",
            "Eng.Original"
          ],
          "ads": false,
          "subtitle": [
            "Рус. форсированные"
          ]
        },
        {
          "episode": 8,
          "name": "A Question of Compromise",
          "iframe_url": "",
          "iframe_poster": null,
          "release_ru": "2018-08-02",
          "release_world": "2018-08-01",
          "availability": "2018-08-03",
          "voiceActing": [
            "LostFilm",
            "NewStudio",
            "Eng.Original"
          ],
          "ads": false,
          "subtitle": [
            "Рус. форсированные"
          ]
        },
        {
          "episode": 9,
          "name": "Death is the Harvest",
          "iframe_url": "",
          "iframe_poster": null,
          "release_ru": "2018-08-09",
          "release_world": "2018-08-08",
          "availability": "2018-08-10",
          "voiceActing": [
            "LostFilm",
            "NewStudio",
            "Eng.Original"
          ],
          "ads": false,
          "subtitle": [
            "Рус. форсированные"
          ]
        },
        {
          "episode": 10,
          "name": "Mistrust Blossoms",
          "iframe_url": "",
          "iframe_poster": null,
          "release_ru": "2018-08-16",
          "release_world": "2018-08-15",
          "availability": "2018-08-17",
          "voiceActing": [
            "LostFilm",
            "NewStudio",
            "Eng.Original"
          ],
          "ads": false,
          "subtitle": [
            "Eng. SDH"
          ]
        }
      ]
    },
    {
      "poster": null,
      "release_ru": "2020-06-10",
      "release_world": "2020-06-09",
      "availability": "2020-06-11",
      "iframe_url": "",
      "season": 2,
      "episodes": [
        {
          "episode": 1,
          "name": "Exile is a Dream",
          "iframe_url": "",
          "iframe_poster": null,
          "release_ru": "2020-06-10",
          "release_world": "2020-06-09",
          "availability": "2020-06-10",
          "voiceActing": [
            "LostFilm",
            "Eng.Original"
          ],
          "ads": false,
          "subtitle": []
        },
        {
          "episode": 2,
          "name": "If It Serves a Greater Good",
          "iframe_url": "",
          "iframe_poster": null,
          "release_ru": "2020-06-10",
          "release_world": "2020-06-09",
          "availability": "2020-06-10",
          "voiceActing": [
            "LostFilm",
            "Eng.Original"
          ],
          "ads": false,
          "subtitle": []
        },
        {
          "episode": 3,
          "name": "A Former KGB Man",
          "iframe_url": "",
          "iframe_poster": null,
          "release_ru": "2020-06-17",
          "release_world": "2020-06-16",
          "availability": "2020-06-17",
          "voiceActing": [
            "LostFilm",
            "Eng.Original"
          ],
          "ads": false,
          "subtitle": []
        },
        {
          "episode": 4,
          "name": "Not What He Thinks He Is",
          "iframe_url": "",
          "iframe_poster": null,
          "release_ru": "2020-06-24",
          "release_world": "2020-06-23",
          "availability": "2020-06-25",
          "voiceActing": [
            "LostFilm",
            "Eng.Original"
          ],
          "ads": false,
          "subtitle": []
        },
        {
          "episode": 5,
          "name": "Out of His Exile",
          "iframe_url": "",
          "iframe_poster": null,
          "release_ru": "2020-07-01",
          "release_world": "2020-06-30",
          "availability": "2020-07-02",
          "voiceActing": [
            "LostFilm",
            "Eng.Original"
          ],
          "ads": false,
          "subtitle": []
        },
        {
          "episode": 6,
          "name": null,
          "iframe_url": "",
          "iframe_poster": null,
          "release_ru": "2020-07-08",
          "release_world": "2020-07-07",
          "availability": "2020-07-09",
          "voiceActing": [
            "LostFilm",
            "Eng.Original"
          ],
          "ads": false,
          "subtitle": []
        },
        {
          "episode": 7,
          "name": null,
          "iframe_url": "",
          "iframe_poster": null,
          "release_ru": "2020-07-15",
          "release_world": "2020-07-14",
          "availability": "2020-07-16",
          "voiceActing": [
            "LostFilm",
            "Eng.Original"
          ],
          "ads": false,
          "subtitle": []
        },
        {
          "episode": 8,
          "name": null,
          "iframe_url": "",
          "iframe_poster": null,
          "release_ru": "2020-07-22",
          "release_world": "2020-07-21",
          "availability": "2020-07-23",
          "voiceActing": [
            "LostFilm",
            "Eng.Original"
          ],
          "ads": false,
          "subtitle": []
        },
        {
          "episode": 9,
          "name": null,
          "iframe_url": "",
          "iframe_poster": null,
          "release_ru": "2020-07-29",
          "release_world": "2020-07-28",
          "availability": "2020-07-30",
          "voiceActing": [
            "LostFilm",
            "Eng.Original"
          ],
          "ads": false,
          "subtitle": []
        },
        {
          "episode": 10,
          "name": null,
          "iframe_url": "",
          "iframe_poster": null,
          "release_ru": "2020-08-05",
          "release_world": "2020-08-04",
          "availability": "2020-08-06",
          "voiceActing": [
            "Baibako"
          ],
          "ads": true,
          "subtitle": []
        }
      ]
    }
  ],
  "voiceActing": [
    "LostFilm",
    "NewStudio",
    "Eng.Original",
    "Baibako"
  ],
  "subtitle": [
    "Рус. форсированные",
    "Eng. SDH"
  ],
  "parts": []
}
