{
  "id": 36505,
  "name": "Друзья — это хорошо",
  "name_eng": "Arkadaslar Iyidir",
  "year": 2016,
  "slogan": "—",
  "age": "6+",
  "type": "series",
  "quality": "SD",
  "imdb": "5.0",
  "imdb_id": "6042546",
  "kinopoisk": null,
  "kinopoisk_id": "1045731",
  "world_art": null,
  "world_art_id": null,
  "time": "120 мин",
  "ads": false,
  "premier": "2016-08-28",
  "premier_rus": "2016-08-29",
  "availability": "2016-08-30",
  "serial_status": "offline",
  "activate_time": "2020-08-27 18:32:00",
  "budget": "",
  "fees_use": "",
  "fees_world": "",
  "fees_rus": "",
  "rate_mpaa": "",
  "description": "История о четырех друзьях Эрен Кахраман, Седа Йылмаз, Мерве Алтынкёрпю и Юнус Чаглайан, которые познакомились при поступлении в университет. В первом курсе Седа встречает свою подругу детства Гизем Шубаши, с которой не виделась очень давно. Седа и Гизем, едва снова встретившись, сразу же привязываются друг к другу, как в детстве. Но через некоторое время ситуация в группе начинает меняться. Седа, Эрен, Мерве, Юнус и Гизем встретившись с призраками прошлого, начинают понимать, что взрослая жизнь не так уж и прекрасна. Они понимают, что теперь в одиночку надо сражаться с жизнью. Сражаться одному в любой жизненной ситуации, если понадобится, будет ранен, но должен знать, как снова подняться на ноги. А сможет ли дружба залечить эти раненые души?",
  "iframe_url": "",
  "poster": "https://img.imgilall.me/movies/franchise/3/6/5/0/5/0/0/0/0/0/610x900_36505.jpg",
  "country": {
    "36": "Турция"
  },
  "collection": [],
  "genre": {
    "7": "Драма"
  },
  "director": [
    "Дениз Колош"
  ],
  "screenwriter": [
    "Ekin Atalar"
  ],
  "producer": [
    "Недим Чинелиоглу",
    "Дженгиз Чагатай"
  ],
  "operator": [],
  "composer": [],
  "design": [],
  "editor": [],
  "actors": [
    "Хаял Кёсеоглу",
    "Тевфик Акбасли",
    "Деврим Оздер Акын",
    "Акын Акынёзю",
    "Пынар Чаглар Генчтюрк",
    "Эдже Диздар",
    "Неджла Фиде",
    "Дидем Инселел",
    "Су Кутлу",
    "Идрис Неби Ташкан"
  ],
  "actors_dubl": [],
  "trivia": [],
  "trailers": [],
  "seasons": [
    {
      "poster": null,
      "release_ru": null,
      "release_world": null,
      "availability": null,
      "iframe_url": "",
      "season": 1,
      "episodes": [
        {
          "episode": 1,
          "name": null,
          "iframe_url": "",
          "iframe_poster": null,
          "release_ru": null,
          "release_world": null,
          "availability": null,
          "voiceActing": [
            "Рус. хардсаб"
          ],
          "ads": false,
          "subtitle": []
        },
        {
          "episode": 2,
          "name": null,
          "iframe_url": "",
          "iframe_poster": null,
          "release_ru": null,
          "release_world": null,
          "availability": null,
          "voiceActing": [
            "Рус. хардсаб"
          ],
          "ads": false,
          "subtitle": []
        },
        {
          "episode": 3,
          "name": null,
          "iframe_url": "",
          "iframe_poster": null,
          "release_ru": null,
          "release_world": null,
          "availability": null,
          "voiceActing": [
            "Рус. хардсаб"
          ],
          "ads": false,
          "subtitle": []
        },
        {
          "episode": 4,
          "name": null,
          "iframe_url": "",
          "iframe_poster": null,
          "release_ru": null,
          "release_world": null,
          "availability": null,
          "voiceActing": [
            "Рус. хардсаб"
          ],
          "ads": false,
          "subtitle": []
        },
        {
          "episode": 5,
          "name": null,
          "iframe_url": "",
          "iframe_poster": null,
          "release_ru": null,
          "release_world": null,
          "availability": null,
          "voiceActing": [
            "Рус. хардсаб"
          ],
          "ads": false,
          "subtitle": []
        },
        {
          "episode": 6,
          "name": null,
          "iframe_url": "",
          "iframe_poster": null,
          "release_ru": null,
          "release_world": null,
          "availability": null,
          "voiceActing": [
            "Рус. хардсаб"
          ],
          "ads": false,
          "subtitle": []
        },
        {
          "episode": 7,
          "name": null,
          "iframe_url": "",
          "iframe_poster": null,
          "release_ru": null,
          "release_world": null,
          "availability": null,
          "voiceActing": [
            "Рус. хардсаб"
          ],
          "ads": false,
          "subtitle": []
        },
        {
          "episode": 8,
          "name": null,
          "iframe_url": "",
          "iframe_poster": null,
          "release_ru": null,
          "release_world": null,
          "availability": null,
          "voiceActing": [
            "Рус. хардсаб"
          ],
          "ads": false,
          "subtitle": []
        },
        {
          "episode": 9,
          "name": null,
          "iframe_url": "",
          "iframe_poster": null,
          "release_ru": null,
          "release_world": null,
          "availability": null,
          "voiceActing": [
            "Рус. хардсаб"
          ],
          "ads": false,
          "subtitle": []
        },
        {
          "episode": 10,
          "name": null,
          "iframe_url": "",
          "iframe_poster": null,
          "release_ru": null,
          "release_world": null,
          "availability": null,
          "voiceActing": [
            "Рус. хардсаб"
          ],
          "ads": false,
          "subtitle": []
        }
      ]
    }
  ],
  "voiceActing": [
    "Рус. хардсаб"
  ],
  "subtitle": [],
  "parts": []
}
