{
  "id": 12107,
  "name": "Большой прорыв",
  "name_eng": "Big Break",
  "year": 2019,
  "slogan": "«When just standing up doesn't deliver»",
  "age": null,
  "type": "film",
  "quality": "HD (720p)",
  "imdb": null,
  "imdb_id": "7502318",
  "kinopoisk": null,
  "kinopoisk_id": "1064905",
  "world_art": null,
  "world_art_id": null,
  "time": "—",
  "ads": true,
  "premier": null,
  "premier_rus": null,
  "availability": null,
  "activate_time": "2019-11-01 17:30:00",
  "budget": "",
  "fees_use": "",
  "fees_world": "",
  "fees_rus": "",
  "rate_mpaa": "",
  "description": "Поднимающая настроение комедийная драма, которая рассказывает историю Билла, комика, переживающего кризис среднего возраста и борющегося за свою мечту.\r\n",
  "iframe_url": "",
  "iframe_poster": null,
  "poster": "https://img.imgilall.me/movies/franchise/1/2/1/0/7/0/0/0/0/0/610x900_12107.jpg",
  "country": {
    "1": "США"
  },
  "collection": [],
  "genre": {
    "19": "Комедия",
    "10": "Зарубежный"
  },
  "director": [
    "Джон Кэннон"
  ],
  "screenwriter": [
    "Джон Кэннон"
  ],
  "producer": [
    "Yale Goodman",
    "Брайан Луна",
    "Джон Кэннон"
  ],
  "operator": [
    "Yale Goodman"
  ],
  "composer": [],
  "design": [],
  "editor": [],
  "actors": [
    "Jeff Riberdy",
    "Samantha Moyer",
    "Энрике Гонсалес",
    "Diana Hinojosa",
    "Briana Cortesiano",
    "Jagan Badvel",
    "Джон Кэннон",
    "Michael Piper-Younie",
    "Sami Griffith",
    "Фулвио Брембилла"
  ],
  "actors_dubl": [],
  "trivia": [],
  "trailers": [],
  "seasons": [],
  "voiceActing": [
    "Рус. Люб. многоголосый"
  ],
  "subtitle": [],
  "parts": []
}
