{
  "id": 4736,
  "name": "Чемпионы",
  "name_eng": "Champions",
  "year": 2018,
  "slogan": "«He calls it a supporting cast. They call it family»",
  "age": "12+",
  "type": "series",
  "quality": "SD",
  "imdb": "6.1",
  "imdb_id": "6470396",
  "kinopoisk": "6.2",
  "kinopoisk_id": "1021242",
  "world_art": null,
  "world_art_id": null,
  "time": "30 мин.",
  "ads": true,
  "premier": "2018-03-08",
  "premier_rus": null,
  "availability": null,
  "serial_status": "offline",
  "activate_time": "2018-12-18 14:39:35",
  "budget": null,
  "fees_use": null,
  "fees_world": null,
  "fees_rus": null,
  "rate_mpaa": null,
  "description": "Холостяк Винс живет жизнью, полной простых радостей: любимая работа в тренажерном зале, бесконечная вереница женщин, всегда под боком младший брат, которому нравится все то же самое. Но однажды на пороге появляется 15-летний сын Винса, о котором тот до этого ничего не слышал. Как быть отцом, Винс понятия не имеет. А тут еще выясняется, что сын — помешанный на театре и моде гей с замашками дивы.",
  "iframe_url": "",
  "poster": "https://img.imgilall.me/movies/franchise/4/7/3/6/0/0/0/0/0/0/610x900_4736.jpg",
  "country": {
    "1": "США"
  },
  "collection": [],
  "genre": {
    "19": "Комедия",
    "10": "Зарубежный"
  },
  "director": [
    "Майкл Спиллер",
    "Гита Патель",
    "Мэгги Кэри"
  ],
  "screenwriter": [
    "Чарли Гранди",
    "Минди Кейлинг",
    "Leah Beckmann"
  ],
  "producer": [
    "Эрик Колджен",
    "Майкл Спиллер",
    "Крис Шлайхер"
  ],
  "operator": [
    "Чарльз Паперт",
    "Брайан Бёргойн",
    "Марко Фарноли"
  ],
  "composer": [
    "Джесси Новак"
  ],
  "design": [
    "Кэтлин Уидомски",
    "Ивонн Гарнье-Хэцки",
    "Камерон Берни"
  ],
  "editor": [
    "Роб Барнетт",
    "Мат Гринлиф",
    "Jessica Sisk"
  ],
  "actors": [
    "Андерс Холм",
    "Фортун Феймстер",
    "Энди Фавро",
    "Джози Тота",
    "Музам Маккар",
    "Джинджер Гонзага",
    "Яссер Лестер",
    "Роберт Костанцо",
    "Минди Кейлинг",
    "Эдгар Блэкмон"
  ],
  "actors_dubl": [],
  "trivia": [],
  "trailers": [],
  "seasons": [
    {
      "poster": "https://img.imgilall.me/movies/season/2/6/9/5/0/0/0/0/0/0/610x900_2695.jpg",
      "release_ru": "2018-03-09",
      "release_world": "2018-03-08",
      "availability": "2018-03-10",
      "iframe_url": "",
      "season": 1,
      "episodes": [
        {
          "episode": 1,
          "name": "Pilot",
          "iframe_url": "",
          "iframe_poster": "https://img.imgilall.me/movies/video/4/4/5/9/9/0/0/0/0/0/800x450_44599.jpeg",
          "release_ru": "2018-03-09",
          "release_world": "2018-03-08",
          "availability": "2018-03-10",
          "voiceActing": [
            "JASKIER",
            "Eng.Original"
          ],
          "ads": true,
          "subtitle": []
        },
        {
          "episode": 2,
          "name": "I Think I'm Gonna Tolerate It Here",
          "iframe_url": "",
          "iframe_poster": "https://img.imgilall.me/movies/video/4/4/6/0/0/0/0/0/0/0/800x450_44600.jpeg",
          "release_ru": "2018-03-16",
          "release_world": "2018-03-15",
          "availability": "2018-03-17",
          "voiceActing": [
            "JASKIER",
            "Eng.Original"
          ],
          "ads": true,
          "subtitle": []
        },
        {
          "episode": 3,
          "name": "Lumps",
          "iframe_url": "",
          "iframe_poster": "https://img.imgilall.me/movies/video/4/4/6/0/1/0/0/0/0/0/800x450_44601.jpeg",
          "release_ru": "2018-03-30",
          "release_world": "2018-03-29",
          "availability": "2018-03-31",
          "voiceActing": [
            "JASKIER",
            "Eng.Original"
          ],
          "ads": true,
          "subtitle": []
        },
        {
          "episode": 4,
          "name": "My Fair Uncle",
          "iframe_url": "",
          "iframe_poster": "https://img.imgilall.me/movies/video/4/4/6/0/2/0/0/0/0/0/800x450_44602.jpeg",
          "release_ru": "2018-04-06",
          "release_world": "2018-04-05",
          "availability": "2018-04-07",
          "voiceActing": [
            "JASKIER",
            "Eng.Original"
          ],
          "ads": true,
          "subtitle": []
        },
        {
          "episode": 5,
          "name": "Vincemas",
          "iframe_url": "",
          "iframe_poster": "https://img.imgilall.me/movies/video/4/4/6/0/3/0/0/0/0/0/800x450_44603.jpeg",
          "release_ru": "2018-04-13",
          "release_world": "2018-04-12",
          "availability": "2018-04-14",
          "voiceActing": [
            "JASKIER",
            "Eng.Original"
          ],
          "ads": true,
          "subtitle": []
        },
        {
          "episode": 6,
          "name": "Grandma Dearest",
          "iframe_url": "",
          "iframe_poster": "https://img.imgilall.me/movies/video/4/4/6/0/4/0/0/0/0/0/800x450_44604.jpeg",
          "release_ru": "2018-04-20",
          "release_world": "2018-04-19",
          "availability": "2018-04-21",
          "voiceActing": [
            "JASKIER",
            "Eng.Original"
          ],
          "ads": true,
          "subtitle": []
        },
        {
          "episode": 7,
          "name": "Matt Bomer Poster",
          "iframe_url": "",
          "iframe_poster": "https://img.imgilall.me/movies/video/4/4/6/0/5/0/0/0/0/0/800x450_44605.jpeg",
          "release_ru": "2018-04-27",
          "release_world": "2018-04-26",
          "availability": "2018-04-28",
          "voiceActing": [
            "JASKIER",
            "Eng.Original"
          ],
          "ads": true,
          "subtitle": []
        },
        {
          "episode": 8,
          "name": "Nepotism",
          "iframe_url": "",
          "iframe_poster": "https://img.imgilall.me/movies/video/4/4/6/0/6/0/0/0/0/0/800x450_44606.jpeg",
          "release_ru": "2018-05-04",
          "release_world": "2018-05-03",
          "availability": "2018-05-05",
          "voiceActing": [
            "JASKIER",
            "Eng.Original"
          ],
          "ads": true,
          "subtitle": []
        },
        {
          "episode": 9,
          "name": "Opening Night",
          "iframe_url": "",
          "iframe_poster": "https://img.imgilall.me/movies/video/4/4/6/0/7/0/0/0/0/0/800x450_44607.jpeg",
          "release_ru": "2018-05-26",
          "release_world": "2018-05-25",
          "availability": "2018-05-27",
          "voiceActing": [
            "JASKIER",
            "Eng.Original"
          ],
          "ads": true,
          "subtitle": []
        },
        {
          "episode": 10,
          "name": "Deal or No Deal",
          "iframe_url": "",
          "iframe_poster": "https://img.imgilall.me/movies/video/4/4/6/0/8/0/0/0/0/0/800x450_44608.jpeg",
          "release_ru": "2018-05-26",
          "release_world": "2018-05-25",
          "availability": "2018-05-27",
          "voiceActing": [
            "JASKIER",
            "Eng.Original"
          ],
          "ads": true,
          "subtitle": []
        }
      ]
    }
  ],
  "voiceActing": [
    "JASKIER",
    "Eng.Original"
  ],
  "subtitle": [],
  "parts": []
}
