{
  "id": 49541,
  "name": "Что я чувствую к тебе",
  "name_eng": "Lo que siento por ti",
  "year": 2018,
  "slogan": "—",
  "age": null,
  "type": "film",
  "quality": "HD (720p)",
  "imdb": "7.5",
  "imdb_id": "9005462",
  "kinopoisk": null,
  "kinopoisk_id": "1191945",
  "world_art": null,
  "world_art_id": null,
  "time": "90 мин. / 01:30",
  "ads": true,
  "premier": "2018-11-01",
  "premier_rus": "2018-11-02",
  "availability": "2018-11-03",
  "activate_time": "2021-08-16 11:53:00",
  "budget": null,
  "fees_use": null,
  "fees_world": null,
  "fees_rus": null,
  "rate_mpaa": null,
  "description": null,
  "iframe_url": "",
  "iframe_poster": null,
  "poster": "https://img.imgilall.me/movies/franchise/4/9/5/4/1/0/0/0/0/0/610x900_49541.jpg",
  "country": {
    "64": "Доминикана"
  },
  "collection": [],
  "genre": {
    "7": "Драма"
  },
  "director": [
    "Raúl Camilo"
  ],
  "screenwriter": [
    "Giovanna Bonnelly"
  ],
  "producer": [
    "Raúl Camilo",
    "Luis Arambilet",
    "Карлос Херман"
  ],
  "operator": [
    "Педро Гузман"
  ],
  "composer": [
    "Серхио Хименес Ласима"
  ],
  "design": [],
  "editor": [
    "Gina Giudicelli",
    "José Miguel Mejía"
  ],
  "actors": [
    "Yordanka Ariosa",
    "Робинсон Диас",
    "Нашла Богарт",
    "Феликс Херман",
    "Франк Перосо",
    "Габриела де ла Гарса",
    "Luis Oscar Villanueva",
    "Луис Хосе Герман",
    "Омар Патен",
    "Ico Abreu"
  ],
  "actors_dubl": [],
  "trivia": [],
  "trailers": [],
  "seasons": [],
  "voiceActing": [
    "Синема УС"
  ],
  "subtitle": [],
  "parts": []
}
