{
  "id": 7494,
  "name": "Каннабис",
  "name_eng": "Cannabis",
  "year": 2016,
  "slogan": "—",
  "age": "16+",
  "type": "series",
  "quality": "HD (720p)",
  "imdb": "6.9",
  "imdb_id": "6303080",
  "kinopoisk": null,
  "kinopoisk_id": "1199559",
  "world_art": null,
  "world_art_id": null,
  "time": "312 мин. всего",
  "ads": true,
  "premier": "2016-09-15",
  "premier_rus": null,
  "availability": null,
  "serial_status": "offline",
  "activate_time": "2019-04-08 17:45:19",
  "budget": null,
  "fees_use": null,
  "fees_world": null,
  "fees_rus": null,
  "rate_mpaa": null,
  "description": "На пути между Марокко и Европой перехвачен груз марихуаны, принадлежавший марокканскому наркобарону Эль Фео. За этот груз начинается борьба между французскими и испанскими бандами, но Эль Фео, владеющий полями каннабиса, не намерен дарить такой ценный груз европейским проходимцам.",
  "iframe_url": "",
  "poster": "https://img.imgilall.me/movies/franchise/7/4/9/4/0/0/0/0/0/0/610x900_7494.jpg",
  "country": {
    "9": "Франция"
  },
  "collection": [],
  "genre": {
    "25": "Криминал",
    "13": "Триллер",
    "10": "Зарубежный",
    "7": "Драма"
  },
  "director": [
    "Люси Борлето"
  ],
  "screenwriter": [
    "Clara Bourreau",
    "Виржини Брак",
    "Hamid Hlioua"
  ],
  "producer": [
    "Хосеп Аморос",
    "Игнаси Эстапе",
    "Надя Хамлиши"
  ],
  "operator": [
    "Жордан Шузену"
  ],
  "composer": [
    "Хесус Диас"
  ],
  "design": [
    "Френсис Гибе",
    "Анна Пухоль Таулер",
    "Виньет Эскобар"
  ],
  "editor": [
    "Marine de Contes",
    "Belén López",
    "Гвен Маллоран"
  ],
  "actors": [
    "Кейт Моран",
    "Кристоф Пау",
    "Ясин Уиша",
    "Жан-Мишель Коррейя",
    "Педро Касабланк",
    "Saïd El Mouden",
    "Рут Вега Фернандез",
    "Радивойе Буквич",
    "Фарида Рахуадж",
    "Karimouche"
  ],
  "actors_dubl": [],
  "trivia": [],
  "trailers": [],
  "seasons": [
    {
      "poster": "https://img.imgilall.me/movies/season/5/1/0/9/0/0/0/0/0/0/610x900_5109.jpg",
      "release_ru": "2016-12-09",
      "release_world": "2016-12-08",
      "availability": "2016-12-10",
      "iframe_url": "",
      "season": 1,
      "episodes": [
        {
          "episode": 1,
          "name": null,
          "iframe_url": "",
          "iframe_poster": "https://img.imgilall.me/movies/video/7/9/8/4/9/0/0/0/0/0/800x450_79849.jpeg",
          "release_ru": "2016-12-09",
          "release_world": "2016-12-08",
          "availability": "2016-12-10",
          "voiceActing": [
            "ViruseProject"
          ],
          "ads": true,
          "subtitle": []
        },
        {
          "episode": 2,
          "name": null,
          "iframe_url": "",
          "iframe_poster": "https://img.imgilall.me/movies/video/7/9/8/5/0/0/0/0/0/0/800x450_79850.jpeg",
          "release_ru": "2016-12-09",
          "release_world": "2016-12-08",
          "availability": "2016-12-10",
          "voiceActing": [
            "ViruseProject"
          ],
          "ads": true,
          "subtitle": []
        },
        {
          "episode": 3,
          "name": null,
          "iframe_url": "",
          "iframe_poster": "https://img.imgilall.me/movies/video/7/9/8/5/1/0/0/0/0/0/800x450_79851.jpeg",
          "release_ru": "2016-12-09",
          "release_world": "2016-12-08",
          "availability": "2016-12-10",
          "voiceActing": [
            "ViruseProject"
          ],
          "ads": true,
          "subtitle": []
        },
        {
          "episode": 4,
          "name": null,
          "iframe_url": "",
          "iframe_poster": "https://img.imgilall.me/movies/video/7/9/8/5/2/0/0/0/0/0/800x450_79852.jpeg",
          "release_ru": "2016-12-16",
          "release_world": "2016-12-15",
          "availability": "2016-12-17",
          "voiceActing": [
            "ViruseProject"
          ],
          "ads": true,
          "subtitle": []
        },
        {
          "episode": 5,
          "name": null,
          "iframe_url": "",
          "iframe_poster": "https://img.imgilall.me/movies/video/7/9/8/5/3/0/0/0/0/0/800x450_79853.jpeg",
          "release_ru": "2016-12-16",
          "release_world": "2016-12-15",
          "availability": "2016-12-17",
          "voiceActing": [
            "ViruseProject"
          ],
          "ads": true,
          "subtitle": []
        },
        {
          "episode": 6,
          "name": null,
          "iframe_url": "",
          "iframe_poster": "https://img.imgilall.me/movies/video/7/9/8/5/4/0/0/0/0/0/800x450_79854.jpeg",
          "release_ru": "2016-12-16",
          "release_world": "2016-12-15",
          "availability": "2016-12-17",
          "voiceActing": [
            "ViruseProject"
          ],
          "ads": true,
          "subtitle": []
        }
      ]
    }
  ],
  "voiceActing": [
    "ViruseProject"
  ],
  "subtitle": [],
  "parts": []
}
