{
  "id": 8832,
  "name": "Гостиница капитана Хагена",
  "name_eng": "Captain Hagen's Bed & Breakfast",
  "year": 2019,
  "slogan": "—",
  "age": "16+",
  "type": "film",
  "quality": "HD (720p)",
  "imdb": "4.5",
  "imdb_id": "7407296",
  "kinopoisk": null,
  "kinopoisk_id": "1107126",
  "world_art": null,
  "world_art_id": null,
  "time": "88 мин. / 01:28",
  "ads": true,
  "premier": "2019-02-08",
  "premier_rus": null,
  "availability": null,
  "activate_time": "2019-09-13 17:28:00",
  "budget": "",
  "fees_use": "",
  "fees_world": "",
  "fees_rus": "",
  "rate_mpaa": "",
  "description": "Четыре влюблённые пары проводят отпуск в гостинице капитана Хагена, владельцами которой являются эксцентричный немецкий капитан дальнего плавания и его странная семейка.\r\n",
  "iframe_url": "",
  "iframe_poster": "https://img.imgilall.me/movies/video/9/7/1/0/9/0/0/0/0/0/800x450_97109.jpeg",
  "poster": "https://img.imgilall.me/movies/franchise/8/8/3/2/0/0/0/0/0/0/610x900_8832.jpg",
  "country": {
    "1": "США"
  },
  "collection": [],
  "genre": {
    "19": "Комедия",
    "10": "Зарубежный"
  },
  "director": [
    "Rafael Friedan"
  ],
  "screenwriter": [
    "Rafael Friedan"
  ],
  "producer": [
    "Джо Чеккини",
    "Rafael Friedan",
    "Josh Soffer"
  ],
  "operator": [
    "Крис Тэрп"
  ],
  "composer": [
    "Shie Rozow"
  ],
  "design": [
    "Chris Wandell"
  ],
  "editor": [
    "Гордон Антелл"
  ],
  "actors": [
    "Ронда Айерс",
    "Уильям Бекуив",
    "Tyler Bellmon",
    "Линн Берг",
    "Brian Cecchini",
    "Эндрю Дж. Корнелиус",
    "Джессамин Келли",
    "Bri Oglu",
    "Dino Petrera",
    "Marilyn Seide"
  ],
  "actors_dubl": [],
  "trivia": [],
  "trailers": [],
  "seasons": [],
  "voiceActing": [
    "Рус. Люб. многоголосый"
  ],
  "subtitle": [],
  "parts": []
}
