{
  "id": 44245,
  "name": "Запретные шаги",
  "name_eng": "I'll Meet You There",
  "year": 2020,
  "slogan": "—",
  "age": null,
  "type": "film",
  "quality": "HD (720p)",
  "imdb": "5.3",
  "imdb_id": "4578102",
  "kinopoisk": null,
  "kinopoisk_id": "1143970",
  "world_art": null,
  "world_art_id": null,
  "time": "90 мин. / 01:30",
  "ads": true,
  "premier": "2020-03-16",
  "premier_rus": null,
  "availability": null,
  "activate_time": "2021-02-12 11:58:00",
  "budget": null,
  "fees_use": null,
  "fees_world": null,
  "fees_rus": null,
  "rate_mpaa": null,
  "description": "Нью-Йоркский коп-мусульманин оказывается в сложной ситуации, когда его отправляют шпионить в мечеть местной общины. В то же время его дочь готовится к танцевальным пробам и изучает танец, который когда-то привёл к трагическим событиям в её семье.",
  "iframe_url": "",
  "iframe_poster": null,
  "poster": "https://img.imgilall.me/movies/franchise/4/4/2/4/5/0/0/0/0/0/610x900_44245.jpg",
  "country": {
    "1": "США"
  },
  "collection": [],
  "genre": {
    "7": "Драма"
  },
  "director": [
    "Iram Parveen Bilal"
  ],
  "screenwriter": [
    "Iram Parveen Bilal",
    "Раджив Дассани",
    "Uttam Sirur"
  ],
  "producer": [
    "Iram Parveen Bilal",
    "Фаран Таир",
    "Майкл Фицджералд"
  ],
  "operator": [
    "Anthony C. Kuhnz"
  ],
  "composer": [
    "Faisal Baig",
    "Ahsan Bari",
    "Cion Collective"
  ],
  "design": [
    "Майкл Фицджералд",
    "Люк Карр",
    "Амина Хаддад"
  ],
  "editor": [
    "Кери Кофлин",
    "Спенс Николсон"
  ],
  "actors": [
    "Фаран Таир",
    "Шитал Шетх",
    "Самрат Чакрабарти",
    "Шоун Парсонс",
    "Аниша Джоши",
    "Rachit Trehan",
    "Нитин Мадан",
    "Майкл Пембертон",
    "Nikita Tewani",
    "Эллисон МакКэй"
  ],
  "actors_dubl": [],
  "trivia": [],
  "trailers": [],
  "seasons": [],
  "voiceActing": [
    "Рус. Люб. многоголосый"
  ],
  "subtitle": [],
  "parts": []
}
