{
  "id": 8203,
  "name": "Код «Синий»",
  "name_eng": "Code Blue the Movie",
  "year": 2018,
  "slogan": "—",
  "age": "12+",
  "type": "film",
  "quality": "HD (720p)",
  "imdb": "6.4",
  "imdb_id": "7731512",
  "kinopoisk": null,
  "kinopoisk_id": "1112188",
  "world_art": null,
  "world_art_id": null,
  "time": "127 мин. / 02:07",
  "ads": true,
  "premier": "2018-07-27",
  "premier_rus": null,
  "availability": null,
  "activate_time": "2019-04-26 17:10:13",
  "budget": "",
  "fees_use": "",
  "fees_world": "$78 778 562",
  "fees_rus": "",
  "rate_mpaa": "",
  "description": "Группа экстренной медицинской помощи отправляется на помощь раненым в авариях в аэропорту Нарита и на парковке Умихотару.",
  "iframe_url": "",
  "iframe_poster": "https://img.imgilall.me/movies/video/8/7/2/5/5/0/0/0/0/0/800x450_87255.jpeg",
  "poster": "https://img.imgilall.me/movies/franchise/8/2/0/3/0/0/0/0/0/0/610x900_8203.jpg",
  "country": {
    "18": "Япония"
  },
  "collection": [],
  "genre": {
    "10": "Зарубежный",
    "7": "Драма"
  },
  "director": [],
  "screenwriter": [],
  "producer": [],
  "operator": [],
  "composer": [],
  "design": [],
  "editor": [],
  "actors": [
    "Томохиса Ямасита",
    "Юи Арагаки",
    "Эрика Тода",
    "Манами Хига",
    "Ёсукэ Асари",
    "Масанобу Андо",
    "Юко Араки",
    "Даики Ариока",
    "Фумика Баба",
    "Чак Джонсон"
  ],
  "actors_dubl": [],
  "trivia": [],
  "trailers": [],
  "seasons": [],
  "voiceActing": [
    "Рус. Люб. многоголосый"
  ],
  "subtitle": [],
  "parts": []
}
