{
  "id": 7349,
  "name": "Когда солнце встречает луну",
  "name_eng": "Mou ri mou yue",
  "year": 2018,
  "slogan": "—",
  "age": "12+",
  "type": "film",
  "quality": "HD (720p)",
  "imdb": "6.1",
  "imdb_id": "8386710",
  "kinopoisk": null,
  "kinopoisk_id": "1115034",
  "world_art": null,
  "world_art_id": null,
  "time": "100 мин. / 01:40",
  "ads": true,
  "premier": "2018-05-10",
  "premier_rus": null,
  "availability": null,
  "activate_time": "2019-04-04 09:46:12",
  "budget": null,
  "fees_use": null,
  "fees_world": null,
  "fees_rus": null,
  "rate_mpaa": null,
  "description": "Судьба сводит Сон Чоу и Мун Вон, когда во всем городе пропало электричество и остался только свет звёзд. Они влюбляются друг в друга, но мама Мун категорически против их отношений, считая парня недостойным своей дочери. Она делает так, чтобы Сон перевёлся в другую школу.",
  "iframe_url": "",
  "iframe_poster": "https://img.imgilall.me/movies/video/7/8/2/6/4/0/0/0/0/0/800x450_78264.jpeg",
  "poster": "https://img.imgilall.me/movies/franchise/7/3/4/9/0/0/0/0/0/0/610x900_7349.jpg",
  "country": {
    "12": "Гонконг"
  },
  "collection": [],
  "genre": {
    "10": "Зарубежный",
    "8": "Мелодрама"
  },
  "director": [
    "Бенни Лау"
  ],
  "screenwriter": [],
  "producer": [],
  "operator": [],
  "composer": [],
  "design": [],
  "editor": [],
  "actors": [
    "Кэти Юэнь",
    "Даити Харасима"
  ],
  "actors_dubl": [],
  "trivia": [],
  "trailers": [],
  "seasons": [],
  "voiceActing": [
    "Рус. Люб. многоголосый"
  ],
  "subtitle": [],
  "parts": []
}
