{
  "id": 11799,
  "name": "Вместе поневоле",
  "name_eng": "Jabariya Jodi",
  "year": 2019,
  "slogan": "—",
  "age": null,
  "type": "film",
  "quality": "HD (720p)",
  "imdb": "4.4",
  "imdb_id": "8785426",
  "kinopoisk": null,
  "kinopoisk_id": "1178748",
  "world_art": null,
  "world_art_id": null,
  "time": "125 мин. / 02:05",
  "ads": true,
  "premier": "2019-08-09",
  "premier_rus": "2019-08-10",
  "availability": "2019-08-11",
  "activate_time": "2019-10-30 16:50:00",
  "budget": "",
  "fees_use": "",
  "fees_world": "",
  "fees_rus": "",
  "rate_mpaa": "",
  "description": "Бандит Абхай помогает родителям невест с похищением ничего не подозревающих женихов, чтобы им не приходилось отдавать приданое, а потом устраевает им свадьбу. Такой семейный бизнес \"Браков по принуждению\" процветает уже долгие годы. Но давняя, но не забытая дестская любовь Абхайя пробуждает в нем новые эмоции и заставляет пересмотреть взгляды на жизнь.\r\n",
  "iframe_url": "",
  "iframe_poster": null,
  "poster": "https://img.imgilall.me/movies/franchise/1/1/7/9/9/0/0/0/0/0/610x900_11799.jpg",
  "country": {
    "26": "Индия"
  },
  "collection": [],
  "genre": {
    "19": "Комедия",
    "17": "Боевик",
    "8": "Мелодрама",
    "7": "Драма"
  },
  "director": [
    "Прашант Сингх"
  ],
  "screenwriter": [
    "Санджив к Джха"
  ],
  "producer": [
    "Экта Капур",
    "Шобха Капур",
    "Akash Singh Bhadauriya"
  ],
  "operator": [],
  "composer": [
    "Tanishk Bagchi",
    "Joel Crasto",
    "Rashmi Gulati"
  ],
  "design": [
    "Париджат Поддар",
    "Раджат Поддар",
    "Gopal"
  ],
  "editor": [
    "Dev Rao Jadhav"
  ],
  "actors": [
    "Сидхарт Мальхотра",
    "Паринити Чопра",
    "Джавед Джеффри",
    "Санджай Мишра",
    "Апаршакти Хурана",
    "Aryaan Arora",
    "Элли Аврам",
    "Mohit Baghel",
    "Kritika Buden",
    "Шиба Чадха"
  ],
  "actors_dubl": [],
  "trivia": [],
  "trailers": [],
  "seasons": [],
  "voiceActing": [
    "Рус. Люб. многоголосый"
  ],
  "subtitle": [],
  "parts": []
}
