{
  "id": 15850,
  "name": "Клуб обманутых жен",
  "name_eng": "",
  "year": 2018,
  "slogan": "—",
  "age": "12+",
  "type": "series",
  "quality": "FHD (1080p)",
  "imdb": null,
  "imdb_id": null,
  "kinopoisk": "6.4",
  "kinopoisk_id": "1159407",
  "world_art": null,
  "world_art_id": null,
  "time": "45 мин. серия (180 мин. всего)",
  "ads": false,
  "premier": null,
  "premier_rus": "2018-06-12",
  "availability": null,
  "serial_status": "offline",
  "activate_time": "2020-03-15 19:30:00",
  "budget": null,
  "fees_use": null,
  "fees_world": null,
  "fees_rus": null,
  "rate_mpaa": null,
  "description": "Оля, Иза и Даша пережили предательство своих мужей. Личные обстоятельства привели их на тренинг по «преодолению кризиса в личной жизни». Но, поняв, что тренинг им не поможет, они решают взять дело по «спасению утопающих» в собственные руки!  Олю, Изу и Дашу ничего не связывало в прошлой жизни. Они понимают, что могут помочь друг другу решить все свои проблемы, не вызвав подозрения у мужей и знакомых.  Обманутые жены решают воспользоваться классическим приемом детективного жанра - «убийство по обмену». Операция «Клуб обманутых жен» начинается!..",
  "iframe_url": "",
  "poster": "https://img.imgilall.me/movies/franchise/1/5/8/5/0/0/0/0/0/0/610x900_15850.jpg",
  "country": {
    "5": "Россия"
  },
  "collection": {
    "11": "Для женщин"
  },
  "genre": {
    "24": "Детектив",
    "8": "Мелодрама"
  },
  "director": [
    "Елена Яковлева"
  ],
  "screenwriter": [
    "Кирилл Олюшкин",
    "Марина Шихалеева"
  ],
  "producer": [
    "Александр Кушаев",
    "Ирина Смирнова",
    "Илья Папернов"
  ],
  "operator": [
    "Кирилл Сперанский"
  ],
  "composer": [
    "Александр Тремейн"
  ],
  "design": [
    "Денис Чернышев",
    "Елена Петрунина"
  ],
  "editor": [
    "Роман Рыбин"
  ],
  "actors": [
    "Любава Грешнова",
    "Светлана Колпакова",
    "Елена Вожакина",
    "Роман Полянский",
    "Сергей Рудзевич",
    "Павел Крайнов",
    "Александр Давыдов",
    "Алёна Коломина",
    "Максим Житник",
    "Лиза Измайлова"
  ],
  "actors_dubl": [],
  "trivia": [],
  "trailers": [],
  "seasons": [
    {
      "poster": null,
      "release_ru": null,
      "release_world": null,
      "availability": null,
      "iframe_url": "",
      "season": 1,
      "episodes": [
        {
          "episode": 1,
          "name": null,
          "iframe_url": "",
          "iframe_poster": null,
          "release_ru": null,
          "release_world": null,
          "availability": null,
          "voiceActing": [
            "Рус. Оригинальный"
          ],
          "ads": false,
          "subtitle": []
        },
        {
          "episode": 2,
          "name": null,
          "iframe_url": "",
          "iframe_poster": null,
          "release_ru": null,
          "release_world": null,
          "availability": null,
          "voiceActing": [
            "Рус. Оригинальный"
          ],
          "ads": false,
          "subtitle": []
        }
      ]
    }
  ],
  "voiceActing": [
    "Рус. Оригинальный"
  ],
  "subtitle": [],
  "parts": []
}
