{
  "id": 12464,
  "name": "Скрытое",
  "name_eng": "Hidden / Craith",
  "year": 2018,
  "slogan": "—",
  "age": null,
  "type": "series",
  "quality": "HD (720p)",
  "imdb": "7.3",
  "imdb_id": "7217374",
  "kinopoisk": "6.4",
  "kinopoisk_id": "1111992",
  "world_art": null,
  "world_art_id": null,
  "time": "60 мин",
  "ads": true,
  "premier": "2018-01-07",
  "premier_rus": null,
  "availability": null,
  "serial_status": "offline",
  "activate_time": "2019-11-22 17:50:00",
  "budget": null,
  "fees_use": null,
  "fees_world": null,
  "fees_rus": null,
  "rate_mpaa": null,
  "description": "Кади Джон отправляется на север Уэльса, чтобы навестить отца и помочь ему перенести сложный период в жизни. Тот болен, поэтому помощь дочери ему крайне необходима. Кади приходится оставить работу инспектора на время отъёзда, однако очередное дело само её находит. Неподалёку от городка, в котором проживает отец Кади, было совершено убийство. Близ местной реки обнаруживают тело неизвестной молодой девушки. Кади решает разобраться.",
  "iframe_url": "",
  "poster": "https://img.imgilall.me/movies/franchise/1/2/4/6/4/0/0/0/0/0/610x900_12464.jpg",
  "country": {
    "2": "Великобритания"
  },
  "collection": [],
  "genre": {
    "25": "Криминал",
    "24": "Детектив",
    "13": "Триллер",
    "7": "Драма"
  },
  "director": [
    "Гарет Брин",
    "Крис Форстер",
    "Andy Newbery"
  ],
  "screenwriter": [
    "Марк Эндрю",
    "Кэрил Льюис",
    "Джеймс Рурк"
  ],
  "producer": [
    "Эд Талфан",
    "Ханна Томас",
    "Анна Эванс"
  ],
  "operator": [
    "Марк Уотерс",
    "Стюарт Биддлкомб",
    "Ståle Bratsberg"
  ],
  "composer": [
    "Виктория Эшфилд",
    "Сэмюэл Барнс",
    "Джон Е.Р. Харди"
  ],
  "design": [
    "Том Пирс",
    "Хейден Мэтьюз",
    "Carwyn Evans"
  ],
  "editor": [
    "Ангхарад Оуэн",
    "Сара Джонс",
    "Тим Ходжес"
  ],
  "actors": [
    "Шан Риз-Уильямс",
    "Сион Алан Дэвис",
    "Виктория Паг",
    "Ниа Робертс",
    "Лори Иззард",
    "Гармон Риз",
    "Сара Темпест",
    "Родри Мейлир",
    "Гвинет Киворт",
    "Джиллиан Элиза"
  ],
  "actors_dubl": [],
  "trivia": [],
  "trailers": [],
  "seasons": [
    {
      "poster": null,
      "release_ru": null,
      "release_world": null,
      "availability": null,
      "iframe_url": "",
      "season": 1,
      "episodes": [
        {
          "episode": 1,
          "name": null,
          "iframe_url": "",
          "iframe_poster": null,
          "release_ru": null,
          "release_world": null,
          "availability": null,
          "voiceActing": [
            "NewStudio",
            "Eng.Original"
          ],
          "ads": true,
          "subtitle": []
        },
        {
          "episode": 2,
          "name": null,
          "iframe_url": "",
          "iframe_poster": null,
          "release_ru": null,
          "release_world": null,
          "availability": null,
          "voiceActing": [
            "NewStudio",
            "Eng.Original"
          ],
          "ads": true,
          "subtitle": []
        },
        {
          "episode": 3,
          "name": null,
          "iframe_url": "",
          "iframe_poster": null,
          "release_ru": null,
          "release_world": null,
          "availability": null,
          "voiceActing": [
            "NewStudio",
            "Eng.Original"
          ],
          "ads": true,
          "subtitle": []
        },
        {
          "episode": 4,
          "name": null,
          "iframe_url": "",
          "iframe_poster": null,
          "release_ru": null,
          "release_world": null,
          "availability": null,
          "voiceActing": [
            "NewStudio",
            "Eng.Original"
          ],
          "ads": true,
          "subtitle": []
        },
        {
          "episode": 5,
          "name": null,
          "iframe_url": "",
          "iframe_poster": null,
          "release_ru": null,
          "release_world": null,
          "availability": null,
          "voiceActing": [
            "NewStudio",
            "Eng.Original"
          ],
          "ads": true,
          "subtitle": []
        },
        {
          "episode": 6,
          "name": null,
          "iframe_url": "",
          "iframe_poster": null,
          "release_ru": null,
          "release_world": null,
          "availability": null,
          "voiceActing": [
            "NewStudio",
            "Eng.Original"
          ],
          "ads": true,
          "subtitle": []
        },
        {
          "episode": 7,
          "name": null,
          "iframe_url": "",
          "iframe_poster": null,
          "release_ru": null,
          "release_world": null,
          "availability": null,
          "voiceActing": [
            "NewStudio",
            "Eng.Original"
          ],
          "ads": true,
          "subtitle": []
        },
        {
          "episode": 8,
          "name": null,
          "iframe_url": "",
          "iframe_poster": null,
          "release_ru": null,
          "release_world": null,
          "availability": null,
          "voiceActing": [
            "NewStudio",
            "Eng.Original"
          ],
          "ads": true,
          "subtitle": []
        }
      ]
    },
    {
      "poster": null,
      "release_ru": null,
      "release_world": null,
      "availability": null,
      "iframe_url": "",
      "season": 2,
      "episodes": [
        {
          "episode": 1,
          "name": null,
          "iframe_url": "",
          "iframe_poster": null,
          "release_ru": null,
          "release_world": null,
          "availability": null,
          "voiceActing": [
            "IdeaFilm"
          ],
          "ads": true,
          "subtitle": []
        },
        {
          "episode": 2,
          "name": null,
          "iframe_url": "",
          "iframe_poster": null,
          "release_ru": "2019-11-24",
          "release_world": "2019-11-24",
          "availability": "2019-11-24",
          "voiceActing": [
            "IdeaFilm"
          ],
          "ads": true,
          "subtitle": []
        },
        {
          "episode": 3,
          "name": null,
          "iframe_url": "",
          "iframe_poster": null,
          "release_ru": "2019-12-01",
          "release_world": "2019-12-01",
          "availability": "2019-12-01",
          "voiceActing": [
            "IdeaFilm"
          ],
          "ads": true,
          "subtitle": []
        },
        {
          "episode": 4,
          "name": null,
          "iframe_url": "",
          "iframe_poster": null,
          "release_ru": "2019-12-08",
          "release_world": "2019-12-08",
          "availability": "2019-12-08",
          "voiceActing": [
            "IdeaFilm"
          ],
          "ads": true,
          "subtitle": []
        },
        {
          "episode": 5,
          "name": null,
          "iframe_url": "",
          "iframe_poster": null,
          "release_ru": "2019-12-15",
          "release_world": "2019-12-15",
          "availability": "2019-12-17",
          "voiceActing": [
            "IdeaFilm"
          ],
          "ads": true,
          "subtitle": []
        },
        {
          "episode": 6,
          "name": null,
          "iframe_url": "",
          "iframe_poster": null,
          "release_ru": "2019-12-22",
          "release_world": "2019-12-22",
          "availability": "2019-12-24",
          "voiceActing": [
            "IdeaFilm"
          ],
          "ads": true,
          "subtitle": []
        }
      ]
    },
    {
      "poster": null,
      "release_ru": null,
      "release_world": null,
      "availability": null,
      "iframe_url": "",
      "season": 3,
      "episodes": [
        {
          "episode": 1,
          "name": null,
          "iframe_url": "",
          "iframe_poster": null,
          "release_ru": null,
          "release_world": null,
          "availability": null,
          "voiceActing": [
            "Original"
          ],
          "ads": false,
          "subtitle": [
            "Eng. full"
          ]
        },
        {
          "episode": 2,
          "name": null,
          "iframe_url": "",
          "iframe_poster": null,
          "release_ru": null,
          "release_world": null,
          "availability": null,
          "voiceActing": [
            "Original"
          ],
          "ads": false,
          "subtitle": [
            "Eng. full"
          ]
        },
        {
          "episode": 3,
          "name": null,
          "iframe_url": "",
          "iframe_poster": null,
          "release_ru": null,
          "release_world": null,
          "availability": null,
          "voiceActing": [
            "Original"
          ],
          "ads": false,
          "subtitle": [
            "Eng. full"
          ]
        },
        {
          "episode": 4,
          "name": null,
          "iframe_url": "",
          "iframe_poster": null,
          "release_ru": null,
          "release_world": null,
          "availability": null,
          "voiceActing": [
            "Original"
          ],
          "ads": false,
          "subtitle": [
            "Eng. full"
          ]
        },
        {
          "episode": 5,
          "name": null,
          "iframe_url": "",
          "iframe_poster": null,
          "release_ru": null,
          "release_world": null,
          "availability": null,
          "voiceActing": [
            "Original"
          ],
          "ads": false,
          "subtitle": [
            "Eng. full"
          ]
        }
      ]
    }
  ],
  "voiceActing": [
    "NewStudio",
    "Eng.Original",
    "IdeaFilm",
    "Original"
  ],
  "subtitle": [
    "Eng. full"
  ],
  "parts": []
}
