{
  "id": 43611,
  "name": "Крис Рок: Бубен",
  "name_eng": "Chris Rock: Tamborine",
  "year": 2018,
  "slogan": "—",
  "age": null,
  "type": "film",
  "quality": "FHD (1080p)",
  "imdb": "6.6",
  "imdb_id": "8005338",
  "kinopoisk": "6.8",
  "kinopoisk_id": "1112639",
  "world_art": null,
  "world_art_id": null,
  "time": "64 мин. / 01:04",
  "ads": false,
  "premier": "2018-02-14",
  "premier_rus": "2018-02-15",
  "availability": "2018-02-16",
  "activate_time": "2021-01-14 19:54:00",
  "budget": null,
  "fees_use": null,
  "fees_world": null,
  "fees_rus": null,
  "rate_mpaa": null,
  "description": null,
  "iframe_url": "",
  "iframe_poster": null,
  "poster": "https://img.imgilall.me/movies/franchise/4/3/6/1/1/0/0/0/0/0/610x900_43611.jpg",
  "country": {
    "1": "США"
  },
  "collection": {
    "40": "Netflix"
  },
  "genre": {
    "54": "Документальный",
    "19": "Комедия"
  },
  "director": [
    "Бо Бёрнэм"
  ],
  "screenwriter": [
    "Крис Рок"
  ],
  "producer": [
    "Майкл Амодио",
    "Нил Бреннан",
    "Мэттью Клэйбрукс"
  ],
  "operator": [
    "Эндрю Виде"
  ],
  "composer": [],
  "design": [
    "Марк Яновиц"
  ],
  "editor": [
    "Майкл Шульц"
  ],
  "actors": [
    "Крис Рок"
  ],
  "actors_dubl": [],
  "trivia": [],
  "trailers": [],
  "seasons": [],
  "voiceActing": [
    "Рус. хардсаб"
  ],
  "subtitle": [],
  "parts": []
}
