{
  "id": 16061,
  "name": "Токийский гуль S",
  "name_eng": "Tokyo Ghoul S",
  "year": 2019,
  "slogan": "—",
  "age": "16+",
  "type": "film",
  "quality": "FHD (1080p)",
  "imdb": "5.3",
  "imdb_id": "9179260",
  "kinopoisk": "5.9",
  "kinopoisk_id": "1195672",
  "world_art": null,
  "world_art_id": null,
  "time": "97 мин. / 01:37",
  "ads": false,
  "premier": "2019-06-11",
  "premier_rus": "2019-06-12",
  "availability": "2019-06-13",
  "activate_time": "2020-03-25 23:34:00",
  "budget": null,
  "fees_use": null,
  "fees_world": "$2 000 000",
  "fees_rus": null,
  "rate_mpaa": null,
  "description": "Студент Кэн Канэки жутко переживает из-за своей нынешней сущности - наполовину гуль, наполовину человек. Чтобы не пересекаться с другими гулями, он почти всё время проводит в кафе «Антик» с Токой Кирисимой, но однажды гуль по кличке Гурман заходит к ним на огонёк.",
  "iframe_url": "",
  "iframe_poster": null,
  "poster": "https://img.imgilall.me/movies/franchise/1/6/0/6/1/0/0/0/0/0/610x900_16061.jpg",
  "country": {
    "18": "Япония"
  },
  "collection": [],
  "genre": {
    "26": "Ужасы",
    "11": "Фантастика",
    "17": "Боевик",
    "13": "Триллер"
  },
  "director": [
    "Кадзухико Хирамаки",
    "Такуя Кавасаки"
  ],
  "screenwriter": [
    "Тюдзи Микасано",
    "Суи Исида"
  ],
  "producer": [
    "Даисукэ Фукусима",
    "Томохиро Нагаэ",
    "Дзюн Такахаси"
  ],
  "operator": [
    "Мицуру Комияма"
  ],
  "composer": [
    "Наруёси Кикути",
    "Томоми Ода"
  ],
  "design": [
    "Хироясу Коидзуми",
    "Кадзуми Хосино",
    "Масанори Морикава"
  ],
  "editor": [
    "Акира Такэда"
  ],
  "actors": [
    "Масатака Кубота",
    "Майка Ямамото",
    "Нобуюки Судзуки",
    "Каи Огасавара",
    "Сюнъя Сираиси",
    "Маи Кирю",
    "Нана Мори",
    "Хиёри Сакурада",
    "Кунио Мураи",
    "Кан Джи-ён"
  ],
  "actors_dubl": [],
  "trivia": [],
  "trailers": [],
  "seasons": [],
  "voiceActing": [
    "Рус. Люб. двухголосый",
    "Рус. Люб. одноголосый"
  ],
  "subtitle": [],
  "parts": [
    16060,
    16061
  ]
}
