{
  "id": 34860,
  "name": "Это ты?",
  "name_eng": "¿Eres tú, papá?",
  "year": 2018,
  "slogan": "«Real Fear in Cuba»",
  "age": null,
  "type": "film",
  "quality": "HD (720p)",
  "imdb": "5.6",
  "imdb_id": "7353454",
  "kinopoisk": null,
  "kinopoisk_id": "1119542",
  "world_art": null,
  "world_art_id": null,
  "time": "107 мин. / 01:47",
  "ads": true,
  "premier": "2018-09-13",
  "premier_rus": "2019-03-28",
  "availability": "2019-03-29",
  "activate_time": "2020-06-29 12:44:00",
  "budget": null,
  "fees_use": null,
  "fees_world": null,
  "fees_rus": null,
  "rate_mpaa": null,
  "description": null,
  "iframe_url": "",
  "iframe_poster": null,
  "poster": "https://img.imgilall.me/movies/franchise/3/4/8/6/0/0/0/0/0/0/610x900_34860.jpg",
  "country": {
    "2": "Великобритания"
  },
  "collection": [],
  "genre": {
    "26": "Ужасы"
  },
  "director": [
    "Rudy Riverón Sánchez"
  ],
  "screenwriter": [
    "Rudy Riverón Sánchez"
  ],
  "producer": [
    "Эмма Беркофски",
    "Marina Barabanova",
    "Reymel Delgado"
  ],
  "operator": [
    "Рауль Перес Урета"
  ],
  "composer": [
    "Owain Kelly",
    "James Williams"
  ],
  "design": [
    "Онелио Ларральде",
    "Yudith Dominguez Mazorra"
  ],
  "editor": [
    "Rudy Riverón Sánchez",
    "Аврора Фёгели"
  ],
  "actors": [
    "Габриэла Рамос",
    "Хорхе Энрике Кабальеро",
    "Линн Крус",
    "Освальдо Доимеадиос",
    "Эслинда Нуньес"
  ],
  "actors_dubl": [],
  "trivia": [],
  "trailers": [],
  "seasons": [],
  "voiceActing": [
    "Рус. Люб. многоголосый"
  ],
  "subtitle": [],
  "parts": []
}
