{
  "id": 47431,
  "name": "Бегущая в лабиринте",
  "name_eng": "Meander",
  "year": 2020,
  "slogan": "«Что скрывает другой мир?»",
  "age": "18+",
  "type": "film",
  "quality": "FHD (1080p)",
  "imdb": "5.7",
  "imdb_id": "5752192",
  "kinopoisk": "5.2",
  "kinopoisk_id": "1147971",
  "world_art": null,
  "world_art_id": null,
  "time": "90 мин. / 01:30",
  "ads": false,
  "premier": "2020-10-11",
  "premier_rus": "2021-07-15",
  "availability": "2021-07-16",
  "activate_time": "2021-05-29 14:58:00",
  "budget": null,
  "fees_use": null,
  "fees_world": "$698 361",
  "fees_rus": "$80 527",
  "rate_mpaa": null,
  "description": "Попавшая в аварию девушка просыпается в огромном лабиринте, населенном фантастическими тварями. Теперь она вместе с другими незнакомцами участвует в смертельно опасной игре. Каждые семь минут целые секции лабиринта схлопываются, и не успевшие найти решение остаются в нем навсегда. Единственный шанс спастись — никогда не останавливаться.",
  "iframe_url": "",
  "iframe_poster": null,
  "poster": "https://img.imgilall.me/movies/franchise/4/7/4/3/1/0/0/0/0/0/610x900_47431.jpg",
  "country": {
    "9": "Франция"
  },
  "collection": [],
  "genre": {
    "26": "Ужасы",
    "11": "Фантастика",
    "13": "Триллер"
  },
  "director": [
    "Матьё Тури"
  ],
  "screenwriter": [
    "Матьё Тури"
  ],
  "producer": [
    "Жюльен Дери",
    "Давид Гоки",
    "Эрик Жандарм"
  ],
  "operator": [
    "Ален Дюплантье"
  ],
  "composer": [
    "Фредерик Пурье"
  ],
  "design": [
    "Тьерри Жолен",
    "Рашель Кармби"
  ],
  "editor": [
    "Джоэль Джаковелла"
  ],
  "actors": [
    "Гайя Уайсс",
    "Петер Францен",
    "Роман Либер",
    "Фредерик Франкитти",
    "Корнелиу Драгомиреску",
    "Эва Нивдански",
    "Карл Лафоре",
    "Анри Бенард",
    "Фабьен Уссе",
    "Olympe Turi"
  ],
  "actors_dubl": [
    "Анастасия Жаркова",
    "Владимир Паляница",
    "Олеся Ржевцева",
    "Владимир Рыбальченко",
    "Наталья Долгова"
  ],
  "trivia": [],
  "trailers": [],
  "seasons": [],
  "voiceActing": [
    "Рус. Дублированный",
    "Fr. Original"
  ],
  "subtitle": [
    "Рус. форсированные"
  ],
  "parts": []
}
