{
  "id": 9511,
  "name": "Вратарь",
  "name_eng": "Goalie",
  "year": 2019,
  "slogan": "—",
  "age": "16+",
  "type": "film",
  "quality": "HD (720p)",
  "imdb": "5.9",
  "imdb_id": "8243286",
  "kinopoisk": null,
  "kinopoisk_id": "1146645",
  "world_art": null,
  "world_art_id": null,
  "time": "111 мин. / 01:51",
  "ads": true,
  "premier": "2019-03-01",
  "premier_rus": "2019-03-02",
  "availability": "2019-03-03",
  "activate_time": "2019-06-18 14:28:44",
  "budget": "",
  "fees_use": "",
  "fees_world": "",
  "fees_rus": "",
  "rate_mpaa": "",
  "description": "События развиваются вокруг легендарного канадского хоккеиста украинского происхождения Терри Савчука, которого признали одним из лучших вратарей в истории НХЛ. За годы своей спортивной карьеры он успел четыре раза завоевать Кубок Стэнли и получить множество индивидуальных наград, однако за пределами ледовой арены Савчук превращался в совсем другого человека. В детстве Терри пережил ужасную трагедию, что наложило отпечаток на всю его дальнейшую жизнь, а пришедшая слава смогла лишь ненадолго заполнить ту пустоту, которая преследовала его...",
  "iframe_url": "",
  "iframe_poster": "https://img.imgilall.me/movies/video/9/8/5/1/9/0/0/0/0/0/800x450_98519.jpeg",
  "poster": "https://img.imgilall.me/movies/franchise/9/5/1/1/0/0/0/0/0/0/610x900_9511.jpg",
  "country": {
    "7": "Канада"
  },
  "collection": {
    "78": "Биографии",
    "76": "Про спорт"
  },
  "genre": {
    "27": "Биографический",
    "23": "Спортивный",
    "10": "Зарубежный",
    "7": "Драма"
  },
  "director": [
    "Адриана Маггс"
  ],
  "screenwriter": [
    "Адриана Маггс",
    "Джейн Маггс"
  ],
  "producer": [
    "Дэниэл Айрон",
    "Танназ Аниси",
    "Росс Мэриэн"
  ],
  "operator": [
    "Джейсон Тан"
  ],
  "composer": [],
  "design": [
    "Joseph Kabbach",
    "Шон Мур",
    "Кендра Терпеннинг"
  ],
  "editor": [
    "Симон Смит"
  ],
  "actors": [
    "Марк О’Брайэн",
    "Кевин Поллак",
    "Джорджина Рейли",
    "Эрик Брюно",
    "Стив Байерс",
    "Тед Атертон",
    "Жанин Терио",
    "Owen Maggs",
    "Мэтт Гордон",
    "Джонни Харрис"
  ],
  "actors_dubl": [],
  "trivia": [],
  "trailers": [],
  "seasons": [],
  "voiceActing": [
    "Octopus"
  ],
  "subtitle": [],
  "parts": []
}
