{
  "id": 42732,
  "name": "Шифр",
  "name_eng": "Cypher",
  "year": 2020,
  "slogan": "—",
  "age": null,
  "type": "series",
  "quality": "HD (720p)",
  "imdb": "6.4",
  "imdb_id": "7759130",
  "kinopoisk": null,
  "kinopoisk_id": "1123370",
  "world_art": null,
  "world_art_id": null,
  "time": "—",
  "ads": true,
  "premier": "2021-03-19",
  "premier_rus": null,
  "availability": null,
  "serial_status": "offline",
  "activate_time": "2020-12-07 11:52:00",
  "budget": null,
  "fees_use": null,
  "fees_world": null,
  "fees_rus": null,
  "rate_mpaa": null,
  "description": null,
  "iframe_url": "",
  "poster": "https://img.imgilall.me/movies/franchise/4/2/7/3/2/0/0/0/0/0/610x900_42732.jpg",
  "country": [],
  "collection": [],
  "genre": {
    "25": "Криминал",
    "24": "Детектив",
    "17": "Боевик",
    "7": "Драма"
  },
  "director": [
    "Majdi Smiri"
  ],
  "screenwriter": [
    "Mohamed Sayed Bisheer",
    "Виктор Мэтью",
    "Majdi Smiri"
  ],
  "producer": [
    "Стив Чикорел",
    "Bobby Emprechtinger",
    "Fakhreddine Essraoulia"
  ],
  "operator": [
    "Karim Chalghoum"
  ],
  "composer": [],
  "design": [
    "Брандо МакКлюр",
    "Роберт Уайз",
    "Кэролайн Дарье"
  ],
  "editor": [
    "Ahmed Yousry",
    "Fakhreddine Amri",
    "Шериф Абдин"
  ],
  "actors": [
    "Мартин Дингл Уолл",
    "Брайан Краузе",
    "Ив Мауро",
    "Жаклин Хейлс",
    "Lauren Gravitt",
    "John J. Jordan",
    "Мэри Хелен Шмидт",
    "Harley Nathan Berg",
    "Дарио А. Ли",
    "Сабрина Лок"
  ],
  "actors_dubl": [],
  "trivia": [],
  "trailers": [],
  "seasons": [
    {
      "poster": null,
      "release_ru": null,
      "release_world": null,
      "availability": null,
      "iframe_url": "",
      "season": 1,
      "episodes": [
        {
          "episode": 1,
          "name": null,
          "iframe_url": "",
          "iframe_poster": null,
          "release_ru": null,
          "release_world": null,
          "availability": null,
          "voiceActing": [
            "Ultradox"
          ],
          "ads": true,
          "subtitle": []
        },
        {
          "episode": 2,
          "name": null,
          "iframe_url": "",
          "iframe_poster": null,
          "release_ru": null,
          "release_world": null,
          "availability": null,
          "voiceActing": [
            "Ultradox"
          ],
          "ads": true,
          "subtitle": []
        },
        {
          "episode": 3,
          "name": null,
          "iframe_url": "",
          "iframe_poster": null,
          "release_ru": null,
          "release_world": null,
          "availability": null,
          "voiceActing": [
            "Ultradox"
          ],
          "ads": true,
          "subtitle": []
        },
        {
          "episode": 4,
          "name": null,
          "iframe_url": "",
          "iframe_poster": null,
          "release_ru": null,
          "release_world": null,
          "availability": null,
          "voiceActing": [
            "Ultradox"
          ],
          "ads": true,
          "subtitle": []
        },
        {
          "episode": 5,
          "name": null,
          "iframe_url": "",
          "iframe_poster": null,
          "release_ru": null,
          "release_world": null,
          "availability": null,
          "voiceActing": [
            "Ultradox"
          ],
          "ads": true,
          "subtitle": []
        },
        {
          "episode": 6,
          "name": null,
          "iframe_url": "",
          "iframe_poster": null,
          "release_ru": null,
          "release_world": null,
          "availability": null,
          "voiceActing": [
            "Ultradox"
          ],
          "ads": true,
          "subtitle": []
        },
        {
          "episode": 7,
          "name": null,
          "iframe_url": "",
          "iframe_poster": null,
          "release_ru": null,
          "release_world": null,
          "availability": null,
          "voiceActing": [
            "Ultradox"
          ],
          "ads": true,
          "subtitle": []
        }
      ]
    }
  ],
  "voiceActing": [
    "Ultradox"
  ],
  "subtitle": [],
  "parts": []
}
