{
  "id": 22686,
  "name": "Инопланетный психоз",
  "name_eng": "Alien Psychosis",
  "year": 2018,
  "slogan": "—",
  "age": null,
  "type": "film",
  "quality": "HD (720p)",
  "imdb": "2.3",
  "imdb_id": "8327962",
  "kinopoisk": null,
  "kinopoisk_id": "1140730",
  "world_art": null,
  "world_art_id": null,
  "time": "67 мин. / 01:07",
  "ads": false,
  "premier": "2018-02-27",
  "premier_rus": "2018-02-28",
  "availability": "2018-03-01",
  "activate_time": "2020-06-11 10:26:00",
  "budget": null,
  "fees_use": null,
  "fees_world": null,
  "fees_rus": null,
  "rate_mpaa": null,
  "description": null,
  "iframe_url": "",
  "iframe_poster": null,
  "poster": "https://img.imgilall.me/movies/franchise/2/2/6/8/6/0/0/0/0/0/610x900_22686.jpg",
  "country": {
    "1": "США"
  },
  "collection": [],
  "genre": {
    "26": "Ужасы"
  },
  "director": [
    "Джейсон Миллс"
  ],
  "screenwriter": [
    "Джейсон Миллс"
  ],
  "producer": [
    "Джейсон Миллс",
    "Уоррен Кройл"
  ],
  "operator": [
    "Джейсон Миллс"
  ],
  "composer": [],
  "design": [],
  "editor": [
    "Джейсон Миллс"
  ],
  "actors": [
    "Стив Бэран",
    "Ли Томашевски",
    "Джексон Берлин",
    "Darren Andrichuk"
  ],
  "actors_dubl": [],
  "trivia": [],
  "trailers": [],
  "seasons": [],
  "voiceActing": [
    "Рус. Люб. многоголосый"
  ],
  "subtitle": [],
  "parts": []
}
