{
  "id": 33431,
  "name": "Железная дорога: Наше начало",
  "name_eng": "Kazokuiro",
  "year": 2018,
  "slogan": "—",
  "age": null,
  "type": "film",
  "quality": "HD (720p)",
  "imdb": "6.8",
  "imdb_id": "0",
  "kinopoisk": null,
  "kinopoisk_id": "1108729",
  "world_art": null,
  "world_art_id": null,
  "time": "120 мин. / 02:00",
  "ads": false,
  "premier": "2018-10-05",
  "premier_rus": "2018-10-06",
  "availability": "2018-10-07",
  "activate_time": "2020-07-15 15:28:00",
  "budget": null,
  "fees_use": null,
  "fees_world": null,
  "fees_rus": null,
  "rate_mpaa": null,
  "description": "Потерявшая мужа Акира решает вернуться в его родной город вместе с пасынком. Отец покойного супруга работает машинистом на железной дороге, и Акира решает воплотить мечту мужа и тоже стать машинистом.",
  "iframe_url": "",
  "iframe_poster": null,
  "poster": "https://img.imgilall.me/movies/franchise/3/3/4/3/1/0/0/0/0/0/610x900_33431.jpg",
  "country": {
    "18": "Япония"
  },
  "collection": [],
  "genre": {
    "7": "Драма"
  },
  "director": [
    "Ясухиро Ёсида"
  ],
  "screenwriter": [
    "Ясухиро Ёсида"
  ],
  "producer": [
    "Сюдзи Абэ"
  ],
  "operator": [],
  "composer": [],
  "design": [],
  "editor": [],
  "actors": [
    "Касуми Аримура",
    "Дзюн Кунимура",
    "Мунэтака Аоки",
    "Ицудзи Итао",
    "Хока Киносита",
    "Рюсэй Кияма",
    "Нанами Сакураба",
    "Марико Цуцуи"
  ],
  "actors_dubl": [],
  "trivia": [],
  "trailers": [],
  "seasons": [],
  "voiceActing": [
    "Рус. Люб. многоголосый"
  ],
  "subtitle": [],
  "parts": []
}
