{
  "id": 36453,
  "name": "Безмолвный талант",
  "name_eng": "The Silent Natural",
  "year": 2019,
  "slogan": "—",
  "age": null,
  "type": "film",
  "quality": "FHD (1080p)",
  "imdb": "6.2",
  "imdb_id": "6506478",
  "kinopoisk": null,
  "kinopoisk_id": "1103712",
  "world_art": null,
  "world_art_id": null,
  "time": "—",
  "ads": true,
  "premier": null,
  "premier_rus": null,
  "availability": null,
  "activate_time": "2020-08-27 11:34:00",
  "budget": "",
  "fees_use": "",
  "fees_world": "",
  "fees_rus": "",
  "rate_mpaa": "",
  "description": "Уильям Хой был одним из первых глухих бейсболистов Высшей лиги в 19 веке. Он ввел в игру жесты руками и преодолел множество препятствий, чтобы стать одним из величайших игроков своего времени.",
  "iframe_url": "",
  "iframe_poster": null,
  "poster": "https://img.imgilall.me/movies/franchise/3/6/4/5/3/0/0/0/0/0/610x900_36453.jpg",
  "country": {
    "1": "США"
  },
  "collection": [],
  "genre": {
    "33": "Семейный",
    "28": "Исторический",
    "27": "Биографический",
    "23": "Спортивный"
  },
  "director": [
    "Давид Ризотто"
  ],
  "screenwriter": [
    "Давид Ризотто",
    "Стив Сэнди"
  ],
  "producer": [
    "Ани Кид",
    "Брэнском Ричмонд",
    "Стив Сэнди"
  ],
  "operator": [],
  "composer": [],
  "design": [
    "Кристиан Рамирез",
    "Steven Hryciw",
    "Mathew Kent Lee"
  ],
  "editor": [
    "Терри Люкмайр"
  ],
  "actors": [
    "Энн Локхарт",
    "Сэм Дж. Джонс",
    "Кортни Гейнс",
    "Маршалл Р. Тиг",
    "Тайлер Мэйн",
    "Шири Дж. Уилсон",
    "Кэтлин Кинмонт",
    "Вернон Уэллс",
    "Бэрри Ливингстон",
    "Ричард Херд"
  ],
  "actors_dubl": [],
  "trivia": [],
  "trailers": [],
  "seasons": [],
  "voiceActing": [
    "Рус. Люб. многоголосый"
  ],
  "subtitle": [],
  "parts": []
}
