{
  "id": 42686,
  "name": "Марго и Марго",
  "name_eng": "La belle et la belle",
  "year": 2018,
  "slogan": "—",
  "age": null,
  "type": "film",
  "quality": "HD (720p)",
  "imdb": "5.5",
  "imdb_id": "6690176",
  "kinopoisk": null,
  "kinopoisk_id": "1113696",
  "world_art": null,
  "world_art_id": null,
  "time": "95 мин. / 01:35",
  "ads": true,
  "premier": "2018-03-14",
  "premier_rus": "2018-03-15",
  "availability": "2018-03-16",
  "activate_time": "2020-12-03 17:10:00",
  "budget": "",
  "fees_use": "",
  "fees_world": "",
  "fees_rus": "",
  "rate_mpaa": "",
  "description": "Сорокапятилетняя Марго — профессор истории и географии и живет в Лионе. Ее жизнь выверена и идеально распланирована. Однажды на вечеринке она знакомится с двадцатилетней тезкой. Юная Марго — студентка, которая предпочитает вечеринки и встречи с парнями учебе. Внезапно Марго-старшая понимает, что ее новая знакомая — это она сама в 20 лет. Эта случайная встреча со своим прошлым полностью меняет жизнь героини.",
  "iframe_url": "",
  "iframe_poster": null,
  "poster": "https://img.imgilall.me/movies/franchise/4/2/6/8/6/0/0/0/0/0/610x900_42686.jpg",
  "country": {
    "9": "Франция"
  },
  "collection": [],
  "genre": {
    "19": "Комедия"
  },
  "director": [
    "Софи Фийер"
  ],
  "screenwriter": [
    "Софи Фийер"
  ],
  "producer": [
    "Джули Сальвадор"
  ],
  "operator": [
    "Эммануэль Коллино"
  ],
  "composer": [
    "Каспер Виндинг"
  ],
  "design": [
    "Эммануэль де Шовиньи",
    "Кэрол Жерар"
  ],
  "editor": [
    "Валери Луазлё"
  ],
  "actors": [
    "Сандрин Киберлэн",
    "Агат Боницер",
    "Мельвиль Пупо",
    "Люси Деклозо",
    "Лоран Бато",
    "Тео Шольби",
    "Антони Палиотти",
    "Флоранс Мюллер",
    "Орели Дюпон",
    "Брижит Роюан"
  ],
  "actors_dubl": [],
  "trivia": [],
  "trailers": [],
  "seasons": [],
  "voiceActing": [
    "Рус. Люб. многоголосый"
  ],
  "subtitle": [],
  "parts": []
}
