{
  "id": 39945,
  "name": "Let's Have an Adventure",
  "name_eng": "",
  "year": 2017,
  "slogan": "—",
  "age": null,
  "type": "film",
  "quality": "HD (720p)",
  "imdb": "7.1",
  "imdb_id": "7551796",
  "kinopoisk": null,
  "kinopoisk_id": "1103647",
  "world_art": null,
  "world_art_id": null,
  "time": "74 мин. / 01:14",
  "ads": false,
  "premier": null,
  "premier_rus": null,
  "availability": null,
  "activate_time": "2020-10-30 20:54:00",
  "budget": "$3 000",
  "fees_use": null,
  "fees_world": null,
  "fees_rus": null,
  "rate_mpaa": null,
  "description": null,
  "iframe_url": "",
  "iframe_poster": null,
  "poster": "https://img.imgilall.me/movies/franchise/3/9/9/4/5/0/0/0/0/0/610x900_39945.jpg",
  "country": {
    "1": "США"
  },
  "collection": [],
  "genre": {
    "9": "Приключения",
    "19": "Комедия",
    "7": "Драма"
  },
  "director": [
    "Diego Brazzo"
  ],
  "screenwriter": [
    "Greg Poppa"
  ],
  "producer": [
    "Anna Marie Poppa",
    "Vincent Poppa"
  ],
  "operator": [],
  "composer": [],
  "design": [],
  "editor": [
    "Diego Brazzo"
  ],
  "actors": [
    "Greg Poppa",
    "Alina Woods",
    "Адам Данофф",
    "Lazaro Nunez",
    "Diego Brazzo",
    "Ryan Landis",
    "Benjamin Atkinson",
    "Jill Gerlach",
    "Taylor Yanulevich",
    "Gus Clark"
  ],
  "actors_dubl": [],
  "trivia": [],
  "trailers": [],
  "seasons": [],
  "voiceActing": [
    "Рус. Люб. многоголосый"
  ],
  "subtitle": [],
  "parts": []
}
