{
  "id": 10671,
  "name": "Крёстный отец Гарлема",
  "name_eng": "Godfather of Harlem",
  "year": 2019,
  "slogan": "—",
  "age": "18+",
  "type": "series",
  "quality": "FHD (1080p)",
  "imdb": "8.0",
  "imdb_id": "8080122",
  "kinopoisk": "8.2",
  "kinopoisk_id": "1115221",
  "world_art": null,
  "world_art_id": null,
  "time": "55 мин",
  "ads": false,
  "premier": "2019-09-29",
  "premier_rus": null,
  "availability": null,
  "serial_status": "paused",
  "activate_time": "2019-09-12 17:57:00",
  "budget": null,
  "fees_use": null,
  "fees_world": null,
  "fees_rus": null,
  "rate_mpaa": null,
  "description": "Криминальный босс Бампи Джонсон руководит торговлей наркотиками, подпольными казино и проституцией в Гарлеме.",
  "iframe_url": "",
  "poster": "https://img.imgilall.me/movies/franchise/1/0/6/7/1/0/0/0/0/0/610x900_10671.jpg",
  "country": {
    "1": "США"
  },
  "collection": {
    "39": "На реальных событиях",
    "21": "Для молодёжи",
    "19": "Про ограбления, аферы и мошенников"
  },
  "genre": {
    "25": "Криминал",
    "10": "Зарубежный",
    "7": "Драма"
  },
  "director": [
    "Джо Чаппелль",
    "Гильермо Наварро",
    "Эрнест Р. Дикерсон"
  ],
  "screenwriter": [
    "Resheida Brady",
    "Зак Калиг",
    "Moses Verneau"
  ],
  "producer": [
    "Крис Бренкето",
    "Джеймс Эйксон",
    "Пол Экштейн"
  ],
  "operator": [
    "Джек Доннелли",
    "Джей Фезер",
    "Крис Норр"
  ],
  "composer": [
    "Марк Айшем"
  ],
  "design": [
    "Дэн Ли",
    "Патрик Хоу",
    "Мигель Лопес-Кастильо"
  ],
  "editor": [
    "Эндрю Мондшейн",
    "Christopher Rand",
    "Сьюзэн Е. Морс"
  ],
  "actors": [
    "Форест Уитакер",
    "Найджел Тэтч",
    "Ильфенеш Хадера",
    "Люси Фрай",
    "Antoinette Crowe-Legacy",
    "Винсент Д’Онофрио",
    "Эрик Ларей Харви",
    "Рафи Гаврон",
    "Элвис Ноласко",
    "Demi Singleton"
  ],
  "actors_dubl": [],
  "trivia": [],
  "trailers": [
    {
      "name": "трейлер №1",
      "number": 1,
      "iframe_poster": "https://img.imgilall.me/movies/trailer/9/2/4/0/0/0/0/0/0/0/800x450_924.jpeg",
      "season": 1,
      "iframe_url": ""
    }
  ],
  "seasons": [
    {
      "poster": null,
      "release_ru": "2019-09-30",
      "release_world": "2019-09-29",
      "availability": "2019-10-01",
      "iframe_url": "",
      "season": 1,
      "episodes": [
        {
          "episode": 1,
          "name": "By Whatever Means Necessary",
          "iframe_url": "",
          "iframe_poster": null,
          "release_ru": "2019-09-30",
          "release_world": "2019-09-29",
          "availability": "2019-10-01",
          "voiceActing": [
            "Кириллица",
            "Eng.Original"
          ],
          "ads": false,
          "subtitle": [
            "Рус. полные"
          ]
        },
        {
          "episode": 2,
          "name": "The Nitty Gritty",
          "iframe_url": "",
          "iframe_poster": null,
          "release_ru": "2019-10-07",
          "release_world": "2019-10-06",
          "availability": "2019-10-08",
          "voiceActing": [
            "Кириллица",
            "Eng.Original"
          ],
          "ads": false,
          "subtitle": [
            "Рус. полные"
          ]
        },
        {
          "episode": 3,
          "name": "Our Day Will Come",
          "iframe_url": "",
          "iframe_poster": null,
          "release_ru": "2019-10-13",
          "release_world": "2019-10-13",
          "availability": "2019-10-14",
          "voiceActing": [
            "Кириллица",
            "Eng.Original"
          ],
          "ads": false,
          "subtitle": [
            "Рус. полные"
          ]
        },
        {
          "episode": 4,
          "name": "I Am the Greatest",
          "iframe_url": "",
          "iframe_poster": null,
          "release_ru": "2019-10-20",
          "release_world": "2019-10-20",
          "availability": "2019-10-21",
          "voiceActing": [
            "Кириллица",
            "Eng.Original"
          ],
          "ads": false,
          "subtitle": [
            "Рус. полные"
          ]
        },
        {
          "episode": 5,
          "name": "It's All in the Game",
          "iframe_url": "",
          "iframe_poster": null,
          "release_ru": "2019-10-27",
          "release_world": "2019-10-27",
          "availability": "2019-10-28",
          "voiceActing": [
            "Кириллица",
            "Eng.Original"
          ],
          "ads": false,
          "subtitle": [
            "Рус. полные"
          ]
        },
        {
          "episode": 6,
          "name": "Il Canto de Malavita",
          "iframe_url": "",
          "iframe_poster": null,
          "release_ru": "2019-11-03",
          "release_world": "2019-11-03",
          "availability": "2019-11-04",
          "voiceActing": [
            "Кириллица",
            "Eng.Original"
          ],
          "ads": false,
          "subtitle": [
            "Рус. полные"
          ]
        },
        {
          "episode": 7,
          "name": "Masters of War",
          "iframe_url": "",
          "iframe_poster": null,
          "release_ru": "2019-11-10",
          "release_world": "2019-11-10",
          "availability": "2019-11-11",
          "voiceActing": [
            "Кириллица",
            "Eng.Original"
          ],
          "ads": false,
          "subtitle": [
            "Рус. полные"
          ]
        },
        {
          "episode": 8,
          "name": "How I Got Over",
          "iframe_url": "",
          "iframe_poster": null,
          "release_ru": "2019-11-17",
          "release_world": "2019-11-17",
          "availability": "2019-11-18",
          "voiceActing": [
            "Кириллица",
            "Eng.Original"
          ],
          "ads": false,
          "subtitle": [
            "Рус. полные"
          ]
        },
        {
          "episode": 9,
          "name": "Rent Strike Blues",
          "iframe_url": "",
          "iframe_poster": null,
          "release_ru": "2019-11-24",
          "release_world": "2019-11-24",
          "availability": "2019-11-25",
          "voiceActing": [
            "Кириллица",
            "Eng.Original"
          ],
          "ads": false,
          "subtitle": [
            "Рус. полные"
          ]
        },
        {
          "episode": 10,
          "name": "Chickens Come Home to Roost",
          "iframe_url": "",
          "iframe_poster": null,
          "release_ru": "2019-12-01",
          "release_world": "2019-12-01",
          "availability": "2019-12-02",
          "voiceActing": [
            "Кириллица",
            "Eng.Original"
          ],
          "ads": false,
          "subtitle": [
            "Рус. полные"
          ]
        }
      ]
    },
    {
      "poster": null,
      "release_ru": null,
      "release_world": null,
      "availability": null,
      "iframe_url": "",
      "season": 2,
      "episodes": [
        {
          "episode": 1,
          "name": null,
          "iframe_url": "",
          "iframe_poster": null,
          "release_ru": null,
          "release_world": null,
          "availability": null,
          "voiceActing": [
            "TVShows",
            "Eng.Original"
          ],
          "ads": false,
          "subtitle": [
            "Eng. full"
          ]
        },
        {
          "episode": 2,
          "name": null,
          "iframe_url": "",
          "iframe_poster": null,
          "release_ru": null,
          "release_world": null,
          "availability": null,
          "voiceActing": [
            "TVShows",
            "Eng.Original"
          ],
          "ads": false,
          "subtitle": [
            "Eng. full"
          ]
        },
        {
          "episode": 3,
          "name": null,
          "iframe_url": "",
          "iframe_poster": null,
          "release_ru": "2021-05-03",
          "release_world": "2021-05-02",
          "availability": "2021-05-03",
          "voiceActing": [
            "TVShows",
            "Eng.Original"
          ],
          "ads": false,
          "subtitle": [
            "Eng. full"
          ]
        },
        {
          "episode": 4,
          "name": null,
          "iframe_url": "",
          "iframe_poster": null,
          "release_ru": "2021-05-10",
          "release_world": "2021-05-09",
          "availability": "2021-05-10",
          "voiceActing": [
            "TVShows",
            "Eng.Original"
          ],
          "ads": false,
          "subtitle": [
            "Eng. full"
          ]
        },
        {
          "episode": 5,
          "name": null,
          "iframe_url": "",
          "iframe_poster": null,
          "release_ru": "2021-05-17",
          "release_world": "2021-05-16",
          "availability": "2021-05-17",
          "voiceActing": [
            "TVShows",
            "Eng.Original"
          ],
          "ads": false,
          "subtitle": [
            "Eng. full"
          ]
        },
        {
          "episode": 6,
          "name": null,
          "iframe_url": "",
          "iframe_poster": null,
          "release_ru": "2021-05-24",
          "release_world": "2021-05-23",
          "availability": "2021-05-24",
          "voiceActing": [
            "TVShows",
            "Eng.Original"
          ],
          "ads": false,
          "subtitle": [
            "Eng. full"
          ]
        },
        {
          "episode": 7,
          "name": null,
          "iframe_url": "",
          "iframe_poster": null,
          "release_ru": null,
          "release_world": null,
          "availability": null,
          "voiceActing": [
            "TVShows",
            "Eng.Original"
          ],
          "ads": false,
          "subtitle": [
            "Eng. full"
          ]
        },
        {
          "episode": 8,
          "name": null,
          "iframe_url": "",
          "iframe_poster": null,
          "release_ru": null,
          "release_world": null,
          "availability": null,
          "voiceActing": [
            "TVShows",
            "Eng.Original"
          ],
          "ads": false,
          "subtitle": [
            "Eng. full"
          ]
        },
        {
          "episode": 9,
          "name": null,
          "iframe_url": "",
          "iframe_poster": null,
          "release_ru": null,
          "release_world": null,
          "availability": null,
          "voiceActing": [
            "TVShows",
            "Eng.Original"
          ],
          "ads": false,
          "subtitle": [
            "Eng. full"
          ]
        },
        {
          "episode": 10,
          "name": null,
          "iframe_url": "",
          "iframe_poster": null,
          "release_ru": null,
          "release_world": null,
          "availability": null,
          "voiceActing": [
            "TVShows"
          ],
          "ads": false,
          "subtitle": []
        }
      ]
    }
  ],
  "voiceActing": [
    "Кириллица",
    "Eng.Original",
    "TVShows"
  ],
  "subtitle": [
    "Рус. полные",
    "Eng. full"
  ],
  "parts": []
}
