{
  "id": 5198,
  "name": "Монстры и люди",
  "name_eng": "Monsters and Men",
  "year": 2018,
  "slogan": "«One moment can change everything»",
  "age": "16+",
  "type": "film",
  "quality": "HD (720p)",
  "imdb": "5.9",
  "imdb_id": "7689906",
  "kinopoisk": null,
  "kinopoisk_id": "1108868",
  "world_art": null,
  "world_art_id": null,
  "time": "96 мин. / 01:36",
  "ads": true,
  "premier": "2018-01-19",
  "premier_rus": null,
  "availability": null,
  "activate_time": "2019-01-07 14:19:40",
  "budget": null,
  "fees_use": "$500 101",
  "fees_world": "$500 101",
  "fees_rus": null,
  "rate_mpaa": "R",
  "description": "Жизнь несколько бруклинцев переворачивается с ног на голову, когда очередной безоружный темнокожий парень становится жертвой полицейского произвола. Первый, молодой отец, записал происшествие на видео, но сомневается, стоит ли его публиковать. Второй — выдающийся атлет, для которого инцидент превращается в призыв к действию. И, наконец, офицер полиции, пытающийся найти своё место в непростой ситуации.",
  "iframe_url": "",
  "iframe_poster": "https://img.imgilall.me/movies/video/4/9/3/9/0/0/0/0/0/0/800x450_49390.jpeg",
  "poster": "https://img.imgilall.me/movies/franchise/5/1/9/8/0/0/0/0/0/0/610x900_5198.jpg",
  "country": {
    "1": "США"
  },
  "collection": [],
  "genre": {
    "10": "Зарубежный",
    "7": "Драма"
  },
  "director": [
    "Рейнальдо Маркус Грин"
  ],
  "screenwriter": [
    "Рейнальдо Маркус Грин"
  ],
  "producer": [
    "Лука Боргезе",
    "Лиз Лодж",
    "Эдди Вайзман"
  ],
  "operator": [
    "Патрик Скола"
  ],
  "composer": [
    "Крис Бауэрс"
  ],
  "design": [
    "Скотт Дуган",
    "Коллин Додж",
    "Бегония Берхес"
  ],
  "editor": [
    "Джастин Чан",
    "Скотт Каммингс"
  ],
  "actors": [
    "Джон Дэвид Вашингтон",
    "Энтони Рамос",
    "Келвин Харрисон",
    "Шанте Адамс",
    "Жасмин Сифас Джонс",
    "Николь Бахари",
    "Роб Морган",
    "Кара Буоно",
    "Грант Джагер",
    "Josiah Gabriel"
  ],
  "actors_dubl": [],
  "trivia": [],
  "trailers": [],
  "seasons": [],
  "voiceActing": [
    "Рус. Люб. многоголосый"
  ],
  "subtitle": [],
  "parts": []
}
