{
  "id": 5611,
  "name": "Апокалипсис сейчас / А теперь – апокалипсис",
  "name_eng": "Now Apocalypse",
  "year": 2019,
  "slogan": null,
  "age": "16+",
  "type": "series",
  "quality": "FHD (1080p)",
  "imdb": "6.2",
  "imdb_id": "8201814",
  "kinopoisk": "6.4",
  "kinopoisk_id": "1122832",
  "world_art": null,
  "world_art_id": null,
  "time": "30 мин.",
  "ads": false,
  "premier": "2019-03-10",
  "premier_rus": null,
  "availability": null,
  "serial_status": "offline",
  "activate_time": "2019-01-23 11:16:14",
  "budget": null,
  "fees_use": null,
  "fees_world": null,
  "fees_rus": null,
  "rate_mpaa": null,
  "description": "Лос-Анджелес, где живут Улисс и его друзья, пытаясь добиться славы, секса и любви. Они заняты неустанными поисками себя, исследованием творчества и собственной сексуальности. Но в безумном водовороте жизни Улисс начинает подозревать, что мир вокруг — часть заговора. Или ему просто пора завязывать с травкой.",
  "iframe_url": "",
  "poster": "https://img.imgilall.me/movies/franchise/5/6/1/1/0/0/0/0/0/0/610x900_5611.jpg",
  "country": {
    "1": "США"
  },
  "collection": [],
  "genre": {
    "19": "Комедия",
    "10": "Зарубежный"
  },
  "director": [
    "Грегг Араки"
  ],
  "screenwriter": [
    "Грегг Араки",
    "Karley Sciortino"
  ],
  "producer": [
    "Грегг Араки",
    "Бо Дж. Гено",
    "Aavi Haas"
  ],
  "operator": [
    "Сандра Вальде"
  ],
  "composer": [
    "James Clements",
    "Робин Гатри"
  ],
  "design": [
    "Тодд Фьельстед",
    "Кейти Бирмингем",
    "Трейс Джиджи Филд"
  ],
  "editor": [
    "Алекс Блатт",
    "Лиза Д. Эспинас",
    "Эрик Пресан"
  ],
  "actors": [
    "Эван Джогиа",
    "Келли Бёрглунд",
    "Бо Мирчофф",
    "Роксана Мескида",
    "Тайлер Пози",
    "Десмонд Чайм",
    "Ивэн Харт Брюс",
    "Тейлор Герард Харт",
    "Джейкоб Артист",
    "Джонатон Шек"
  ],
  "actors_dubl": [],
  "trivia": [],
  "trailers": [
    {
      "name": "трейлер №1",
      "number": 1,
      "iframe_poster": "https://img.imgilall.me/movies/trailer/1/0/4/0/0/0/0/0/0/0/800x450_104.jpeg",
      "season": 1,
      "iframe_url": ""
    }
  ],
  "seasons": [
    {
      "poster": "https://img.imgilall.me/movies/season/3/3/3/2/0/0/0/0/0/0/610x900_3332.jpg",
      "release_ru": "2019-03-11",
      "release_world": "2019-03-10",
      "availability": "2019-03-12",
      "iframe_url": "",
      "season": 1,
      "episodes": [
        {
          "episode": 1,
          "name": "This is the Beginning of the End",
          "iframe_url": "",
          "iframe_poster": null,
          "release_ru": "2019-03-11",
          "release_world": "2019-03-10",
          "availability": "2019-03-12",
          "voiceActing": [
            "HDRezka Studio"
          ],
          "ads": false,
          "subtitle": []
        },
        {
          "episode": 2,
          "name": "Where is My Mind?",
          "iframe_url": "",
          "iframe_poster": null,
          "release_ru": "2019-03-18",
          "release_world": "2019-03-17",
          "availability": "2019-03-19",
          "voiceActing": [
            "HDRezka Studio"
          ],
          "ads": false,
          "subtitle": []
        },
        {
          "episode": 3,
          "name": "The Rules of Attraction",
          "iframe_url": "",
          "iframe_poster": null,
          "release_ru": "2019-03-23",
          "release_world": "2019-03-22",
          "availability": "2019-03-24",
          "voiceActing": [
            "HDRezka Studio"
          ],
          "ads": false,
          "subtitle": []
        },
        {
          "episode": 4,
          "name": "The Downward Spiral",
          "iframe_url": "",
          "iframe_poster": null,
          "release_ru": "2019-03-23",
          "release_world": "2019-03-22",
          "availability": "2019-03-24",
          "voiceActing": [
            "HDRezka Studio"
          ],
          "ads": false,
          "subtitle": []
        },
        {
          "episode": 5,
          "name": "Stranger Than Paradise",
          "iframe_url": "",
          "iframe_poster": null,
          "release_ru": "2019-03-23",
          "release_world": "2019-03-22",
          "availability": "2019-03-24",
          "voiceActing": [
            "HDRezka Studio"
          ],
          "ads": false,
          "subtitle": []
        },
        {
          "episode": 6,
          "name": "She's Lost Control",
          "iframe_url": "",
          "iframe_poster": null,
          "release_ru": "2019-03-23",
          "release_world": "2019-03-22",
          "availability": "2019-03-24",
          "voiceActing": [
            "HDRezka Studio"
          ],
          "ads": false,
          "subtitle": []
        },
        {
          "episode": 7,
          "name": "Anywhere Out of the World",
          "iframe_url": "",
          "iframe_poster": null,
          "release_ru": "2019-03-23",
          "release_world": "2019-03-22",
          "availability": "2019-03-24",
          "voiceActing": [
            "HDRezka Studio"
          ],
          "ads": false,
          "subtitle": []
        },
        {
          "episode": 8,
          "name": "Unknown Pleasures",
          "iframe_url": "",
          "iframe_poster": null,
          "release_ru": "2019-03-23",
          "release_world": "2019-03-22",
          "availability": "2019-03-24",
          "voiceActing": [
            "HDRezka Studio"
          ],
          "ads": false,
          "subtitle": []
        },
        {
          "episode": 9,
          "name": "Disappear Here",
          "iframe_url": "",
          "iframe_poster": null,
          "release_ru": "2019-03-23",
          "release_world": "2019-03-22",
          "availability": "2019-03-24",
          "voiceActing": [
            "HDRezka Studio"
          ],
          "ads": false,
          "subtitle": []
        },
        {
          "episode": 10,
          "name": "Everything is Gone Forever",
          "iframe_url": "",
          "iframe_poster": null,
          "release_ru": "2019-03-23",
          "release_world": "2019-03-22",
          "availability": "2019-03-24",
          "voiceActing": [
            "HDRezka Studio"
          ],
          "ads": false,
          "subtitle": []
        }
      ]
    }
  ],
  "voiceActing": [
    "HDRezka Studio"
  ],
  "subtitle": [],
  "parts": []
}
