{
  "id": 42924,
  "name": "Частицы",
  "name_eng": "Les particules",
  "year": 2019,
  "slogan": "—",
  "age": null,
  "type": "film",
  "quality": "FHD (1080p)",
  "imdb": "5.4",
  "imdb_id": "8302982",
  "kinopoisk": null,
  "kinopoisk_id": "1143345",
  "world_art": null,
  "world_art_id": null,
  "time": "98 мин. / 01:38",
  "ads": true,
  "premier": "2019-05-22",
  "premier_rus": "2019-05-23",
  "availability": "2019-05-24",
  "activate_time": "2020-12-14 14:14:00",
  "budget": "",
  "fees_use": "",
  "fees_world": "",
  "fees_rus": "",
  "rate_mpaa": "",
  "description": "С наступлением зимы Пьер-Андре стал понимать, что с миром что-то происходит. Изменения сначала были незаметными, но вскоре всему его миру стала грозить опасность.",
  "iframe_url": "",
  "iframe_poster": null,
  "poster": "https://img.imgilall.me/movies/franchise/4/2/9/2/4/0/0/0/0/0/610x900_42924.jpg",
  "country": {
    "9": "Франция",
    "10": "Швейцария"
  },
  "collection": [],
  "genre": {
    "11": "Фантастика",
    "6": "Фэнтези",
    "7": "Драма"
  },
  "director": [
    "Блэйз Харрисон"
  ],
  "screenwriter": [
    "Блэйз Харрисон",
    "Мэриетт Десерт",
    "Dimitri Kourtchine"
  ],
  "producer": [
    "Лайонел Байер",
    "Эстелль Фиалон",
    "Жан-Стефан Брон"
  ],
  "operator": [
    "Колин Левек"
  ],
  "composer": [
    "Èlg"
  ],
  "design": [
    "Isa Boucharlat",
    "Флоренс Эмери"
  ],
  "editor": [
    "Гвенола Ольм",
    "Изабель Манкийе"
  ],
  "actors": [
    "Thomas Daloz",
    "Néa Lüders",
    "Salvatore Ferro",
    "Emma Josserand",
    "Léo Couilfort",
    "Nicolas Marcant",
    "Valérie Randu",
    "Guy Julliard",
    "Christian Landreau",
    "Liam Gras"
  ],
  "actors_dubl": [],
  "trivia": [],
  "trailers": [],
  "seasons": [],
  "voiceActing": [
    "Рус. Люб. многоголосый"
  ],
  "subtitle": [],
  "parts": []
}
