{
  "id": 2056,
  "name": "Ложа 49",
  "name_eng": "Lodge 49",
  "year": 2018,
  "slogan": null,
  "age": "16+",
  "type": "series",
  "quality": "HD (720p)",
  "imdb": "7.6",
  "imdb_id": "6128254",
  "kinopoisk": "6.7",
  "kinopoisk_id": "1177507",
  "world_art": null,
  "world_art_id": null,
  "time": "51 мин.",
  "ads": true,
  "premier": "2018-08-06",
  "premier_rus": null,
  "availability": null,
  "serial_status": "offline",
  "activate_time": "2018-09-05 12:49:50",
  "budget": null,
  "fees_use": null,
  "fees_world": null,
  "fees_rus": null,
  "rate_mpaa": null,
  "description": "Бывший сёрфер присоединяется к братскому ордену «Ложа 49», находящемуся в Лонг-Бич. Главный герой надеется на возвращение к спокойному образу жизни, которого он не знал с момента смерти отца.",
  "iframe_url": "",
  "poster": "https://img.imgilall.me/movies/franchise/2/0/5/6/0/0/0/0/0/0/610x900_2056.jpg",
  "country": {
    "1": "США"
  },
  "collection": {
    "21": "Для молодёжи"
  },
  "genre": {
    "19": "Комедия",
    "10": "Зарубежный",
    "7": "Драма"
  },
  "director": [
    "Джейк Шрейер",
    "Майкл Трим",
    "Рэндолл Айнхорн"
  ],
  "screenwriter": [
    "Джим Гэвин",
    "Алина Мэнкин",
    "Valerie Armstrong"
  ],
  "producer": [
    "Стефани Аччетта",
    "Дэниэл Кэри",
    "Джефф Фрейлих"
  ],
  "operator": [
    "Джеф Джёр",
    "Glenn Brown"
  ],
  "composer": [
    "Эндрю Кэрролл"
  ],
  "design": [
    "Майкл Шоу",
    "Николь Элеспуру",
    "Джеймс Боленбо"
  ],
  "editor": [
    "Дженнифер Ван Готем",
    "Иван Виктор",
    "Крис МакКалеб"
  ],
  "actors": [
    "Уайатт Рассел",
    "Брент Дженнингс",
    "Соня Кэссиди",
    "Линда Эмонд",
    "Дэвид Паскуэзи",
    "Эрик Аллан Крамер",
    "Нджема Уильямс",
    "Джимми Гонсалес",
    "Авис-Мари Барнс",
    "Дэвид Ури"
  ],
  "actors_dubl": [],
  "trivia": [
    "Автомобиль Шона - \"Фольксваген\" модели, очень популярной в 1970-е. Впервые её разработали в 1940-х годах в качестве автомобиля для генерала Эрвина Роммеля (1891-1944) по прозвищу \"Лис пустыни\", командующего войсками гитлеровской коалиции в Северной Африке. Эти машины идеально подходили для службы в жарком климате. Они же показаны в сериале \"Крысиный патруль\" (1966-1968)."
  ],
  "trailers": [],
  "seasons": [
    {
      "poster": "https://img.imgilall.me/movies/season/9/3/5/0/0/0/0/0/0/0/610x900_935.jpg",
      "release_ru": "2018-08-07",
      "release_world": "2018-08-06",
      "availability": "2018-08-08",
      "iframe_url": "",
      "season": 1,
      "episodes": [
        {
          "episode": 1,
          "name": "As Above, So Below",
          "iframe_url": "",
          "iframe_poster": null,
          "release_ru": "2018-08-07",
          "release_world": "2018-08-06",
          "availability": "2018-08-08",
          "voiceActing": [
            "JASKIER",
            "Eng.Original"
          ],
          "ads": true,
          "subtitle": []
        },
        {
          "episode": 2,
          "name": "Moments of Truth in Service",
          "iframe_url": "",
          "iframe_poster": null,
          "release_ru": "2018-08-07",
          "release_world": "2018-08-06",
          "availability": "2018-08-08",
          "voiceActing": [
            "JASKIER",
            "Eng.Original"
          ],
          "ads": true,
          "subtitle": []
        },
        {
          "episode": 3,
          "name": "Corpus",
          "iframe_url": "",
          "iframe_poster": null,
          "release_ru": "2018-08-07",
          "release_world": "2018-08-06",
          "availability": "2018-08-08",
          "voiceActing": [
            "JASKIER",
            "Eng.Original"
          ],
          "ads": true,
          "subtitle": []
        },
        {
          "episode": 4,
          "name": "Sunday",
          "iframe_url": "",
          "iframe_poster": null,
          "release_ru": "2018-08-07",
          "release_world": "2018-08-06",
          "availability": "2018-08-08",
          "voiceActing": [
            "JASKIER",
            "Eng.Original"
          ],
          "ads": true,
          "subtitle": []
        },
        {
          "episode": 5,
          "name": "Paradise",
          "iframe_url": "",
          "iframe_poster": null,
          "release_ru": "2018-08-07",
          "release_world": "2018-08-06",
          "availability": "2018-08-08",
          "voiceActing": [
            "JASKIER",
            "Eng.Original"
          ],
          "ads": true,
          "subtitle": []
        },
        {
          "episode": 6,
          "name": "The Mysteries",
          "iframe_url": "",
          "iframe_poster": null,
          "release_ru": "2018-08-07",
          "release_world": "2018-08-06",
          "availability": "2018-08-08",
          "voiceActing": [
            "JASKIER",
            "Eng.Original"
          ],
          "ads": true,
          "subtitle": []
        },
        {
          "episode": 7,
          "name": "The Solemn Duty of the Squire",
          "iframe_url": "",
          "iframe_poster": null,
          "release_ru": "2018-08-07",
          "release_world": "2018-08-06",
          "availability": "2018-08-08",
          "voiceActing": [
            "JASKIER",
            "Eng.Original"
          ],
          "ads": true,
          "subtitle": []
        },
        {
          "episode": 8,
          "name": "Something from Nothing",
          "iframe_url": "",
          "iframe_poster": null,
          "release_ru": "2018-08-07",
          "release_world": "2018-08-06",
          "availability": "2018-08-08",
          "voiceActing": [
            "JASKIER",
            "Eng.Original"
          ],
          "ads": true,
          "subtitle": []
        },
        {
          "episode": 9,
          "name": "Apogee",
          "iframe_url": "",
          "iframe_poster": null,
          "release_ru": "2018-08-07",
          "release_world": "2018-08-06",
          "availability": "2018-08-08",
          "voiceActing": [
            "JASKIER",
            "Eng.Original"
          ],
          "ads": true,
          "subtitle": []
        },
        {
          "episode": 10,
          "name": "Full Fathom Five",
          "iframe_url": "",
          "iframe_poster": null,
          "release_ru": "2018-08-07",
          "release_world": "2018-08-06",
          "availability": "2018-08-08",
          "voiceActing": [
            "JASKIER",
            "Eng.Original"
          ],
          "ads": true,
          "subtitle": []
        }
      ]
    },
    {
      "poster": "https://img.imgilall.me/movies/season/5/6/2/4/0/0/0/0/0/0/610x900_5624.jpg",
      "release_ru": "2019-08-13",
      "release_world": "2019-08-12",
      "availability": "2019-08-14",
      "iframe_url": "",
      "season": 2,
      "episodes": [
        {
          "episode": 1,
          "name": "All Circles Vanish",
          "iframe_url": "",
          "iframe_poster": null,
          "release_ru": "2019-08-13",
          "release_world": "2019-08-12",
          "availability": "2019-08-14",
          "voiceActing": [
            "TVShows",
            "Eng.Original"
          ],
          "ads": false,
          "subtitle": []
        },
        {
          "episode": 2,
          "name": "The Slide",
          "iframe_url": "",
          "iframe_poster": null,
          "release_ru": "2019-08-20",
          "release_world": "2019-08-19",
          "availability": "2019-08-21",
          "voiceActing": [
            "TVShows",
            "Eng.Original"
          ],
          "ads": false,
          "subtitle": []
        },
        {
          "episode": 3,
          "name": "DisOrientation",
          "iframe_url": "",
          "iframe_poster": null,
          "release_ru": "2019-08-27",
          "release_world": "2019-08-26",
          "availability": "2019-08-28",
          "voiceActing": [
            "TVShows",
            "Eng.Original"
          ],
          "ads": false,
          "subtitle": [
            "Eng. SDH"
          ]
        },
        {
          "episode": 4,
          "name": "Conjunctio",
          "iframe_url": "",
          "iframe_poster": null,
          "release_ru": "2019-09-03",
          "release_world": "2019-09-02",
          "availability": "2019-09-04",
          "voiceActing": [
            "TVShows",
            "Eng.Original"
          ],
          "ads": false,
          "subtitle": []
        },
        {
          "episode": 5,
          "name": "Estrella y Mar",
          "iframe_url": "",
          "iframe_poster": null,
          "release_ru": "2019-09-10",
          "release_world": "2019-09-09",
          "availability": "2019-09-11",
          "voiceActing": [
            "TVShows",
            "Eng.Original"
          ],
          "ads": false,
          "subtitle": []
        },
        {
          "episode": 6,
          "name": "Circles",
          "iframe_url": "",
          "iframe_poster": null,
          "release_ru": "2019-09-17",
          "release_world": "2019-09-16",
          "availability": "2019-09-18",
          "voiceActing": [
            "TVShows",
            "Eng.Original"
          ],
          "ads": false,
          "subtitle": []
        },
        {
          "episode": 7,
          "name": "Exile",
          "iframe_url": "",
          "iframe_poster": null,
          "release_ru": "2019-09-24",
          "release_world": "2019-09-23",
          "availability": "2019-09-25",
          "voiceActing": [
            "TVShows",
            "Eng.Original"
          ],
          "ads": false,
          "subtitle": []
        },
        {
          "episode": 8,
          "name": "Zugzwang",
          "iframe_url": "",
          "iframe_poster": null,
          "release_ru": "2019-10-01",
          "release_world": "2019-09-30",
          "availability": "2019-10-02",
          "voiceActing": [
            "TVShows",
            "Eng.Original"
          ],
          "ads": false,
          "subtitle": []
        },
        {
          "episode": 9,
          "name": "Le Reve Impossible",
          "iframe_url": "",
          "iframe_poster": null,
          "release_ru": "2019-10-07",
          "release_world": "2019-10-07",
          "availability": "2019-10-08",
          "voiceActing": [
            "TVShows",
            "Eng.Original"
          ],
          "ads": false,
          "subtitle": []
        },
        {
          "episode": 10,
          "name": "The Door",
          "iframe_url": "",
          "iframe_poster": null,
          "release_ru": "2019-10-14",
          "release_world": "2019-10-14",
          "availability": "2019-10-15",
          "voiceActing": [
            "TVShows",
            "Eng.Original"
          ],
          "ads": false,
          "subtitle": []
        }
      ]
    }
  ],
  "voiceActing": [
    "JASKIER",
    "Eng.Original",
    "TVShows"
  ],
  "subtitle": [
    "Eng. SDH"
  ],
  "parts": []
}
