{
  "id": 3849,
  "name": "Нокс",
  "name_eng": "Nox",
  "year": 2018,
  "slogan": null,
  "age": "16+",
  "type": "series",
  "quality": "HD (720p)",
  "imdb": "6.5",
  "imdb_id": "7791216",
  "kinopoisk": "6.6",
  "kinopoisk_id": "1114956",
  "world_art": null,
  "world_art_id": null,
  "time": "52 мин.",
  "ads": false,
  "premier": "2018-03-12",
  "premier_rus": null,
  "availability": null,
  "serial_status": "offline",
  "activate_time": "2018-11-23 09:20:09",
  "budget": null,
  "fees_use": null,
  "fees_world": null,
  "fees_rus": null,
  "rate_mpaa": null,
  "description": "Во время операции по выслеживанию банды грабителей банкоматов бесследно исчезает Жюли Сюзини, одна из полицейских. Её мать, бывший коп, узнав об этом, решает, что только она сможет её найти. И, объединившись с напарником Жюли, Рафаэлем, она погружается в подземелье Парижа, где скрываются чудовища с человеческим лицом.",
  "iframe_url": "",
  "poster": "https://img.imgilall.me/movies/franchise/3/8/4/9/0/0/0/0/0/0/610x900_3849.jpg",
  "country": {
    "9": "Франция"
  },
  "collection": [],
  "genre": {
    "25": "Криминал",
    "13": "Триллер",
    "10": "Зарубежный",
    "7": "Драма"
  },
  "director": [
    "Мабрук Эль Мекри"
  ],
  "screenwriter": [
    "Фред Кавайе",
    "Куок Данг Чан",
    "Jerome Fansten"
  ],
  "producer": [
    "Изабель Дежорже",
    "Дэмиен Куврю"
  ],
  "operator": [],
  "composer": [
    "Сирилль Офорт"
  ],
  "design": [
    "Аньес Фальк"
  ],
  "editor": [
    "Како Кельбер",
    "Джоэль Джаковелла",
    "Линда Нод"
  ],
  "actors": [
    "Натали Бай",
    "Малик Зиди",
    "Майвенн Ле Беско",
    "Фредерик Пьеро",
    "Дэмиен Шапель",
    "Ксавье Робик",
    "Лубна Азабаль",
    "Matthieu Burnel",
    "Дали Бенссалах",
    "Патрик д’Асумсао"
  ],
  "actors_dubl": [],
  "trivia": [],
  "trailers": [],
  "seasons": [
    {
      "poster": "https://img.imgilall.me/movies/season/2/0/5/5/0/0/0/0/0/0/610x900_2055.jpg",
      "release_ru": "2018-03-13",
      "release_world": "2018-03-12",
      "availability": "2018-03-14",
      "iframe_url": "",
      "season": 1,
      "episodes": [
        {
          "episode": 1,
          "name": "Épisode 1",
          "iframe_url": "",
          "iframe_poster": "https://img.imgilall.me/movies/video/5/7/0/1/9/0/0/0/0/0/800x450_57019.jpeg",
          "release_ru": "2018-03-13",
          "release_world": "2018-03-12",
          "availability": "2018-03-14",
          "voiceActing": [
            "Showjet"
          ],
          "ads": false,
          "subtitle": []
        },
        {
          "episode": 2,
          "name": "Épisode 2",
          "iframe_url": "",
          "iframe_poster": "https://img.imgilall.me/movies/video/5/7/0/2/0/0/0/0/0/0/800x450_57020.jpeg",
          "release_ru": "2018-03-13",
          "release_world": "2018-03-12",
          "availability": "2018-03-14",
          "voiceActing": [
            "Showjet"
          ],
          "ads": false,
          "subtitle": []
        },
        {
          "episode": 3,
          "name": "Épisode 3",
          "iframe_url": "",
          "iframe_poster": "https://img.imgilall.me/movies/video/5/7/0/2/1/0/0/0/0/0/800x450_57021.jpeg",
          "release_ru": "2018-03-20",
          "release_world": "2018-03-19",
          "availability": "2018-03-21",
          "voiceActing": [
            "Showjet"
          ],
          "ads": false,
          "subtitle": []
        },
        {
          "episode": 4,
          "name": "Épisode 4",
          "iframe_url": "",
          "iframe_poster": "https://img.imgilall.me/movies/video/5/7/0/2/2/0/0/0/0/0/800x450_57022.jpeg",
          "release_ru": "2018-03-20",
          "release_world": "2018-03-19",
          "availability": "2018-03-21",
          "voiceActing": [
            "Showjet"
          ],
          "ads": false,
          "subtitle": []
        },
        {
          "episode": 5,
          "name": "Épisode 5",
          "iframe_url": "",
          "iframe_poster": "https://img.imgilall.me/movies/video/5/7/0/2/3/0/0/0/0/0/800x450_57023.jpeg",
          "release_ru": "2018-03-27",
          "release_world": "2018-03-26",
          "availability": "2018-03-28",
          "voiceActing": [
            "Showjet"
          ],
          "ads": false,
          "subtitle": []
        },
        {
          "episode": 6,
          "name": "Épisode 6",
          "iframe_url": "",
          "iframe_poster": "https://img.imgilall.me/movies/video/5/7/0/2/4/0/0/0/0/0/800x450_57024.jpeg",
          "release_ru": "2018-03-27",
          "release_world": "2018-03-26",
          "availability": "2018-03-28",
          "voiceActing": [
            "Showjet"
          ],
          "ads": false,
          "subtitle": []
        }
      ]
    }
  ],
  "voiceActing": [
    "Showjet"
  ],
  "subtitle": [],
  "parts": []
}
