{
  "id": 12101,
  "name": "Последний паром",
  "name_eng": "Last Ferry",
  "year": 2019,
  "slogan": "«The gorgeous dunes of Fire Island. A casual encounter. A drugged drink. A hazy murder»",
  "age": "18++",
  "type": "film",
  "quality": "HD (720p)",
  "imdb": "5.1",
  "imdb_id": "6378942",
  "kinopoisk": null,
  "kinopoisk_id": "1114595",
  "world_art": null,
  "world_art_id": null,
  "time": "86 мин. / 01:26",
  "ads": true,
  "premier": "2019-03-23",
  "premier_rus": "2019-03-24",
  "availability": "2019-03-24",
  "activate_time": "2019-11-01 17:43:00",
  "budget": "",
  "fees_use": "",
  "fees_world": "",
  "fees_rus": "",
  "rate_mpaa": "",
  "description": "Когда молодой адвокат-гей прибывает на Остров огня, чтобы исследовать свою сексуальность, он становится свидетелем убийства. Незнакомец помогает ему, но вскоре он обнаруживает, что его спаситель дружит с убийцей.",
  "iframe_url": "",
  "iframe_poster": null,
  "poster": "https://img.imgilall.me/movies/franchise/1/2/1/0/1/0/0/0/0/0/610x900_12101.jpg",
  "country": {
    "1": "США"
  },
  "collection": [],
  "genre": {
    "25": "Криминал",
    "13": "Триллер",
    "10": "Зарубежный",
    "7": "Драма"
  },
  "director": [
    "Яки Брэдли"
  ],
  "screenwriter": [
    "Рамон О. Торрес"
  ],
  "producer": [
    "Мэттью Силверман",
    "Рамон О. Торрес",
    "Надя Зои"
  ],
  "operator": [
    "Алекса Вульф"
  ],
  "composer": [
    "Джим Брунберг",
    "Benjamin Landsverk"
  ],
  "design": [
    "Hailey Choi",
    "Susan Huyett",
    "Хезер МакДевитт Бартон"
  ],
  "editor": [
    "Рамон О. Торрес",
    "Надя Зои"
  ],
  "actors": [
    "Майлс Клохесси",
    "Гэбриэл Слойер",
    "Рамон О. Торрес",
    "Р. Уорд Даффи",
    "Генри Эйрс-Браун",
    "Ларри Оуэнс",
    "Шелдон Бест",
    "Йен Маккуиллан-Грэйс",
    "Байрон Клохесси",
    "Марк Синоуэй"
  ],
  "actors_dubl": [],
  "trivia": [],
  "trailers": [],
  "seasons": [],
  "voiceActing": [
    "Рус. Люб. многоголосый"
  ],
  "subtitle": [],
  "parts": []
}
