{
  "id": 5917,
  "name": "Белая Зона / Мёртвая зона",
  "name_eng": "Zone Blanche",
  "year": 2018,
  "slogan": "«Crime by Nature»",
  "age": "16+",
  "type": "series",
  "quality": "HD (720p)",
  "imdb": "7.5",
  "imdb_id": "6519410",
  "kinopoisk": "6.7",
  "kinopoisk_id": "1117978",
  "world_art": null,
  "world_art_id": null,
  "time": "52 мин.",
  "ads": false,
  "premier": "2017-02-03",
  "premier_rus": "2017-02-04",
  "availability": "2017-02-05",
  "serial_status": "online",
  "activate_time": "2019-02-08 17:10:09",
  "budget": null,
  "fees_use": null,
  "fees_world": null,
  "fees_rus": null,
  "rate_mpaa": null,
  "description": "Вильфранш-небольшой городок без телефонной связи на краю таинственного леса. Число жителей сокращается, но наблюдается резкий рост преступности. Инспектор полиции Лорен Вайс, когда-то сама жертва преступления, продолжает обнаруживать новые трупы.",
  "iframe_url": "",
  "poster": "https://img.imgilall.me/movies/franchise/5/9/1/7/0/0/0/0/0/0/610x900_5917.jpg",
  "country": {
    "9": "Франция",
    "55": "Беларусь"
  },
  "collection": [],
  "genre": {
    "25": "Криминал",
    "24": "Детектив",
    "13": "Триллер",
    "10": "Зарубежный",
    "7": "Драма"
  },
  "director": [
    "Julien Despaux",
    "Тьерри Пуаро"
  ],
  "screenwriter": [
    "Mathieu Missoffe",
    "Антонин Мартин-Хильберт",
    "Флорент Мейер"
  ],
  "producer": [
    "Паскаль Брёньо",
    "Pierre-Emmanuel Fleurantin",
    "Кристоф Луис"
  ],
  "operator": [
    "Кристоф Найенс",
    "Brecht Goyvaerts",
    "Bruno Degraeve"
  ],
  "composer": [
    "Томас Кузинье",
    "Франсуа Кушманиан"
  ],
  "design": [
    "Эдди Пено",
    "Laurent Khalife",
    "Matthieu Camblor"
  ],
  "editor": [
    "Винсент Делорм",
    "Стефани Эльмаджьян",
    "Марио Баттистел"
  ],
  "actors": [
    "Сулиан Брахим",
    "Юбер Делаттре",
    "Лорен Капеллуто",
    "Самуэль Жуи",
    "Камилль Агиляр",
    "Рено Раттен",
    "Брижит Си",
    "Нэйдра Айади",
    "Анна Суарес",
    "Дэн Херцберг"
  ],
  "actors_dubl": [],
  "trivia": [],
  "trailers": [],
  "seasons": [
    {
      "poster": "https://img.imgilall.me/movies/season/3/5/2/3/0/0/0/0/0/0/610x900_3523.jpg",
      "release_ru": "2017-03-10",
      "release_world": "2017-03-09",
      "availability": "2017-03-11",
      "iframe_url": "",
      "season": 1,
      "episodes": [
        {
          "episode": 1,
          "name": "Quand on arrive en ville",
          "iframe_url": "",
          "iframe_poster": null,
          "release_ru": "2017-03-10",
          "release_world": "2017-03-09",
          "availability": "2017-03-11",
          "voiceActing": [
            "TVShows"
          ],
          "ads": false,
          "subtitle": []
        },
        {
          "episode": 2,
          "name": "À quoi rêvent les loups",
          "iframe_url": "",
          "iframe_poster": null,
          "release_ru": "2017-03-10",
          "release_world": "2017-03-09",
          "availability": "2017-03-11",
          "voiceActing": [
            "TVShows"
          ],
          "ads": false,
          "subtitle": []
        },
        {
          "episode": 3,
          "name": "En abyme",
          "iframe_url": "",
          "iframe_poster": null,
          "release_ru": "2017-03-17",
          "release_world": "2017-03-16",
          "availability": "2017-03-18",
          "voiceActing": [
            "TVShows"
          ],
          "ads": false,
          "subtitle": []
        },
        {
          "episode": 4,
          "name": "Nous n'irons plus au bois",
          "iframe_url": "",
          "iframe_poster": null,
          "release_ru": "2017-03-17",
          "release_world": "2017-03-16",
          "availability": "2017-03-18",
          "voiceActing": [
            "TVShows"
          ],
          "ads": false,
          "subtitle": []
        },
        {
          "episode": 5,
          "name": "Le Bout de la route",
          "iframe_url": "",
          "iframe_poster": null,
          "release_ru": "2017-03-24",
          "release_world": "2017-03-23",
          "availability": "2017-03-25",
          "voiceActing": [
            "TVShows"
          ],
          "ads": false,
          "subtitle": []
        },
        {
          "episode": 6,
          "name": "Sombres héros",
          "iframe_url": "",
          "iframe_poster": null,
          "release_ru": "2017-03-24",
          "release_world": "2017-03-23",
          "availability": "2017-03-25",
          "voiceActing": [
            "TVShows"
          ],
          "ads": false,
          "subtitle": []
        },
        {
          "episode": 7,
          "name": "Le secret derrière la fenêtre",
          "iframe_url": "",
          "iframe_poster": null,
          "release_ru": "2017-03-31",
          "release_world": "2017-03-30",
          "availability": "2017-04-01",
          "voiceActing": [
            "TVShows"
          ],
          "ads": false,
          "subtitle": []
        },
        {
          "episode": 8,
          "name": "La fin n'est que le commencement",
          "iframe_url": "",
          "iframe_poster": null,
          "release_ru": "2017-03-31",
          "release_world": "2017-03-30",
          "availability": "2017-04-01",
          "voiceActing": [
            "TVShows"
          ],
          "ads": false,
          "subtitle": []
        }
      ]
    },
    {
      "poster": "https://img.imgilall.me/movies/season/3/5/2/4/0/0/0/0/0/0/610x900_3524.jpg",
      "release_ru": "2019-02-12",
      "release_world": "2019-02-11",
      "availability": "2019-02-13",
      "iframe_url": "",
      "season": 2,
      "episodes": [
        {
          "episode": 1,
          "name": "Comment nous vivons maintenant (1)",
          "iframe_url": "",
          "iframe_poster": null,
          "release_ru": "2019-02-12",
          "release_world": "2019-02-11",
          "availability": "2019-02-13",
          "voiceActing": [
            "TVShows"
          ],
          "ads": false,
          "subtitle": []
        },
        {
          "episode": 2,
          "name": "Comment nous vivons maintenant (2)",
          "iframe_url": "",
          "iframe_poster": null,
          "release_ru": "2019-02-12",
          "release_world": "2019-02-11",
          "availability": "2019-02-13",
          "voiceActing": [
            "TVShows"
          ],
          "ads": false,
          "subtitle": []
        },
        {
          "episode": 3,
          "name": "Dans une autre vie",
          "iframe_url": "",
          "iframe_poster": null,
          "release_ru": "2019-02-19",
          "release_world": "2019-02-18",
          "availability": "2019-02-20",
          "voiceActing": [
            "TVShows"
          ],
          "ads": false,
          "subtitle": []
        },
        {
          "episode": 4,
          "name": "Coup de lune",
          "iframe_url": "",
          "iframe_poster": null,
          "release_ru": "2019-02-19",
          "release_world": "2019-02-18",
          "availability": "2019-02-20",
          "voiceActing": [
            "TVShows"
          ],
          "ads": false,
          "subtitle": []
        },
        {
          "episode": 5,
          "name": "La Jeune Fille et le Mort",
          "iframe_url": "",
          "iframe_poster": null,
          "release_ru": "2019-02-19",
          "release_world": "2019-02-18",
          "availability": "2019-02-20",
          "voiceActing": [
            "TVShows"
          ],
          "ads": false,
          "subtitle": []
        },
        {
          "episode": 6,
          "name": "Sanctuaire",
          "iframe_url": "",
          "iframe_poster": null,
          "release_ru": "2019-02-26",
          "release_world": "2019-02-25",
          "availability": "2019-02-27",
          "voiceActing": [
            "TVShows"
          ],
          "ads": false,
          "subtitle": []
        },
        {
          "episode": 7,
          "name": "Comme un chien",
          "iframe_url": "",
          "iframe_poster": null,
          "release_ru": "2019-02-26",
          "release_world": "2019-02-25",
          "availability": "2019-02-27",
          "voiceActing": [
            "TVShows"
          ],
          "ads": false,
          "subtitle": []
        },
        {
          "episode": 8,
          "name": "L'Ombre et les Proies",
          "iframe_url": "",
          "iframe_poster": null,
          "release_ru": "2019-02-26",
          "release_world": "2019-02-25",
          "availability": "2019-02-27",
          "voiceActing": [
            "TVShows"
          ],
          "ads": false,
          "subtitle": []
        }
      ]
    }
  ],
  "voiceActing": [
    "TVShows"
  ],
  "subtitle": [],
  "parts": []
}
