{
  "id": 47731,
  "name": "Эзуг Назаре",
  "name_eng": "Azougue Nazaré",
  "year": 2018,
  "slogan": "—",
  "age": null,
  "type": "film",
  "quality": "HD (720p)",
  "imdb": "6.7",
  "imdb_id": "8183418",
  "kinopoisk": null,
  "kinopoisk_id": "1139962",
  "world_art": null,
  "world_art_id": null,
  "time": "80 мин. / 01:20",
  "ads": true,
  "premier": "2018-01-26",
  "premier_rus": "2018-01-27",
  "availability": "2018-01-28",
  "activate_time": "2021-06-07 00:40:00",
  "budget": null,
  "fees_use": null,
  "fees_world": null,
  "fees_rus": null,
  "rate_mpaa": null,
  "description": "В провинциальном городке происходят мистические события. Набожные жители уверены, что виновны в этом люди из племени маракату, поклоняющиеся силам природы. Местный священник решает изгнать дьявола из города.",
  "iframe_url": "",
  "iframe_poster": null,
  "poster": "https://img.imgilall.me/movies/franchise/4/7/7/3/1/0/0/0/0/0/610x900_47731.jpg",
  "country": {
    "30": "Бразилия"
  },
  "collection": [],
  "genre": {
    "7": "Драма"
  },
  "director": [
    "Tiago Melo"
  ],
  "screenwriter": [
    "Jeronimo Lemos",
    "Tiago Melo"
  ],
  "producer": [
    "Fernanda Régis",
    "Леонардо Сетте",
    "Vanessa Barbosa"
  ],
  "operator": [
    "Gustavo Pessoa"
  ],
  "composer": [
    "Tiago Melo",
    "Mestre Anderson Miguel",
    "Tomaz Alves Souza"
  ],
  "design": [
    "Tiago Melo",
    "Ananias de Caldas"
  ],
  "editor": [
    "Андре Сэмпейо"
  ],
  "actors": [
    "Valmir do Côco",
    "Джоана Гатис",
    "Mestre Barachinha",
    "Edilson Silva",
    "Мохана Ушоа"
  ],
  "actors_dubl": [],
  "trivia": [],
  "trailers": [],
  "seasons": [],
  "voiceActing": [
    "Синема УС"
  ],
  "subtitle": [],
  "parts": []
}
