{
  "id": 9557,
  "name": "Последний черный в Сан-Франциско",
  "name_eng": "The Last Black Man in San Francisco",
  "year": 2019,
  "slogan": "«Fight for your land. Fight for your home»",
  "age": "16+",
  "type": "film",
  "quality": "FHD (1080p)",
  "imdb": "7.3",
  "imdb_id": "4353250",
  "kinopoisk": "7.0",
  "kinopoisk_id": "1115907",
  "world_art": null,
  "world_art_id": null,
  "time": "121 мин. / 02:01",
  "ads": false,
  "premier": "2019-01-26",
  "premier_rus": null,
  "availability": null,
  "activate_time": "2019-06-27 15:42:46",
  "budget": null,
  "fees_use": "$4 515 719",
  "fees_world": "+ $122 111 = $4 637 830",
  "fees_rus": null,
  "rate_mpaa": "R",
  "description": "Джимми живёт в Сан-Франциско и одержим идеей вернуть себе элегантный особняк в викторианском стиле, который, согласно семейной легенде, когда-то своими руками построил его дед. Сейчас в особняке живёт пожилая белая пара. Когда их нет дома, Джимми наведывается покрасить оконные рамы или полить цветы. Хозяева, естественно, недовольны.",
  "iframe_url": "",
  "iframe_poster": null,
  "poster": "https://img.imgilall.me/movies/franchise/9/5/5/7/0/0/0/0/0/0/610x900_9557.jpg",
  "country": {
    "1": "США"
  },
  "collection": [],
  "genre": {
    "10": "Зарубежный",
    "7": "Драма"
  },
  "director": [
    "Джо Талбот"
  ],
  "screenwriter": [
    "Джо Талбот",
    "Роб Ришар",
    "Emma Nicholls"
  ],
  "producer": [
    "Деде Гарднер",
    "Джереми Клейнер",
    "Khaliah Neal"
  ],
  "operator": [
    "Адам Ньюпорт-Берра"
  ],
  "composer": [
    "Эмиль Моссери"
  ],
  "design": [
    "Jona Tochet",
    "Olivia Kanz",
    "Аманда Рамирес"
  ],
  "editor": [
    "Дэвид Маркс"
  ],
  "actors": [
    "Джимми Фэйлс",
    "Джонатан Мэйджерс",
    "Роб Морган",
    "Тичина Арнольд",
    "Майк Эппс",
    "Финн Уиттрок",
    "Дэнни Гловер",
    "Willie Hen",
    "Jamal Trulove",
    "Antoine Redus"
  ],
  "actors_dubl": [],
  "trivia": [],
  "trailers": [],
  "seasons": [],
  "voiceActing": [
    "Рус. Проф. многоголосый",
    "Eng.Original"
  ],
  "subtitle": [
    "rus"
  ],
  "parts": []
}
