{
  "id": 15260,
  "name": "Новогодний пассажир",
  "name_eng": "",
  "year": 2017,
  "slogan": "—",
  "age": null,
  "type": "series",
  "quality": "SD",
  "imdb": null,
  "imdb_id": null,
  "kinopoisk": "5.6",
  "kinopoisk_id": "1111808",
  "world_art": null,
  "world_art_id": null,
  "time": "—",
  "ads": false,
  "premier": null,
  "premier_rus": null,
  "availability": null,
  "serial_status": "offline",
  "activate_time": "2020-02-13 11:19:00",
  "budget": null,
  "fees_use": null,
  "fees_world": null,
  "fees_rus": null,
  "rate_mpaa": null,
  "description": "Лиля надеется, что в новогоднюю ночь Кирилл, наконец-то, сделает ей предложение. Но он собирается встречать Новый год с родителями в Минске. Лиля ставит ультиматум: либо они едут к родителям вместе, либо расстаются...",
  "iframe_url": "",
  "poster": "https://img.imgilall.me/movies/franchise/1/5/2/6/0/0/0/0/0/0/610x900_15260.jpg",
  "country": {
    "5": "Россия"
  },
  "collection": {
    "38": "Про любовь",
    "27": "Про жизнь",
    "11": "Для женщин"
  },
  "genre": {
    "22": "Русский",
    "8": "Мелодрама"
  },
  "director": [
    "Юрий Морозов"
  ],
  "screenwriter": [
    "Марина Калиничева"
  ],
  "producer": [
    "Тимур Вайнштейн"
  ],
  "operator": [
    "Дмитрий Есипов"
  ],
  "composer": [
    "Игорь Щербаков"
  ],
  "design": [
    "Александр Миронов"
  ],
  "editor": [],
  "actors": [
    "Марина Петренко",
    "Евгений Пронин",
    "Елена Дубровская",
    "Дмитрий Мухин",
    "Елизавета Шукова",
    "Андрей Карако",
    "Мария Свирская",
    "Дмитрий Коляда"
  ],
  "actors_dubl": [],
  "trivia": [],
  "trailers": [],
  "seasons": [
    {
      "poster": null,
      "release_ru": null,
      "release_world": null,
      "availability": null,
      "iframe_url": "",
      "season": 1,
      "episodes": [
        {
          "episode": 1,
          "name": null,
          "iframe_url": "",
          "iframe_poster": null,
          "release_ru": null,
          "release_world": null,
          "availability": null,
          "voiceActing": [
            "Рус. Оригинальный"
          ],
          "ads": false,
          "subtitle": []
        },
        {
          "episode": 2,
          "name": null,
          "iframe_url": "",
          "iframe_poster": null,
          "release_ru": null,
          "release_world": null,
          "availability": null,
          "voiceActing": [
            "Рус. Оригинальный"
          ],
          "ads": false,
          "subtitle": []
        }
      ]
    }
  ],
  "voiceActing": [
    "Рус. Оригинальный"
  ],
  "subtitle": [],
  "parts": []
}
