{
  "id": 14122,
  "name": "Шесть дней с Систиной",
  "name_eng": "Six Days of Sistine",
  "year": 2019,
  "slogan": "—",
  "age": null,
  "type": "film",
  "quality": "HD (720p)",
  "imdb": "5.1",
  "imdb_id": "7710360",
  "kinopoisk": null,
  "kinopoisk_id": "1149770",
  "world_art": null,
  "world_art_id": null,
  "time": "84 мин. / 01:24",
  "ads": true,
  "premier": "2019-04-15",
  "premier_rus": null,
  "availability": null,
  "activate_time": "2020-01-09 21:16:00",
  "budget": "",
  "fees_use": "",
  "fees_world": "",
  "fees_rus": "",
  "rate_mpaa": "",
  "description": "Поэтичная история о том, как две души, жаждущие чистоты и понимания, обретают друг друга в чуждом для них современном мире.",
  "iframe_url": "",
  "iframe_poster": null,
  "poster": "https://img.imgilall.me/movies/franchise/1/4/1/2/2/0/0/0/0/0/610x900_14122.jpg",
  "country": {
    "2": "Великобритания"
  },
  "collection": {
    "29": "Психологические",
    "27": "Про жизнь"
  },
  "genre": {
    "8": "Мелодрама"
  },
  "director": [
    "Ричард Перри"
  ],
  "screenwriter": [
    "Andrea Dietrich",
    "Ричард Перри"
  ],
  "producer": [
    "Питер МакДональд"
  ],
  "operator": [
    "Робин Виджон"
  ],
  "composer": [
    "Tony Anderson"
  ],
  "design": [],
  "editor": [
    "Max McPherson"
  ],
  "actors": [
    "Эларика Джонсон",
    "Джейми Кэмпбелл Бауэр",
    "Аманда Аббингтон",
    "Джэми Лангландс",
    "Гарри Этвелл",
    "Кейн Серри",
    "Craig Talbot",
    "Jackie Pulford"
  ],
  "actors_dubl": [],
  "trivia": [],
  "trailers": [],
  "seasons": [],
  "voiceActing": [
    "Рус. Люб. многоголосый"
  ],
  "subtitle": [],
  "parts": []
}
