{
  "id": 5425,
  "name": "Тайны госпожи Кирсановой",
  "name_eng": "",
  "year": 2018,
  "slogan": null,
  "age": "12+",
  "type": "series",
  "quality": "FHD (1080p)",
  "imdb": null,
  "imdb_id": null,
  "kinopoisk": "7.2",
  "kinopoisk_id": "1171922",
  "world_art": null,
  "world_art_id": null,
  "time": "45 мин.",
  "ads": true,
  "premier": "2018-12-03",
  "premier_rus": "2018-12-03",
  "availability": null,
  "serial_status": "offline",
  "activate_time": "2019-01-12 21:51:32",
  "budget": null,
  "fees_use": null,
  "fees_world": null,
  "fees_rus": null,
  "rate_mpaa": null,
  "description": "У главной героини, 28-летней Ларисы Кирсановой, расстроилась свадьба из-за того, что жених, Павел Бестужев, исчез без всяких объяснений. Чтобы справиться с потрясением, Лариса Кирсанова отправляется на Балканы, где идет русско-турецкая война, и служит сестрой милосердия. После войны Лариса приезжает в Богородск, где живет ее тетушка и откуда родом Павел - Лариса планирует узнать тайну его исчезновения. Девушка зарабатывает на жизнь преподаванием математики в гимназии. Но вместе с этим ей приходится раскрывать преступления и соответствовать образу бесстрашной амазонки, которым ее наделила молва.",
  "iframe_url": "",
  "poster": "https://img.imgilall.me/movies/franchise/5/4/2/5/0/0/0/0/0/0/610x900_5425.jpg",
  "country": {
    "5": "Россия"
  },
  "collection": [],
  "genre": {
    "28": "Исторический",
    "24": "Детектив",
    "22": "Русский"
  },
  "director": [
    "Сергей Мезенцев",
    "Виталий Бордачев",
    "Алексей Колмогоров"
  ],
  "screenwriter": [
    "Алексей Колмогоров",
    "Андрей Томашевский",
    "Елена Полякова"
  ],
  "producer": [
    "Влад Ряшин",
    "Виталий Бордачев",
    "Александр Гусев"
  ],
  "operator": [
    "Александр Алешников"
  ],
  "composer": [
    "Антон Силаев"
  ],
  "design": [
    "Сергей Шаламов",
    "Светлана Петропавловская",
    "Светлана Литвинова"
  ],
  "editor": [],
  "actors": [
    "Ольга Лерман",
    "Антон Батырев",
    "Евгений Шириков",
    "Евгения Симонова",
    "Арсений Сергеев",
    "Ольга Плешкова",
    "Максим Битюков",
    "Николай Денисов",
    "Андрей Евдокимов",
    "Илья Ильиных"
  ],
  "actors_dubl": [],
  "trivia": [
    "Съемки сериала «Тайны госпожи Кирсановой» начались в феврале 2018 года и проходили на натурной площадке концерна «Мосфильм», Крутицком подворье, в Государственном музее-заповеднике «Горки Ленинские»."
  ],
  "trailers": [],
  "seasons": [
    {
      "poster": "https://img.imgilall.me/movies/season/3/1/8/5/0/0/0/0/0/0/610x900_3185.jpg",
      "release_ru": "2018-12-04",
      "release_world": "2018-12-03",
      "availability": "2018-12-05",
      "iframe_url": "",
      "season": 1,
      "episodes": [
        {
          "episode": 1,
          "name": "Штабс-капитан I",
          "iframe_url": "",
          "iframe_poster": "https://img.imgilall.me/movies/video/5/0/3/2/1/0/0/0/0/0/800x450_50321.jpeg",
          "release_ru": "2018-12-04",
          "release_world": "2018-12-03",
          "availability": "2018-12-05",
          "voiceActing": [
            "Рус. Оригинальный"
          ],
          "ads": true,
          "subtitle": []
        },
        {
          "episode": 2,
          "name": "Штабс-капитан II",
          "iframe_url": "",
          "iframe_poster": null,
          "release_ru": "2018-12-04",
          "release_world": "2018-12-03",
          "availability": "2018-12-05",
          "voiceActing": [
            "Рус. Оригинальный"
          ],
          "ads": false,
          "subtitle": []
        },
        {
          "episode": 3,
          "name": "Письмо I",
          "iframe_url": "",
          "iframe_poster": "https://img.imgilall.me/movies/video/5/0/3/2/3/0/0/0/0/0/800x450_50323.jpeg",
          "release_ru": "2018-12-05",
          "release_world": "2018-12-04",
          "availability": "2018-12-06",
          "voiceActing": [
            "Рус. Оригинальный"
          ],
          "ads": true,
          "subtitle": []
        },
        {
          "episode": 4,
          "name": "Письмо II",
          "iframe_url": "",
          "iframe_poster": "https://img.imgilall.me/movies/video/5/0/3/2/4/0/0/0/0/0/800x450_50324.jpeg",
          "release_ru": "2018-12-05",
          "release_world": "2018-12-04",
          "availability": "2018-12-06",
          "voiceActing": [
            "Рус. Оригинальный"
          ],
          "ads": true,
          "subtitle": []
        },
        {
          "episode": 5,
          "name": "Шведские спички I",
          "iframe_url": "",
          "iframe_poster": "https://img.imgilall.me/movies/video/5/0/3/2/5/0/0/0/0/0/800x450_50325.jpeg",
          "release_ru": "2018-12-06",
          "release_world": "2018-12-05",
          "availability": "2018-12-07",
          "voiceActing": [
            "Рус. Оригинальный"
          ],
          "ads": true,
          "subtitle": []
        },
        {
          "episode": 6,
          "name": "Шведские спички II",
          "iframe_url": "",
          "iframe_poster": null,
          "release_ru": "2018-12-06",
          "release_world": "2018-12-05",
          "availability": "2018-12-07",
          "voiceActing": [
            "Рус. Оригинальный"
          ],
          "ads": false,
          "subtitle": []
        },
        {
          "episode": 7,
          "name": "Родные люди I",
          "iframe_url": "",
          "iframe_poster": "https://img.imgilall.me/movies/video/5/0/3/2/7/0/0/0/0/0/800x450_50327.jpeg",
          "release_ru": "2018-12-07",
          "release_world": "2018-12-06",
          "availability": "2018-12-08",
          "voiceActing": [
            "Рус. Оригинальный"
          ],
          "ads": true,
          "subtitle": []
        },
        {
          "episode": 8,
          "name": "Родные люди II",
          "iframe_url": "",
          "iframe_poster": null,
          "release_ru": "2018-12-07",
          "release_world": "2018-12-06",
          "availability": "2018-12-08",
          "voiceActing": [
            "Рус. Оригинальный"
          ],
          "ads": false,
          "subtitle": []
        },
        {
          "episode": 9,
          "name": "Граф Монтенегро I",
          "iframe_url": "",
          "iframe_poster": "https://img.imgilall.me/movies/video/5/0/3/2/9/0/0/0/0/0/800x450_50329.jpeg",
          "release_ru": "2018-12-08",
          "release_world": "2018-12-07",
          "availability": "2018-12-09",
          "voiceActing": [
            "Рус. Оригинальный"
          ],
          "ads": true,
          "subtitle": []
        },
        {
          "episode": 10,
          "name": "Граф Монтенегро II",
          "iframe_url": "",
          "iframe_poster": "https://img.imgilall.me/movies/video/5/0/3/3/0/0/0/0/0/0/800x450_50330.jpeg",
          "release_ru": "2018-12-08",
          "release_world": "2018-12-07",
          "availability": "2018-12-09",
          "voiceActing": [
            "Рус. Оригинальный"
          ],
          "ads": true,
          "subtitle": []
        },
        {
          "episode": 11,
          "name": "Сила воображения I",
          "iframe_url": "",
          "iframe_poster": "https://img.imgilall.me/movies/video/5/0/3/3/1/0/0/0/0/0/800x450_50331.jpeg",
          "release_ru": "2018-12-11",
          "release_world": "2018-12-10",
          "availability": "2018-12-12",
          "voiceActing": [
            "Рус. Оригинальный"
          ],
          "ads": true,
          "subtitle": []
        },
        {
          "episode": 12,
          "name": "Сила воображения II",
          "iframe_url": "",
          "iframe_poster": null,
          "release_ru": "2018-12-11",
          "release_world": "2018-12-10",
          "availability": "2018-12-12",
          "voiceActing": [
            "Рус. Оригинальный"
          ],
          "ads": false,
          "subtitle": []
        },
        {
          "episode": 13,
          "name": "Дело лысых I",
          "iframe_url": "",
          "iframe_poster": null,
          "release_ru": "2018-12-12",
          "release_world": "2018-12-11",
          "availability": "2018-12-13",
          "voiceActing": [
            "Рус. Оригинальный"
          ],
          "ads": false,
          "subtitle": []
        },
        {
          "episode": 14,
          "name": "Дело лысых II",
          "iframe_url": "",
          "iframe_poster": "https://img.imgilall.me/movies/video/5/0/3/3/4/0/0/0/0/0/800x450_50334.jpeg",
          "release_ru": "2018-12-12",
          "release_world": "2018-12-11",
          "availability": "2018-12-13",
          "voiceActing": [
            "Рус. Оригинальный"
          ],
          "ads": true,
          "subtitle": []
        },
        {
          "episode": 15,
          "name": "Дама в фиолетовой шляпке I",
          "iframe_url": "",
          "iframe_poster": null,
          "release_ru": "2018-12-13",
          "release_world": "2018-12-12",
          "availability": "2018-12-14",
          "voiceActing": [
            "Рус. Оригинальный"
          ],
          "ads": false,
          "subtitle": []
        },
        {
          "episode": 16,
          "name": "Дама в фиолетовой шляпке II",
          "iframe_url": "",
          "iframe_poster": null,
          "release_ru": "2018-12-13",
          "release_world": "2018-12-12",
          "availability": "2018-12-14",
          "voiceActing": [
            "Рус. Оригинальный"
          ],
          "ads": false,
          "subtitle": []
        },
        {
          "episode": 17,
          "name": "Невеста I",
          "iframe_url": "",
          "iframe_poster": "https://img.imgilall.me/movies/video/5/0/3/3/7/0/0/0/0/0/800x450_50337.jpeg",
          "release_ru": "2018-12-14",
          "release_world": "2018-12-13",
          "availability": "2018-12-15",
          "voiceActing": [
            "Рус. Оригинальный"
          ],
          "ads": true,
          "subtitle": []
        },
        {
          "episode": 18,
          "name": "Невеста II",
          "iframe_url": "",
          "iframe_poster": null,
          "release_ru": "2018-12-14",
          "release_world": "2018-12-13",
          "availability": "2018-12-15",
          "voiceActing": [
            "Рус. Оригинальный"
          ],
          "ads": false,
          "subtitle": []
        },
        {
          "episode": 19,
          "name": "Выстрел в тумане I",
          "iframe_url": "",
          "iframe_poster": "https://img.imgilall.me/movies/video/5/0/3/3/9/0/0/0/0/0/800x450_50339.jpeg",
          "release_ru": "2018-12-15",
          "release_world": "2018-12-14",
          "availability": "2018-12-16",
          "voiceActing": [
            "Рус. Оригинальный"
          ],
          "ads": true,
          "subtitle": []
        },
        {
          "episode": 20,
          "name": "Выстрел в тумане II",
          "iframe_url": "",
          "iframe_poster": "https://img.imgilall.me/movies/video/5/0/3/4/0/0/0/0/0/0/800x450_50340.jpeg",
          "release_ru": "2018-12-15",
          "release_world": "2018-12-14",
          "availability": "2018-12-16",
          "voiceActing": [
            "Рус. Оригинальный"
          ],
          "ads": true,
          "subtitle": []
        },
        {
          "episode": 21,
          "name": "Тайна склепа I",
          "iframe_url": "",
          "iframe_poster": null,
          "release_ru": "2018-12-18",
          "release_world": "2018-12-17",
          "availability": "2018-12-19",
          "voiceActing": [
            "Рус. Оригинальный"
          ],
          "ads": false,
          "subtitle": []
        },
        {
          "episode": 22,
          "name": "Тайна склепа II",
          "iframe_url": "",
          "iframe_poster": "https://img.imgilall.me/movies/video/5/0/3/4/2/0/0/0/0/0/800x450_50342.jpeg",
          "release_ru": "2018-12-18",
          "release_world": "2018-12-17",
          "availability": "2018-12-19",
          "voiceActing": [
            "Рус. Оригинальный"
          ],
          "ads": true,
          "subtitle": []
        },
        {
          "episode": 23,
          "name": "Стрела амура I",
          "iframe_url": "",
          "iframe_poster": "https://img.imgilall.me/movies/video/5/0/3/4/3/0/0/0/0/0/800x450_50343.jpeg",
          "release_ru": "2018-12-19",
          "release_world": "2018-12-18",
          "availability": "2018-12-20",
          "voiceActing": [
            "Рус. Оригинальный"
          ],
          "ads": true,
          "subtitle": []
        },
        {
          "episode": 24,
          "name": "Стрела амура II",
          "iframe_url": "",
          "iframe_poster": "https://img.imgilall.me/movies/video/5/0/3/4/4/0/0/0/0/0/800x450_50344.jpeg",
          "release_ru": "2018-12-19",
          "release_world": "2018-12-18",
          "availability": "2018-12-20",
          "voiceActing": [
            "Рус. Оригинальный"
          ],
          "ads": true,
          "subtitle": []
        },
        {
          "episode": 25,
          "name": "Старуха-процентщица I",
          "iframe_url": "",
          "iframe_poster": null,
          "release_ru": "2018-12-20",
          "release_world": "2018-12-19",
          "availability": "2018-12-21",
          "voiceActing": [
            "Рус. Оригинальный"
          ],
          "ads": false,
          "subtitle": []
        },
        {
          "episode": 26,
          "name": "Старуха-процентщица II",
          "iframe_url": "",
          "iframe_poster": null,
          "release_ru": "2018-12-20",
          "release_world": "2018-12-19",
          "availability": "2018-12-21",
          "voiceActing": [
            "Рус. Оригинальный"
          ],
          "ads": false,
          "subtitle": []
        },
        {
          "episode": 27,
          "name": "Мор I",
          "iframe_url": "",
          "iframe_poster": "https://img.imgilall.me/movies/video/5/0/3/4/7/0/0/0/0/0/800x450_50347.jpeg",
          "release_ru": "2018-12-21",
          "release_world": "2018-12-20",
          "availability": "2018-12-22",
          "voiceActing": [
            "Рус. Оригинальный"
          ],
          "ads": true,
          "subtitle": []
        },
        {
          "episode": 28,
          "name": "Мор II",
          "iframe_url": "",
          "iframe_poster": null,
          "release_ru": "2018-12-21",
          "release_world": "2018-12-20",
          "availability": "2018-12-22",
          "voiceActing": [
            "Рус. Оригинальный"
          ],
          "ads": false,
          "subtitle": []
        },
        {
          "episode": 29,
          "name": "Налёт I",
          "iframe_url": "",
          "iframe_poster": null,
          "release_ru": "2018-12-22",
          "release_world": "2018-12-21",
          "availability": "2018-12-23",
          "voiceActing": [
            "Рус. Оригинальный"
          ],
          "ads": false,
          "subtitle": []
        },
        {
          "episode": 30,
          "name": "Налёт II",
          "iframe_url": "",
          "iframe_poster": null,
          "release_ru": "2018-12-22",
          "release_world": "2018-12-21",
          "availability": "2018-12-23",
          "voiceActing": [
            "Рус. Оригинальный"
          ],
          "ads": false,
          "subtitle": []
        },
        {
          "episode": 31,
          "name": "Мертвец I",
          "iframe_url": "",
          "iframe_poster": null,
          "release_ru": "2018-12-25",
          "release_world": "2018-12-24",
          "availability": "2018-12-26",
          "voiceActing": [
            "Рус. Оригинальный"
          ],
          "ads": false,
          "subtitle": []
        },
        {
          "episode": 32,
          "name": "Мертвец II",
          "iframe_url": "",
          "iframe_poster": null,
          "release_ru": "2018-12-25",
          "release_world": "2018-12-24",
          "availability": "2018-12-26",
          "voiceActing": [
            "Рус. Оригинальный"
          ],
          "ads": false,
          "subtitle": []
        },
        {
          "episode": 33,
          "name": "Тело I",
          "iframe_url": "",
          "iframe_poster": null,
          "release_ru": "2018-12-26",
          "release_world": "2018-12-25",
          "availability": "2018-12-27",
          "voiceActing": [
            "Рус. Оригинальный"
          ],
          "ads": false,
          "subtitle": []
        },
        {
          "episode": 34,
          "name": "Тело II",
          "iframe_url": "",
          "iframe_poster": null,
          "release_ru": "2018-12-26",
          "release_world": "2018-12-25",
          "availability": "2018-12-27",
          "voiceActing": [
            "Рус. Оригинальный"
          ],
          "ads": false,
          "subtitle": []
        },
        {
          "episode": 35,
          "name": "Дочь землемера I",
          "iframe_url": "",
          "iframe_poster": null,
          "release_ru": "2018-12-27",
          "release_world": "2018-12-26",
          "availability": "2018-12-28",
          "voiceActing": [
            "Рус. Оригинальный"
          ],
          "ads": false,
          "subtitle": []
        },
        {
          "episode": 36,
          "name": "Дочь землемера II",
          "iframe_url": "",
          "iframe_poster": null,
          "release_ru": "2018-12-27",
          "release_world": "2018-12-26",
          "availability": "2018-12-28",
          "voiceActing": [
            "Рус. Оригинальный"
          ],
          "ads": false,
          "subtitle": []
        },
        {
          "episode": 37,
          "name": "Ученик аптекаря I",
          "iframe_url": "",
          "iframe_poster": null,
          "release_ru": "2018-12-28",
          "release_world": "2018-12-27",
          "availability": "2018-12-29",
          "voiceActing": [
            "Рус. Оригинальный"
          ],
          "ads": false,
          "subtitle": []
        },
        {
          "episode": 38,
          "name": "Ученик аптекаря II",
          "iframe_url": "",
          "iframe_poster": null,
          "release_ru": "2018-12-28",
          "release_world": "2018-12-27",
          "availability": "2018-12-29",
          "voiceActing": [
            "Рус. Оригинальный"
          ],
          "ads": false,
          "subtitle": []
        },
        {
          "episode": 39,
          "name": "Тридцать сребреников I",
          "iframe_url": "",
          "iframe_poster": null,
          "release_ru": "2018-12-29",
          "release_world": "2018-12-28",
          "availability": "2018-12-30",
          "voiceActing": [
            "Рус. Оригинальный"
          ],
          "ads": false,
          "subtitle": []
        },
        {
          "episode": 40,
          "name": "Тридцать сребреников II",
          "iframe_url": "",
          "iframe_poster": null,
          "release_ru": "2018-12-29",
          "release_world": "2018-12-28",
          "availability": "2018-12-30",
          "voiceActing": [
            "Рус. Оригинальный"
          ],
          "ads": false,
          "subtitle": []
        },
        {
          "episode": 41,
          "name": "Смерть на балу I",
          "iframe_url": "",
          "iframe_poster": null,
          "release_ru": "2019-01-15",
          "release_world": "2019-01-14",
          "availability": "2019-01-16",
          "voiceActing": [
            "Рус. Оригинальный"
          ],
          "ads": false,
          "subtitle": []
        },
        {
          "episode": 42,
          "name": "Смерть на балу II",
          "iframe_url": "",
          "iframe_poster": null,
          "release_ru": "2019-01-15",
          "release_world": "2019-01-14",
          "availability": "2019-01-16",
          "voiceActing": [
            "Рус. Оригинальный"
          ],
          "ads": false,
          "subtitle": []
        },
        {
          "episode": 43,
          "name": "Две невесты I",
          "iframe_url": "",
          "iframe_poster": null,
          "release_ru": "2019-01-16",
          "release_world": "2019-01-15",
          "availability": "2019-01-17",
          "voiceActing": [
            "Рус. Оригинальный"
          ],
          "ads": false,
          "subtitle": []
        },
        {
          "episode": 44,
          "name": "Две невесты II",
          "iframe_url": "",
          "iframe_poster": null,
          "release_ru": "2019-01-16",
          "release_world": "2019-01-15",
          "availability": "2019-01-17",
          "voiceActing": [
            "Рус. Оригинальный"
          ],
          "ads": false,
          "subtitle": []
        },
        {
          "episode": 45,
          "name": "Каретниковы I",
          "iframe_url": "",
          "iframe_poster": null,
          "release_ru": "2019-01-17",
          "release_world": "2019-01-16",
          "availability": "2019-01-18",
          "voiceActing": [
            "Рус. Оригинальный"
          ],
          "ads": false,
          "subtitle": []
        },
        {
          "episode": 46,
          "name": "Каретниковы II",
          "iframe_url": "",
          "iframe_poster": null,
          "release_ru": "2019-01-17",
          "release_world": "2019-01-16",
          "availability": "2019-01-18",
          "voiceActing": [
            "Рус. Оригинальный"
          ],
          "ads": false,
          "subtitle": []
        },
        {
          "episode": 47,
          "name": "Поручик Семибратов I",
          "iframe_url": "",
          "iframe_poster": null,
          "release_ru": "2019-01-18",
          "release_world": "2019-01-17",
          "availability": "2019-01-19",
          "voiceActing": [
            "Рус. Оригинальный"
          ],
          "ads": false,
          "subtitle": []
        },
        {
          "episode": 48,
          "name": "Поручик Семибратов II",
          "iframe_url": "",
          "iframe_poster": null,
          "release_ru": "2019-01-18",
          "release_world": "2019-01-17",
          "availability": "2019-01-19",
          "voiceActing": [
            "Рус. Оригинальный"
          ],
          "ads": false,
          "subtitle": []
        },
        {
          "episode": 49,
          "name": "Заговор I",
          "iframe_url": "",
          "iframe_poster": null,
          "release_ru": "2019-01-19",
          "release_world": "2019-01-18",
          "availability": "2019-01-20",
          "voiceActing": [
            "Рус. Оригинальный"
          ],
          "ads": false,
          "subtitle": []
        },
        {
          "episode": 50,
          "name": "Заговор II",
          "iframe_url": "",
          "iframe_poster": null,
          "release_ru": "2019-01-19",
          "release_world": "2019-01-18",
          "availability": "2019-01-20",
          "voiceActing": [
            "Рус. Оригинальный"
          ],
          "ads": false,
          "subtitle": []
        }
      ]
    }
  ],
  "voiceActing": [
    "Рус. Оригинальный"
  ],
  "subtitle": [],
  "parts": []
}
