{
  "id": 8309,
  "name": "Мастер охоты на единорога",
  "name_eng": "",
  "year": 2019,
  "slogan": "—",
  "age": "12+",
  "type": "series",
  "quality": "HD (720p)",
  "imdb": null,
  "imdb_id": null,
  "kinopoisk": "6.8",
  "kinopoisk_id": "1185928",
  "world_art": null,
  "world_art_id": null,
  "time": "—",
  "ads": false,
  "premier": "2019-05-02",
  "premier_rus": "2019-05-02",
  "availability": null,
  "serial_status": "offline",
  "activate_time": "2019-05-02 12:58:21",
  "budget": null,
  "fees_use": null,
  "fees_world": null,
  "fees_rus": null,
  "rate_mpaa": null,
  "description": "На Александру Корзухину выходит необычный заказчик. Загадочность и некоторая мистичность клиента заставляет Корзухину согласиться на поиски старинного гобелена. Словно под гипнозом мужчины, Саша пускается в новое приключение, которое становится всё опаснее с каждым шагом. Очевидно, что за Единорогом охотится не она одна – каждый, кто может рассказать о гобелене, умирает до того, как Саша успевает задать вопросы. А вопросов все больше, и главный из них: что за человек этот заказчик, да и человек ли он?",
  "iframe_url": "",
  "poster": "https://img.imgilall.me/movies/franchise/8/3/0/9/0/0/0/0/0/0/610x900_8309.jpg",
  "country": {
    "5": "Россия"
  },
  "collection": [],
  "genre": {
    "24": "Детектив",
    "22": "Русский"
  },
  "director": [
    "Юрий Попович"
  ],
  "screenwriter": [
    "Ольга Мотина-Супонева",
    "Анна Малышева"
  ],
  "producer": [
    "Рубен Дишдишян",
    "Дмитрий Шутко",
    "Ольга Кочеткова"
  ],
  "operator": [
    "Арунас Баразнаускас"
  ],
  "composer": [
    "Максим Кошеваров",
    "Александр Маев"
  ],
  "design": [],
  "editor": [],
  "actors": [
    "Елена Великанова",
    "Максим Щеголев",
    "Любовь Германова",
    "Валерий Сторожик",
    "Виктория Герасимова",
    "Дмитрий Бедерин",
    "Кирилл Рубцов",
    "Оксана Гуляева",
    "Анатолий Гущин",
    "Анна Попова"
  ],
  "actors_dubl": [],
  "trivia": [],
  "trailers": [],
  "seasons": [
    {
      "poster": "https://img.imgilall.me/movies/season/5/5/1/6/0/0/0/0/0/0/610x900_5516.jpg",
      "release_ru": null,
      "release_world": null,
      "availability": null,
      "iframe_url": "",
      "season": 1,
      "episodes": [
        {
          "episode": 1,
          "name": null,
          "iframe_url": "",
          "iframe_poster": "https://img.imgilall.me/movies/video/8/9/4/0/2/0/0/0/0/0/800x450_89402.jpeg",
          "release_ru": null,
          "release_world": null,
          "availability": null,
          "voiceActing": [
            "Рус. Оригинальный"
          ],
          "ads": false,
          "subtitle": []
        },
        {
          "episode": 2,
          "name": null,
          "iframe_url": "",
          "iframe_poster": "https://img.imgilall.me/movies/video/8/9/4/0/3/0/0/0/0/0/800x450_89403.jpeg",
          "release_ru": null,
          "release_world": null,
          "availability": null,
          "voiceActing": [
            "Рус. Оригинальный"
          ],
          "ads": false,
          "subtitle": []
        },
        {
          "episode": 3,
          "name": null,
          "iframe_url": "",
          "iframe_poster": "https://img.imgilall.me/movies/video/8/9/4/0/4/0/0/0/0/0/800x450_89404.jpeg",
          "release_ru": null,
          "release_world": null,
          "availability": null,
          "voiceActing": [
            "Рус. Оригинальный"
          ],
          "ads": false,
          "subtitle": []
        },
        {
          "episode": 4,
          "name": null,
          "iframe_url": "",
          "iframe_poster": "https://img.imgilall.me/movies/video/8/9/4/0/5/0/0/0/0/0/800x450_89405.jpeg",
          "release_ru": null,
          "release_world": null,
          "availability": null,
          "voiceActing": [
            "Рус. Оригинальный"
          ],
          "ads": false,
          "subtitle": []
        }
      ]
    }
  ],
  "voiceActing": [
    "Рус. Оригинальный"
  ],
  "subtitle": [],
  "parts": []
}
