{
  "id": 10520,
  "name": "Невероятное",
  "name_eng": "Unbelievable",
  "year": 2019,
  "slogan": "«Based on True Events No One Believed»",
  "age": "18+",
  "type": "series",
  "quality": "FHD (1080p)",
  "imdb": "8.4",
  "imdb_id": "7909970",
  "kinopoisk": "7.8",
  "kinopoisk_id": "1169469",
  "world_art": null,
  "world_art_id": null,
  "time": "385 мин. всего",
  "ads": false,
  "premier": "2019-09-13",
  "premier_rus": null,
  "availability": null,
  "serial_status": "offline",
  "activate_time": "2019-08-23 12:29:00",
  "budget": null,
  "fees_use": null,
  "fees_world": null,
  "fees_rus": null,
  "rate_mpaa": null,
  "description": "История девушки-подростка Мари, чьи заявления об изнасиловании были признаны ложными. Две женщины-детектива берутся расследовать это дело, подозревая, что речь может идти о серийном насильнике.",
  "iframe_url": "",
  "poster": "https://img.imgilall.me/movies/franchise/1/0/5/2/0/0/0/0/0/0/610x900_10520.jpg",
  "country": {
    "1": "США"
  },
  "collection": [],
  "genre": {
    "25": "Криминал",
    "24": "Детектив",
    "10": "Зарубежный"
  },
  "director": [
    "Лиза Холоденко",
    "Майкл Диннер",
    "Сюзанна Грант"
  ],
  "screenwriter": [
    "Сюзанна Грант",
    "Майкл Шейбон",
    "Бекки Мод"
  ],
  "producer": [
    "Ken Armstrong",
    "Карл Беверли",
    "Майкл Шейбон"
  ],
  "operator": [
    "Хавьер Гробет",
    "Куйен Трэн",
    "Джон Линдли"
  ],
  "composer": [
    "Уильям Бейтс"
  ],
  "design": [
    "Джули Бергхофф",
    "Бретт МакКензи",
    "Алонсо Уилсон"
  ],
  "editor": [
    "Джеффри М. Вернер",
    "Кит Хендерсон"
  ],
  "actors": [
    "Кейтлин Дивер",
    "Тони Коллетт",
    "Мерритт Уивер",
    "Блейк Эллис",
    "Дейл Дикки",
    "Лиза Лапира",
    "Кай Леннокс",
    "Омар Маскати",
    "Valery Altamar",
    "Остин Хеберт"
  ],
  "actors_dubl": [
    "Александра Курагина",
    "Наталья Казначеева",
    "Варвара Чабан",
    "Ольга Кузнецова",
    "Алёна Созинова"
  ],
  "trivia": [
    "Сериал основан на реальных событиях.",
    "В основу сериала легла статья «An Unbelievable Story of Rape» авторов Т. Кристиана Миллера и Кена Армстронга и эпизод «Anatomy of Doubt» еженедельной радиопрограммы «This American Life»."
  ],
  "trailers": [
    {
      "name": "трейлер №1",
      "number": 1,
      "iframe_poster": "https://img.imgilall.me/movies/trailer/8/5/6/0/0/0/0/0/0/0/800x450_856.jpeg",
      "season": 1,
      "iframe_url": ""
    }
  ],
  "seasons": [
    {
      "poster": null,
      "release_ru": "2019-09-14",
      "release_world": "2019-09-13",
      "availability": "2019-09-15",
      "iframe_url": "",
      "season": 1,
      "episodes": [
        {
          "episode": 1,
          "name": null,
          "iframe_url": "",
          "iframe_poster": null,
          "release_ru": "2019-09-14",
          "release_world": "2019-09-13",
          "availability": "2019-09-15",
          "voiceActing": [
            "Рус. Дублированный",
            "Eng.Original"
          ],
          "ads": false,
          "subtitle": [
            "Рус. форсированные"
          ]
        },
        {
          "episode": 2,
          "name": null,
          "iframe_url": "",
          "iframe_poster": null,
          "release_ru": "2019-09-14",
          "release_world": "2019-09-13",
          "availability": "2019-09-15",
          "voiceActing": [
            "Рус. Дублированный",
            "Eng.Original"
          ],
          "ads": false,
          "subtitle": [
            "Рус. форсированные"
          ]
        },
        {
          "episode": 3,
          "name": null,
          "iframe_url": "",
          "iframe_poster": null,
          "release_ru": "2019-09-14",
          "release_world": "2019-09-13",
          "availability": "2019-09-15",
          "voiceActing": [
            "Рус. Дублированный",
            "Eng.Original"
          ],
          "ads": false,
          "subtitle": [
            "Рус. форсированные"
          ]
        },
        {
          "episode": 4,
          "name": null,
          "iframe_url": "",
          "iframe_poster": null,
          "release_ru": "2019-09-14",
          "release_world": "2019-09-13",
          "availability": "2019-09-15",
          "voiceActing": [
            "Рус. Дублированный",
            "Eng.Original"
          ],
          "ads": false,
          "subtitle": [
            "Рус. форсированные"
          ]
        },
        {
          "episode": 5,
          "name": null,
          "iframe_url": "",
          "iframe_poster": null,
          "release_ru": "2019-09-14",
          "release_world": "2019-09-13",
          "availability": "2019-09-15",
          "voiceActing": [
            "Рус. Дублированный",
            "Eng.Original"
          ],
          "ads": false,
          "subtitle": [
            "Рус. форсированные"
          ]
        },
        {
          "episode": 6,
          "name": null,
          "iframe_url": "",
          "iframe_poster": null,
          "release_ru": "2019-09-14",
          "release_world": "2019-09-13",
          "availability": "2019-09-15",
          "voiceActing": [
            "Рус. Дублированный",
            "Eng.Original"
          ],
          "ads": false,
          "subtitle": [
            "Рус. форсированные"
          ]
        },
        {
          "episode": 7,
          "name": null,
          "iframe_url": "",
          "iframe_poster": null,
          "release_ru": "2019-09-14",
          "release_world": "2019-09-13",
          "availability": "2019-09-15",
          "voiceActing": [
            "Рус. Дублированный",
            "Eng.Original"
          ],
          "ads": false,
          "subtitle": [
            "Рус. форсированные"
          ]
        },
        {
          "episode": 8,
          "name": null,
          "iframe_url": "",
          "iframe_poster": null,
          "release_ru": "2019-09-14",
          "release_world": "2019-09-13",
          "availability": "2019-09-15",
          "voiceActing": [
            "Рус. Дублированный",
            "Eng.Original"
          ],
          "ads": false,
          "subtitle": [
            "Рус. форсированные"
          ]
        }
      ]
    }
  ],
  "voiceActing": [
    "Рус. Дублированный",
    "Eng.Original"
  ],
  "subtitle": [
    "Рус. форсированные"
  ],
  "parts": []
}
