{
  "id": 36457,
  "name": "Пляж безработных",
  "name_eng": "Pogey Beach",
  "year": 2019,
  "slogan": "—",
  "age": null,
  "type": "film",
  "quality": "HD (720p)",
  "imdb": "6.9",
  "imdb_id": "8155564",
  "kinopoisk": null,
  "kinopoisk_id": "1122526",
  "world_art": null,
  "world_art_id": null,
  "time": "94 мин. / 01:34",
  "ads": true,
  "premier": "2019-01-22",
  "premier_rus": "2019-01-23",
  "availability": "2019-01-24",
  "activate_time": "2020-08-27 10:38:00",
  "budget": "",
  "fees_use": "",
  "fees_world": "",
  "fees_rus": "",
  "rate_mpaa": "",
  "description": "Наступает жара, кидай пиво в холодильник, врубай музон, скидывай одежду и бегом на Пляж Безработных, открывать летний сезон! Отрывайся вволю до самой зимы, когда придётся работать, а пока деньги льются рекой каждые две недели. И даже если на пиво не хватит, самогонщик одолжит пару бутылок, пока прекрасный чек на получение выходного пособия не будет обналичен!",
  "iframe_url": "",
  "iframe_poster": null,
  "poster": "https://img.imgilall.me/movies/franchise/3/6/4/5/7/0/0/0/0/0/610x900_36457.jpg",
  "country": {
    "7": "Канада"
  },
  "collection": [],
  "genre": {
    "19": "Комедия"
  },
  "director": [
    "Джереми Лартер"
  ],
  "screenwriter": [
    "Jason Larter",
    "Джереми Лартер",
    "Robbie Moses"
  ],
  "producer": [
    "Jason Larter",
    "Джереми Лартер",
    "Robbie Moses"
  ],
  "operator": [
    "Ray Lavers"
  ],
  "composer": [],
  "design": [
    "Kelly Caseley"
  ],
  "editor": [
    "Джереми Лартер",
    "Thom Smalley"
  ],
  "actors": [
    "Celia Koughan",
    "Robbie Carruthers",
    "Ryan Cameron",
    "Dennis Trainor",
    "Bill MacFadden",
    "Kinza Baker",
    "Kevin Gallant",
    "Kelly Caseley",
    "Matt Sherman",
    "Брюде Маклин"
  ],
  "actors_dubl": [],
  "trivia": [],
  "trailers": [],
  "seasons": [],
  "voiceActing": [
    "Рус. Люб. многоголосый"
  ],
  "subtitle": [],
  "parts": []
}
