{
  "id": 6674,
  "name": "Любовный выстрел",
  "name_eng": "Love Shot",
  "year": 2019,
  "slogan": "—",
  "age": "16+",
  "type": "film",
  "quality": "FHD (1080p)",
  "imdb": "5.5",
  "imdb_id": "7543072",
  "kinopoisk": null,
  "kinopoisk_id": "1106396",
  "world_art": null,
  "world_art_id": null,
  "time": "80 мин. / 01:20",
  "ads": false,
  "premier": "2019-02-26",
  "premier_rus": null,
  "availability": null,
  "activate_time": "2019-03-13 12:06:45",
  "budget": "",
  "fees_use": "",
  "fees_world": "",
  "fees_rus": "",
  "rate_mpaa": "",
  "description": "Наемный убийца в Корейском квартале влюбляется в хостес караоке-клуба и узнает, что она его следующая цель.",
  "iframe_url": "",
  "iframe_poster": null,
  "poster": "https://img.imgilall.me/movies/franchise/6/6/7/4/0/0/0/0/0/0/610x900_6674.jpg",
  "country": {
    "1": "США"
  },
  "collection": [],
  "genre": {
    "25": "Криминал",
    "19": "Комедия",
    "10": "Зарубежный",
    "8": "Мелодрама"
  },
  "director": [
    "Стивен Файн"
  ],
  "screenwriter": [
    "Стивен Файн"
  ],
  "producer": [
    "Стивен Файн",
    "Patrick L. Kornegay",
    "Эрик Кесслер"
  ],
  "operator": [
    "Дэн Кларк",
    "Джеймс Милнер",
    "Брайан Вэй"
  ],
  "composer": [
    "M. Geddes Gengras"
  ],
  "design": [],
  "editor": [
    "Стивен Файн",
    "Evan Puschak"
  ],
  "actors": [
    "Dakota Loesch",
    "Эми Цан",
    "Джон Капелос",
    "Круз Ким",
    "Виктор Дж. Хо",
    "Клинт Юнг",
    "Daniel Phai",
    "Синди Чу",
    "Брайан Кертис",
    "Evan Puschak"
  ],
  "actors_dubl": [],
  "trivia": [],
  "trailers": [],
  "seasons": [],
  "voiceActing": [
    "HDRezka Studio",
    "Eng.Original"
  ],
  "subtitle": [
    "Eng. full"
  ],
  "parts": []
}
