{
  "id": 11416,
  "name": "Одинокая девушка",
  "name_eng": "Solteras",
  "year": 2019,
  "slogan": "—",
  "age": null,
  "type": "film",
  "quality": "HD (720p)",
  "imdb": "5.9",
  "imdb_id": "6736198",
  "kinopoisk": null,
  "kinopoisk_id": "1116479",
  "world_art": null,
  "world_art_id": null,
  "time": "—",
  "ads": true,
  "premier": "2019-06-07",
  "premier_rus": "2019-06-08",
  "availability": "2019-06-09",
  "activate_time": "2019-10-09 14:31:00",
  "budget": "",
  "fees_use": "",
  "fees_world": "",
  "fees_rus": "",
  "rate_mpaa": "",
  "description": "После расставания с женихом Ана идет на курсы для одиноких женщин, которые ищут себе мужей.",
  "iframe_url": "",
  "iframe_poster": "https://img.imgilall.me/movies/video/1/1/9/4/0/0/0/0/0/0/800x450_119400.jpeg",
  "poster": "https://img.imgilall.me/movies/franchise/1/1/4/1/6/0/0/0/0/0/610x900_11416.jpg",
  "country": {
    "17": "Мексика"
  },
  "collection": [],
  "genre": {
    "19": "Комедия"
  },
  "director": [
    "Luis Javier Henaine"
  ],
  "screenwriter": [
    "Luis Javier Henaine",
    "Алехандра Олвера Авила"
  ],
  "producer": [
    "Pablo Zimbrón Alva",
    "Luis Javier Henaine",
    "Пабло Гарсиа Гаттерер"
  ],
  "operator": [
    "Глауцо Бермудез"
  ],
  "composer": [
    "Андрес Санчес",
    "Дэн Злотник"
  ],
  "design": [
    "Алисарине Дуколомб",
    "Бренда Гомес",
    "Элмер Фигуроа"
  ],
  "editor": [
    "Хорхе Макая"
  ],
  "actors": [
    "Кассандра Чангеротти",
    "Габриела де ла Гарса",
    "Мариана Кабрера",
    "Флор Едуарда Гуррола",
    "Иран Кастильо",
    "София Александер-Кац",
    "Диана Бовио",
    "Андрес Альмейда",
    "Хуан Пабло Медина",
    "Пабло Крус"
  ],
  "actors_dubl": [],
  "trivia": [],
  "trailers": [],
  "seasons": [],
  "voiceActing": [
    "Рус. Люб. многоголосый"
  ],
  "subtitle": [],
  "parts": []
}
