{
  "id": 7076,
  "name": "Познакомься с Софией",
  "name_eng": "Ti presento Sofia",
  "year": 2018,
  "slogan": "—",
  "age": "16+",
  "type": "film",
  "quality": "SD",
  "imdb": "5.9",
  "imdb_id": "8222342",
  "kinopoisk": null,
  "kinopoisk_id": "1160494",
  "world_art": null,
  "world_art_id": null,
  "time": "98 мин. / 01:38",
  "ads": true,
  "premier": "2018-10-31",
  "premier_rus": null,
  "availability": null,
  "activate_time": "2019-03-26 16:10:07",
  "budget": null,
  "fees_use": null,
  "fees_world": null,
  "fees_rus": null,
  "rate_mpaa": null,
  "description": "Габриэль – отец-одиночка, который заботится исключительно о своей 10-летней дочери Софии. Однажды он встречает Мару, любовь своей молодости, и у них начинается бурный роман. Есть только одна проблема: Мара ненавидит детей.",
  "iframe_url": "",
  "iframe_poster": "https://img.imgilall.me/movies/video/7/5/5/1/1/0/0/0/0/0/800x450_75511.jpeg",
  "poster": "https://img.imgilall.me/movies/franchise/7/0/7/6/0/0/0/0/0/0/610x900_7076.jpg",
  "country": {
    "8": "Италия"
  },
  "collection": [],
  "genre": {
    "19": "Комедия",
    "10": "Зарубежный"
  },
  "director": [
    "Гуидо Кьеза"
  ],
  "screenwriter": [
    "Джованни Боньетти",
    "Гуидо Кьеза",
    "Николетта Микели"
  ],
  "producer": [
    "Маурицио Тотти",
    "Алессандро Усай",
    "Гуидо Руд"
  ],
  "operator": [
    "Эмануеле Паске"
  ],
  "composer": [
    "Франческо Черази"
  ],
  "design": [
    "Паоло Сансони",
    "Кристина Аудизио"
  ],
  "editor": [
    "Люка Гаспарини"
  ],
  "actors": [
    "Фабио Де Луиджи",
    "Микаэла Рамаццотти",
    "Андреа Писани",
    "Катерина Сбаралья",
    "Дэвид Норман Шапиро",
    "Катерина Гуццанти",
    "Боб Мессини",
    "Даниэль Де Мартино",
    "Chiara Spoletini",
    "Дуччо Камерини"
  ],
  "actors_dubl": [],
  "trivia": [],
  "trailers": [],
  "seasons": [],
  "voiceActing": [
    "Рус. Люб. многоголосый"
  ],
  "subtitle": [],
  "parts": []
}
