{
  "id": 9419,
  "name": "Вперёд, брат!",
  "name_eng": "Go Brother!",
  "year": 2018,
  "slogan": "—",
  "age": "12+",
  "type": "film",
  "quality": "HD (720p)",
  "imdb": "6.4",
  "imdb_id": "8774260",
  "kinopoisk": null,
  "kinopoisk_id": "1142640",
  "world_art": null,
  "world_art_id": null,
  "time": "115 мин. / 01:55",
  "ads": true,
  "premier": "2018-08-16",
  "premier_rus": "2018-08-17",
  "availability": "2018-08-18",
  "activate_time": "2019-06-11 15:41:44",
  "budget": "",
  "fees_use": "",
  "fees_world": "$54 663 060",
  "fees_rus": "",
  "rate_mpaa": "",
  "description": "Шестнадцатилетняя Ши Мяо терпеть не может своего безответственного и надоедливого старшего брата Ши Фена, который постоянно над ней подшучивает. Девушка мечтает быть единственным ребенком в семье и получать всю родительскую любовь, однако вместо этого она вынуждена мириться с выходками ненавистного братца. Когда между ними происходит очередная ссора, Ши Мяо загадывает, чтобы он навсегда исчез из ее жизни. Проснувшись на следующий день, она с удивлением обнаруживает, что ее желание сбылось, и теперь Ши Фен является братом ее лучшей подруги...",
  "iframe_url": "",
  "iframe_poster": "https://img.imgilall.me/movies/video/9/7/9/9/2/0/0/0/0/0/800x450_97992.jpeg",
  "poster": "https://img.imgilall.me/movies/franchise/9/4/1/9/0/0/0/0/0/0/610x900_9419.jpg",
  "country": {
    "19": "Китай"
  },
  "collection": {
    "43": "Про подростков"
  },
  "genre": {
    "6": "Фэнтези",
    "19": "Комедия",
    "10": "Зарубежный"
  },
  "director": [
    "Чэн Феньфень"
  ],
  "screenwriter": [
    "You-Ling",
    "Чэн Феньфень",
    "Yue Zhao"
  ],
  "producer": [
    "Xu Lü",
    "Annie Chen",
    "Си-Шэн Чен"
  ],
  "operator": [
    "Чжан Ин"
  ],
  "composer": [
    "Оуэн Ван"
  ],
  "design": [
    "Shuo Wang",
    "Сюй Ливэнь"
  ],
  "editor": [
    "Гу Сяоюнь"
  ],
  "actors": [
    "Чжан Цзыфэн",
    "Пэн Юйчан",
    "Чжао Цзиньмай",
    "Сунь Цзэюань",
    "Xiangrui Fang",
    "Guanyi Liu",
    "Цзянь Хунбо",
    "Сюй Гуанъюй",
    "Linjing Jiang",
    "Zihe Liu"
  ],
  "actors_dubl": [],
  "trivia": [],
  "trailers": [],
  "seasons": [],
  "voiceActing": [
    "Рус. Люб. многоголосый"
  ],
  "subtitle": [],
  "parts": []
}
