{
  "id": 4039,
  "name": "Праздничный календарь",
  "name_eng": "The Holiday Calendar",
  "year": 2018,
  "slogan": null,
  "age": "6+",
  "type": "film",
  "quality": "FHD (1080p)",
  "imdb": "5.7",
  "imdb_id": "8262802",
  "kinopoisk": "5.8",
  "kinopoisk_id": "1117501",
  "world_art": null,
  "world_art_id": null,
  "time": "95 мин. / 01:35",
  "ads": false,
  "premier": "2018-11-02",
  "premier_rus": null,
  "availability": null,
  "activate_time": "2018-11-27 17:09:24",
  "budget": null,
  "fees_use": null,
  "fees_world": null,
  "fees_rus": null,
  "rate_mpaa": null,
  "description": "Талантливая девушка-фотограф наследует старинный рождественский календарь, который умеет предсказывать будущее. Приведет ли её этот волшебный календарь к любви?",
  "iframe_url": "",
  "iframe_poster": null,
  "poster": "https://img.imgilall.me/movies/franchise/4/0/3/9/0/0/0/0/0/0/610x900_4039.jpg",
  "country": {
    "1": "США"
  },
  "collection": [],
  "genre": {
    "10": "Зарубежный",
    "8": "Мелодрама"
  },
  "director": [
    "Брэдли Уолш"
  ],
  "screenwriter": [
    "Амин Кадерали"
  ],
  "producer": [
    "Дэвид Джозеф Ансельмо",
    "Винс Бальцано",
    "Эрик Жарбо"
  ],
  "operator": [
    "Питер Бенисон"
  ],
  "composer": [
    "Шон Ниммонс-Патерсон"
  ],
  "design": [
    "Гэвин Митчелл",
    "Elizabeth Bischof",
    "Маргарет Мор"
  ],
  "editor": [
    "Гордон МакКлеллан"
  ],
  "actors": [
    "Кэт Грэхэм",
    "Куинси Браун",
    "Итан Пек",
    "Рон Сепас Джонс",
    "Дженелл Уильямс",
    "Али Хассан",
    "Родриго Фернандез-Столл",
    "Лаура ДеКартере",
    "Кевин Ханчард",
    "Ромэйн Вейт"
  ],
  "actors_dubl": [],
  "trivia": [],
  "trailers": [],
  "seasons": [],
  "voiceActing": [
    "HDRezka Studio",
    "Eng.Original"
  ],
  "subtitle": [
    "Eng. SDH"
  ],
  "parts": []
}
