{
  "id": 11533,
  "name": "Делиха 2",
  "name_eng": "Deliha 2",
  "year": 2018,
  "slogan": "—",
  "age": null,
  "type": "film",
  "quality": "HD (720p)",
  "imdb": "4.5",
  "imdb_id": "7871636",
  "kinopoisk": null,
  "kinopoisk_id": "1133367",
  "world_art": null,
  "world_art_id": null,
  "time": "106 мин. / 01:46",
  "ads": true,
  "premier": "2018-01-12",
  "premier_rus": "2018-01-13",
  "availability": "2018-01-14",
  "activate_time": "2019-10-23 14:23:00",
  "budget": null,
  "fees_use": null,
  "fees_world": null,
  "fees_rus": null,
  "rate_mpaa": null,
  "description": "Безумная и открытая Делиха постоянно вляпывается в новые неприятности. Теперь она ищет путь, как сделать карьеру. Мечтая стать шеф-поваром, она начинает работать в ресторане. Сможет ли Делиха достигнуть желаемого, или реальный мир разобьёт её мечты и сердце?",
  "iframe_url": "",
  "iframe_poster": "https://img.imgilall.me/movies/video/1/1/9/9/4/4/0/0/0/0/800x450_119944.jpeg",
  "poster": "https://img.imgilall.me/movies/franchise/1/1/5/3/3/0/0/0/0/0/610x900_11533.jpg",
  "country": {
    "36": "Турция"
  },
  "collection": [],
  "genre": {
    "19": "Комедия"
  },
  "director": [
    "Гупсе Озай"
  ],
  "screenwriter": [
    "Гупсе Озай"
  ],
  "producer": [
    "Неджати Акпынар",
    "Zumrut Arol Bekce",
    "Mahir Altundag"
  ],
  "operator": [
    "Жан-Поль Сересин"
  ],
  "composer": [
    "Джем Йылдыз"
  ],
  "design": [
    "Nilgün Nalçaci",
    "Тугба Атач"
  ],
  "editor": [
    "Akin Denizli",
    "Sercan Güdücü",
    "Чагри Тюрккан"
  ],
  "actors": [
    "Гупсе Озай",
    "Эда Эдже",
    "Аксель Бонфиль",
    "Дерия Алабора",
    "Эсин Иден",
    "Хюлья Дуяр",
    "Али Челик",
    "Мерт Онер",
    "Fatih Özkan",
    "Özlem Akinözü"
  ],
  "actors_dubl": [],
  "trivia": [],
  "trailers": [],
  "seasons": [],
  "voiceActing": [
    "Рус. Люб. многоголосый"
  ],
  "subtitle": [],
  "parts": []
}
