{
  "id": 44709,
  "name": "Моя подружка сорвала куш в лотерее",
  "name_eng": "My Side Piece Hit the Lotto",
  "year": 2018,
  "slogan": "—",
  "age": null,
  "type": "film",
  "quality": "HD (720p)",
  "imdb": "3.1",
  "imdb_id": "7631890",
  "kinopoisk": null,
  "kinopoisk_id": "1104622",
  "world_art": null,
  "world_art_id": null,
  "time": "106 мин. / 01:46",
  "ads": true,
  "premier": "2018-03-29",
  "premier_rus": "2018-03-30",
  "availability": "2018-03-31",
  "activate_time": "2021-03-03 12:31:00",
  "budget": "$500 000",
  "fees_use": null,
  "fees_world": null,
  "fees_rus": null,
  "rate_mpaa": "R",
  "description": null,
  "iframe_url": "",
  "iframe_poster": null,
  "poster": "https://img.imgilall.me/movies/franchise/4/4/7/0/9/0/0/0/0/0/610x900_44709.jpg",
  "country": {
    "1": "США"
  },
  "collection": [],
  "genre": {
    "7": "Драма"
  },
  "director": [
    "Дьюи Аллен"
  ],
  "screenwriter": [
    "Дьюи Аллен",
    "Мэндо Аллен",
    "Terrie Todd"
  ],
  "producer": [
    "Дьюи Аллен",
    "Мэндо Аллен"
  ],
  "operator": [
    "Vincent Perry"
  ],
  "composer": [],
  "design": [],
  "editor": [
    "Дьюи Аллен"
  ],
  "actors": [
    "Мэндо Аллен",
    "Raheem Allen",
    "Deborah Bryant",
    "Nick Frank",
    "Rita Gutierrez",
    "Terrie Todd",
    "Vernon Wiggins"
  ],
  "actors_dubl": [],
  "trivia": [],
  "trailers": [],
  "seasons": [],
  "voiceActing": [
    "Рус. Люб. многоголосый"
  ],
  "subtitle": [],
  "parts": []
}
