{
  "id": 50480,
  "name": "Первое лицо множественного числа",
  "name_eng": "First Person Plural",
  "year": 2019,
  "slogan": "—",
  "age": null,
  "type": "film",
  "quality": "HD (720p)",
  "imdb": null,
  "imdb_id": "8530904",
  "kinopoisk": null,
  "kinopoisk_id": "1167709",
  "world_art": null,
  "world_art_id": null,
  "time": "86 мин. / 01:26",
  "ads": true,
  "premier": "2019-04-12",
  "premier_rus": null,
  "availability": null,
  "activate_time": "2021-09-10 11:20:00",
  "budget": null,
  "fees_use": null,
  "fees_world": null,
  "fees_rus": null,
  "rate_mpaa": null,
  "description": null,
  "iframe_url": "",
  "iframe_poster": null,
  "poster": "https://img.imgilall.me/movies/franchise/5/0/4/8/0/0/0/0/0/0/610x900_50480.jpeg",
  "country": {
    "1": "США"
  },
  "collection": [],
  "genre": {
    "8": "Мелодрама",
    "7": "Драма"
  },
  "director": [
    "Eric Tretbar"
  ],
  "screenwriter": [
    "Eric Tretbar"
  ],
  "producer": [
    "Eric Tretbar",
    "Sondra Mann",
    "Sean O'Neil"
  ],
  "operator": [
    "Jacob Gardner",
    "Travis Higgins",
    "David Schnack"
  ],
  "composer": [
    "Alex Freeman"
  ],
  "design": [
    "KaylaAnne Glick",
    "Кати Бэтчелдер"
  ],
  "editor": [
    "Lalo Mok"
  ],
  "actors": [
    "Файсал Ахмед",
    "Amanda Day",
    "Баркхад Абдирахман",
    "Аманда Дэй",
    "Michael Anton Johnson",
    "Ahmed Ismail Yusuf",
    "Pearce Bunting",
    "Фатия Абси",
    "Мишель О’Нилл",
    "Diamond Abdirahman"
  ],
  "actors_dubl": [],
  "trivia": [],
  "trailers": [],
  "seasons": [],
  "voiceActing": [
    "Синема УС"
  ],
  "subtitle": [],
  "parts": []
}
