{
  "id": 52258,
  "name": "Лимб",
  "name_eng": "Limbo",
  "year": 2021,
  "slogan": "—",
  "age": null,
  "type": "film",
  "quality": "HD (720p)",
  "imdb": "7.1",
  "imdb_id": "14032696",
  "kinopoisk": null,
  "kinopoisk_id": "1115032",
  "world_art": null,
  "world_art_id": null,
  "time": "118 мин. / 01:58",
  "ads": true,
  "premier": "2021-06-25",
  "premier_rus": "2021-06-26",
  "availability": "2021-06-27",
  "activate_time": "2021-11-17 00:02:00",
  "budget": null,
  "fees_use": null,
  "fees_world": null,
  "fees_rus": null,
  "rate_mpaa": null,
  "description": "Два полицейских напарника — новичок и ветеран — расследуют серию зверских убийств женщин. Кроме того, маньяк очень любит отрезать жертвам кисти рук. Копы решают использовать одну из преступниц в качестве приманки.",
  "iframe_url": "",
  "iframe_poster": null,
  "poster": "https://img.imgilall.me/movies/franchise/5/2/2/5/8/0/0/0/0/0/610x900_52258.jpg",
  "country": {
    "12": "Гонконг",
    "19": "Китай"
  },
  "collection": [],
  "genre": {
    "25": "Криминал",
    "24": "Детектив",
    "13": "Триллер"
  },
  "director": [
    "Чин Поу-Сои"
  ],
  "screenwriter": [
    "Ау Кинь-И",
    "Лэй Ми"
  ],
  "producer": [
    "Пако Вон",
    "Уилсон Ип",
    "Цзян Дэфу"
  ],
  "operator": [
    "Алан Чэн"
  ],
  "composer": [
    "Кэндзи Каваи"
  ],
  "design": [
    "Кеннет Мак",
    "Брюс Юй"
  ],
  "editor": [
    "Дэвид М. Ричардсон"
  ],
  "actors": [
    "Гордон Лам",
    "Сиа Лю",
    "Мэйсон Ли",
    "Ханна Чань",
    "Хироюки Икэути",
    "Фиш Лью",
    "Камер Со",
    "Сэмми Сум"
  ],
  "actors_dubl": [],
  "trivia": [],
  "trailers": [],
  "seasons": [],
  "voiceActing": [
    "Колобок"
  ],
  "subtitle": [],
  "parts": []
}
