{
  "id": 16766,
  "name": "Наследие костей",
  "name_eng": "Legado en los huesos",
  "year": 2019,
  "slogan": "—",
  "age": null,
  "type": "film",
  "quality": "FHD (1080p)",
  "imdb": "6.3",
  "imdb_id": "7304802",
  "kinopoisk": "6.3",
  "kinopoisk_id": "1160335",
  "world_art": null,
  "world_art_id": null,
  "time": "121 мин. / 02:01",
  "ads": false,
  "premier": "2019-10-10",
  "premier_rus": "2019-10-11",
  "availability": "2019-10-12",
  "activate_time": "2020-04-18 18:41:00",
  "budget": "",
  "fees_use": "",
  "fees_world": "$1 981 353",
  "fees_rus": "",
  "rate_mpaa": "",
  "description": "Инспектор Амайя Салазар возвращается в долину Базтан ради нового дела. И на этот раз даже ее любимые не в безопасности.",
  "iframe_url": "",
  "iframe_poster": null,
  "poster": "https://img.imgilall.me/movies/franchise/1/6/7/6/6/0/0/0/0/0/610x900_16766.jpg",
  "country": {
    "3": "Испания",
    "20": "Германия"
  },
  "collection": {
    "40": "Netflix",
    "62": "Про полицию"
  },
  "genre": {
    "25": "Криминал",
    "13": "Триллер",
    "10": "Зарубежный"
  },
  "director": [
    "Фернандо Гонзалез Молина"
  ],
  "screenwriter": [
    "Луисо Бердехо",
    "Долорес Редондо"
  ],
  "producer": [
    "Мерседес Гамеро",
    "Адриан Герра",
    "Петер Надерман"
  ],
  "operator": [
    "Чави Хименес"
  ],
  "composer": [
    "Фернандо Веласкес"
  ],
  "design": [
    "Серафин Гонзалез",
    "Антон Лагуна",
    "Лолес Гарсия Галеан"
  ],
  "editor": [
    "Вероника Кайон"
  ],
  "actors": [
    "Марта Этура",
    "Нене",
    "Леонардо Сбаралья",
    "Франсеск Орелья",
    "Иманоль Ариас",
    "Бенджамин Нортовер",
    "Itziar Aizpuru",
    "Патриция Лопез",
    "Алисия Санчес",
    "Eduardo Rosa"
  ],
  "actors_dubl": [],
  "trivia": [],
  "trailers": [],
  "seasons": [],
  "voiceActing": [
    "Рус. Люб. многоголосый",
    "Fr. Original",
    "Spanish Original"
  ],
  "subtitle": [
    "Рус. полные"
  ],
  "parts": []
}
