{
  "id": 10355,
  "name": "Время на исходе",
  "name_eng": "Running Out Of Time",
  "year": 2018,
  "slogan": "—",
  "age": null,
  "type": "film",
  "quality": "HD (720p)",
  "imdb": "4.3",
  "imdb_id": "8420952",
  "kinopoisk": null,
  "kinopoisk_id": "1156491",
  "world_art": null,
  "world_art_id": null,
  "time": "87 мин. / 01:27",
  "ads": true,
  "premier": null,
  "premier_rus": null,
  "availability": null,
  "activate_time": "2019-08-22 17:05:00",
  "budget": "",
  "fees_use": "",
  "fees_world": "",
  "fees_rus": "",
  "rate_mpaa": "",
  "description": "Овдовевшая Бренда Харпер и ее семья становятся заложниками из-за событий из прошлого ее покойного мужа.",
  "iframe_url": "",
  "iframe_poster": "https://img.imgilall.me/movies/video/1/0/8/6/0/8/0/0/0/0/800x450_108608.jpeg",
  "poster": "https://img.imgilall.me/movies/franchise/1/0/3/5/5/0/0/0/0/0/610x900_10355.jpg",
  "country": {
    "1": "США"
  },
  "collection": [],
  "genre": {
    "13": "Триллер",
    "10": "Зарубежный"
  },
  "director": [
    "Крис Стоукс"
  ],
  "screenwriter": [
    "С. Джарелл Экхолс",
    "Маркус Хьюстон",
    "Крис Стоукс"
  ],
  "producer": [
    "Бретт Дисмьюк",
    "Джей-Буг",
    "Маркус Хьюстон"
  ],
  "operator": [
    "Joel Layogan"
  ],
  "composer": [
    "Immanuel Rich"
  ],
  "design": [
    "Крисси Стоукс",
    "Miyana Dickey",
    "Adrene Ashford"
  ],
  "editor": [
    "Харви Уайт"
  ],
  "actors": [
    "Brandon Anthony",
    "Tyrone Evans Clark",
    "London Deverona",
    "Sean Dominic",
    "Дастин Хэрниш",
    "Тельма Хопкинс",
    "Sydney Elise Johnson",
    "Joel Layogan",
    "РонРико Ли",
    "Пол Логан"
  ],
  "actors_dubl": [],
  "trivia": [],
  "trailers": [],
  "seasons": [],
  "voiceActing": [
    "Рус. Люб. многоголосый"
  ],
  "subtitle": [],
  "parts": []
}
