{
  "id": 48409,
  "name": "Монстры за работой",
  "name_eng": "Monsters at Work",
  "year": 2021,
  "slogan": "«It's Laughter We're After»",
  "age": null,
  "type": "cartoon-series",
  "quality": "FHD (1080p)",
  "imdb": "7.1",
  "imdb_id": "8610082",
  "kinopoisk": "6.3",
  "kinopoisk_id": "1171899",
  "world_art": null,
  "world_art_id": null,
  "time": "22 мин",
  "ads": false,
  "premier": "2021-07-07",
  "premier_rus": "2021-07-08",
  "availability": "2021-07-09",
  "serial_status": "online",
  "activate_time": "2021-07-01 11:00:00",
  "budget": null,
  "fees_use": null,
  "fees_world": null,
  "fees_rus": null,
  "rate_mpaa": null,
  "description": "Что произошло, когда жители города переориентировались на добычу энергии не из детского страха, а из смеха?",
  "iframe_url": "",
  "poster": "https://img.imgilall.me/movies/franchise/4/8/4/0/9/0/0/0/0/0/610x900_48409.jpg",
  "country": {
    "1": "США"
  },
  "collection": {
    "37": "Disney"
  },
  "genre": {
    "9": "Приключения",
    "6": "Фэнтези",
    "33": "Семейный",
    "19": "Комедия"
  },
  "director": [
    "Стивен Дж. Андерсон",
    "Kaitlyn Ritter",
    "Kathleen Thorson Good"
  ],
  "screenwriter": [
    "Роберт Ганнавей",
    "Келси Манн",
    "Боб Питерсон"
  ],
  "producer": [
    "Феррелл Баррон",
    "Роберт Ганнавей",
    "Марсия Гвендолин Джонс"
  ],
  "operator": [
    "Jim Turner"
  ],
  "composer": [
    "Доминик Льюис"
  ],
  "design": [
    "Maurice Kimball",
    "Chris Ayers",
    "Jason Merck"
  ],
  "editor": [
    "Дэн Молина"
  ],
  "actors": [
    "Билли Кристал",
    "Бен Фельдман",
    "Минди Кейлинг",
    "Генри Уинклер",
    "Лукас Нефф",
    "Аланна Юбак",
    "Стефен Стэнтон",
    "Джон Гудман",
    "Кристофер Свиндл",
    "Дженнифер Тилли"
  ],
  "actors_dubl": [],
  "trivia": [],
  "trailers": [
    {
      "name": "трейлер №1",
      "number": 1,
      "iframe_poster": null,
      "season": 1,
      "iframe_url": ""
    }
  ],
  "seasons": [
    {
      "poster": null,
      "release_ru": null,
      "release_world": null,
      "availability": null,
      "iframe_url": "",
      "season": 1,
      "episodes": [
        {
          "episode": 1,
          "name": null,
          "iframe_url": "",
          "iframe_poster": null,
          "release_ru": null,
          "release_world": null,
          "availability": null,
          "voiceActing": [
            "LostFilm",
            "TVShows",
            "Eng.Original"
          ],
          "ads": false,
          "subtitle": [
            "Рус. полные"
          ]
        },
        {
          "episode": 2,
          "name": null,
          "iframe_url": "",
          "iframe_poster": null,
          "release_ru": null,
          "release_world": null,
          "availability": null,
          "voiceActing": [
            "LostFilm",
            "TVShows",
            "Eng.Original"
          ],
          "ads": false,
          "subtitle": [
            "Рус. полные"
          ]
        },
        {
          "episode": 3,
          "name": null,
          "iframe_url": "",
          "iframe_poster": null,
          "release_ru": null,
          "release_world": null,
          "availability": null,
          "voiceActing": [
            "LostFilm",
            "TVShows",
            "Eng.Original"
          ],
          "ads": false,
          "subtitle": [
            "Рус. полные"
          ]
        },
        {
          "episode": 4,
          "name": null,
          "iframe_url": "",
          "iframe_poster": null,
          "release_ru": null,
          "release_world": null,
          "availability": null,
          "voiceActing": [
            "LostFilm",
            "TVShows",
            "Eng.Original"
          ],
          "ads": false,
          "subtitle": [
            "Рус. полные"
          ]
        },
        {
          "episode": 5,
          "name": null,
          "iframe_url": "",
          "iframe_poster": null,
          "release_ru": null,
          "release_world": null,
          "availability": null,
          "voiceActing": [
            "LostFilm",
            "TVShows",
            "Eng.Original"
          ],
          "ads": false,
          "subtitle": [
            "Рус. полные"
          ]
        },
        {
          "episode": 6,
          "name": null,
          "iframe_url": "",
          "iframe_poster": null,
          "release_ru": null,
          "release_world": null,
          "availability": null,
          "voiceActing": [
            "LostFilm",
            "TVShows",
            "Eng.Original"
          ],
          "ads": false,
          "subtitle": [
            "Рус. полные"
          ]
        },
        {
          "episode": 7,
          "name": null,
          "iframe_url": "",
          "iframe_poster": null,
          "release_ru": null,
          "release_world": null,
          "availability": null,
          "voiceActing": [
            "LostFilm",
            "TVShows",
            "Eng.Original"
          ],
          "ads": false,
          "subtitle": [
            "Рус. полные"
          ]
        },
        {
          "episode": 8,
          "name": null,
          "iframe_url": "",
          "iframe_poster": null,
          "release_ru": null,
          "release_world": null,
          "availability": null,
          "voiceActing": [
            "LostFilm",
            "TVShows",
            "Eng.Original"
          ],
          "ads": false,
          "subtitle": [
            "Рус. полные"
          ]
        },
        {
          "episode": 9,
          "name": null,
          "iframe_url": "",
          "iframe_poster": null,
          "release_ru": null,
          "release_world": null,
          "availability": null,
          "voiceActing": [
            "LostFilm",
            "TVShows",
            "Eng.Original"
          ],
          "ads": false,
          "subtitle": [
            "Рус. полные"
          ]
        },
        {
          "episode": 10,
          "name": null,
          "iframe_url": "",
          "iframe_poster": null,
          "release_ru": null,
          "release_world": null,
          "availability": null,
          "voiceActing": [
            "LostFilm",
            "Eng.Original"
          ],
          "ads": false,
          "subtitle": []
        }
      ]
    }
  ],
  "voiceActing": [
    "LostFilm",
    "TVShows",
    "Eng.Original"
  ],
  "subtitle": [
    "Рус. полные"
  ],
  "parts": []
}
