{
  "id": 7639,
  "name": "Рассвет в раю",
  "name_eng": "Sunrise in Heaven",
  "year": 2019,
  "slogan": "«Teen love that spans a lifetime»",
  "age": "12+",
  "type": "film",
  "quality": "HD (720p)",
  "imdb": "6.0",
  "imdb_id": "8801584",
  "kinopoisk": null,
  "kinopoisk_id": "1178836",
  "world_art": null,
  "world_art_id": null,
  "time": "85 мин. / 01:25",
  "ads": true,
  "premier": "2019-04-09",
  "premier_rus": null,
  "availability": null,
  "activate_time": "2019-04-12 10:10:24",
  "budget": "",
  "fees_use": "",
  "fees_world": "",
  "fees_rus": "",
  "rate_mpaa": "",
  "description": "Настоящая история любви, охватывающая целую жизнь, но оканчивающаяся горькой утратой. Джен - дочь чересчур оберегающего отца - военного, но это не мешает ей влюбиться в Стива, молодого солдата, служащего в воздушных силах.",
  "iframe_url": "",
  "iframe_poster": "https://img.imgilall.me/movies/video/8/1/6/3/4/0/0/0/0/0/800x450_81634.jpeg",
  "poster": "https://img.imgilall.me/movies/franchise/7/6/3/9/0/0/0/0/0/0/610x900_7639.jpg",
  "country": {
    "1": "США"
  },
  "collection": [],
  "genre": {
    "10": "Зарубежный",
    "8": "Мелодрама",
    "7": "Драма"
  },
  "director": [
    "Уэймон Бун"
  ],
  "screenwriter": [
    "Дэн Бенамор",
    "Jan Hurst"
  ],
  "producer": [
    "Дурейшевар",
    "Nat Mundel",
    "Джек Нассер"
  ],
  "operator": [
    "Патрис Люсьен Коше"
  ],
  "composer": [
    "Кент Рок"
  ],
  "design": [
    "Мелисса Эрдман",
    "Madeleine Maloy",
    "Aoife Baker"
  ],
  "editor": [
    "Шон Кэйн"
  ],
  "actors": [
    "Кэйли Кауэн",
    "Трэвис Бёрнс",
    "Корбин Бернсен",
    "Бонни Барроуз",
    "Ди Уоллес-Стоун",
    "Эрин Бети",
    "Дженн Готцон",
    "Рэнди Краудер",
    "Алекс Моррис",
    "Аарон Д. Александр"
  ],
  "actors_dubl": [],
  "trivia": [],
  "trailers": [],
  "seasons": [],
  "voiceActing": [
    "Рус. Проф. многоголосый"
  ],
  "subtitle": [],
  "parts": []
}
