{
  "id": 15783,
  "name": "Митчеллы против машин",
  "name_eng": "The Mitchells vs. the Machines",
  "year": 2020,
  "slogan": "—",
  "age": "6+",
  "type": "cartoon",
  "quality": "FHD (1080p)",
  "imdb": "7.7",
  "imdb_id": "7979580",
  "kinopoisk": "7.6",
  "kinopoisk_id": "1146303",
  "world_art": null,
  "world_art_id": null,
  "time": "113 мин. / 01:53",
  "ads": false,
  "premier": "2020-09-17",
  "premier_rus": "2020-09-17",
  "availability": "2020-09-18",
  "activate_time": "2020-03-05 14:25:00",
  "budget": null,
  "fees_use": null,
  "fees_world": null,
  "fees_rus": null,
  "rate_mpaa": "PG",
  "description": "Девушка-подросток Кэти Митчелл всегда считала, что родители не понимают её увлечений — делать странные фильмы про всё вокруг, в том числе про мопса-полицейского с семейным питомцем в главной роли. Поэтому когда она поступила в киношколу на другом конце страны, счастью не было предела. Кэти не могла дождаться, когда же она наконец сядет в самолёт и полетит к понимающим её людям, но глава семейства решил по-своему. Папаша Митчелл задумал организовать семейную поездку, и теперь Кэти придётся в компании родителей, младшего брата и мопса добираться до вуза на машине. И надо же было такому случиться, что в разгар их путешествия искусственный интеллект вдруг начинает восстание машин.",
  "iframe_url": "",
  "iframe_poster": null,
  "poster": "https://img.imgilall.me/movies/franchise/1/5/7/8/3/0/0/0/0/0/610x900_15783.jpeg",
  "country": {
    "1": "США"
  },
  "collection": {
    "68": "Про роботов",
    "43": "Про подростков",
    "40": "Netflix"
  },
  "genre": {
    "9": "Приключения",
    "11": "Фантастика",
    "33": "Семейный",
    "19": "Комедия",
    "10": "Зарубежный"
  },
  "director": [
    "Майкл Рианда",
    "Джефф Роу"
  ],
  "screenwriter": [
    "Майкл Рианда",
    "Джефф Роу",
    "Алекс Хирш"
  ],
  "producer": [
    "Курт Альбрехт",
    "Уилл Аллегра",
    "Vanessa Choy"
  ],
  "operator": [],
  "composer": [
    "Марк Мазерсбо"
  ],
  "design": [
    "Линдси Оливарес",
    "Тоби Уилсон"
  ],
  "editor": [
    "Грег Левитан"
  ],
  "actors": [
    "Эбби Джейкобсон",
    "Дэнни Макбрайд",
    "Майя Рудольф",
    "Майкл Рианда",
    "Эрик Андре",
    "Оливия Колман",
    "Фред Армисен",
    "Бек Беннетт",
    "Крисси Тиган",
    "Джон Ледженд"
  ],
  "actors_dubl": [
    "Константин Карасик",
    "Елена Шульман",
    "Марк Попов",
    "Михаил Хрусталёв",
    "Ирина Киреева"
  ],
  "trivia": [],
  "trailers": [
    {
      "name": "трейлер №1",
      "number": 1,
      "iframe_poster": null,
      "season": null,
      "iframe_url": ""
    }
  ],
  "seasons": [],
  "voiceActing": [
    "Рус. Дублированный",
    "Netflix",
    "Eng.Original"
  ],
  "subtitle": [
    "Рус. форсированные"
  ],
  "parts": []
}
