{
  "id": 5926,
  "name": "Пекарь и красавица",
  "name_eng": "",
  "year": 2019,
  "slogan": null,
  "age": "12+",
  "type": "series",
  "quality": "HD (720p)",
  "imdb": "4.4",
  "imdb_id": "8903830",
  "kinopoisk": "6.3",
  "kinopoisk_id": "1142639",
  "world_art": null,
  "world_art_id": null,
  "time": "24 мин.",
  "ads": false,
  "premier": "2019-02-18",
  "premier_rus": "2019-02-18",
  "availability": null,
  "serial_status": "offline",
  "activate_time": "2019-02-11 11:57:37",
  "budget": null,
  "fees_use": null,
  "fees_world": null,
  "fees_rus": null,
  "rate_mpaa": null,
  "description": "Встретив суперзвезду в туалете ресторана, пекарь из Малаховки даже и не подозревал, как изменится его жизнь. Роскошные вечеринки в стиле «Великого Гэтсби», светские тусовки, выходные в Лондоне, вездесущие папарацци и море соблазнов – всё это и не только ждёт простого парня Андрея в мире Саши Лариной. Всё бы ничего, только позади остались оскорблённая экс-подружка, мечтающая о мести, и бывший парень Саши – сексуальный голливудский актёр, в планах которого вернуть Ларину.",
  "iframe_url": "",
  "poster": "https://img.imgilall.me/movies/franchise/5/9/2/6/0/0/0/0/0/0/610x900_5926.jpg",
  "country": {
    "5": "Россия"
  },
  "collection": {
    "36": "Романтические комедии"
  },
  "genre": {
    "22": "Русский",
    "19": "Комедия",
    "8": "Мелодрама"
  },
  "director": [
    "Фёдор Стуков"
  ],
  "screenwriter": [
    "Павел Кривчик",
    "Асси Азар"
  ],
  "producer": [
    "Вячеслав Муругов",
    "Фёдор Бондарчук",
    "Антон Федотов"
  ],
  "operator": [
    "Григорий Володин"
  ],
  "composer": [],
  "design": [
    "Юлия Чарандаева",
    "Анастасия Обыночная"
  ],
  "editor": [
    "Маргарита Поганышева"
  ],
  "actors": [
    "Анна Чиповская",
    "Никита Волков",
    "Евгения Дмитриева",
    "Даниил Вахрушев",
    "Джеймс Тратас",
    "Алексей Розин",
    "Алина Алексеева",
    "Артур Ваха",
    "Екатерина Воронина",
    "Вячеслав Манучаров"
  ],
  "actors_dubl": [],
  "trivia": [
    "Образ Лондона воссоздали в одном из московских районов. «Оживить» британскую столицу помогли установленные на улицах телефонные будки, двухэтажный автобус и чёрный кэб — традиционные символы Великобритании."
  ],
  "trailers": [],
  "seasons": [
    {
      "poster": "https://img.imgilall.me/movies/season/3/5/3/4/0/0/0/0/0/0/610x900_3534.jpg",
      "release_ru": "2019-02-12",
      "release_world": "2019-02-11",
      "availability": "2019-02-13",
      "iframe_url": "",
      "season": 1,
      "episodes": [
        {
          "episode": 1,
          "name": null,
          "iframe_url": "",
          "iframe_poster": "https://img.imgilall.me/movies/video/5/6/6/0/4/0/0/0/0/0/800x450_56604.jpeg",
          "release_ru": "2019-02-12",
          "release_world": "2019-02-11",
          "availability": "2019-02-13",
          "voiceActing": [
            "Рус. Оригинальный"
          ],
          "ads": false,
          "subtitle": []
        },
        {
          "episode": 2,
          "name": null,
          "iframe_url": "",
          "iframe_poster": "https://img.imgilall.me/movies/video/5/6/6/2/5/0/0/0/0/0/800x450_56625.jpeg",
          "release_ru": "2019-02-12",
          "release_world": "2019-02-11",
          "availability": "2019-02-13",
          "voiceActing": [
            "Рус. Оригинальный"
          ],
          "ads": false,
          "subtitle": []
        },
        {
          "episode": 3,
          "name": null,
          "iframe_url": "",
          "iframe_poster": "https://img.imgilall.me/movies/video/5/6/6/2/6/0/0/0/0/0/800x450_56626.jpeg",
          "release_ru": "2019-02-12",
          "release_world": "2019-02-11",
          "availability": "2019-02-13",
          "voiceActing": [
            "Рус. Оригинальный"
          ],
          "ads": false,
          "subtitle": []
        },
        {
          "episode": 4,
          "name": null,
          "iframe_url": "",
          "iframe_poster": "https://img.imgilall.me/movies/video/5/6/6/2/7/0/0/0/0/0/800x450_56627.jpeg",
          "release_ru": "2019-02-12",
          "release_world": "2019-02-11",
          "availability": "2019-02-13",
          "voiceActing": [
            "Рус. Оригинальный"
          ],
          "ads": false,
          "subtitle": []
        },
        {
          "episode": 5,
          "name": null,
          "iframe_url": "",
          "iframe_poster": "https://img.imgilall.me/movies/video/5/6/6/2/8/0/0/0/0/0/800x450_56628.jpeg",
          "release_ru": "2019-02-12",
          "release_world": "2019-02-11",
          "availability": "2019-02-13",
          "voiceActing": [
            "Рус. Оригинальный"
          ],
          "ads": false,
          "subtitle": []
        },
        {
          "episode": 6,
          "name": null,
          "iframe_url": "",
          "iframe_poster": "https://img.imgilall.me/movies/video/6/8/1/5/2/0/0/0/0/0/800x450_68152.jpeg",
          "release_ru": "2019-02-19",
          "release_world": "2019-02-18",
          "availability": "2019-02-20",
          "voiceActing": [
            "Рус. Оригинальный"
          ],
          "ads": false,
          "subtitle": []
        },
        {
          "episode": 7,
          "name": null,
          "iframe_url": "",
          "iframe_poster": "https://img.imgilall.me/movies/video/6/8/1/5/3/0/0/0/0/0/800x450_68153.jpeg",
          "release_ru": "2019-02-19",
          "release_world": "2019-02-18",
          "availability": "2019-02-20",
          "voiceActing": [
            "Рус. Оригинальный"
          ],
          "ads": false,
          "subtitle": []
        },
        {
          "episode": 8,
          "name": null,
          "iframe_url": "",
          "iframe_poster": "https://img.imgilall.me/movies/video/6/8/1/5/4/0/0/0/0/0/800x450_68154.jpeg",
          "release_ru": "2019-02-19",
          "release_world": "2019-02-18",
          "availability": "2019-02-20",
          "voiceActing": [
            "Рус. Оригинальный"
          ],
          "ads": false,
          "subtitle": []
        },
        {
          "episode": 9,
          "name": null,
          "iframe_url": "",
          "iframe_poster": "https://img.imgilall.me/movies/video/6/8/1/5/5/0/0/0/0/0/800x450_68155.jpeg",
          "release_ru": "2019-02-19",
          "release_world": "2019-02-18",
          "availability": "2019-02-20",
          "voiceActing": [
            "Рус. Оригинальный"
          ],
          "ads": false,
          "subtitle": []
        },
        {
          "episode": 10,
          "name": null,
          "iframe_url": "",
          "iframe_poster": "https://img.imgilall.me/movies/video/6/8/1/5/6/0/0/0/0/0/800x450_68156.jpeg",
          "release_ru": "2019-02-26",
          "release_world": "2019-02-25",
          "availability": "2019-02-27",
          "voiceActing": [
            "Рус. Оригинальный"
          ],
          "ads": false,
          "subtitle": []
        },
        {
          "episode": 11,
          "name": null,
          "iframe_url": "",
          "iframe_poster": "https://img.imgilall.me/movies/video/6/8/1/5/7/0/0/0/0/0/800x450_68157.jpeg",
          "release_ru": "2019-02-26",
          "release_world": "2019-02-25",
          "availability": "2019-02-27",
          "voiceActing": [
            "Рус. Оригинальный"
          ],
          "ads": false,
          "subtitle": []
        },
        {
          "episode": 12,
          "name": null,
          "iframe_url": "",
          "iframe_poster": "https://img.imgilall.me/movies/video/6/8/1/5/8/0/0/0/0/0/800x450_68158.jpeg",
          "release_ru": "2019-02-26",
          "release_world": "2019-02-25",
          "availability": "2019-02-27",
          "voiceActing": [
            "Рус. Оригинальный"
          ],
          "ads": false,
          "subtitle": []
        },
        {
          "episode": 13,
          "name": null,
          "iframe_url": "",
          "iframe_poster": "https://img.imgilall.me/movies/video/6/8/1/5/9/0/0/0/0/0/800x450_68159.jpeg",
          "release_ru": "2019-02-26",
          "release_world": "2019-02-25",
          "availability": "2019-02-27",
          "voiceActing": [
            "Рус. Оригинальный"
          ],
          "ads": false,
          "subtitle": []
        },
        {
          "episode": 14,
          "name": null,
          "iframe_url": "",
          "iframe_poster": "https://img.imgilall.me/movies/video/6/8/1/6/0/0/0/0/0/0/800x450_68160.jpeg",
          "release_ru": "2019-03-01",
          "release_world": "2019-02-28",
          "availability": "2019-03-02",
          "voiceActing": [
            "Рус. Оригинальный"
          ],
          "ads": false,
          "subtitle": []
        },
        {
          "episode": 15,
          "name": null,
          "iframe_url": "",
          "iframe_poster": "https://img.imgilall.me/movies/video/6/8/1/6/1/0/0/0/0/0/800x450_68161.jpeg",
          "release_ru": "2019-03-01",
          "release_world": "2019-02-28",
          "availability": "2019-03-02",
          "voiceActing": [
            "Рус. Оригинальный"
          ],
          "ads": false,
          "subtitle": []
        },
        {
          "episode": 16,
          "name": null,
          "iframe_url": "",
          "iframe_poster": "https://img.imgilall.me/movies/video/6/8/1/6/2/0/0/0/0/0/800x450_68162.jpeg",
          "release_ru": "2019-03-01",
          "release_world": "2019-02-28",
          "availability": "2019-03-02",
          "voiceActing": [
            "Рус. Оригинальный"
          ],
          "ads": false,
          "subtitle": []
        },
        {
          "episode": 17,
          "name": null,
          "iframe_url": "",
          "iframe_poster": "https://img.imgilall.me/movies/video/6/8/1/6/3/0/0/0/0/0/800x450_68163.jpeg",
          "release_ru": "2019-03-01",
          "release_world": "2019-02-28",
          "availability": "2019-03-02",
          "voiceActing": [
            "Рус. Оригинальный"
          ],
          "ads": false,
          "subtitle": []
        }
      ]
    }
  ],
  "voiceActing": [
    "Рус. Оригинальный"
  ],
  "subtitle": [],
  "parts": []
}
