{
  "id": 34934,
  "name": "Остров летнего лагеря",
  "name_eng": "Summer Camp Island",
  "year": 2018,
  "slogan": "—",
  "age": "6+",
  "type": "cartoon-series",
  "quality": "FHD (1080p)",
  "imdb": "7.4",
  "imdb_id": "8146760",
  "kinopoisk": "8.0",
  "kinopoisk_id": "1144089",
  "world_art": null,
  "world_art_id": null,
  "time": "11 мин",
  "ads": false,
  "premier": "2018-07-07",
  "premier_rus": "2018-07-08",
  "availability": "2018-07-09",
  "serial_status": "offline",
  "activate_time": "2020-07-01 17:32:00",
  "budget": null,
  "fees_use": null,
  "fees_world": null,
  "fees_rus": null,
  "rate_mpaa": null,
  "description": "Оскар, вместе со своей лучшей подругой Ежинкой, отравляется в летний детский лагерь на острове. Однако тот оказывается волшебным, населённым ведьмами, волшебными монстрами, йети, привидениями, единорогами, говорящими животными и ожившими предметами.",
  "iframe_url": "",
  "poster": "https://img.imgilall.me/movies/franchise/3/4/9/3/4/0/0/0/0/0/610x900_34934.jpg",
  "country": {
    "1": "США"
  },
  "collection": [],
  "genre": {
    "9": "Приключения",
    "6": "Фэнтези",
    "53": "Короткометражный",
    "33": "Семейный",
    "19": "Комедия"
  },
  "director": [
    "Ники Янг",
    "Ryan Pequin",
    "Диана Лафиатис"
  ],
  "screenwriter": [
    "Sarah Lloyd",
    "Джулия Потт",
    "Кент Осборн"
  ],
  "producer": [
    "Rossitza Likomanova",
    "Дженнифер Пелфри",
    "Джулия Потт"
  ],
  "operator": [],
  "composer": [
    "Джон Энрот",
    "Роберт Фокс",
    "Марк Мазерсбо"
  ],
  "design": [
    "Сандра Ли",
    "Jisoo Kim",
    "Сандра Каллерос"
  ],
  "editor": [
    "Том Браунгардт"
  ],
  "actors": [
    "Уна Лоуренс",
    "Джулия Потт",
    "Эллиотт Смит",
    "Сэм Лаваньино",
    "Инди Намет",
    "Рамон Хэмилтон",
    "Бобби Мойнахан",
    "Итан Мехер",
    "Антонио Рауль Корбо",
    "Наоми Хансен"
  ],
  "actors_dubl": [
    "Элиза Мартиросова",
    "Полина Щербакова",
    "Татьяна Шитова",
    "Ольга Шорохова",
    "Илья Хвостиков"
  ],
  "trivia": [],
  "trailers": [],
  "seasons": [
    {
      "poster": null,
      "release_ru": "2018-07-08",
      "release_world": "2018-07-07",
      "availability": "2018-07-09",
      "iframe_url": "",
      "season": 1,
      "episodes": [
        {
          "episode": 1,
          "name": "The First Day",
          "iframe_url": "",
          "iframe_poster": null,
          "release_ru": "2018-07-08",
          "release_world": "2018-07-07",
          "availability": "2018-07-09",
          "voiceActing": [
            "SDI Media",
            "Eng.Original"
          ],
          "ads": false,
          "subtitle": [
            "Рус. полные"
          ]
        },
        {
          "episode": 2,
          "name": "Monster Babies",
          "iframe_url": "",
          "iframe_poster": null,
          "release_ru": "2018-07-08",
          "release_world": "2018-07-07",
          "availability": "2018-07-09",
          "voiceActing": [
            "SDI Media",
            "Eng.Original"
          ],
          "ads": false,
          "subtitle": [
            "Рус. полные"
          ]
        },
        {
          "episode": 3,
          "name": "Chocolate Money Badgers",
          "iframe_url": "",
          "iframe_poster": null,
          "release_ru": "2018-07-08",
          "release_world": "2018-07-07",
          "availability": "2018-07-09",
          "voiceActing": [
            "SDI Media",
            "Eng.Original"
          ],
          "ads": false,
          "subtitle": [
            "Рус. форсированные"
          ]
        },
        {
          "episode": 4,
          "name": "Saxophone Come Home",
          "iframe_url": "",
          "iframe_poster": null,
          "release_ru": "2018-07-08",
          "release_world": "2018-07-07",
          "availability": "2018-07-09",
          "voiceActing": [
            "SDI Media",
            "Eng.Original"
          ],
          "ads": false,
          "subtitle": [
            "Рус. полные"
          ]
        },
        {
          "episode": 5,
          "name": "Pajama Pajimjams",
          "iframe_url": "",
          "iframe_poster": null,
          "release_ru": "2018-07-08",
          "release_world": "2018-07-07",
          "availability": "2018-07-09",
          "voiceActing": [
            "SDI Media",
            "Eng.Original"
          ],
          "ads": false,
          "subtitle": [
            "Рус. полные"
          ]
        },
        {
          "episode": 6,
          "name": "Oscar & Hedgehog's Melody",
          "iframe_url": "",
          "iframe_poster": null,
          "release_ru": "2018-07-08",
          "release_world": "2018-07-07",
          "availability": "2018-07-09",
          "voiceActing": [
            "SDI Media",
            "Eng.Original"
          ],
          "ads": false,
          "subtitle": [
            "Рус. полные"
          ]
        },
        {
          "episode": 7,
          "name": "Feeling Spacey",
          "iframe_url": "",
          "iframe_poster": null,
          "release_ru": "2018-07-08",
          "release_world": "2018-07-07",
          "availability": "2018-07-09",
          "voiceActing": [
            "SDI Media",
            "Eng.Original"
          ],
          "ads": false,
          "subtitle": [
            "Рус. форсированные"
          ]
        },
        {
          "episode": 8,
          "name": "Ghost the Boy",
          "iframe_url": "",
          "iframe_poster": null,
          "release_ru": "2018-07-08",
          "release_world": "2018-07-07",
          "availability": "2018-07-09",
          "voiceActing": [
            "SDI Media",
            "Eng.Original"
          ],
          "ads": false,
          "subtitle": [
            "Рус. полные"
          ]
        },
        {
          "episode": 9,
          "name": "Computer Vampire",
          "iframe_url": "",
          "iframe_poster": null,
          "release_ru": "2018-07-08",
          "release_world": "2018-07-07",
          "availability": "2018-07-09",
          "voiceActing": [
            "SDI Media",
            "Eng.Original"
          ],
          "ads": false,
          "subtitle": [
            "Рус. полные"
          ]
        },
        {
          "episode": 10,
          "name": "The Basketball Liaries",
          "iframe_url": "",
          "iframe_poster": null,
          "release_ru": "2018-07-08",
          "release_world": "2018-07-07",
          "availability": "2018-07-09",
          "voiceActing": [
            "SDI Media",
            "Eng.Original"
          ],
          "ads": false,
          "subtitle": [
            "Рус. полные"
          ]
        },
        {
          "episode": 11,
          "name": "Popular Banana Split",
          "iframe_url": "",
          "iframe_poster": null,
          "release_ru": "2018-07-08",
          "release_world": "2018-07-07",
          "availability": "2018-07-09",
          "voiceActing": [
            "SDI Media",
            "Eng.Original"
          ],
          "ads": false,
          "subtitle": [
            "Рус. форсированные"
          ]
        },
        {
          "episode": 12,
          "name": "Time Traveling Quick Pants",
          "iframe_url": "",
          "iframe_poster": null,
          "release_ru": "2018-07-08",
          "release_world": "2018-07-07",
          "availability": "2018-07-09",
          "voiceActing": [
            "SDI Media",
            "Eng.Original"
          ],
          "ads": false,
          "subtitle": [
            "Рус. полные"
          ]
        },
        {
          "episode": 13,
          "name": "It's My Party",
          "iframe_url": "",
          "iframe_poster": null,
          "release_ru": "2018-07-08",
          "release_world": "2018-07-07",
          "availability": "2018-07-09",
          "voiceActing": [
            "SDI Media",
            "Eng.Original"
          ],
          "ads": false,
          "subtitle": [
            "Рус. полные"
          ]
        },
        {
          "episode": 14,
          "name": "Moon Problems",
          "iframe_url": "",
          "iframe_poster": null,
          "release_ru": "2018-07-08",
          "release_world": "2018-07-07",
          "availability": "2018-07-09",
          "voiceActing": [
            "SDI Media",
            "Eng.Original"
          ],
          "ads": false,
          "subtitle": [
            "Рус. форсированные"
          ]
        },
        {
          "episode": 15,
          "name": "Monster Visit",
          "iframe_url": "",
          "iframe_poster": null,
          "release_ru": "2018-07-08",
          "release_world": "2018-07-07",
          "availability": "2018-07-09",
          "voiceActing": [
            "SDI Media",
            "Eng.Original"
          ],
          "ads": false,
          "subtitle": [
            "Рус. форсированные"
          ]
        },
        {
          "episode": 16,
          "name": "Ice Cream Headache",
          "iframe_url": "",
          "iframe_poster": null,
          "release_ru": "2018-07-08",
          "release_world": "2018-07-07",
          "availability": "2018-07-09",
          "voiceActing": [
            "SDI Media",
            "Eng.Original"
          ],
          "ads": false,
          "subtitle": [
            "Рус. форсированные"
          ]
        },
        {
          "episode": 17,
          "name": "Pepper's Blanket Is Missing",
          "iframe_url": "",
          "iframe_poster": null,
          "release_ru": "2018-07-08",
          "release_world": "2018-07-07",
          "availability": "2018-07-09",
          "voiceActing": [
            "SDI Media",
            "Eng.Original"
          ],
          "ads": false,
          "subtitle": [
            "Рус. полные"
          ]
        },
        {
          "episode": 18,
          "name": "Hedgehog Werewolf",
          "iframe_url": "",
          "iframe_poster": null,
          "release_ru": "2018-07-08",
          "release_world": "2018-07-07",
          "availability": "2018-07-09",
          "voiceActing": [
            "SDI Media",
            "Eng.Original"
          ],
          "ads": false,
          "subtitle": [
            "Рус. полные"
          ]
        },
        {
          "episode": 19,
          "name": "Mr. Softball",
          "iframe_url": "",
          "iframe_poster": null,
          "release_ru": "2018-07-08",
          "release_world": "2018-07-07",
          "availability": "2018-07-09",
          "voiceActing": [
            "SDI Media",
            "Eng.Original"
          ],
          "ads": false,
          "subtitle": [
            "Рус. полные"
          ]
        },
        {
          "episode": 20,
          "name": "Fuzzy Pink Time Babies",
          "iframe_url": "",
          "iframe_poster": null,
          "release_ru": "2018-07-08",
          "release_world": "2018-07-07",
          "availability": "2018-07-09",
          "voiceActing": [
            "SDI Media",
            "Eng.Original"
          ],
          "ads": false,
          "subtitle": [
            "Рус. полные"
          ]
        },
        {
          "episode": 21,
          "name": "Cosmic Bupkiss",
          "iframe_url": "",
          "iframe_poster": null,
          "release_ru": "2019-06-24",
          "release_world": "2019-06-23",
          "availability": "2019-06-25",
          "voiceActing": [
            "SDI Media",
            "Eng.Original"
          ],
          "ads": false,
          "subtitle": [
            "Рус. полные"
          ]
        },
        {
          "episode": 22,
          "name": "Radio Silence",
          "iframe_url": "",
          "iframe_poster": null,
          "release_ru": "2019-06-24",
          "release_world": "2019-06-23",
          "availability": "2019-06-25",
          "voiceActing": [
            "SDI Media",
            "Eng.Original"
          ],
          "ads": false,
          "subtitle": [
            "Рус. полные"
          ]
        },
        {
          "episode": 23,
          "name": "Director's Cut",
          "iframe_url": "",
          "iframe_poster": null,
          "release_ru": "2019-06-24",
          "release_world": "2019-06-23",
          "availability": "2019-06-25",
          "voiceActing": [
            "SDI Media",
            "Eng.Original"
          ],
          "ads": false,
          "subtitle": [
            "Рус. полные"
          ]
        },
        {
          "episode": 24,
          "name": "The Haunted Campfire",
          "iframe_url": "",
          "iframe_poster": null,
          "release_ru": "2019-06-24",
          "release_world": "2019-06-23",
          "availability": "2019-06-25",
          "voiceActing": [
            "SDI Media",
            "Eng.Original"
          ],
          "ads": false,
          "subtitle": [
            "Рус. полные"
          ]
        },
        {
          "episode": 25,
          "name": "I Heart Heartforde",
          "iframe_url": "",
          "iframe_poster": null,
          "release_ru": "2019-07-01",
          "release_world": "2019-06-30",
          "availability": "2019-07-02",
          "voiceActing": [
            "SDI Media",
            "Eng.Original"
          ],
          "ads": false,
          "subtitle": [
            "Рус. форсированные"
          ]
        },
        {
          "episode": 26,
          "name": "Space Invasion",
          "iframe_url": "",
          "iframe_poster": null,
          "release_ru": "2019-07-01",
          "release_world": "2019-06-30",
          "availability": "2019-07-02",
          "voiceActing": [
            "SDI Media",
            "Eng.Original"
          ],
          "ads": false,
          "subtitle": [
            "Рус. форсированные"
          ]
        },
        {
          "episode": 27,
          "name": "Mom Soon",
          "iframe_url": "",
          "iframe_poster": null,
          "release_ru": "2019-07-01",
          "release_world": "2019-06-30",
          "availability": "2019-07-02",
          "voiceActing": [
            "SDI Media",
            "Eng.Original"
          ],
          "ads": false,
          "subtitle": [
            "Рус. полные"
          ]
        },
        {
          "episode": 28,
          "name": "Sneeze Guard",
          "iframe_url": "",
          "iframe_poster": null,
          "release_ru": "2019-07-01",
          "release_world": "2019-06-30",
          "availability": "2019-07-02",
          "voiceActing": [
            "SDI Media",
            "Eng.Original"
          ],
          "ads": false,
          "subtitle": [
            "Рус. полные"
          ]
        },
        {
          "episode": 29,
          "name": "Susie's Fantastical Scavenger Hunt",
          "iframe_url": "",
          "iframe_poster": null,
          "release_ru": "2019-07-02",
          "release_world": "2019-07-01",
          "availability": "2019-07-03",
          "voiceActing": [
            "SDI Media",
            "Eng.Original"
          ],
          "ads": false,
          "subtitle": [
            "Рус. полные"
          ]
        },
        {
          "episode": 30,
          "name": "Mop Forever",
          "iframe_url": "",
          "iframe_poster": null,
          "release_ru": "2019-07-03",
          "release_world": "2019-07-02",
          "availability": "2019-07-04",
          "voiceActing": [
            "SDI Media",
            "Eng.Original"
          ],
          "ads": false,
          "subtitle": [
            "Рус. полные"
          ]
        },
        {
          "episode": 31,
          "name": "Pajamas Party",
          "iframe_url": "",
          "iframe_poster": null,
          "release_ru": "2019-07-08",
          "release_world": "2019-07-07",
          "availability": "2019-07-09",
          "voiceActing": [
            "SDI Media",
            "Eng.Original"
          ],
          "ads": false,
          "subtitle": [
            "Рус. полные"
          ]
        },
        {
          "episode": 32,
          "name": "The Soundhouse",
          "iframe_url": "",
          "iframe_poster": null,
          "release_ru": "2019-07-08",
          "release_world": "2019-07-07",
          "availability": "2019-07-09",
          "voiceActing": [
            "SDI Media",
            "Eng.Original"
          ],
          "ads": false,
          "subtitle": [
            "Рус. форсированные"
          ]
        },
        {
          "episode": 33,
          "name": "Puff Paint",
          "iframe_url": "",
          "iframe_poster": null,
          "release_ru": "2019-07-15",
          "release_world": "2019-07-14",
          "availability": "2019-07-16",
          "voiceActing": [
            "SDI Media",
            "Eng.Original"
          ],
          "ads": false,
          "subtitle": [
            "Рус. форсированные"
          ]
        },
        {
          "episode": 34,
          "name": "Susie Appreciation Day",
          "iframe_url": "",
          "iframe_poster": null,
          "release_ru": "2019-07-15",
          "release_world": "2019-07-14",
          "availability": "2019-07-16",
          "voiceActing": [
            "SDI Media",
            "Eng.Original"
          ],
          "ads": false,
          "subtitle": [
            "Рус. форсированные"
          ]
        },
        {
          "episode": 35,
          "name": "Campers Above the Bed",
          "iframe_url": "",
          "iframe_poster": null,
          "release_ru": "2019-07-15",
          "release_world": "2019-07-14",
          "availability": "2019-07-16",
          "voiceActing": [
            "SDI Media",
            "Eng.Original"
          ],
          "ads": false,
          "subtitle": [
            "Рус. форсированные"
          ]
        },
        {
          "episode": 36,
          "name": "Midnight Quittance",
          "iframe_url": "",
          "iframe_poster": null,
          "release_ru": "2019-07-15",
          "release_world": "2019-07-14",
          "availability": "2019-07-16",
          "voiceActing": [
            "SDI Media",
            "Eng.Original"
          ],
          "ads": false,
          "subtitle": [
            "Рус. полные"
          ]
        },
        {
          "episode": 37,
          "name": "The Great Elf Invention Convention",
          "iframe_url": "",
          "iframe_poster": null,
          "release_ru": "2019-07-22",
          "release_world": "2019-07-21",
          "availability": "2019-07-23",
          "voiceActing": [
            "SDI Media",
            "Eng.Original"
          ],
          "ads": false,
          "subtitle": [
            "Рус. полные"
          ]
        },
        {
          "episode": 38,
          "name": "Twelve Angry Hedgehogs",
          "iframe_url": "",
          "iframe_poster": null,
          "release_ru": "2019-07-22",
          "release_world": "2019-07-21",
          "availability": "2019-07-23",
          "voiceActing": [
            "SDI Media",
            "Eng.Original"
          ],
          "ads": false,
          "subtitle": [
            "Рус. полные"
          ]
        },
        {
          "episode": 39,
          "name": "Spell Crushers",
          "iframe_url": "",
          "iframe_poster": null,
          "release_ru": "2019-07-22",
          "release_world": "2019-07-21",
          "availability": "2019-07-23",
          "voiceActing": [
            "SDI Media",
            "Eng.Original"
          ],
          "ads": false,
          "subtitle": [
            "Рус. форсированные"
          ]
        },
        {
          "episode": 40,
          "name": "The Library",
          "iframe_url": "",
          "iframe_poster": null,
          "release_ru": "2019-07-22",
          "release_world": "2019-07-21",
          "availability": "2019-07-23",
          "voiceActing": [
            "SDI Media",
            "Eng.Original"
          ],
          "ads": false,
          "subtitle": [
            "Рус. форсированные"
          ]
        }
      ]
    },
    {
      "poster": null,
      "release_ru": null,
      "release_world": null,
      "availability": null,
      "iframe_url": "",
      "season": 2,
      "episodes": [
        {
          "episode": 1,
          "name": null,
          "iframe_url": "",
          "iframe_poster": null,
          "release_ru": null,
          "release_world": null,
          "availability": null,
          "voiceActing": [
            "SDI Media",
            "Eng.Original"
          ],
          "ads": false,
          "subtitle": [
            "Рус. форсированные"
          ]
        },
        {
          "episode": 2,
          "name": null,
          "iframe_url": "",
          "iframe_poster": null,
          "release_ru": null,
          "release_world": null,
          "availability": null,
          "voiceActing": [
            "SDI Media",
            "Eng.Original"
          ],
          "ads": false,
          "subtitle": [
            "Рус. полные"
          ]
        },
        {
          "episode": 3,
          "name": null,
          "iframe_url": "",
          "iframe_poster": null,
          "release_ru": null,
          "release_world": null,
          "availability": null,
          "voiceActing": [
            "SDI Media",
            "Eng.Original"
          ],
          "ads": false,
          "subtitle": [
            "Рус. форсированные"
          ]
        },
        {
          "episode": 4,
          "name": null,
          "iframe_url": "",
          "iframe_poster": null,
          "release_ru": null,
          "release_world": null,
          "availability": null,
          "voiceActing": [
            "SDI Media",
            "Eng.Original"
          ],
          "ads": false,
          "subtitle": [
            "Рус. форсированные"
          ]
        },
        {
          "episode": 5,
          "name": null,
          "iframe_url": "",
          "iframe_poster": null,
          "release_ru": null,
          "release_world": null,
          "availability": null,
          "voiceActing": [
            "SDI Media",
            "Eng.Original"
          ],
          "ads": false,
          "subtitle": [
            "Рус. полные"
          ]
        },
        {
          "episode": 6,
          "name": null,
          "iframe_url": "",
          "iframe_poster": null,
          "release_ru": null,
          "release_world": null,
          "availability": null,
          "voiceActing": [
            "SDI Media",
            "Eng.Original"
          ],
          "ads": false,
          "subtitle": [
            "Рус. форсированные"
          ]
        },
        {
          "episode": 7,
          "name": null,
          "iframe_url": "",
          "iframe_poster": null,
          "release_ru": null,
          "release_world": null,
          "availability": null,
          "voiceActing": [
            "SDI Media",
            "Eng.Original"
          ],
          "ads": false,
          "subtitle": [
            "Рус. форсированные"
          ]
        },
        {
          "episode": 8,
          "name": null,
          "iframe_url": "",
          "iframe_poster": null,
          "release_ru": null,
          "release_world": null,
          "availability": null,
          "voiceActing": [
            "SDI Media",
            "Eng.Original"
          ],
          "ads": false,
          "subtitle": [
            "Рус. форсированные"
          ]
        },
        {
          "episode": 9,
          "name": null,
          "iframe_url": "",
          "iframe_poster": null,
          "release_ru": null,
          "release_world": null,
          "availability": null,
          "voiceActing": [
            "SDI Media",
            "Eng.Original"
          ],
          "ads": false,
          "subtitle": [
            "Рус. форсированные"
          ]
        },
        {
          "episode": 10,
          "name": null,
          "iframe_url": "",
          "iframe_poster": null,
          "release_ru": null,
          "release_world": null,
          "availability": null,
          "voiceActing": [
            "Eng.Original"
          ],
          "ads": false,
          "subtitle": [
            "Рус. полные"
          ]
        },
        {
          "episode": 11,
          "name": null,
          "iframe_url": "",
          "iframe_poster": null,
          "release_ru": null,
          "release_world": null,
          "availability": null,
          "voiceActing": [
            "SDI Media",
            "Eng.Original"
          ],
          "ads": false,
          "subtitle": [
            "Рус. полные"
          ]
        },
        {
          "episode": 12,
          "name": null,
          "iframe_url": "",
          "iframe_poster": null,
          "release_ru": null,
          "release_world": null,
          "availability": null,
          "voiceActing": [
            "SDI Media",
            "Eng.Original"
          ],
          "ads": false,
          "subtitle": [
            "Рус. полные"
          ]
        },
        {
          "episode": 13,
          "name": null,
          "iframe_url": "",
          "iframe_poster": null,
          "release_ru": null,
          "release_world": null,
          "availability": null,
          "voiceActing": [
            "SDI Media",
            "Eng.Original"
          ],
          "ads": false,
          "subtitle": [
            "Рус. форсированные"
          ]
        },
        {
          "episode": 14,
          "name": null,
          "iframe_url": "",
          "iframe_poster": null,
          "release_ru": null,
          "release_world": null,
          "availability": null,
          "voiceActing": [
            "SDI Media",
            "Eng.Original"
          ],
          "ads": false,
          "subtitle": [
            "Рус. форсированные"
          ]
        },
        {
          "episode": 15,
          "name": null,
          "iframe_url": "",
          "iframe_poster": null,
          "release_ru": null,
          "release_world": null,
          "availability": null,
          "voiceActing": [
            "SDI Media",
            "Eng.Original"
          ],
          "ads": false,
          "subtitle": [
            "Рус. форсированные"
          ]
        },
        {
          "episode": 16,
          "name": null,
          "iframe_url": "",
          "iframe_poster": null,
          "release_ru": null,
          "release_world": null,
          "availability": null,
          "voiceActing": [
            "SDI Media",
            "Eng.Original"
          ],
          "ads": false,
          "subtitle": [
            "Рус. форсированные"
          ]
        },
        {
          "episode": 17,
          "name": null,
          "iframe_url": "",
          "iframe_poster": null,
          "release_ru": null,
          "release_world": null,
          "availability": null,
          "voiceActing": [
            "SDI Media",
            "Eng.Original"
          ],
          "ads": false,
          "subtitle": [
            "Рус. полные"
          ]
        },
        {
          "episode": 18,
          "name": null,
          "iframe_url": "",
          "iframe_poster": null,
          "release_ru": null,
          "release_world": null,
          "availability": null,
          "voiceActing": [
            "SDI Media",
            "Eng.Original"
          ],
          "ads": false,
          "subtitle": [
            "Рус. форсированные"
          ]
        },
        {
          "episode": 19,
          "name": null,
          "iframe_url": "",
          "iframe_poster": null,
          "release_ru": null,
          "release_world": null,
          "availability": null,
          "voiceActing": [
            "SDI Media",
            "Eng.Original"
          ],
          "ads": false,
          "subtitle": [
            "Рус. полные"
          ]
        },
        {
          "episode": 20,
          "name": null,
          "iframe_url": "",
          "iframe_poster": null,
          "release_ru": null,
          "release_world": null,
          "availability": null,
          "voiceActing": [
            "SDI Media",
            "Eng.Original"
          ],
          "ads": false,
          "subtitle": [
            "Рус. форсированные"
          ]
        }
      ]
    },
    {
      "poster": null,
      "release_ru": null,
      "release_world": null,
      "availability": null,
      "iframe_url": "",
      "season": 3,
      "episodes": [
        {
          "episode": 1,
          "name": null,
          "iframe_url": "",
          "iframe_poster": null,
          "release_ru": null,
          "release_world": null,
          "availability": null,
          "voiceActing": [
            "Eng.Original"
          ],
          "ads": false,
          "subtitle": [
            "Рус. полные"
          ]
        },
        {
          "episode": 2,
          "name": null,
          "iframe_url": "",
          "iframe_poster": null,
          "release_ru": null,
          "release_world": null,
          "availability": null,
          "voiceActing": [
            "Eng.Original"
          ],
          "ads": false,
          "subtitle": [
            "Рус. полные"
          ]
        },
        {
          "episode": 3,
          "name": null,
          "iframe_url": "",
          "iframe_poster": null,
          "release_ru": null,
          "release_world": null,
          "availability": null,
          "voiceActing": [
            "Eng.Original"
          ],
          "ads": false,
          "subtitle": [
            "Рус. полные"
          ]
        },
        {
          "episode": 4,
          "name": null,
          "iframe_url": "",
          "iframe_poster": null,
          "release_ru": null,
          "release_world": null,
          "availability": null,
          "voiceActing": [
            "Eng.Original"
          ],
          "ads": false,
          "subtitle": [
            "Рус. полные"
          ]
        },
        {
          "episode": 5,
          "name": null,
          "iframe_url": "",
          "iframe_poster": null,
          "release_ru": null,
          "release_world": null,
          "availability": null,
          "voiceActing": [
            "Eng.Original"
          ],
          "ads": false,
          "subtitle": [
            "Рус. полные"
          ]
        },
        {
          "episode": 6,
          "name": null,
          "iframe_url": "",
          "iframe_poster": null,
          "release_ru": null,
          "release_world": null,
          "availability": null,
          "voiceActing": [
            "Eng.Original"
          ],
          "ads": false,
          "subtitle": [
            "Рус. полные"
          ]
        },
        {
          "episode": 7,
          "name": null,
          "iframe_url": "",
          "iframe_poster": null,
          "release_ru": null,
          "release_world": null,
          "availability": null,
          "voiceActing": [
            "Eng.Original"
          ],
          "ads": false,
          "subtitle": [
            "Рус. полные"
          ]
        },
        {
          "episode": 8,
          "name": null,
          "iframe_url": "",
          "iframe_poster": null,
          "release_ru": null,
          "release_world": null,
          "availability": null,
          "voiceActing": [
            "Eng.Original"
          ],
          "ads": false,
          "subtitle": [
            "Рус. полные"
          ]
        },
        {
          "episode": 9,
          "name": null,
          "iframe_url": "",
          "iframe_poster": null,
          "release_ru": null,
          "release_world": null,
          "availability": null,
          "voiceActing": [
            "Eng.Original"
          ],
          "ads": false,
          "subtitle": [
            "Рус. полные"
          ]
        },
        {
          "episode": 10,
          "name": null,
          "iframe_url": "",
          "iframe_poster": null,
          "release_ru": null,
          "release_world": null,
          "availability": null,
          "voiceActing": [
            "Eng.Original"
          ],
          "ads": false,
          "subtitle": [
            "Рус. полные"
          ]
        },
        {
          "episode": 11,
          "name": null,
          "iframe_url": "",
          "iframe_poster": null,
          "release_ru": null,
          "release_world": null,
          "availability": null,
          "voiceActing": [
            "Eng.Original"
          ],
          "ads": false,
          "subtitle": [
            "Рус. полные"
          ]
        },
        {
          "episode": 12,
          "name": null,
          "iframe_url": "",
          "iframe_poster": null,
          "release_ru": null,
          "release_world": null,
          "availability": null,
          "voiceActing": [
            "Eng.Original"
          ],
          "ads": false,
          "subtitle": [
            "Рус. полные"
          ]
        }
      ]
    },
    {
      "poster": null,
      "release_ru": null,
      "release_world": null,
      "availability": null,
      "iframe_url": "",
      "season": 4,
      "episodes": [
        {
          "episode": 1,
          "name": null,
          "iframe_url": "",
          "iframe_poster": null,
          "release_ru": null,
          "release_world": null,
          "availability": null,
          "voiceActing": [
            "Eng.Original"
          ],
          "ads": false,
          "subtitle": [
            "Рус. полные"
          ]
        },
        {
          "episode": 2,
          "name": null,
          "iframe_url": "",
          "iframe_poster": null,
          "release_ru": null,
          "release_world": null,
          "availability": null,
          "voiceActing": [
            "Eng.Original"
          ],
          "ads": false,
          "subtitle": [
            "Рус. полные"
          ]
        },
        {
          "episode": 3,
          "name": null,
          "iframe_url": "",
          "iframe_poster": null,
          "release_ru": null,
          "release_world": null,
          "availability": null,
          "voiceActing": [
            "Eng.Original"
          ],
          "ads": false,
          "subtitle": [
            "Рус. полные"
          ]
        },
        {
          "episode": 4,
          "name": null,
          "iframe_url": "",
          "iframe_poster": null,
          "release_ru": null,
          "release_world": null,
          "availability": null,
          "voiceActing": [
            "Eng.Original"
          ],
          "ads": false,
          "subtitle": [
            "Рус. полные"
          ]
        },
        {
          "episode": 5,
          "name": null,
          "iframe_url": "",
          "iframe_poster": null,
          "release_ru": null,
          "release_world": null,
          "availability": null,
          "voiceActing": [
            "Eng.Original"
          ],
          "ads": false,
          "subtitle": [
            "Рус. полные"
          ]
        },
        {
          "episode": 6,
          "name": null,
          "iframe_url": "",
          "iframe_poster": null,
          "release_ru": null,
          "release_world": null,
          "availability": null,
          "voiceActing": [
            "Eng.Original"
          ],
          "ads": false,
          "subtitle": [
            "Рус. полные"
          ]
        },
        {
          "episode": 7,
          "name": null,
          "iframe_url": "",
          "iframe_poster": null,
          "release_ru": null,
          "release_world": null,
          "availability": null,
          "voiceActing": [
            "Eng.Original"
          ],
          "ads": false,
          "subtitle": [
            "Рус. полные"
          ]
        },
        {
          "episode": 8,
          "name": null,
          "iframe_url": "",
          "iframe_poster": null,
          "release_ru": null,
          "release_world": null,
          "availability": null,
          "voiceActing": [
            "Eng.Original"
          ],
          "ads": false,
          "subtitle": [
            "Рус. полные"
          ]
        },
        {
          "episode": 9,
          "name": null,
          "iframe_url": "",
          "iframe_poster": null,
          "release_ru": null,
          "release_world": null,
          "availability": null,
          "voiceActing": [
            "Eng.Original"
          ],
          "ads": false,
          "subtitle": [
            "Рус. полные"
          ]
        },
        {
          "episode": 10,
          "name": null,
          "iframe_url": "",
          "iframe_poster": null,
          "release_ru": null,
          "release_world": null,
          "availability": null,
          "voiceActing": [
            "Eng.Original"
          ],
          "ads": false,
          "subtitle": [
            "Рус. полные"
          ]
        },
        {
          "episode": 11,
          "name": null,
          "iframe_url": "",
          "iframe_poster": null,
          "release_ru": null,
          "release_world": null,
          "availability": null,
          "voiceActing": [
            "Eng.Original"
          ],
          "ads": false,
          "subtitle": [
            "Рус. полные"
          ]
        },
        {
          "episode": 12,
          "name": null,
          "iframe_url": "",
          "iframe_poster": null,
          "release_ru": null,
          "release_world": null,
          "availability": null,
          "voiceActing": [
            "Eng.Original"
          ],
          "ads": false,
          "subtitle": [
            "Рус. полные"
          ]
        },
        {
          "episode": 13,
          "name": null,
          "iframe_url": "",
          "iframe_poster": null,
          "release_ru": null,
          "release_world": null,
          "availability": null,
          "voiceActing": [
            "Eng.Original"
          ],
          "ads": false,
          "subtitle": [
            "Рус. полные"
          ]
        }
      ]
    }
  ],
  "voiceActing": [
    "SDI Media",
    "Eng.Original"
  ],
  "subtitle": [
    "Рус. полные",
    "Рус. форсированные"
  ],
  "parts": []
}
