{
  "id": 17248,
  "name": "Чужие",
  "name_eng": "The Dustwalker",
  "year": 2019,
  "slogan": "«Они уже среди нас»",
  "age": null,
  "type": "film",
  "quality": "FHD (1080p)",
  "imdb": "3.7",
  "imdb_id": "6816388",
  "kinopoisk": "3.8",
  "kinopoisk_id": "1167727",
  "world_art": null,
  "world_art_id": null,
  "time": "95 мин. / 01:35",
  "ads": false,
  "premier": "2019-10-12",
  "premier_rus": "2019-10-13",
  "availability": "2019-10-14",
  "activate_time": "2020-04-30 09:14:00",
  "budget": null,
  "fees_use": null,
  "fees_world": null,
  "fees_rus": null,
  "rate_mpaa": null,
  "description": "Упавший космический корабль приносит паразита, превращающего людей в страшных монстров. Чтобы выжить, сержанту Джо Шарп придётся вступить в альянс с пришельцами…",
  "iframe_url": "",
  "iframe_poster": null,
  "poster": "https://img.imgilall.me/movies/franchise/1/7/2/4/8/0/0/0/0/0/610x900_17248.jpg",
  "country": {
    "4": "Австралия"
  },
  "collection": [],
  "genre": {
    "11": "Фантастика",
    "13": "Триллер",
    "10": "Зарубежный",
    "7": "Драма"
  },
  "director": [
    "Сандра Скиберрас"
  ],
  "screenwriter": [
    "Сандра Скиберрас"
  ],
  "producer": [
    "Грэйс Луминато",
    "Том Харберд",
    "Фил Хант"
  ],
  "operator": [
    "Дэвид Ле Мэй"
  ],
  "composer": [
    "Кристофер Лакинс"
  ],
  "design": [
    "Чериш Мэррингтон",
    "Эндрю Инфанти"
  ],
  "editor": [
    "Майкл Янович"
  ],
  "actors": [
    "Джолин Андерсон",
    "Стэф Доусон",
    "Ричард Дейвис",
    "Кассандра Маграт",
    "Талина Навиеде",
    "Гарри Гринвуд",
    "Руби Дункан",
    "Caleb Sciberras Scott",
    "Бен Мортли",
    "Райан Аллен"
  ],
  "actors_dubl": [],
  "trivia": [],
  "trailers": [
    {
      "name": "трейлер №1",
      "number": 1,
      "iframe_poster": null,
      "season": null,
      "iframe_url": ""
    }
  ],
  "seasons": [],
  "voiceActing": [
    "Рус. Проф. многоголосый",
    "Eng.Original"
  ],
  "subtitle": [
    "Eng. full"
  ],
  "parts": []
}
