{
  "id": 11909,
  "name": "Лимб",
  "name_eng": "Limbo",
  "year": 2019,
  "slogan": "«One Hell of a Story»",
  "age": null,
  "type": "film",
  "quality": "HD (720p)",
  "imdb": "5.1",
  "imdb_id": "7935392",
  "kinopoisk": null,
  "kinopoisk_id": "1113782",
  "world_art": null,
  "world_art_id": null,
  "time": "90 мин. / 01:30",
  "ads": true,
  "premier": "2019-04-06",
  "premier_rus": "2019-04-07",
  "availability": "2019-04-08",
  "activate_time": "2019-10-26 18:02:00",
  "budget": null,
  "fees_use": null,
  "fees_world": null,
  "fees_rus": null,
  "rate_mpaa": null,
  "description": "После смерти убийца и отъявленный мерзавец предстаёт перед судом в Чистилище. Решать, отправится ли он в Ад или нет, предстоит чёрствому прокурору и неопытной адвокатессе.",
  "iframe_url": "",
  "iframe_poster": null,
  "poster": "https://img.imgilall.me/movies/franchise/1/1/9/0/9/0/0/0/0/0/610x900_11909.jpg",
  "country": {
    "1": "США"
  },
  "collection": [],
  "genre": {
    "26": "Ужасы",
    "19": "Комедия",
    "7": "Драма"
  },
  "director": [
    "Марк Янг"
  ],
  "screenwriter": [
    "Марк Янг"
  ],
  "producer": [
    "Кристос Битсакос",
    "Бретт Керр",
    "Джон Лэндолфи"
  ],
  "operator": [
    "Кристос Битсакос"
  ],
  "composer": [
    "Элиа Кмирал"
  ],
  "design": [
    "Николас Лейтинг",
    "Джефф Гивенс"
  ],
  "editor": [],
  "actors": [
    "Люсиан Чарльз Колье",
    "Скотти Томпсон",
    "Лью Темпл",
    "Питер Джекобсон",
    "Ричард Рили",
    "Лорин Кэнни",
    "Вероника Картрайт",
    "Джеймс Пьюрфой",
    "Ребека Кеннеди",
    "Мандела Ван Пиблз"
  ],
  "actors_dubl": [],
  "trivia": [],
  "trailers": [],
  "seasons": [],
  "voiceActing": [
    "Рус. Люб. многоголосый"
  ],
  "subtitle": [],
  "parts": []
}
