{
  "id": 5156,
  "name": "Приятные хлопоты",
  "name_eng": "Good Trouble",
  "year": 2019,
  "slogan": null,
  "age": "12+",
  "type": "series",
  "quality": "FHD (1080p)",
  "imdb": "7.5",
  "imdb_id": "7820906",
  "kinopoisk": "7.3",
  "kinopoisk_id": "1111888",
  "world_art": null,
  "world_art_id": null,
  "time": "45 мин.",
  "ads": false,
  "premier": "2019-01-08",
  "premier_rus": "2019-01-09",
  "availability": "2019-01-09",
  "serial_status": "online",
  "activate_time": "2019-01-03 11:00:55",
  "budget": null,
  "fees_use": null,
  "fees_world": null,
  "fees_rus": null,
  "rate_mpaa": null,
  "description": "Сёстры Кэлли и Мариана начинают самостоятельную жизнь в Лос-Анджелесе. У них новый дом, новые друзья, новые занятия и новые увлечения. Осваиваясь в непривычной для себя обстановке, девушки сталкиваются с первыми серьёзными проблемами на своём жизненном пути.",
  "iframe_url": "",
  "poster": "https://img.imgilall.me/movies/franchise/5/1/5/6/0/0/0/0/0/0/610x900_5156.jpg",
  "country": {
    "1": "США"
  },
  "collection": [],
  "genre": {
    "19": "Комедия",
    "10": "Зарубежный",
    "8": "Мелодрама",
    "7": "Драма"
  },
  "director": [
    "Питер Пейдж",
    "Брэд Бредевег",
    "Эприлл Уинни"
  ],
  "screenwriter": [
    "Брэд Бредевег",
    "Джоэнна Джонсон",
    "Питер Пейдж"
  ],
  "producer": [
    "Брэд Бредевег",
    "Элейн Голдсмит-Томас",
    "Грег Гульотта"
  ],
  "operator": [
    "Марко Фарноли",
    "Патрик Россо"
  ],
  "composer": [
    "Майкл Брук"
  ],
  "design": [
    "Рэйчел Камерман",
    "Марк Ханстэбл",
    "Дина Аппель"
  ],
  "editor": [
    "Адам К. Тиллер",
    "Шэрон Силверман",
    "Дебра Вайнштейн"
  ],
  "actors": [
    "Майя Митчелл",
    "Сьерра Рамирес",
    "Зури Аделе",
    "Шерри Кола",
    "Томми Мартинес",
    "Эмма Хантон",
    "Дхрув Сингх",
    "Джошуа Пенс",
    "Бо Мирчофф",
    "Т.Дж. Линнард"
  ],
  "actors_dubl": [],
  "trivia": [],
  "trailers": [
    {
      "name": "трейлер №1",
      "number": 1,
      "iframe_poster": "https://img.imgilall.me/movies/trailer/3/9/4/0/0/0/0/0/0/0/800x450_394.jpeg",
      "season": 2,
      "iframe_url": ""
    },
    {
      "name": "трейлер №1",
      "number": 1,
      "iframe_poster": null,
      "season": 3,
      "iframe_url": ""
    }
  ],
  "seasons": [
    {
      "poster": "https://img.imgilall.me/movies/season/3/0/4/5/0/0/0/0/0/0/610x900_3045.jpg",
      "release_ru": "2019-01-09",
      "release_world": "2019-01-08",
      "availability": "2019-01-10",
      "iframe_url": "",
      "season": 1,
      "episodes": [
        {
          "episode": 1,
          "name": "DTLA",
          "iframe_url": "",
          "iframe_poster": null,
          "release_ru": "2019-01-09",
          "release_world": "2019-01-08",
          "availability": "2019-01-10",
          "voiceActing": [
            "TVShows",
            "Eng.Original"
          ],
          "ads": false,
          "subtitle": [
            "Eng. full"
          ]
        },
        {
          "episode": 2,
          "name": "The Coterie",
          "iframe_url": "",
          "iframe_poster": null,
          "release_ru": "2019-01-16",
          "release_world": "2019-01-15",
          "availability": "2019-01-17",
          "voiceActing": [
            "TVShows",
            "Eng.Original"
          ],
          "ads": false,
          "subtitle": [
            "Eng. full"
          ]
        },
        {
          "episode": 3,
          "name": "Allies",
          "iframe_url": "",
          "iframe_poster": null,
          "release_ru": "2019-01-23",
          "release_world": "2019-01-22",
          "availability": "2019-01-24",
          "voiceActing": [
            "TVShows",
            "Eng.Original"
          ],
          "ads": false,
          "subtitle": [
            "Eng. full"
          ]
        },
        {
          "episode": 4,
          "name": "Playing the Game",
          "iframe_url": "",
          "iframe_poster": null,
          "release_ru": "2019-01-30",
          "release_world": "2019-01-29",
          "availability": "2019-01-31",
          "voiceActing": [
            "TVShows",
            "Eng.Original"
          ],
          "ads": false,
          "subtitle": [
            "Eng. full"
          ]
        },
        {
          "episode": 5,
          "name": "Parental Guidance Suggested",
          "iframe_url": "",
          "iframe_poster": null,
          "release_ru": "2019-02-06",
          "release_world": "2019-02-05",
          "availability": "2019-02-07",
          "voiceActing": [
            "TVShows",
            "Eng.Original"
          ],
          "ads": false,
          "subtitle": [
            "Eng. full"
          ]
        },
        {
          "episode": 6,
          "name": "Imposter",
          "iframe_url": "",
          "iframe_poster": null,
          "release_ru": "2019-02-13",
          "release_world": "2019-02-12",
          "availability": "2019-02-14",
          "voiceActing": [
            "TVShows",
            "Eng.Original"
          ],
          "ads": false,
          "subtitle": [
            "Eng. full"
          ]
        },
        {
          "episode": 7,
          "name": "Swipe Right",
          "iframe_url": "",
          "iframe_poster": null,
          "release_ru": "2019-02-20",
          "release_world": "2019-02-19",
          "availability": "2019-02-21",
          "voiceActing": [
            "TVShows",
            "Eng.Original"
          ],
          "ads": false,
          "subtitle": [
            "Eng. full"
          ]
        },
        {
          "episode": 8,
          "name": "Byte Club",
          "iframe_url": "",
          "iframe_poster": null,
          "release_ru": "2019-02-27",
          "release_world": "2019-02-26",
          "availability": "2019-02-28",
          "voiceActing": [
            "TVShows",
            "Eng.Original"
          ],
          "ads": false,
          "subtitle": [
            "Eng. full"
          ]
        },
        {
          "episode": 9,
          "name": "Willful Blindness",
          "iframe_url": "",
          "iframe_poster": null,
          "release_ru": "2019-03-06",
          "release_world": "2019-03-05",
          "availability": "2019-03-07",
          "voiceActing": [
            "TVShows",
            "Eng.Original"
          ],
          "ads": false,
          "subtitle": [
            "Eng. full"
          ]
        },
        {
          "episode": 10,
          "name": "Re-Birthday",
          "iframe_url": "",
          "iframe_poster": null,
          "release_ru": "2019-03-13",
          "release_world": "2019-03-12",
          "availability": "2019-03-14",
          "voiceActing": [
            "TVShows",
            "Eng.Original"
          ],
          "ads": false,
          "subtitle": [
            "Eng. full"
          ]
        },
        {
          "episode": 11,
          "name": "Less Than",
          "iframe_url": "",
          "iframe_poster": null,
          "release_ru": "2019-03-20",
          "release_world": "2019-03-19",
          "availability": "2019-03-21",
          "voiceActing": [
            "TVShows",
            "Eng.Original"
          ],
          "ads": false,
          "subtitle": [
            "Eng. full"
          ]
        },
        {
          "episode": 12,
          "name": "Broken Arted",
          "iframe_url": "",
          "iframe_poster": null,
          "release_ru": "2019-03-27",
          "release_world": "2019-03-26",
          "availability": "2019-03-28",
          "voiceActing": [
            "TVShows",
            "Eng.Original"
          ],
          "ads": false,
          "subtitle": [
            "Eng. full"
          ]
        },
        {
          "episode": 13,
          "name": "Vitamin C",
          "iframe_url": "",
          "iframe_poster": null,
          "release_ru": "2019-04-03",
          "release_world": "2019-04-02",
          "availability": "2019-04-04",
          "voiceActing": [
            "TVShows",
            "Eng.Original"
          ],
          "ads": false,
          "subtitle": [
            "Eng. full"
          ]
        }
      ]
    },
    {
      "poster": "https://img.imgilall.me/movies/season/5/0/4/1/0/0/0/0/0/0/610x900_5041.jpg",
      "release_ru": "2019-06-19",
      "release_world": "2019-06-18",
      "availability": "2019-06-20",
      "iframe_url": "",
      "season": 2,
      "episodes": [
        {
          "episode": 1,
          "name": "Percussions",
          "iframe_url": "",
          "iframe_poster": "https://img.imgilall.me/movies/video/9/9/2/2/4/0/0/0/0/0/800x450_99224.jpeg",
          "release_ru": "2019-06-19",
          "release_world": "2019-06-18",
          "availability": "2019-06-20",
          "voiceActing": [
            "TVShows",
            "Eng.Original"
          ],
          "ads": false,
          "subtitle": []
        },
        {
          "episode": 2,
          "name": "Torn",
          "iframe_url": "",
          "iframe_poster": "https://img.imgilall.me/movies/video/9/9/8/4/6/0/0/0/0/0/800x450_99846.jpeg",
          "release_ru": "2019-06-26",
          "release_world": "2019-06-25",
          "availability": "2019-06-27",
          "voiceActing": [
            "TVShows",
            "Eng.Original"
          ],
          "ads": false,
          "subtitle": []
        },
        {
          "episode": 3,
          "name": "Doble Quince",
          "iframe_url": "",
          "iframe_poster": "https://img.imgilall.me/movies/video/1/0/2/4/4/2/0/0/0/0/800x450_102442.jpeg",
          "release_ru": "2019-07-03",
          "release_world": "2019-07-02",
          "availability": "2019-07-04",
          "voiceActing": [
            "TVShows",
            "Eng.Original"
          ],
          "ads": false,
          "subtitle": []
        },
        {
          "episode": 4,
          "name": "Unfiltered",
          "iframe_url": "",
          "iframe_poster": "https://img.imgilall.me/movies/video/1/0/5/2/9/1/0/0/0/0/800x450_105291.jpeg",
          "release_ru": "2019-07-10",
          "release_world": "2019-07-09",
          "availability": "2019-07-11",
          "voiceActing": [
            "TVShows",
            "Eng.Original"
          ],
          "ads": false,
          "subtitle": []
        },
        {
          "episode": 5,
          "name": "Happy Heckling",
          "iframe_url": "",
          "iframe_poster": "https://img.imgilall.me/movies/video/1/0/7/1/7/8/0/0/0/0/800x450_107178.jpeg",
          "release_ru": "2019-07-17",
          "release_world": "2019-07-16",
          "availability": "2019-07-18",
          "voiceActing": [
            "TVShows",
            "Eng.Original"
          ],
          "ads": false,
          "subtitle": []
        },
        {
          "episode": 6,
          "name": "Twenty-Fine",
          "iframe_url": "",
          "iframe_poster": "https://img.imgilall.me/movies/video/1/0/7/1/7/9/0/0/0/0/800x450_107179.jpeg",
          "release_ru": "2019-07-24",
          "release_world": "2019-07-23",
          "availability": "2019-07-25",
          "voiceActing": [
            "TVShows",
            "Eng.Original"
          ],
          "ads": false,
          "subtitle": []
        },
        {
          "episode": 7,
          "name": "In the Middle",
          "iframe_url": "",
          "iframe_poster": "https://img.imgilall.me/movies/video/1/0/8/2/6/6/0/0/0/0/800x450_108266.jpeg",
          "release_ru": "2019-07-31",
          "release_world": "2019-07-30",
          "availability": "2019-08-01",
          "voiceActing": [
            "TVShows",
            "Eng.Original"
          ],
          "ads": false,
          "subtitle": []
        },
        {
          "episode": 8,
          "name": "Disruptions",
          "iframe_url": "",
          "iframe_poster": "https://img.imgilall.me/movies/video/1/0/9/7/8/4/0/0/0/0/800x450_109784.jpeg",
          "release_ru": "2019-08-07",
          "release_world": "2019-08-06",
          "availability": "2019-08-08",
          "voiceActing": [
            "TVShows",
            "Eng.Original"
          ],
          "ads": false,
          "subtitle": []
        },
        {
          "episode": 9,
          "name": "Nochebuena",
          "iframe_url": "",
          "iframe_poster": null,
          "release_ru": "2019-12-16",
          "release_world": "2019-12-16",
          "availability": "2019-12-17",
          "voiceActing": [
            "TVShows",
            "Eng.Original"
          ],
          "ads": false,
          "subtitle": []
        },
        {
          "episode": 10,
          "name": "A Very Coterie Christmas",
          "iframe_url": "",
          "iframe_poster": null,
          "release_ru": "2019-12-16",
          "release_world": "2019-12-16",
          "availability": "2019-12-17",
          "voiceActing": [
            "TVShows",
            "Eng.Original"
          ],
          "ads": false,
          "subtitle": []
        },
        {
          "episode": 11,
          "name": "Clapback",
          "iframe_url": "",
          "iframe_poster": null,
          "release_ru": "2020-01-15",
          "release_world": "2020-01-15",
          "availability": "2020-01-16",
          "voiceActing": [
            "TVShows",
            "Eng.Original"
          ],
          "ads": false,
          "subtitle": []
        },
        {
          "episode": 12,
          "name": "Gumboot Becky",
          "iframe_url": "",
          "iframe_poster": null,
          "release_ru": "2020-01-22",
          "release_world": "2020-01-22",
          "availability": "2020-01-23",
          "voiceActing": [
            "TVShows",
            "Eng.Original"
          ],
          "ads": false,
          "subtitle": []
        },
        {
          "episode": 13,
          "name": "Daylight",
          "iframe_url": "",
          "iframe_poster": null,
          "release_ru": "2020-01-29",
          "release_world": "2020-01-29",
          "availability": "2020-01-30",
          "voiceActing": [
            "TVShows",
            "Eng.Original"
          ],
          "ads": false,
          "subtitle": []
        },
        {
          "episode": 14,
          "name": "In Good Conscience",
          "iframe_url": "",
          "iframe_poster": null,
          "release_ru": "2020-02-06",
          "release_world": "2020-02-05",
          "availability": "2020-02-06",
          "voiceActing": [
            "TVShows",
            "Eng.Original"
          ],
          "ads": false,
          "subtitle": []
        },
        {
          "episode": 15,
          "name": "Palentine's Day",
          "iframe_url": "",
          "iframe_poster": null,
          "release_ru": "2020-02-13",
          "release_world": "2020-02-12",
          "availability": "2020-02-13",
          "voiceActing": [
            "TVShows",
            "Eng.Original"
          ],
          "ads": false,
          "subtitle": []
        },
        {
          "episode": 16,
          "name": "Fragility",
          "iframe_url": "",
          "iframe_poster": null,
          "release_ru": "2020-02-20",
          "release_world": "2020-02-19",
          "availability": "2020-02-20",
          "voiceActing": [
            "TVShows",
            "Eng.Original"
          ],
          "ads": false,
          "subtitle": []
        },
        {
          "episode": 17,
          "name": "Truths And Dares",
          "iframe_url": "",
          "iframe_poster": null,
          "release_ru": "2020-02-27",
          "release_world": "2020-02-26",
          "availability": "2020-02-27",
          "voiceActing": [
            "TVShows",
            "Eng.Original"
          ],
          "ads": false,
          "subtitle": []
        },
        {
          "episode": 18,
          "name": "Trap Heals",
          "iframe_url": "",
          "iframe_poster": null,
          "release_ru": "2020-03-05",
          "release_world": "2020-03-04",
          "availability": "2020-03-06",
          "voiceActing": [
            "TVShows"
          ],
          "ads": false,
          "subtitle": []
        }
      ]
    },
    {
      "poster": null,
      "release_ru": "2021-02-18",
      "release_world": "2021-02-17",
      "availability": "2021-02-19",
      "iframe_url": "",
      "season": 3,
      "episodes": [
        {
          "episode": 1,
          "name": "Capoeira",
          "iframe_url": "",
          "iframe_poster": null,
          "release_ru": "2021-02-18",
          "release_world": "2021-02-17",
          "availability": "2021-02-19",
          "voiceActing": [
            "TVShows"
          ],
          "ads": false,
          "subtitle": []
        },
        {
          "episode": 2,
          "name": "Arraignment Day",
          "iframe_url": "",
          "iframe_poster": null,
          "release_ru": "2021-02-25",
          "release_world": "2021-02-24",
          "availability": "2021-02-26",
          "voiceActing": [
            "TVShows"
          ],
          "ads": false,
          "subtitle": []
        },
        {
          "episode": 3,
          "name": "Whoosh, Pow, Bang",
          "iframe_url": "",
          "iframe_poster": null,
          "release_ru": "2021-03-04",
          "release_world": "2021-03-03",
          "availability": "2021-03-05",
          "voiceActing": [
            "TVShows"
          ],
          "ads": false,
          "subtitle": []
        },
        {
          "episode": 4,
          "name": "Klompendansen",
          "iframe_url": "",
          "iframe_poster": null,
          "release_ru": "2021-03-11",
          "release_world": "2021-03-10",
          "availability": "2021-03-12",
          "voiceActing": [
            "TVShows"
          ],
          "ads": false,
          "subtitle": []
        },
        {
          "episode": 5,
          "name": "Because, Men",
          "iframe_url": "",
          "iframe_poster": null,
          "release_ru": "2021-03-18",
          "release_world": "2021-03-17",
          "availability": "2021-03-19",
          "voiceActing": [
            "TVShows"
          ],
          "ads": false,
          "subtitle": []
        },
        {
          "episode": 6,
          "name": "Help",
          "iframe_url": "",
          "iframe_poster": null,
          "release_ru": "2021-03-25",
          "release_world": "2021-03-24",
          "availability": "2021-03-26",
          "voiceActing": [
            "TVShows"
          ],
          "ads": false,
          "subtitle": []
        },
        {
          "episode": 7,
          "name": "New Moon",
          "iframe_url": "",
          "iframe_poster": null,
          "release_ru": "2021-04-01",
          "release_world": "2021-03-31",
          "availability": "2021-04-02",
          "voiceActing": [
            "TVShows"
          ],
          "ads": false,
          "subtitle": []
        },
        {
          "episode": 8,
          "name": "Trust",
          "iframe_url": "",
          "iframe_poster": null,
          "release_ru": "2021-04-08",
          "release_world": "2021-04-07",
          "availability": "2021-04-09",
          "voiceActing": [
            "TVShows"
          ],
          "ads": false,
          "subtitle": []
        },
        {
          "episode": 9,
          "name": "Driver's Seat",
          "iframe_url": "",
          "iframe_poster": null,
          "release_ru": "2021-04-15",
          "release_world": "2021-04-14",
          "availability": "2021-04-16",
          "voiceActing": [
            "TVShows"
          ],
          "ads": false,
          "subtitle": []
        },
        {
          "episode": 10,
          "name": "She's Back",
          "iframe_url": "",
          "iframe_poster": null,
          "release_ru": "2021-04-22",
          "release_world": "2021-04-21",
          "availability": "2021-04-23",
          "voiceActing": [
            "TVShows"
          ],
          "ads": false,
          "subtitle": []
        },
        {
          "episode": 11,
          "name": "Knocked Down",
          "iframe_url": "",
          "iframe_poster": null,
          "release_ru": "2021-07-15",
          "release_world": "2021-07-14",
          "availability": "2021-07-16",
          "voiceActing": [
            "TVShows"
          ],
          "ads": false,
          "subtitle": []
        },
        {
          "episode": 12,
          "name": "Shame",
          "iframe_url": "",
          "iframe_poster": null,
          "release_ru": "2021-07-22",
          "release_world": "2021-07-21",
          "availability": "2021-07-23",
          "voiceActing": [
            "TVShows"
          ],
          "ads": false,
          "subtitle": []
        },
        {
          "episode": 13,
          "name": "Making a Metamour",
          "iframe_url": "",
          "iframe_poster": null,
          "release_ru": "2021-07-29",
          "release_world": "2021-07-28",
          "availability": "2021-07-30",
          "voiceActing": [
            "TVShows"
          ],
          "ads": false,
          "subtitle": []
        },
        {
          "episode": 14,
          "name": "Picks and Strikes",
          "iframe_url": "",
          "iframe_poster": null,
          "release_ru": "2021-08-05",
          "release_world": "2021-08-04",
          "availability": "2021-08-06",
          "voiceActing": [
            "TVShows"
          ],
          "ads": false,
          "subtitle": []
        },
        {
          "episode": 15,
          "name": "Lunar New Year",
          "iframe_url": "",
          "iframe_poster": null,
          "release_ru": "2021-08-12",
          "release_world": "2021-08-11",
          "availability": "2021-08-13",
          "voiceActing": [
            "TVShows"
          ],
          "ads": false,
          "subtitle": []
        },
        {
          "episode": 16,
          "name": "Opening Statements",
          "iframe_url": "",
          "iframe_poster": null,
          "release_ru": "2021-08-19",
          "release_world": "2021-08-18",
          "availability": "2021-08-20",
          "voiceActing": [
            "TVShows"
          ],
          "ads": false,
          "subtitle": []
        },
        {
          "episode": 17,
          "name": "Anticipation",
          "iframe_url": "",
          "iframe_poster": null,
          "release_ru": "2021-08-26",
          "release_world": "2021-08-25",
          "availability": "2021-08-27",
          "voiceActing": [
            "TVShows"
          ],
          "ads": false,
          "subtitle": []
        },
        {
          "episode": 18,
          "name": "Blindside",
          "iframe_url": "",
          "iframe_poster": null,
          "release_ru": "2021-09-02",
          "release_world": "2021-09-01",
          "availability": "2021-09-03",
          "voiceActing": [
            "TVShows"
          ],
          "ads": false,
          "subtitle": []
        },
        {
          "episode": 19,
          "name": "Closing Arguments",
          "iframe_url": "",
          "iframe_poster": null,
          "release_ru": "2021-09-09",
          "release_world": "2021-09-08",
          "availability": "2021-09-10",
          "voiceActing": [
            "TVShows"
          ],
          "ads": false,
          "subtitle": []
        }
      ]
    }
  ],
  "voiceActing": [
    "TVShows",
    "Eng.Original"
  ],
  "subtitle": [
    "Eng. full"
  ],
  "parts": []
}
