{
  "id": 35054,
  "name": "Силуэт",
  "name_eng": "Silhouette",
  "year": 2019,
  "slogan": "«This will hurt»",
  "age": null,
  "type": "film",
  "quality": "HD (720p)",
  "imdb": "5.1",
  "imdb_id": "8200742",
  "kinopoisk": null,
  "kinopoisk_id": "1122664",
  "world_art": null,
  "world_art_id": null,
  "time": "114 мин. / 01:54",
  "ads": true,
  "premier": "2019-07-26",
  "premier_rus": null,
  "availability": null,
  "activate_time": "2020-07-06 11:07:00",
  "budget": null,
  "fees_use": null,
  "fees_world": null,
  "fees_rus": null,
  "rate_mpaa": null,
  "description": "После смерти дочери Аманда и Джек решают начать всё заново и переезжают в уединённый домик подальше от города. Однако призраки прошлого продолжают их преследовать.",
  "iframe_url": "",
  "iframe_poster": null,
  "poster": "https://img.imgilall.me/movies/franchise/3/5/0/5/4/0/0/0/0/0/610x900_35054.jpg",
  "country": {
    "1": "США"
  },
  "collection": [],
  "genre": {
    "26": "Ужасы",
    "13": "Триллер",
    "7": "Драма"
  },
  "director": [
    "Митч МакЛеод"
  ],
  "screenwriter": [
    "Митч МакЛеод"
  ],
  "producer": [
    "Митч МакЛеод",
    "Тим Тальбовски"
  ],
  "operator": [
    "Marc Rouse"
  ],
  "composer": [
    "Michael Vignola"
  ],
  "design": [
    "Дэвид Джетер",
    "Stacey Lea"
  ],
  "editor": [
    "Marc Rouse"
  ],
  "actors": [
    "Эйприл Смит",
    "Том Земброд",
    "Jessica Dawn Willis",
    "Savannah Solsbery",
    "Ким Фостер",
    "Сюзанн Ракз",
    "Натали Джонс",
    "Дьюард Линн Лоуренс",
    "Джон Фредерик"
  ],
  "actors_dubl": [],
  "trivia": [],
  "trailers": [],
  "seasons": [],
  "voiceActing": [
    "Рус. Люб. многоголосый"
  ],
  "subtitle": [],
  "parts": []
}
