{
  "id": 48732,
  "name": "Парк с привидениями",
  "name_eng": "Eiga: Toshimaen",
  "year": 2019,
  "slogan": "—",
  "age": null,
  "type": "film",
  "quality": "HD (720p)",
  "imdb": "3.7",
  "imdb_id": "9137056",
  "kinopoisk": null,
  "kinopoisk_id": "1201481",
  "world_art": null,
  "world_art_id": null,
  "time": "81 мин. / 01:21",
  "ads": true,
  "premier": "2019-05-10",
  "premier_rus": "2019-05-11",
  "availability": "2019-05-12",
  "activate_time": "2021-07-18 11:45:00",
  "budget": null,
  "fees_use": null,
  "fees_world": "$21 161",
  "fees_rus": null,
  "rate_mpaa": null,
  "description": null,
  "iframe_url": "",
  "iframe_poster": null,
  "poster": "https://img.imgilall.me/movies/franchise/4/8/7/3/2/0/0/0/0/0/610x900_48732.jpg",
  "country": {
    "18": "Япония"
  },
  "collection": [],
  "genre": {
    "26": "Ужасы"
  },
  "director": [
    "Хироси Такахаси"
  ],
  "screenwriter": [
    "Хироси Такахаси"
  ],
  "producer": [
    "Хидэмото Сугая"
  ],
  "operator": [
    "Дзюнъитиро Хаяси"
  ],
  "composer": [
    "Сёго Кайда"
  ],
  "design": [
    "Такэси Морихара"
  ],
  "editor": [
    "Хидэаки Охата"
  ],
  "actors": [
    "Риэ Китахара",
    "Фудзико Кодзима",
    "Нана Асакава",
    "Рука Мацуда",
    "Нари Саито",
    "Ариса Комия",
    "Наоки Кунисима",
    "Сэина Судзуки",
    "Ян Дэйс",
    "Юми Кавасэ"
  ],
  "actors_dubl": [],
  "trivia": [],
  "trailers": [],
  "seasons": [],
  "voiceActing": [
    "Синема УС"
  ],
  "subtitle": [],
  "parts": []
}
