{
  "id": 52327,
  "name": "Прыгай, милая",
  "name_eng": "Jump, Darling",
  "year": 2020,
  "slogan": "—",
  "age": null,
  "type": "film",
  "quality": "HD (720p)",
  "imdb": "6.6",
  "imdb_id": "9204898",
  "kinopoisk": null,
  "kinopoisk_id": "1262572",
  "world_art": null,
  "world_art_id": null,
  "time": "90 мин. / 01:30",
  "ads": true,
  "premier": "2020-10-02",
  "premier_rus": "2020-10-03",
  "availability": "2020-10-04",
  "activate_time": "2021-11-19 01:12:00",
  "budget": null,
  "fees_use": null,
  "fees_world": null,
  "fees_rus": null,
  "rate_mpaa": null,
  "description": null,
  "iframe_url": "",
  "iframe_poster": null,
  "poster": "https://img.imgilall.me/movies/franchise/5/2/3/2/7/0/0/0/0/0/610x900_52327.jpg",
  "country": {
    "7": "Канада"
  },
  "collection": [],
  "genre": {
    "7": "Драма"
  },
  "director": [
    "Philip J. Connell"
  ],
  "screenwriter": [
    "Philip J. Connell",
    "Genevieve Scott"
  ],
  "producer": [
    "Philip J. Connell",
    "Katie Corbridge",
    "Эллисон Блэк"
  ],
  "operator": [
    "Viktor Cahoj"
  ],
  "composer": [
    "Harry Knazan"
  ],
  "design": [
    "Эллисон Цвикер",
    "John Dunnett"
  ],
  "editor": [
    "Лев Льюис"
  ],
  "actors": [
    "Клорис Личмен",
    "Линда Кэш",
    "Джейн Иствуд",
    "Эндрю Бушелл",
    "Томас Дюплесси",
    "Дэниэл Юн",
    "Rose Napoli",
    "Сара Камачо",
    "Кэти Мессина",
    "Марк Кавен"
  ],
  "actors_dubl": [],
  "trivia": [],
  "trailers": [],
  "seasons": [],
  "voiceActing": [
    "Синема УС"
  ],
  "subtitle": [],
  "parts": []
}
