{
  "id": 38516,
  "name": "Цепень",
  "name_eng": "Tapeworm",
  "year": 2019,
  "slogan": "—",
  "age": null,
  "type": "film",
  "quality": "HD (720p)",
  "imdb": "5.4",
  "imdb_id": "10259162",
  "kinopoisk": null,
  "kinopoisk_id": "1262678",
  "world_art": null,
  "world_art_id": null,
  "time": "78 мин. / 01:18",
  "ads": true,
  "premier": "2019-09-30",
  "premier_rus": "2019-10-01",
  "availability": "2019-10-02",
  "activate_time": "2020-10-13 11:16:00",
  "budget": null,
  "fees_use": null,
  "fees_world": null,
  "fees_rus": null,
  "rate_mpaa": null,
  "description": "Ипохондрик, неудачливый комик, одиночка и два наивных наркомана ищут спасения от своего жалкого и приземленного существования.",
  "iframe_url": "",
  "iframe_poster": null,
  "poster": "https://img.imgilall.me/movies/franchise/3/8/5/1/6/0/0/0/0/0/610x900_38516.jpg",
  "country": {
    "7": "Канада"
  },
  "collection": [],
  "genre": {
    "19": "Комедия",
    "7": "Драма"
  },
  "director": [
    "Милош Митрович",
    "Фабиан Веласко"
  ],
  "screenwriter": [
    "Милош Митрович",
    "Фабиан Веласко"
  ],
  "producer": [
    "Йен Бава",
    "Милош Митрович",
    "Кевин Табачник"
  ],
  "operator": [
    "Маркус Хенкел"
  ],
  "composer": [],
  "design": [],
  "editor": [
    "Маркус Хенкел",
    "Милош Митрович",
    "Фабиан Веласко"
  ],
  "actors": [
    "Алекс Атеа",
    "Дэйв Барбер",
    "Стефани Беррингтон",
    "Адам Брукс",
    "Jennifer Mauws",
    "Милош Митрович",
    "Слободан Митрович",
    "Джули Симпсон",
    "Сэм Сингер"
  ],
  "actors_dubl": [],
  "trivia": [],
  "trailers": [],
  "seasons": [],
  "voiceActing": [
    "Рус. Проф. многоголосый"
  ],
  "subtitle": [],
  "parts": []
}
