{
  "id": 28978,
  "name": "Жизнь морских обитателей",
  "name_eng": "Hai yang dong wu",
  "year": 2019,
  "slogan": "—",
  "age": null,
  "type": "film",
  "quality": "SD",
  "imdb": "5.8",
  "imdb_id": "0",
  "kinopoisk": null,
  "kinopoisk_id": "1254066",
  "world_art": null,
  "world_art_id": null,
  "time": "112 мин. / 01:52",
  "ads": false,
  "premier": "2019-11-13",
  "premier_rus": "2019-11-14",
  "availability": "2019-11-15",
  "activate_time": "2020-07-09 11:42:00",
  "budget": null,
  "fees_use": null,
  "fees_world": null,
  "fees_rus": null,
  "rate_mpaa": null,
  "description": "Земную жизнь пройдя до половины, господин Чжу бросает все дела, садится на паром и отправляется на поиски пропавшей жены на остров, где они когда-то познакомились. На острове мертвый сезон и почти нет туристов. Чжу целыми днями гуляет, фотографируя все, что встречается ему на пути. Он знакомится с хозяйкой отеля, флиртует со школьной учительницей и заводит роман с управляющей танцевальным клубом. Куда пропала жена Чжу, по-прежнему остается загадкой.",
  "iframe_url": "",
  "iframe_poster": null,
  "poster": "https://img.imgilall.me/movies/franchise/2/8/9/7/8/0/0/0/0/0/610x900_28978.jpg",
  "country": {
    "19": "Китай"
  },
  "collection": [],
  "genre": {
    "7": "Драма"
  },
  "director": [
    "Чжан Чи"
  ],
  "screenwriter": [],
  "producer": [],
  "operator": [
    "Yi Fang"
  ],
  "composer": [],
  "design": [],
  "editor": [],
  "actors": [],
  "actors_dubl": [],
  "trivia": [],
  "trailers": [],
  "seasons": [],
  "voiceActing": [
    "Рус. Проф. многоголосый"
  ],
  "subtitle": [],
  "parts": []
}
