{
  "id": 40994,
  "name": "Aurora Teagarden Mysteries: A Very Foul Play (ТВ)",
  "name_eng": "",
  "year": 2019,
  "slogan": "—",
  "age": null,
  "type": "film",
  "quality": "HD (720p)",
  "imdb": "7.3",
  "imdb_id": "9759872",
  "kinopoisk": null,
  "kinopoisk_id": "1236658",
  "world_art": null,
  "world_art_id": null,
  "time": "84 мин. / 01:24",
  "ads": false,
  "premier": "2019-08-18",
  "premier_rus": "2019-08-19",
  "availability": "2019-08-20",
  "activate_time": "2020-11-08 11:16:00",
  "budget": null,
  "fees_use": null,
  "fees_world": null,
  "fees_rus": null,
  "rate_mpaa": null,
  "description": null,
  "iframe_url": "",
  "iframe_poster": null,
  "poster": "https://img.imgilall.me/movies/franchise/4/0/9/9/4/0/0/0/0/0/610x900_40994.jpg",
  "country": {
    "1": "США"
  },
  "collection": [],
  "genre": {
    "24": "Детектив"
  },
  "director": [
    "Мартин Вуд"
  ],
  "screenwriter": [
    "Майкл Викерман",
    "Шарлин Харрис",
    "Джим Хэд"
  ],
  "producer": [
    "Джэми Горинг",
    "Кендес Камерон Буре",
    "Джим Хэд"
  ],
  "operator": [],
  "composer": [
    "Джефф Тимощук"
  ],
  "design": [
    "Тим Лэнхем"
  ],
  "editor": [],
  "actors": [
    "Кендес Камерон Буре",
    "Найолл Мэттер",
    "Мэрилу Хеннер",
    "Лекса Дойг",
    "Питер Бенсон",
    "Миранда Фригон",
    "Дилан Слоун",
    "Элли Харви",
    "Кэтрин Лок Хэггквист",
    "Коул Виг"
  ],
  "actors_dubl": [],
  "trivia": [],
  "trailers": [],
  "seasons": [],
  "voiceActing": [
    "und0"
  ],
  "subtitle": [],
  "parts": []
}
