{
  "id": 43316,
  "name": "Слёборн: Эпидемия на острове",
  "name_eng": "Sløborn",
  "year": 2020,
  "slogan": "—",
  "age": "16+",
  "type": "series",
  "quality": "FHD (1080p)",
  "imdb": "6.8",
  "imdb_id": "10384106",
  "kinopoisk": "6.2",
  "kinopoisk_id": "1273210",
  "world_art": null,
  "world_art_id": null,
  "time": "48 мин",
  "ads": false,
  "premier": "2020-07-23",
  "premier_rus": "2020-07-24",
  "availability": "2020-07-25",
  "serial_status": "offline",
  "activate_time": "2021-01-04 13:23:00",
  "budget": null,
  "fees_use": null,
  "fees_world": null,
  "fees_rus": null,
  "rate_mpaa": null,
  "description": "История борьбы островитян со страшным вирусом. Каждому предстоит узнать, во что превращаются современные люди, когда тонкий налет цивилизованности исчезает под напором смертельной опасности.",
  "iframe_url": "",
  "poster": "https://img.imgilall.me/movies/franchise/4/3/3/1/6/0/0/0/0/0/610x900_43316.jpg",
  "country": {
    "14": "Польша",
    "20": "Германия",
    "25": "Дания"
  },
  "collection": [],
  "genre": {
    "11": "Фантастика",
    "13": "Триллер",
    "7": "Драма"
  },
  "director": [
    "Кристиан Альварт",
    "Адольфо Дж. Кольмерер"
  ],
  "screenwriter": [
    "Кристиан Альварт",
    "Хеннер Шульте-Хольтей",
    "Эроль Есилькая"
  ],
  "producer": [
    "Кристиан Альварт",
    "Петер Эйфф",
    "Роберт Франке"
  ],
  "operator": [
    "Кристиан Альварт",
    "Кристиан Хак"
  ],
  "composer": [
    "Макс Фильгес",
    "Кристоф Шауэр"
  ],
  "design": [
    "Сильвестр Козелек",
    "Дорота Будна",
    "Яцек Чеховский"
  ],
  "editor": [
    "Марк Хофмайстер",
    "Роберт Хаузер",
    "Уильям Джеймс"
  ],
  "actors": [
    "Эмили Куше",
    "Вотан Вильке Мёринг",
    "Александр Шеер",
    "Роланд Мёллер",
    "Лаура Тонке",
    "Анника Кул",
    "Адриан Грюневальд",
    "Урс Рехн",
    "Tim Bülow",
    "Linda Stockfleth"
  ],
  "actors_dubl": [],
  "trivia": [],
  "trailers": [],
  "seasons": [
    {
      "poster": null,
      "release_ru": null,
      "release_world": null,
      "availability": null,
      "iframe_url": "",
      "season": 1,
      "episodes": [
        {
          "episode": 1,
          "name": null,
          "iframe_url": "",
          "iframe_poster": null,
          "release_ru": null,
          "release_world": null,
          "availability": null,
          "voiceActing": [
            "Рус. Проф. многоголосый",
            "German Original"
          ],
          "ads": false,
          "subtitle": [
            "Eng. full"
          ]
        },
        {
          "episode": 2,
          "name": null,
          "iframe_url": "",
          "iframe_poster": null,
          "release_ru": null,
          "release_world": null,
          "availability": null,
          "voiceActing": [
            "Рус. Проф. многоголосый",
            "German Original"
          ],
          "ads": false,
          "subtitle": [
            "Eng. full"
          ]
        },
        {
          "episode": 3,
          "name": null,
          "iframe_url": "",
          "iframe_poster": null,
          "release_ru": null,
          "release_world": null,
          "availability": null,
          "voiceActing": [
            "Рус. Проф. многоголосый",
            "German Original"
          ],
          "ads": false,
          "subtitle": [
            "Eng. full"
          ]
        },
        {
          "episode": 4,
          "name": null,
          "iframe_url": "",
          "iframe_poster": null,
          "release_ru": null,
          "release_world": null,
          "availability": null,
          "voiceActing": [
            "Рус. Проф. многоголосый",
            "German Original"
          ],
          "ads": false,
          "subtitle": [
            "Eng. full"
          ]
        },
        {
          "episode": 5,
          "name": null,
          "iframe_url": "",
          "iframe_poster": null,
          "release_ru": null,
          "release_world": null,
          "availability": null,
          "voiceActing": [
            "Рус. Проф. многоголосый",
            "German Original"
          ],
          "ads": false,
          "subtitle": [
            "Eng. full"
          ]
        },
        {
          "episode": 6,
          "name": null,
          "iframe_url": "",
          "iframe_poster": null,
          "release_ru": null,
          "release_world": null,
          "availability": null,
          "voiceActing": [
            "Рус. Проф. многоголосый",
            "German Original"
          ],
          "ads": false,
          "subtitle": [
            "Eng. full"
          ]
        },
        {
          "episode": 7,
          "name": null,
          "iframe_url": "",
          "iframe_poster": null,
          "release_ru": null,
          "release_world": null,
          "availability": null,
          "voiceActing": [
            "Рус. Проф. многоголосый",
            "German Original"
          ],
          "ads": false,
          "subtitle": [
            "Eng. full"
          ]
        },
        {
          "episode": 8,
          "name": null,
          "iframe_url": "",
          "iframe_poster": null,
          "release_ru": null,
          "release_world": null,
          "availability": null,
          "voiceActing": [
            "Рус. Проф. многоголосый",
            "German Original"
          ],
          "ads": false,
          "subtitle": [
            "Eng. full"
          ]
        }
      ]
    }
  ],
  "voiceActing": [
    "Рус. Проф. многоголосый",
    "German Original"
  ],
  "subtitle": [
    "Eng. full"
  ],
  "parts": []
}
