{
  "id": 48708,
  "name": "2 Недели в Лагосе",
  "name_eng": "2 Weeks in Lagos",
  "year": 2019,
  "slogan": "—",
  "age": null,
  "type": "film",
  "quality": "HD (720p)",
  "imdb": null,
  "imdb_id": "10241024",
  "kinopoisk": null,
  "kinopoisk_id": "1268748",
  "world_art": null,
  "world_art_id": null,
  "time": "117 мин. / 01:57",
  "ads": true,
  "premier": "2019-10-19",
  "premier_rus": "2019-10-20",
  "availability": "2019-10-21",
  "activate_time": "2021-07-16 16:40:00",
  "budget": null,
  "fees_use": null,
  "fees_world": null,
  "fees_rus": null,
  "rate_mpaa": null,
  "description": null,
  "iframe_url": "",
  "iframe_poster": null,
  "poster": "https://img.imgilall.me/movies/franchise/4/8/7/0/8/0/0/0/0/0/610x900_48708.jpg",
  "country": {
    "106": "Нигерия"
  },
  "collection": [],
  "genre": {
    "8": "Мелодрама"
  },
  "director": [
    "Kathryn Fasegha"
  ],
  "screenwriter": [
    "Kathryn Fasegha"
  ],
  "producer": [
    "Kathryn Fasegha",
    "Sarah Inya Lawal"
  ],
  "operator": [
    "Ken Attoh"
  ],
  "composer": [],
  "design": [],
  "editor": [
    "Ken Attoh",
    "Shirley Frimpong-Manso"
  ],
  "actors": [
    "Toyin Abraham",
    "Shaffy Bello",
    "Mawuli Gavor",
    "Jide Kosoko",
    "Tina Mba",
    "Беверли Ная",
    "Deyemi Okanlawon",
    "Uto Rosman",
    "Йок Силва",
    "Okey Uzoeshi"
  ],
  "actors_dubl": [],
  "trivia": [],
  "trailers": [],
  "seasons": [],
  "voiceActing": [
    "Рус. Люб. многоголосый"
  ],
  "subtitle": [],
  "parts": []
}
