{
  "id": 43245,
  "name": "Заблудшая душа",
  "name_eng": "Lost Heart",
  "year": 2020,
  "slogan": "—",
  "age": null,
  "type": "film",
  "quality": "FHD (1080p)",
  "imdb": "4.7",
  "imdb_id": "9640414",
  "kinopoisk": null,
  "kinopoisk_id": "1266995",
  "world_art": null,
  "world_art_id": null,
  "time": "98 мин. / 01:38",
  "ads": true,
  "premier": "2020-10-17",
  "premier_rus": "2020-10-18",
  "availability": "2020-10-19",
  "activate_time": "2020-12-31 09:31:00",
  "budget": "",
  "fees_use": "",
  "fees_world": "",
  "fees_rus": "",
  "rate_mpaa": "",
  "description": "Суперзвезда кантри, певица Ханна, переживающая кризис, возвращается в тихий родной городок Лост Харт в Северном Мичигане на похороны отца. Там она встретится с призраками прошлого и возможно, обретёт покой и гармонию в душе.\r\n",
  "iframe_url": "",
  "iframe_poster": null,
  "poster": "https://img.imgilall.me/movies/franchise/4/3/2/4/5/0/0/0/0/0/610x900_43245.jpg",
  "country": {
    "1": "США"
  },
  "collection": [],
  "genre": {
    "24": "Детектив",
    "19": "Комедия",
    "7": "Драма"
  },
  "director": [
    "Jesse Low"
  ],
  "screenwriter": [
    "DJ Перри"
  ],
  "producer": [
    "Melissa Anschutz",
    "Debbie Thomey Bennett",
    "Дэвид Гриз"
  ],
  "operator": [
    "Джесси Арагон"
  ],
  "composer": [
    "Дэннис Терриан"
  ],
  "design": [
    "Alexander Berdy",
    "Роберт Брэдли",
    "Shelley Perry"
  ],
  "editor": [
    "Jesse Low",
    "Скотт Мэджи"
  ],
  "actors": [
    "Melissa Anschutz",
    "Дон Мост",
    "Виктория Джексон",
    "Кристин Мари",
    "Джош Перри",
    "DJ Перри",
    "Шэйн Хедждорн",
    "Дин Уэст",
    "Тейлор Дюпуа",
    "Шеррил Деспрес"
  ],
  "actors_dubl": [],
  "trivia": [],
  "trailers": [],
  "seasons": [],
  "voiceActing": [
    "Рус. Люб. многоголосый"
  ],
  "subtitle": [],
  "parts": []
}
