{
  "id": 38390,
  "name": "Back to the Goode Life",
  "name_eng": "",
  "year": 2019,
  "slogan": "—",
  "age": null,
  "type": "film",
  "quality": "HD (720p)",
  "imdb": "6.0",
  "imdb_id": "9597922",
  "kinopoisk": null,
  "kinopoisk_id": "1229251",
  "world_art": null,
  "world_art_id": null,
  "time": "84 мин. / 01:24",
  "ads": false,
  "premier": "2019-04-26",
  "premier_rus": "2019-04-27",
  "availability": "2019-04-28",
  "activate_time": "2020-10-17 02:04:00",
  "budget": null,
  "fees_use": null,
  "fees_world": null,
  "fees_rus": null,
  "rate_mpaa": null,
  "description": "Франческа Гуд — успешная Нью-Йоркская банкирша, которая в одночасье потеряла свою высокую должность, а ФБР заморозил все её банковские счета после ложного обвинения в мошенничестве. Из-за этих событий она вынуждена отказаться от привычного расточительного образа жизни и вернуться в маленький родной городок к семье.",
  "iframe_url": "",
  "iframe_poster": null,
  "poster": "https://img.imgilall.me/movies/franchise/3/8/3/9/0/0/0/0/0/0/610x900_38390.jpg",
  "country": {
    "1": "США"
  },
  "collection": [],
  "genre": {
    "19": "Комедия"
  },
  "director": [
    "Тамика Миллер"
  ],
  "screenwriter": [],
  "producer": [
    "Бретт Дисмьюк",
    "Ламард Дж. Тейт",
    "Лоренц Тейт"
  ],
  "operator": [
    "Tery Wilson"
  ],
  "composer": [],
  "design": [
    "Муска Зурмати",
    "Джейкоб Палмер"
  ],
  "editor": [
    "Джон Фури",
    "Брайан Цвинер"
  ],
  "actors": [
    "Джулиан Бриттано",
    "Сэр Броди",
    "Лондон Браун",
    "Николь Л. Кэмпбелл",
    "Scott Deal",
    "Роберт Дьяго Дукуй",
    "Надин Эллис",
    "Эстелль",
    "Кайла Гибсон",
    "Харизма Гуден"
  ],
  "actors_dubl": [],
  "trivia": [],
  "trailers": [],
  "seasons": [],
  "voiceActing": [
    "und0"
  ],
  "subtitle": [],
  "parts": []
}
