{
  "id": 51661,
  "name": "Четыре тысячи четыреста",
  "name_eng": "4400",
  "year": 2021,
  "slogan": "—",
  "age": null,
  "type": "series",
  "quality": "HD (720p)",
  "imdb": "5.9",
  "imdb_id": "9319770",
  "kinopoisk": null,
  "kinopoisk_id": "1219142",
  "world_art": null,
  "world_art_id": null,
  "time": "—",
  "ads": true,
  "premier": "2021-10-25",
  "premier_rus": "2021-10-26",
  "availability": "2021-10-27",
  "serial_status": "online",
  "activate_time": "2021-10-26 19:00:00",
  "budget": null,
  "fees_use": null,
  "fees_world": null,
  "fees_rus": null,
  "rate_mpaa": null,
  "description": "4400 человек, бесследно пропавших за последние сто лет, возвращаются в одно мгновение. Они не постарели ни на один день и не помнят, что с ними случилось.",
  "iframe_url": "",
  "poster": "https://img.imgilall.me/movies/franchise/5/1/6/6/1/0/0/0/0/0/610x900_51661.jpg",
  "country": {
    "1": "США"
  },
  "collection": [],
  "genre": {
    "11": "Фантастика",
    "7": "Драма"
  },
  "director": [
    "Дженис Кук-Леонард",
    "Тесса Блейк",
    "Шилин Чокси"
  ],
  "screenwriter": [
    "Брэдли Эстрин",
    "Джетт Гаррисон",
    "Фелиция Хиларио"
  ],
  "producer": [
    "Cris Olariu",
    "Морин Миллиган",
    "Анна Фрике"
  ],
  "operator": [
    "Скотт Тьеле"
  ],
  "composer": [
    "Йонник Бонтем"
  ],
  "design": [
    "Джесси Хаддад"
  ],
  "editor": [],
  "actors": [
    "Элис Хантер",
    "Тео Джермейн",
    "Каусар Мохаммед",
    "Ариана Андерсон",
    "Джозеф Дэвид-Джонс",
    "Отем Бест",
    "Клер Куни",
    "Амарр Мерритт",
    "Бриттани Адебумола",
    "Кори Джекома"
  ],
  "actors_dubl": [],
  "trivia": [],
  "trailers": [],
  "seasons": [
    {
      "poster": null,
      "release_ru": null,
      "release_world": null,
      "availability": null,
      "iframe_url": "",
      "season": 1,
      "episodes": [
        {
          "episode": 1,
          "name": null,
          "iframe_url": "",
          "iframe_poster": null,
          "release_ru": null,
          "release_world": null,
          "availability": null,
          "voiceActing": [
            "TVShows"
          ],
          "ads": false,
          "subtitle": []
        },
        {
          "episode": 2,
          "name": null,
          "iframe_url": "",
          "iframe_poster": null,
          "release_ru": null,
          "release_world": null,
          "availability": null,
          "voiceActing": [
            "TVShows"
          ],
          "ads": false,
          "subtitle": []
        },
        {
          "episode": 3,
          "name": null,
          "iframe_url": "",
          "iframe_poster": null,
          "release_ru": null,
          "release_world": null,
          "availability": null,
          "voiceActing": [
            "TVShows"
          ],
          "ads": false,
          "subtitle": []
        },
        {
          "episode": 4,
          "name": null,
          "iframe_url": "",
          "iframe_poster": null,
          "release_ru": null,
          "release_world": null,
          "availability": null,
          "voiceActing": [
            "TVShows"
          ],
          "ads": false,
          "subtitle": []
        },
        {
          "episode": 5,
          "name": null,
          "iframe_url": "",
          "iframe_poster": null,
          "release_ru": null,
          "release_world": null,
          "availability": null,
          "voiceActing": [
            "TVShows"
          ],
          "ads": false,
          "subtitle": []
        },
        {
          "episode": 6,
          "name": null,
          "iframe_url": "",
          "iframe_poster": null,
          "release_ru": null,
          "release_world": null,
          "availability": null,
          "voiceActing": [
            "HDRezka Studio"
          ],
          "ads": true,
          "subtitle": [
            "Рус. форсированные"
          ]
        }
      ]
    }
  ],
  "voiceActing": [
    "TVShows",
    "HDRezka Studio"
  ],
  "subtitle": [
    "Рус. форсированные"
  ],
  "parts": []
}
