{
  "id": 7320,
  "name": "Нейт Баргатз: Паренек из Теннесси",
  "name_eng": "Nate Bargatze: The Tennessee Kid",
  "year": 2019,
  "slogan": "—",
  "age": "12+",
  "type": "film",
  "quality": "HD (720p)",
  "imdb": "7.6",
  "imdb_id": "9861504",
  "kinopoisk": null,
  "kinopoisk_id": "1245326",
  "world_art": null,
  "world_art_id": null,
  "time": "60 мин.",
  "ads": true,
  "premier": "2019-03-26",
  "premier_rus": null,
  "availability": null,
  "activate_time": "2019-04-03 09:43:37",
  "budget": null,
  "fees_use": null,
  "fees_world": null,
  "fees_rus": null,
  "rate_mpaa": null,
  "description": "В этом стендап-концерте комик говорит об авиаперелётах, дешёвых свадьбах, студенческом футболе, шоколадном молоке и рисках при заказе кофе.",
  "iframe_url": "",
  "iframe_poster": "https://img.imgilall.me/movies/video/7/7/7/3/5/0/0/0/0/0/800x450_77735.jpeg",
  "poster": "https://img.imgilall.me/movies/franchise/7/3/2/0/0/0/0/0/0/0/610x900_7320.jpg",
  "country": {
    "1": "США"
  },
  "collection": [],
  "genre": {
    "19": "Комедия",
    "10": "Зарубежный"
  },
  "director": [
    "Райан Полито"
  ],
  "screenwriter": [
    "Нейт Баргатзе"
  ],
  "producer": [
    "Аарон Чемпион",
    "Джон Ирвин",
    "Нил А. Шеридан"
  ],
  "operator": [
    "Джей Лафайетт"
  ],
  "composer": [],
  "design": [],
  "editor": [
    "Мэттью Саймон"
  ],
  "actors": [
    "Нейт Баргатзе"
  ],
  "actors_dubl": [],
  "trivia": [],
  "trailers": [],
  "seasons": [],
  "voiceActing": [
    "Рус. Проф. многоголосый"
  ],
  "subtitle": [],
  "parts": []
}
