{
  "id": 10500,
  "name": "Честь",
  "name_eng": "Heder",
  "year": 2019,
  "slogan": "—",
  "age": null,
  "type": "series",
  "quality": "HD (720p)",
  "imdb": "6.3",
  "imdb_id": "9318602",
  "kinopoisk": null,
  "kinopoisk_id": "1219489",
  "world_art": null,
  "world_art_id": null,
  "time": "44 мин",
  "ads": true,
  "premier": "2019-08-30",
  "premier_rus": null,
  "availability": null,
  "serial_status": "online",
  "activate_time": "2019-09-03 09:53:00",
  "budget": "",
  "fees_use": "",
  "fees_world": "",
  "fees_rus": "",
  "rate_mpaa": "",
  "description": "Шведский криминально-драматический сериал «Честь» рассказывает своим зрителям о том, что в современности равноправие стало практически повсеместным. Женщины обрели полноценные права, позволяющие им делать все то, чем занимаются мужчины. Но равноправие привело к необходимости пересмотра отдельных положений в Конституции и создании специализированных структур.\r\n\r\nКогда появляются новые правки, то женщины обретают новые права. По этой причине в Швеции создается специальное государственное отделение. Его сотрудницы занимаются изучением дел, связанных с насилием и угнетением по отношению к женщинам. Каждый день героини получают на рассмотрение заявки, касающиеся дискриминации, жестокости и ущемления женщин. Все заявки подробно рассматривают и изучаются. Благодаря этому полицейский департамент имеет возможность переложить часть своей ответственности на специальный отдел, зная, что об угнетенных женщинах обязательно позаботятся.",
  "iframe_url": "",
  "poster": "https://img.imgilall.me/movies/franchise/1/0/5/0/0/0/0/0/0/0/610x900_10500.jpg",
  "country": {
    "28": "Швеция"
  },
  "collection": [],
  "genre": {
    "25": "Криминал",
    "10": "Зарубежный",
    "7": "Драма"
  },
  "director": [
    "Олоф Спаак",
    "Joakim Eliasson",
    "Ричард Холм"
  ],
  "screenwriter": [
    "София Хелин",
    "Ричард Холм",
    "Inger Scharis"
  ],
  "producer": [
    "Юлия Дуфвениус",
    "Калле Янссон",
    "Аня Лундквист"
  ],
  "operator": [
    "Kristoffer Jönsson",
    "Nea Asphäll",
    "Olof Johnson"
  ],
  "composer": [
    "Anders Herrlin",
    "Дженни Лёфгрен"
  ],
  "design": [
    "Олле Ремаюс",
    "Oscar Blixte",
    "Adam Johnsson"
  ],
  "editor": [
    "Ульрика Ран",
    "Роберт Норд",
    "Хакан Варн"
  ],
  "actors": [
    "Юлия Дуфвениус",
    "Аня Лундквист",
    "Александра Рапапорт",
    "Эва Рёзе",
    "Сив Эриксон",
    "Кардо Радзаци",
    "Кристофер Воллтер",
    "Карин Бьюрстрём",
    "Бьёрн Чьелльман",
    "Maria Nohra"
  ],
  "actors_dubl": [],
  "trivia": [],
  "trailers": [],
  "seasons": [
    {
      "poster": null,
      "release_ru": "2019-08-31",
      "release_world": "2019-08-30",
      "availability": "2019-09-01",
      "iframe_url": "",
      "season": 1,
      "episodes": [
        {
          "episode": 1,
          "name": "Torsksafari",
          "iframe_url": "",
          "iframe_poster": null,
          "release_ru": "2019-08-31",
          "release_world": "2019-08-30",
          "availability": "2019-09-01",
          "voiceActing": [
            "HDRezka Studio"
          ],
          "ads": true,
          "subtitle": [
            "Рус. форсированные"
          ]
        },
        {
          "episode": 2,
          "name": "Magkänslan",
          "iframe_url": "",
          "iframe_poster": null,
          "release_ru": "2019-08-31",
          "release_world": "2019-08-30",
          "availability": "2019-09-01",
          "voiceActing": [
            "HDRezka Studio"
          ],
          "ads": true,
          "subtitle": [
            "Рус. форсированные"
          ]
        },
        {
          "episode": 3,
          "name": "1991",
          "iframe_url": "",
          "iframe_poster": null,
          "release_ru": "2019-09-07",
          "release_world": "2019-09-06",
          "availability": "2019-09-08",
          "voiceActing": [
            "HDRezka Studio"
          ],
          "ads": true,
          "subtitle": [
            "Рус. форсированные"
          ]
        },
        {
          "episode": 4,
          "name": "Alla kan sy",
          "iframe_url": "",
          "iframe_poster": null,
          "release_ru": "2019-09-14",
          "release_world": "2019-09-13",
          "availability": "2019-09-15",
          "voiceActing": [
            "HDRezka Studio"
          ],
          "ads": true,
          "subtitle": [
            "Рус. форсированные"
          ]
        },
        {
          "episode": 5,
          "name": "Att sälja sig för att överleva",
          "iframe_url": "",
          "iframe_poster": null,
          "release_ru": "2019-09-21",
          "release_world": "2019-09-20",
          "availability": "2019-09-22",
          "voiceActing": [
            "HDRezka Studio"
          ],
          "ads": true,
          "subtitle": [
            "Рус. форсированные"
          ]
        },
        {
          "episode": 6,
          "name": "Neat",
          "iframe_url": "",
          "iframe_poster": null,
          "release_ru": "2019-09-28",
          "release_world": "2019-09-27",
          "availability": "2019-09-29",
          "voiceActing": [
            "HDRezka Studio"
          ],
          "ads": true,
          "subtitle": [
            "Рус. форсированные"
          ]
        },
        {
          "episode": 7,
          "name": "Mirakelstudenten",
          "iframe_url": "",
          "iframe_poster": null,
          "release_ru": "2019-10-05",
          "release_world": "2019-10-04",
          "availability": "2019-10-06",
          "voiceActing": [
            "HDRezka Studio"
          ],
          "ads": true,
          "subtitle": [
            "Рус. форсированные"
          ]
        },
        {
          "episode": 8,
          "name": "Happy Face",
          "iframe_url": "",
          "iframe_poster": null,
          "release_ru": "2019-10-11",
          "release_world": "2019-10-11",
          "availability": "2019-10-11",
          "voiceActing": [
            "HDRezka Studio"
          ],
          "ads": true,
          "subtitle": [
            "Рус. форсированные"
          ]
        }
      ]
    }
  ],
  "voiceActing": [
    "HDRezka Studio"
  ],
  "subtitle": [
    "Рус. форсированные"
  ],
  "parts": []
}
