{
  "id": 18840,
  "name": "Некотируемый",
  "name_eng": "The Unlisted",
  "year": 2019,
  "slogan": "—",
  "age": null,
  "type": "series",
  "quality": "FHD (1080p)",
  "imdb": "6.7",
  "imdb_id": "9184592",
  "kinopoisk": null,
  "kinopoisk_id": "1264789",
  "world_art": null,
  "world_art_id": null,
  "time": "22 мин",
  "ads": true,
  "premier": "2019-09-15",
  "premier_rus": "2019-09-16",
  "availability": "2019-09-17",
  "serial_status": "online",
  "activate_time": "2020-05-17 15:49:00",
  "budget": "",
  "fees_use": "",
  "fees_world": "",
  "fees_rus": "",
  "rate_mpaa": "",
  "description": "Двенадцатилетние однояйцевые близнецы Дрю и Кэл узнают, что правительство тайно отслеживает и манипулирует молодежью Австралии с помощью электронных устройств слежения.",
  "iframe_url": "",
  "poster": "https://img.imgilall.me/movies/franchise/1/8/8/4/0/0/0/0/0/0/610x900_18840.jpg",
  "country": {
    "4": "Австралия"
  },
  "collection": {
    "79": "Про детей",
    "43": "Про подростков"
  },
  "genre": {
    "11": "Фантастика",
    "33": "Семейный",
    "13": "Триллер",
    "10": "Зарубежный"
  },
  "director": [
    "Риз Грэхэм",
    "Lucy Gaffy",
    "Николас Версо"
  ],
  "screenwriter": [
    "Джейн Аллен",
    "Tristram Baumber",
    "Николас Браун"
  ],
  "producer": [
    "Annalisa Brown",
    "Энджи Филдер",
    "Justine Flynn"
  ],
  "operator": [
    "Анна Ховард"
  ],
  "composer": [
    "Diego Baldenweg",
    "Lionel Baldenweg",
    "Nora Baldenweg"
  ],
  "design": [
    "Алекс Холмс",
    "Элис Лэнаган",
    "Джоэнна Мэй Парк"
  ],
  "editor": [
    "Мат Эванс",
    "Аннабелль Джонсон",
    "Катрина Баркер"
  ],
  "actors": [
    "Vrund Rao",
    "Ved Rao",
    "Abigail Adriano",
    "Миа Мэдден",
    "Jean Hinchliffe",
    "Nya Cofie",
    "Saba Zaidi Abdi",
    "Avishma Lohith",
    "Аннабель Вольф",
    "Николас Браун"
  ],
  "actors_dubl": [],
  "trivia": [],
  "trailers": [],
  "seasons": [
    {
      "poster": null,
      "release_ru": "2019-09-16",
      "release_world": "2019-09-15",
      "availability": "2019-09-17",
      "iframe_url": "",
      "season": 1,
      "episodes": [
        {
          "episode": 1,
          "name": null,
          "iframe_url": "",
          "iframe_poster": null,
          "release_ru": "2019-09-16",
          "release_world": "2019-09-15",
          "availability": "2019-09-17",
          "voiceActing": [
            "Octopus"
          ],
          "ads": true,
          "subtitle": []
        },
        {
          "episode": 2,
          "name": null,
          "iframe_url": "",
          "iframe_poster": null,
          "release_ru": "2019-09-16",
          "release_world": "2019-09-15",
          "availability": "2019-09-17",
          "voiceActing": [
            "Octopus"
          ],
          "ads": true,
          "subtitle": []
        },
        {
          "episode": 3,
          "name": null,
          "iframe_url": "",
          "iframe_poster": null,
          "release_ru": "2019-09-17",
          "release_world": "2019-09-16",
          "availability": "2019-09-18",
          "voiceActing": [
            "Octopus"
          ],
          "ads": true,
          "subtitle": []
        },
        {
          "episode": 4,
          "name": null,
          "iframe_url": "",
          "iframe_poster": null,
          "release_ru": "2019-09-18",
          "release_world": "2019-09-17",
          "availability": "2019-09-19",
          "voiceActing": [
            "Octopus"
          ],
          "ads": true,
          "subtitle": []
        },
        {
          "episode": 5,
          "name": null,
          "iframe_url": "",
          "iframe_poster": null,
          "release_ru": "2019-09-19",
          "release_world": "2019-09-18",
          "availability": "2019-09-20",
          "voiceActing": [
            "Octopus"
          ],
          "ads": true,
          "subtitle": []
        },
        {
          "episode": 6,
          "name": null,
          "iframe_url": "",
          "iframe_poster": null,
          "release_ru": "2019-09-20",
          "release_world": "2019-09-19",
          "availability": "2019-09-21",
          "voiceActing": [
            "Octopus"
          ],
          "ads": true,
          "subtitle": []
        },
        {
          "episode": 7,
          "name": null,
          "iframe_url": "",
          "iframe_poster": null,
          "release_ru": "2019-09-21",
          "release_world": "2019-09-20",
          "availability": "2019-09-22",
          "voiceActing": [
            "Octopus"
          ],
          "ads": true,
          "subtitle": []
        },
        {
          "episode": 8,
          "name": null,
          "iframe_url": "",
          "iframe_poster": null,
          "release_ru": "2019-09-22",
          "release_world": "2019-09-21",
          "availability": "2019-09-23",
          "voiceActing": [
            "Octopus"
          ],
          "ads": true,
          "subtitle": []
        },
        {
          "episode": 9,
          "name": null,
          "iframe_url": "",
          "iframe_poster": null,
          "release_ru": "2019-09-23",
          "release_world": "2019-09-22",
          "availability": "2019-09-24",
          "voiceActing": [
            "Octopus"
          ],
          "ads": true,
          "subtitle": []
        },
        {
          "episode": 10,
          "name": null,
          "iframe_url": "",
          "iframe_poster": null,
          "release_ru": "2019-09-24",
          "release_world": "2019-09-23",
          "availability": "2019-09-25",
          "voiceActing": [
            "Octopus"
          ],
          "ads": true,
          "subtitle": []
        },
        {
          "episode": 11,
          "name": null,
          "iframe_url": "",
          "iframe_poster": null,
          "release_ru": "2019-09-25",
          "release_world": "2019-09-24",
          "availability": "2019-09-26",
          "voiceActing": [
            "Octopus"
          ],
          "ads": true,
          "subtitle": []
        },
        {
          "episode": 12,
          "name": null,
          "iframe_url": "",
          "iframe_poster": null,
          "release_ru": "2019-09-26",
          "release_world": "2019-09-25",
          "availability": "2019-09-27",
          "voiceActing": [
            "Octopus"
          ],
          "ads": true,
          "subtitle": []
        },
        {
          "episode": 13,
          "name": null,
          "iframe_url": "",
          "iframe_poster": null,
          "release_ru": "2019-09-27",
          "release_world": "2019-09-26",
          "availability": "2019-09-28",
          "voiceActing": [
            "Octopus"
          ],
          "ads": true,
          "subtitle": []
        },
        {
          "episode": 14,
          "name": null,
          "iframe_url": "",
          "iframe_poster": null,
          "release_ru": "2019-09-28",
          "release_world": "2019-09-27",
          "availability": "2019-09-29",
          "voiceActing": [
            "Octopus"
          ],
          "ads": true,
          "subtitle": []
        },
        {
          "episode": 15,
          "name": null,
          "iframe_url": "",
          "iframe_poster": null,
          "release_ru": "2019-09-29",
          "release_world": "2019-09-28",
          "availability": "2019-09-30",
          "voiceActing": [
            "Octopus"
          ],
          "ads": true,
          "subtitle": []
        }
      ]
    }
  ],
  "voiceActing": [
    "Octopus"
  ],
  "subtitle": [],
  "parts": []
}
