{
  "id": 43696,
  "name": "Озорные хранители кухни",
  "name_eng": "Táo Quây",
  "year": 2019,
  "slogan": "—",
  "age": null,
  "type": "film",
  "quality": "HD (720p)",
  "imdb": null,
  "imdb_id": "10081086",
  "kinopoisk": null,
  "kinopoisk_id": "1259028",
  "world_art": null,
  "world_art_id": null,
  "time": "102 мин. / 01:42",
  "ads": true,
  "premier": "2019-01-30",
  "premier_rus": "2019-01-31",
  "availability": "2019-02-01",
  "activate_time": "2021-01-19 11:56:00",
  "budget": null,
  "fees_use": null,
  "fees_world": null,
  "fees_rus": null,
  "rate_mpaa": null,
  "description": null,
  "iframe_url": "",
  "iframe_poster": null,
  "poster": "https://img.imgilall.me/movies/franchise/4/3/6/9/6/0/0/0/0/0/610x900_43696.jpg",
  "country": {
    "78": "Вьетнам"
  },
  "collection": [],
  "genre": {
    "9": "Приключения",
    "6": "Фэнтези",
    "19": "Комедия"
  },
  "director": [
    "Toan Joshua Nguyen",
    "Tram Dinh Song"
  ],
  "screenwriter": [
    "Kay Nguyen"
  ],
  "producer": [],
  "operator": [],
  "composer": [
    "Khac Linh Duong"
  ],
  "design": [],
  "editor": [],
  "actors": [
    "Hua Minh Dat",
    "Pom",
    "Nhi Katy",
    "Ван Чанг",
    "Chanh Tin Nguyen",
    "Пхук Хоанг",
    "Lê Bình",
    "Nguyen Trung Dan",
    "Дунг Фонг"
  ],
  "actors_dubl": [],
  "trivia": [],
  "trailers": [],
  "seasons": [],
  "voiceActing": [
    "Рус. Люб. многоголосый"
  ],
  "subtitle": [],
  "parts": []
}
