{
  "id": 20973,
  "name": "Цена верности",
  "name_eng": "Le prix de la loyauté",
  "year": 2019,
  "slogan": "—",
  "age": null,
  "type": "film",
  "quality": "HD (720p)",
  "imdb": "5.8",
  "imdb_id": "9351226",
  "kinopoisk": null,
  "kinopoisk_id": "1225477",
  "world_art": null,
  "world_art_id": null,
  "time": "90 мин. / 01:30",
  "ads": true,
  "premier": "2019-04-26",
  "premier_rus": "2019-04-27",
  "availability": "2019-04-28",
  "activate_time": "2020-05-31 23:35:00",
  "budget": "",
  "fees_use": "",
  "fees_world": "",
  "fees_rus": "",
  "rate_mpaa": "",
  "description": "Капитан Поль Дансени приезжает в поместье известного пластического хирурга Габриэля Фабиана и находит того лежащим на лужайке. Приподняв голову хозяина дома, полисмен обнаруживает на руке кровь, в это же мгновение во двор врывается наряд и арестовывает склоненного над трупом Поля.",
  "iframe_url": "",
  "iframe_poster": null,
  "poster": "https://img.imgilall.me/movies/franchise/2/0/9/7/3/0/0/0/0/0/610x900_20973.jpg",
  "country": {
    "9": "Франция"
  },
  "collection": {
    "62": "Про полицию"
  },
  "genre": {
    "25": "Криминал",
    "24": "Детектив",
    "13": "Триллер",
    "7": "Драма"
  },
  "director": [
    "Grégory Écale"
  ],
  "screenwriter": [
    "Лорен Монди"
  ],
  "producer": [
    "Ричард Берковитц",
    "Анна Ледюк",
    "Кристоф Луис"
  ],
  "operator": [
    "Оливье Гаргир"
  ],
  "composer": [
    "Фабьен Натаф"
  ],
  "design": [],
  "editor": [
    "Венсан Тризолини"
  ],
  "actors": [
    "Мими Мати",
    "Матьё Делярев",
    "Жером Анже",
    "Ивон Бак",
    "Гаэлль Мари",
    "Летиция Фуркад",
    "Софи Стауб",
    "Гаэль Гиллис",
    "Александра Меркурофф",
    "Мари Пито"
  ],
  "actors_dubl": [],
  "trivia": [],
  "trailers": [],
  "seasons": [],
  "voiceActing": [
    "Рус. Люб. многоголосый"
  ],
  "subtitle": [],
  "parts": []
}
