{
  "id": 45338,
  "name": "Мы будем юными и прекрасными",
  "name_eng": "Saremo giovani e bellissimi",
  "year": 2018,
  "slogan": "—",
  "age": "16+",
  "type": "film",
  "quality": "HD (720p)",
  "imdb": "6.2",
  "imdb_id": "8930424",
  "kinopoisk": null,
  "kinopoisk_id": "1200253",
  "world_art": null,
  "world_art_id": null,
  "time": "92 мин. / 01:32",
  "ads": true,
  "premier": "2018-09-01",
  "premier_rus": "2018-09-02",
  "availability": "2018-09-03",
  "activate_time": "2021-03-29 19:39:00",
  "budget": null,
  "fees_use": null,
  "fees_world": null,
  "fees_rus": null,
  "rate_mpaa": null,
  "description": "Изабелла – бывшая поп-звезда начала девяностых, Бруно – гитарист, сопровождающий её в турне. Они настоящие друзья и партнёры по сцене, но не только: мать и сын, связанные всепроникающими неразрывными узами, словно бы извечно заточённые в золотую клетку. Но приходит пора, когда клетка становится слишком тесной…",
  "iframe_url": "",
  "iframe_poster": null,
  "poster": "https://img.imgilall.me/movies/franchise/4/5/3/3/8/0/0/0/0/0/610x900_45338.jpg",
  "country": {
    "8": "Италия"
  },
  "collection": [],
  "genre": {
    "7": "Драма"
  },
  "director": [
    "Летиция Ламартире"
  ],
  "screenwriter": [
    "Летиция Ламартире",
    "Лиза Нур Султан",
    "Анна Цагалья"
  ],
  "producer": [
    "Элизабетта Брусколини",
    "Симона Бачини",
    "Элио Кеккин"
  ],
  "operator": [
    "Джузеппе Кесса"
  ],
  "composer": [
    "Маттео Будзанка"
  ],
  "design": [
    "Лаура Инглезе",
    "Фьордилиджи Фокарди"
  ],
  "editor": [
    "Фабрицио Франзини"
  ],
  "actors": [
    "Барбора Бобулова",
    "Алессандро Пьявани",
    "Массимилиано Галло",
    "Федерика Сабатини",
    "Элизабетта Де Вито",
    "Чиро Скалера",
    "Паола Кальяри",
    "Виктория Сильвестро",
    "Tiziana Viano",
    "Габриэле Стелла"
  ],
  "actors_dubl": [],
  "trivia": [],
  "trailers": [],
  "seasons": [],
  "voiceActing": [
    "Рус. Люб. многоголосый"
  ],
  "subtitle": [],
  "parts": []
}
