{
  "id": 11300,
  "name": "Опавшие листья",
  "name_eng": "",
  "year": 2018,
  "slogan": "—",
  "age": "12+",
  "type": "series",
  "quality": "HD (720p)",
  "imdb": null,
  "imdb_id": null,
  "kinopoisk": "5.6",
  "kinopoisk_id": "1206357",
  "world_art": null,
  "world_art_id": null,
  "time": "—",
  "ads": false,
  "premier": null,
  "premier_rus": "2018-11-11",
  "availability": "2018-11-12",
  "serial_status": "offline",
  "activate_time": "2019-10-01 12:07:00",
  "budget": null,
  "fees_use": null,
  "fees_world": null,
  "fees_rus": null,
  "rate_mpaa": null,
  "description": "Оксану еще маленькой бросила мать, девочка оказалась в детдоме. Ее единственным другом там стал такой же детдомовский мальчик Петя. Всю жизнь Петя защищал и оберегал Оксану и теперь, когда они выросли, ему кажется, что они будут вместе всегда. Но Оксана считает Петю лишь другом. Она влюбляется в Сашу, парня из хорошей семьи. Саша красиво за ней ухаживает, и Оксана искренне верит, что это и есть любовь на всю жизнь. Любовь Саши оказывается мимолетной, но Оксана понимает это слишком поздно…",
  "iframe_url": "",
  "poster": "https://img.imgilall.me/movies/franchise/1/1/3/0/0/0/0/0/0/0/610x900_11300.jpg",
  "country": {
    "5": "Россия"
  },
  "collection": [],
  "genre": {
    "22": "Русский",
    "8": "Мелодрама",
    "7": "Драма"
  },
  "director": [
    "Глеб Якубовский"
  ],
  "screenwriter": [],
  "producer": [],
  "operator": [],
  "composer": [],
  "design": [],
  "editor": [],
  "actors": [
    "Анастасия Дубровина",
    "Денис Нурулин",
    "Дмитрий Егоров",
    "Ксения Кузнецова",
    "Лариса Маршалова",
    "Светлана Никифорова",
    "Марта Голубева",
    "Дмитрий Тумас"
  ],
  "actors_dubl": [],
  "trivia": [],
  "trailers": [],
  "seasons": [
    {
      "poster": null,
      "release_ru": null,
      "release_world": null,
      "availability": null,
      "iframe_url": "",
      "season": 1,
      "episodes": [
        {
          "episode": 1,
          "name": null,
          "iframe_url": "",
          "iframe_poster": "https://img.imgilall.me/movies/video/1/1/7/1/5/4/0/0/0/0/800x450_117154.jpeg",
          "release_ru": null,
          "release_world": null,
          "availability": null,
          "voiceActing": [
            "Рус. Оригинальный"
          ],
          "ads": false,
          "subtitle": []
        },
        {
          "episode": 2,
          "name": null,
          "iframe_url": "",
          "iframe_poster": "https://img.imgilall.me/movies/video/1/1/7/1/5/5/0/0/0/0/800x450_117155.jpeg",
          "release_ru": null,
          "release_world": null,
          "availability": null,
          "voiceActing": [
            "Рус. Оригинальный"
          ],
          "ads": false,
          "subtitle": []
        }
      ]
    }
  ],
  "voiceActing": [
    "Рус. Оригинальный"
  ],
  "subtitle": [],
  "parts": []
}
