{
  "id": 44286,
  "name": "Громовые стрелы / Юные сердца",
  "name_eng": "Thunderbolt in Mine Eye",
  "year": 2020,
  "slogan": "—",
  "age": null,
  "type": "film",
  "quality": "HD (720p)",
  "imdb": "5.3",
  "imdb_id": "9170758",
  "kinopoisk": null,
  "kinopoisk_id": "1209651",
  "world_art": null,
  "world_art_id": null,
  "time": "81 мин. / 01:21",
  "ads": true,
  "premier": "2020-01-24",
  "premier_rus": "2020-01-25",
  "availability": "2020-01-26",
  "activate_time": "2021-02-14 20:47:00",
  "budget": null,
  "fees_use": null,
  "fees_world": null,
  "fees_rus": null,
  "rate_mpaa": null,
  "description": "В старшей школе Харпер начинает встречаться с Тилли, лучшим другом своего брата. Переспав с ним, Харпер приходится нелегко, ведь после этого все начали считать её ветреной, а Тилли – крутым.",
  "iframe_url": "",
  "iframe_poster": null,
  "poster": "https://img.imgilall.me/movies/franchise/4/4/2/8/6/0/0/0/0/0/610x900_44286.jpg",
  "country": {
    "1": "США"
  },
  "collection": [],
  "genre": {
    "8": "Мелодрама",
    "7": "Драма"
  },
  "director": [
    "Сара Шерман",
    "Захари Рэй Шерман"
  ],
  "screenwriter": [
    "Сара Шерман"
  ],
  "producer": [
    "Maddie Buis",
    "Bobby Campbell",
    "Mark Case"
  ],
  "operator": [
    "Мартим Виан"
  ],
  "composer": [],
  "design": [
    "Molly Wilson",
    "Paris Fox",
    "Krista Marten"
  ],
  "editor": [
    "Джон-Майл Пауэлл"
  ],
  "actors": [
    "Анджини Танеджа Азар",
    "Куинн Либлинг",
    "Alex Jarmon",
    "Ayla Carda",
    "Embry Johnson",
    "Эрик Рейд",
    "Шаронли МакЛин",
    "Tanner Orcutt",
    "Kelly Grace Richardson",
    "Sydney Michelle Groves"
  ],
  "actors_dubl": [],
  "trivia": [],
  "trailers": [],
  "seasons": [],
  "voiceActing": [
    "Рус. Люб. многоголосый"
  ],
  "subtitle": [],
  "parts": []
}
