{
  "id": 46504,
  "name": "Уйти не прощаясь",
  "name_eng": "French Exit",
  "year": 2020,
  "slogan": "—",
  "age": null,
  "type": "film",
  "quality": "FHD (1080p)",
  "imdb": "6.0",
  "imdb_id": "10279362",
  "kinopoisk": "6.2",
  "kinopoisk_id": "1281194",
  "world_art": null,
  "world_art_id": null,
  "time": "113 мин. / 01:53",
  "ads": false,
  "premier": "2020-10-10",
  "premier_rus": "2020-10-11",
  "availability": "2020-10-12",
  "activate_time": "2021-05-12 11:39:00",
  "budget": null,
  "fees_use": "$741 895",
  "fees_world": "+ $814 868 = $1 556 763",
  "fees_rus": null,
  "rate_mpaa": "R",
  "description": "План 60-летней светской львицы Фрэнсис Прайс умереть, пока не кончились деньги, не сработал. Муж скончался 20 лет назад, и некогда огромное наследство почти полностью истрачено. На последние деньги она перебирается в Париж, чтобы провести остаток жизни в скромной квартирке вдали от внимания. Компанию ей составляют сын Малкольм и воплощение покойного супруга — кот Маленький Фрэнк.",
  "iframe_url": "",
  "iframe_poster": null,
  "poster": "https://img.imgilall.me/movies/franchise/4/6/5/0/4/0/0/0/0/0/610x900_46504.jpg",
  "country": {
    "7": "Канада",
    "1": "США",
    "2": "Великобритания",
    "21": "Ирландия"
  },
  "collection": [],
  "genre": {
    "19": "Комедия",
    "7": "Драма"
  },
  "director": [
    "Азазель Джейкобс"
  ],
  "screenwriter": [
    "Патрик Девитт"
  ],
  "producer": [
    "Мэтт Аселтон",
    "Ian Cooper",
    "Норман Денвер"
  ],
  "operator": [
    "Тобиас Датум"
  ],
  "composer": [
    "Nicholas deWitt"
  ],
  "design": [
    "Жан-Андре Каррьер",
    "Джейн Петри",
    "Мэнон Лемэй"
  ],
  "editor": [
    "Hilda Rasula"
  ],
  "actors": [
    "Мишель Пфайффер",
    "Лукас Хеджес",
    "Трэйси Леттс",
    "Валери Махаффей",
    "Сьюзэн Койн",
    "Имоджен Путс",
    "Даниэль Макдональд",
    "Исаак Де Банколе",
    "Дэниэл ДиТомассо",
    "Eddie Holland"
  ],
  "actors_dubl": [],
  "trivia": [],
  "trailers": [],
  "seasons": [],
  "voiceActing": [
    "Рус. Проф. многоголосый",
    "Eng.Original"
  ],
  "subtitle": [
    "Рус. форсированные"
  ],
  "parts": []
}
