{
  "id": 15163,
  "name": "Антебеллум",
  "name_eng": "Antebellum",
  "year": 2020,
  "slogan": "«Оно тебя выбрало, тебя уже не спасти»",
  "age": "12+",
  "type": "film",
  "quality": "FHD (1080p)",
  "imdb": "5.7",
  "imdb_id": "10065694",
  "kinopoisk": "5.8",
  "kinopoisk_id": "1261952",
  "world_art": null,
  "world_art_id": null,
  "time": "105 мин. / 01:45",
  "ads": false,
  "premier": "2020-04-23",
  "premier_rus": "2020-04-30",
  "availability": "2020-05-01",
  "activate_time": "2020-02-04 10:32:00",
  "budget": null,
  "fees_use": null,
  "fees_world": "$7 060 384",
  "fees_rus": "$296 132",
  "rate_mpaa": "R",
  "description": "Известная писательница, активистка и борец за права чёрных женщин Вероника Хенли оказывается в ужасающей реальности. Теперь она - бесправная рабыня на южной плантации, и в компании таких же бедолаг вынуждена ежедневно собирать хлопок и беспрекословно терпеть издевательства белых надсмотрщиков. Выбраться из этого ада не так-то просто, а всех пойманных беглецов ждёт жестокая кара.",
  "iframe_url": "",
  "iframe_poster": null,
  "poster": "https://img.imgilall.me/movies/franchise/1/5/1/6/3/0/0/0/0/0/610x900_15163.jpg",
  "country": {
    "1": "США"
  },
  "collection": [],
  "genre": {
    "11": "Фантастика",
    "7": "Драма"
  },
  "director": [
    "Джерард Буш",
    "Кристофер Ренц"
  ],
  "screenwriter": [
    "Джерард Буш",
    "Кристофер Ренц"
  ],
  "producer": [
    "Джерард Буш",
    "Зев Формен",
    "Уилл Гринфилд"
  ],
  "operator": [
    "Педро Луке"
  ],
  "composer": [
    "Роман ДжанАртур Ирвин",
    "Нэйт Уандер"
  ],
  "design": [
    "Джереми Вудворд",
    "Мишель С. Хэрмон",
    "Мэри Зофрис"
  ],
  "editor": [
    "Джон Экселрэд"
  ],
  "actors": [
    "Жанель Моне",
    "Марке Ричардсон II",
    "Эрик Ланж",
    "Джек Хьюстон",
    "Кирси Клемонс",
    "Тонгай Арнольд Чириса",
    "Габури Сидибе",
    "Роберт Арамайо",
    "Джена Мэлоун",
    "Лили Коулес"
  ],
  "actors_dubl": [
    "Варвара Чабан",
    "Антон Эльдаров",
    "Денис Некрасов",
    "Андрей Вальц",
    "Ева Финкельштейн"
  ],
  "trivia": [
    "Название фильма можно перевести как «До гражданской войны»."
  ],
  "trailers": [
    {
      "name": "трейлер №1",
      "number": 1,
      "iframe_poster": null,
      "season": null,
      "iframe_url": ""
    }
  ],
  "seasons": [],
  "voiceActing": [
    "Рус. Дублированный",
    "Eng.Original"
  ],
  "subtitle": [
    "Eng. full"
  ],
  "parts": []
}
