{
  "id": 15392,
  "name": "Неверленд",
  "name_eng": "Nevrland",
  "year": 2019,
  "slogan": "«What are you afraid of?»",
  "age": null,
  "type": "film",
  "quality": "HD (720p)",
  "imdb": "5.5",
  "imdb_id": "8974586",
  "kinopoisk": null,
  "kinopoisk_id": "1219890",
  "world_art": null,
  "world_art_id": null,
  "time": "88 мин. / 01:28",
  "ads": true,
  "premier": "2019-01-16",
  "premier_rus": null,
  "availability": "2019-01-17",
  "activate_time": "2020-02-17 16:17:00",
  "budget": "",
  "fees_use": "",
  "fees_world": "",
  "fees_rus": "",
  "rate_mpaa": "",
  "description": "17-летний парень борется с тревожностью, которая портит ему жизнь, и завязывает виртуальную дружбу с 26-летним художником. Когда они наконец встречаются, происходят крайне неожиданные события.",
  "iframe_url": "",
  "iframe_poster": null,
  "poster": "https://img.imgilall.me/movies/franchise/1/5/3/9/2/0/0/0/0/0/610x900_15392.jpg",
  "country": {
    "49": "Австрия"
  },
  "collection": {
    "29": "Психологические"
  },
  "genre": {
    "26": "Ужасы",
    "24": "Детектив",
    "7": "Драма"
  },
  "director": [
    "Грегор Шмидингер"
  ],
  "screenwriter": [
    "Грегор Шмидингер"
  ],
  "producer": [
    "Ulrich Gehmacher",
    "Саймон Баумгартнер",
    "Ули Мюллер-Ури"
  ],
  "operator": [
    "Джо Молиторис"
  ],
  "composer": [
    "Gerald Vdh"
  ],
  "design": [
    "Конрад Рейнхард",
    "Анна Зайдль",
    "Кристин Людвиг"
  ],
  "editor": [
    "Герд Бернер"
  ],
  "actors": [
    "Симон Фрювирт",
    "Paul Forman",
    "Йозеф Хадер",
    "Вольфганг Хюбш",
    "Антон Нури",
    "Маркус Шляйнцер",
    "Nico Greinecker",
    "Max Meyr",
    "Peter Machacek",
    "Карл Ахляйтнер"
  ],
  "actors_dubl": [],
  "trivia": [],
  "trailers": [],
  "seasons": [],
  "voiceActing": [
    "Рус. Люб. многоголосый"
  ],
  "subtitle": [],
  "parts": []
}
