{
  "id": 19755,
  "name": "Ромком",
  "name_eng": "Romantic Comedy",
  "year": 2019,
  "slogan": "«Musician/writer Elizabeth Sankey dives into the past, present and future of romantic comedies, with the hilarious and thoughtful assistance from a chorus of writers, actors and filmmakers»",
  "age": null,
  "type": "film",
  "quality": "HD (720p)",
  "imdb": "5.9",
  "imdb_id": "9583526",
  "kinopoisk": null,
  "kinopoisk_id": "1260304",
  "world_art": null,
  "world_art_id": null,
  "time": "78 мин. / 01:18",
  "ads": true,
  "premier": "2019-01-25",
  "premier_rus": "2019-01-26",
  "availability": "2019-01-27",
  "activate_time": "2020-05-25 11:25:00",
  "budget": null,
  "fees_use": null,
  "fees_world": null,
  "fees_rus": null,
  "rate_mpaa": null,
  "description": "В центре сюжета женские образы, ролевые модели и стереотипы, на которых выросло несколько поколений. На примерах десятков классических лент, от «Красотки» до комедий Джадда Апатоу, фильм критикует правила ромкомов и раскрывает их главные ловушки. Выясняется, что обожаемые с детства фильмы, будь то «Когда Гарри встретил Салли» или «Бриджет Джонс», вложили в нас мифы о любви до гроба и браке как единственном сценарии счастливых отношений, а взаимные манипуляции, отсутствие личных границ и неискренность подаются в них как непременные условия игры.",
  "iframe_url": "",
  "iframe_poster": null,
  "poster": "https://img.imgilall.me/movies/franchise/1/9/7/5/5/0/0/0/0/0/610x900_19755.jpg",
  "country": {
    "2": "Великобритания"
  },
  "collection": {
    "39": "На реальных событиях"
  },
  "genre": {
    "54": "Документальный",
    "19": "Комедия",
    "10": "Зарубежный",
    "8": "Мелодрама"
  },
  "director": [
    "Элизабет Сэнки"
  ],
  "screenwriter": [
    "Элизабет Сэнки"
  ],
  "producer": [
    "Оскар Пимлотт",
    "Кьяра Вентура",
    "Джереми Уормсли"
  ],
  "operator": [],
  "composer": [
    "Джереми Уормсли"
  ],
  "design": [],
  "editor": [
    "Элизабет Сэнки"
  ],
  "actors": [
    "Джессика Барден",
    "Камерон Кук",
    "Энн Т. Донахью",
    "Симран Ханс",
    "Броди Ланкастер",
    "Чарли Лайн",
    "Eleanor McDowall",
    "Laura Snapes"
  ],
  "actors_dubl": [],
  "trivia": [],
  "trailers": [],
  "seasons": [],
  "voiceActing": [
    "Рус. Люб. многоголосый"
  ],
  "subtitle": [],
  "parts": []
}
