{
  "id": 7488,
  "name": "Как продавать наркотики онлайн (быстро)",
  "name_eng": "How To Sell Drugs Online (Fast)",
  "year": 2019,
  "slogan": "«Nerd today, boss tomorrow»",
  "age": "16+",
  "type": "series",
  "quality": "FHD (1080p)",
  "imdb": "7.9",
  "imdb_id": "9184994",
  "kinopoisk": "7.4",
  "kinopoisk_id": "1246988",
  "world_art": null,
  "world_art_id": null,
  "time": "30 мин",
  "ads": false,
  "premier": "2019-05-31",
  "premier_rus": "2019-06-01",
  "availability": "2019-06-02",
  "serial_status": "paused",
  "activate_time": "2019-04-08 16:57:27",
  "budget": null,
  "fees_use": null,
  "fees_world": null,
  "fees_rus": null,
  "rate_mpaa": null,
  "description": "Мориц расстроен: его девушка ушла к школьному драгдилеру. Единственный способ ее вернуть — стать лучше конкурента. Вместе с другом Ленни парень разворачивает наркорынок невероятных масштабов — вот на что сподвигает любовь!",
  "iframe_url": "",
  "poster": "https://img.imgilall.me/movies/franchise/7/4/8/8/0/0/0/0/0/0/610x900_7488.jpg",
  "country": {
    "20": "Германия"
  },
  "collection": {
    "57": "Про мафию, банды",
    "19": "Про ограбления, аферы и мошенников"
  },
  "genre": {
    "25": "Криминал",
    "19": "Комедия",
    "10": "Зарубежный",
    "7": "Драма"
  },
  "director": [
    "Арни Фельдхузен",
    "Ларс Монтаг",
    "Mia Spengler"
  ],
  "screenwriter": [
    "Филипп Кассбёрер",
    "Маттиас Мурманн",
    "Себастьян Колли"
  ],
  "producer": [
    "Филипп Кассбёрер",
    "Маттиас Мурманн",
    "Стефан Титце"
  ],
  "operator": [
    "Армин Френцен",
    "Кристиан Лешнер",
    "Йоши Хеймрат"
  ],
  "composer": [
    "Константин Гроппер",
    "Ziggy Has Ardeur"
  ],
  "design": [
    "Тересия Анна Фикус",
    "Miriam van der Ham"
  ],
  "editor": [
    "Райнер Нигрелли",
    "Christoph Cepok",
    "David Wieching"
  ],
  "actors": [
    "Максимилиан Мундт",
    "Danilo Kamperidis",
    "Лена Кленке",
    "Дамиан Хардунг",
    "Леони Веселов",
    "Роланд Рибелинг",
    "Jolina Amely Trinks",
    "Луна Баптисте Шаллер",
    "Лена Урцендовски",
    "Рубен Бринкман"
  ],
  "actors_dubl": [],
  "trivia": [],
  "trailers": [
    {
      "name": "трейлер №1",
      "number": 1,
      "iframe_poster": "https://img.imgilall.me/movies/trailer/6/0/0/0/0/0/0/0/0/0/800x450_600.jpeg",
      "season": 1,
      "iframe_url": ""
    },
    {
      "name": "трейлер №1",
      "number": 1,
      "iframe_poster": null,
      "season": 2,
      "iframe_url": ""
    }
  ],
  "seasons": [
    {
      "poster": "https://img.imgilall.me/movies/season/5/1/0/2/0/0/0/0/0/0/610x900_5102.jpg",
      "release_ru": "2019-06-01",
      "release_world": "2019-05-31",
      "availability": "2019-06-02",
      "iframe_url": "",
      "season": 1,
      "episodes": [
        {
          "episode": 1,
          "name": "Nerd Today, Boss Tomorrow",
          "iframe_url": "",
          "iframe_poster": null,
          "release_ru": "2019-06-01",
          "release_world": "2019-05-31",
          "availability": "2019-06-02",
          "voiceActing": [
            "Рус. Проф. многоголосый",
            "German Original"
          ],
          "ads": false,
          "subtitle": [
            "Eng. forced"
          ]
        },
        {
          "episode": 2,
          "name": "Life's Not Fair, Get Used to It",
          "iframe_url": "",
          "iframe_poster": null,
          "release_ru": "2019-06-01",
          "release_world": "2019-05-31",
          "availability": "2019-06-02",
          "voiceActing": [
            "Рус. Проф. многоголосый",
            "German Original"
          ],
          "ads": false,
          "subtitle": [
            "Eng. forced"
          ]
        },
        {
          "episode": 3,
          "name": "Failure is Not an Option",
          "iframe_url": "",
          "iframe_poster": null,
          "release_ru": "2019-06-01",
          "release_world": "2019-05-31",
          "availability": "2019-06-02",
          "voiceActing": [
            "Рус. Проф. многоголосый",
            "German Original"
          ],
          "ads": false,
          "subtitle": [
            "Eng. forced"
          ]
        },
        {
          "episode": 4,
          "name": "If This is Reality, I'm Not Interested",
          "iframe_url": "",
          "iframe_poster": null,
          "release_ru": "2019-06-01",
          "release_world": "2019-05-31",
          "availability": "2019-06-02",
          "voiceActing": [
            "Рус. Проф. многоголосый",
            "German Original"
          ],
          "ads": false,
          "subtitle": [
            "Eng. forced"
          ]
        },
        {
          "episode": 5,
          "name": "Score Big or Don't Score at All",
          "iframe_url": "",
          "iframe_poster": null,
          "release_ru": "2019-06-01",
          "release_world": "2019-05-31",
          "availability": "2019-06-02",
          "voiceActing": [
            "Рус. Проф. многоголосый",
            "German Original"
          ],
          "ads": false,
          "subtitle": [
            "Eng. forced"
          ]
        },
        {
          "episode": 6,
          "name": "If You Are the Smartest One in the Room, You're in the Wrong Room",
          "iframe_url": "",
          "iframe_poster": null,
          "release_ru": "2019-06-01",
          "release_world": "2019-05-31",
          "availability": "2019-06-02",
          "voiceActing": [
            "Рус. Проф. многоголосый",
            "German Original"
          ],
          "ads": false,
          "subtitle": [
            "Eng. forced"
          ]
        }
      ]
    },
    {
      "poster": null,
      "release_ru": "2020-07-22",
      "release_world": "2020-07-21",
      "availability": "2020-07-23",
      "iframe_url": "",
      "season": 2,
      "episodes": [
        {
          "episode": 1,
          "name": "Think Different",
          "iframe_url": "",
          "iframe_poster": null,
          "release_ru": "2020-07-22",
          "release_world": "2020-07-21",
          "availability": "2020-07-23",
          "voiceActing": [
            "TVShows",
            "German Original"
          ],
          "ads": false,
          "subtitle": [
            "Eng. full"
          ]
        },
        {
          "episode": 2,
          "name": "Where Do You Want to Go Today?",
          "iframe_url": "",
          "iframe_poster": null,
          "release_ru": "2020-07-22",
          "release_world": "2020-07-21",
          "availability": "2020-07-23",
          "voiceActing": [
            "TVShows",
            "German Original"
          ],
          "ads": false,
          "subtitle": [
            "Eng. full"
          ]
        },
        {
          "episode": 3,
          "name": "Inspired by Real Life",
          "iframe_url": "",
          "iframe_poster": null,
          "release_ru": "2020-07-22",
          "release_world": "2020-07-21",
          "availability": "2020-07-23",
          "voiceActing": [
            "TVShows",
            "German Original"
          ],
          "ads": false,
          "subtitle": [
            "Eng. full"
          ]
        },
        {
          "episode": 4,
          "name": "Buy It. Sell It. Love It.",
          "iframe_url": "",
          "iframe_poster": null,
          "release_ru": "2020-07-22",
          "release_world": "2020-07-21",
          "availability": "2020-07-23",
          "voiceActing": [
            "TVShows",
            "German Original"
          ],
          "ads": false,
          "subtitle": [
            "Eng. full"
          ]
        },
        {
          "episode": 5,
          "name": "Move Fast and Break Things",
          "iframe_url": "",
          "iframe_poster": null,
          "release_ru": "2020-07-22",
          "release_world": "2020-07-21",
          "availability": "2020-07-23",
          "voiceActing": [
            "TVShows",
            "German Original"
          ],
          "ads": false,
          "subtitle": [
            "Eng. full"
          ]
        },
        {
          "episode": 6,
          "name": "Don't be evil.",
          "iframe_url": "",
          "iframe_poster": null,
          "release_ru": "2020-07-22",
          "release_world": "2020-07-21",
          "availability": "2020-07-23",
          "voiceActing": [
            "TVShows",
            "German Original"
          ],
          "ads": false,
          "subtitle": [
            "Eng. full"
          ]
        }
      ]
    },
    {
      "poster": null,
      "release_ru": "2021-07-28",
      "release_world": "2021-07-27",
      "availability": "2021-07-29",
      "iframe_url": "",
      "season": 3,
      "episodes": [
        {
          "episode": 1,
          "name": "A single failure, a little slip",
          "iframe_url": "",
          "iframe_poster": null,
          "release_ru": "2021-07-28",
          "release_world": "2021-07-27",
          "availability": "2021-07-29",
          "voiceActing": [
            "TVShows"
          ],
          "ads": false,
          "subtitle": []
        },
        {
          "episode": 2,
          "name": "A misdemeanor, a little trip",
          "iframe_url": "",
          "iframe_poster": null,
          "release_ru": "2021-07-28",
          "release_world": "2021-07-27",
          "availability": "2021-07-29",
          "voiceActing": [
            "TVShows"
          ],
          "ads": false,
          "subtitle": []
        },
        {
          "episode": 3,
          "name": "Does this condemn me, lock me away?",
          "iframe_url": "",
          "iframe_poster": null,
          "release_ru": "2021-07-28",
          "release_world": "2021-07-27",
          "availability": "2021-07-29",
          "voiceActing": [
            "TVShows"
          ],
          "ads": false,
          "subtitle": []
        },
        {
          "episode": 4,
          "name": "Before you turn the key, I have one more thing to say",
          "iframe_url": "",
          "iframe_poster": null,
          "release_ru": "2021-07-28",
          "release_world": "2021-07-27",
          "availability": "2021-07-29",
          "voiceActing": [
            "TVShows"
          ],
          "ads": false,
          "subtitle": []
        },
        {
          "episode": 5,
          "name": "To make amends, maybe be friends",
          "iframe_url": "",
          "iframe_poster": null,
          "release_ru": "2021-07-28",
          "release_world": "2021-07-27",
          "availability": "2021-07-29",
          "voiceActing": [
            "TVShows"
          ],
          "ads": false,
          "subtitle": []
        },
        {
          "episode": 6,
          "name": "Everybody gets a second chance",
          "iframe_url": "",
          "iframe_poster": null,
          "release_ru": "2021-07-28",
          "release_world": "2021-07-27",
          "availability": "2021-07-29",
          "voiceActing": [
            "TVShows"
          ],
          "ads": false,
          "subtitle": []
        }
      ]
    }
  ],
  "voiceActing": [
    "Рус. Проф. многоголосый",
    "German Original",
    "TVShows"
  ],
  "subtitle": [
    "Eng. forced",
    "Eng. full"
  ],
  "parts": []
}
