{
  "id": 16778,
  "name": "Горный минор",
  "name_eng": "The Mountain Minor",
  "year": 2019,
  "slogan": "«These old mountain tunes will bring you back home... they'll bring you home»",
  "age": null,
  "type": "film",
  "quality": "FHD (1080p)",
  "imdb": "6.7",
  "imdb_id": "10071352",
  "kinopoisk": null,
  "kinopoisk_id": "1294072",
  "world_art": null,
  "world_art_id": null,
  "time": "87 мин. / 01:27",
  "ads": true,
  "premier": "2019-10-17",
  "premier_rus": "2019-10-18",
  "availability": "2019-10-19",
  "activate_time": "2020-04-21 12:03:00",
  "budget": "",
  "fees_use": "",
  "fees_world": "",
  "fees_rus": "",
  "rate_mpaa": "",
  "description": "Чарли хочет уйти на пенсию и вернуться к себе на родину, к жизни и музыке, которые когда-то были для него всем. Но сначала ему нужно передать свое музыкальное наследие внукам.",
  "iframe_url": "",
  "iframe_poster": null,
  "poster": "https://img.imgilall.me/movies/franchise/1/6/7/7/8/0/0/0/0/0/610x900_16778.jpg",
  "country": {
    "1": "США"
  },
  "collection": [],
  "genre": {
    "10": "Зарубежный",
    "7": "Драма"
  },
  "director": [
    "Dale Farmer"
  ],
  "screenwriter": [
    "Dale Farmer"
  ],
  "producer": [
    "Susan Pepper",
    "Helen Barnes-Rielly",
    "Jonathan Bradshaw"
  ],
  "operator": [
    "Paul Halluch"
  ],
  "composer": [
    "Trevor McKenzie"
  ],
  "design": [
    "Betty Conway"
  ],
  "editor": [
    "Эйтан Абрамовитц",
    "Scott Young"
  ],
  "actors": [
    "Dan Gellert",
    "Ma Crow",
    "Asa Nelson",
    "Hazel Pasley",
    "Elizabeth Laprelle",
    "Jonathan Bradshaw",
    "Warren Waldron",
    "Amy Cogan Clay",
    "Judy Waldron",
    "Trevor McKenzie"
  ],
  "actors_dubl": [],
  "trivia": [],
  "trailers": [],
  "seasons": [],
  "voiceActing": [
    "Рус. Люб. многоголосый"
  ],
  "subtitle": [],
  "parts": []
}
