{
  "id": 22502,
  "name": "Конфетная ведьма",
  "name_eng": "The Candy Witch",
  "year": 2020,
  "slogan": "—",
  "age": null,
  "type": "film",
  "quality": "FHD (1080p)",
  "imdb": "3.7",
  "imdb_id": "10843814",
  "kinopoisk": null,
  "kinopoisk_id": "1296168",
  "world_art": null,
  "world_art_id": null,
  "time": "94 мин. / 01:34",
  "ads": true,
  "premier": "2020-06-08",
  "premier_rus": "2020-06-09",
  "availability": "2020-06-10",
  "activate_time": "2020-06-10 09:46:00",
  "budget": null,
  "fees_use": null,
  "fees_world": null,
  "fees_rus": null,
  "rate_mpaa": null,
  "description": "Семья просит помощи у двух охотников за приведениям, чтобы они помогли избавиться от злого призрака, которого местные зовут Конфетной ведьмой.",
  "iframe_url": "",
  "iframe_poster": null,
  "poster": "https://img.imgilall.me/movies/franchise/2/2/5/0/2/0/0/0/0/0/610x900_22502.jpg",
  "country": [],
  "collection": {
    "45": "Фильмы на Хэллоуин",
    "59": "Про ведьм"
  },
  "genre": {
    "26": "Ужасы",
    "10": "Зарубежный"
  },
  "director": [
    "Ребекка Мэтьюз"
  ],
  "screenwriter": [
    "Скотт Джеффри"
  ],
  "producer": [
    "Скотт Джеффри",
    "Ребекка Мэтьюз",
    "Джефф Миллер"
  ],
  "operator": [
    "Бен Коллин"
  ],
  "composer": [],
  "design": [
    "Молли Краггс"
  ],
  "editor": [
    "Ребекка Мэтьюз"
  ],
  "actors": [
    "Джон Коллауэй",
    "Эби Кассон Томпсон",
    "Кейт Луш",
    "Heather Jackson",
    "Ричард Д. Майерс",
    "Will Stanton",
    "Ханна Понтинг",
    "Jon-Scott Clarke",
    "Барбара Дэбсон",
    "Кейт Милнер Эванс"
  ],
  "actors_dubl": [],
  "trivia": [],
  "trailers": [],
  "seasons": [],
  "voiceActing": [
    "Рус. Люб. многоголосый"
  ],
  "subtitle": [],
  "parts": []
}
