{
  "id": 10557,
  "name": "Жара",
  "name_eng": "",
  "year": 2019,
  "slogan": "—",
  "age": "16+",
  "type": "film",
  "quality": "HD (720p)",
  "imdb": "5.4",
  "imdb_id": "10916452",
  "kinopoisk": "5.3",
  "kinopoisk_id": "1272297",
  "world_art": null,
  "world_art_id": null,
  "time": "100 мин. / 01:40",
  "ads": false,
  "premier": "2019-09-05",
  "premier_rus": "2019-09-05",
  "availability": null,
  "activate_time": "2019-08-22 17:53:00",
  "budget": null,
  "fees_use": null,
  "fees_world": "$364 775",
  "fees_rus": "$361 660",
  "rate_mpaa": null,
  "description": "Звезды российской эстрады летят в Баку на фестиваль «Жара». Среди них и Даша Стеклова, талантливая дебютантка, чья слава началась с победы в популярном музыкальном телешоу. Даша не хочет играть по правилам и жаждет творческой свободы. В Баку, поссорившись со своим продюсером (а по совместительству – молодым человеком), девушка сбегает. В сказочном городе, дышащем музыкой и солнцем, ее ждет множество приключений и романтических встреч, которые помогут Даше осуществить мечту и стать по-настоящему счастливой.",
  "iframe_url": "",
  "iframe_poster": "https://img.imgilall.me/movies/video/1/2/1/4/5/8/0/0/0/0/800x450_121458.jpeg",
  "poster": "https://img.imgilall.me/movies/franchise/1/0/5/5/7/0/0/0/0/0/610x900_10557.jpg",
  "country": {
    "5": "Россия"
  },
  "collection": [],
  "genre": {
    "22": "Русский",
    "19": "Комедия"
  },
  "director": [],
  "screenwriter": [
    "Дмитрий Литвиненко"
  ],
  "producer": [
    "Эмин Агаларов",
    "Теймур Джафаров"
  ],
  "operator": [
    "Василий Рыжов"
  ],
  "composer": [],
  "design": [
    "Максим Алипченко",
    "Наталья Каневская"
  ],
  "editor": [
    "Евгений Потапов"
  ],
  "actors": [
    "Диана Пожарская",
    "Наиль Абдрахманов",
    "Сергей Чирков",
    "Дмитрий Лысенков",
    "Николай Шрайбер",
    "Антон Лапенко",
    "Григорий Лепс",
    "Николай Басков",
    "Ани Лорак",
    "Валерия"
  ],
  "actors_dubl": [],
  "trivia": [],
  "trailers": [
    {
      "name": "трейлер №1",
      "number": 1,
      "iframe_poster": "https://img.imgilall.me/movies/trailer/7/5/7/0/0/0/0/0/0/0/800x450_757.jpeg",
      "season": null,
      "iframe_url": ""
    }
  ],
  "seasons": [],
  "voiceActing": [
    "Рус. Оригинальный"
  ],
  "subtitle": [],
  "parts": []
}
