{
  "id": 45616,
  "name": "Чокнутые",
  "name_eng": "Cranks",
  "year": 2019,
  "slogan": "—",
  "age": null,
  "type": "film",
  "quality": "HD (720p)",
  "imdb": "6.5",
  "imdb_id": "10262632",
  "kinopoisk": null,
  "kinopoisk_id": "1266883",
  "world_art": null,
  "world_art_id": null,
  "time": "95 мин. / 01:35",
  "ads": true,
  "premier": "2019-09-30",
  "premier_rus": "2019-10-01",
  "availability": "2019-10-02",
  "activate_time": "2021-04-11 12:40:00",
  "budget": null,
  "fees_use": null,
  "fees_world": null,
  "fees_rus": null,
  "rate_mpaa": null,
  "description": null,
  "iframe_url": "",
  "iframe_poster": null,
  "poster": "https://img.imgilall.me/movies/franchise/4/5/6/1/6/0/0/0/0/0/610x900_45616.jpg",
  "country": {
    "7": "Канада"
  },
  "collection": [],
  "genre": {
    "7": "Драма"
  },
  "director": [
    "Райан МакКенна"
  ],
  "screenwriter": [
    "Райан МакКенна"
  ],
  "producer": [
    "Бекка Блэквуд",
    "Райан МакКенна"
  ],
  "operator": [
    "Ryan Simmons"
  ],
  "composer": [],
  "design": [
    "Бекка Блэквуд",
    "Эвин Коллис"
  ],
  "editor": [
    "Райан МакКенна"
  ],
  "actors": [
    "Дарси Фер",
    "Терра Хейзелтон",
    "Келли Хирст",
    "Louis Negin",
    "Брэндон Оакес",
    "Тони Портиес",
    "Глория Томпсон",
    "Бахия Уотсон"
  ],
  "actors_dubl": [],
  "trivia": [],
  "trailers": [],
  "seasons": [],
  "voiceActing": [
    "Рус. Люб. многоголосый"
  ],
  "subtitle": [],
  "parts": []
}
