{
  "id": 25636,
  "name": "Рождественские желания и поцелуи под омелой",
  "name_eng": "Christmas Wishes and Mistletoe Kisses",
  "year": 2019,
  "slogan": "—",
  "age": null,
  "type": "film",
  "quality": "HD (720p)",
  "imdb": "6.6",
  "imdb_id": "10136898",
  "kinopoisk": null,
  "kinopoisk_id": "1255532",
  "world_art": null,
  "world_art_id": null,
  "time": "84 мин. / 01:24",
  "ads": false,
  "premier": "2019-10-26",
  "premier_rus": "2019-10-27",
  "availability": "2019-10-28",
  "activate_time": "2020-07-08 04:44:00",
  "budget": null,
  "fees_use": null,
  "fees_world": null,
  "fees_rus": null,
  "rate_mpaa": null,
  "description": "За несколько недель до рождества мать-одиночка Абби получает заказ: украсить поместье бизнесмена Ника.",
  "iframe_url": "",
  "iframe_poster": null,
  "poster": "https://img.imgilall.me/movies/franchise/2/5/6/3/6/0/0/0/0/0/610x900_25636.jpg",
  "country": {
    "1": "США"
  },
  "collection": [],
  "genre": {
    "8": "Мелодрама"
  },
  "director": [
    "Донн Дж. Виола"
  ],
  "screenwriter": [
    "Liz Sczudlo",
    "Дженни Хейл"
  ],
  "producer": [
    "Alex Kerr",
    "Кит Нил",
    "Рон Робинсон"
  ],
  "operator": [
    "Дэвид МакГрори"
  ],
  "composer": [
    "Лукас Кантор",
    "Ozzy Doniz"
  ],
  "design": [
    "Марисса Легизамон",
    "LeShae Ann Nash",
    "Лорен Когхлан"
  ],
  "editor": [
    "Крис Уитт"
  ],
  "actors": [
    "Джилл Вагнер",
    "Мэттью Дэвис",
    "Донна Миллс",
    "Брэндон Куинн",
    "Дэрби Хинтон",
    "Marquita Goings",
    "Чарльз Грин",
    "Уайатт Хант",
    "Рэйчел Хендрикс",
    "Кеннет Израэль"
  ],
  "actors_dubl": [],
  "trivia": [],
  "trailers": [],
  "seasons": [],
  "voiceActing": [
    "Рус. Люб. многоголосый"
  ],
  "subtitle": [],
  "parts": []
}
