{
  "id": 14176,
  "name": "Кэти Кин",
  "name_eng": "Katy Keene",
  "year": 2020,
  "slogan": "«A high-fashion fairytale»",
  "age": null,
  "type": "series",
  "quality": "FHD (1080p)",
  "imdb": "6.3",
  "imdb_id": "10312964",
  "kinopoisk": "7.5",
  "kinopoisk_id": "1263607",
  "world_art": null,
  "world_art_id": null,
  "time": "42 мин",
  "ads": false,
  "premier": "2020-02-09",
  "premier_rus": null,
  "availability": "2020-02-10",
  "serial_status": "online",
  "activate_time": "2020-01-10 12:48:00",
  "budget": "",
  "fees_use": "",
  "fees_world": "",
  "fees_rus": "",
  "rate_mpaa": "",
  "description": "Кэти Кин работает в роскошном универмаге Lacy’s персональным ассистентом покупателя, но её призвание — дизайн одежды. За ночь на старенькой машинке она может соорудить настоящий шедевр, достойный внимания принцесс. Кэти всегда хотела стать модельером, но никак не может решиться на исполнение своей мечты. Помогут ей в этом друзья, старые и новые, которые вместе с Кэти будут пытаться покорить Нью-Йорк. Обаятельный сосед по квартире Хорхе выступает в ночных клубах как дрэг-квин Джинджер, но мечтает о карьере в бродвейских мюзиклах. Подруга-феминистка Пеппер хочет стать владелицей собственной модной империи. Бойфренд Кэти, боксер Ко Келли, грезит о чемпионате в полусреднем весе в Медисон-сквер-гарден, а Джози Маккой приехала в Нью-Йорк, чтобы стать знаменитой певицей, и остановилась пока в квартире Кэти.",
  "iframe_url": "",
  "poster": "https://img.imgilall.me/movies/franchise/1/4/1/7/6/0/0/0/0/0/610x900_14176.jpg",
  "country": {
    "1": "США"
  },
  "collection": {
    "21": "Для молодёжи"
  },
  "genre": {
    "38": "Мюзикл",
    "19": "Комедия",
    "10": "Зарубежный",
    "7": "Драма"
  },
  "director": [
    "Стив Эделсон",
    "Мэгги Кили",
    "Памела Романовски"
  ],
  "screenwriter": [
    "Davia Carter",
    "Роберто Агирре-Сакаса",
    "Майкл Грасси"
  ],
  "producer": [
    "Роберто Агирре-Сакаса",
    "Кэролайн Барон",
    "Грег Берланти"
  ],
  "operator": [
    "Брендан Уэгама"
  ],
  "composer": [
    "Джеймс С. Левайн"
  ],
  "design": [
    "Тереза Мастропьерро",
    "Эндрю Джекнесс",
    "Милен Сантос"
  ],
  "editor": [
    "Дэниэл Хан",
    "Гастон Джарен Лопес",
    "Diandra Kendall Luzon"
  ],
  "actors": [
    "Люси Хейл",
    "Эшли Мюррэй",
    "Джонни Бошан",
    "Джулия Чан",
    "Камилль Хайд",
    "Люсьен Лависконт",
    "Зейн Холц",
    "Кэтрин ЛаНаса",
    "Бернадетт Питерс",
    "Нэйтан Ли Грэхэм"
  ],
  "actors_dubl": [],
  "trivia": [],
  "trailers": [
    {
      "name": "трейлер №1",
      "number": 1,
      "iframe_poster": null,
      "season": 1,
      "iframe_url": ""
    }
  ],
  "seasons": [
    {
      "poster": null,
      "release_ru": "2020-02-07",
      "release_world": "2020-02-06",
      "availability": "2020-02-08",
      "iframe_url": "",
      "season": 1,
      "episodes": [
        {
          "episode": 1,
          "name": "Chapter One: Once Upon a Time in New York",
          "iframe_url": "",
          "iframe_poster": null,
          "release_ru": "2020-02-07",
          "release_world": "2020-02-06",
          "availability": "2020-02-07",
          "voiceActing": [
            "TVShows",
            "Eng.Original"
          ],
          "ads": false,
          "subtitle": []
        },
        {
          "episode": 2,
          "name": "Chapter Two: You Can't Hurry Love",
          "iframe_url": "",
          "iframe_poster": null,
          "release_ru": "2020-02-14",
          "release_world": "2020-02-13",
          "availability": "2020-02-14",
          "voiceActing": [
            "TVShows",
            "Eng.Original"
          ],
          "ads": false,
          "subtitle": []
        },
        {
          "episode": 3,
          "name": "Chapter Three: What Becomes of the Broken Hearted",
          "iframe_url": "",
          "iframe_poster": null,
          "release_ru": "2020-02-21",
          "release_world": "2020-02-20",
          "availability": "2020-02-21",
          "voiceActing": [
            "TVShows",
            "Eng.Original"
          ],
          "ads": false,
          "subtitle": []
        },
        {
          "episode": 4,
          "name": "Chapter Four: Here Comes the Sun",
          "iframe_url": "",
          "iframe_poster": null,
          "release_ru": "2020-02-28",
          "release_world": "2020-02-27",
          "availability": "2020-02-28",
          "voiceActing": [
            "TVShows",
            "Eng.Original"
          ],
          "ads": false,
          "subtitle": []
        },
        {
          "episode": 5,
          "name": "Chapter Five: Song for a Winter's Night",
          "iframe_url": "",
          "iframe_poster": null,
          "release_ru": "2020-03-06",
          "release_world": "2020-03-05",
          "availability": "2020-03-06",
          "voiceActing": [
            "TVShows",
            "Eng.Original"
          ],
          "ads": false,
          "subtitle": [
            "Eng. Full"
          ]
        },
        {
          "episode": 6,
          "name": "Chapter Six: Mama Said",
          "iframe_url": "",
          "iframe_poster": null,
          "release_ru": "2020-03-13",
          "release_world": "2020-03-12",
          "availability": "2020-03-13",
          "voiceActing": [
            "TVShows",
            "Eng.Original"
          ],
          "ads": false,
          "subtitle": [
            "Eng. Full"
          ]
        },
        {
          "episode": 7,
          "name": "Chapter Seven: Kiss of the Spider Woman",
          "iframe_url": "",
          "iframe_poster": null,
          "release_ru": "2020-03-20",
          "release_world": "2020-03-19",
          "availability": "2020-03-20",
          "voiceActing": [
            "TVShows",
            "Eng.Original"
          ],
          "ads": false,
          "subtitle": [
            "Eng. Full"
          ]
        },
        {
          "episode": 8,
          "name": "Chapter Eight: It's Alright, Ma (I'm Only Bleeding)",
          "iframe_url": "",
          "iframe_poster": null,
          "release_ru": "2020-03-27",
          "release_world": "2020-03-26",
          "availability": "2020-03-27",
          "voiceActing": [
            "TVShows",
            "Eng.Original"
          ],
          "ads": false,
          "subtitle": [
            "Eng. Full"
          ]
        },
        {
          "episode": 9,
          "name": null,
          "iframe_url": "",
          "iframe_poster": null,
          "release_ru": "2020-04-17",
          "release_world": "2020-04-16",
          "availability": "2020-04-17",
          "voiceActing": [
            "TVShows",
            "Eng.Original"
          ],
          "ads": false,
          "subtitle": [
            "Eng. SDH"
          ]
        },
        {
          "episode": 10,
          "name": "Chapter Ten: Gloria",
          "iframe_url": "",
          "iframe_poster": null,
          "release_ru": "2020-04-24",
          "release_world": "2020-04-23",
          "availability": "2020-04-24",
          "voiceActing": [
            "TVShows"
          ],
          "ads": false,
          "subtitle": []
        },
        {
          "episode": 11,
          "name": "Chapter Eleven: Who Can I Turn To?",
          "iframe_url": "",
          "iframe_poster": null,
          "release_ru": "2020-05-01",
          "release_world": "2020-04-30",
          "availability": "2020-05-01",
          "voiceActing": [
            "TVShows"
          ],
          "ads": false,
          "subtitle": []
        },
        {
          "episode": 12,
          "name": "Chapter Twelve: Chain of Fools",
          "iframe_url": "",
          "iframe_poster": null,
          "release_ru": "2020-05-08",
          "release_world": "2020-05-07",
          "availability": "2020-05-08",
          "voiceActing": [
            "TVShows"
          ],
          "ads": false,
          "subtitle": []
        },
        {
          "episode": 13,
          "name": "Chapter Thirteen: TBA",
          "iframe_url": "",
          "iframe_poster": null,
          "release_ru": "2020-05-15",
          "release_world": "2020-05-14",
          "availability": "2020-05-15",
          "voiceActing": [
            "TVShows"
          ],
          "ads": false,
          "subtitle": []
        }
      ]
    }
  ],
  "voiceActing": [
    "TVShows",
    "Eng.Original"
  ],
  "subtitle": [
    "Eng. Full",
    "Eng. SDH"
  ],
  "parts": []
}
