{
  "id": 28752,
  "name": "Ты мой свет",
  "name_eng": "",
  "year": 2018,
  "slogan": "—",
  "age": "12+",
  "type": "film",
  "quality": "HD (720p)",
  "imdb": null,
  "imdb_id": null,
  "kinopoisk": null,
  "kinopoisk_id": "1200025",
  "world_art": null,
  "world_art_id": null,
  "time": "45 мин.",
  "ads": false,
  "premier": null,
  "premier_rus": "2018-10-27",
  "availability": "2018-10-28",
  "activate_time": "2020-06-27 03:47:00",
  "budget": null,
  "fees_use": null,
  "fees_world": null,
  "fees_rus": null,
  "rate_mpaa": null,
  "description": "В день серебряной свадьбы муж внезапно сообщает Наталье, что уходит. Жизнь разрушена и даже любимая работа в цветочном магазине не спасает от уныния, да еще бесцеремонный клиент изводит ее своими придирками. Но Наталья заставляет себя не обращать внимания на трудности и жить дальше ради сына, который собрался жениться. Она едет на помолвку сына и в отце невесты Егоре с удивлением узнает того самого клиента. Ради детей Наталья и Егор скрывают взаимную неприязнь, но серьезные проблемы, возникшие у детей, вынуждают героев действовать сообща. Помогая Егору, Наталья смотрит на него другими глазами. А Егор, давно не пускающий никого к себе в душу, вдруг понимает, что в его жизни наконец-то забрезжил свет. Но к Наталье возвращается муж…",
  "iframe_url": "",
  "iframe_poster": null,
  "poster": "https://img.imgilall.me/movies/franchise/2/8/7/5/2/0/0/0/0/0/610x900_28752.jpg",
  "country": {
    "5": "Россия"
  },
  "collection": [],
  "genre": {
    "8": "Мелодрама"
  },
  "director": [
    "Эдуард Пальмов"
  ],
  "screenwriter": [
    "Любовь Новикова",
    "Екатерина Гусева"
  ],
  "producer": [
    "Александр Кушаев",
    "Егор Юзбашев",
    "Егор Мещеряков"
  ],
  "operator": [
    "Николай Трухин"
  ],
  "composer": [
    "Владимир Сайко"
  ],
  "design": [
    "Александр Трещинский"
  ],
  "editor": [
    "Игорь Симаков",
    "Александр Зотов"
  ],
  "actors": [
    "Мария Глазкова",
    "Никита Зверев",
    "Дмитрий Егоров",
    "Ольга Дятловская",
    "Ольга Рептух",
    "Анатолий Голуб",
    "Алиса Авчинник",
    "Зоя Фромичева-Корсакова",
    "Евгений Казакевич",
    "Олег Гарбуз"
  ],
  "actors_dubl": [],
  "trivia": [],
  "trailers": [],
  "seasons": [],
  "voiceActing": [
    "Original"
  ],
  "subtitle": [],
  "parts": []
}
