{
  "id": 34999,
  "name": "Ключ времени",
  "name_eng": "",
  "year": 2019,
  "slogan": "«Приходи, если ты смелый!»",
  "age": null,
  "type": "film",
  "quality": "FHD (1080p)",
  "imdb": null,
  "imdb_id": null,
  "kinopoisk": "4.9",
  "kinopoisk_id": "1261545",
  "world_art": null,
  "world_art_id": null,
  "time": "90 мин. / 01:30",
  "ads": false,
  "premier": null,
  "premier_rus": "2020-08-06",
  "availability": "2020-08-07",
  "activate_time": "2020-07-20 15:25:00",
  "budget": "₽ 61 538 461",
  "fees_use": null,
  "fees_world": null,
  "fees_rus": "$12 614",
  "rate_mpaa": null,
  "description": "Бездетные супруги писатель Андрей и художница Ольга удочеряют восьмилетнюю Ксюшу. Директором детского дома, где воспитывалась девочка, оказывается бывшая подруга Андрея Ирена. Она до сих пор страстно любит Андрея и намерена вернуть его любой ценой, пускай для этого придётся разрушить его семейное счастье. Тем временем Андрей сочиняет фантастический роман о темной стороне Петербурга. На страницах его книги город на Неве превращается в фантасмагорический мир, где само время остановилось, а улицы населяют бездушные твари. Внезапно Ксюша попадает в мир «темного Петербурга» из романа Андрея, где встречает таинственного друга Парамона. Героев ждёт немало опасных приключений…",
  "iframe_url": "",
  "iframe_poster": null,
  "poster": "https://img.imgilall.me/movies/franchise/3/4/9/9/9/0/0/0/0/0/610x900_34999.jpg",
  "country": {
    "5": "Россия"
  },
  "collection": [],
  "genre": {
    "9": "Приключения",
    "6": "Фэнтези",
    "22": "Русский"
  },
  "director": [
    "Алексей Тельнов"
  ],
  "screenwriter": [
    "Алексей Теплыгин",
    "Алексей Тельнов",
    "Ольга Погодина-Кузмина"
  ],
  "producer": [
    "Алексей Тельнов",
    "Сергей Алексеев",
    "Евгений Григорьев"
  ],
  "operator": [
    "Артем Джараян"
  ],
  "composer": [
    "Мурат Кабардоков"
  ],
  "design": [
    "Владимир Южаков",
    "Анастасия Белова"
  ],
  "editor": [],
  "actors": [
    "Ксения Алексеева",
    "Павел Трубинер",
    "Любовь Толкалина",
    "Артем Ткаченко",
    "Марина Казанкова",
    "Оксана Базилевич",
    "Анатолий Кондюбов",
    "Екатерина Байгозина",
    "Ольга Ермоленкова",
    "Геннадий Кабак"
  ],
  "actors_dubl": [],
  "trivia": [
    "В сцене с русалкой актриса Марина Казанкова самостоятельно исполняла трюки под водой, так как является чемпионкой мира по подводному плаванию, ее рекорд внесен в книгу рекордов Гиннесса."
  ],
  "trailers": [
    {
      "name": "трейлер №1",
      "number": 1,
      "iframe_poster": null,
      "season": null,
      "iframe_url": ""
    }
  ],
  "seasons": [],
  "voiceActing": [
    "Рус. Оригинальный"
  ],
  "subtitle": [],
  "parts": []
}
