{
  "id": 14578,
  "name": "Остров",
  "name_eng": "Une île",
  "year": 2019,
  "slogan": "—",
  "age": null,
  "type": "series",
  "quality": "HD (720p)",
  "imdb": "5.9",
  "imdb_id": "10094634",
  "kinopoisk": null,
  "kinopoisk_id": "1253457",
  "world_art": null,
  "world_art_id": null,
  "time": "45 мин. всего",
  "ads": true,
  "premier": "2019-03-27",
  "premier_rus": null,
  "availability": "2019-03-28",
  "serial_status": "offline",
  "activate_time": "2020-01-21 18:00:00",
  "budget": null,
  "fees_use": null,
  "fees_world": null,
  "fees_rus": null,
  "rate_mpaa": null,
  "description": "Когда Хлоя была ребенком, ее нашли в пещере на острове – одинокую и потерянную. Она ничего не знает о своем происхождении и держится особняком от остальных островитян. Одна пляжная вечеринка, куда ей пришлось пойти вместе с подругой, плохо для нее заканчивается: Хлою пытается изнасиловать парень, который в результате надолго теряет сознание при невыясненных обстоятельствах. Тем временем на острове появляется загадочная незнакомка Тея. Она устанавливает с Хлоей странную связь, в то время как весь остров охватывают волнения из-за исчезновения рыбы и нескольких нераскрытых смертей.",
  "iframe_url": "",
  "poster": "https://img.imgilall.me/movies/franchise/1/4/5/7/8/0/0/0/0/0/610x900_14578.jpg",
  "country": {
    "9": "Франция"
  },
  "collection": {
    "73": "Про девушек",
    "21": "Для молодёжи"
  },
  "genre": {
    "10": "Зарубежный",
    "7": "Драма"
  },
  "director": [
    "Julien Trousselier"
  ],
  "screenwriter": [
    "Gaia Guasti",
    "Aurélien Molas",
    "Симон Мутайру"
  ],
  "producer": [
    "Николь Колле"
  ],
  "operator": [
    "David Cailley"
  ],
  "composer": [
    "Pierre Gambini"
  ],
  "design": [
    "Jean-Baptiste Albertini",
    "Сандрин Бернард"
  ],
  "editor": [
    "Йохан Эрбе",
    "Амели Массутье"
  ],
  "actors": [
    "Ноэ Абита",
    "Летиция Каста",
    "Мануэль Севери",
    "Серхи Лопес",
    "Альба Гайя Крагеде Беллуджи",
    "Marie-Pierre Nouveau",
    "Анри-Ноэль Табари",
    "Седрик Аппиетто",
    "Marcu-Antone Albertinin",
    "Théo Berger"
  ],
  "actors_dubl": [],
  "trivia": [],
  "trailers": [],
  "seasons": [
    {
      "poster": null,
      "release_ru": "2020-01-10",
      "release_world": "2020-01-09",
      "availability": "2020-01-11",
      "iframe_url": "",
      "season": 1,
      "episodes": [
        {
          "episode": 1,
          "name": null,
          "iframe_url": "",
          "iframe_poster": null,
          "release_ru": "2020-01-10",
          "release_world": "2020-01-09",
          "availability": "2020-01-11",
          "voiceActing": [
            "Cold Film"
          ],
          "ads": true,
          "subtitle": []
        },
        {
          "episode": 2,
          "name": null,
          "iframe_url": "",
          "iframe_poster": null,
          "release_ru": "2020-01-10",
          "release_world": "2020-01-09",
          "availability": "2020-01-11",
          "voiceActing": [
            "Cold Film"
          ],
          "ads": true,
          "subtitle": []
        },
        {
          "episode": 3,
          "name": null,
          "iframe_url": "",
          "iframe_poster": null,
          "release_ru": "2020-01-10",
          "release_world": "2020-01-09",
          "availability": "2020-01-11",
          "voiceActing": [
            "Cold Film"
          ],
          "ads": true,
          "subtitle": []
        },
        {
          "episode": 4,
          "name": null,
          "iframe_url": "",
          "iframe_poster": null,
          "release_ru": "2020-01-17",
          "release_world": "2020-01-16",
          "availability": "2020-01-18",
          "voiceActing": [
            "Cold Film"
          ],
          "ads": true,
          "subtitle": []
        },
        {
          "episode": 5,
          "name": null,
          "iframe_url": "",
          "iframe_poster": null,
          "release_ru": "2020-01-17",
          "release_world": "2020-01-16",
          "availability": "2020-01-18",
          "voiceActing": [
            "Cold Film"
          ],
          "ads": true,
          "subtitle": []
        },
        {
          "episode": 6,
          "name": null,
          "iframe_url": "",
          "iframe_poster": null,
          "release_ru": "2020-01-17",
          "release_world": "2020-01-16",
          "availability": "2020-01-18",
          "voiceActing": [
            "Cold Film"
          ],
          "ads": true,
          "subtitle": []
        }
      ]
    }
  ],
  "voiceActing": [
    "Cold Film"
  ],
  "subtitle": [],
  "parts": []
}
