{
  "id": 22280,
  "name": "Люпен III: Первый",
  "name_eng": "Lupin III: The First",
  "year": 2019,
  "slogan": "«'Well, let's get started.'»",
  "age": "12+",
  "type": "anime-film",
  "quality": "FHD (1080p)",
  "imdb": "6.9",
  "imdb_id": "10621032",
  "kinopoisk": "6.9",
  "kinopoisk_id": "1282029",
  "world_art": null,
  "world_art_id": null,
  "time": "93 мин. / 01:33",
  "ads": false,
  "premier": "2019-12-06",
  "premier_rus": "2019-12-07",
  "availability": "2019-12-08",
  "activate_time": "2020-06-08 18:36:00",
  "budget": null,
  "fees_use": "$136 368",
  "fees_world": "+ $7 256 886 = $7 393 254",
  "fees_rus": null,
  "rate_mpaa": null,
  "description": "Известный вор Люпен III объединяется с женщиной по имени Летиция, чтобы украсть дневник Брессона - сокровище, заполучить которое оказалось не по зубам даже его знаменитому деду.",
  "iframe_url": "",
  "iframe_poster": null,
  "poster": "https://img.imgilall.me/movies/franchise/2/2/2/8/0/0/0/0/0/0/610x900_22280.jpg",
  "country": {
    "18": "Япония"
  },
  "collection": [],
  "genre": {
    "25": "Криминал",
    "9": "Приключения",
    "19": "Комедия",
    "17": "Боевик",
    "10": "Зарубежный"
  },
  "director": [
    "Такаси Ямадзаки"
  ],
  "screenwriter": [
    "Такаси Ямадзаки",
    "Манки Панч"
  ],
  "producer": [
    "Такэси Ито",
    "Наоаки Китадзима",
    "Кодзи Нодзаки"
  ],
  "operator": [
    "Ёсукэ Сакаи"
  ],
  "composer": [
    "Юдзи Оно"
  ],
  "design": [
    "Тосия Умэда"
  ],
  "editor": [
    "Томокадзу Такахаси"
  ],
  "actors": [
    "Канъити Курита",
    "Тацуя Фудзивара",
    "Судзу Хиросэ",
    "Киёси Кобаяси",
    "Даисукэ Намикава",
    "Миюки Савасиро",
    "Коити Ямадэра",
    "Котаро Ёсида"
  ],
  "actors_dubl": [],
  "trivia": [],
  "trailers": [],
  "seasons": [],
  "voiceActing": [
    "Рус. Проф. многоголосый"
  ],
  "subtitle": [],
  "parts": []
}
