{
  "id": 47916,
  "name": "Все мы моряки",
  "name_eng": "Todos somos marineros",
  "year": 2019,
  "slogan": "—",
  "age": null,
  "type": "film",
  "quality": "HD (720p)",
  "imdb": "5.6",
  "imdb_id": "8116116",
  "kinopoisk": null,
  "kinopoisk_id": "1244845",
  "world_art": null,
  "world_art_id": null,
  "time": "104 мин. / 01:44",
  "ads": true,
  "premier": "2019-01-27",
  "premier_rus": "2019-01-28",
  "availability": "2019-01-29",
  "activate_time": "2021-06-11 13:49:00",
  "budget": null,
  "fees_use": null,
  "fees_world": null,
  "fees_rus": null,
  "rate_mpaa": null,
  "description": "Толя, его брат и капитан живут на забытом рыбацком катере в порту Чимботе. Компания, владевшая судном, разорилась, лодка стоит без дела девятую неделю и вся команда давно разъехалась по домам — остались только эти трое. Без денег и без возможности как-то изменить изменить сложившуюся ситуацию, Толя пытается приспособиться к новой жизни на берегу.",
  "iframe_url": "",
  "iframe_poster": null,
  "poster": "https://img.imgilall.me/movies/franchise/4/7/9/1/6/0/0/0/0/0/610x900_47916.jpg",
  "country": {
    "64": "Доминикана",
    "79": "Перу"
  },
  "collection": [],
  "genre": {
    "7": "Драма"
  },
  "director": [
    "Михель Анхел Моулет"
  ],
  "screenwriter": [
    "Михель Анхел Моулет"
  ],
  "producer": [
    "Пабло Лозаньо",
    "Михель Анхел Моулет",
    "Таня Валетт"
  ],
  "operator": [
    "Камильо Соратти"
  ],
  "composer": [],
  "design": [],
  "editor": [
    "Нино Мартинес Соса"
  ],
  "actors": [
    "Бето Бенитес",
    "Равиль Садреев",
    "Андрей Сладков",
    "Хулия Тайс",
    "Гонсало Варгас Вилела"
  ],
  "actors_dubl": [],
  "trivia": [],
  "trailers": [],
  "seasons": [],
  "voiceActing": [
    "Синема УС"
  ],
  "subtitle": [],
  "parts": []
}
