{
  "id": 44381,
  "name": "В её глазах",
  "name_eng": "Behind Her Eyes",
  "year": 2021,
  "slogan": "—",
  "age": null,
  "type": "series",
  "quality": "FHD (1080p)",
  "imdb": "7.2",
  "imdb_id": "9698442",
  "kinopoisk": "7.3",
  "kinopoisk_id": "1291310",
  "world_art": null,
  "world_art_id": null,
  "time": "50 мин",
  "ads": false,
  "premier": "2021-02-17",
  "premier_rus": "2021-02-18",
  "availability": "2021-02-19",
  "serial_status": "offline",
  "activate_time": "2021-02-17 13:47:00",
  "budget": null,
  "fees_use": null,
  "fees_world": null,
  "fees_rus": null,
  "rate_mpaa": null,
  "description": "Мать-одиночка Луиза заводит роман с привлекательным незнакомцем в баре, но вскоре выясняется, что это ее новый босс Дэвид. Мужчина к тому же женат, но Луиза не может прекратить эту связь. Через какое-то время запутавшаяся женщина становится лучшей подругой жены Дэвида и начинает подозревать, что за их супружескими отношениями скрывается нечто зловещее.",
  "iframe_url": "",
  "poster": "https://img.imgilall.me/movies/franchise/4/4/3/8/1/0/0/0/0/0/610x900_44381.jpg",
  "country": {
    "2": "Великобритания"
  },
  "collection": {
    "40": "Netflix"
  },
  "genre": {
    "24": "Детектив",
    "13": "Триллер",
    "7": "Драма"
  },
  "director": [
    "Эрик Рихтер Страндт"
  ],
  "screenwriter": [
    "Стив Лайтфут",
    "Сара Пинборо",
    "Анджела ЛаМанна"
  ],
  "producer": [
    "Кристофер Лар",
    "Стив Лайтфут",
    "Дэниэл Толанд"
  ],
  "operator": [
    "Феликс Видерманн"
  ],
  "composer": [
    "Руперт Грегсон-Уильямс"
  ],
  "design": [
    "Мэтт Прайс",
    "Нееш Рубен"
  ],
  "editor": [
    "Симен Генгенбах",
    "Эми Ханселл",
    "Бренна Ранготт"
  ],
  "actors": [
    "Ив Хьюсон",
    "Том Бейтман",
    "Роберт Арамайо",
    "Тайлер Хоуитт",
    "Симона Браун",
    "Джорджи Глен",
    "Аарон Энтони",
    "Никола Берли",
    "Эстон Маколи",
    "Шарлотта Миллс"
  ],
  "actors_dubl": [
    "Наталья Грачёва",
    "Евгений Толоконников",
    "Алексей Костричкин",
    "Всеволод Копп",
    "Варвара Чабан"
  ],
  "trivia": [],
  "trailers": [],
  "seasons": [
    {
      "poster": null,
      "release_ru": null,
      "release_world": null,
      "availability": null,
      "iframe_url": "",
      "season": 1,
      "episodes": [
        {
          "episode": 1,
          "name": null,
          "iframe_url": "",
          "iframe_poster": null,
          "release_ru": null,
          "release_world": null,
          "availability": null,
          "voiceActing": [
            "Рус. Дублированный",
            "Eng.Original"
          ],
          "ads": false,
          "subtitle": [
            "Рус. форсированные"
          ]
        },
        {
          "episode": 2,
          "name": null,
          "iframe_url": "",
          "iframe_poster": null,
          "release_ru": null,
          "release_world": null,
          "availability": null,
          "voiceActing": [
            "Рус. Дублированный",
            "Eng.Original"
          ],
          "ads": false,
          "subtitle": [
            "Рус. форсированные"
          ]
        },
        {
          "episode": 3,
          "name": null,
          "iframe_url": "",
          "iframe_poster": null,
          "release_ru": null,
          "release_world": null,
          "availability": null,
          "voiceActing": [
            "Рус. Дублированный",
            "Eng.Original"
          ],
          "ads": false,
          "subtitle": [
            "Рус. форсированные"
          ]
        },
        {
          "episode": 4,
          "name": null,
          "iframe_url": "",
          "iframe_poster": null,
          "release_ru": null,
          "release_world": null,
          "availability": null,
          "voiceActing": [
            "Рус. Дублированный",
            "Eng.Original"
          ],
          "ads": false,
          "subtitle": [
            "Рус. форсированные"
          ]
        },
        {
          "episode": 5,
          "name": null,
          "iframe_url": "",
          "iframe_poster": null,
          "release_ru": null,
          "release_world": null,
          "availability": null,
          "voiceActing": [
            "Рус. Дублированный",
            "Eng.Original"
          ],
          "ads": false,
          "subtitle": [
            "Рус. форсированные"
          ]
        },
        {
          "episode": 6,
          "name": null,
          "iframe_url": "",
          "iframe_poster": null,
          "release_ru": null,
          "release_world": null,
          "availability": null,
          "voiceActing": [
            "Рус. Дублированный",
            "Eng.Original"
          ],
          "ads": false,
          "subtitle": [
            "Рус. форсированные"
          ]
        }
      ]
    }
  ],
  "voiceActing": [
    "Рус. Дублированный",
    "Eng.Original"
  ],
  "subtitle": [
    "Рус. форсированные"
  ],
  "parts": []
}
