{
  "id": 6676,
  "name": "Китайский пленник",
  "name_eng": "The Business Strom of Ruhai",
  "year": 2019,
  "slogan": "—",
  "age": "16+",
  "type": "film",
  "quality": "HD (720p)",
  "imdb": null,
  "imdb_id": "9597074",
  "kinopoisk": null,
  "kinopoisk_id": "1228826",
  "world_art": null,
  "world_art_id": null,
  "time": "91 мин. / 01:31",
  "ads": true,
  "premier": "2019-01-11",
  "premier_rus": null,
  "availability": null,
  "activate_time": "2019-03-13 12:16:47",
  "budget": "",
  "fees_use": "",
  "fees_world": "",
  "fees_rus": "",
  "rate_mpaa": "",
  "description": "Старого друга и делового партнёра Не Хунбиня похищают, а те, с кем он вместе годами строил бизнес, подозрительно молчат. Остаётся только взять расследование, а вместе с ним и правосудие, в свои руки.\r\n",
  "iframe_url": "",
  "iframe_poster": "https://img.imgilall.me/movies/video/7/1/3/5/3/0/0/0/0/0/800x450_71353.jpeg",
  "poster": "https://img.imgilall.me/movies/franchise/6/6/7/6/0/0/0/0/0/0/610x900_6676.jpg",
  "country": {
    "19": "Китай"
  },
  "collection": [],
  "genre": {
    "25": "Криминал",
    "10": "Зарубежный"
  },
  "director": [
    "Чжан Ифэй"
  ],
  "screenwriter": [],
  "producer": [],
  "operator": [],
  "composer": [],
  "design": [],
  "editor": [],
  "actors": [
    "Лю Му",
    "Ай Дай",
    "Сесилия Ип",
    "Чжоу Хаодун",
    "Кань Бэньбэнь",
    "Уайз Ли",
    "Ляо Вэйвэй",
    "Лю Яцзинь"
  ],
  "actors_dubl": [],
  "trivia": [],
  "trailers": [],
  "seasons": [],
  "voiceActing": [
    "Колобок"
  ],
  "subtitle": [],
  "parts": []
}
