{
  "id": 15819,
  "name": "Sheena667",
  "name_eng": "",
  "year": 2019,
  "slogan": "«Полеты во сне и наяву»",
  "age": "18+",
  "type": "film",
  "quality": "FHD (1080p)",
  "imdb": "5.7",
  "imdb_id": "9585684",
  "kinopoisk": "6.1",
  "kinopoisk_id": "1227958",
  "world_art": null,
  "world_art_id": null,
  "time": "97 мин. / 01:37",
  "ads": false,
  "premier": "2019-01-28",
  "premier_rus": "2020-03-26",
  "availability": "2020-03-27",
  "activate_time": "2020-03-13 12:50:00",
  "budget": null,
  "fees_use": null,
  "fees_world": "$16 509",
  "fees_rus": "$16 364",
  "rate_mpaa": null,
  "description": "Город Вышний Волочёк: разбитые дороги, снега и туманы. Автосервис на окраине города, где живут, работают и любят друг друга Оля и Вадим. Обоим немного за тридцать, они люди простые и серьезные, делят радости и горести поровну, на двоих, пока в их жизнь не вторгается третий лишний — интернет.",
  "iframe_url": "",
  "iframe_poster": null,
  "poster": "https://img.imgilall.me/movies/franchise/1/5/8/1/9/0/0/0/0/0/610x900_15819.jpg",
  "country": {
    "5": "Россия"
  },
  "collection": {
    "38": "Про любовь",
    "11": "Для женщин"
  },
  "genre": {
    "22": "Русский",
    "7": "Драма"
  },
  "director": [
    "Григорий Добрыгин"
  ],
  "screenwriter": [
    "Александр Родионов",
    "Григорий Добрыгин",
    "Илья Носоченко"
  ],
  "producer": [
    "Григорий Добрыгин",
    "Татьяна Очинская",
    "Нора Шариф"
  ],
  "operator": [
    "Михаил Кричман"
  ],
  "composer": [],
  "design": [
    "Андрей Понкратов",
    "Ульяна Полянская"
  ],
  "editor": [
    "Даниэлюс Коканаускис",
    "Вадим Красницкий"
  ],
  "actors": [
    "Владимир Свирский",
    "Юлия Пересильд",
    "Джордан Фрай",
    "Юрий Кузнецов",
    "Надежда Маркина",
    "Наталья Ноздрина",
    "Павел Ворожцов",
    "Алексей Вертков",
    "Владимир Коробейников",
    "Стивен Томас Окснер"
  ],
  "actors_dubl": [],
  "trivia": [],
  "trailers": [
    {
      "name": "трейлер №1",
      "number": 1,
      "iframe_poster": null,
      "season": null,
      "iframe_url": ""
    }
  ],
  "seasons": [],
  "voiceActing": [
    "Рус. Оригинальный"
  ],
  "subtitle": [],
  "parts": []
}
