{
  "id": 43047,
  "name": "Сестра жениха",
  "name_eng": "The Pleasure of Your Presence",
  "year": 2020,
  "slogan": "«Когда свадьба не твоя»",
  "age": null,
  "type": "film",
  "quality": "FHD (1080p)",
  "imdb": "4.5",
  "imdb_id": "9222438",
  "kinopoisk": null,
  "kinopoisk_id": "1208417",
  "world_art": null,
  "world_art_id": null,
  "time": "92 мин. / 01:32",
  "ads": true,
  "premier": "2020-12-18",
  "premier_rus": null,
  "availability": null,
  "activate_time": "2020-12-21 18:53:00",
  "budget": "",
  "fees_use": "",
  "fees_world": "",
  "fees_rus": "",
  "rate_mpaa": "R",
  "description": "Лиам собирается жениться на молодой француженке и собирает всех родственников на предсвадебный уикенд. Его сестра Одри, приехав с мужем Итаном в Хэмптон, сразу же не принимает Клеманс, которая является «мисс совершенством». Неуверенность в себе, предстоящее 40-летие становятся причиной настоящей войны между Одри и её невесткой.",
  "iframe_url": "",
  "iframe_poster": null,
  "poster": "https://img.imgilall.me/movies/franchise/4/3/0/4/7/0/0/0/0/0/610x900_43047.jpg",
  "country": {
    "1": "США"
  },
  "collection": [],
  "genre": {
    "7": "Драма"
  },
  "director": [
    "Эми Миллер Гросс"
  ],
  "screenwriter": [
    "Эми Миллер Гросс"
  ],
  "producer": [
    "Эндрю Карлберг",
    "Тим Хармс",
    "Эми Миллер Гросс"
  ],
  "operator": [
    "Чарльз Либин"
  ],
  "composer": [
    "Джей Лифтон"
  ],
  "design": [
    "Ив МакКарни",
    "Дэвид Энтони Краули",
    "Хайди Страйкиевич"
  ],
  "editor": [
    "Эбби Ютковиц"
  ],
  "actors": [
    "Алисия Сильверстоун",
    "Джейк Хоффман",
    "Матильда Олливье",
    "Том Эверетт Скотт",
    "Чарли Бьюли",
    "Марк Блум",
    "Роналд Гаттман",
    "Ной Сильвер",
    "Эбигейл Марлоу",
    "Ли Рейтельман"
  ],
  "actors_dubl": [],
  "trivia": [],
  "trailers": [],
  "seasons": [],
  "voiceActing": [
    "Рус. Люб. многоголосый"
  ],
  "subtitle": [],
  "parts": []
}
