{
  "id": 11559,
  "name": "На седьмом небе от любви",
  "name_eng": "Over The Moon In Love",
  "year": 2019,
  "slogan": "—",
  "age": null,
  "type": "film",
  "quality": "HD (720p)",
  "imdb": "6.3",
  "imdb_id": "10298896",
  "kinopoisk": null,
  "kinopoisk_id": "1264505",
  "world_art": null,
  "world_art_id": null,
  "time": "83 мин. / 01:23",
  "ads": true,
  "premier": "2019-10-05",
  "premier_rus": "2019-10-06",
  "availability": "2019-10-07",
  "activate_time": "2019-11-11 09:40:00",
  "budget": "",
  "fees_use": "",
  "fees_world": "",
  "fees_rus": "",
  "rate_mpaa": "",
  "description": "Бруклин Мур — успешная сваха, которая владеет компанией «На седьмом небе от любви». Все пары, что ей удалось свести, уже много лет живут душа в душу. Чутье никогда не обманывает Бруклин, когда речь идет о счастье других людей, однако сама она одинока.",
  "iframe_url": "",
  "iframe_poster": "https://img.imgilall.me/movies/video/1/2/0/0/7/1/0/0/0/0/800x450_120071.jpeg",
  "poster": "https://img.imgilall.me/movies/franchise/1/1/5/5/9/0/0/0/0/0/610x900_11559.jpg",
  "country": {
    "7": "Канада"
  },
  "collection": [],
  "genre": {
    "8": "Мелодрама"
  },
  "director": [
    "Кристи Уилл"
  ],
  "screenwriter": [
    "Джессика Лаундс"
  ],
  "producer": [
    "Навид Суфи",
    "Оливье Де Каньи",
    "Тим Джонсон"
  ],
  "operator": [
    "Майк Кэм"
  ],
  "composer": [
    "Расс Ховард III"
  ],
  "design": [
    "Хезер Коуттс",
    "Stacey Bradder",
    "Наталия Пейшоту"
  ],
  "editor": [
    "Джейсон Нилсон"
  ],
  "actors": [
    "Джессика Лаундс",
    "Уэс Браун",
    "Миранда Фригон",
    "Наика Туссэн",
    "Рэйчел Хейуорд",
    "Мэтт Андерсон",
    "Питер Грэхэм-Годрэу",
    "Лоретта Уолш",
    "Марк Брэндон",
    "Жослин Отт"
  ],
  "actors_dubl": [],
  "trivia": [],
  "trailers": [],
  "seasons": [],
  "voiceActing": [
    "Рус. Люб. многоголосый"
  ],
  "subtitle": [],
  "parts": []
}
