{
  "id": 22214,
  "name": "Девочка на вес золота",
  "name_eng": "Ponmagal Vandhal",
  "year": 2020,
  "slogan": "—",
  "age": null,
  "type": "film",
  "quality": "HD (720p)",
  "imdb": "6.9",
  "imdb_id": "10692888",
  "kinopoisk": null,
  "kinopoisk_id": "1289647",
  "world_art": null,
  "world_art_id": null,
  "time": "123 мин. / 02:03",
  "ads": true,
  "premier": "2020-05-29",
  "premier_rus": "2020-05-30",
  "availability": "2020-05-31",
  "activate_time": "2020-06-08 14:49:00",
  "budget": "",
  "fees_use": "",
  "fees_world": "",
  "fees_rus": "",
  "rate_mpaa": "",
  "description": "Петарадж, житель города Ути, способствует повторному открытию уголовного дела 2004 года, в котором обвинили «психопатку» Джоти, известную своими похищениями и жестокими убийствами детей. Дочь Петараджа встаёт на защиту Джоти и собирается противостоять в суде именитому адвокату.",
  "iframe_url": "",
  "iframe_poster": null,
  "poster": "https://img.imgilall.me/movies/franchise/2/2/2/1/4/0/0/0/0/0/610x900_22214.jpg",
  "country": {
    "26": "Индия"
  },
  "collection": {
    "102": "Amazon"
  },
  "genre": {
    "13": "Триллер",
    "10": "Зарубежный",
    "7": "Драма"
  },
  "director": [
    "JJ Fredrick"
  ],
  "screenwriter": [
    "JJ Fredrick"
  ],
  "producer": [
    "Джотика",
    "Сурья Шивакумар",
    "Rajsekar Karpoorasundarapandian"
  ],
  "operator": [
    "Т. Рамджи"
  ],
  "composer": [
    "Говинд Менон"
  ],
  "design": [
    "Amaran",
    "Пурнима Рамасвами"
  ],
  "editor": [
    "Antony L. Ruben"
  ],
  "actors": [
    "Джотика",
    "Партхибан",
    "К. Бхагьяраджа",
    "Правин",
    "Akalya",
    "Vj Ashik",
    "Суббу Панчу",
    "Pandiarajan",
    "Prathap Pothen",
    "Видья Прадип"
  ],
  "actors_dubl": [],
  "trivia": [],
  "trailers": [],
  "seasons": [],
  "voiceActing": [
    "Рус. Люб. многоголосый"
  ],
  "subtitle": [],
  "parts": []
}
