{
  "id": 12765,
  "name": "Риф",
  "name_eng": "Go Fish",
  "year": 2019,
  "slogan": "«Новые приключения!»",
  "age": "0+",
  "type": "cartoon",
  "quality": "FHD (1080p)",
  "imdb": "3.4",
  "imdb_id": "10920376",
  "kinopoisk": "5.8",
  "kinopoisk_id": "1297353",
  "world_art": null,
  "world_art_id": null,
  "time": "75 мин. / 01:15",
  "ads": false,
  "premier": "2019-11-19",
  "premier_rus": "2020-01-09",
  "availability": "2020-01-10",
  "activate_time": "2019-11-27 17:55:00",
  "budget": "",
  "fees_use": "",
  "fees_world": "$185 184",
  "fees_rus": "$100 141",
  "rate_mpaa": "PG",
  "description": "Это захватывающая и смешная история отважного Алекса – рыбы-попугая, который мечтает стать Супергероем. Он получает свой шанс, когда у его кораллового рифа вспыхивает таинственный поток чёрной жижи. Тогда Алекс и его приятели - морской конек, угорь и рыба-окунь - уплывают, чтобы противостоять угрозе и спасти свой дом, они сталкиваются с затонувшим кораблем со скрытыми сокровищами, заброшенным самолетом, злыми акулами и подводным вулканом.",
  "iframe_url": "",
  "iframe_poster": null,
  "poster": "https://img.imgilall.me/movies/franchise/1/2/7/6/5/0/0/0/0/0/610x900_12765.jpg",
  "country": {
    "1": "США"
  },
  "collection": {
    "80": "Про акул",
    "18": "Про животных"
  },
  "genre": {
    "9": "Приключения",
    "10": "Зарубежный"
  },
  "director": [
    "Шон Патрик О’Рейли"
  ],
  "screenwriter": [
    "Шон Патрик О’Рейли"
  ],
  "producer": [
    "Мишель О’Рейли",
    "Шон Патрик О’Рейли",
    "Райан Блэк"
  ],
  "operator": [],
  "composer": [
    "Джордж Штрейхер"
  ],
  "design": [],
  "editor": [
    "Chris Trinh"
  ],
  "actors": [
    "Кэтлин Барр",
    "Элайджа Дхавван",
    "Джастин Эзарик",
    "Джофф Густафссон",
    "Марк Хэмилл",
    "Азия Матту",
    "Скотт МакНил",
    "Дэвид Милчард",
    "Хармони О’Рейли",
    "Кифер О’Рейли"
  ],
  "actors_dubl": [],
  "trivia": [],
  "trailers": [],
  "seasons": [],
  "voiceActing": [
    "Рус. Дублированный",
    "Eng.Original"
  ],
  "subtitle": [
    "rus"
  ],
  "parts": []
}
