{
  "id": 11625,
  "name": "Выдающиеся звери",
  "name_eng": "Beastars",
  "year": 2019,
  "slogan": "—",
  "age": "18+",
  "type": "anime-series",
  "quality": "HD (720p)",
  "imdb": "7.8",
  "imdb_id": "11043632",
  "kinopoisk": "7.6",
  "kinopoisk_id": "1290944",
  "world_art": null,
  "world_art_id": "9986",
  "time": "22 мин",
  "ads": false,
  "premier": "2019-10-08",
  "premier_rus": null,
  "availability": null,
  "serial_status": "paused",
  "activate_time": "2019-10-15 14:46:00",
  "budget": "",
  "fees_use": "",
  "fees_world": "",
  "fees_rus": "",
  "rate_mpaa": "",
  "description": "В цивилизованном обществе антропоморфных животных отношения между плотоядными и травоядными довольно напряжены. В Академии Черритона это взаимное недоверие достигает пика после инцидента в школьном драматическом клубе, результатом которого становится смерть альпаки Тэма. Его друг, серый волк Лэгоси, всю жизнь страдал от необоснованных подозрений, поэтому и после трагедии продолжает жить в тени, подавляя свои инстинкты, что очень раздражает оленя Луи - властного звездного актера кружка. Вскоре Луи назначает Лэгоси дежурным, и тот в первую же ночь сталкивается с крольчихой Хару, которую презирают сверстники. Волк влюбляется в неё, и чувства вынуждают его противостоять своей истинной природе, обстоятельствам, связанным со смертью друга, и скрытому насилию, отравляющему окружающий мир.",
  "iframe_url": "",
  "poster": "https://img.imgilall.me/movies/franchise/1/1/6/2/5/0/0/0/0/0/610x900_11625.jpg",
  "country": {
    "18": "Япония"
  },
  "collection": [],
  "genre": {
    "6": "Фэнтези",
    "7": "Драма"
  },
  "director": [
    "Синъити Мацуми"
  ],
  "screenwriter": [
    "Нанами Хигути",
    "Пару Итагаки"
  ],
  "producer": [],
  "operator": [
    "Сиори Косё"
  ],
  "composer": [
    "Сатору Косаки"
  ],
  "design": [
    "Минами Касуга"
  ],
  "editor": [
    "Дзюнъити Уэмацу"
  ],
  "actors": [
    "Тикахиро Кобаяси",
    "Юки Оно",
    "Саяка Сэнбонги",
    "Такааки Торасима",
    "Дзюнъя Эноки",
    "Ацуми Танэдзаки",
    "Нобухико Окамото",
    "Фукуси Отиаи",
    "Такэо Оцука",
    "Юма Утида"
  ],
  "actors_dubl": [],
  "trivia": [],
  "trailers": [],
  "seasons": [
    {
      "poster": null,
      "release_ru": "2019-10-10",
      "release_world": "2019-10-09",
      "availability": "2019-10-11",
      "iframe_url": "",
      "season": 1,
      "episodes": [
        {
          "episode": 1,
          "name": "Their Determination",
          "iframe_url": "",
          "iframe_poster": "https://img.imgilall.me/movies/video/1/2/0/4/9/1/0/0/0/0/800x450_120491.jpeg",
          "release_ru": "2019-10-10",
          "release_world": "2019-10-09",
          "availability": "2019-10-11",
          "voiceActing": [
            "Anilibria"
          ],
          "ads": false,
          "subtitle": []
        },
        {
          "episode": 2,
          "name": "The Heart of the School is in the Garden",
          "iframe_url": "",
          "iframe_poster": null,
          "release_ru": "2019-10-17",
          "release_world": "2019-10-16",
          "availability": "2019-10-18",
          "voiceActing": [
            "Anilibria"
          ],
          "ads": false,
          "subtitle": []
        },
        {
          "episode": 3,
          "name": "A Wolf Male is Born",
          "iframe_url": "",
          "iframe_poster": null,
          "release_ru": "2019-10-24",
          "release_world": "2019-10-23",
          "availability": "2019-10-25",
          "voiceActing": [
            "Anilibria"
          ],
          "ads": false,
          "subtitle": []
        },
        {
          "episode": 4,
          "name": "Let the Holy Grail Soak",
          "iframe_url": "",
          "iframe_poster": null,
          "release_ru": "2019-10-31",
          "release_world": "2019-10-30",
          "availability": "2019-11-01",
          "voiceActing": [
            "Anilibria"
          ],
          "ads": false,
          "subtitle": []
        },
        {
          "episode": 5,
          "name": "Two Sides to the Story",
          "iframe_url": "",
          "iframe_poster": null,
          "release_ru": "2019-11-07",
          "release_world": "2019-11-06",
          "availability": "2019-11-08",
          "voiceActing": [
            "Anilibria"
          ],
          "ads": false,
          "subtitle": []
        },
        {
          "episode": 6,
          "name": "Blurred Vision - Dream or Reality?",
          "iframe_url": "",
          "iframe_poster": null,
          "release_ru": "2019-11-14",
          "release_world": "2019-11-13",
          "availability": "2019-11-15",
          "voiceActing": [
            "Anilibria"
          ],
          "ads": false,
          "subtitle": []
        },
        {
          "episode": 7,
          "name": "Beneath the Fur Coat",
          "iframe_url": "",
          "iframe_poster": null,
          "release_ru": "2019-11-21",
          "release_world": "2019-11-20",
          "availability": "2019-11-22",
          "voiceActing": [
            "Anilibria"
          ],
          "ads": false,
          "subtitle": []
        },
        {
          "episode": 8,
          "name": "Like a Thread on the Canine",
          "iframe_url": "",
          "iframe_poster": null,
          "release_ru": "2019-11-28",
          "release_world": "2019-11-27",
          "availability": "2019-11-29",
          "voiceActing": [
            "Anilibria"
          ],
          "ads": false,
          "subtitle": []
        },
        {
          "episode": 9,
          "name": "Into the Lion's Den",
          "iframe_url": "",
          "iframe_poster": null,
          "release_ru": "2019-12-05",
          "release_world": "2019-12-04",
          "availability": "2019-12-06",
          "voiceActing": [
            "Anilibria"
          ],
          "ads": false,
          "subtitle": []
        },
        {
          "episode": 10,
          "name": "A Wolf in Sheep's Clothing",
          "iframe_url": "",
          "iframe_poster": null,
          "release_ru": "2019-12-12",
          "release_world": "2019-12-11",
          "availability": "2019-12-13",
          "voiceActing": [
            "Anilibria"
          ],
          "ads": false,
          "subtitle": []
        },
        {
          "episode": 11,
          "name": "To the Neon District",
          "iframe_url": "",
          "iframe_poster": null,
          "release_ru": "2019-12-19",
          "release_world": "2019-12-18",
          "availability": "2019-12-20",
          "voiceActing": [
            "Anilibria"
          ],
          "ads": false,
          "subtitle": []
        },
        {
          "episode": 12,
          "name": "In the Storm's Wake",
          "iframe_url": "",
          "iframe_poster": null,
          "release_ru": "2019-12-26",
          "release_world": "2019-12-25",
          "availability": "2019-12-27",
          "voiceActing": [
            "Anilibria"
          ],
          "ads": false,
          "subtitle": []
        }
      ]
    }
  ],
  "voiceActing": [
    "Anilibria"
  ],
  "subtitle": [],
  "parts": []
}
