{
  "id": 35170,
  "name": "Эхо",
  "name_eng": "Bergmál",
  "year": 2019,
  "slogan": "—",
  "age": null,
  "type": "film",
  "quality": "HD (720p)",
  "imdb": "7.1",
  "imdb_id": "9296808",
  "kinopoisk": "6.1",
  "kinopoisk_id": "1226814",
  "world_art": null,
  "world_art_id": null,
  "time": "79 мин. / 01:19",
  "ads": false,
  "premier": "2019-08-11",
  "premier_rus": "2019-08-12",
  "availability": "2019-08-13",
  "activate_time": "2020-07-10 15:46:00",
  "budget": "",
  "fees_use": "",
  "fees_world": "$16 191",
  "fees_rus": "",
  "rate_mpaa": "",
  "description": "Исландия, рождественская пора. Пока все готовятся к праздникам, страну пронизывает особая атмосфера, в которой предпраздничное возбуждение соседствует с беспокойством. В сельской глубинке горит заброшенная ферма. В школе детский хор поет рождественские песнопения. На птицебойне куры маршируют вдоль ограждения. В музее мать спорит с бывшим мужем по телефону. В гостиной девочка просит бабушку примерить ее новый шлем виртуальной реальности.",
  "iframe_url": "",
  "iframe_poster": null,
  "poster": "https://img.imgilall.me/movies/franchise/3/5/1/7/0/0/0/0/0/0/610x900_35170.jpg",
  "country": {
    "9": "Франция",
    "10": "Швейцария",
    "11": "Исландия"
  },
  "collection": [],
  "genre": {
    "7": "Драма"
  },
  "director": [
    "Рунар Рунарссон"
  ],
  "screenwriter": [
    "Рунар Рунарссон"
  ],
  "producer": [
    "Ливе Хидэ",
    "Рунар Рунарссон",
    "Лиля Оуск Сноррадоттир"
  ],
  "operator": [
    "Софи Олссон"
  ],
  "composer": [
    "Кьяртан Свейнссон"
  ],
  "design": [
    "Gus Olafsson",
    "Guðjón Hafþór Ólafsson",
    "Júlíanna Lára Steingrímsdóttir"
  ],
  "editor": [
    "Якоб Секер Шульзингер"
  ],
  "actors": [
    "Sigurmar Albertsson",
    "Bent Kingo Andersen",
    "Sif Arnarsdóttir",
    "Ari Arnarson",
    "Finnur Arnar Arnarson",
    "Árni Arnarson",
    "Gísli Már Arnarsson",
    "Jon Magnus Arnarsson",
    "Pétur Arnarsson",
    "Bragi Arnason"
  ],
  "actors_dubl": [],
  "trivia": [],
  "trailers": [],
  "seasons": [],
  "voiceActing": [
    "Рус. Проф. многоголосый"
  ],
  "subtitle": [],
  "parts": []
}
