{
  "id": 24799,
  "name": "Голосок",
  "name_eng": "Little Voice",
  "year": 2020,
  "slogan": "—",
  "age": null,
  "type": "series",
  "quality": "HD (720p)",
  "imdb": "7.2",
  "imdb_id": "8521376",
  "kinopoisk": null,
  "kinopoisk_id": "1291649",
  "world_art": null,
  "world_art_id": null,
  "time": "30 мин",
  "ads": false,
  "premier": "2020-07-10",
  "premier_rus": "2020-07-11",
  "availability": "2020-07-12",
  "serial_status": "offline",
  "activate_time": "2020-07-10 14:47:00",
  "budget": null,
  "fees_use": null,
  "fees_world": null,
  "fees_rus": null,
  "rate_mpaa": null,
  "description": "История талантливой певицы и автора песен из Нью-Йорка, идущей к своей мечте сквозь все трудности и преграды.",
  "iframe_url": "",
  "poster": "https://img.imgilall.me/movies/franchise/2/4/7/9/9/0/0/0/0/0/610x900_24799.jpg",
  "country": {
    "1": "США"
  },
  "collection": {
    "101": "Apple TV+"
  },
  "genre": {
    "19": "Комедия",
    "10": "Зарубежный",
    "7": "Драма"
  },
  "director": [
    "Джесси Нельсон",
    "Шерин Дабис",
    "Барт Фрейндлих"
  ],
  "screenwriter": [
    "Сара Барейллес",
    "Джесси Нельсон",
    "Джессика Ламур"
  ],
  "producer": [
    "Джей Джей Абрамс",
    "Сара Барейллес",
    "Брэд Карпентер"
  ],
  "operator": [
    "Патрик Капоне",
    "Джим Фрона"
  ],
  "composer": [
    "Сара Барейллес",
    "Tyler Chester",
    "Madison Cunningham"
  ],
  "design": [
    "Александра Шаллер",
    "Энди Эклунд",
    "Adrienne Carlile"
  ],
  "editor": [
    "Эрика Фрид",
    "Джона Моран",
    "Ванесса Прокопио"
  ],
  "actors": [
    "Бриттани О’Грэйди",
    "Шон Тил",
    "Колтон Райан",
    "Шалини Батина",
    "Кевин Вальдес",
    "Филлип Джонсон Ричардсон",
    "Эндрю М. Дафф",
    "Чак Купер",
    "Нед Эйзенберг",
    "Сакина Джэффри"
  ],
  "actors_dubl": [
    "Элиза Мартиросова",
    "Александр Арзин",
    "Антон Колесников",
    "Лина Иванова",
    "Сергей Анненков"
  ],
  "trivia": [],
  "trailers": [
    {
      "name": "трейлер №1",
      "number": 1,
      "iframe_poster": null,
      "season": 1,
      "iframe_url": ""
    }
  ],
  "seasons": [
    {
      "poster": null,
      "release_ru": "2020-07-11",
      "release_world": "2020-07-10",
      "availability": "2020-07-12",
      "iframe_url": "",
      "season": 1,
      "episodes": [
        {
          "episode": 1,
          "name": "TBA",
          "iframe_url": "",
          "iframe_poster": null,
          "release_ru": "2020-07-11",
          "release_world": "2020-07-10",
          "availability": "2020-07-12",
          "voiceActing": [
            "TVShows"
          ],
          "ads": false,
          "subtitle": []
        },
        {
          "episode": 2,
          "name": "I Will Survive",
          "iframe_url": "",
          "iframe_poster": null,
          "release_ru": "2020-07-11",
          "release_world": "2020-07-10",
          "availability": "2020-07-12",
          "voiceActing": [
            "TVShows"
          ],
          "ads": false,
          "subtitle": []
        },
        {
          "episode": 3,
          "name": "Dear Hope",
          "iframe_url": "",
          "iframe_poster": null,
          "release_ru": "2020-07-11",
          "release_world": "2020-07-10",
          "availability": "2020-07-12",
          "voiceActing": [
            "TVShows"
          ],
          "ads": false,
          "subtitle": []
        },
        {
          "episode": 4,
          "name": "Love Hurts",
          "iframe_url": "",
          "iframe_poster": null,
          "release_ru": "2020-07-18",
          "release_world": "2020-07-17",
          "availability": "2020-07-19",
          "voiceActing": [
            "TVShows"
          ],
          "ads": false,
          "subtitle": []
        },
        {
          "episode": 5,
          "name": null,
          "iframe_url": "",
          "iframe_poster": null,
          "release_ru": "2020-07-25",
          "release_world": "2020-07-24",
          "availability": "2020-07-26",
          "voiceActing": [
            "TVShows"
          ],
          "ads": false,
          "subtitle": []
        },
        {
          "episode": 6,
          "name": null,
          "iframe_url": "",
          "iframe_poster": null,
          "release_ru": "2020-08-01",
          "release_world": "2020-07-31",
          "availability": "2020-08-02",
          "voiceActing": [
            "TVShows"
          ],
          "ads": false,
          "subtitle": []
        },
        {
          "episode": 7,
          "name": null,
          "iframe_url": "",
          "iframe_poster": null,
          "release_ru": "2020-08-08",
          "release_world": "2020-08-07",
          "availability": "2020-08-09",
          "voiceActing": [
            "TVShows"
          ],
          "ads": false,
          "subtitle": []
        },
        {
          "episode": 8,
          "name": null,
          "iframe_url": "",
          "iframe_poster": null,
          "release_ru": "2020-08-15",
          "release_world": "2020-08-14",
          "availability": "2020-08-16",
          "voiceActing": [
            "TVShows"
          ],
          "ads": false,
          "subtitle": []
        },
        {
          "episode": 9,
          "name": "Sing What I Can&#039;t Say",
          "iframe_url": "",
          "iframe_poster": null,
          "release_ru": "2020-08-22",
          "release_world": "2020-08-21",
          "availability": "2020-08-22",
          "voiceActing": [
            "TVShows"
          ],
          "ads": false,
          "subtitle": []
        }
      ]
    }
  ],
  "voiceActing": [
    "TVShows"
  ],
  "subtitle": [],
  "parts": []
}
