{
  "id": 5779,
  "name": "Благослови этот бардак",
  "name_eng": "Bless This Mess",
  "year": 2019,
  "slogan": null,
  "age": "16+",
  "type": "series",
  "quality": "FHD (1080p)",
  "imdb": "6.8",
  "imdb_id": "9418572",
  "kinopoisk": "5.9",
  "kinopoisk_id": "1219414",
  "world_art": null,
  "world_art_id": null,
  "time": "30 мин.",
  "ads": false,
  "premier": "2019-04-16",
  "premier_rus": "2019-04-17",
  "availability": "2019-04-17",
  "serial_status": "offline",
  "activate_time": "2019-01-30 16:47:10",
  "budget": null,
  "fees_use": null,
  "fees_world": null,
  "fees_rus": null,
  "rate_mpaa": null,
  "description": "Совсем недавно сыгравшие свадьбу Рио и Майк решают выбраться из шумного мегаполиса, чтобы пожить спокойной, тихой и куда более простой жизнью где-нибудь в глубинке. Однако добравшись до своего фермерского домика в Небраске, новобрачные осознают, что их представления о сельской идиллии совершенно не совпадают с реальностью.",
  "iframe_url": "",
  "poster": "https://img.imgilall.me/movies/franchise/5/7/7/9/0/0/0/0/0/0/610x900_5779.jpg",
  "country": {
    "1": "США"
  },
  "collection": {
    "4": "Ситкомы"
  },
  "genre": {
    "19": "Комедия",
    "10": "Зарубежный"
  },
  "director": [
    "Молли МакГлинн",
    "Кен Уиттингэм",
    "Аня Адамс"
  ],
  "screenwriter": [
    "Лэйк Белл",
    "Элизабет Меривезер",
    "Chelsea Devantez"
  ],
  "producer": [
    "Доминик Диркес",
    "Allan Tran",
    "Меган Маскена Гаспар"
  ],
  "operator": [
    "Кевин Эткинсон",
    "Джейсон Олдак",
    "Блейк МакКлюр"
  ],
  "composer": [
    "Бен Дектер"
  ],
  "design": [
    "Мелани Джонс",
    "Меган Фентон",
    "Хантер Браун"
  ],
  "editor": [
    "Эл Ливайн",
    "Тони Орсена",
    "Рути Аслан"
  ],
  "actors": [
    "Дэкс Шепард",
    "Лэйк Белл",
    "Дэвид Кокнер",
    "ДжиТи Нил",
    "Леннон Парэм",
    "Пэм Гриер",
    "Эд Бегли мл.",
    "Лэнгстон Керман",
    "Лиза Линке",
    "Нэнси Ленехан"
  ],
  "actors_dubl": [],
  "trivia": [],
  "trailers": [
    {
      "name": "трейлер №1",
      "number": 1,
      "iframe_poster": "https://img.imgilall.me/movies/trailer/3/8/5/0/0/0/0/0/0/0/800x450_385.jpeg",
      "season": 1,
      "iframe_url": ""
    },
    {
      "name": "трейлер №1",
      "number": 1,
      "iframe_poster": "https://img.imgilall.me/movies/trailer/8/7/8/0/0/0/0/0/0/0/800x450_878.jpeg",
      "season": 2,
      "iframe_url": ""
    }
  ],
  "seasons": [
    {
      "poster": "https://img.imgilall.me/movies/season/3/3/9/0/0/0/0/0/0/0/610x900_3390.jpg",
      "release_ru": "2019-04-17",
      "release_world": "2019-04-16",
      "availability": "2019-04-18",
      "iframe_url": "",
      "season": 1,
      "episodes": [
        {
          "episode": 1,
          "name": "Pilot",
          "iframe_url": "",
          "iframe_poster": "https://img.imgilall.me/movies/video/1/0/0/2/7/6/0/0/0/0/800x450_100276.jpeg",
          "release_ru": "2019-04-17",
          "release_world": "2019-04-16",
          "availability": "2019-04-18",
          "voiceActing": [
            "TVShows",
            "Eng.Original"
          ],
          "ads": false,
          "subtitle": []
        },
        {
          "episode": 2,
          "name": "The Chicken and the Goat",
          "iframe_url": "",
          "iframe_poster": "https://img.imgilall.me/movies/video/1/0/0/2/7/7/0/0/0/0/800x450_100277.jpeg",
          "release_ru": "2019-04-24",
          "release_world": "2019-04-23",
          "availability": "2019-04-25",
          "voiceActing": [
            "TVShows",
            "Eng.Original"
          ],
          "ads": false,
          "subtitle": []
        },
        {
          "episode": 3,
          "name": "The Return of Short Shorts",
          "iframe_url": "",
          "iframe_poster": "https://img.imgilall.me/movies/video/1/0/0/2/7/8/0/0/0/0/800x450_100278.jpeg",
          "release_ru": "2019-05-01",
          "release_world": "2019-04-30",
          "availability": "2019-05-02",
          "voiceActing": [
            "TVShows",
            "Eng.Original"
          ],
          "ads": false,
          "subtitle": []
        },
        {
          "episode": 4,
          "name": "Predators",
          "iframe_url": "",
          "iframe_poster": "https://img.imgilall.me/movies/video/1/0/0/2/7/9/0/0/0/0/800x450_100279.jpeg",
          "release_ru": "2019-05-08",
          "release_world": "2019-05-07",
          "availability": "2019-05-09",
          "voiceActing": [
            "TVShows",
            "Eng.Original"
          ],
          "ads": false,
          "subtitle": []
        },
        {
          "episode": 5,
          "name": "In Hot Water",
          "iframe_url": "",
          "iframe_poster": "https://img.imgilall.me/movies/video/1/0/0/2/8/0/0/0/0/0/800x450_100280.jpeg",
          "release_ru": "2019-05-15",
          "release_world": "2019-05-14",
          "availability": "2019-05-16",
          "voiceActing": [
            "TVShows",
            "Eng.Original"
          ],
          "ads": false,
          "subtitle": []
        },
        {
          "episode": 6,
          "name": "The Estonian Method",
          "iframe_url": "",
          "iframe_poster": "https://img.imgilall.me/movies/video/1/0/0/2/8/1/0/0/0/0/800x450_100281.jpeg",
          "release_ru": "2019-05-22",
          "release_world": "2019-05-21",
          "availability": "2019-05-23",
          "voiceActing": [
            "TVShows",
            "Eng.Original"
          ],
          "ads": false,
          "subtitle": []
        }
      ]
    },
    {
      "poster": null,
      "release_ru": "2019-09-25",
      "release_world": "2019-09-24",
      "availability": "2019-09-26",
      "iframe_url": "",
      "season": 2,
      "episodes": [
        {
          "episode": 1,
          "name": "459",
          "iframe_url": "",
          "iframe_poster": null,
          "release_ru": "2019-09-25",
          "release_world": "2019-09-24",
          "availability": "2019-09-26",
          "voiceActing": [
            "TVShows",
            "Eng.Original"
          ],
          "ads": false,
          "subtitle": []
        },
        {
          "episode": 2,
          "name": "Phase Two",
          "iframe_url": "",
          "iframe_poster": null,
          "release_ru": "2019-10-02",
          "release_world": "2019-10-01",
          "availability": "2019-10-03",
          "voiceActing": [
            "TVShows",
            "Eng.Original"
          ],
          "ads": false,
          "subtitle": []
        },
        {
          "episode": 3,
          "name": "Omaha",
          "iframe_url": "",
          "iframe_poster": null,
          "release_ru": "2019-10-08",
          "release_world": "2019-10-08",
          "availability": "2019-10-09",
          "voiceActing": [
            "TVShows",
            "Eng.Original"
          ],
          "ads": false,
          "subtitle": []
        },
        {
          "episode": 4,
          "name": "Bang for Your Buck",
          "iframe_url": "",
          "iframe_poster": null,
          "release_ru": "2019-10-15",
          "release_world": "2019-10-15",
          "availability": "2019-10-16",
          "voiceActing": [
            "TVShows",
            "Eng.Original"
          ],
          "ads": false,
          "subtitle": []
        },
        {
          "episode": 5,
          "name": "Scare Night",
          "iframe_url": "",
          "iframe_poster": null,
          "release_ru": "2019-10-29",
          "release_world": "2019-10-29",
          "availability": "2019-10-30",
          "voiceActing": [
            "TVShows",
            "Eng.Original"
          ],
          "ads": false,
          "subtitle": []
        },
        {
          "episode": 6,
          "name": "The Visit",
          "iframe_url": "",
          "iframe_poster": null,
          "release_ru": "2019-11-13",
          "release_world": "2019-11-12",
          "availability": "2019-11-14",
          "voiceActing": [
            "TVShows",
            "Eng.Original"
          ],
          "ads": false,
          "subtitle": []
        },
        {
          "episode": 7,
          "name": "Six Out of Six",
          "iframe_url": "",
          "iframe_poster": null,
          "release_ru": "2019-11-20",
          "release_world": "2019-11-19",
          "availability": "2019-11-21",
          "voiceActing": [
            "TVShows",
            "Eng.Original"
          ],
          "ads": false,
          "subtitle": []
        },
        {
          "episode": 8,
          "name": "The Grisham Gals",
          "iframe_url": "",
          "iframe_poster": null,
          "release_ru": "2019-11-27",
          "release_world": "2019-11-26",
          "availability": "2019-11-28",
          "voiceActing": [
            "TVShows",
            "Eng.Original"
          ],
          "ads": false,
          "subtitle": []
        },
        {
          "episode": 9,
          "name": "Goose Glazing Time",
          "iframe_url": "",
          "iframe_poster": null,
          "release_ru": "2019-12-11",
          "release_world": "2019-12-10",
          "availability": "2019-12-12",
          "voiceActing": [
            "TVShows",
            "Eng.Original"
          ],
          "ads": false,
          "subtitle": []
        },
        {
          "episode": 10,
          "name": "Bad Seed",
          "iframe_url": "",
          "iframe_poster": null,
          "release_ru": "2020-01-22",
          "release_world": "2020-01-21",
          "availability": "2020-01-23",
          "voiceActing": [
            "TVShows",
            "Eng.Original"
          ],
          "ads": false,
          "subtitle": []
        },
        {
          "episode": 11,
          "name": "The Letter of the Law",
          "iframe_url": "",
          "iframe_poster": null,
          "release_ru": "2020-01-29",
          "release_world": "2020-01-28",
          "availability": "2020-01-30",
          "voiceActing": [
            "TVShows",
            "Eng.Original"
          ],
          "ads": false,
          "subtitle": []
        },
        {
          "episode": 12,
          "name": "Bunker Down",
          "iframe_url": "",
          "iframe_poster": null,
          "release_ru": "2020-02-12",
          "release_world": "2020-02-11",
          "availability": "2020-02-13",
          "voiceActing": [
            "TVShows",
            "Eng.Original"
          ],
          "ads": false,
          "subtitle": []
        },
        {
          "episode": 13,
          "name": "Calm Down",
          "iframe_url": "",
          "iframe_poster": null,
          "release_ru": "2020-02-19",
          "release_world": "2020-02-18",
          "availability": "2020-02-20",
          "voiceActing": [
            "TVShows",
            "Eng.Original"
          ],
          "ads": false,
          "subtitle": []
        },
        {
          "episode": 14,
          "name": "Völsung and the Beef Boy",
          "iframe_url": "",
          "iframe_poster": null,
          "release_ru": "2020-02-26",
          "release_world": "2020-02-25",
          "availability": "2020-02-27",
          "voiceActing": [
            "TVShows",
            "Eng.Original"
          ],
          "ads": false,
          "subtitle": []
        },
        {
          "episode": 15,
          "name": "Pastor Paul",
          "iframe_url": "",
          "iframe_poster": null,
          "release_ru": "2020-03-18",
          "release_world": "2020-03-17",
          "availability": "2020-03-19",
          "voiceActing": [
            "TVShows",
            "Eng.Original"
          ],
          "ads": false,
          "subtitle": [
            "Eng. Full"
          ]
        },
        {
          "episode": 16,
          "name": "Knuckles",
          "iframe_url": "",
          "iframe_poster": null,
          "release_ru": "2020-03-25",
          "release_world": "2020-03-24",
          "availability": "2020-03-26",
          "voiceActing": [
            "TVShows",
            "Eng.Original"
          ],
          "ads": false,
          "subtitle": [
            "Eng. Full"
          ]
        },
        {
          "episode": 17,
          "name": "After-Prom",
          "iframe_url": "",
          "iframe_poster": null,
          "release_ru": null,
          "release_world": null,
          "availability": null,
          "voiceActing": [
            "TVShows",
            "Eng.Original"
          ],
          "ads": false,
          "subtitle": [
            "Eng. Full"
          ]
        },
        {
          "episode": 18,
          "name": "The Table",
          "iframe_url": "",
          "iframe_poster": null,
          "release_ru": null,
          "release_world": null,
          "availability": null,
          "voiceActing": [
            "TVShows",
            "Eng.Original"
          ],
          "ads": false,
          "subtitle": [
            "Eng. Full"
          ]
        },
        {
          "episode": 20,
          "name": "Tornado Season: Part Two",
          "iframe_url": null,
          "iframe_poster": null,
          "release_ru": "2020-05-06",
          "release_world": "2020-05-05",
          "availability": "2020-05-06",
          "voiceActing": []
        }
      ]
    }
  ],
  "voiceActing": [
    "TVShows",
    "Eng.Original"
  ],
  "subtitle": [
    "Eng. Full"
  ],
  "parts": []
}
