{
  "id": 7185,
  "name": "Налёт Грэйхаундов",
  "name_eng": "Greyhound Attack",
  "year": 2019,
  "slogan": "«In the skies above, the war will be won»",
  "age": "12+",
  "type": "film",
  "quality": "HD (720p)",
  "imdb": "1.2",
  "imdb_id": "9685652",
  "kinopoisk": null,
  "kinopoisk_id": "1237800",
  "world_art": null,
  "world_art_id": null,
  "time": "80 мин. / 01:20",
  "ads": true,
  "premier": "2019-04-09",
  "premier_rus": null,
  "availability": null,
  "activate_time": "2019-03-29 14:47:48",
  "budget": "",
  "fees_use": "",
  "fees_world": "",
  "fees_rus": "",
  "rate_mpaa": "",
  "description": "В последние дни Второй мировой войны авиация союзников начинает встречать в небе странные немецкие ракетопланы и гиперзвуковые ракеты. Командование, напуганное перспективой потерять преимущество в небе, ставит перед лётчиками практически невозможную задачу: установить местонахождение завода по производству летательных аппаратов и уничтожить его.\r\n",
  "iframe_url": "",
  "iframe_poster": "https://img.imgilall.me/movies/video/1/1/7/4/4/9/0/0/0/0/800x450_117449.jpeg",
  "poster": "https://img.imgilall.me/movies/franchise/7/1/8/5/0/0/0/0/0/0/610x900_7185.jpg",
  "country": {
    "1": "США"
  },
  "collection": [],
  "genre": {
    "28": "Исторический",
    "10": "Зарубежный"
  },
  "director": [
    "Кристофер Форбс"
  ],
  "screenwriter": [
    "Кристофер Форбс"
  ],
  "producer": [
    "Кристофер Форбс",
    "Стюарт Элсон",
    "Брэд Оуэнс"
  ],
  "operator": [
    "Adam Facey",
    "Кристофер Форбс",
    "Warren Whitlock"
  ],
  "composer": [
    "Shawn Ames",
    "Кристофер Форбс"
  ],
  "design": [
    "Дэн Бек",
    "Emily Forbes",
    "Келли Форбс"
  ],
  "editor": [
    "Кристофер Форбс"
  ],
  "actors": [
    "Брэд Оуэнс",
    "Скотти Спаркс",
    "Bob Young",
    "Christopher Brophy",
    "Уильям Вайли",
    "Ronald Blanton",
    "Joseph Zuchowski",
    "Jezibell Anat",
    "Эрик Миллер",
    "Charlie Gabel"
  ],
  "actors_dubl": [],
  "trivia": [],
  "trailers": [],
  "seasons": [],
  "voiceActing": [
    "Рус. Люб. многоголосый"
  ],
  "subtitle": [],
  "parts": []
}
