{
  "id": 50516,
  "name": "Пересохшая река",
  "name_eng": "Gunfight at Dry River",
  "year": 2021,
  "slogan": "«Love is a thirst worth dying for»",
  "age": null,
  "type": "film",
  "quality": "FHD (1080p)",
  "imdb": null,
  "imdb_id": "9168164",
  "kinopoisk": null,
  "kinopoisk_id": "1266143",
  "world_art": null,
  "world_art_id": null,
  "time": "101 мин. / 01:41",
  "ads": true,
  "premier": "2021-09-10",
  "premier_rus": "2021-09-11",
  "availability": "2021-09-12",
  "activate_time": "2021-09-12 16:18:00",
  "budget": null,
  "fees_use": null,
  "fees_world": null,
  "fees_rus": null,
  "rate_mpaa": null,
  "description": null,
  "iframe_url": "",
  "iframe_poster": null,
  "poster": "https://img.imgilall.me/movies/franchise/5/0/5/1/6/0/0/0/0/0/610x900_50516.jpg",
  "country": {
    "2": "Великобритания"
  },
  "collection": [],
  "genre": {
    "29": "Вестерн",
    "13": "Триллер",
    "8": "Мелодрама",
    "7": "Драма"
  },
  "director": [
    "Дэниэл Симпсон"
  ],
  "screenwriter": [
    "Fe Valen"
  ],
  "producer": [
    "Саймон Фоусет",
    "Дэниэл Симпсон",
    "Nick Woolgar"
  ],
  "operator": [
    "Дэннис Мэдден"
  ],
  "composer": [
    "Джейсон Купер",
    "Оливер Краус"
  ],
  "design": [
    "Adam Cutts"
  ],
  "editor": [
    "Дэниэл Симпсон"
  ],
  "actors": [
    "Чарли Крид-Майлз",
    "Майкл Мориарти",
    "Энн Митчелл",
    "Джошуа Дикинсон",
    "Питер Косгров",
    "Морган Симес",
    "Дэнни Шейлер",
    "Isabella Walker",
    "Fabricio Christian Amansi",
    "Nelson Maller Flores"
  ],
  "actors_dubl": [],
  "trivia": [],
  "trailers": [],
  "seasons": [],
  "voiceActing": [
    "@MUZOBOZ@"
  ],
  "subtitle": [],
  "parts": []
}
