{
  "id": 10221,
  "name": "Космические Ниндзя",
  "name_eng": "Space Ninjas",
  "year": 2019,
  "slogan": "«Detention Just Became Survival»",
  "age": "16+",
  "type": "film",
  "quality": "HD (720p)",
  "imdb": "3.8",
  "imdb_id": "10613572",
  "kinopoisk": null,
  "kinopoisk_id": "1283699",
  "world_art": null,
  "world_art_id": null,
  "time": "91 мин. / 01:31",
  "ads": true,
  "premier": "2019-07-01",
  "premier_rus": "2019-07-02",
  "availability": "2019-07-03",
  "activate_time": "2019-09-10 15:21:00",
  "budget": "",
  "fees_use": "",
  "fees_world": "",
  "fees_rus": "",
  "rate_mpaa": "",
  "description": "Пятерых учеников в наказание за проступки заставили прийти в школу в субботу. Скейтерша Стэнли, ботаник Зак, самая популярная девочка школы Тэмми, студентка по обмену из Японии Кейко и спортсмен Омар должны были прослушать специальную лекцию о том, как им следует вести себя в учебном заведении. Стэнли опаздывает на эту встречу, так как решает немного пообщаться с эксцентричным учителем естественных наук профессором Розенкранцем. Когда она входит в класс с провинившимися, заместитель директора делает ей выговор, а затем покидает помещение, чтобы оставить всех подумать о своих проступках. А спустя некоторое время на школу нападают ниндзя-инопланетяне...",
  "iframe_url": "",
  "iframe_poster": "https://img.imgilall.me/movies/video/1/0/7/4/8/3/0/0/0/0/800x450_107483.jpeg",
  "poster": "https://img.imgilall.me/movies/franchise/1/0/2/2/1/0/0/0/0/0/610x900_10221.jpg",
  "country": {
    "2": "Великобритания"
  },
  "collection": [],
  "genre": {
    "19": "Комедия",
    "10": "Зарубежный"
  },
  "director": [
    "Scott McQuaid"
  ],
  "screenwriter": [
    "Scott McQuaid"
  ],
  "producer": [
    "Мумтаз Йылдырымлар"
  ],
  "operator": [
    "Ganesh Venugopal"
  ],
  "composer": [
    "Ambrose Ling"
  ],
  "design": [],
  "editor": [],
  "actors": [
    "Amirul Afiq Bin Amri",
    "Miles Amundsen",
    "Дирк Бенедикт",
    "Джон Т. Бенн",
    "Ed Chard",
    "Razif Hashim",
    "Годфри Хо",
    "Yi Jane",
    "Nuha Jes",
    "Jay Mago"
  ],
  "actors_dubl": [],
  "trivia": [],
  "trailers": [],
  "seasons": [],
  "voiceActing": [
    "Рус. Люб. многоголосый"
  ],
  "subtitle": [],
  "parts": []
}
