{
  "id": 23328,
  "name": "Камий",
  "name_eng": "Camille",
  "year": 2019,
  "slogan": "—",
  "age": null,
  "type": "film",
  "quality": "FHD (1080p)",
  "imdb": "6.7",
  "imdb_id": "9678892",
  "kinopoisk": null,
  "kinopoisk_id": "1239575",
  "world_art": null,
  "world_art_id": null,
  "time": "90 мин. / 01:30",
  "ads": true,
  "premier": "2019-08-13",
  "premier_rus": "2019-08-14",
  "availability": "2019-08-15",
  "activate_time": "2020-06-12 22:52:00",
  "budget": null,
  "fees_use": null,
  "fees_world": null,
  "fees_rus": null,
  "rate_mpaa": null,
  "description": "История Камиль Лепаж – французской фотожурналистки, которая поехала освещать гражданскую войну в Центральноафриканской Республике.",
  "iframe_url": "",
  "iframe_poster": null,
  "poster": "https://img.imgilall.me/movies/franchise/2/3/3/2/8/0/0/0/0/0/610x900_23328.jpg",
  "country": {
    "9": "Франция"
  },
  "collection": {
    "78": "Биографии",
    "39": "На реальных событиях"
  },
  "genre": {
    "27": "Биографический",
    "10": "Зарубежный",
    "7": "Драма"
  },
  "director": [
    "Борис Ложкин"
  ],
  "screenwriter": [
    "Борис Ложкин",
    "Божина Панайотова"
  ],
  "producer": [
    "Бруно Наон",
    "Olivier Colin",
    "Каролин Натаф"
  ],
  "operator": [
    "Elin Kirschfink"
  ],
  "composer": [
    "Эрик Бенц"
  ],
  "design": [
    "Жан Андерсен"
  ],
  "editor": [
    "Xavier Sirven"
  ],
  "actors": [
    "Нина Мерисс",
    "Fiacre Bindala",
    "Бруно Тодескини",
    "Грегуар Колен",
    "Огустен Легран",
    "Michel Zumstein",
    "Ousnabée Zounoua",
    "Abdouraouf Diallo",
    "Rafiki Fariala",
    "Мирей Перье"
  ],
  "actors_dubl": [],
  "trivia": [],
  "trailers": [],
  "seasons": [],
  "voiceActing": [
    "Рус. Люб. многоголосый"
  ],
  "subtitle": [],
  "parts": []
}
