{
  "id": 49010,
  "name": "Камелот - Часть первая",
  "name_eng": "Kaamelott - Premier volet",
  "year": 2021,
  "slogan": "—",
  "age": null,
  "type": "film",
  "quality": "FHD (1080p)",
  "imdb": "7.0",
  "imdb_id": "9844322",
  "kinopoisk": null,
  "kinopoisk_id": "1246017",
  "world_art": null,
  "world_art_id": null,
  "time": "120 мин. / 02:00",
  "ads": true,
  "premier": "2021-07-21",
  "premier_rus": "2021-07-22",
  "availability": "2021-07-23",
  "activate_time": "2021-07-29 00:54:00",
  "budget": null,
  "fees_use": "$188 000",
  "fees_world": "+ $21 753 166 = $21 941 166",
  "fees_rus": null,
  "rate_mpaa": null,
  "description": "Спрятавшись в Риме, король Артур планирует свое возвращение, чтобы противостоять армии своего бывшего друга Ланселота.",
  "iframe_url": "",
  "iframe_poster": null,
  "poster": "https://img.imgilall.me/movies/franchise/4/9/0/1/0/0/0/0/0/0/610x900_49010.jpg",
  "country": {
    "9": "Франция",
    "29": "Бельгия"
  },
  "collection": [],
  "genre": {
    "9": "Приключения",
    "6": "Фэнтези",
    "19": "Комедия"
  },
  "director": [
    "Александр Астье"
  ],
  "screenwriter": [
    "Александр Астье"
  ],
  "producer": [
    "Александр Астье",
    "Агат Софер",
    "Энри Денебур"
  ],
  "operator": [
    "Жан-Мари Дрюжо"
  ],
  "composer": [
    "Александр Астье"
  ],
  "design": [
    "Дени Сиглан",
    "Марилин Фетусси"
  ],
  "editor": [],
  "actors": [
    "Александр Астье",
    "Лионель Астье",
    "Антуан де Кон",
    "Ален Шаба",
    "Кристиан Клавье",
    "Кловис Корнийяк",
    "Томас Куссо",
    "Гийом Гальенн",
    "Энн Жирар",
    "Жан-Кристоф Эмбер"
  ],
  "actors_dubl": [],
  "trivia": [],
  "trailers": [],
  "seasons": [],
  "voiceActing": [
    "@MUZOBOZ@"
  ],
  "subtitle": [],
  "parts": []
}
