{
  "id": 15343,
  "name": "Чернобыль: Бездна",
  "name_eng": "",
  "year": 2020,
  "slogan": "—",
  "age": "12+",
  "type": "film",
  "quality": "FHD (1080p)",
  "imdb": "5.0",
  "imdb_id": "0",
  "kinopoisk": "5.2",
  "kinopoisk_id": "1249198",
  "world_art": null,
  "world_art_id": null,
  "time": "136 мин. / 02:16",
  "ads": false,
  "premier": "2021-04-15",
  "premier_rus": "2020-10-08",
  "availability": "2020-10-09",
  "activate_time": "2020-02-12 11:06:00",
  "budget": "₽ 689 000 000",
  "fees_use": null,
  "fees_world": "$5 538 706",
  "fees_rus": "$5 414 081",
  "rate_mpaa": null,
  "description": "Алексей Карпушин — обычный молодой советский парень, пожарный в Припяти, который впервые начинает строить планы длиннее, чем на выходные или отпуск — он влюбляется в парикмахера Олю. В прошлом у них уже были отношения, но тогда Алексей упустил свой шанс. Теперь у Оли есть маленький сын Леша, но Алексей намерен никогда больше не повторять прежних ошибок: он признается Оле в своих чувствах, и все вместе они планируют переехать к морю.Авария на Чернобыльской АЭС ставит под угрозу мечту Алексея и жизни всех тех, кто ему дорог. Взрыв реактора грозит смертью не только тысячам людей, оказавшихся в зоне радиационного поражения: возможен второй взрыв, катастрофические последствия которого могут быть несоизмеримо больше. Алексей отправляется тушить пожар, а затем погружается под ядерный реактор, чтобы выпустить воду из резервуара и тем самым предотвратить еще один мощный взрыв.",
  "iframe_url": "",
  "iframe_poster": null,
  "poster": "https://img.imgilall.me/movies/franchise/1/5/3/4/3/0/0/0/0/0/610x900_15343.jpg",
  "country": {
    "5": "Россия"
  },
  "collection": {
    "7": "Фильмы-катастрофы",
    "39": "На реальных событиях"
  },
  "genre": {
    "28": "Исторический",
    "7": "Драма"
  },
  "director": [
    "Данила Козловский"
  ],
  "screenwriter": [
    "Алексей Казаков",
    "Елена Иванова"
  ],
  "producer": [
    "Александр Роднянский",
    "Сергей Мелькумов",
    "Данила Козловский"
  ],
  "operator": [
    "Ксения Середа"
  ],
  "composer": [
    "Олег Карпачев"
  ],
  "design": [
    "Тимур Шагиахмедов",
    "Варя Авдюшко"
  ],
  "editor": [
    "Мария Лихачева"
  ],
  "actors": [
    "Данила Козловский",
    "Филипп Авдеев",
    "Оксана Акиньшина",
    "Николай Козак",
    "Равшана Куркова",
    "Игорь Черневич",
    "Петр Терещенко",
    "Артур Бесчастный",
    "Андрей Арчаков",
    "Самвел Тадевосян"
  ],
  "actors_dubl": [],
  "trivia": [],
  "trailers": [
    {
      "name": "трейлер №1",
      "number": 1,
      "iframe_poster": null,
      "season": null,
      "iframe_url": ""
    }
  ],
  "seasons": [],
  "voiceActing": [
    "Рус. Оригинальный"
  ],
  "subtitle": [],
  "parts": []
}
