{
  "id": 41620,
  "name": "Meeting All Existence",
  "name_eng": "",
  "year": 2019,
  "slogan": "—",
  "age": null,
  "type": "film",
  "quality": "HD (720p)",
  "imdb": null,
  "imdb_id": "9668542",
  "kinopoisk": null,
  "kinopoisk_id": "1297542",
  "world_art": null,
  "world_art_id": null,
  "time": "80 мин. / 01:20",
  "ads": false,
  "premier": "2019-11-01",
  "premier_rus": "2019-11-02",
  "availability": "2019-11-03",
  "activate_time": "2020-11-10 12:52:00",
  "budget": null,
  "fees_use": null,
  "fees_world": null,
  "fees_rus": null,
  "rate_mpaa": null,
  "description": null,
  "iframe_url": "",
  "iframe_poster": null,
  "poster": "https://img.imgilall.me/movies/franchise/4/1/6/2/0/0/0/0/0/0/610x900_41620.jpg",
  "country": {
    "1": "США"
  },
  "collection": [],
  "genre": {
    "19": "Комедия"
  },
  "director": [
    "Efrain Flores"
  ],
  "screenwriter": [
    "Efrain Flores"
  ],
  "producer": [
    "Eduardo Cervantez",
    "Efrain Flores"
  ],
  "operator": [],
  "composer": [],
  "design": [],
  "editor": [],
  "actors": [
    "Michael Bukraba",
    "Eduardo Cervantez",
    "Efrain Flores",
    "Kourtney Queer"
  ],
  "actors_dubl": [],
  "trivia": [],
  "trailers": [],
  "seasons": [],
  "voiceActing": [
    "Рус. Люб. многоголосый"
  ],
  "subtitle": [],
  "parts": []
}
