{
  "id": 45883,
  "name": "Жестокое лето",
  "name_eng": "Cruel Summer",
  "year": 2021,
  "slogan": "—",
  "age": null,
  "type": "series",
  "quality": "FHD (1080p)",
  "imdb": "7.5",
  "imdb_id": "11083696",
  "kinopoisk": "6.7",
  "kinopoisk_id": "1320789",
  "world_art": null,
  "world_art_id": null,
  "time": "45 мин",
  "ads": false,
  "premier": "2021-04-20",
  "premier_rus": "2021-04-21",
  "availability": "2021-04-22",
  "serial_status": "offline",
  "activate_time": "2021-04-21 09:57:00",
  "budget": null,
  "fees_use": null,
  "fees_world": null,
  "fees_rus": null,
  "rate_mpaa": null,
  "description": "1993 год. В небольшом техасском городке неожиданно исчезает красивая и популярная девушка Кейт. Но очень скоро ее место занимает Жанетт, которая из застенчивой особы быстро превращается в местную звезду. Однако всего через 2 года она станет самым презираемым человеком в Америке.",
  "iframe_url": "",
  "poster": "https://img.imgilall.me/movies/franchise/4/5/8/8/3/0/0/0/0/0/610x900_45883.jpg",
  "country": {
    "1": "США"
  },
  "collection": [],
  "genre": {
    "24": "Детектив",
    "13": "Триллер",
    "7": "Драма"
  },
  "director": [
    "Келли Сайрус",
    "Алексис О. Коричински",
    "Уильям Перпл"
  ],
  "screenwriter": [
    "Имоджен Бинни",
    "Берт В. Ройал",
    "Brian Otano"
  ],
  "producer": [
    "Джессика Бил",
    "Тиа Наполитано",
    "Мишель Гласс"
  ],
  "operator": [
    "Джэйсон Кроверс"
  ],
  "composer": [
    "Лиза Коулмэн",
    "Уэнди Мелвойн"
  ],
  "design": [
    "Райан Палмер",
    "Дэниэл Турк",
    "Танея Ледники"
  ],
  "editor": [
    "Меридит Соммерс",
    "Джефф Израэль",
    "Дэмиен Смит"
  ],
  "actors": [
    "Оливия Холт",
    "Кьяра Аурелия",
    "Фрой Гутьеррез",
    "Харли Куинн Смит",
    "Майкл Лэндис",
    "Андреа Андерс",
    "Бенжамин Дж. Кэйн мл.",
    "Блейк Ли",
    "Аллиус Барнс",
    "Натаниэль Эштон"
  ],
  "actors_dubl": [],
  "trivia": [],
  "trailers": [],
  "seasons": [
    {
      "poster": null,
      "release_ru": "2021-04-21",
      "release_world": "2021-04-20",
      "availability": "2021-04-22",
      "iframe_url": "",
      "season": 1,
      "episodes": [
        {
          "episode": 1,
          "name": "Happy Birthday Jeanette Turner",
          "iframe_url": "",
          "iframe_poster": null,
          "release_ru": "2021-04-21",
          "release_world": "2021-04-20",
          "availability": "2021-04-22",
          "voiceActing": [
            "JASKIER",
            "HDRezka Studio",
            "Eng.Original"
          ],
          "ads": false,
          "subtitle": [
            "Рус. форсированные"
          ]
        },
        {
          "episode": 2,
          "name": "A Smashing Good Time",
          "iframe_url": "",
          "iframe_poster": null,
          "release_ru": "2021-04-21",
          "release_world": "2021-04-20",
          "availability": "2021-04-22",
          "voiceActing": [
            "JASKIER",
            "HDRezka Studio",
            "Eng.Original"
          ],
          "ads": false,
          "subtitle": [
            "Рус. форсированные"
          ]
        },
        {
          "episode": 3,
          "name": "Off With a Bang",
          "iframe_url": "",
          "iframe_poster": null,
          "release_ru": "2021-04-28",
          "release_world": "2021-04-27",
          "availability": "2021-04-29",
          "voiceActing": [
            "JASKIER",
            "HDRezka Studio",
            "Eng.Original"
          ],
          "ads": false,
          "subtitle": [
            "Рус. форсированные"
          ]
        },
        {
          "episode": 4,
          "name": null,
          "iframe_url": "",
          "iframe_poster": null,
          "release_ru": "2021-05-05",
          "release_world": "2021-05-04",
          "availability": "2021-05-05",
          "voiceActing": [
            "JASKIER",
            "HDRezka Studio",
            "Eng.Original"
          ],
          "ads": false,
          "subtitle": [
            "Рус. форсированные"
          ]
        },
        {
          "episode": 5,
          "name": null,
          "iframe_url": "",
          "iframe_poster": null,
          "release_ru": "2021-05-12",
          "release_world": "2021-05-11",
          "availability": "2021-05-12",
          "voiceActing": [
            "JASKIER",
            "HDRezka Studio",
            "Eng.Original"
          ],
          "ads": false,
          "subtitle": [
            "Рус. форсированные"
          ]
        },
        {
          "episode": 6,
          "name": null,
          "iframe_url": "",
          "iframe_poster": null,
          "release_ru": "2021-05-19",
          "release_world": "2021-05-18",
          "availability": "2021-05-19",
          "voiceActing": [
            "JASKIER",
            "HDRezka Studio",
            "Eng.Original"
          ],
          "ads": false,
          "subtitle": [
            "Рус. форсированные"
          ]
        },
        {
          "episode": 7,
          "name": null,
          "iframe_url": "",
          "iframe_poster": null,
          "release_ru": "2021-05-26",
          "release_world": "2021-05-25",
          "availability": "2021-05-26",
          "voiceActing": [
            "JASKIER",
            "HDRezka Studio",
            "Eng.Original"
          ],
          "ads": false,
          "subtitle": [
            "Рус. форсированные"
          ]
        },
        {
          "episode": 8,
          "name": null,
          "iframe_url": "",
          "iframe_poster": null,
          "release_ru": null,
          "release_world": null,
          "availability": null,
          "voiceActing": [
            "JASKIER",
            "HDRezka Studio",
            "Eng.Original"
          ],
          "ads": false,
          "subtitle": [
            "Рус. форсированные"
          ]
        },
        {
          "episode": 9,
          "name": null,
          "iframe_url": "",
          "iframe_poster": null,
          "release_ru": null,
          "release_world": null,
          "availability": null,
          "voiceActing": [
            "JASKIER",
            "HDRezka Studio",
            "Eng.Original"
          ],
          "ads": false,
          "subtitle": [
            "Рус. форсированные"
          ]
        },
        {
          "episode": 10,
          "name": null,
          "iframe_url": "",
          "iframe_poster": null,
          "release_ru": null,
          "release_world": null,
          "availability": null,
          "voiceActing": [
            "JASKIER",
            "HDRezka Studio",
            "Eng.Original"
          ],
          "ads": false,
          "subtitle": [
            "Рус. форсированные"
          ]
        }
      ]
    }
  ],
  "voiceActing": [
    "JASKIER",
    "HDRezka Studio",
    "Eng.Original"
  ],
  "subtitle": [
    "Рус. форсированные"
  ],
  "parts": []
}
