{
  "id": 37191,
  "name": "Социальная дилемма",
  "name_eng": "The Social Dilemma",
  "year": 2020,
  "slogan": "«The technology that connects us also controls us»",
  "age": "12+",
  "type": "film",
  "quality": "FHD (1080p)",
  "imdb": "7.6",
  "imdb_id": "11464826",
  "kinopoisk": "7.3",
  "kinopoisk_id": "1337788",
  "world_art": null,
  "world_art_id": null,
  "time": "94 мин. / 01:34",
  "ads": false,
  "premier": "2020-01-26",
  "premier_rus": "2020-01-27",
  "availability": "2020-01-28",
  "activate_time": "2020-09-21 13:57:00",
  "budget": null,
  "fees_use": null,
  "fees_world": null,
  "fees_rus": null,
  "rate_mpaa": "PG-13",
  "description": "Бывшие сотрудники Google, Facebook, Twitter, YouTube и многих других IT-гигантов рассказывают о своих разработках для компаний, почему они уволились, и о том, как разработанные ими алгоритмы пагубно влияют на жизнь людей и особенно — детей.",
  "iframe_url": "",
  "iframe_poster": null,
  "poster": "https://img.imgilall.me/movies/franchise/3/7/1/9/1/0/0/0/0/0/610x900_37191.jpg",
  "country": {
    "1": "США"
  },
  "collection": [],
  "genre": {
    "54": "Документальный",
    "7": "Драма"
  },
  "director": [
    "Джефф Орловски"
  ],
  "screenwriter": [
    "Дэвис Кумбе",
    "Вики Кертис",
    "Джефф Орловски"
  ],
  "producer": [
    "Ларисса Родс",
    "Холли Адельман",
    "Джилл Аренс"
  ],
  "operator": [
    "Джон Беренс",
    "Джонатан Поуп"
  ],
  "composer": [
    "Марк Кроуфорд"
  ],
  "design": [
    "Адам Уитли",
    "Сьюзи Форд",
    "Melissa Karsh"
  ],
  "editor": [
    "Дэвис Кумбе"
  ],
  "actors": [
    "Тристан Харрис",
    "Джефф Сейберт",
    "Bailey Richardson",
    "Joe Toscano",
    "Sandy Parakilas",
    "Guillaume Chaslot",
    "Lynn Fox",
    "Aza Raskin",
    "Alex Roetter",
    "Tim Kendall"
  ],
  "actors_dubl": [],
  "trivia": [],
  "trailers": [],
  "seasons": [],
  "voiceActing": [
    "HDRezka Studio"
  ],
  "subtitle": [
    "Рус. форсированные"
  ],
  "parts": []
}
