{
  "id": 35749,
  "name": "Дурдаршан",
  "name_eng": "Doordarshan",
  "year": 2020,
  "slogan": "«DOORDARSHAN is a slice of life comedy drama of a north Indian family which stuck between two eras 90s and the present time»",
  "age": null,
  "type": "film",
  "quality": "HD (720p)",
  "imdb": "6.2",
  "imdb_id": "11231440",
  "kinopoisk": null,
  "kinopoisk_id": "1319210",
  "world_art": null,
  "world_art_id": null,
  "time": "119 мин. / 01:59",
  "ads": true,
  "premier": "2020-02-28",
  "premier_rus": "2020-02-29",
  "availability": "2020-03-01",
  "activate_time": "2020-08-03 11:08:00",
  "budget": "",
  "fees_use": "",
  "fees_world": "",
  "fees_rus": "",
  "rate_mpaa": "",
  "description": "После того, как бабушка очнулась после длительной комы, супруги, давно спорящие о разводе, вынуждены возродить свой брак и сохранить в доме мир.",
  "iframe_url": "",
  "iframe_poster": null,
  "poster": "https://img.imgilall.me/movies/franchise/3/5/7/4/9/0/0/0/0/0/610x900_35749.jpg",
  "country": {
    "26": "Индия"
  },
  "collection": [],
  "genre": {
    "19": "Комедия",
    "7": "Драма"
  },
  "director": [
    "Gagan Puri"
  ],
  "screenwriter": [
    "Gagan Puri"
  ],
  "producer": [
    "Ritu Arya",
    "Sandeep Arya",
    "Nimish Bajaj"
  ],
  "operator": [
    "Soni Singh"
  ],
  "composer": [
    "Meet Bros"
  ],
  "design": [
    "Gautam Naresh",
    "Shekhar Ujjainwal",
    "Ашиш Двайер"
  ],
  "editor": [
    "Shubham Srivastava"
  ],
  "actors": [
    "Маню Риши",
    "Махи Гилл",
    "Долли Ахлувалиа",
    "Shardul Rana",
    "Archita Sharma",
    "Раджеш Шарма",
    "Суприя Шукла",
    "Мехак Манвани",
    "Самит Гулати",
    "Адитья Кумар"
  ],
  "actors_dubl": [],
  "trivia": [],
  "trailers": [],
  "seasons": [],
  "voiceActing": [
    "Рус. Проф. многоголосый"
  ],
  "subtitle": [],
  "parts": []
}
