{
  "id": 42974,
  "name": "Рождественское чудо",
  "name_eng": "Miracle on Christmas",
  "year": 2020,
  "slogan": "—",
  "age": null,
  "type": "film",
  "quality": "HD (720p)",
  "imdb": "6.0",
  "imdb_id": "11869546",
  "kinopoisk": null,
  "kinopoisk_id": "1352062",
  "world_art": null,
  "world_art_id": null,
  "time": "87 мин. / 01:27",
  "ads": true,
  "premier": "2020-11-01",
  "premier_rus": "2020-11-02",
  "availability": "2020-11-03",
  "activate_time": "2020-12-16 15:32:00",
  "budget": "",
  "fees_use": "",
  "fees_world": "",
  "fees_rus": "",
  "rate_mpaa": "",
  "description": "В день Рождества у семьи Бойсов совсем нет духа праздника, но всё меняет чудо и неожиданный гость.",
  "iframe_url": "",
  "iframe_poster": null,
  "poster": "https://img.imgilall.me/movies/franchise/4/2/9/7/4/0/0/0/0/0/610x900_42974.jpg",
  "country": {
    "1": "США"
  },
  "collection": [],
  "genre": {
    "7": "Драма"
  },
  "director": [
    "Thomas Bonifield"
  ],
  "screenwriter": [
    "Thomas Bonifield"
  ],
  "producer": [
    "Кеван Отто",
    "Дэнни Рот",
    "Thomas Bonifield"
  ],
  "operator": [],
  "composer": [
    "Стью Голдберг"
  ],
  "design": [
    "Джир Сэлли",
    "Мелисса Эрдман",
    "Алин Хонг"
  ],
  "editor": [
    "Mark Deeter"
  ],
  "actors": [
    "Эрин Бети",
    "Джейсон Бёрки",
    "Бретт Варвел",
    "Мика Линн Хэнсон",
    "Кимберли Крушон Брукс",
    "James Pilachowski",
    "Lily Bowen",
    "Джастин Мэйн",
    "Jacqueline Yunez",
    "Этан Матиас"
  ],
  "actors_dubl": [],
  "trivia": [],
  "trailers": [],
  "seasons": [],
  "voiceActing": [
    "Рус. Люб. многоголосый"
  ],
  "subtitle": [],
  "parts": []
}
