{
  "id": 39303,
  "name": "Войны богов",
  "name_eng": "War of God",
  "year": 2018,
  "slogan": "—",
  "age": null,
  "type": "film",
  "quality": "HD (720p)",
  "imdb": null,
  "imdb_id": "11614988",
  "kinopoisk": null,
  "kinopoisk_id": "1343471",
  "world_art": null,
  "world_art_id": null,
  "time": "—",
  "ads": false,
  "premier": "2018-07-06",
  "premier_rus": "2018-07-07",
  "availability": "2018-07-08",
  "activate_time": "2020-10-14 17:35:00",
  "budget": null,
  "fees_use": null,
  "fees_world": null,
  "fees_rus": null,
  "rate_mpaa": null,
  "description": null,
  "iframe_url": "",
  "iframe_poster": null,
  "poster": "https://img.imgilall.me/movies/franchise/3/9/3/0/3/0/0/0/0/0/610x900_39303.jpg",
  "country": {
    "19": "Китай"
  },
  "collection": [],
  "genre": {
    "6": "Фэнтези"
  },
  "director": [
    "Xue Wenhua"
  ],
  "screenwriter": [],
  "producer": [],
  "operator": [],
  "composer": [],
  "design": [],
  "editor": [],
  "actors": [
    "Po-Chen Yi",
    "Yijie Yu",
    "Чжан Цзысюань",
    "Кань Бэньбэнь",
    "Li Rui Chao",
    "Haoming Chen",
    "Марко Ло"
  ],
  "actors_dubl": [],
  "trivia": [],
  "trailers": [],
  "seasons": [],
  "voiceActing": [
    "Колобок"
  ],
  "subtitle": [],
  "parts": []
}
