{
  "id": 15535,
  "name": "Неудержимые",
  "name_eng": "Desenfrenadas",
  "year": 2020,
  "slogan": "—",
  "age": null,
  "type": "series",
  "quality": "HD (720p)",
  "imdb": "7.3",
  "imdb_id": "11120674",
  "kinopoisk": null,
  "kinopoisk_id": "1317529",
  "world_art": null,
  "world_art_id": null,
  "time": "43 мин",
  "ads": false,
  "premier": "2020-02-28",
  "premier_rus": "2020-02-29",
  "availability": "2020-02-29",
  "serial_status": "offline",
  "activate_time": "2020-02-20 08:55:00",
  "budget": "",
  "fees_use": "",
  "fees_world": "",
  "fees_rus": "",
  "rate_mpaa": "",
  "description": "Действие происходит в Мексике, где живут давние подружки Рокио, Вера и Карлота. Все героини сериала «Неудержимый» принадлежат к среднему классу и вполне неплохо себя чувствуют, однако некоторые давние и нерешённые проблемы не дают им быть по-настоящему счастливыми.\r\n\r\nВера сыта по горло своей работой и хочет отдохнуть от неё. Рокио уверена в том, что у неё не удаётся реализовать свои настоящие амбиции из-за требовательного отца и одержимого парня. А Карлота хоть и не показывает слабость, скрывая её за своей любовью к стихам и пламенной индивидуальностью, нуждается в поддержке своих приятельниц.\r\n\r\nЖелая отдохнуть подруги принимают решение отправиться в небольшое путешествие. Но девицы даже и представить себе не могут, что эта поездка раз и навсегда изменит их жизни.\r\n\r\nВ пути к девушкам из серий сериала «Неудержимый» присоединяется молодая Марсела, настроенная изменить первоначальный план своих новых знакомых. Чем дольше она остаётся с ними, тем больше создаёт им проблем. В какой-то момент ситуация полностью выходит из-под контроля и четверо спутниц пускаются во все тяжкие. Впереди их ждут приключения, поиск любви, предательства и даже криминал.",
  "iframe_url": "",
  "poster": "https://img.imgilall.me/movies/franchise/1/5/5/3/5/0/0/0/0/0/610x900_15535.jpg",
  "country": {
    "17": "Мексика"
  },
  "collection": {
    "73": "Про девушек",
    "40": "Netflix",
    "27": "Про жизнь"
  },
  "genre": {
    "19": "Комедия",
    "10": "Зарубежный"
  },
  "director": [
    "Хулио Кордон Эрнандес",
    "Элиза Миллер"
  ],
  "screenwriter": [
    "Patricia Ulanosky",
    "Samara Ibrahim",
    "Ashauri López"
  ],
  "producer": [
    "Raúl Aragon",
    "Romina Bacari",
    "Ari del Castillo"
  ],
  "operator": [
    "Хулио Льоренте"
  ],
  "composer": [
    "Alvaro Arce Urroz"
  ],
  "design": [
    "Alfredo Wigueras",
    "Mariana Guerrero Dingler",
    "Лусиана Солорсано"
  ],
  "editor": [
    "Catalina Rincón Giraldo",
    "Адриана Мартинес",
    "Luis Genaro Penalosa"
  ],
  "actors": [
    "Тесса Иа",
    "Барбара Лопес",
    "Лусия Урибе",
    "Coty Camacho",
    "Айтана Ринаб Перес",
    "Tomas Ruiz",
    "Диего Калва Эрнандес",
    "Фернандо Чангеротти",
    "Марсе Каррера",
    "Sebastián Buitrón"
  ],
  "actors_dubl": [],
  "trivia": [],
  "trailers": [
    {
      "name": "трейлер №1",
      "number": 1,
      "iframe_poster": null,
      "season": 1,
      "iframe_url": ""
    }
  ],
  "seasons": [
    {
      "poster": null,
      "release_ru": "2020-02-29",
      "release_world": "2020-02-28",
      "availability": "2020-03-01",
      "iframe_url": "",
      "season": 1,
      "episodes": [
        {
          "episode": 1,
          "name": "Me quiero ir a la v**",
          "iframe_url": "",
          "iframe_poster": null,
          "release_ru": "2020-02-28",
          "release_world": "2020-02-28",
          "availability": "2020-02-28",
          "voiceActing": [
            "Рус. Люб. многоголосый"
          ],
          "ads": false,
          "subtitle": []
        },
        {
          "episode": 2,
          "name": "Checa tu privilegio",
          "iframe_url": "",
          "iframe_poster": null,
          "release_ru": "2020-02-28",
          "release_world": "2020-02-28",
          "availability": "2020-02-28",
          "voiceActing": [
            "Рус. Люб. многоголосый"
          ],
          "ads": false,
          "subtitle": []
        },
        {
          "episode": 3,
          "name": "Lo que te choca, te checa",
          "iframe_url": "",
          "iframe_poster": null,
          "release_ru": "2020-02-29",
          "release_world": "2020-02-28",
          "availability": "2020-03-01",
          "voiceActing": [
            "Рус. Люб. многоголосый"
          ],
          "ads": false,
          "subtitle": []
        },
        {
          "episode": 4,
          "name": "Pacto de Secundaria",
          "iframe_url": "",
          "iframe_poster": null,
          "release_ru": "2020-02-29",
          "release_world": "2020-02-28",
          "availability": "2020-03-01",
          "voiceActing": [
            "Рус. Люб. многоголосый"
          ],
          "ads": false,
          "subtitle": []
        },
        {
          "episode": 5,
          "name": "Problemas del primer mundo",
          "iframe_url": "",
          "iframe_poster": null,
          "release_ru": "2020-02-29",
          "release_world": "2020-02-28",
          "availability": "2020-03-01",
          "voiceActing": [
            "Рус. Люб. многоголосый"
          ],
          "ads": false,
          "subtitle": []
        },
        {
          "episode": 6,
          "name": "Mujeres Tormenta",
          "iframe_url": "",
          "iframe_poster": null,
          "release_ru": "2020-02-29",
          "release_world": "2020-02-28",
          "availability": "2020-03-01",
          "voiceActing": [
            "Рус. Люб. многоголосый"
          ],
          "ads": false,
          "subtitle": []
        },
        {
          "episode": 7,
          "name": "Los atardeceres que le regalé a mis hermanas",
          "iframe_url": "",
          "iframe_poster": null,
          "release_ru": "2020-02-29",
          "release_world": "2020-02-28",
          "availability": "2020-03-01",
          "voiceActing": [
            "Рус. Люб. многоголосый"
          ],
          "ads": false,
          "subtitle": []
        },
        {
          "episode": 8,
          "name": "La cruda es el mejor atajo para el fracaso",
          "iframe_url": "",
          "iframe_poster": null,
          "release_ru": "2020-02-29",
          "release_world": "2020-02-28",
          "availability": "2020-03-01",
          "voiceActing": [
            "Рус. Люб. многоголосый"
          ],
          "ads": false,
          "subtitle": []
        },
        {
          "episode": 9,
          "name": "Acepta mi existencia o espera la resistencia",
          "iframe_url": "",
          "iframe_poster": null,
          "release_ru": "2020-02-29",
          "release_world": "2020-02-28",
          "availability": "2020-03-01",
          "voiceActing": [
            "Рус. Люб. многоголосый"
          ],
          "ads": false,
          "subtitle": []
        },
        {
          "episode": 10,
          "name": "Huevos",
          "iframe_url": "",
          "iframe_poster": null,
          "release_ru": "2020-02-29",
          "release_world": "2020-02-28",
          "availability": "2020-03-01",
          "voiceActing": [
            "Рус. Люб. многоголосый"
          ],
          "ads": false,
          "subtitle": []
        }
      ]
    }
  ],
  "voiceActing": [
    "Рус. Люб. многоголосый"
  ],
  "subtitle": [],
  "parts": []
}
