{
  "id": 52229,
  "name": "Благословение",
  "name_eng": "Benediction",
  "year": 2021,
  "slogan": "«Love is never still»",
  "age": null,
  "type": "film",
  "quality": "FHD (1080p)",
  "imdb": null,
  "imdb_id": "6852178",
  "kinopoisk": null,
  "kinopoisk_id": "1358329",
  "world_art": null,
  "world_art_id": null,
  "time": "137 мин. / 02:17",
  "ads": true,
  "premier": "2021-09-12",
  "premier_rus": "2021-09-13",
  "availability": "2021-09-14",
  "activate_time": "2021-11-17 00:46:00",
  "budget": null,
  "fees_use": null,
  "fees_world": null,
  "fees_rus": null,
  "rate_mpaa": null,
  "description": null,
  "iframe_url": "",
  "iframe_poster": null,
  "poster": "https://img.imgilall.me/movies/franchise/5/2/2/2/9/0/0/0/0/0/610x900_52229.jpg",
  "country": {
    "1": "США",
    "2": "Великобритания"
  },
  "collection": [],
  "genre": {
    "32": "Военный",
    "27": "Биографический",
    "7": "Драма"
  },
  "director": [
    "Теренс Дэвис"
  ],
  "screenwriter": [
    "Теренс Дэвис"
  ],
  "producer": [
    "Майкл Эллиотт",
    "Пол Эштон",
    "Дебора Эстон"
  ],
  "operator": [
    "Николя Дэйли"
  ],
  "composer": [],
  "design": [
    "Энди Харрис",
    "Адам Томлинсон",
    "Энни Саймонс"
  ],
  "editor": [
    "Алекс Маки"
  ],
  "actors": [
    "Джулиан Сэндс",
    "Кейт Филлипс",
    "Джеральдин Джеймс",
    "Питер Капальди",
    "Джереми Ирвин",
    "Бен Дэниелс",
    "Джемма Джонс",
    "Джек Лауден",
    "Антон Лессер",
    "Саймон Расселл Бил"
  ],
  "actors_dubl": [],
  "trivia": [],
  "trailers": [],
  "seasons": [],
  "voiceActing": [
    "@MUZOBOZ@"
  ],
  "subtitle": [],
  "parts": []
}
