{
  "id": 51595,
  "name": "Мако",
  "name_eng": "Mako",
  "year": 2021,
  "slogan": "—",
  "age": null,
  "type": "film",
  "quality": "TS",
  "imdb": null,
  "imdb_id": "11493006",
  "kinopoisk": null,
  "kinopoisk_id": "1340402",
  "world_art": null,
  "world_art_id": null,
  "time": "—",
  "ads": true,
  "premier": "2021-09-01",
  "premier_rus": "2021-09-02",
  "availability": "2021-09-03",
  "activate_time": "2021-10-22 19:08:00",
  "budget": null,
  "fees_use": null,
  "fees_world": null,
  "fees_rus": null,
  "rate_mpaa": null,
  "description": null,
  "iframe_url": "",
  "iframe_poster": null,
  "poster": "https://img.imgilall.me/movies/franchise/5/1/5/9/5/0/0/0/0/0/610x900_51595.jpg",
  "country": {
    "110": "Египет"
  },
  "collection": [],
  "genre": {
    "9": "Приключения",
    "13": "Триллер"
  },
  "director": [
    "Mohamed Hesham El-Rashidy"
  ],
  "screenwriter": [
    "Mohamed El Hafnawy",
    "Ahmed Halim"
  ],
  "producer": [
    "Mohammed al Sharif"
  ],
  "operator": [
    "Mahmoud Bashir"
  ],
  "composer": [
    "Hisham Kharma"
  ],
  "design": [],
  "editor": [],
  "actors": [
    "Мурат Йылдырым",
    "Басма Ахмад",
    "Nicolas Mouawad",
    "Nahed El Sebaï",
    "Amr Wahba",
    "Sara El Shamy",
    "Feriel Graja",
    "Mohamed Mahran",
    "Monzer Reyahnah"
  ],
  "actors_dubl": [],
  "trivia": [],
  "trailers": [],
  "seasons": [],
  "voiceActing": [
    "Колобок"
  ],
  "subtitle": [],
  "parts": []
}
