{
  "id": 49301,
  "name": "Полёт",
  "name_eng": "Flight",
  "year": 2018,
  "slogan": "—",
  "age": null,
  "type": "film",
  "quality": "HD (720p)",
  "imdb": null,
  "imdb_id": "9719544",
  "kinopoisk": null,
  "kinopoisk_id": "1352308",
  "world_art": null,
  "world_art_id": null,
  "time": "13 мин.",
  "ads": true,
  "premier": "2019-11-02",
  "premier_rus": "2019-11-03",
  "availability": "2019-11-04",
  "activate_time": "2021-08-10 11:10:00",
  "budget": null,
  "fees_use": null,
  "fees_world": null,
  "fees_rus": null,
  "rate_mpaa": null,
  "description": null,
  "iframe_url": "",
  "iframe_poster": null,
  "poster": "https://img.imgilall.me/movies/franchise/4/9/3/0/1/0/0/0/0/0/610x900_49301.jpg",
  "country": {
    "129": "Ямайка"
  },
  "collection": [],
  "genre": {
    "53": "Короткометражный",
    "33": "Семейный",
    "7": "Драма"
  },
  "director": [
    "Kia Moses",
    "Adrian McDonald"
  ],
  "screenwriter": [
    "Kia Moses"
  ],
  "producer": [
    "Tashara-Lee Johnson"
  ],
  "operator": [
    "Gabrielle Blackwood"
  ],
  "composer": [],
  "design": [],
  "editor": [],
  "actors": [
    "Akalia Golding",
    "Christopher McKoy",
    "Zbek Nelson",
    "Rohiem Phillips",
    "Danielo Reid",
    "Craig Robinson"
  ],
  "actors_dubl": [],
  "trivia": [],
  "trailers": [],
  "seasons": [],
  "voiceActing": [
    "Синема УС"
  ],
  "subtitle": [],
  "parts": []
}
