{
  "id": 51483,
  "name": "Ночной доктор",
  "name_eng": "Un pugno di amici",
  "year": 2020,
  "slogan": "—",
  "age": null,
  "type": "film",
  "quality": "HD (720p)",
  "imdb": "4.8",
  "imdb_id": "11476718",
  "kinopoisk": null,
  "kinopoisk_id": "1344703",
  "world_art": null,
  "world_art_id": null,
  "time": "90 мин. / 01:30",
  "ads": true,
  "premier": "2020-01-01",
  "premier_rus": "2020-01-02",
  "availability": "2020-01-03",
  "activate_time": "2021-10-17 23:49:00",
  "budget": null,
  "fees_use": null,
  "fees_world": null,
  "fees_rus": null,
  "rate_mpaa": null,
  "description": null,
  "iframe_url": "",
  "iframe_poster": null,
  "poster": "https://img.imgilall.me/movies/franchise/5/1/4/8/3/0/0/0/0/0/610x900_51483.jpg",
  "country": {
    "8": "Италия"
  },
  "collection": [],
  "genre": {
    "19": "Комедия"
  },
  "director": [
    "Sergio Colabona"
  ],
  "screenwriter": [
    "Sergio Colabona"
  ],
  "producer": [],
  "operator": [
    "Даниэль Поли"
  ],
  "composer": [],
  "design": [],
  "editor": [
    "Люка Монтанари"
  ],
  "actors": [
    "Tony Matranga",
    "Emmanuele Minafò",
    "Маурицио Касагранде",
    "Maria Bolignano",
    "Мариано Бруно",
    "Paride Benassai",
    "Domenico Manfredi",
    "Angelica Massera",
    "Danilo Lo Cicero",
    "Giuseppe Stancampiano"
  ],
  "actors_dubl": [],
  "trivia": [],
  "trailers": [],
  "seasons": [],
  "voiceActing": [
    "@MUZOBOZ@"
  ],
  "subtitle": [],
  "parts": []
}
