{
  "id": 11908,
  "name": "Дженни Слейт: Боязнь сцены",
  "name_eng": "Jenny Slate: Stage Fright",
  "year": 2019,
  "slogan": "—",
  "age": null,
  "type": "film",
  "quality": "HD (720p)",
  "imdb": "5.9",
  "imdb_id": "10971520",
  "kinopoisk": null,
  "kinopoisk_id": "1304364",
  "world_art": null,
  "world_art_id": null,
  "time": "66 мин. / 01:06",
  "ads": true,
  "premier": "2019-10-22",
  "premier_rus": "2019-10-23",
  "availability": "2019-10-24",
  "activate_time": "2019-11-07 11:22:00",
  "budget": "",
  "fees_use": "",
  "fees_world": "",
  "fees_rus": "",
  "rate_mpaa": "",
  "description": "Первое специальное выступление Дженни Слейт представляет собой смесь времени на сцене, забавных историй о взрослой жизни и бесед с семьей в доме ее детства.\r\n",
  "iframe_url": "",
  "iframe_poster": null,
  "poster": "https://img.imgilall.me/movies/franchise/1/1/9/0/8/0/0/0/0/0/610x900_11908.jpg",
  "country": {
    "1": "США"
  },
  "collection": [],
  "genre": {
    "72": "Развлекательный",
    "19": "Комедия"
  },
  "director": [
    "Джиллиан Робеспьер"
  ],
  "screenwriter": [
    "Дженни Слейт"
  ],
  "producer": [
    "Sarina Roma",
    "Эндрю Фрид",
    "Элизабет Холм"
  ],
  "operator": [
    "Эшли Коннор"
  ],
  "composer": [
    "Steph Jenkins"
  ],
  "design": [
    "Том Ленц",
    "Мэл Ловрик"
  ],
  "editor": [
    "Бетси Кэген"
  ],
  "actors": [
    "Дженни Слейт"
  ],
  "actors_dubl": [],
  "trivia": [],
  "trailers": [],
  "seasons": [],
  "voiceActing": [
    "Рус. Люб. многоголосый"
  ],
  "subtitle": [],
  "parts": []
}
