{
  "id": 43461,
  "name": "Аленький цветочек",
  "name_eng": "Song ni yi duo xiao hong hua",
  "year": 2020,
  "slogan": "—",
  "age": null,
  "type": "film",
  "quality": "HD (720p)",
  "imdb": "6.6",
  "imdb_id": "12497408",
  "kinopoisk": null,
  "kinopoisk_id": "1396268",
  "world_art": null,
  "world_art_id": null,
  "time": "128 мин. / 02:08",
  "ads": true,
  "premier": "2020-12-31",
  "premier_rus": "2021-01-01",
  "availability": "2021-01-02",
  "activate_time": "2021-01-10 01:32:00",
  "budget": null,
  "fees_use": null,
  "fees_world": "$221 300 000",
  "fees_rus": null,
  "rate_mpaa": null,
  "description": "Больные раком молодые люди пытаются посмотреть в глаза своим страхам и смириться с реальностью.",
  "iframe_url": "",
  "iframe_poster": null,
  "poster": "https://img.imgilall.me/movies/franchise/4/3/4/6/1/0/0/0/0/0/610x900_43461.jpg",
  "country": {
    "19": "Китай"
  },
  "collection": [],
  "genre": {
    "7": "Драма"
  },
  "director": [
    "Хань Янь"
  ],
  "screenwriter": [
    "Хань Цзиньлян",
    "Хань Янь",
    "Ли Хань"
  ],
  "producer": [],
  "operator": [
    "Rui Zhong"
  ],
  "composer": [],
  "design": [],
  "editor": [],
  "actors": [
    "Джексон И",
    "Лю Хаоцюнь",
    "Чжу Юаньюань",
    "Гао Ялинь",
    "Ся Юй",
    "Ли Сяочуань"
  ],
  "actors_dubl": [],
  "trivia": [],
  "trailers": [],
  "seasons": [],
  "voiceActing": [
    "Колобок"
  ],
  "subtitle": [],
  "parts": []
}
