{
  "id": 13534,
  "name": "Последний рейв",
  "name_eng": "",
  "year": 2019,
  "slogan": "«Воскрес для рейва»",
  "age": "16+",
  "type": "series",
  "quality": "SD",
  "imdb": "3.8",
  "imdb_id": "0",
  "kinopoisk": "7.0",
  "kinopoisk_id": "1320481",
  "world_art": null,
  "world_art_id": null,
  "time": "19 мин. серия (78 мин. всего)",
  "ads": false,
  "premier": "2019-11-13",
  "premier_rus": "2019-11-14",
  "availability": "2019-11-15",
  "serial_status": "offline",
  "activate_time": "2019-12-16 17:10:00",
  "budget": null,
  "fees_use": null,
  "fees_world": null,
  "fees_rus": null,
  "rate_mpaa": null,
  "description": "Двух талантливых музыкантов из Мурманска приглашают в Москву — выступить на главном рэп-фестивале страны. Но для осуществления мечты хорошо бы остаться в живых, с чем у ребят некоторые проблемы.",
  "iframe_url": "",
  "poster": "https://img.imgilall.me/movies/franchise/1/3/5/3/4/0/0/0/0/0/610x900_13534.jpg",
  "country": {
    "5": "Россия"
  },
  "collection": [],
  "genre": {
    "25": "Криминал",
    "9": "Приключения",
    "26": "Ужасы",
    "22": "Русский",
    "19": "Комедия",
    "13": "Триллер",
    "8": "Мелодрама",
    "7": "Драма"
  },
  "director": [
    "Никита Тамаров"
  ],
  "screenwriter": [
    "Далер Рахимов",
    "Трофим Пустильник",
    "Никита Тамаров"
  ],
  "producer": [
    "Артём Царегородцев",
    "Андрей Пауков",
    "Лена Самойлова"
  ],
  "operator": [
    "Даша Графова"
  ],
  "composer": [
    "Евгений Тейлор"
  ],
  "design": [
    "Варужан Ганджумян",
    "Иван Макаревич"
  ],
  "editor": [
    "Никита Тамаров",
    "Игорь Абидов"
  ],
  "actors": [
    "Егор Кенжаметов",
    "Никита Манилов",
    "Сергей Юшкевич",
    "Роман Худяков",
    "Владимир Епифанцев",
    "Владимир Голубев",
    "Полина Рашкина",
    "Илья Лыков",
    "Андрей Титченко",
    "Владимир Большов"
  ],
  "actors_dubl": [],
  "trivia": [],
  "trailers": [],
  "seasons": [
    {
      "poster": null,
      "release_ru": "2019-11-14",
      "release_world": "2019-11-13",
      "availability": "2019-11-15",
      "iframe_url": "",
      "season": 1,
      "episodes": [
        {
          "episode": 1,
          "name": "Динь дон в твой дом",
          "iframe_url": "",
          "iframe_poster": null,
          "release_ru": "2019-11-14",
          "release_world": "2019-11-13",
          "availability": "2019-11-15",
          "voiceActing": [
            "Рус. Оригинальный"
          ],
          "ads": false,
          "subtitle": []
        },
        {
          "episode": 2,
          "name": "Сдохни псина",
          "iframe_url": "",
          "iframe_poster": null,
          "release_ru": "2019-11-14",
          "release_world": "2019-11-13",
          "availability": "2019-11-15",
          "voiceActing": [
            "Рус. Оригинальный"
          ],
          "ads": false,
          "subtitle": []
        },
        {
          "episode": 3,
          "name": "Спи мой мальчик",
          "iframe_url": "",
          "iframe_poster": null,
          "release_ru": "2019-11-22",
          "release_world": "2019-11-21",
          "availability": "2019-11-23",
          "voiceActing": [
            "Рус. Оригинальный"
          ],
          "ads": false,
          "subtitle": []
        },
        {
          "episode": 4,
          "name": "Холодно и стрёмно",
          "iframe_url": "",
          "iframe_poster": null,
          "release_ru": "2019-11-29",
          "release_world": "2019-11-28",
          "availability": "2019-11-30",
          "voiceActing": [
            "Рус. Оригинальный"
          ],
          "ads": false,
          "subtitle": []
        }
      ]
    }
  ],
  "voiceActing": [
    "Рус. Оригинальный"
  ],
  "subtitle": [],
  "parts": []
}
