{
  "id": 34841,
  "name": "Джек – молния",
  "name_eng": "Lightning Jack",
  "year": 1994,
  "slogan": "«A comedy about two outlaws who just wanted to be wanted»",
  "age": "12+",
  "type": "film",
  "quality": "SD",
  "imdb": "5.5",
  "imdb_id": "0110353",
  "kinopoisk": "7.1",
  "kinopoisk_id": "13888",
  "world_art": null,
  "world_art_id": null,
  "time": "98 мин. / 01:38",
  "ads": false,
  "premier": "1994-03-11",
  "premier_rus": "1994-03-12",
  "availability": "1994-03-13",
  "activate_time": "2020-07-17 08:29:00",
  "budget": null,
  "fees_use": "$16 821 273",
  "fees_world": null,
  "fees_rus": null,
  "rate_mpaa": "PG-13",
  "description": "Хорошими делами прославиться нельзя. Так полагал Джек Кейн по прозвищу Молния. Поэтому он и грабил банки на Диком Западе, надеясь обессмертить тем свое имя. Увы, сильная близорукость и выдающаяся невезучесть героя исправно пресекали все его попытки провернуть какое-либо крупное дело - и не попасть при этом впросак.Когда же после очередного анекдотического ограбления Джек обзаводится нескладным помощником, немым чернокожим парнем по имени Бен Доил, его шансы остаться в памяти народной лихим и удачливым бандитом приближаются к нулю...",
  "iframe_url": "",
  "iframe_poster": null,
  "poster": "https://img.imgilall.me/movies/franchise/3/4/8/4/1/0/0/0/0/0/610x900_34841.jpg",
  "country": {
    "1": "США",
    "4": "Австралия"
  },
  "collection": [],
  "genre": {
    "29": "Вестерн",
    "19": "Комедия"
  },
  "director": [
    "Саймон Уинсер"
  ],
  "screenwriter": [
    "Пол Хоган"
  ],
  "producer": [
    "Грег Кут",
    "Пол Хоган",
    "Саймон Уинсер"
  ],
  "operator": [
    "Дэвид Эггби"
  ],
  "composer": [
    "Брюс Роулэнд"
  ],
  "design": [
    "Бернард Хайдс",
    "Лизетт Томас",
    "Брюс Финлейсон"
  ],
  "editor": [
    "О. Николас Браун"
  ],
  "actors": [
    "Пол Хоган",
    "Кьюба Гудинг мл.",
    "Беверли Д’Анджело",
    "Камала Лопес-Даусон",
    "Пэт Хингл",
    "Л. К. Джонс",
    "Ричард Рили",
    "Фрэнк МакРей",
    "Роджер Долтри",
    "Макс Каллен"
  ],
  "actors_dubl": [],
  "trivia": [],
  "trailers": [],
  "seasons": [],
  "voiceActing": [
    "Diva Universal"
  ],
  "subtitle": [],
  "parts": []
}
