{
  "id": 36178,
  "name": "Одна ночь в Бангкоке",
  "name_eng": "One Night in Bangkok",
  "year": 2020,
  "slogan": "—",
  "age": "16+",
  "type": "film",
  "quality": "FHD (1080p)",
  "imdb": "5.1",
  "imdb_id": "12192190",
  "kinopoisk": "5.8",
  "kinopoisk_id": "1379620",
  "world_art": null,
  "world_art_id": null,
  "time": "105 мин. / 01:45",
  "ads": false,
  "premier": "2020-08-25",
  "premier_rus": "2020-08-26",
  "availability": "2020-08-27",
  "activate_time": "2020-08-14 18:23:00",
  "budget": null,
  "fees_use": null,
  "fees_world": null,
  "fees_rus": null,
  "rate_mpaa": "R",
  "description": "Приехав в Бангкок, мужчина предлагает таксистке солидную сумму, чтобы всю ночь она была его водителем, а он смог расправиться с убийцами семьи дочери.",
  "iframe_url": "",
  "iframe_poster": null,
  "poster": "https://img.imgilall.me/movies/franchise/3/6/1/7/8/0/0/0/0/0/610x900_36178.jpg",
  "country": {
    "1": "США"
  },
  "collection": [],
  "genre": {
    "17": "Боевик",
    "13": "Триллер"
  },
  "director": [
    "Вич Каосаянанда"
  ],
  "screenwriter": [
    "Вич Каосаянанда"
  ],
  "producer": [
    "Скотт Клэйтон",
    "Марк Дакаскос",
    "Вич Каосаянанда"
  ],
  "operator": [
    "Вич Каосаянанда"
  ],
  "composer": [
    "Джастин Кац"
  ],
  "design": [
    "Тои Йаруваатикул",
    "Наттакита Пиятап"
  ],
  "editor": [
    "Тунчанок Сунтанинтр"
  ],
  "actors": [
    "Марк Дакаскос",
    "Ванида Голтен",
    "Принья Интачай",
    "Майкл С. Нью",
    "Кейн Косуги",
    "Сахаяк Бунтханакит",
    "Джули Кондра",
    "Шивам Пава",
    "Сирипон Юктадатта",
    "Чарли Рюдпоканон"
  ],
  "actors_dubl": [
    "Даниил Эльдаров",
    "Татьяна Абрамова",
    "Александр Матвеев",
    "Иван Калинин",
    "Александр Воронов"
  ],
  "trivia": [],
  "trailers": [],
  "seasons": [],
  "voiceActing": [
    "Рус. Дублированный",
    "Eng.Original"
  ],
  "subtitle": [
    "Eng. full"
  ],
  "parts": []
}
