{
  "id": 16447,
  "name": "Мы мечта: Дети на фестивале Мартина Лютера Кинга",
  "name_eng": "We Are the Dream: The Kids of the Oakland MLK Oratorical Fest",
  "year": 2020,
  "slogan": "—",
  "age": "18+",
  "type": "film",
  "quality": "FHD (1080p)",
  "imdb": "6.3",
  "imdb_id": "11661552",
  "kinopoisk": null,
  "kinopoisk_id": "1342902",
  "world_art": null,
  "world_art_id": null,
  "time": "58 мин.",
  "ads": true,
  "premier": "2020-02-18",
  "premier_rus": "2020-02-19",
  "availability": "2020-02-20",
  "activate_time": "2020-04-13 15:53:00",
  "budget": null,
  "fees_use": null,
  "fees_world": null,
  "fees_rus": null,
  "rate_mpaa": null,
  "description": null,
  "iframe_url": "",
  "iframe_poster": null,
  "poster": "https://img.imgilall.me/movies/franchise/1/6/4/4/7/0/0/0/0/0/610x900_16447.jpg",
  "country": {
    "1": "США"
  },
  "collection": [],
  "genre": {
    "54": "Документальный",
    "10": "Зарубежный"
  },
  "director": [
    "Эми Шатц"
  ],
  "screenwriter": [],
  "producer": [
    "Дайан Кольер",
    "Нэнси Абрахам",
    "Аматус Карим Али"
  ],
  "operator": [
    "Алекс Раппопорт"
  ],
  "composer": [],
  "design": [],
  "editor": [
    "Том Паттерсон"
  ],
  "actors": [],
  "actors_dubl": [],
  "trivia": [],
  "trailers": [],
  "seasons": [],
  "voiceActing": [
    "Рус. Люб. многоголосый"
  ],
  "subtitle": [],
  "parts": []
}
