{
  "id": 16773,
  "name": "Банда",
  "name_eng": "Gaeng",
  "year": 2019,
  "slogan": "—",
  "age": null,
  "type": "film",
  "quality": "FHD (1080p)",
  "imdb": "6.0",
  "imdb_id": "0",
  "kinopoisk": null,
  "kinopoisk_id": "1330195",
  "world_art": null,
  "world_art_id": null,
  "time": "94 мин. / 01:34",
  "ads": true,
  "premier": "2019-10-04",
  "premier_rus": "2019-10-05",
  "availability": "2019-10-06",
  "activate_time": "2020-04-18 18:49:00",
  "budget": "",
  "fees_use": "",
  "fees_world": "",
  "fees_rus": "",
  "rate_mpaa": "",
  "description": " Задиру-ученика, переводят в школу для трудных подростков. Вскоре выясняется, что в этой школе существует бойцовский клуб и если ты хочешь выжить в суровой кровавой реальности данного заведения, ты должен принять вызов!",
  "iframe_url": "",
  "iframe_poster": null,
  "poster": "https://img.imgilall.me/movies/franchise/1/6/7/7/3/0/0/0/0/0/610x900_16773.jpg",
  "country": {
    "16": "Корея Южная"
  },
  "collection": {
    "43": "Про подростков"
  },
  "genre": {
    "17": "Боевик",
    "10": "Зарубежный"
  },
  "director": [
    "Чо Ба-рын"
  ],
  "screenwriter": [
    "Чо Ба-рын"
  ],
  "producer": [],
  "operator": [],
  "composer": [],
  "design": [],
  "editor": [
    "Чо Ба-рын"
  ],
  "actors": [
    "Ким Джу-хон",
    "Ким Дэ-хан",
    "Пэк Чэ-мин",
    "Ли Джон-хён"
  ],
  "actors_dubl": [],
  "trivia": [],
  "trailers": [],
  "seasons": [],
  "voiceActing": [
    "Рус. Люб. многоголосый"
  ],
  "subtitle": [],
  "parts": []
}
