{
  "id": 14262,
  "name": "Вавилон",
  "name_eng": "Babil",
  "year": 2020,
  "slogan": "—",
  "age": null,
  "type": "series",
  "quality": "HD (720p)",
  "imdb": "7.2",
  "imdb_id": "11138216",
  "kinopoisk": null,
  "kinopoisk_id": "1316546",
  "world_art": null,
  "world_art_id": null,
  "time": "—",
  "ads": true,
  "premier": "2020-01-17",
  "premier_rus": "2020-01-18",
  "availability": "2020-01-18",
  "serial_status": "offline",
  "activate_time": "2020-01-18 23:51:00",
  "budget": "",
  "fees_use": "",
  "fees_world": "",
  "fees_rus": "",
  "rate_mpaa": "",
  "description": "В сериале \"Вавилон\", вы увидите историю профессора Ирфана, жизнь которого пошла под откос. Он разрывается между женой и любовницей, он преподавал в одном из престижных экономических университетов страны, но из-за своих свободолюбивых взглядов его увольняют. И в это же время он узнает, что его сын смертельно болен и ему необходимо дорогостоящее лечение. Ирфан попадает в черные списки, никто не хочет брать его на работу. От отчаяния Ирфан и его друг Эгемен решаются на мошенничество с недвижимостью. Это их последний шанс. В короткие сроки они неожиданно добиваются успеха и зарабатывают кучу денег. Однако мафия начинает их преследовать. К тому же, они оказываются замешенными в одну из крупных мошеннических операций страны. За организацию финансовой пирамиды на них начинает охоту полиция. Сможет ли Ирфан оплатить дорогостоящее лечение сына и спасти его жизнь и при этом сам остаться в живых? И какие тайны прошлого скрывает профессор?",
  "iframe_url": "",
  "poster": "https://img.imgilall.me/movies/franchise/1/4/2/6/2/0/0/0/0/0/610x900_14262.jpg",
  "country": {
    "36": "Турция"
  },
  "collection": [],
  "genre": {
    "10": "Зарубежный",
    "7": "Драма"
  },
  "director": [
    "Улуч Байрактар"
  ],
  "screenwriter": [
    "Нукет Биджакджи",
    "Özlem Yücel",
    "Damla Serim"
  ],
  "producer": [
    "Керем Чатай",
    "Tamer Basaran",
    "Kaan Tolga Degirmenci"
  ],
  "operator": [
    "Эрджан Озкан"
  ],
  "composer": [
    "Тойгар Ышыклы"
  ],
  "design": [
    "Aykut Ayaztuna",
    "Дилек Япкуёз Аязтуна",
    "Онур Туг"
  ],
  "editor": [
    "Каан Оден",
    "Сердар Чакулар"
  ],
  "actors": [
    "Халит Эргенч",
    "Аслы Энвер",
    "Нур Феттахоглу",
    "Бирдже Акалай",
    "Месут Акуста",
    "Beren Kasimogullari",
    "Веда Юртсевер Ипек",
    "Селахаттин Пасали",
    "Lesli Karavil",
    "Mert Dogan"
  ],
  "actors_dubl": [],
  "trivia": [],
  "trailers": [],
  "seasons": [
    {
      "poster": null,
      "release_ru": "2020-01-18",
      "release_world": "2020-01-17",
      "availability": "2020-01-19",
      "iframe_url": "",
      "season": 1,
      "episodes": [
        {
          "episode": 1,
          "name": null,
          "iframe_url": "",
          "iframe_poster": null,
          "release_ru": "2020-01-18",
          "release_world": "2020-01-17",
          "availability": "2020-01-19",
          "voiceActing": [
            "Рус. Люб. двухголосый"
          ],
          "ads": false,
          "subtitle": []
        },
        {
          "episode": 2,
          "name": null,
          "iframe_url": "",
          "iframe_poster": null,
          "release_ru": "2020-01-25",
          "release_world": "2020-01-24",
          "availability": "2020-01-26",
          "voiceActing": [
            "Рус. Люб. двухголосый"
          ],
          "ads": false,
          "subtitle": []
        },
        {
          "episode": 3,
          "name": null,
          "iframe_url": "",
          "iframe_poster": null,
          "release_ru": "2020-02-01",
          "release_world": "2020-01-31",
          "availability": "2020-02-02",
          "voiceActing": [
            "Рус. Люб. двухголосый"
          ],
          "ads": false,
          "subtitle": []
        },
        {
          "episode": 4,
          "name": null,
          "iframe_url": "",
          "iframe_poster": null,
          "release_ru": "2020-02-08",
          "release_world": "2020-02-07",
          "availability": "2020-02-09",
          "voiceActing": [
            "Рус. Люб. двухголосый"
          ],
          "ads": false,
          "subtitle": []
        },
        {
          "episode": 5,
          "name": null,
          "iframe_url": "",
          "iframe_poster": null,
          "release_ru": "2020-02-15",
          "release_world": "2020-02-14",
          "availability": "2020-02-16",
          "voiceActing": [
            "Рус. Люб. двухголосый"
          ],
          "ads": false,
          "subtitle": []
        },
        {
          "episode": 6,
          "name": null,
          "iframe_url": "",
          "iframe_poster": null,
          "release_ru": "2020-02-22",
          "release_world": "2020-02-21",
          "availability": "2020-02-23",
          "voiceActing": [
            "Рус. Люб. двухголосый"
          ],
          "ads": false,
          "subtitle": []
        },
        {
          "episode": 7,
          "name": null,
          "iframe_url": "",
          "iframe_poster": null,
          "release_ru": "2020-03-07",
          "release_world": "2020-03-06",
          "availability": "2020-03-08",
          "voiceActing": [
            "Octopus"
          ],
          "ads": true,
          "subtitle": []
        },
        {
          "episode": 8,
          "name": null,
          "iframe_url": "",
          "iframe_poster": null,
          "release_ru": "2020-03-14",
          "release_world": "2020-03-13",
          "availability": "2020-03-15",
          "voiceActing": [
            "Octopus"
          ],
          "ads": true,
          "subtitle": []
        },
        {
          "episode": 9,
          "name": null,
          "iframe_url": "",
          "iframe_poster": null,
          "release_ru": "2020-03-21",
          "release_world": "2020-03-20",
          "availability": "2020-03-22",
          "voiceActing": [
            "Octopus"
          ],
          "ads": true,
          "subtitle": []
        },
        {
          "episode": 10,
          "name": null,
          "iframe_url": "",
          "iframe_poster": null,
          "release_ru": "2020-03-28",
          "release_world": "2020-03-27",
          "availability": "2020-03-29",
          "voiceActing": [
            "Octopus"
          ],
          "ads": true,
          "subtitle": []
        }
      ]
    },
    {
      "poster": null,
      "release_ru": "2020-09-12",
      "release_world": "2020-09-11",
      "availability": "2020-09-13",
      "iframe_url": "",
      "season": 2,
      "episodes": [
        {
          "episode": 11,
          "name": null,
          "iframe_url": "",
          "iframe_poster": null,
          "release_ru": "2020-09-12",
          "release_world": "2020-09-11",
          "availability": "2020-09-13",
          "voiceActing": [
            "Octopus"
          ],
          "ads": true,
          "subtitle": []
        },
        {
          "episode": 12,
          "name": null,
          "iframe_url": "",
          "iframe_poster": null,
          "release_ru": "2020-09-19",
          "release_world": "2020-09-18",
          "availability": "2020-09-20",
          "voiceActing": [
            "Octopus"
          ],
          "ads": true,
          "subtitle": []
        },
        {
          "episode": 13,
          "name": null,
          "iframe_url": "",
          "iframe_poster": null,
          "release_ru": "2020-09-26",
          "release_world": "2020-09-25",
          "availability": "2020-09-27",
          "voiceActing": [
            "Octopus"
          ],
          "ads": true,
          "subtitle": []
        },
        {
          "episode": 14,
          "name": null,
          "iframe_url": "",
          "iframe_poster": null,
          "release_ru": null,
          "release_world": null,
          "availability": null,
          "voiceActing": [
            "Octopus"
          ],
          "ads": true,
          "subtitle": []
        },
        {
          "episode": 15,
          "name": null,
          "iframe_url": "",
          "iframe_poster": null,
          "release_ru": null,
          "release_world": null,
          "availability": null,
          "voiceActing": [
            "Octopus"
          ],
          "ads": true,
          "subtitle": []
        },
        {
          "episode": 16,
          "name": null,
          "iframe_url": "",
          "iframe_poster": null,
          "release_ru": null,
          "release_world": null,
          "availability": null,
          "voiceActing": [
            "Octopus"
          ],
          "ads": true,
          "subtitle": []
        },
        {
          "episode": 17,
          "name": null,
          "iframe_url": "",
          "iframe_poster": null,
          "release_ru": null,
          "release_world": null,
          "availability": null,
          "voiceActing": [
            "Octopus"
          ],
          "ads": true,
          "subtitle": []
        },
        {
          "episode": 18,
          "name": null,
          "iframe_url": "",
          "iframe_poster": null,
          "release_ru": null,
          "release_world": null,
          "availability": null,
          "voiceActing": [
            "Octopus"
          ],
          "ads": true,
          "subtitle": []
        },
        {
          "episode": 19,
          "name": null,
          "iframe_url": "",
          "iframe_poster": null,
          "release_ru": null,
          "release_world": null,
          "availability": null,
          "voiceActing": [
            "Octopus"
          ],
          "ads": true,
          "subtitle": []
        },
        {
          "episode": 20,
          "name": null,
          "iframe_url": "",
          "iframe_poster": null,
          "release_ru": null,
          "release_world": null,
          "availability": null,
          "voiceActing": [
            "Octopus"
          ],
          "ads": true,
          "subtitle": []
        }
      ]
    }
  ],
  "voiceActing": [
    "Рус. Люб. двухголосый",
    "Octopus"
  ],
  "subtitle": [],
  "parts": []
}
