{
  "id": 36182,
  "name": "Убийственный план",
  "name_eng": "A Daughter's Plan To Kill",
  "year": 2019,
  "slogan": "—",
  "age": null,
  "type": "film",
  "quality": "HD (720p)",
  "imdb": "4.7",
  "imdb_id": "11058006",
  "kinopoisk": null,
  "kinopoisk_id": "1309459",
  "world_art": null,
  "world_art_id": null,
  "time": "90 мин. / 01:30",
  "ads": false,
  "premier": "2019-11-15",
  "premier_rus": "2019-11-16",
  "availability": "2019-11-17",
  "activate_time": "2020-08-17 09:58:00",
  "budget": "",
  "fees_use": "",
  "fees_world": "",
  "fees_rus": "",
  "rate_mpaa": "",
  "description": "Когда Кэти и Грэг Карлайл пригласили дочь Грэга пожить с ними, они понятия не имели, что в их идеальную семейную жизнь придут ревность, насилие и обман.",
  "iframe_url": "",
  "iframe_poster": null,
  "poster": "https://img.imgilall.me/movies/franchise/3/6/1/8/2/0/0/0/0/0/610x900_36182.jpg",
  "country": {
    "1": "США"
  },
  "collection": [],
  "genre": {
    "13": "Триллер"
  },
  "director": [
    "Йен Нилс"
  ],
  "screenwriter": [
    "Шэнон Финли",
    "Диана Гаррет"
  ],
  "producer": [
    "Йен Нилс"
  ],
  "operator": [
    "Гильермо Камео"
  ],
  "composer": [
    "Andrew Akler"
  ],
  "design": [
    "Александра Энгельсон"
  ],
  "editor": [
    "Will Meade"
  ],
  "actors": [
    "Клэр Коффи",
    "Мэтт Даллас",
    "Джордан Лэйн Прайс",
    "Лиам Обергфолл",
    "Lauren DiMario",
    "Уилл Томи",
    "Дональд Дэш",
    "Джабари Грэй",
    "Чандлер Лоувелл"
  ],
  "actors_dubl": [],
  "trivia": [],
  "trailers": [],
  "seasons": [],
  "voiceActing": [
    "Рус. Проф. многоголосый",
    "Укр. Проф. багатоголосий",
    "Eng.Original"
  ],
  "subtitle": [],
  "parts": []
}
