{
  "id": 20222,
  "name": "Ветер, облака и дождь",
  "name_eng": "Baramgwa gureumgwa bi",
  "year": 2020,
  "slogan": "—",
  "age": null,
  "type": "series",
  "quality": "HD (720p)",
  "imdb": "7.5",
  "imdb_id": "12343602",
  "kinopoisk": null,
  "kinopoisk_id": "1346488",
  "world_art": null,
  "world_art_id": null,
  "time": "60 мин",
  "ads": false,
  "premier": "2020-05-17",
  "premier_rus": "2020-05-18",
  "availability": "2020-05-19",
  "serial_status": "offline",
  "activate_time": "2020-06-02 09:13:00",
  "budget": null,
  "fees_use": null,
  "fees_world": null,
  "fees_rus": null,
  "rate_mpaa": null,
  "description": "Потомок благородного рода с великолепными навыками чтения лиц и принцесса, дочь короля Чхольчона, со способностью видеть судьбы людей пытаются изменить Чосон к лучшему.",
  "iframe_url": "",
  "poster": "https://img.imgilall.me/movies/franchise/2/0/2/2/2/0/0/0/0/0/610x900_20222.jpg",
  "country": {
    "16": "Корея Южная"
  },
  "collection": {
    "93": "Про средневековье"
  },
  "genre": {
    "6": "Фэнтези",
    "28": "Исторический",
    "10": "Зарубежный"
  },
  "director": [
    "Юн Сан-хо"
  ],
  "screenwriter": [],
  "producer": [],
  "operator": [],
  "composer": [],
  "design": [],
  "editor": [],
  "actors": [
    "Пак Щи-ху",
    "Ко Сон-хи",
    "Сон Хёк",
    "Чон Гван-нёль",
    "Чо Сон-хён",
    "Ким Сын-су",
    "Юн А-джон",
    "Ван Бит-на",
    "Чха Гван-су",
    "Ким Бо-ён"
  ],
  "actors_dubl": [],
  "trivia": [],
  "trailers": [],
  "seasons": [
    {
      "poster": null,
      "release_ru": null,
      "release_world": null,
      "availability": null,
      "iframe_url": "",
      "season": 1,
      "episodes": [
        {
          "episode": 1,
          "name": null,
          "iframe_url": "",
          "iframe_poster": null,
          "release_ru": null,
          "release_world": null,
          "availability": null,
          "voiceActing": [
            "SOFTBOX"
          ],
          "ads": false,
          "subtitle": []
        },
        {
          "episode": 2,
          "name": null,
          "iframe_url": "",
          "iframe_poster": null,
          "release_ru": null,
          "release_world": null,
          "availability": null,
          "voiceActing": [
            "SOFTBOX"
          ],
          "ads": false,
          "subtitle": []
        },
        {
          "episode": 3,
          "name": null,
          "iframe_url": "",
          "iframe_poster": null,
          "release_ru": null,
          "release_world": null,
          "availability": null,
          "voiceActing": [
            "SOFTBOX"
          ],
          "ads": false,
          "subtitle": []
        }
      ]
    }
  ],
  "voiceActing": [
    "SOFTBOX"
  ],
  "subtitle": [],
  "parts": []
}
