{
  "id": 13907,
  "name": "Деон Коул: Коул Хартет",
  "name_eng": "Deon Cole: Cole Hearted",
  "year": 2019,
  "slogan": "—",
  "age": null,
  "type": "film",
  "quality": "HD (720p)",
  "imdb": "6.9",
  "imdb_id": "10977680",
  "kinopoisk": null,
  "kinopoisk_id": "1304445",
  "world_art": null,
  "world_art_id": null,
  "time": "69 мин. / 01:09",
  "ads": true,
  "premier": "2019-10-08",
  "premier_rus": null,
  "availability": null,
  "activate_time": "2020-01-10 17:55:00",
  "budget": "",
  "fees_use": "",
  "fees_world": "",
  "fees_rus": "",
  "rate_mpaa": "",
  "description": "Придерживаясь своей веры в то, что комедия является последней необработанной формой выражения, Деон Коул объясняет правильное время, чтобы поблагодарить Иисуса, и неподходящее время, чтобы сказать «благо».",
  "iframe_url": "",
  "iframe_poster": null,
  "poster": "https://img.imgilall.me/movies/franchise/1/3/9/0/7/0/0/0/0/0/610x900_13907.jpg",
  "country": {
    "1": "США"
  },
  "collection": [],
  "genre": {
    "19": "Комедия",
    "10": "Зарубежный"
  },
  "director": [
    "Райан Полито"
  ],
  "screenwriter": [
    "Дион Коул"
  ],
  "producer": [
    "Кирстен Эймс",
    "Джон Ирвин",
    "Нил А. Шеридан"
  ],
  "operator": [
    "Джей Лафайетт"
  ],
  "composer": [],
  "design": [
    "Том Ленц",
    "Мэл Ловрик"
  ],
  "editor": [
    "Майкл Шульц"
  ],
  "actors": [
    "Дион Коул"
  ],
  "actors_dubl": [],
  "trivia": [],
  "trailers": [],
  "seasons": [],
  "voiceActing": [
    "Рус. Люб. многоголосый"
  ],
  "subtitle": [],
  "parts": []
}
