{
  "id": 22240,
  "name": "Бесконечная юность",
  "name_eng": "Mugen Foundation",
  "year": 2018,
  "slogan": "—",
  "age": null,
  "type": "film",
  "quality": "HD (720p)",
  "imdb": "5.0",
  "imdb_id": "11908406",
  "kinopoisk": null,
  "kinopoisk_id": "1357506",
  "world_art": null,
  "world_art_id": null,
  "time": "102 мин. / 01:42",
  "ads": true,
  "premier": "2018-11-19",
  "premier_rus": "2018-11-20",
  "availability": "2018-11-21",
  "activate_time": "2020-06-08 16:34:00",
  "budget": "",
  "fees_use": "",
  "fees_world": "",
  "fees_rus": "",
  "rate_mpaa": "",
  "description": "Застенчивая старшеклассница Мираи мечтает стать модельером, но с учетом ее характера и отсутствия навыков общения у девушки мало шансов на успех. Однажды она знакомится с ровесницей, поющей и играющей на укулеле. Примерно в то же время одноклассник замечает у Мираи книжку по дизайну и предлагает ей вступить в школьный драматический кружок.",
  "iframe_url": "",
  "iframe_poster": null,
  "poster": "https://img.imgilall.me/movies/franchise/2/2/2/4/0/0/0/0/0/0/610x900_22240.jpg",
  "country": {
    "18": "Япония"
  },
  "collection": {
    "73": "Про девушек"
  },
  "genre": {
    "10": "Зарубежный",
    "7": "Драма"
  },
  "director": [
    "Акира Осаки"
  ],
  "screenwriter": [],
  "producer": [
    "Митио Косикава"
  ],
  "operator": [],
  "composer": [],
  "design": [],
  "editor": [],
  "actors": [
    "Сара Минами",
    "Нанока Хара",
    "Карин Оно",
    "Нанами Хидака",
    "Гоити Минэ",
    "Рэйко Катаока",
    "Нисияма Госамэ",
    "Акана Икэда",
    "Эмина Кондо"
  ],
  "actors_dubl": [],
  "trivia": [],
  "trailers": [],
  "seasons": [],
  "voiceActing": [
    "Колобок"
  ],
  "subtitle": [],
  "parts": []
}
