{
  "id": 42880,
  "name": "Настя, соберись!",
  "name_eng": "",
  "year": 2020,
  "slogan": "«Люби себя всех!»",
  "age": "18+",
  "type": "series",
  "quality": "FHD (1080p)",
  "imdb": null,
  "imdb_id": null,
  "kinopoisk": "7.0",
  "kinopoisk_id": "1355061",
  "world_art": null,
  "world_art_id": null,
  "time": "30 мин",
  "ads": false,
  "premier": null,
  "premier_rus": "2021-01-03",
  "availability": "2021-01-04",
  "serial_status": "offline",
  "activate_time": "2021-01-03 20:33:00",
  "budget": null,
  "fees_use": null,
  "fees_world": null,
  "fees_rus": null,
  "rate_mpaa": null,
  "description": "Знакомьтесь: Настя, 29 лет, дизайнер-архитектор, замужем. В ней уживаются пять совершенно разных внутренних «я». Это внутренний ребенок; ответственная за приступы всех генеральных уборок хозяюшка; одержимый контролем требовательный родитель; богиня удовольствий и самоуверенная, дерзкая карьеристка. У каждой из них — свои интересы и представления о счастье. Они хитрят, спорят и воюют между собой. Но когда Настя одновременно потеряет работу, мужа и лучшую подругу, пятёрку ждёт сложная задача. Им предстоит научиться договариваться друг с другом и идти на компромиссы — все ради того, чтобы Настя смогла с уверенностью сказать: «Я люблю себя всех!»",
  "iframe_url": "",
  "poster": "https://img.imgilall.me/movies/franchise/4/2/8/8/0/0/0/0/0/0/610x900_42880.jpg",
  "country": {
    "5": "Россия"
  },
  "collection": [],
  "genre": {
    "19": "Комедия"
  },
  "director": [
    "Вера Смолина",
    "Константин Майер"
  ],
  "screenwriter": [
    "Константин Майер",
    "Александр Вялых",
    "Ася Беликова"
  ],
  "producer": [
    "Константин Майер",
    "Сергей Корнихин",
    "Николай Куликов"
  ],
  "operator": [
    "Александр Тананов",
    "Егор Суровцев",
    "Николай Платонов"
  ],
  "composer": [],
  "design": [
    "Люся Королькова",
    "Надежда Зенкова"
  ],
  "editor": [
    "Юлия Писаренко",
    "Марина Зимина",
    "Даниил Майер"
  ],
  "actors": [
    "Любовь Аксенова",
    "Рина Гришина",
    "Алина Алексеева",
    "Ева Смирнова",
    "Юлия Гришаева",
    "Светлана Камынина",
    "Юлия Ауг",
    "Юрий Чурсин",
    "Вера Строкова",
    "Маргарита Аброськина"
  ],
  "actors_dubl": [],
  "trivia": [],
  "trailers": [],
  "seasons": [
    {
      "poster": null,
      "release_ru": null,
      "release_world": null,
      "availability": null,
      "iframe_url": "",
      "season": 1,
      "episodes": [
        {
          "episode": 1,
          "name": null,
          "iframe_url": "",
          "iframe_poster": null,
          "release_ru": null,
          "release_world": null,
          "availability": null,
          "voiceActing": [
            "Рус. Оригинальный",
            "Рус. Ориг. (без цензуры)"
          ],
          "ads": false,
          "subtitle": [
            "Рус. полные"
          ]
        },
        {
          "episode": 2,
          "name": null,
          "iframe_url": "",
          "iframe_poster": null,
          "release_ru": null,
          "release_world": null,
          "availability": null,
          "voiceActing": [
            "Рус. Оригинальный",
            "Рус. Ориг. (без цензуры)"
          ],
          "ads": false,
          "subtitle": [
            "Рус. полные"
          ]
        },
        {
          "episode": 3,
          "name": null,
          "iframe_url": "",
          "iframe_poster": null,
          "release_ru": null,
          "release_world": null,
          "availability": null,
          "voiceActing": [
            "Рус. Оригинальный",
            "Рус. Ориг. (без цензуры)"
          ],
          "ads": false,
          "subtitle": [
            "Рус. полные"
          ]
        },
        {
          "episode": 4,
          "name": null,
          "iframe_url": "",
          "iframe_poster": null,
          "release_ru": null,
          "release_world": null,
          "availability": null,
          "voiceActing": [
            "Рус. Оригинальный",
            "Рус. Ориг. (без цензуры)"
          ],
          "ads": false,
          "subtitle": [
            "Рус. полные"
          ]
        },
        {
          "episode": 5,
          "name": null,
          "iframe_url": "",
          "iframe_poster": null,
          "release_ru": null,
          "release_world": null,
          "availability": null,
          "voiceActing": [
            "Рус. Оригинальный"
          ],
          "ads": false,
          "subtitle": [
            "Рус. полные"
          ]
        },
        {
          "episode": 6,
          "name": null,
          "iframe_url": "",
          "iframe_poster": null,
          "release_ru": null,
          "release_world": null,
          "availability": null,
          "voiceActing": [
            "Рус. Оригинальный"
          ],
          "ads": false,
          "subtitle": [
            "Рус. полные"
          ]
        },
        {
          "episode": 7,
          "name": null,
          "iframe_url": "",
          "iframe_poster": null,
          "release_ru": null,
          "release_world": null,
          "availability": null,
          "voiceActing": [
            "Рус. Оригинальный",
            "Рус. Ориг. (без цензуры)"
          ],
          "ads": false,
          "subtitle": [
            "Рус. полные"
          ]
        },
        {
          "episode": 8,
          "name": null,
          "iframe_url": "",
          "iframe_poster": null,
          "release_ru": null,
          "release_world": null,
          "availability": null,
          "voiceActing": [
            "Рус. Оригинальный",
            "Рус. Ориг. (без цензуры)"
          ],
          "ads": false,
          "subtitle": [
            "Рус. полные"
          ]
        },
        {
          "episode": 9,
          "name": null,
          "iframe_url": "",
          "iframe_poster": null,
          "release_ru": null,
          "release_world": null,
          "availability": null,
          "voiceActing": [
            "Рус. Оригинальный"
          ],
          "ads": false,
          "subtitle": [
            "Рус. полные"
          ]
        },
        {
          "episode": 10,
          "name": null,
          "iframe_url": "",
          "iframe_poster": null,
          "release_ru": null,
          "release_world": null,
          "availability": null,
          "voiceActing": [
            "Рус. Оригинальный",
            "Рус. Ориг. (без цензуры)"
          ],
          "ads": false,
          "subtitle": [
            "Рус. полные"
          ]
        }
      ]
    }
  ],
  "voiceActing": [
    "Рус. Оригинальный",
    "Рус. Ориг. (без цензуры)"
  ],
  "subtitle": [
    "Рус. полные"
  ],
  "parts": []
}
