{
  "id": 36333,
  "name": "Лава",
  "name_eng": "Lava",
  "year": 2019,
  "slogan": null,
  "age": null,
  "type": "cartoon",
  "quality": "HD (720p)",
  "imdb": "6.0",
  "imdb_id": "10923940",
  "kinopoisk": null,
  "kinopoisk_id": "1302898",
  "world_art": null,
  "world_art_id": null,
  "time": "67 мин. / 01:07",
  "ads": true,
  "premier": "2019-11-16",
  "premier_rus": "2019-11-17",
  "availability": "2019-11-18",
  "activate_time": "2020-08-23 20:10:00",
  "budget": null,
  "fees_use": null,
  "fees_world": null,
  "fees_rus": null,
  "rate_mpaa": null,
  "description": null,
  "iframe_url": "",
  "iframe_poster": null,
  "poster": "https://img.imgilall.me/movies/franchise/3/6/3/3/3/0/0/0/0/0/610x900_36333.jpg",
  "country": {
    "22": "Аргентина"
  },
  "collection": [],
  "genre": {
    "19": "Комедия"
  },
  "director": [
    "Аяр Бласко"
  ],
  "screenwriter": [
    "Аяр Бласко",
    "Nicolás Britos",
    "Сальвадор Санс"
  ],
  "producer": [
    "Florencia Franco",
    "Химена Монтеолива"
  ],
  "operator": [],
  "composer": [
    "Emisor"
  ],
  "design": [
    "Аяр Бласко"
  ],
  "editor": [],
  "actors": [
    "Аяр Бласко",
    "Жустина Бустос",
    "София Гала",
    "Мартин Пироянски"
  ],
  "actors_dubl": [],
  "trivia": [],
  "trailers": [],
  "seasons": [],
  "voiceActing": [
    "Рус. Люб. многоголосый"
  ],
  "subtitle": [],
  "parts": []
}
