{
  "id": 49219,
  "name": "Девятый калибр",
  "name_eng": "Calibro 9",
  "year": 2020,
  "slogan": "—",
  "age": "18+",
  "type": "film",
  "quality": "SD",
  "imdb": "4.5",
  "imdb_id": "11390878",
  "kinopoisk": null,
  "kinopoisk_id": "1330000",
  "world_art": null,
  "world_art_id": null,
  "time": "91 мин. / 01:31",
  "ads": false,
  "premier": "2020-11-23",
  "premier_rus": "2021-09-02",
  "availability": "2021-09-03",
  "activate_time": "2021-08-06 13:13:00",
  "budget": null,
  "fees_use": null,
  "fees_world": "$3 050",
  "fees_rus": null,
  "rate_mpaa": null,
  "description": "Фернандо Пьяцца — успешный адвокат с безупречной репутацией, в отличие от своего отца, у которого было богатое криминальное прошлое. Когда в результате мошенничества со счетов одного из преступных синдикатов пропадает 100 миллионов евро, подозрение падает на Фернандо. Он становится мишенью сразу для двух соперничающих мафиозных кланов. Фернандо должен любыми способами доказать свою непричастность, ведь на кону его жизнь и жизнь еще одно близкого ему человека.",
  "iframe_url": "",
  "iframe_poster": null,
  "poster": "https://img.imgilall.me/movies/franchise/4/9/2/1/9/0/0/0/0/0/610x900_49219.jpg",
  "country": {
    "8": "Италия",
    "29": "Бельгия"
  },
  "collection": [],
  "genre": {
    "25": "Криминал",
    "17": "Боевик",
    "13": "Триллер"
  },
  "director": [
    "Тони Д’Анджело"
  ],
  "screenwriter": [
    "Джанлука Курти",
    "Марко Мартани",
    "Лука Польдельменго"
  ],
  "producer": [
    "Джанлука Курти"
  ],
  "operator": [
    "Рокко Марра"
  ],
  "composer": [
    "Винченцо Аделини",
    "Эмануэле Фрузи"
  ],
  "design": [
    "Стефано Джамбанко",
    "Люсия Барбато"
  ],
  "editor": [
    "Луиджи Меарелли"
  ],
  "actors": [
    "Марко Боччи",
    "Ксения Раппопорт",
    "Алессио Бони",
    "Микеле Плачидо",
    "Барбара Буше",
    "Андреа Арру",
    "Маттиа Бизонни",
    "Нильс Бокановский",
    "Джессика Кресси",
    "Пьетро Делле Пьяне"
  ],
  "actors_dubl": [
    "Глеб Глушенков",
    "Ксения Раппопорт",
    "Александр Дасевич",
    "Павел Конышев",
    "Александра Остроухова"
  ],
  "trivia": [],
  "trailers": [],
  "seasons": [],
  "voiceActing": [
    "Рус. Дублированный"
  ],
  "subtitle": [],
  "parts": []
}
