{
  "id": 37036,
  "name": "Мать",
  "name_eng": "Madre (Mother)",
  "year": 2020,
  "slogan": "—",
  "age": null,
  "type": "film",
  "quality": "HD (720p)",
  "imdb": "4.8",
  "imdb_id": "12144578",
  "kinopoisk": null,
  "kinopoisk_id": "1368139",
  "world_art": null,
  "world_art_id": null,
  "time": "—",
  "ads": true,
  "premier": "2020-04-15",
  "premier_rus": "2020-04-16",
  "availability": "2020-04-17",
  "activate_time": "2020-09-14 17:46:00",
  "budget": "",
  "fees_use": "",
  "fees_world": "",
  "fees_rus": "",
  "rate_mpaa": "",
  "description": "Адела (Флоренсия Бенитес) хочет завести ребенка, но не беременеет и винит своего партнера (Хоакина Бертольда) в бесплодии. В депрессии и отчаянии она обращается к провидцу (\"Чучо\" Фернандес), чтобы узнать, сможет ли она когда-нибудь стать матерью, но этот человек предсказывает судьбу, отмеченную смертью. Все больше страдая и подвергаясь неудержимой одержимости, разум Адели, кажется, движется по все более темному пути.\r\n",
  "iframe_url": "",
  "iframe_poster": null,
  "poster": "https://img.imgilall.me/movies/franchise/3/7/0/3/6/0/0/0/0/0/610x900_37036.jpg",
  "country": {
    "22": "Аргентина",
    "23": "Новая Зеландия"
  },
  "collection": [],
  "genre": {
    "13": "Триллер"
  },
  "director": [
    "Эмин Йома"
  ],
  "screenwriter": [
    "Эмин Йома"
  ],
  "producer": [
    "Эдуардо Камауэр",
    "Михаэль Крецер",
    "Николя Онетти"
  ],
  "operator": [
    "Эмин Йома"
  ],
  "composer": [
    "Лучиано Онетти"
  ],
  "design": [],
  "editor": [
    "Лучиано Онетти"
  ],
  "actors": [
    "Флоренция Бенитез",
    "Флор Бертольд",
    "Хоакин Бертольд",
    "Магуи Брави",
    "Чучо Фернандес",
    "Мигель Анхель Палуди",
    "Daiana Provenzano"
  ],
  "actors_dubl": [],
  "trivia": [],
  "trailers": [],
  "seasons": [],
  "voiceActing": [
    "Колобок"
  ],
  "subtitle": [],
  "parts": []
}
