{
  "id": 50891,
  "name": "Проклятые ритуалы",
  "name_eng": "Damned Rites",
  "year": 2019,
  "slogan": "«The Rite Place, At The Wrong Time...»",
  "age": null,
  "type": "film",
  "quality": "HD (720p)",
  "imdb": null,
  "imdb_id": "11137964",
  "kinopoisk": null,
  "kinopoisk_id": "1345160",
  "world_art": null,
  "world_art_id": null,
  "time": "84 мин. / 01:24",
  "ads": true,
  "premier": null,
  "premier_rus": null,
  "availability": null,
  "activate_time": "2021-09-26 17:23:00",
  "budget": null,
  "fees_use": null,
  "fees_world": null,
  "fees_rus": null,
  "rate_mpaa": null,
  "description": null,
  "iframe_url": "",
  "iframe_poster": null,
  "poster": "https://img.imgilall.me/movies/franchise/5/0/8/9/1/0/0/0/0/0/610x900_50891.jpg",
  "country": {
    "7": "Канада"
  },
  "collection": [],
  "genre": {
    "26": "Ужасы"
  },
  "director": [
    "Ethan R Hill",
    "Jesse Prosser"
  ],
  "screenwriter": [
    "Ethan R Hill"
  ],
  "producer": [
    "Ethan R Hill",
    "Jesse Prosser"
  ],
  "operator": [
    "Jesse Prosser"
  ],
  "composer": [
    "J.M. Beardsley"
  ],
  "design": [],
  "editor": [
    "Ethan R Hill",
    "Jesse Prosser"
  ],
  "actors": [
    "Brianna Johnston",
    "Ethan R Hill",
    "Wayne DeAtley",
    "Jey Marie",
    "Riley Alexander",
    "Rebecca Scheiris",
    "Jennifer Suter",
    "Ida Edwards",
    "Alexander Boldt"
  ],
  "actors_dubl": [],
  "trivia": [],
  "trailers": [],
  "seasons": [],
  "voiceActing": [
    "Синема УС"
  ],
  "subtitle": [],
  "parts": []
}
