{
  "id": 39589,
  "name": "Бигфут: Тропа зверя",
  "name_eng": "Bigfoot: Path of the Beast",
  "year": 2020,
  "slogan": "«Proof is good, blood is better»",
  "age": null,
  "type": "film",
  "quality": "HD (720p)",
  "imdb": "2.5",
  "imdb_id": "11151696",
  "kinopoisk": null,
  "kinopoisk_id": "1314458",
  "world_art": null,
  "world_art_id": null,
  "time": "93 мин. / 01:33",
  "ads": true,
  "premier": "2020-10-12",
  "premier_rus": null,
  "availability": null,
  "activate_time": "2020-10-20 12:09:00",
  "budget": "",
  "fees_use": "",
  "fees_world": "",
  "fees_rus": "",
  "rate_mpaa": "",
  "description": "После загадочного исчезновения жены мужчина страдает от алкоголизма и жаждет убить Бигфута, но для этого придется найти его и выжить в условиях дикой природы и нарастающего безумия.",
  "iframe_url": "",
  "iframe_poster": null,
  "poster": "https://img.imgilall.me/movies/franchise/3/9/5/8/9/0/0/0/0/0/610x900_39589.jpg",
  "country": {
    "1": "США"
  },
  "collection": [],
  "genre": {
    "26": "Ужасы"
  },
  "director": [
    "Justin Snyder"
  ],
  "screenwriter": [
    "Justin Snyder"
  ],
  "producer": [
    "Zach Bowman",
    "Brad Cheng",
    "Sun Mok Hwang"
  ],
  "operator": [
    "Zach Bowman"
  ],
  "composer": [],
  "design": [],
  "editor": [
    "Zach Bowman",
    "Justin Snyder"
  ],
  "actors": [
    "Justin Snyder",
    "Matthew Pulling",
    "Саманта Уэллер",
    "Сюзанна Вудхед",
    "Джейсон Алан Кук",
    "Kala Cooper",
    "Anissa Deanna",
    "Robert Deigh",
    "Lynzey Donahue",
    "Марк Гудман"
  ],
  "actors_dubl": [],
  "trivia": [],
  "trailers": [
    {
      "name": "трейлер №1",
      "number": 1,
      "iframe_poster": null,
      "season": null,
      "iframe_url": ""
    }
  ],
  "seasons": [],
  "voiceActing": [
    "Рус. Люб. многоголосый"
  ],
  "subtitle": [],
  "parts": []
}
