{
  "id": 18750,
  "name": "Операция «Буффало»",
  "name_eng": "Operation Buffalo",
  "year": 2020,
  "slogan": "«Mushroom clouds, misadventure and murder»",
  "age": null,
  "type": "series",
  "quality": "HD (720p)",
  "imdb": "6.6",
  "imdb_id": "11853364",
  "kinopoisk": null,
  "kinopoisk_id": "1354700",
  "world_art": null,
  "world_art_id": null,
  "time": "52 мин. всего",
  "ads": false,
  "premier": "2020-05-31",
  "premier_rus": "2020-06-01",
  "availability": "2020-06-02",
  "serial_status": "offline",
  "activate_time": "2020-05-12 17:02:00",
  "budget": null,
  "fees_use": null,
  "fees_world": null,
  "fees_rus": null,
  "rate_mpaa": null,
  "description": "В Маралинге, Южная Австралия, в разгар холодной войны на отдаленной военной базе, где Великобритания проводит ядерные испытания, процветает паранойя: бомбы - не единственное, что подвергается проверке.",
  "iframe_url": "",
  "poster": "https://img.imgilall.me/movies/franchise/1/8/7/5/0/0/0/0/0/0/610x900_18750.jpg",
  "country": {
    "4": "Австралия"
  },
  "collection": [],
  "genre": {
    "10": "Зарубежный",
    "7": "Драма"
  },
  "director": [
    "Питер Дункан"
  ],
  "screenwriter": [
    "Эндрю Анастасиос",
    "Питер Дункан",
    "Tanya Phegan"
  ],
  "producer": [
    "Ванесса Браун",
    "Питер Дункан",
    "Эндрю Грегори"
  ],
  "operator": [
    "Мартин МакГрат"
  ],
  "composer": [
    "Энтони Партос"
  ],
  "design": [
    "Колин Гибсон",
    "Николас ДаРе",
    "Венди Корк"
  ],
  "editor": [
    "Марк Перри"
  ],
  "actors": [
    "Ивен Лесли",
    "Джессика Де Гау",
    "Джеймс Кромуэлл",
    "Тони Мартин",
    "Алан Дьюкс",
    "Сэм Парсонсон",
    "Alexander Bertrand",
    "Бренден Ловетт",
    "Бенедикт Уолл",
    "Эдриэнн Пикеринг"
  ],
  "actors_dubl": [],
  "trivia": [],
  "trailers": [
    {
      "name": "трейлер №1",
      "number": 1,
      "iframe_poster": null,
      "season": 1,
      "iframe_url": ""
    }
  ],
  "seasons": [
    {
      "poster": null,
      "release_ru": "2020-06-01",
      "release_world": "2020-05-31",
      "availability": "2020-06-02",
      "iframe_url": "",
      "season": 1,
      "episodes": [
        {
          "episode": 1,
          "name": null,
          "iframe_url": "",
          "iframe_poster": null,
          "release_ru": "2020-06-01",
          "release_world": "2020-05-31",
          "availability": "2020-06-02",
          "voiceActing": [
            "HDRezka Studio"
          ],
          "ads": false,
          "subtitle": []
        },
        {
          "episode": 2,
          "name": null,
          "iframe_url": "",
          "iframe_poster": null,
          "release_ru": "2020-06-08",
          "release_world": "2020-06-07",
          "availability": "2020-06-08",
          "voiceActing": [
            "HDRezka Studio"
          ],
          "ads": false,
          "subtitle": []
        },
        {
          "episode": 3,
          "name": null,
          "iframe_url": "",
          "iframe_poster": null,
          "release_ru": "2020-06-15",
          "release_world": "2020-06-14",
          "availability": "2020-06-15",
          "voiceActing": [
            "HDRezka Studio"
          ],
          "ads": false,
          "subtitle": []
        },
        {
          "episode": 4,
          "name": null,
          "iframe_url": "",
          "iframe_poster": null,
          "release_ru": "2020-06-22",
          "release_world": "2020-06-21",
          "availability": "2020-06-22",
          "voiceActing": [
            "HDRezka Studio"
          ],
          "ads": false,
          "subtitle": []
        },
        {
          "episode": 5,
          "name": null,
          "iframe_url": "",
          "iframe_poster": null,
          "release_ru": "2020-06-29",
          "release_world": "2020-06-28",
          "availability": "2020-06-29",
          "voiceActing": [
            "HDRezka Studio"
          ],
          "ads": false,
          "subtitle": []
        },
        {
          "episode": 6,
          "name": null,
          "iframe_url": "",
          "iframe_poster": null,
          "release_ru": "2020-07-06",
          "release_world": "2020-07-05",
          "availability": "2020-07-06",
          "voiceActing": [
            "HDRezka Studio"
          ],
          "ads": false,
          "subtitle": []
        }
      ]
    }
  ],
  "voiceActing": [
    "HDRezka Studio"
  ],
  "subtitle": [],
  "parts": []
}
