{
  "id": 36475,
  "name": "Клятва",
  "name_eng": "The Vow",
  "year": 2020,
  "slogan": "—",
  "age": null,
  "type": "series",
  "quality": "FHD (1080p)",
  "imdb": "7.0",
  "imdb_id": "10222764",
  "kinopoisk": "7.2",
  "kinopoisk_id": "1380922",
  "world_art": null,
  "world_art_id": null,
  "time": "60 мин",
  "ads": false,
  "premier": "2020-08-23",
  "premier_rus": "2020-08-24",
  "availability": "2020-08-25",
  "serial_status": "online",
  "activate_time": "2020-08-27 12:38:00",
  "budget": null,
  "fees_use": null,
  "fees_world": null,
  "fees_rus": "$2 635",
  "rate_mpaa": null,
  "description": "Рассказ о нашумевшем в США расследовании вокруг якобы сетевой компании NXIVM. Руководителям компании были предъявлены обвинения в торговле людьми в целях сексуальной эксплуатации.",
  "iframe_url": "",
  "poster": "https://img.imgilall.me/movies/franchise/3/6/4/7/5/0/0/0/0/0/610x900_36475.jpg",
  "country": {
    "1": "США"
  },
  "collection": [],
  "genre": {
    "54": "Документальный"
  },
  "director": [
    "Карим Амер",
    "Джехен Нужейм",
    "Omar Mullick"
  ],
  "screenwriter": [
    "Mona Eldaief",
    "Ричард Ханкин",
    "Крис Хегедус"
  ],
  "producer": [
    "Розадель Варела",
    "Карим Амер",
    "Джехен Нужейм"
  ],
  "operator": [
    "Александр Левандовски",
    "Ian Moubayed",
    "Sam Price-Waldman"
  ],
  "composer": [
    "Мак Квейл"
  ],
  "design": [],
  "editor": [
    "Кристофер Пессиг",
    "Ребекка Адорно",
    "Alicia Ellis"
  ],
  "actors": [
    "Энтони Амес",
    "Сара Эдмондсон",
    "Бонни Пессе",
    "Марк Висенте",
    "Кэтрин Оксенберг",
    "Frank Parlato",
    "Barbara Bouchey",
    "Susan Dones",
    "Kristin Keefe",
    "Toni Natalie"
  ],
  "actors_dubl": [],
  "trivia": [],
  "trailers": [
    {
      "name": "трейлер №1",
      "number": 1,
      "iframe_poster": null,
      "season": 1,
      "iframe_url": ""
    }
  ],
  "seasons": [
    {
      "poster": null,
      "release_ru": "2020-08-24",
      "release_world": "2020-08-23",
      "availability": "2020-08-25",
      "iframe_url": "",
      "season": 1,
      "episodes": [
        {
          "episode": 1,
          "name": "The Science of Joy",
          "iframe_url": "",
          "iframe_poster": null,
          "release_ru": "2020-08-24",
          "release_world": "2020-08-23",
          "availability": "2020-08-25",
          "voiceActing": [
            "HDRezka Studio"
          ],
          "ads": false,
          "subtitle": [
            "Рус. форсированные"
          ]
        },
        {
          "episode": 2,
          "name": "Viscera",
          "iframe_url": "",
          "iframe_poster": null,
          "release_ru": "2020-08-31",
          "release_world": "2020-08-30",
          "availability": "2020-09-01",
          "voiceActing": [
            "HDRezka Studio"
          ],
          "ads": false,
          "subtitle": [
            "Рус. форсированные"
          ]
        },
        {
          "episode": 3,
          "name": "At Cause",
          "iframe_url": "",
          "iframe_poster": null,
          "release_ru": "2020-09-07",
          "release_world": "2020-09-06",
          "availability": "2020-09-08",
          "voiceActing": [
            "HDRezka Studio"
          ],
          "ads": false,
          "subtitle": [
            "Рус. форсированные"
          ]
        },
        {
          "episode": 4,
          "name": "Building Character",
          "iframe_url": "",
          "iframe_poster": null,
          "release_ru": "2020-09-14",
          "release_world": "2020-09-13",
          "availability": "2020-09-15",
          "voiceActing": [
            "HDRezka Studio"
          ],
          "ads": false,
          "subtitle": [
            "Рус. форсированные"
          ]
        },
        {
          "episode": 5,
          "name": "Class 1 Data",
          "iframe_url": "",
          "iframe_poster": null,
          "release_ru": "2020-09-21",
          "release_world": "2020-09-20",
          "availability": "2020-09-22",
          "voiceActing": [
            "HDRezka Studio"
          ],
          "ads": false,
          "subtitle": [
            "Рус. форсированные"
          ]
        },
        {
          "episode": 6,
          "name": "Honesty & Disclosure",
          "iframe_url": "",
          "iframe_poster": null,
          "release_ru": "2020-09-28",
          "release_world": "2020-09-27",
          "availability": "2020-09-29",
          "voiceActing": [
            "HDRezka Studio"
          ],
          "ads": false,
          "subtitle": [
            "Рус. форсированные"
          ]
        },
        {
          "episode": 7,
          "name": null,
          "iframe_url": "",
          "iframe_poster": null,
          "release_ru": null,
          "release_world": null,
          "availability": null,
          "voiceActing": [
            "HDRezka Studio"
          ],
          "ads": false,
          "subtitle": [
            "Рус. форсированные"
          ]
        },
        {
          "episode": 8,
          "name": null,
          "iframe_url": "",
          "iframe_poster": null,
          "release_ru": null,
          "release_world": null,
          "availability": null,
          "voiceActing": [
            "HDRezka Studio"
          ],
          "ads": false,
          "subtitle": [
            "Рус. форсированные"
          ]
        },
        {
          "episode": 9,
          "name": null,
          "iframe_url": "",
          "iframe_poster": null,
          "release_ru": null,
          "release_world": null,
          "availability": null,
          "voiceActing": [
            "HDRezka Studio"
          ],
          "ads": false,
          "subtitle": [
            "Рус. форсированные"
          ]
        }
      ]
    }
  ],
  "voiceActing": [
    "HDRezka Studio"
  ],
  "subtitle": [
    "Рус. форсированные"
  ],
  "parts": []
}
