{
  "id": 18363,
  "name": "Коронавирус. Всё, что нужно знать",
  "name_eng": "",
  "year": 2020,
  "slogan": "—",
  "age": "12+",
  "type": "tv-show",
  "quality": "FHD (1080p)",
  "imdb": null,
  "imdb_id": null,
  "kinopoisk": "6.1",
  "kinopoisk_id": "1361534",
  "world_art": null,
  "world_art_id": null,
  "time": "45 мин. серия (89 мин. всего)",
  "ads": false,
  "premier": null,
  "premier_rus": "2020-02-15",
  "availability": "2020-02-16",
  "serial_status": "offline",
  "activate_time": "2020-05-10 13:01:00",
  "budget": null,
  "fees_use": null,
  "fees_world": null,
  "fees_rus": null,
  "rate_mpaa": null,
  "description": "Документальный фильм, дающий научное объяснение того, как началась эпидемия нового коронавируса, что он собой представляет и чему нас учит опыт Китая.",
  "iframe_url": "",
  "poster": "https://img.imgilall.me/movies/franchise/1/8/3/6/3/0/0/0/0/0/610x900_18363.jpg",
  "country": {
    "5": "Россия"
  },
  "collection": [],
  "genre": {
    "54": "Документальный"
  },
  "director": [
    "Юлия Перкуль",
    "Кирилл Васильев"
  ],
  "screenwriter": [
    "Сергей Латышев"
  ],
  "producer": [
    "Сергей Латышев",
    "Юлия Перкуль",
    "Андрей Цвинтарный"
  ],
  "operator": [
    "Вячеслав Красаков"
  ],
  "composer": [],
  "design": [],
  "editor": [
    "Кирилл Васильев"
  ],
  "actors": [],
  "actors_dubl": [],
  "trivia": [],
  "trailers": [],
  "seasons": [
    {
      "poster": null,
      "release_ru": null,
      "release_world": null,
      "availability": null,
      "iframe_url": "",
      "season": 1,
      "episodes": [
        {
          "episode": 1,
          "name": null,
          "iframe_url": "",
          "iframe_poster": null,
          "release_ru": null,
          "release_world": null,
          "availability": null,
          "voiceActing": [
            "Рус. Оригинальный"
          ],
          "ads": false,
          "subtitle": []
        },
        {
          "episode": 2,
          "name": null,
          "iframe_url": "",
          "iframe_poster": null,
          "release_ru": null,
          "release_world": null,
          "availability": null,
          "voiceActing": [
            "Рус. Оригинальный"
          ],
          "ads": false,
          "subtitle": []
        },
        {
          "episode": 3,
          "name": null,
          "iframe_url": "",
          "iframe_poster": null,
          "release_ru": null,
          "release_world": null,
          "availability": null,
          "voiceActing": [
            "Рус. Оригинальный"
          ],
          "ads": false,
          "subtitle": []
        }
      ]
    }
  ],
  "voiceActing": [
    "Рус. Оригинальный"
  ],
  "subtitle": [],
  "parts": []
}
