{
  "id": 43035,
  "name": "Дневник Берта",
  "name_eng": "Berts dagbok",
  "year": 2020,
  "slogan": "—",
  "age": null,
  "type": "film",
  "quality": "HD (720p)",
  "imdb": "5.7",
  "imdb_id": "12182416",
  "kinopoisk": null,
  "kinopoisk_id": "1379277",
  "world_art": null,
  "world_art_id": null,
  "time": "89 мин. / 01:29",
  "ads": true,
  "premier": "2020-08-05",
  "premier_rus": "2020-08-06",
  "availability": "2020-08-07",
  "activate_time": "2020-12-21 20:50:00",
  "budget": "",
  "fees_use": "",
  "fees_world": "",
  "fees_rus": "",
  "rate_mpaa": "",
  "description": "Берт - 13-летний подросток, только что перешел в восьмой класс. В тот же класс идет Амира - младшая сестра Лейлы, самой популярной девочки в школе, в которую все влюблены. И Берт не исключение. Он видит свой шанс сблизиться с Лейлой, подружившись с Амирой. Когда Берт обнаруживает личный дневник в доме сестер, начинаются \"американские горки\" любовной истории, наполненной эмоциями, предательством и обидами.",
  "iframe_url": "",
  "iframe_poster": null,
  "poster": "https://img.imgilall.me/movies/franchise/4/3/0/3/5/0/0/0/0/0/610x900_43035.jpg",
  "country": {
    "28": "Швеция"
  },
  "collection": [],
  "genre": {
    "33": "Семейный"
  },
  "director": [
    "Микаэль Линдгрен"
  ],
  "screenwriter": [
    "Тапио Леопольд"
  ],
  "producer": [
    "Ребекка Лафренз",
    "Анна Энтони",
    "Понтус Эдгрен"
  ],
  "operator": [
    "Эрик Валлстен"
  ],
  "composer": [],
  "design": [
    "Клара Исакссон-Фогель",
    "Sarah Mae White"
  ],
  "editor": [
    "Йоаким Тессерт-Экстрём"
  ],
  "actors": [
    "Hugo Krajcik",
    "Julia Pirzadeh",
    "Frank Dorsin",
    "Yussra El Abdouni",
    "Arvid Bergelv",
    "Frode Östlin Westman",
    "Nea Nohrstedt",
    "Helena Lindegren",
    "Давид Виберг",
    "Сюзанн Рейтер"
  ],
  "actors_dubl": [],
  "trivia": [],
  "trailers": [],
  "seasons": [],
  "voiceActing": [
    "Рус. Люб. многоголосый"
  ],
  "subtitle": [],
  "parts": []
}
