{
  "id": 34984,
  "name": "Волчья стая",
  "name_eng": "Lang qun xing dong",
  "year": 2019,
  "slogan": "—",
  "age": null,
  "type": "film",
  "quality": "HD (720p)",
  "imdb": "7.4",
  "imdb_id": "10731610",
  "kinopoisk": null,
  "kinopoisk_id": "1303297",
  "world_art": null,
  "world_art_id": null,
  "time": "67 мин. / 01:07",
  "ads": true,
  "premier": "2019-04-16",
  "premier_rus": "2019-04-17",
  "availability": "2019-04-18",
  "activate_time": "2020-07-02 16:37:00",
  "budget": null,
  "fees_use": null,
  "fees_world": null,
  "fees_rus": null,
  "rate_mpaa": null,
  "description": null,
  "iframe_url": "",
  "iframe_poster": null,
  "poster": "https://img.imgilall.me/movies/franchise/3/4/9/8/4/0/0/0/0/0/610x900_34984.jpg",
  "country": {
    "19": "Китай"
  },
  "collection": [],
  "genre": {
    "17": "Боевик"
  },
  "director": [
    "Chen-Yang Yin"
  ],
  "screenwriter": [
    "Chao Shi"
  ],
  "producer": [],
  "operator": [],
  "composer": [],
  "design": [],
  "editor": [],
  "actors": [
    "Joel Adrian",
    "Jun-Yao Li",
    "Kaiyu Xie"
  ],
  "actors_dubl": [],
  "trivia": [],
  "trailers": [],
  "seasons": [],
  "voiceActing": [
    "Рус. Люб. многоголосый"
  ],
  "subtitle": [],
  "parts": []
}
