{
  "id": 35433,
  "name": "Мистика",
  "name_eng": "Mystic",
  "year": 2020,
  "slogan": "—",
  "age": null,
  "type": "series",
  "quality": "HD (720p)",
  "imdb": "6.7",
  "imdb_id": "11440422",
  "kinopoisk": null,
  "kinopoisk_id": "1391337",
  "world_art": null,
  "world_art_id": null,
  "time": "—",
  "ads": true,
  "premier": "2020-07-14",
  "premier_rus": "2020-07-15",
  "availability": "2020-07-16",
  "serial_status": "offline",
  "activate_time": "2020-07-21 11:52:00",
  "budget": "",
  "fees_use": "",
  "fees_world": "",
  "fees_rus": "",
  "rate_mpaa": "",
  "description": "В центре сюжета группа подростков из Новой Зеландии, подрабатывающих в местной конюшне. В их компанию вливается новенькая девочка, англичанка, которая любит лошадей не меньше других ребят. Вместе они отправятся навстречу новым открытиям и приключениям.",
  "iframe_url": "",
  "poster": "https://img.imgilall.me/movies/franchise/3/5/4/3/3/0/0/0/0/0/610x900_35433.jpg",
  "country": {
    "23": "Новая Зеландия"
  },
  "collection": [],
  "genre": {
    "10": "Зарубежный",
    "7": "Драма"
  },
  "director": [
    "Майкл Херст",
    "Питер Сэлмон",
    "Айди Уокер"
  ],
  "screenwriter": [
    "Сэм Шор",
    "Эми Шиндлер",
    "Бет Чалмерс"
  ],
  "producer": [
    "Брайан Бёрд",
    "Emily Anderton",
    "Бет Чалмерс"
  ],
  "operator": [
    "Дэвид Пол",
    "Дэйв Камерон",
    "Drew Sturge"
  ],
  "composer": [
    "Стивен Галлахер",
    "Дэвид Лонг"
  ],
  "design": [
    "Алистэр Кэй",
    "Брендан Хеффернан",
    "Дион Буфбай"
  ],
  "editor": [
    "Йохен Фицхерберт"
  ],
  "actors": [
    "Мэйси Чиппинг",
    "Лаура Патч",
    "Кэти Даунс",
    "Фил Браун",
    "Кирк Торранс",
    "Antonia Robinson",
    "Max Crean",
    "Жаклин Джо",
    "Joshua Tan",
    "Harriet Walton"
  ],
  "actors_dubl": [],
  "trivia": [],
  "trailers": [],
  "seasons": [
    {
      "poster": null,
      "release_ru": "2020-07-15",
      "release_world": "2020-07-14",
      "availability": "2020-07-16",
      "iframe_url": "",
      "season": 1,
      "episodes": [
        {
          "episode": 1,
          "name": null,
          "iframe_url": "",
          "iframe_poster": null,
          "release_ru": "2020-07-15",
          "release_world": "2020-07-14",
          "availability": "2020-07-16",
          "voiceActing": [
            "Octopus"
          ],
          "ads": true,
          "subtitle": []
        },
        {
          "episode": 2,
          "name": null,
          "iframe_url": "",
          "iframe_poster": null,
          "release_ru": null,
          "release_world": null,
          "availability": null,
          "voiceActing": [
            "Octopus"
          ],
          "ads": true,
          "subtitle": []
        },
        {
          "episode": 3,
          "name": null,
          "iframe_url": "",
          "iframe_poster": null,
          "release_ru": null,
          "release_world": null,
          "availability": null,
          "voiceActing": [
            "Octopus"
          ],
          "ads": true,
          "subtitle": []
        },
        {
          "episode": 4,
          "name": null,
          "iframe_url": "",
          "iframe_poster": null,
          "release_ru": "2020-08-05",
          "release_world": "2020-08-04",
          "availability": "2020-08-05",
          "voiceActing": [
            "Octopus"
          ],
          "ads": true,
          "subtitle": []
        },
        {
          "episode": 5,
          "name": null,
          "iframe_url": "",
          "iframe_poster": null,
          "release_ru": "2020-08-12",
          "release_world": "2020-08-11",
          "availability": "2020-08-12",
          "voiceActing": [
            "Octopus"
          ],
          "ads": true,
          "subtitle": []
        },
        {
          "episode": 6,
          "name": null,
          "iframe_url": "",
          "iframe_poster": null,
          "release_ru": "2020-08-19",
          "release_world": "2020-08-18",
          "availability": "2020-08-19",
          "voiceActing": [
            "Octopus"
          ],
          "ads": true,
          "subtitle": []
        },
        {
          "episode": 7,
          "name": "The Switch",
          "iframe_url": "",
          "iframe_poster": null,
          "release_ru": "2020-08-26",
          "release_world": "2020-08-25",
          "availability": "2020-08-26",
          "voiceActing": [
            "Octopus"
          ],
          "ads": true,
          "subtitle": []
        },
        {
          "episode": 8,
          "name": null,
          "iframe_url": "",
          "iframe_poster": null,
          "release_ru": null,
          "release_world": null,
          "availability": null,
          "voiceActing": [
            "Octopus"
          ],
          "ads": true,
          "subtitle": []
        }
      ]
    }
  ],
  "voiceActing": [
    "Octopus"
  ],
  "subtitle": [],
  "parts": []
}
