{
  "id": 46516,
  "name": "Панацея",
  "name_eng": "Antidote",
  "year": 2021,
  "slogan": "«There is no cure for regret»",
  "age": null,
  "type": "film",
  "quality": "FHD (1080p)",
  "imdb": "5.1",
  "imdb_id": "11840988",
  "kinopoisk": null,
  "kinopoisk_id": "1351086",
  "world_art": null,
  "world_art_id": null,
  "time": "87 мин. / 01:27",
  "ads": true,
  "premier": "2021-04-15",
  "premier_rus": "2021-04-16",
  "availability": "2021-04-17",
  "activate_time": "2021-05-12 12:26:00",
  "budget": "$750 000",
  "fees_use": null,
  "fees_world": null,
  "fees_rus": null,
  "rate_mpaa": null,
  "description": null,
  "iframe_url": "",
  "iframe_poster": null,
  "poster": "https://img.imgilall.me/movies/franchise/4/6/5/1/6/0/0/0/0/0/610x900_46516.jpg",
  "country": {
    "1": "США"
  },
  "collection": [],
  "genre": {
    "26": "Ужасы",
    "13": "Триллер"
  },
  "director": [
    "Peter Daskaloff"
  ],
  "screenwriter": [
    "Peter Daskaloff",
    "Мэттью Торонто"
  ],
  "producer": [
    "Peter Daskaloff",
    "Алекси Ставру",
    "Эшлинн Йенни"
  ],
  "operator": [
    "Lucas Pitassi"
  ],
  "composer": [
    "Ryan Harrison"
  ],
  "design": [
    "Ben Johnson"
  ],
  "editor": [
    "Vanagan Gaboudian"
  ],
  "actors": [
    "Эшлинн Йенни",
    "Луис Мэндилор",
    "Оги Дьюк",
    "Гиоргос Карамихос",
    "Рави Найду",
    "Скотт Элин",
    "Victoria Bellos",
    "Joe Corzo",
    "Кен Дель Конте",
    "Сади Диалло"
  ],
  "actors_dubl": [],
  "trivia": [],
  "trailers": [],
  "seasons": [],
  "voiceActing": [
    "Рус. Люб. многоголосый"
  ],
  "subtitle": [],
  "parts": []
}
