{
  "id": 16986,
  "name": "Док - Всё в твоих руках название",
  "name_eng": "DOC - Nelle tue mani",
  "year": 2020,
  "slogan": "«Потеряв настоящее, он изменил свое будущее»",
  "age": null,
  "type": "series",
  "quality": "FHD (1080p)",
  "imdb": "6.9",
  "imdb_id": "11876490",
  "kinopoisk": null,
  "kinopoisk_id": "1352700",
  "world_art": null,
  "world_art_id": null,
  "time": "55 мин",
  "ads": true,
  "premier": "2020-03-26",
  "premier_rus": "2020-03-27",
  "availability": "2020-03-28",
  "serial_status": "online",
  "activate_time": "2020-04-27 09:43:00",
  "budget": "",
  "fees_use": "",
  "fees_world": "",
  "fees_rus": "",
  "rate_mpaa": "",
  "description": "Андреа Фанти — авторитетный, самоуверенный и лучший из врачей в Италии. Его жизнь кардинально меняется после травмы головного мозга. Последние 12 лет стерлись из памяти, а вместе с ними семья, друзья и ослепительная медицинская карьера. Судьба дает Андреа второй шанс — какой будет его новая старая жизнь?",
  "iframe_url": "",
  "poster": "https://img.imgilall.me/movies/franchise/1/6/9/8/6/0/0/0/0/0/610x900_16986.jpg",
  "country": {
    "8": "Италия"
  },
  "collection": {
    "100": "Про докторов",
    "39": "На реальных событиях"
  },
  "genre": {
    "10": "Зарубежный",
    "7": "Драма"
  },
  "director": [
    "Жан Микелини",
    "Чиро Виско"
  ],
  "screenwriter": [
    "Франческо Арланк",
    "Виола Рисполи",
    "Франческо Баллетта"
  ],
  "producer": [
    "Вероника Коппола",
    "Сабина Марабини",
    "Сара Мелодиа"
  ],
  "operator": [
    "Наполеоне Карботта"
  ],
  "composer": [],
  "design": [],
  "editor": [
    "Алессандро Хеффлер",
    "Алессио Дольоне"
  ],
  "actors": [
    "Лука Арджентеро",
    "Матильда Джоли",
    "Сара Лаззаро",
    "Джанмарко Саурино",
    "Раффаэле Эспозито",
    "Альберто Бубакар Маланкино",
    "Сильвия Мацциери",
    "Пьерпаоло Споллон",
    "Симона Табаско",
    "Элиза Ди Эузанио"
  ],
  "actors_dubl": [],
  "trivia": [],
  "trailers": [],
  "seasons": [
    {
      "poster": null,
      "release_ru": "2020-03-27",
      "release_world": "2020-03-26",
      "availability": "2020-03-28",
      "iframe_url": "",
      "season": 1,
      "episodes": [
        {
          "episode": 1,
          "name": "Meno 12",
          "iframe_url": "",
          "iframe_poster": null,
          "release_ru": "2020-03-27",
          "release_world": "2020-03-26",
          "availability": "2020-03-28",
          "voiceActing": [
            "Octopus"
          ],
          "ads": true,
          "subtitle": []
        },
        {
          "episode": 2,
          "name": "Selfie",
          "iframe_url": "",
          "iframe_poster": null,
          "release_ru": "2020-03-27",
          "release_world": "2020-03-26",
          "availability": "2020-03-28",
          "voiceActing": [
            "Octopus"
          ],
          "ads": true,
          "subtitle": []
        },
        {
          "episode": 3,
          "name": "Niente di personale",
          "iframe_url": "",
          "iframe_poster": null,
          "release_ru": "2020-04-03",
          "release_world": "2020-04-02",
          "availability": "2020-04-04",
          "voiceActing": [
            "Octopus"
          ],
          "ads": true,
          "subtitle": []
        },
        {
          "episode": 4,
          "name": "Una cosa buona che fa male",
          "iframe_url": "",
          "iframe_poster": null,
          "release_ru": "2020-04-03",
          "release_world": "2020-04-02",
          "availability": "2020-04-04",
          "voiceActing": [
            "Octopus"
          ],
          "ads": true,
          "subtitle": []
        },
        {
          "episode": 5,
          "name": "L'errore",
          "iframe_url": "",
          "iframe_poster": null,
          "release_ru": "2020-04-10",
          "release_world": "2020-04-09",
          "availability": "2020-04-11",
          "voiceActing": [
            "Octopus"
          ],
          "ads": true,
          "subtitle": []
        },
        {
          "episode": 6,
          "name": "Come eravamo",
          "iframe_url": "",
          "iframe_poster": null,
          "release_ru": "2020-04-10",
          "release_world": "2020-04-09",
          "availability": "2020-04-11",
          "voiceActing": [
            "Octopus"
          ],
          "ads": true,
          "subtitle": []
        },
        {
          "episode": 7,
          "name": null,
          "iframe_url": "",
          "iframe_poster": null,
          "release_ru": null,
          "release_world": null,
          "availability": null,
          "voiceActing": [
            "Octopus"
          ],
          "ads": true,
          "subtitle": []
        },
        {
          "episode": 8,
          "name": null,
          "iframe_url": "",
          "iframe_poster": null,
          "release_ru": null,
          "release_world": null,
          "availability": null,
          "voiceActing": [
            "Octopus"
          ],
          "ads": true,
          "subtitle": []
        }
      ]
    }
  ],
  "voiceActing": [
    "Octopus"
  ],
  "subtitle": [],
  "parts": []
}
