{
  "id": 13718,
  "name": "Номер один",
  "name_eng": "",
  "year": 2020,
  "slogan": "«Как украсть картину»",
  "age": "12+",
  "type": "film",
  "quality": "FHD (1080p)",
  "imdb": null,
  "imdb_id": null,
  "kinopoisk": "4.9",
  "kinopoisk_id": "1314719",
  "world_art": null,
  "world_art_id": null,
  "time": "92 мин. / 01:32",
  "ads": false,
  "premier": null,
  "premier_rus": "2020-03-19",
  "availability": "2020-03-20",
  "activate_time": "2019-12-26 09:39:00",
  "budget": null,
  "fees_use": null,
  "fees_world": null,
  "fees_rus": "$109 608",
  "rate_mpaa": null,
  "description": "Артем, молодой авантюрист, встречает Феликса — некогда легендарного похитителя предметов искусства, которого называли «Номер один». «Старая школа» и новичок решают провернуть аферу века – украсть одну из самых дорогих картин современности – «№ 1» Марка Ротко из галереи, принадлежащей бывшей жене Феликса и ее нового мужа. Волей случая Артем знакомится с Мариной и влюбляется в нее. А она оказывается следователем и очень хочет поймать Феликса с поличным.",
  "iframe_url": "",
  "iframe_poster": null,
  "poster": "https://img.imgilall.me/movies/franchise/1/3/7/1/8/0/0/0/0/0/610x900_13718.jpeg",
  "country": {
    "5": "Россия"
  },
  "collection": {
    "82": "Молодежные комедии",
    "21": "Для молодёжи",
    "19": "Про ограбления, аферы и мошенников"
  },
  "genre": {
    "22": "Русский",
    "19": "Комедия"
  },
  "director": [
    "Михаил Расходников"
  ],
  "screenwriter": [
    "Тихон Корнев"
  ],
  "producer": [
    "Михаил Расходников",
    "Георгий Малков",
    "Сергей Стегний"
  ],
  "operator": [
    "Станислав Шарков"
  ],
  "composer": [
    "Руслан Сабиров"
  ],
  "design": [
    "Сергей Ракутов",
    "Оксана Шевченко"
  ],
  "editor": [
    "Александр Амиров"
  ],
  "actors": [
    "Филипп Янковский",
    "Дмитрий Власкин",
    "Ксения Собчак",
    "Рина Гришина",
    "Николай Шрайбер",
    "Маша Лобанова",
    "Андрей Федорцов",
    "Игорь Миркурбанов",
    "Марина Ермошкина",
    "Дарья Юргенс"
  ],
  "actors_dubl": [],
  "trivia": [
    "В одну из съёмочных смен было задействовано 15 пожарных машин, 2 из которых прямо со съемочной площадки уехали по вызовам.",
    "Съёмки проходили в Санкт-Петербурге, в самых знаковых местах — Исаакиевская площадь, Петропавловская крепость, Академия художеств, тюрьма «Кресты»."
  ],
  "trailers": [
    {
      "name": "трейлер №2",
      "number": 2,
      "iframe_poster": null,
      "season": null,
      "iframe_url": ""
    },
    {
      "name": "трейлер №1",
      "number": 1,
      "iframe_poster": null,
      "season": null,
      "iframe_url": ""
    }
  ],
  "seasons": [],
  "voiceActing": [
    "Рус. Оригинальный"
  ],
  "subtitle": [],
  "parts": []
}
