{
  "id": 37040,
  "name": "Без связи",
  "name_eng": "Wireless",
  "year": 2020,
  "slogan": "—",
  "age": null,
  "type": "series",
  "quality": "HD (720p)",
  "imdb": "6.0",
  "imdb_id": "11312130",
  "kinopoisk": "5.5",
  "kinopoisk_id": "1332503",
  "world_art": null,
  "world_art_id": null,
  "time": "8 мин",
  "ads": true,
  "premier": "2020-09-13",
  "premier_rus": null,
  "availability": null,
  "serial_status": "offline",
  "activate_time": "2020-09-14 18:07:00",
  "budget": null,
  "fees_use": null,
  "fees_world": null,
  "fees_rus": null,
  "rate_mpaa": null,
  "description": null,
  "iframe_url": "",
  "poster": "https://img.imgilall.me/movies/franchise/3/7/0/4/0/0/0/0/0/0/610x900_37040.jpg",
  "country": {
    "1": "США"
  },
  "collection": [],
  "genre": {
    "13": "Триллер"
  },
  "director": [
    "Зэк Вехтер"
  ],
  "screenwriter": [
    "Джек Сейдман",
    "Зэк Вехтер"
  ],
  "producer": [
    "Mike Glasz",
    "Эндрю Рейс",
    "Исабель Варгас"
  ],
  "operator": [
    "Николас Уизнет"
  ],
  "composer": [
    "Тревор Доэрти"
  ],
  "design": [
    "Tye Whipple",
    "Kyle Frawley",
    "Леон Кразенштайн"
  ],
  "editor": [
    "Blake Holland",
    "Брэндон Портер"
  ],
  "actors": [
    "Тай Шеридан",
    "Энди МакДауэлл",
    "Лукас Гейдж",
    "Франческа Реале",
    "Мейс Коронел",
    "Фрой Гутьеррез",
    "Джоэль Бишоп",
    "Анджела Лейб",
    "Бен Барнетт",
    "Эрик Дэйн"
  ],
  "actors_dubl": [],
  "trivia": [],
  "trailers": [],
  "seasons": [
    {
      "poster": null,
      "release_ru": null,
      "release_world": null,
      "availability": null,
      "iframe_url": "",
      "season": 1,
      "episodes": [
        {
          "episode": 1,
          "name": null,
          "iframe_url": "",
          "iframe_poster": null,
          "release_ru": null,
          "release_world": null,
          "availability": null,
          "voiceActing": [
            "Octopus"
          ],
          "ads": true,
          "subtitle": []
        },
        {
          "episode": 2,
          "name": null,
          "iframe_url": "",
          "iframe_poster": null,
          "release_ru": null,
          "release_world": null,
          "availability": null,
          "voiceActing": [
            "Octopus"
          ],
          "ads": true,
          "subtitle": []
        },
        {
          "episode": 3,
          "name": null,
          "iframe_url": "",
          "iframe_poster": null,
          "release_ru": null,
          "release_world": null,
          "availability": null,
          "voiceActing": [
            "Octopus"
          ],
          "ads": true,
          "subtitle": []
        },
        {
          "episode": 4,
          "name": null,
          "iframe_url": "",
          "iframe_poster": null,
          "release_ru": null,
          "release_world": null,
          "availability": null,
          "voiceActing": [
            "Octopus"
          ],
          "ads": true,
          "subtitle": []
        },
        {
          "episode": 5,
          "name": null,
          "iframe_url": "",
          "iframe_poster": null,
          "release_ru": null,
          "release_world": null,
          "availability": null,
          "voiceActing": [
            "Octopus"
          ],
          "ads": true,
          "subtitle": []
        },
        {
          "episode": 6,
          "name": null,
          "iframe_url": "",
          "iframe_poster": null,
          "release_ru": null,
          "release_world": null,
          "availability": null,
          "voiceActing": [
            "Octopus"
          ],
          "ads": true,
          "subtitle": []
        },
        {
          "episode": 7,
          "name": null,
          "iframe_url": "",
          "iframe_poster": null,
          "release_ru": null,
          "release_world": null,
          "availability": null,
          "voiceActing": [
            "Octopus"
          ],
          "ads": true,
          "subtitle": []
        },
        {
          "episode": 8,
          "name": null,
          "iframe_url": "",
          "iframe_poster": null,
          "release_ru": null,
          "release_world": null,
          "availability": null,
          "voiceActing": [
            "Octopus"
          ],
          "ads": true,
          "subtitle": []
        },
        {
          "episode": 9,
          "name": null,
          "iframe_url": "",
          "iframe_poster": null,
          "release_ru": null,
          "release_world": null,
          "availability": null,
          "voiceActing": [
            "Octopus"
          ],
          "ads": true,
          "subtitle": []
        },
        {
          "episode": 10,
          "name": null,
          "iframe_url": "",
          "iframe_poster": null,
          "release_ru": null,
          "release_world": null,
          "availability": null,
          "voiceActing": [
            "Octopus"
          ],
          "ads": true,
          "subtitle": []
        }
      ]
    }
  ],
  "voiceActing": [
    "Octopus"
  ],
  "subtitle": [],
  "parts": []
}
