{
  "id": 43205,
  "name": "Любовь в большом городе",
  "name_eng": "Dosinamnyeoui sarangbeop",
  "year": 2020,
  "slogan": "—",
  "age": "16+",
  "type": "series",
  "quality": "HD (720p)",
  "imdb": "7.7",
  "imdb_id": "13394544",
  "kinopoisk": "7.5",
  "kinopoisk_id": "1412464",
  "world_art": null,
  "world_art_id": null,
  "time": "30 мин",
  "ads": false,
  "premier": "2020-12-22",
  "premier_rus": "2020-12-23",
  "availability": "2020-12-24",
  "serial_status": "online",
  "activate_time": "2020-12-28 23:02:00",
  "budget": null,
  "fees_use": null,
  "fees_world": null,
  "fees_rus": null,
  "rate_mpaa": null,
  "description": "Девушка-фрилансер отправляется в путешествие, где знакомится с симпатичным молодым архитектором. Она представляется ему другим именем и ведёт себя с ним совсем не так, как в обычной жизни.",
  "iframe_url": "",
  "poster": "https://img.imgilall.me/movies/franchise/4/3/2/0/5/0/0/0/0/0/610x900_43205.jpg",
  "country": {
    "16": "Корея Южная"
  },
  "collection": [],
  "genre": {
    "19": "Комедия",
    "8": "Мелодрама"
  },
  "director": [
    "Пак Щин-у"
  ],
  "screenwriter": [
    "Чон Хён-джон"
  ],
  "producer": [],
  "operator": [],
  "composer": [],
  "design": [],
  "editor": [],
  "actors": [
    "Чи Чхан-ук",
    "Ким Джи-вон",
    "Ким Мин-сок",
    "Рю Гён-су",
    "Со Джу-ён",
    "Хан Джи-ын",
    "Минхо",
    "Ли Сан-юн",
    "Ли Сан-у",
    "Пак Чин-джу"
  ],
  "actors_dubl": [],
  "trivia": [],
  "trailers": [],
  "seasons": [
    {
      "poster": null,
      "release_ru": null,
      "release_world": null,
      "availability": null,
      "iframe_url": "",
      "season": 1,
      "episodes": [
        {
          "episode": 1,
          "name": null,
          "iframe_url": "",
          "iframe_poster": null,
          "release_ru": null,
          "release_world": null,
          "availability": null,
          "voiceActing": [
            "SOFTBOX"
          ],
          "ads": false,
          "subtitle": []
        },
        {
          "episode": 2,
          "name": null,
          "iframe_url": "",
          "iframe_poster": null,
          "release_ru": null,
          "release_world": null,
          "availability": null,
          "voiceActing": [
            "SOFTBOX"
          ],
          "ads": false,
          "subtitle": []
        },
        {
          "episode": 3,
          "name": null,
          "iframe_url": "",
          "iframe_poster": null,
          "release_ru": null,
          "release_world": null,
          "availability": null,
          "voiceActing": [
            "SOFTBOX"
          ],
          "ads": false,
          "subtitle": []
        },
        {
          "episode": 4,
          "name": null,
          "iframe_url": "",
          "iframe_poster": null,
          "release_ru": null,
          "release_world": null,
          "availability": null,
          "voiceActing": [
            "SOFTBOX"
          ],
          "ads": false,
          "subtitle": []
        },
        {
          "episode": 5,
          "name": null,
          "iframe_url": "",
          "iframe_poster": null,
          "release_ru": null,
          "release_world": null,
          "availability": null,
          "voiceActing": [
            "SOFTBOX"
          ],
          "ads": false,
          "subtitle": []
        },
        {
          "episode": 6,
          "name": null,
          "iframe_url": "",
          "iframe_poster": null,
          "release_ru": null,
          "release_world": null,
          "availability": null,
          "voiceActing": [
            "SOFTBOX"
          ],
          "ads": false,
          "subtitle": []
        },
        {
          "episode": 7,
          "name": null,
          "iframe_url": "",
          "iframe_poster": null,
          "release_ru": null,
          "release_world": null,
          "availability": null,
          "voiceActing": [
            "SOFTBOX"
          ],
          "ads": false,
          "subtitle": []
        },
        {
          "episode": 8,
          "name": null,
          "iframe_url": "",
          "iframe_poster": null,
          "release_ru": null,
          "release_world": null,
          "availability": null,
          "voiceActing": [
            "SOFTBOX"
          ],
          "ads": false,
          "subtitle": []
        }
      ]
    }
  ],
  "voiceActing": [
    "SOFTBOX"
  ],
  "subtitle": [],
  "parts": []
}
