{
  "id": 20064,
  "name": "Гангстер №1",
  "name_eng": "Gangster No. 1",
  "year": 2000,
  "slogan": "«It's not who you know, it's who you kill»",
  "age": "16+",
  "type": "film",
  "quality": "SD",
  "imdb": "6.7",
  "imdb_id": "0210065",
  "kinopoisk": "7.0",
  "kinopoisk_id": "14416",
  "world_art": null,
  "world_art_id": null,
  "time": "103 мин. / 01:43",
  "ads": true,
  "premier": "2000-06-09",
  "premier_rus": "2000-06-10",
  "availability": "2000-06-11",
  "activate_time": "2020-05-26 15:10:00",
  "budget": null,
  "fees_use": "$30 915",
  "fees_world": null,
  "fees_rus": null,
  "rate_mpaa": "R",
  "description": "Жестокий английский бандит по прозвищу «Гангстер 55» всегда мечтал о том, чтобы быть номером первым в преступном мире. Он еще юнцом начал свою криминальную карьеру, войдя в доверие к известному гангстеру Фредди Мэйсу и став его другом. Ненадолго.Настоящий психопат, Гангстер 55, не колеблясь, разжигает потушенный было пожар войны между бандами. В результате этого Фредди садится на 30 лет в тюрьму, а герой занимает его место. Кровавое восхождение «Гангстера 55» к вершинам криминальной власти начинается...",
  "iframe_url": "",
  "iframe_poster": null,
  "poster": "https://img.imgilall.me/movies/franchise/2/0/0/6/4/0/0/0/0/0/610x900_20064.jpg",
  "country": {
    "2": "Великобритания",
    "20": "Германия",
    "21": "Ирландия"
  },
  "collection": {
    "57": "Про мафию, банды"
  },
  "genre": {
    "25": "Криминал",
    "13": "Триллер",
    "7": "Драма"
  },
  "director": [
    "Пол МакГиган"
  ],
  "screenwriter": [
    "Джонни Фергюсон",
    "Луис Меллис",
    "Дэвид Синто"
  ],
  "producer": [
    "Джонатан Кавендиш",
    "Норма Хеймэн",
    "Ники Кентиш Барнс"
  ],
  "operator": [
    "Питер Сова"
  ],
  "composer": [
    "Джон Дэнкуорт"
  ],
  "design": [
    "Ричард Бриджлэнд",
    "Филип Элтон",
    "Себастьян Т. Кравинкель"
  ],
  "editor": [
    "Эндрю Хьюм"
  ],
  "actors": [
    "Малкольм МакДауэлл",
    "Дэвид Тьюлис",
    "Пол Беттани",
    "Саффрон Берроуз",
    "Эдди Марсан",
    "Эндрю Линкольн",
    "Кеннет Крэнэм",
    "Джэми Формен",
    "Даг Аллен",
    "Разаак Адоти"
  ],
  "actors_dubl": [],
  "trivia": [
    "Вольное жизнеописание гангстера по имени Фрэнки Фрейзер (1923-2014)."
  ],
  "trailers": [],
  "seasons": [],
  "voiceActing": [
    "Рус. Проф. многоголосый"
  ],
  "subtitle": [],
  "parts": []
}
