{
  "id": 44328,
  "name": "Намасте Вахала",
  "name_eng": "Namaste Wahala",
  "year": 2020,
  "slogan": "—",
  "age": null,
  "type": "film",
  "quality": "FHD (1080p)",
  "imdb": "5.1",
  "imdb_id": "12423052",
  "kinopoisk": null,
  "kinopoisk_id": "1409579",
  "world_art": null,
  "world_art_id": null,
  "time": "106 мин. / 01:46",
  "ads": true,
  "premier": "2020-12-01",
  "premier_rus": "2020-12-02",
  "availability": "2020-12-03",
  "activate_time": "2021-02-16 15:03:00",
  "budget": null,
  "fees_use": null,
  "fees_world": null,
  "fees_rus": null,
  "rate_mpaa": null,
  "description": null,
  "iframe_url": "",
  "iframe_poster": null,
  "poster": "https://img.imgilall.me/movies/franchise/4/4/3/2/8/0/0/0/0/0/610x900_44328.jpg",
  "country": {
    "106": "Нигерия"
  },
  "collection": [],
  "genre": {
    "8": "Мелодрама"
  },
  "director": [
    "Hamisha Daryani Ahuja"
  ],
  "screenwriter": [
    "Hamisha Daryani Ahuja",
    "Temitope Bolade",
    "Diche Enunwa"
  ],
  "producer": [
    "Patience Lawal",
    "Hamisha Daryani Ahuja",
    "Рахил Раджа"
  ],
  "operator": [
    "Mex Ossai"
  ],
  "composer": [],
  "design": [
    "Ngozi Ossai",
    "Рахил Раджа"
  ],
  "editor": [
    "Abhishek Ojha"
  ],
  "actors": [
    "Ини Дима Окодзиэ",
    "Руслаан Мумтаз",
    "Richard Mofe-Damijo",
    "Йок Силва",
    "Осас Игодаро",
    "Anee Icha",
    "Сухата Сегал",
    "Koye Kekere Ekun",
    "Ibrahim Suleiman",
    "Imoh Eboh"
  ],
  "actors_dubl": [],
  "trivia": [],
  "trailers": [],
  "seasons": [],
  "voiceActing": [
    "Рус. Люб. многоголосый"
  ],
  "subtitle": [],
  "parts": []
}
