{
  "id": 44742,
  "name": "День, когда я потеряла себя",
  "name_eng": "El día que me perdí",
  "year": 2020,
  "slogan": "—",
  "age": null,
  "type": "film",
  "quality": "HD (720p)",
  "imdb": "8.0",
  "imdb_id": "13200364",
  "kinopoisk": null,
  "kinopoisk_id": "1436181",
  "world_art": null,
  "world_art_id": null,
  "time": "139 мин. / 02:19",
  "ads": true,
  "premier": "2020-11-01",
  "premier_rus": "2020-11-02",
  "availability": "2020-11-03",
  "activate_time": "2021-03-04 15:51:00",
  "budget": null,
  "fees_use": null,
  "fees_world": null,
  "fees_rus": null,
  "rate_mpaa": null,
  "description": null,
  "iframe_url": "",
  "iframe_poster": null,
  "poster": "https://img.imgilall.me/movies/franchise/4/4/7/4/2/0/0/0/0/0/610x900_44742.jpg",
  "country": {
    "17": "Мексика"
  },
  "collection": [],
  "genre": {
    "13": "Триллер",
    "7": "Драма"
  },
  "director": [
    "Michel Zurita"
  ],
  "screenwriter": [
    "Michel Zurita"
  ],
  "producer": [],
  "operator": [
    "Michel Zurita"
  ],
  "composer": [
    "Ana Amengual Asa"
  ],
  "design": [],
  "editor": [
    "Michel Zurita"
  ],
  "actors": [
    "Alicia Quiñonez",
    "Carolina Rocha Vega",
    "Алехандро Рельмонте",
    "Каарло Исаак Баррия",
    "Eduardo Tanus",
    "Ana Sofía González",
    "Julia Marco",
    "Мария Рохо",
    "Nikole Barajas"
  ],
  "actors_dubl": [],
  "trivia": [],
  "trailers": [],
  "seasons": [],
  "voiceActing": [
    "Рус. Люб. многоголосый"
  ],
  "subtitle": [],
  "parts": []
}
