{
  "id": 43226,
  "name": "Гринч — похититель Рождества",
  "name_eng": "Dr. Seuss' the Grinch Musical",
  "year": 2020,
  "slogan": "—",
  "age": null,
  "type": "film",
  "quality": "HD (720p)",
  "imdb": "3.7",
  "imdb_id": "13437728",
  "kinopoisk": null,
  "kinopoisk_id": "1449911",
  "world_art": null,
  "world_art_id": null,
  "time": "120 мин. / 02:00",
  "ads": true,
  "premier": "2020-12-09",
  "premier_rus": "2020-12-10",
  "availability": "2020-12-11",
  "activate_time": "2020-12-29 18:34:00",
  "budget": "",
  "fees_use": "",
  "fees_world": "",
  "fees_rus": "",
  "rate_mpaa": "",
  "description": "Телевизионная адаптация бродвейского мюзикла по классическому сюжету доктора Сьюза \"Как Гринч украл Рождество\". В то время, как жители Ктовилля готовятся к праздникам, злобный Гринч вынашивает коварный план...",
  "iframe_url": "",
  "iframe_poster": null,
  "poster": "https://img.imgilall.me/movies/franchise/4/3/2/2/6/0/0/0/0/0/610x900_43226.jpg",
  "country": {
    "1": "США"
  },
  "collection": [],
  "genre": {
    "38": "Мюзикл"
  },
  "director": [
    "Джулия Ноулз",
    "Max Webster"
  ],
  "screenwriter": [
    "Саймон Най",
    "Доктор Сюсс"
  ],
  "producer": [
    "Мэттью Моррисон",
    "Сью Эндрю",
    "Ли Коннолли"
  ],
  "operator": [],
  "composer": [
    "Мэл Марвин"
  ],
  "design": [
    "Питер Бингеманн",
    "Сутра Гилмор"
  ],
  "editor": [],
  "actors": [
    "Мэттью Моррисон",
    "Денис О’Хэр",
    "Бу Бу Стюарт",
    "Клер Мачин",
    "Эми Эллен Ричардсон",
    "Ако Митчелл",
    "Гари Уилмот",
    "Amelia Minto",
    "Джо Аллен",
    "Bobbie Little"
  ],
  "actors_dubl": [],
  "trivia": [],
  "trailers": [],
  "seasons": [],
  "voiceActing": [
    "Рус. Люб. многоголосый"
  ],
  "subtitle": [],
  "parts": []
}
