{
  "id": 44512,
  "name": "Котейка",
  "name_eng": "",
  "year": 2020,
  "slogan": "—",
  "age": null,
  "type": "series",
  "quality": "FHD (1080p)",
  "imdb": null,
  "imdb_id": null,
  "kinopoisk": "7.0",
  "kinopoisk_id": "1412496",
  "world_art": null,
  "world_art_id": null,
  "time": "—",
  "ads": false,
  "premier": null,
  "premier_rus": null,
  "availability": null,
  "serial_status": "offline",
  "activate_time": "2021-02-23 13:41:00",
  "budget": null,
  "fees_use": null,
  "fees_world": null,
  "fees_rus": null,
  "rate_mpaa": null,
  "description": "Наша героиня Катерина ночует «по месту работы» - в ветеринарной клинике, когда незнакомец приносит туда больную кошку, найденную на улице. Катерина предполагает, что причина недомогания кошки – отравление. Ничего, казалось бы, подозрительного – кошка по глупости отведала крысиного яда - но не так проста в умозаключениях наша героиня: кошка, она убеждена, домашняя. Катерина начинает поиски владелицы «котейки» и узнает, что кошку, возможно, «выбросили» из квартиры дамы весьма преклонных лет, в которую недавно подселилась квартирантка. Катерина, представившись участковым доктором, выясняет, что квартирантка Вера пытается отравить хозяйку ядом.Тем временем участковые расследуют случай смерти некого пожилого мужчины, выпавшего из окна. Выясняется, что собака покойного была отравлена, а перед падением с высоты её хозяин тоже принял яд.",
  "iframe_url": "",
  "poster": "https://img.imgilall.me/movies/franchise/4/4/5/1/2/0/0/0/0/0/610x900_44512.jpg",
  "country": {
    "5": "Россия"
  },
  "collection": [],
  "genre": {
    "24": "Детектив"
  },
  "director": [
    "Алексей Праздников"
  ],
  "screenwriter": [
    "Дмитрий Акимов"
  ],
  "producer": [
    "Вячеслав Михайлов",
    "Тимур Абдуллин",
    "Андрей Савенко"
  ],
  "operator": [
    "Александр Ганус"
  ],
  "composer": [],
  "design": [
    "Ассоль Гизатуллина"
  ],
  "editor": [],
  "actors": [
    "Мария Машкова",
    "Дмитрий Миллер",
    "Даниил Спиваковский",
    "Антон Вохмин",
    "Валентина Нейморовец",
    "Денис Пьянов",
    "Сергей Черданцев",
    "Ксения Радченко",
    "Кристина Морозова",
    "Павел Лобанихин"
  ],
  "actors_dubl": [],
  "trivia": [],
  "trailers": [],
  "seasons": [
    {
      "poster": null,
      "release_ru": null,
      "release_world": null,
      "availability": null,
      "iframe_url": "",
      "season": 1,
      "episodes": [
        {
          "episode": 1,
          "name": null,
          "iframe_url": "",
          "iframe_poster": null,
          "release_ru": null,
          "release_world": null,
          "availability": null,
          "voiceActing": [
            "Рус. Оригинальный"
          ],
          "ads": false,
          "subtitle": []
        },
        {
          "episode": 2,
          "name": null,
          "iframe_url": "",
          "iframe_poster": null,
          "release_ru": null,
          "release_world": null,
          "availability": null,
          "voiceActing": [
            "Рус. Оригинальный"
          ],
          "ads": false,
          "subtitle": []
        },
        {
          "episode": 3,
          "name": null,
          "iframe_url": "",
          "iframe_poster": null,
          "release_ru": null,
          "release_world": null,
          "availability": null,
          "voiceActing": [
            "Рус. Оригинальный"
          ],
          "ads": false,
          "subtitle": []
        },
        {
          "episode": 4,
          "name": null,
          "iframe_url": "",
          "iframe_poster": null,
          "release_ru": null,
          "release_world": null,
          "availability": null,
          "voiceActing": [
            "Рус. Оригинальный"
          ],
          "ads": false,
          "subtitle": []
        }
      ]
    }
  ],
  "voiceActing": [
    "Рус. Оригинальный"
  ],
  "subtitle": [],
  "parts": []
}
