{
  "id": 24520,
  "name": "Пустыня Тартари",
  "name_eng": "Il deserto dei tartari",
  "year": 1976,
  "slogan": "—",
  "age": "16+",
  "type": "film",
  "quality": "HD (720p)",
  "imdb": "7.5",
  "imdb_id": "0074400",
  "kinopoisk": "7.9",
  "kinopoisk_id": "15163",
  "world_art": null,
  "world_art_id": null,
  "time": "140 мин. / 02:20",
  "ads": false,
  "premier": "1976-10-29",
  "premier_rus": "1976-10-30",
  "availability": "1976-10-31",
  "activate_time": "2020-06-18 20:38:00",
  "budget": null,
  "fees_use": null,
  "fees_world": null,
  "fees_rus": null,
  "rate_mpaa": "PG",
  "description": "Со своим первым заданием лейтенант Дрого прибывает в отдаленную крепость, окруженную с одной стороны песками, с другой — неприступной горной цепью. Задача гарнизона — отразить возможную атаку грозного противника, затаившегося где-то в пустыне. Некоторые офицеры все еще ждут нападения, другие уже просто не верят в то, что это когда-нибудь произойдет...",
  "iframe_url": "",
  "iframe_poster": null,
  "poster": "https://img.imgilall.me/movies/franchise/2/4/5/2/0/0/0/0/0/0/610x900_24520.jpg",
  "country": {
    "8": "Италия",
    "9": "Франция",
    "38": "Германия (ФРГ)"
  },
  "collection": [],
  "genre": {
    "32": "Военный",
    "28": "Исторический",
    "7": "Драма"
  },
  "director": [
    "Валерио Дзурлини"
  ],
  "screenwriter": [
    "Андре Дж. Брунелен",
    "Валерио Дзурлини",
    "Дино Буццати"
  ],
  "producer": [
    "Мишель де Брока",
    "Баман Фарманара",
    "Марио Галло"
  ],
  "operator": [
    "Лучиано Товоли"
  ],
  "composer": [
    "Эннио Морриконе"
  ],
  "design": [
    "Джанкарло Бартолини Салимбени",
    "Сисси Парравичини"
  ],
  "editor": [
    "Франко Аркалли",
    "Раймондо Крочани"
  ],
  "actors": [
    "Жак Перрен",
    "Витторио Гассман",
    "Джулиано Джемма",
    "Хельмут Грим",
    "Филипп Нуаре",
    "Франсиско Рабаль",
    "Фернандо Рей",
    "Лоран Терзиефф",
    "Жан-Луи Трентиньян",
    "Макс фон Сюдов"
  ],
  "actors_dubl": [
    "Владислав Пупков",
    "Анатолий Васильев",
    "Виталий Дорошенко",
    "Геннадий Болотов",
    "Евгений Паперный"
  ],
  "trivia": [
    "Действие романа разворачивается на окраинах Австро-Венгерской империи. Однако создатели фильма избрали в качестве места для съемок значительно более дальнюю точку — крепость Арг-е Бам на юго-востоке Ирана. Эта цитадель, находящаяся на территории города Бам, была на 80% разрушена во время катастрофического землетрясения 2003 года."
  ],
  "trailers": [],
  "seasons": [],
  "voiceActing": [
    "Рус. Проф. двухголосый",
    "Fr. Original"
  ],
  "subtitle": [],
  "parts": []
}
