{
  "id": 13376,
  "name": "Дорога домой: Невероятное путешествие",
  "name_eng": "Homeward Bound: The Incredible Journey",
  "year": 1993,
  "slogan": null,
  "age": "6+",
  "type": "film",
  "quality": "HD (720p)",
  "imdb": "7.0",
  "imdb_id": "0107131",
  "kinopoisk": "7.9",
  "kinopoisk_id": "15933",
  "world_art": null,
  "world_art_id": null,
  "time": null,
  "ads": false,
  "premier": "1993-02-03",
  "premier_rus": null,
  "availability": null,
  "activate_time": "2019-12-15 14:54:00",
  "budget": null,
  "fees_use": null,
  "fees_world": null,
  "fees_rus": null,
  "rate_mpaa": null,
  "description": null,
  "iframe_url": "",
  "iframe_poster": null,
  "poster": "https://img.imgilall.me/movies/franchise/1/3/3/7/6/0/0/0/0/0/610x900_13376.jpg",
  "country": {
    "1": "США"
  },
  "collection": [],
  "genre": {
    "9": "Приключения",
    "33": "Семейный",
    "19": "Комедия",
    "10": "Зарубежный",
    "7": "Драма"
  },
  "director": [],
  "screenwriter": [],
  "producer": [],
  "operator": [],
  "composer": [],
  "design": [],
  "editor": [],
  "actors": [],
  "actors_dubl": [],
  "trivia": [],
  "trailers": [],
  "seasons": [],
  "voiceActing": [
    "Рус. Проф. многоголосый",
    "Укр. Проф. багатоголосий",
    "В. Горчаков",
    "Eng.Original"
  ],
  "subtitle": [],
  "parts": [
    13376,
    13377
  ]
}
