{
  "id": 18153,
  "name": "Место в сердце",
  "name_eng": "Places in the Heart",
  "year": 1984,
  "slogan": "«The story of a woman fighting for her children, for her land, for the greatest dream there is...the future»",
  "age": null,
  "type": "film",
  "quality": "HD (720p)",
  "imdb": "7.4",
  "imdb_id": "0087921",
  "kinopoisk": "7.3",
  "kinopoisk_id": "15934",
  "world_art": null,
  "world_art_id": null,
  "time": "111 мин. / 01:51",
  "ads": false,
  "premier": "1984-09-11",
  "premier_rus": "1984-09-12",
  "availability": "1984-09-13",
  "activate_time": "2020-05-07 18:13:00",
  "budget": null,
  "fees_use": "$34 901 614",
  "fees_world": null,
  "fees_rus": null,
  "rate_mpaa": "PG",
  "description": "Жизнь маленького техасского городка в годы Великой депрессии (1929-1933). Молодая вдова Эдна Сполдинг вынуждена сама вести фермерское хозяйство, воспитывать двоих детей и бороться за выживание.",
  "iframe_url": "",
  "iframe_poster": null,
  "poster": "https://img.imgilall.me/movies/franchise/1/8/1/5/3/0/0/0/0/0/610x900_18153.jpg",
  "country": {
    "1": "США"
  },
  "collection": {
    "114": "Лауреат премии \"Оскар\"",
    "5": "С наградами"
  },
  "genre": {
    "7": "Драма"
  },
  "director": [
    "Роберт Бентон"
  ],
  "screenwriter": [
    "Роберт Бентон"
  ],
  "producer": [
    "Арлин Донован",
    "Майкл Хаусман"
  ],
  "operator": [
    "Нестор Альмендрос"
  ],
  "composer": [
    "Джон Кэндер"
  ],
  "design": [
    "Джин Каллахан",
    "Сидни З. Литуэк",
    "Энн Рот"
  ],
  "editor": [
    "Кэрол Литтлтон"
  ],
  "actors": [
    "Салли Филд",
    "Линдси Краус",
    "Эд Харрис",
    "Эми Мэдиган",
    "Джон Малкович",
    "Дэнни Гловер",
    "Янктон Хэттен",
    "Дженни Джеймс",
    "Лейн Смит",
    "Терри О’Куинн"
  ],
  "actors_dubl": [],
  "trivia": [],
  "trailers": [],
  "seasons": [],
  "voiceActing": [
    "Рус. Проф. многоголосый"
  ],
  "subtitle": [],
  "parts": []
}
