{
  "id": 19656,
  "name": "Спецагент Корки Романо",
  "name_eng": "Corky Romano",
  "year": 2001,
  "slogan": "«Ветеринар. Гангстер. Агент ФБР. Кто же он?»",
  "age": "16+",
  "type": "film",
  "quality": "HD (720p)",
  "imdb": "4.7",
  "imdb_id": "0250310",
  "kinopoisk": "5.8",
  "kinopoisk_id": "1610",
  "world_art": null,
  "world_art_id": null,
  "time": "86 мин. / 01:26",
  "ads": false,
  "premier": "2001-10-12",
  "premier_rus": "2001-10-13",
  "availability": "2001-10-14",
  "activate_time": "2020-06-23 19:04:00",
  "budget": "$11 000 000",
  "fees_use": "$23 980 304",
  "fees_world": "+ $1 292 448 = $25 272 752",
  "fees_rus": null,
  "rate_mpaa": "PG-13",
  "description": "Добродушный помощник ветеринара Корки Романо - сын босса преступной мафии. Правда, он давно потерял связь со своей семьей, потому что не мог приспособиться к их преступной жизни. Теперь же его отец обращается к нему с просьбой.Дело в том, что ФБР занялось расследованием преступлений их семьи. Отец и брат Корки хотят, чтобы он стал одним из агентов ФБР и подделал связанные с делом улики. Корки соглашается. Один хакер, запуганный семьей Романо, составляет Корки резюме. Перестаравшись, хакер делает из Корки настоящего суперагента ФБР, и теперь Корки должен поддерживать новую репутацию...",
  "iframe_url": "",
  "iframe_poster": null,
  "poster": "https://img.imgilall.me/movies/franchise/1/9/6/5/6/0/0/0/0/0/610x900_19656.jpg",
  "country": {
    "1": "США"
  },
  "collection": [],
  "genre": {
    "25": "Криминал",
    "19": "Комедия"
  },
  "director": [
    "Роб Приттс"
  ],
  "screenwriter": [
    "Дэйв Гаррет",
    "Джейсон Уорд"
  ],
  "producer": [
    "Роберт Симондз",
    "Ира Шуман",
    "Трэйси Тренч"
  ],
  "operator": [
    "Стивен Бернштейн"
  ],
  "composer": [
    "Рэнди Эдельман"
  ],
  "design": [
    "Питер Политанофф",
    "Томас Вот",
    "Том Бронсон"
  ],
  "editor": [
    "Алан Коуди"
  ],
  "actors": [
    "Крис Кэттэн",
    "Винесса Шоу",
    "Питер Фальк",
    "Питер Берг",
    "Крис Пенн",
    "Фред Уорд",
    "Ричард Раундтри",
    "Мэттью Глэйв",
    "Роджер Фэн",
    "Дейв Шеридан"
  ],
  "actors_dubl": [],
  "trivia": [],
  "trailers": [],
  "seasons": [],
  "voiceActing": [
    "Рус. Проф. двухголосый",
    "Eng.Original"
  ],
  "subtitle": [
    "Eng. SDH"
  ],
  "parts": []
}
