{
  "id": 46329,
  "name": "Визит к Минотавру",
  "name_eng": "",
  "year": 1987,
  "slogan": "—",
  "age": "16+",
  "type": "series",
  "quality": "SD",
  "imdb": "7.5",
  "imdb_id": "0092477",
  "kinopoisk": "8.0",
  "kinopoisk_id": "161175",
  "world_art": null,
  "world_art_id": null,
  "time": "350 мин. всего",
  "ads": false,
  "premier": "1987-11-09",
  "premier_rus": "1987-11-10",
  "availability": "1987-11-11",
  "serial_status": "offline",
  "activate_time": "2021-05-06 15:49:00",
  "budget": null,
  "fees_use": null,
  "fees_world": null,
  "fees_rus": null,
  "rate_mpaa": null,
  "description": "В основе детективной истории — поиски пропавшей скрипки Антонио Страдивари. Это одна сюжетная линия фильма, но одновременно с ней существует вторая — историческая, она переносит зрителя в XVII век и посвящена жизни Мастера и его работе над скрипкой.",
  "iframe_url": "",
  "poster": "https://img.imgilall.me/movies/franchise/4/6/3/2/9/0/0/0/0/0/610x900_46329.jpg",
  "country": {
    "24": "СССР"
  },
  "collection": [],
  "genre": {
    "25": "Криминал",
    "9": "Приключения",
    "24": "Детектив"
  },
  "director": [
    "Эльдор Уразбаев"
  ],
  "screenwriter": [
    "Аркадий Вайнер",
    "Георгий Вайнер"
  ],
  "producer": [],
  "operator": [
    "Александр Рыбин"
  ],
  "composer": [
    "Эдуард Артемьев"
  ],
  "design": [
    "Сергей Серебренников"
  ],
  "editor": [
    "Валентина Миронова"
  ],
  "actors": [
    "Сергей Шакуров",
    "Анна Каменкова",
    "Владимир Самойлов",
    "Лаймонас Норейка",
    "Ростислав Плятт",
    "Михаил Пуговкин",
    "Нина Меньшикова",
    "Валентин Гафт",
    "Александр Филиппенко",
    "Лев Борисов"
  ],
  "actors_dubl": [
    "Владимир Сафронов",
    "Владимир Ферапонтов",
    "Сергей Быстрицкий",
    "Сергей Малишевский",
    "Игорь Тарадайкин"
  ],
  "trivia": [],
  "trailers": [],
  "seasons": [
    {
      "poster": null,
      "release_ru": null,
      "release_world": null,
      "availability": null,
      "iframe_url": "",
      "season": 1,
      "episodes": [
        {
          "episode": 1,
          "name": null,
          "iframe_url": "",
          "iframe_poster": null,
          "release_ru": null,
          "release_world": null,
          "availability": null,
          "voiceActing": [
            "Рус. Оригинальный"
          ],
          "ads": false,
          "subtitle": []
        },
        {
          "episode": 2,
          "name": null,
          "iframe_url": "",
          "iframe_poster": null,
          "release_ru": null,
          "release_world": null,
          "availability": null,
          "voiceActing": [
            "Рус. Оригинальный"
          ],
          "ads": false,
          "subtitle": []
        },
        {
          "episode": 3,
          "name": null,
          "iframe_url": "",
          "iframe_poster": null,
          "release_ru": null,
          "release_world": null,
          "availability": null,
          "voiceActing": [
            "Рус. Оригинальный"
          ],
          "ads": false,
          "subtitle": []
        },
        {
          "episode": 4,
          "name": null,
          "iframe_url": "",
          "iframe_poster": null,
          "release_ru": null,
          "release_world": null,
          "availability": null,
          "voiceActing": [
            "Рус. Оригинальный"
          ],
          "ads": false,
          "subtitle": []
        },
        {
          "episode": 5,
          "name": null,
          "iframe_url": "",
          "iframe_poster": null,
          "release_ru": null,
          "release_world": null,
          "availability": null,
          "voiceActing": [
            "Рус. Оригинальный"
          ],
          "ads": false,
          "subtitle": []
        }
      ]
    }
  ],
  "voiceActing": [
    "Рус. Оригинальный"
  ],
  "subtitle": [],
  "parts": []
}
