{
  "id": 28359,
  "name": "Корабль дураков",
  "name_eng": "Ship of Fools",
  "year": 1965,
  "slogan": "«EXPLORER, MISTRESS, VAGRANT, LOAFER, ARTIST, TRAMP ... THEY ARE ALL AT THE CAPTAIN'S TABLE!»",
  "age": "16+",
  "type": "film",
  "quality": "HD (720p)",
  "imdb": "7.1",
  "imdb_id": "0059712",
  "kinopoisk": "7.8",
  "kinopoisk_id": "16755",
  "world_art": null,
  "world_art_id": null,
  "time": "149 мин. / 02:29",
  "ads": false,
  "premier": "1965-07-29",
  "premier_rus": "1965-07-30",
  "availability": "1965-07-31",
  "activate_time": "2020-07-24 14:23:00",
  "budget": null,
  "fees_use": null,
  "fees_world": null,
  "fees_rus": null,
  "rate_mpaa": null,
  "description": "Пассажиры разных национальностей и слоёв общества в течение нескольких недель плывут на гигантском лайнере «Вера» из порта Веракрус (Мексика) в Бремерхафен. Один из пассажиров — философствующий карлик Глокен — называет лайнер кораблём дураков.",
  "iframe_url": "",
  "iframe_poster": null,
  "poster": "https://img.imgilall.me/movies/franchise/2/8/3/5/9/0/0/0/0/0/610x900_28359.jpg",
  "country": {
    "1": "США"
  },
  "collection": [],
  "genre": {
    "32": "Военный",
    "8": "Мелодрама",
    "7": "Драма"
  },
  "director": [
    "Стэнли Крамер"
  ],
  "screenwriter": [
    "Эбби Манн",
    "Кэтрин Энн Портер"
  ],
  "producer": [
    "Стэнли Крамер"
  ],
  "operator": [
    "Эрнест Ласло"
  ],
  "composer": [
    "Эрнест Голд"
  ],
  "design": [
    "Роберт Клэтворти",
    "Билл Томас",
    "Джозеф Киш"
  ],
  "editor": [
    "Роберт С. Джонс"
  ],
  "actors": [
    "Вивьен Ли",
    "Симона Синьоре",
    "Хосе Феррер",
    "Ли Марвин",
    "Оскар Вернер",
    "Элизабет Эшли",
    "Джордж Сигал",
    "Хосе Греко",
    "Майкл Данн",
    "Чарльз Корвин"
  ],
  "actors_dubl": [],
  "trivia": [],
  "trailers": [],
  "seasons": [],
  "voiceActing": [
    "Diva Universal"
  ],
  "subtitle": [],
  "parts": []
}
