{
  "id": 17784,
  "name": "Заяц над бездной",
  "name_eng": "",
  "year": 2006,
  "slogan": "«Влюбленные всех стран, соединяйтесь»",
  "age": "12+",
  "type": "film",
  "quality": "SD",
  "imdb": "5.9",
  "imdb_id": "0462727",
  "kinopoisk": "6.8",
  "kinopoisk_id": "161139",
  "world_art": null,
  "world_art_id": null,
  "time": "97 мин. / 01:37",
  "ads": false,
  "premier": "2007-02-02",
  "premier_rus": "2006-02-09",
  "availability": "2006-02-10",
  "activate_time": "2020-05-05 16:19:00",
  "budget": null,
  "fees_use": null,
  "fees_world": "$217 329",
  "fees_rus": "$300 000",
  "rate_mpaa": null,
  "description": "В прошлом веке, в семьдесят первом году жили-были в Молдавии Первый и Второй Секретари Коммунистической партии, и Второй был главнее Первого, потому что дружил с Царем всего Советского Союза Леонидом Брежневым.Когда вся республика готовилась к встрече этого самого Брежнева, музыкант Лаутар наконец решился попросить у цыганского Барона руки его дочери Анны. Да разве отдаст Барон свою любимую дочь за простого, нищего музыканта?.. Отдаст, коли подарить невесте ЗИЛ Брежнева, а сам Генеральный Секретарь станет сватом.",
  "iframe_url": "",
  "iframe_poster": null,
  "poster": "https://img.imgilall.me/movies/franchise/1/7/7/8/4/0/0/0/0/0/610x900_17784.jpg",
  "country": {
    "5": "Россия"
  },
  "collection": [],
  "genre": {
    "19": "Комедия"
  },
  "director": [
    "Тигран Кеосаян"
  ],
  "screenwriter": [
    "Дмитрий Иванов"
  ],
  "producer": [
    "Рубен Дишдишян",
    "Феликс Клейман"
  ],
  "operator": [
    "Игорь Клебанов"
  ],
  "composer": [
    "Алексей Рыбников"
  ],
  "design": [
    "Николай Терехов",
    "Наталья Александрова"
  ],
  "editor": [],
  "actors": [
    "Богдан Ступка",
    "Владимир Ильин",
    "Михаил Ефремов",
    "Елена Сафонова",
    "Валерия Ланская",
    "Сергей Газаров",
    "Юрий Стоянов",
    "Игорь Золотовицкий",
    "Вартан Даракчан",
    "Алёна Хмельницкая"
  ],
  "actors_dubl": [],
  "trivia": [
    "Съёмки начались в мае 2005 года и продолжались около двух месяцев на улицах старого Кишинёва и в курортном предместье столицы Молдовы Вадул-луй-Водэ, а также в посёлке на берегу Днестра Голерканы."
  ],
  "trailers": [],
  "seasons": [],
  "voiceActing": [
    "Рус. Оригинальный"
  ],
  "subtitle": [],
  "parts": []
}
