{
  "id": 36143,
  "name": "Скачущие издалека",
  "name_eng": "The Long Riders",
  "year": 1980,
  "slogan": "«'All the world likes an outlaw.  For some damn reason they remember 'em.' - Jesse James»",
  "age": "12+",
  "type": "film",
  "quality": "FHD (1080p)",
  "imdb": "7.0",
  "imdb_id": "0081071",
  "kinopoisk": "6.6",
  "kinopoisk_id": "1682",
  "world_art": null,
  "world_art_id": null,
  "time": "100 мин. / 01:40",
  "ads": false,
  "premier": "1980-05-15",
  "premier_rus": "1980-05-16",
  "availability": "1980-05-17",
  "activate_time": "2020-08-14 17:16:00",
  "budget": "$10 000 000",
  "fees_use": "$15 795 189",
  "fees_world": null,
  "fees_rus": null,
  "rate_mpaa": "R",
  "description": "Знаменитая банда Малыша Джеймса - самая крутая шайка грабителей банков, поездов и дилижансов, они слывут в народе местными героями. Поймать их клянётся сыскное агентство Пинкертона, а это значит, что бандитам предстоит встреча со смертельным врагом. Выбор небогат: оказаться за решеткой или погибнуть.",
  "iframe_url": "",
  "iframe_poster": null,
  "poster": "https://img.imgilall.me/movies/franchise/3/6/1/4/3/0/0/0/0/0/610x900_36143.jpg",
  "country": {
    "1": "США"
  },
  "collection": [],
  "genre": {
    "25": "Криминал",
    "29": "Вестерн",
    "27": "Биографический"
  },
  "director": [
    "Уолтер Хилл"
  ],
  "screenwriter": [
    "Билл Брайден",
    "Стивен Смит",
    "Стейси Кич"
  ],
  "producer": [
    "Тим Зиннеманн",
    "Джеймс Кич",
    "Стейси Кич"
  ],
  "operator": [
    "Рик Уэйт"
  ],
  "composer": [
    "Рай Кудер"
  ],
  "design": [
    "Джек Т. Коллис",
    "Питер Р. Ромеро",
    "Бобби Мэнникс"
  ],
  "editor": [
    "Фриман А. Дейвис",
    "Дэвид Холден"
  ],
  "actors": [
    "Дэвид Кэрредин",
    "Кит Кэрредин",
    "Роберт Кэрредин",
    "Джеймс Кич",
    "Стейси Кич",
    "Деннис Куэйд",
    "Рэнди Куэйд",
    "Кевин Брофи",
    "Гарри Кэри мл.",
    "Кристофер Гест"
  ],
  "actors_dubl": [],
  "trivia": [],
  "trailers": [],
  "seasons": [],
  "voiceActing": [
    "НТВ",
    "Рус. Проф. многоголосый",
    "Рус. Люб. двухголосый",
    "C. Визгунов",
    "Eng.Original"
  ],
  "subtitle": [
    "Рус. полные"
  ],
  "parts": []
}
