{
  "id": 30723,
  "name": "Экстремальные гонки",
  "name_eng": "Tau man ji D",
  "year": 2005,
  "slogan": "«How fast is 1 second?»",
  "age": "12+",
  "type": "film",
  "quality": "HD (720p)",
  "imdb": "6.4",
  "imdb_id": "0",
  "kinopoisk": "7.0",
  "kinopoisk_id": "178485",
  "world_art": null,
  "world_art_id": null,
  "time": "107 мин. / 01:47",
  "ads": false,
  "premier": "2005-06-19",
  "premier_rus": "2006-01-19",
  "availability": "2006-01-20",
  "activate_time": "2020-07-11 00:56:00",
  "budget": "$12 000 000",
  "fees_use": null,
  "fees_world": "$10 793 051",
  "fees_rus": "$4 200",
  "rate_mpaa": null,
  "description": "На протяжении пяти лет подросток Такуми возил тофу по извилистым горным дорогам на старенькой папиной Тойоте. Теперь парню 18, и он только год назад получил права, но уже стал настоящим асом в прохождении поворотов — тофу в багажнике не крошится, вода из стаканчика проливается. Однажды Такуми случайно уделывает местного гонщика, и тот зовёт его поучаствовать в гонках за звание короля дорог горы Акаги.",
  "iframe_url": "",
  "iframe_poster": null,
  "poster": "https://img.imgilall.me/movies/franchise/3/0/7/2/3/0/0/0/0/0/610x900_30723.jpg",
  "country": {
    "12": "Гонконг",
    "18": "Япония"
  },
  "collection": [],
  "genre": {
    "19": "Комедия",
    "17": "Боевик",
    "8": "Мелодрама",
    "7": "Драма"
  },
  "director": [
    "Эндрю Лау",
    "Алан Мак",
    "Ральф Рикерманн"
  ],
  "screenwriter": [
    "Феликс Чон",
    "Сюити Сигэно"
  ],
  "producer": [
    "Эндрю Лау",
    "Эллен Чанг",
    "Джон Чон"
  ],
  "operator": [
    "Лай Иу-Фай",
    "Эндрю Лау",
    "Нг Ман-Чин"
  ],
  "composer": [
    "Комфорт Чан"
  ],
  "design": [
    "Сильвер Чун"
  ],
  "editor": [
    "Вон Хой"
  ],
  "actors": [
    "Джей Чоу",
    "Энтони Вон",
    "Эдисон Чен",
    "Шон Юе",
    "Аннэ Судзуки",
    "Чэпман То",
    "Кенни Би",
    "Джордан Чан",
    "Уилл Лю",
    "Цуёси Абэ"
  ],
  "actors_dubl": [],
  "trivia": [
    "Три новые Toyota AE86 Sprinter Trueno (Toyota Corolla AE), снятые с выпуска в 1987, были специально выпущены для фильма.",
    "Изначально Цуй Харк собирался заниматься режиссурой фильма, но в итоге он покинул проект из-за творческих разногласий.",
    "По словам Энтони Вона в оригинале была гонка с участием Бунты. Однако в финальной версии фильма из-за временных рамок сцену пришлось вырезать."
  ],
  "trailers": [],
  "seasons": [],
  "voiceActing": [
    "Рус. Люб. двухголосый"
  ],
  "subtitle": [],
  "parts": []
}
