{
  "id": 578,
  "name": "Ночь в музее",
  "name_eng": "Night at the Museum",
  "year": 2006,
  "slogan": "«Всё оживает»",
  "age": "6+",
  "type": "film",
  "quality": "FHD (1080p)",
  "imdb": "6.4",
  "imdb_id": "0477347",
  "kinopoisk": "7.0",
  "kinopoisk_id": "178580",
  "world_art": null,
  "world_art_id": null,
  "time": "108 мин. / 01:48",
  "ads": false,
  "premier": "2006-12-17",
  "premier_rus": "2006-12-28",
  "availability": null,
  "activate_time": "2018-06-19 17:55:26",
  "budget": "$110 000 000",
  "fees_use": "$250 863 268",
  "fees_world": "$574 480 841",
  "fees_rus": "$12 988 050",
  "rate_mpaa": "PG",
  "description": "Молодой человек в поисках работы попадает в музей, где приступает к обязанностям ночного сторожа. Оказывается, не такая это простая работа, как могло показаться на первый взгляд. Ведь самое главное — не только не дать никому войти в музей, но и не позволить никому и ничему из музея выйти….",
  "iframe_url": "",
  "iframe_poster": null,
  "poster": "https://img.imgilall.me/movies/franchise/5/7/8/0/0/0/0/0/0/0/610x900_578.jpg",
  "country": {
    "1": "США",
    "2": "Великобритания"
  },
  "collection": {
    "91": "Про динозавров"
  },
  "genre": {
    "9": "Приключения",
    "6": "Фэнтези",
    "33": "Семейный",
    "19": "Комедия",
    "17": "Боевик",
    "10": "Зарубежный"
  },
  "director": [
    "Шон Леви"
  ],
  "screenwriter": [
    "Роберт Бен Гарант",
    "Томас Леннон",
    "Милан Тренк"
  ],
  "producer": [
    "Майкл Барнатан",
    "Крис Коламбус",
    "Шон Леви"
  ],
  "operator": [
    "Гильермо Наварро"
  ],
  "composer": [
    "Алан Сильвестри"
  ],
  "design": [
    "Клод Паре",
    "Майкл Динер",
    "Хелен Джарвис"
  ],
  "editor": [
    "Дон Циммерман"
  ],
  "actors": [
    "Бен Стиллер",
    "Джейк Черри",
    "Карла Гуджино",
    "Робин Уильямс",
    "Стив Куган",
    "Оуэн Уилсон",
    "Дик Ван Дайк",
    "Микки Руни",
    "Билл Коббс",
    "Рики Джервэйс"
  ],
  "actors_dubl": [
    "Александр Баргман",
    "Дмитрий Маслов",
    "Екатерина Кабашова",
    "Геннадий Богачёв",
    "Борис Хасанов"
  ],
  "trivia": [
    "Женщина, которая сидит в рекрутинговом агентстве, — мать Бена Стиллера.",
    "Несмотря на то, что Бен Стиллер и Оуэн Уилсон частенько вступают в диалог, на съемочной площадке они провели вместе лишь один день. Большинство сцен с Уилсоном были отсняты через три месяца после съемок сцен со Стиллером.",
    "Первоначально планировалось, что фильм будет снимать Стивен Соммерс."
  ],
  "trailers": [],
  "seasons": [],
  "voiceActing": [
    "Рус. Дублированный",
    "Рус. Проф. двухголосый",
    "В. Королев",
    "В. Котов",
    "Eng.Original",
    "Eng. Orig. with Commentary"
  ],
  "subtitle": [
    "Рус. форсированные"
  ],
  "parts": [
    578,
    579,
    582
  ]
}
