{
  "id": 34317,
  "name": "Полу-Нельсон",
  "name_eng": "Half Nelson",
  "year": 2006,
  "slogan": "«Secrets don't let go»",
  "age": "18+",
  "type": "film",
  "quality": "HD (720p)",
  "imdb": "7.2",
  "imdb_id": "0",
  "kinopoisk": "7.1",
  "kinopoisk_id": "171850",
  "world_art": null,
  "world_art_id": null,
  "time": "106 мин. / 01:46",
  "ads": false,
  "premier": "2006-01-23",
  "premier_rus": "2006-01-24",
  "availability": "2006-01-25",
  "activate_time": "2020-07-17 07:03:00",
  "budget": "$700 000",
  "fees_use": "$2 697 938",
  "fees_world": "+ $1 919 003 = $4 616 941",
  "fees_rus": null,
  "rate_mpaa": "R",
  "description": "Учитель средней школы употребляет наркотики... Он начинает дружить со своей ученицей, после того как она раскрывает его секрет. Во что же выльется эта странная дружба?",
  "iframe_url": "",
  "iframe_poster": null,
  "poster": "https://img.imgilall.me/movies/franchise/3/4/3/1/7/0/0/0/0/0/610x900_34317.jpg",
  "country": {
    "1": "США"
  },
  "collection": [],
  "genre": {
    "7": "Драма"
  },
  "director": [
    "Райан Флек"
  ],
  "screenwriter": [
    "Райан Флек",
    "Анна Боден"
  ],
  "producer": [
    "Анна Боден",
    "Розанн Коренберг",
    "Алекс Орловский"
  ],
  "operator": [
    "Андрий Парекх"
  ],
  "composer": [
    "Broken-Social-Scene"
  ],
  "design": [
    "Бет Микл",
    "Инбал Вейнберг",
    "Эрин Бенач"
  ],
  "editor": [
    "Анна Боден"
  ],
  "actors": [
    "Райан Гослинг",
    "Шарика Эппс",
    "Энтони Маки",
    "Моник Кёрнен",
    "Денис О’Хэр",
    "Дебора Раш",
    "Джей О. Сэндерс",
    "Коллинз Пенни",
    "Джефф Лима",
    "Нэйтан Корбетт"
  ],
  "actors_dubl": [],
  "trivia": [
    "Фильм был снят за 23 дня и закончен на день раньше запланированного.",
    "По сценарию главному герою в районе тридцати пяти лет, но создатели фильма изменили эту деталь, ведь исполнителю главной роли Райану Гослингу на момент съемок было 25 лет.",
    "Все сцены фильма, кроме «натюрмортных» сцен в квартире главного героя, были сняты в технике «ручной камеры»."
  ],
  "trailers": [],
  "seasons": [],
  "voiceActing": [
    "Ozz"
  ],
  "subtitle": [],
  "parts": []
}
