{
  "id": 25825,
  "name": "Кевин и Перри уделывают всех",
  "name_eng": "Kevin & Perry Go Large",
  "year": 2000,
  "slogan": "«Модная музыка, клёвые девочки и всё такое...»",
  "age": "18+",
  "type": "film",
  "quality": "HD (720p)",
  "imdb": "5.6",
  "imdb_id": "0205177",
  "kinopoisk": "5.8",
  "kinopoisk_id": "17561",
  "world_art": null,
  "world_art_id": null,
  "time": "82 мин. / 01:22",
  "ads": false,
  "premier": "2000-04-21",
  "premier_rus": "2000-04-22",
  "availability": "2000-04-23",
  "activate_time": "2020-07-18 10:58:00",
  "budget": "£ 2 000 000",
  "fees_use": null,
  "fees_world": null,
  "fees_rus": null,
  "rate_mpaa": "R",
  "description": "Наступили летние каникулы, а Кевин и его дружок Перри все еще не сделали «это». Если в ближайшее время им не удастся снять пару девчонок, они просто лопнут.А пока что у них, фанатов танцевальной музыки, остается единственная радость в жизни - сидеть в спальне Кевина и делать свои гениальные миксы. Но есть на Земле место, где обитают крутые ди-джеи и безотказные девушки.Это остров Ибица - столица мировой танцевальной моды. «Раскрутив» родителей на билеты, друзья приступают к делу и тут же добиваются успеха.Им удается «охмурить» двух шикарных девчонок, а настоящая суперзвезда - знаменитый ди-джей «Лупоглазый» Пол обещает взять парней к себе в помощники (если сначала они вычистят его туалет).Похоже, что лето будет приятным во всех отношениях.",
  "iframe_url": "",
  "iframe_poster": null,
  "poster": "https://img.imgilall.me/movies/franchise/2/5/8/2/5/0/0/0/0/0/610x900_25825.jpg",
  "country": {
    "2": "Великобритания"
  },
  "collection": [],
  "genre": {
    "19": "Комедия"
  },
  "director": [
    "Эд Бай"
  ],
  "screenwriter": [
    "Гарри Энфилд",
    "Дэйв Каммингс"
  ],
  "producer": [
    "Питер Беннет-Джонс",
    "Гарри Энфилд",
    "Джолион Саймондс"
  ],
  "operator": [
    "Алан Элмонд"
  ],
  "composer": [
    "Сесиль Фэй",
    "Филип Поуп"
  ],
  "design": [
    "Том Браун",
    "Дэвид Оллдей",
    "Роса Рос"
  ],
  "editor": [
    "Марк Уайбурн"
  ],
  "actors": [
    "Гарри Энфилд",
    "Кэти Бёрк",
    "Рис Иванс",
    "Лора Фрейзер",
    "Джеймс Флит",
    "Луиза Рикс",
    "Табита Вади",
    "Пол Уайтхаус",
    "Наташа Литтл",
    "Анна Шиллинглоу"
  ],
  "actors_dubl": [],
  "trivia": [],
  "trailers": [],
  "seasons": [],
  "voiceActing": [
    "Diva Universal"
  ],
  "subtitle": [],
  "parts": []
}
