{
  "id": 21780,
  "name": "Бесконечная любовь",
  "name_eng": "Endless Love",
  "year": 1981,
  "slogan": "«Ей 15. Ему 17. Любовь, которая пугает всех родителей»",
  "age": "16+",
  "type": "film",
  "quality": "FHD (1080p)",
  "imdb": "4.9",
  "imdb_id": "0082329",
  "kinopoisk": "6.2",
  "kinopoisk_id": "17641",
  "world_art": null,
  "world_art_id": null,
  "time": "116 мин. / 01:56",
  "ads": false,
  "premier": "1981-07-17",
  "premier_rus": "1981-07-18",
  "availability": "1981-07-19",
  "activate_time": "2020-06-04 12:51:00",
  "budget": null,
  "fees_use": "$31 184 024",
  "fees_world": "+ $1 308 650 = $32 492 674",
  "fees_rus": null,
  "rate_mpaa": "R",
  "description": "Это история о власти любви, о власти столь сильного, столь всепоглощающего чувства, что оно оказывает мощное влияние на всех, кто попадает в его орбиту.",
  "iframe_url": "",
  "iframe_poster": null,
  "poster": "https://img.imgilall.me/movies/franchise/2/1/7/8/0/0/0/0/0/0/610x900_21780.jpg",
  "country": {
    "1": "США"
  },
  "collection": [],
  "genre": {
    "8": "Мелодрама",
    "7": "Драма"
  },
  "director": [
    "Франко Дзеффирелли"
  ],
  "screenwriter": [
    "Джудит Рэскоу",
    "Скотт Спенсер"
  ],
  "producer": [
    "Дайсон Ловелл",
    "Кит Бариш"
  ],
  "operator": [
    "Дэвид Уоткин"
  ],
  "composer": [
    "Джонатан Туник"
  ],
  "design": [
    "Эд Уиттштейн",
    "Эдвард Пизони",
    "Кристи Зиа"
  ],
  "editor": [
    "Майкл Дж. Шеридан"
  ],
  "actors": [
    "Брук Шилдс",
    "Мартин Хьюит",
    "Ширли Найт",
    "Дон Мюррэй",
    "Ричард Кайли",
    "Беатрис Стрэйт",
    "Джеймс Спэйдер",
    "Йен Зиринг",
    "Роберт Мур",
    "Пенелопа Милфорд"
  ],
  "actors_dubl": [],
  "trivia": [
    "Ширли Найт предлагала режиссеру Франко Дзеффирелли взять на роль Джейд Розану Аркетт, Линду Блэр, Бо Дерек, Кэрри Фишер, Джоди Фостер, Мелани Гриффит, Дженнифер Джейсон Ли, Кристи МакНикол, Мишель Пфайфер или Дебру Уингер, так как считала, что 14-летняя Брук Шилдс не достаточно талантлива, чтобы сыграть ее.",
    "Мэг Райан проходила кастинг на роль Джейд."
  ],
  "trailers": [],
  "seasons": [],
  "voiceActing": [
    "Рус. Проф. многоголосый",
    "Eng.Original"
  ],
  "subtitle": [
    "Eng. full"
  ],
  "parts": []
}
