{
  "id": 21394,
  "name": "Роковое число 23",
  "name_eng": "The Number 23",
  "year": 2006,
  "slogan": "«От правды не уйдёшь»",
  "age": "16+",
  "type": "film",
  "quality": "HD (720p)",
  "imdb": "6.4",
  "imdb_id": "0481369",
  "kinopoisk": "7.2",
  "kinopoisk_id": "178579",
  "world_art": null,
  "world_art_id": null,
  "time": "98 мин. / 01:38",
  "ads": true,
  "premier": "2007-02-13",
  "premier_rus": "2007-02-14",
  "availability": "2007-02-15",
  "activate_time": "2020-06-02 12:54:00",
  "budget": "$30 000 000",
  "fees_use": "$35 193 167",
  "fees_world": "+ $42 373 648 = $77 566 815",
  "fees_rus": null,
  "rate_mpaa": "R",
  "description": "Сотрудник службы по отлову бездомных животных Уолтер Спэрроу берется за чтение загадочного романа «Номер 23», который подарила ему на день рождения его жена Агата. В итоге тихая и спокойная жизнь Уолтера превращается в невыносимые муки, которые могут привести и его, и близких ему людей к самому печальному концу. А виной всему - число 23. Дело в том, что роман, в котором рассказывается о жутком убийстве, представляет собой зеркальное отражение жизни самого Уолтера.То, что происходит с главным героем книги, угрюмым детективом Фингерлингом, слишком уж напоминает Уолтеру его собственную судьбу. По мере того, как описанные в романе события начинают повторяться в реальной жизни, Уолтер, как и Фингерлинг, подпадает под странную власть числа 23, которое он видит повсюду. В конце концов он приходит к убеждению, что ему суждено совершить такое же чудовищное убийство, какое совершил Фингерлинг. Изменить же будущее Уолтер сможет только раскрыв тайну числа…",
  "iframe_url": "",
  "iframe_poster": null,
  "poster": "https://img.imgilall.me/movies/franchise/2/1/3/9/4/0/0/0/0/0/610x900_21394.jpg",
  "country": {
    "1": "США",
    "20": "Германия"
  },
  "collection": {
    "29": "Психологические",
    "25": "Про маньяков"
  },
  "genre": {
    "25": "Криминал",
    "26": "Ужасы",
    "24": "Детектив",
    "13": "Триллер",
    "7": "Драма"
  },
  "director": [
    "Джоэл Шумахер"
  ],
  "screenwriter": [
    "Фернли Филлипс"
  ],
  "producer": [
    "Бо Флинн",
    "Трип Винсон",
    "Ричард Бренер"
  ],
  "operator": [
    "Мэттью Либатик"
  ],
  "composer": [
    "Гарри Грегсон-Уильямс"
  ],
  "design": [
    "Эндрю Лоус",
    "Джон Билингтон",
    "Дэвид Сэндфер"
  ],
  "editor": [
    "Марк Стивенс"
  ],
  "actors": [
    "Джим Керри",
    "Вирджиния Мэдсен",
    "Логан Лерман",
    "Дэнни Хьюстон",
    "Линн Коллинс",
    "Рона Митра",
    "Мишель Артур",
    "Марк Пеллегрино",
    "Пол Батчер",
    "Дэвид Стифел"
  ],
  "actors_dubl": [],
  "trivia": [
    "Фильм о магическом числе 23 стал 23-м фильмом в творческой карьере Джоэла Шумахера.",
    "Джим Керри с удовольствием поддержал проект, поскольку сам одержим магией числа 23.",
    "Начало съемок — 16 января 2006.",
    "На главную женскую роль приглашали Элизабет Шу, но актриса вынуждена была отказаться из-за беременности.",
    "В ряде стран фильм намеренно выпустили на экраны 23 марта.",
    "В фильме полно намеков как на само число 23, так и на те числа, которые при сложении или вычитании образуют его. Так, номер офиса Агаты Спэрроу — 318. 31-8=23, действие фильма начинается в день рождения героя 3 февраля (т. е. 2/3 — если учитывать, что американцы сначала ставят номер месяца, а потом число), Лаура Толлинс погибла в возрасте 23 лет и т. д.",
    "В массовой культуре США число 23 имеет культовое значение. Писатель Уильям Берроуз специально исследовал несколько случаев катастроф, в которых число 23 носило особый смысл. У легендарного баскетболиста Майкла Джордана был номер 23, его отец был убит 23 июля.",
    "Золотое сечение числа 60 (количество минут в часе и секунд в минуте) дает числа 37 и 23. Таким образом, 23 минуты — обращенное золотое сечение часа, а 23 секунды — обращенное золотое сечение минуты.",
    "В латинском алфавите 23 буквы. Число букв в короткой форме древнееврейского алфавите также равно 23 (22=21+0, т. е. 23 — Ein Soph, Пустота, содержащая в себе все).",
    "Цикл физических биоритмов человека составляет 23 дня. Ровно столько же, по мнению тантриков, продолжается сексуальный цикл мужчины.",
    "В человеческой руке 23 сустава.",
    "У человека 23 пары хромосом.",
    "В спирали генетических «инструкций» ДНК необъяснимые пока для науки «сбои» — нерегулярности в структуре — появляются каждые 23 ангстрема.",
    "Джон Диллинджер ограбил 26 банков, но деньги забрал только в 23-х из них. Его застрелили в чикагском театре, находящемся в доме 2323 по Кларк-стрит. Другая звезда криминала, Артур Фленгенхаймер, более известный как Немец Шульц, умер 23 октября 1935 года. За год до смерти Шульц оплатил заказное убийство гангстера-конкурента Колла по кличке «Бешеный пес» — того застрелили в возрасте 23 лет. В день смерти Шульца был ранен Кромпьер, король преступников Гарлема, который в момент ареста сказал полиции загадочную фразу: «Кажется, это одно из тех совпадений». Убийца Шульца, Чарли Уоркмэн, отбывал наказание в течение 23 лет, после чего был освобожден условно.",
    "Полный цикл кровообращения, то бишь время, за которое кровь обегает все тело человека, равен 23 секундам.",
    "Каждая 23-я набегающая на берег волна вдвое превосходит по размерам среднестатистическую волну.",
    "Символ ванадия, 23-го элемента таблицы Менделеева — V (то есть римское 5, иными словами 2+3).",
    "Первая высадка человека на поверхность Луны состоялась в Море Спокойствия, на 23-м градусе восточной широты, вторая — в Океане Бурь, на 23-м градусе западной. Высадки производились с кораблей «Аполлон 11» и «Аполлон 12» (11+12=23).",
    "Земная ось описывает в пространстве полный круг примерно за 23 тысячи земных лет, а ее наклон относительно плоскости вращения планеты составляет чуть больше 23 градусов.",
    "Исследователи астероидов отмечают, что минимальный период вращения астероида вокруг собственной оси должен составлять 2,3 часа — иначе маленькую планету просто разрывает на части.",
    "Гармоническая конвергенция (одновременное завершение нескольких космических, галактических и земных циклов, приводящее к «энергетическому толчку», и описанное Хосе Аргуэльесом в «Факторе майя») случается на Земле каждые 23 тысячи лет.",
    "Пожар на недавно затопленной космической станции «Мир-23», с которого и начались проблемы российского корабля, произошел 23 февраля 1997 года. Огонь уничтожил 23 канистры с кислородом. С советским освоением космоса вообще все непросто: первый корабль «Союз» отправился в небеса 23 апреля 1967 года, а 23 сентября того же года передал в ЦУП первые фотографии Земли, ну а первая орбитальная станция была запущена 23 апреля 1971 года.",
    "В течение многих лет наибольшее количество сообщений о встречах людей с инопланетянами приходится на 23 апреля, а число «чужих», посеявших споры жизни на планете Земля, по мнению уфологов, составило 23 пришельцев.",
    "Величайший англоязычный литератор, Уильям Шекспир, родился 23 апреля 1564 года и умер 23 апреля 1616-го. Большая часть его трудов известна нам по его первому собранию сочинений, опубликованному в 1623 году (в том же году умерла его жена Анна). Другая интересная деталь: в 1610 году, когда появилось первое издание и доселе канонической библии короля Джеймса, Шекспиру было 46 (23+23) лет. 46-е слово 46-го Псалма в ней было shake, а 46-е слово с конца Псалма — spear… История повторилась в недавно прошедшем веке: Курт Кобейн родился в 1967 году (1+9+6+7=23), а умер в 1994 (1+9+9+4=23).",
    "Во время ядерных испытаний на атолле Бикини американцы взорвали 23 атомных бомбы.",
    "В математике существует ровно 2 числа, не представимых в виде суммы 8 неотрицательных кубов — числа 23 и 239!",
    "Название фильма в России содержит ровно 23 буквы: «Роковое число двадцать три».",
    "Номера автомобилей персонажей Дэнни Хьюстона и Джима Керри состоят из чисел 23,23: «023 5HJ» (023 первая часть номера, 5+8(H-восьмая буква в алфавите)+10(J-десятая буква)=23)) и «906 8ТС» (9+6+8=23, 20(T-двадцатая буква)+3(С-третья буква)) соответственно.",
    "23 октября 2002 года в Москве были взяты в заложники около 800 зрителей и актёров мюзикла «Норд-Ост».",
    "Телеграфный код 23 означает «Разрыв связи».",
    "Авария на чернобыльской АЭС произошла на 23 минуте.",
    "На Луне находятся 23 объекта, созданные СССР.",
    "Самая яркая звезда неба, Сириус, в 23 раза ярче Солнца.",
    "Температура тела ежа — 23 градуса.",
    "На свете 23 вида крокодилов.",
    "Атомную бомбу на Хиросиму сбросили в 8 часов 15 минут (8+15=23) местного времени.",
    "По шумерскому и египетскому календарям новый год наступал 23 июля.\nВарвары ворвались в Рим 23 августа 410 года.",
    "23 дня длилась героическая осада крепости Баязет, вошедшая в историю как Баязетское сидение.",
    "При атаке террористами в Бейруте армейских казарм 23 октября 1983 года погибло 23 человека.",
    "Титаник, самый большой корабль своего времени, признанный непотопляемым, пошёл ко дну вследствие столкновения с айсбергом, которое произошло в 23:40 14 апреля 1912 года.",
    "Имя хозяина пса в начале фильма — NED (англ. N-14 E-5 D-4 14+5+4=23).",
    "Когда Уолтер прибегает к своей жене в книжный магазин, камера двигается вперед к нему, на знаке справа видно цифры 599(5+9+9=23).",
    "Доктор говорит главному герою о том, что «23» является числом дьявола. Когда Уолтер сбегает посреди ночи в отель, он выбирает «KING EDWARD HOTEL», в слове «HOTEL» перегорели буквы «О» и «T» = «HEL» (Hell — ад; преисподняя)."
  ],
  "trailers": [],
  "seasons": [],
  "voiceActing": [
    "Рус. Проф. многоголосый",
    "Рус. Проф. двухголосый",
    "Ю. Немахов",
    "Eng.Original",
    "Eng. Orig. with Commentary"
  ],
  "subtitle": [
    "Рус. полные"
  ],
  "parts": []
}
