{
  "id": 7429,
  "name": "О.С. – Одинокие сердца",
  "name_eng": "The O.C.",
  "year": 2003,
  "slogan": "«It's nothing like where you live. And nothing like what you imagine»",
  "age": "12+",
  "type": "series",
  "quality": "HD (720p)",
  "imdb": "7.5",
  "imdb_id": "0362359",
  "kinopoisk": "7.9",
  "kinopoisk_id": "181153",
  "world_art": null,
  "world_art_id": null,
  "time": "42 мин",
  "ads": false,
  "premier": "2003-08-05",
  "premier_rus": "2004-05-31",
  "availability": "2004-06-01",
  "serial_status": "offline",
  "activate_time": "2019-04-05 16:13:47",
  "budget": null,
  "fees_use": null,
  "fees_world": null,
  "fees_rus": null,
  "rate_mpaa": null,
  "description": "Главного героя — 16-летнего юношу с криминальным прошлым — приглашает на время в свою семью госзащитник, проживающий в округе Оранж. Этот округ — райское место на побережье, где живут зажиточные люди, и все вокруг кажется прекрасным. Однако под внешним благополучием скрывается мир, полный лжи и предательства, в котором все ведут двойную жизнь.",
  "iframe_url": "",
  "poster": "https://img.imgilall.me/movies/franchise/7/4/2/9/0/0/0/0/0/0/610x900_7429.jpg",
  "country": {
    "1": "США"
  },
  "collection": {
    "103": "Fox"
  },
  "genre": {
    "24": "Детектив",
    "10": "Зарубежный",
    "8": "Мелодрама",
    "7": "Драма"
  },
  "director": [
    "Иэн Тойнтон",
    "Майкл Ланж",
    "Майкл Фреско"
  ],
  "screenwriter": [
    "Джош Шварц",
    "Марк Фиш",
    "Стефани Сэвадж"
  ],
  "producer": [
    "МакДжи",
    "Джош Шварц",
    "Бен Кунде"
  ],
  "operator": [
    "Базз Фейтшанс IV",
    "Джэми Барбер",
    "Аль Павони"
  ],
  "composer": [
    "Кристофер Тинг",
    "Ричард Марвин",
    "Джозеф Артур"
  ],
  "design": [
    "Томас Фиктер",
    "СиСи ДеСтефано",
    "Джеймс Хинкль"
  ],
  "editor": [
    "Мэттью Рэмси",
    "Норман Бакли",
    "Джефф Грэнзоу"
  ],
  "actors": [
    "Бен Маккензи",
    "Адам Броди",
    "Миша Бартон",
    "Рэйчел Билсон",
    "Питер Галлахер",
    "Келли Роуэн",
    "Мелинда Кларк",
    "Алан Дэйл",
    "Тейт Донован",
    "Отем Ризер"
  ],
  "actors_dubl": [],
  "trivia": [
    "Второе русскоязычное название сериала - «Однажды в Калифорнии».",
    "Райана Этвуда мог сыграть Чад Майкл Мюррей.",
    "Миша Бартон была приглашена на роль Мариссы Купер без проб. Она единственная актриса из молодых исполнителей в сериале, возраст которой соответствовал возрасту её персонажа.",
    "'О.С. - Одинокие сердца' стали популярны в пятидесяти странах, а второй и третий сезоны только в США посмотрели шесть миллионов человек.",
    "Продюссеры планировали снять семь сезонов, но после третьего рейтинг ленты стал падать и сериал закрыли.",
    "Герой Адама Броди - Сет Коэн - во многом списан с главного продюссера и сценариста сериала Джоша Шварца.",
    "Бен МакКензи и Миша Бартон, Адам Броди и Рейчел Билсон, как и их герои, встречались между собой в реальной жизни.",
    "Адам Броди на самом деле (в отличии от своего героя) очень боится плавать на лодке. На съемках его заменял сорокалетний каскадер.",
    "'О.С.' снимался в местечке Манхэттен-Бич. Это в сорока километрах от Ньюпорт-Бич, в котором живут герои сериала.",
    "Первыми на роли были утверждены Питер Галлахер (Сэнди) и Миша Бартон (Марисса), Райана же нашли в последнюю минуту.",
    "Адам Броди (Сет) всего лишь на 14 лет младше своей «экранной мамы» Келли Роуэн.",
    "В сериале есть масса отсылок к «Шестому чувству» и «Звонку». Примечательно то, что в «Шестом чувстве» играла Миша Бартон, а в «Звонке» Адам Броди.",
    "Примечательно, что с этим сериалом связан один из рекордов, установленных каналом «Фокс»: премьерная серия привлекла в США к просмотру 7,4 миллиона зрителей.",
    "В одной из серий герой Адама Броди (Сет) говорит о фильме «Летние Любовники». В этом фильме играл Питер Галлахер, исполнитель роли Сэнди.",
    "Второе имя Сета - Изекиль (Ezekiel).",
    "В раннем варианте сценария Райан Этвуд приходился внебрачным сыном Сэнди Коэну.",
    "Адам Броди первоначально прослушивался на роль Райана.",
    "28 октября 2004 года в Ньюпорт Бич всему составу сериала был вручён ключ от города.",
    "Мелинда Кларк и Рэйчел Билсон были сначала только приглашёнными звездами, но благодаря высокой популярности их персонажей, они были включены в основной состав.",
    "Мелинда Кларк прослушивалась на роль Кирстен Коэн.",
    "Название фильма было переведено на русский как «Одинокие сердца». Этот вариант сохранил изначальную монограмму «ОС». Однако в оригинале «OC» = Orange County - графство Орандж, престижный район Калифорнии, где и происходит действие.",
    "Во второй серии первого сезона герой Бена МакКензи планирует уехать из Ньюпорт Бич в Остин, штат Техас. Примечательно, что и сам Бен МакКензи родом из Остина."
  ],
  "trailers": [],
  "seasons": [
    {
      "poster": "https://img.imgilall.me/movies/season/5/0/7/2/0/0/0/0/0/0/610x900_5072.jpg",
      "release_ru": "2003-08-06",
      "release_world": "2003-08-05",
      "availability": "2003-08-07",
      "iframe_url": "",
      "season": 1,
      "episodes": [
        {
          "episode": 1,
          "name": "Pilot",
          "iframe_url": "",
          "iframe_poster": "https://img.imgilall.me/movies/video/7/9/1/6/6/0/0/0/0/0/800x450_79166.jpeg",
          "release_ru": "2003-08-06",
          "release_world": "2003-08-05",
          "availability": "2003-08-07",
          "voiceActing": [
            "СТС",
            "Eng.Original"
          ],
          "ads": false,
          "subtitle": []
        },
        {
          "episode": 2,
          "name": "The Model Home",
          "iframe_url": "",
          "iframe_poster": "https://img.imgilall.me/movies/video/7/9/1/8/3/0/0/0/0/0/800x450_79183.jpeg",
          "release_ru": "2003-08-13",
          "release_world": "2003-08-12",
          "availability": "2003-08-14",
          "voiceActing": [
            "СТС",
            "Eng.Original"
          ],
          "ads": false,
          "subtitle": []
        },
        {
          "episode": 3,
          "name": "The Gamble",
          "iframe_url": "",
          "iframe_poster": "https://img.imgilall.me/movies/video/7/9/1/6/9/0/0/0/0/0/800x450_79169.jpeg",
          "release_ru": "2003-08-20",
          "release_world": "2003-08-19",
          "availability": "2003-08-21",
          "voiceActing": [
            "СТС",
            "Eng.Original"
          ],
          "ads": false,
          "subtitle": []
        },
        {
          "episode": 4,
          "name": "The Debut",
          "iframe_url": "",
          "iframe_poster": "https://img.imgilall.me/movies/video/7/9/1/6/8/0/0/0/0/0/800x450_79168.jpeg",
          "release_ru": "2003-08-27",
          "release_world": "2003-08-26",
          "availability": "2003-08-28",
          "voiceActing": [
            "СТС",
            "Eng.Original"
          ],
          "ads": false,
          "subtitle": []
        },
        {
          "episode": 5,
          "name": "The Outsider",
          "iframe_url": "",
          "iframe_poster": "https://img.imgilall.me/movies/video/7/9/1/6/7/0/0/0/0/0/800x450_79167.jpeg",
          "release_ru": "2003-09-03",
          "release_world": "2003-09-02",
          "availability": "2003-09-04",
          "voiceActing": [
            "СТС",
            "Eng.Original"
          ],
          "ads": false,
          "subtitle": []
        },
        {
          "episode": 6,
          "name": "The Girlfriend",
          "iframe_url": "",
          "iframe_poster": "https://img.imgilall.me/movies/video/7/9/1/7/4/0/0/0/0/0/800x450_79174.jpeg",
          "release_ru": "2003-09-10",
          "release_world": "2003-09-09",
          "availability": "2003-09-11",
          "voiceActing": [
            "СТС",
            "Eng.Original"
          ],
          "ads": false,
          "subtitle": []
        },
        {
          "episode": 7,
          "name": "The Escape",
          "iframe_url": "",
          "iframe_poster": "https://img.imgilall.me/movies/video/7/9/1/8/5/0/0/0/0/0/800x450_79185.jpeg",
          "release_ru": "2003-09-17",
          "release_world": "2003-09-16",
          "availability": "2003-09-18",
          "voiceActing": [
            "СТС",
            "Eng.Original"
          ],
          "ads": false,
          "subtitle": []
        },
        {
          "episode": 8,
          "name": "The Rescue",
          "iframe_url": "",
          "iframe_poster": "https://img.imgilall.me/movies/video/7/9/1/8/1/0/0/0/0/0/800x450_79181.jpeg",
          "release_ru": "2003-10-30",
          "release_world": "2003-10-29",
          "availability": "2003-10-31",
          "voiceActing": [
            "СТС",
            "Eng.Original"
          ],
          "ads": false,
          "subtitle": []
        },
        {
          "episode": 9,
          "name": "The Heights",
          "iframe_url": "",
          "iframe_poster": "https://img.imgilall.me/movies/video/7/9/1/8/9/0/0/0/0/0/800x450_79189.jpeg",
          "release_ru": "2003-11-06",
          "release_world": "2003-11-05",
          "availability": "2003-11-07",
          "voiceActing": [
            "СТС",
            "Eng.Original"
          ],
          "ads": false,
          "subtitle": []
        },
        {
          "episode": 10,
          "name": "The Perfect Couple",
          "iframe_url": "",
          "iframe_poster": "https://img.imgilall.me/movies/video/7/9/1/7/2/0/0/0/0/0/800x450_79172.jpeg",
          "release_ru": "2003-11-13",
          "release_world": "2003-11-12",
          "availability": "2003-11-14",
          "voiceActing": [
            "СТС",
            "Eng.Original"
          ],
          "ads": false,
          "subtitle": []
        },
        {
          "episode": 11,
          "name": "The Homecoming",
          "iframe_url": "",
          "iframe_poster": "https://img.imgilall.me/movies/video/7/9/1/9/0/0/0/0/0/0/800x450_79190.jpeg",
          "release_ru": "2003-11-20",
          "release_world": "2003-11-19",
          "availability": "2003-11-21",
          "voiceActing": [
            "СТС",
            "Eng.Original"
          ],
          "ads": false,
          "subtitle": []
        },
        {
          "episode": 12,
          "name": "The Secret",
          "iframe_url": "",
          "iframe_poster": "https://img.imgilall.me/movies/video/7/9/1/8/7/0/0/0/0/0/800x450_79187.jpeg",
          "release_ru": "2003-11-27",
          "release_world": "2003-11-26",
          "availability": "2003-11-28",
          "voiceActing": [
            "СТС",
            "Eng.Original"
          ],
          "ads": false,
          "subtitle": []
        },
        {
          "episode": 13,
          "name": "The Best Chrismukkah Ever",
          "iframe_url": "",
          "iframe_poster": "https://img.imgilall.me/movies/video/7/9/1/9/2/0/0/0/0/0/800x450_79192.jpeg",
          "release_ru": "2003-12-04",
          "release_world": "2003-12-03",
          "availability": "2003-12-05",
          "voiceActing": [
            "СТС",
            "Eng.Original"
          ],
          "ads": false,
          "subtitle": []
        },
        {
          "episode": 14,
          "name": "The Countdown",
          "iframe_url": "",
          "iframe_poster": "https://img.imgilall.me/movies/video/7/9/1/9/1/0/0/0/0/0/800x450_79191.jpeg",
          "release_ru": "2003-12-18",
          "release_world": "2003-12-17",
          "availability": "2003-12-19",
          "voiceActing": [
            "СТС",
            "Eng.Original"
          ],
          "ads": false,
          "subtitle": []
        },
        {
          "episode": 15,
          "name": "The Third Wheel",
          "iframe_url": "",
          "iframe_poster": "https://img.imgilall.me/movies/video/7/9/1/7/8/0/0/0/0/0/800x450_79178.jpeg",
          "release_ru": "2004-01-08",
          "release_world": "2004-01-07",
          "availability": "2004-01-09",
          "voiceActing": [
            "СТС",
            "Eng.Original"
          ],
          "ads": false,
          "subtitle": []
        },
        {
          "episode": 16,
          "name": "The Links",
          "iframe_url": "",
          "iframe_poster": "https://img.imgilall.me/movies/video/7/9/1/8/0/0/0/0/0/0/800x450_79180.jpeg",
          "release_ru": "2004-01-15",
          "release_world": "2004-01-14",
          "availability": "2004-01-16",
          "voiceActing": [
            "СТС",
            "Eng.Original"
          ],
          "ads": false,
          "subtitle": []
        },
        {
          "episode": 17,
          "name": "The Rivals",
          "iframe_url": "",
          "iframe_poster": "https://img.imgilall.me/movies/video/7/9/1/7/3/0/0/0/0/0/800x450_79173.jpeg",
          "release_ru": "2004-01-22",
          "release_world": "2004-01-21",
          "availability": "2004-01-23",
          "voiceActing": [
            "СТС",
            "Eng.Original"
          ],
          "ads": false,
          "subtitle": []
        },
        {
          "episode": 18,
          "name": "The Truth",
          "iframe_url": "",
          "iframe_poster": "https://img.imgilall.me/movies/video/7/9/1/7/6/0/0/0/0/0/800x450_79176.jpeg",
          "release_ru": "2004-02-12",
          "release_world": "2004-02-11",
          "availability": "2004-02-13",
          "voiceActing": [
            "СТС",
            "Eng.Original"
          ],
          "ads": false,
          "subtitle": []
        },
        {
          "episode": 19,
          "name": "The Heartbreak",
          "iframe_url": "",
          "iframe_poster": "https://img.imgilall.me/movies/video/7/9/1/8/8/0/0/0/0/0/800x450_79188.jpeg",
          "release_ru": "2004-02-19",
          "release_world": "2004-02-18",
          "availability": "2004-02-20",
          "voiceActing": [
            "СТС",
            "Eng.Original"
          ],
          "ads": false,
          "subtitle": []
        },
        {
          "episode": 20,
          "name": "The Telenovela",
          "iframe_url": "",
          "iframe_poster": "https://img.imgilall.me/movies/video/7/9/1/8/4/0/0/0/0/0/800x450_79184.jpeg",
          "release_ru": "2004-02-26",
          "release_world": "2004-02-25",
          "availability": "2004-02-27",
          "voiceActing": [
            "СТС",
            "Eng.Original"
          ],
          "ads": false,
          "subtitle": []
        },
        {
          "episode": 21,
          "name": "The Goodbye Girl",
          "iframe_url": "",
          "iframe_poster": "https://img.imgilall.me/movies/video/7/9/1/7/5/0/0/0/0/0/800x450_79175.jpeg",
          "release_ru": "2004-03-04",
          "release_world": "2004-03-03",
          "availability": "2004-03-05",
          "voiceActing": [
            "СТС",
            "Eng.Original"
          ],
          "ads": false,
          "subtitle": []
        },
        {
          "episode": 22,
          "name": "The L.A.",
          "iframe_url": "",
          "iframe_poster": "https://img.imgilall.me/movies/video/7/9/1/7/9/0/0/0/0/0/800x450_79179.jpeg",
          "release_ru": "2004-03-25",
          "release_world": "2004-03-24",
          "availability": "2004-03-26",
          "voiceActing": [
            "СТС",
            "Eng.Original"
          ],
          "ads": false,
          "subtitle": []
        },
        {
          "episode": 23,
          "name": "The Nana",
          "iframe_url": "",
          "iframe_poster": "https://img.imgilall.me/movies/video/7/9/1/7/1/0/0/0/0/0/800x450_79171.jpeg",
          "release_ru": "2004-04-01",
          "release_world": "2004-03-31",
          "availability": "2004-04-02",
          "voiceActing": [
            "СТС",
            "Eng.Original"
          ],
          "ads": false,
          "subtitle": []
        },
        {
          "episode": 24,
          "name": "The Proposal",
          "iframe_url": "",
          "iframe_poster": "https://img.imgilall.me/movies/video/7/9/1/7/0/0/0/0/0/0/800x450_79170.jpeg",
          "release_ru": "2004-04-15",
          "release_world": "2004-04-14",
          "availability": "2004-04-16",
          "voiceActing": [
            "СТС",
            "Eng.Original"
          ],
          "ads": false,
          "subtitle": []
        },
        {
          "episode": 25,
          "name": "The Shower",
          "iframe_url": "",
          "iframe_poster": "https://img.imgilall.me/movies/video/7/9/1/7/7/0/0/0/0/0/800x450_79177.jpeg",
          "release_ru": "2004-04-22",
          "release_world": "2004-04-21",
          "availability": "2004-04-23",
          "voiceActing": [
            "СТС",
            "Eng.Original"
          ],
          "ads": false,
          "subtitle": []
        },
        {
          "episode": 26,
          "name": "The Strip",
          "iframe_url": "",
          "iframe_poster": "https://img.imgilall.me/movies/video/7/9/1/8/2/0/0/0/0/0/800x450_79182.jpeg",
          "release_ru": "2004-04-29",
          "release_world": "2004-04-28",
          "availability": "2004-04-30",
          "voiceActing": [
            "СТС",
            "Eng.Original"
          ],
          "ads": false,
          "subtitle": []
        },
        {
          "episode": 27,
          "name": "The Ties That Bind",
          "iframe_url": "",
          "iframe_poster": "https://img.imgilall.me/movies/video/7/9/1/8/6/0/0/0/0/0/800x450_79186.jpeg",
          "release_ru": "2004-05-06",
          "release_world": "2004-05-05",
          "availability": "2004-05-07",
          "voiceActing": [
            "СТС",
            "Eng.Original"
          ],
          "ads": false,
          "subtitle": []
        }
      ]
    },
    {
      "poster": "https://img.imgilall.me/movies/season/5/0/7/3/0/0/0/0/0/0/610x900_5073.jpg",
      "release_ru": "2004-11-05",
      "release_world": "2004-11-04",
      "availability": "2004-11-06",
      "iframe_url": "",
      "season": 2,
      "episodes": [
        {
          "episode": 1,
          "name": "The Distance",
          "iframe_url": "",
          "iframe_poster": "https://img.imgilall.me/movies/video/7/9/2/0/0/0/0/0/0/0/800x450_79200.jpeg",
          "release_ru": "2004-11-05",
          "release_world": "2004-11-04",
          "availability": "2004-11-06",
          "voiceActing": [
            "СТС",
            "Eng.Original"
          ],
          "ads": false,
          "subtitle": []
        },
        {
          "episode": 2,
          "name": "The Way We Were",
          "iframe_url": "",
          "iframe_poster": "https://img.imgilall.me/movies/video/7/9/2/0/1/0/0/0/0/0/800x450_79201.jpeg",
          "release_ru": "2004-11-12",
          "release_world": "2004-11-11",
          "availability": "2004-11-13",
          "voiceActing": [
            "СТС",
            "Eng.Original"
          ],
          "ads": false,
          "subtitle": []
        },
        {
          "episode": 3,
          "name": "The New Kids on the Block",
          "iframe_url": "",
          "iframe_poster": "https://img.imgilall.me/movies/video/7/9/2/0/2/0/0/0/0/0/800x450_79202.jpeg",
          "release_ru": "2004-11-19",
          "release_world": "2004-11-18",
          "availability": "2004-11-20",
          "voiceActing": [
            "СТС",
            "Eng.Original"
          ],
          "ads": false,
          "subtitle": []
        },
        {
          "episode": 4,
          "name": "The New Era",
          "iframe_url": "",
          "iframe_poster": "https://img.imgilall.me/movies/video/7/9/2/0/3/0/0/0/0/0/800x450_79203.jpeg",
          "release_ru": "2004-12-03",
          "release_world": "2004-12-02",
          "availability": "2004-12-04",
          "voiceActing": [
            "СТС",
            "Eng.Original"
          ],
          "ads": false,
          "subtitle": []
        },
        {
          "episode": 5,
          "name": "The SnO.C.",
          "iframe_url": "",
          "iframe_poster": "https://img.imgilall.me/movies/video/7/9/2/0/4/0/0/0/0/0/800x450_79204.jpeg",
          "release_ru": "2004-12-10",
          "release_world": "2004-12-09",
          "availability": "2004-12-11",
          "voiceActing": [
            "СТС",
            "Eng.Original"
          ],
          "ads": false,
          "subtitle": []
        },
        {
          "episode": 6,
          "name": "The Chrismukkah That Almost Wasn't",
          "iframe_url": "",
          "iframe_poster": "https://img.imgilall.me/movies/video/7/9/2/0/5/0/0/0/0/0/800x450_79205.jpeg",
          "release_ru": "2004-12-17",
          "release_world": "2004-12-16",
          "availability": "2004-12-18",
          "voiceActing": [
            "СТС",
            "Eng.Original"
          ],
          "ads": false,
          "subtitle": []
        },
        {
          "episode": 7,
          "name": "The Family Ties",
          "iframe_url": "",
          "iframe_poster": "https://img.imgilall.me/movies/video/7/9/2/0/6/0/0/0/0/0/800x450_79206.jpeg",
          "release_ru": "2005-01-07",
          "release_world": "2005-01-06",
          "availability": "2005-01-08",
          "voiceActing": [
            "СТС",
            "Eng.Original"
          ],
          "ads": false,
          "subtitle": []
        },
        {
          "episode": 8,
          "name": "The Power of Love",
          "iframe_url": "",
          "iframe_poster": "https://img.imgilall.me/movies/video/7/9/2/0/7/0/0/0/0/0/800x450_79207.jpeg",
          "release_ru": "2005-01-14",
          "release_world": "2005-01-13",
          "availability": "2005-01-15",
          "voiceActing": [
            "СТС",
            "Eng.Original"
          ],
          "ads": false,
          "subtitle": []
        },
        {
          "episode": 9,
          "name": "The Ex-Factor",
          "iframe_url": "",
          "iframe_poster": "https://img.imgilall.me/movies/video/7/9/2/0/8/0/0/0/0/0/800x450_79208.jpeg",
          "release_ru": "2005-01-21",
          "release_world": "2005-01-20",
          "availability": "2005-01-22",
          "voiceActing": [
            "СТС",
            "Eng.Original"
          ],
          "ads": false,
          "subtitle": []
        },
        {
          "episode": 10,
          "name": "The Accomplice",
          "iframe_url": "",
          "iframe_poster": "https://img.imgilall.me/movies/video/7/9/2/0/9/0/0/0/0/0/800x450_79209.jpeg",
          "release_ru": "2005-01-28",
          "release_world": "2005-01-27",
          "availability": "2005-01-29",
          "voiceActing": [
            "СТС",
            "Eng.Original"
          ],
          "ads": false,
          "subtitle": []
        },
        {
          "episode": 11,
          "name": "The Second Chance",
          "iframe_url": "",
          "iframe_poster": "https://img.imgilall.me/movies/video/7/9/2/1/0/0/0/0/0/0/800x450_79210.jpeg",
          "release_ru": "2005-02-04",
          "release_world": "2005-02-03",
          "availability": "2005-02-05",
          "voiceActing": [
            "СТС",
            "Eng.Original"
          ],
          "ads": false,
          "subtitle": []
        },
        {
          "episode": 12,
          "name": "The Lonely Hearts Club",
          "iframe_url": "",
          "iframe_poster": "https://img.imgilall.me/movies/video/7/9/2/1/1/0/0/0/0/0/800x450_79211.jpeg",
          "release_ru": "2005-02-11",
          "release_world": "2005-02-10",
          "availability": "2005-02-12",
          "voiceActing": [
            "СТС",
            "Eng.Original"
          ],
          "ads": false,
          "subtitle": []
        },
        {
          "episode": 13,
          "name": "The Test",
          "iframe_url": "",
          "iframe_poster": "https://img.imgilall.me/movies/video/7/9/2/1/2/0/0/0/0/0/800x450_79212.jpeg",
          "release_ru": "2005-02-18",
          "release_world": "2005-02-17",
          "availability": "2005-02-19",
          "voiceActing": [
            "СТС",
            "Eng.Original"
          ],
          "ads": false,
          "subtitle": []
        },
        {
          "episode": 14,
          "name": "The Rainy Day Women",
          "iframe_url": "",
          "iframe_poster": "https://img.imgilall.me/movies/video/7/9/2/1/3/0/0/0/0/0/800x450_79213.jpeg",
          "release_ru": "2005-02-25",
          "release_world": "2005-02-24",
          "availability": "2005-02-26",
          "voiceActing": [
            "СТС",
            "Eng.Original"
          ],
          "ads": false,
          "subtitle": []
        },
        {
          "episode": 15,
          "name": "The Mallpisode",
          "iframe_url": "",
          "iframe_poster": "https://img.imgilall.me/movies/video/7/9/2/1/4/0/0/0/0/0/800x450_79214.jpeg",
          "release_ru": "2005-03-11",
          "release_world": "2005-03-10",
          "availability": "2005-03-12",
          "voiceActing": [
            "СТС",
            "Eng.Original"
          ],
          "ads": false,
          "subtitle": []
        },
        {
          "episode": 16,
          "name": "The Blaze of Glory",
          "iframe_url": "",
          "iframe_poster": "https://img.imgilall.me/movies/video/7/9/2/1/5/0/0/0/0/0/800x450_79215.jpeg",
          "release_ru": "2005-03-18",
          "release_world": "2005-03-17",
          "availability": "2005-03-19",
          "voiceActing": [
            "СТС",
            "Eng.Original"
          ],
          "ads": false,
          "subtitle": []
        },
        {
          "episode": 17,
          "name": "The Brothers Grim",
          "iframe_url": "",
          "iframe_poster": "https://img.imgilall.me/movies/video/7/9/2/1/6/0/0/0/0/0/800x450_79216.jpeg",
          "release_ru": "2005-03-25",
          "release_world": "2005-03-24",
          "availability": "2005-03-26",
          "voiceActing": [
            "СТС",
            "Eng.Original"
          ],
          "ads": false,
          "subtitle": []
        },
        {
          "episode": 18,
          "name": "The Risky Business",
          "iframe_url": "",
          "iframe_poster": "https://img.imgilall.me/movies/video/7/9/2/1/7/0/0/0/0/0/800x450_79217.jpeg",
          "release_ru": "2005-04-08",
          "release_world": "2005-04-07",
          "availability": "2005-04-09",
          "voiceActing": [
            "СТС",
            "Eng.Original"
          ],
          "ads": false,
          "subtitle": []
        },
        {
          "episode": 19,
          "name": "The Rager",
          "iframe_url": "",
          "iframe_poster": "https://img.imgilall.me/movies/video/7/9/2/1/8/0/0/0/0/0/800x450_79218.jpeg",
          "release_ru": "2005-04-15",
          "release_world": "2005-04-14",
          "availability": "2005-04-16",
          "voiceActing": [
            "СТС",
            "Eng.Original"
          ],
          "ads": false,
          "subtitle": []
        },
        {
          "episode": 20,
          "name": "The O.C. Confidential",
          "iframe_url": "",
          "iframe_poster": "https://img.imgilall.me/movies/video/7/9/2/1/9/0/0/0/0/0/800x450_79219.jpeg",
          "release_ru": "2005-04-22",
          "release_world": "2005-04-21",
          "availability": "2005-04-23",
          "voiceActing": [
            "СТС",
            "Eng.Original"
          ],
          "ads": false,
          "subtitle": []
        },
        {
          "episode": 21,
          "name": "The Return of the Nana",
          "iframe_url": "",
          "iframe_poster": "https://img.imgilall.me/movies/video/7/9/2/2/0/0/0/0/0/0/800x450_79220.jpeg",
          "release_ru": "2005-05-06",
          "release_world": "2005-05-05",
          "availability": "2005-05-07",
          "voiceActing": [
            "СТС",
            "Eng.Original"
          ],
          "ads": false,
          "subtitle": []
        },
        {
          "episode": 22,
          "name": "The Showdown",
          "iframe_url": "",
          "iframe_poster": "https://img.imgilall.me/movies/video/7/9/2/2/1/0/0/0/0/0/800x450_79221.jpeg",
          "release_ru": "2005-05-06",
          "release_world": "2005-05-05",
          "availability": "2005-05-07",
          "voiceActing": [
            "СТС",
            "Eng.Original"
          ],
          "ads": false,
          "subtitle": []
        },
        {
          "episode": 23,
          "name": "The O.Sea",
          "iframe_url": "",
          "iframe_poster": "https://img.imgilall.me/movies/video/7/9/2/2/2/0/0/0/0/0/800x450_79222.jpeg",
          "release_ru": "2005-05-13",
          "release_world": "2005-05-12",
          "availability": "2005-05-14",
          "voiceActing": [
            "СТС",
            "Eng.Original"
          ],
          "ads": false,
          "subtitle": []
        },
        {
          "episode": 24,
          "name": "The Dearly Beloved",
          "iframe_url": "",
          "iframe_poster": "https://img.imgilall.me/movies/video/7/9/2/2/3/0/0/0/0/0/800x450_79223.jpeg",
          "release_ru": "2005-05-20",
          "release_world": "2005-05-19",
          "availability": "2005-05-21",
          "voiceActing": [
            "СТС",
            "Eng.Original"
          ],
          "ads": false,
          "subtitle": []
        }
      ]
    },
    {
      "poster": "https://img.imgilall.me/movies/season/5/0/7/4/0/0/0/0/0/0/610x900_5074.jpg",
      "release_ru": "2005-09-09",
      "release_world": "2005-09-08",
      "availability": "2005-09-10",
      "iframe_url": "",
      "season": 3,
      "episodes": [
        {
          "episode": 1,
          "name": "The Aftermath",
          "iframe_url": "",
          "iframe_poster": "https://img.imgilall.me/movies/video/7/9/3/2/3/0/0/0/0/0/800x450_79323.jpeg",
          "release_ru": "2005-09-09",
          "release_world": "2005-09-08",
          "availability": "2005-09-10",
          "voiceActing": [
            "СТС",
            "Eng.Original"
          ],
          "ads": false,
          "subtitle": []
        },
        {
          "episode": 2,
          "name": "The Shape of Things to Come",
          "iframe_url": "",
          "iframe_poster": "https://img.imgilall.me/movies/video/7/9/3/1/2/0/0/0/0/0/800x450_79312.jpeg",
          "release_ru": "2005-09-16",
          "release_world": "2005-09-15",
          "availability": "2005-09-17",
          "voiceActing": [
            "СТС",
            "Eng.Original"
          ],
          "ads": false,
          "subtitle": []
        },
        {
          "episode": 3,
          "name": "The End of Innocence",
          "iframe_url": "",
          "iframe_poster": "https://img.imgilall.me/movies/video/7/9/3/1/5/0/0/0/0/0/800x450_79315.jpeg",
          "release_ru": "2005-09-23",
          "release_world": "2005-09-22",
          "availability": "2005-09-24",
          "voiceActing": [
            "СТС",
            "Eng.Original"
          ],
          "ads": false,
          "subtitle": []
        },
        {
          "episode": 4,
          "name": "The Last Waltz",
          "iframe_url": "",
          "iframe_poster": "https://img.imgilall.me/movies/video/7/9/3/0/1/0/0/0/0/0/800x450_79301.jpeg",
          "release_ru": "2005-09-30",
          "release_world": "2005-09-29",
          "availability": "2005-10-01",
          "voiceActing": [
            "СТС",
            "Eng.Original"
          ],
          "ads": false,
          "subtitle": []
        },
        {
          "episode": 5,
          "name": "The Perfect Storm",
          "iframe_url": "",
          "iframe_poster": "https://img.imgilall.me/movies/video/7/9/3/0/2/0/0/0/0/0/800x450_79302.jpeg",
          "release_ru": "2005-11-04",
          "release_world": "2005-11-03",
          "availability": "2005-11-05",
          "voiceActing": [
            "СТС",
            "Eng.Original"
          ],
          "ads": false,
          "subtitle": []
        },
        {
          "episode": 6,
          "name": "The Swells",
          "iframe_url": "",
          "iframe_poster": "https://img.imgilall.me/movies/video/7/9/3/2/0/0/0/0/0/0/800x450_79320.jpeg",
          "release_ru": "2005-11-11",
          "release_world": "2005-11-10",
          "availability": "2005-11-12",
          "voiceActing": [
            "СТС",
            "Eng.Original"
          ],
          "ads": false,
          "subtitle": []
        },
        {
          "episode": 7,
          "name": "The Anger Management",
          "iframe_url": "",
          "iframe_poster": "https://img.imgilall.me/movies/video/7/9/3/0/6/0/0/0/0/0/800x450_79306.jpeg",
          "release_ru": "2005-11-18",
          "release_world": "2005-11-17",
          "availability": "2005-11-19",
          "voiceActing": [
            "СТС",
            "Eng.Original"
          ],
          "ads": false,
          "subtitle": []
        },
        {
          "episode": 8,
          "name": "The Game Plan",
          "iframe_url": "",
          "iframe_poster": "https://img.imgilall.me/movies/video/7/9/3/0/4/0/0/0/0/0/800x450_79304.jpeg",
          "release_ru": "2005-12-02",
          "release_world": "2005-12-01",
          "availability": "2005-12-03",
          "voiceActing": [
            "СТС",
            "Eng.Original"
          ],
          "ads": false,
          "subtitle": []
        },
        {
          "episode": 9,
          "name": "The Disconnect",
          "iframe_url": "",
          "iframe_poster": "https://img.imgilall.me/movies/video/7/9/3/0/8/0/0/0/0/0/800x450_79308.jpeg",
          "release_ru": "2005-12-09",
          "release_world": "2005-12-08",
          "availability": "2005-12-10",
          "voiceActing": [
            "СТС",
            "Eng.Original"
          ],
          "ads": false,
          "subtitle": []
        },
        {
          "episode": 10,
          "name": "The Chrismukkah Bar Mitz-vahkkah",
          "iframe_url": "",
          "iframe_poster": "https://img.imgilall.me/movies/video/7/9/3/0/5/0/0/0/0/0/800x450_79305.jpeg",
          "release_ru": "2005-12-16",
          "release_world": "2005-12-15",
          "availability": "2005-12-17",
          "voiceActing": [
            "СТС",
            "Eng.Original"
          ],
          "ads": false,
          "subtitle": []
        },
        {
          "episode": 11,
          "name": "The Safe Harbor",
          "iframe_url": "",
          "iframe_poster": "https://img.imgilall.me/movies/video/7/9/3/1/9/0/0/0/0/0/800x450_79319.jpeg",
          "release_ru": "2006-01-13",
          "release_world": "2006-01-12",
          "availability": "2006-01-14",
          "voiceActing": [
            "СТС",
            "Eng.Original"
          ],
          "ads": false,
          "subtitle": []
        },
        {
          "episode": 12,
          "name": "The Sister Act",
          "iframe_url": "",
          "iframe_poster": "https://img.imgilall.me/movies/video/7/9/3/1/0/0/0/0/0/0/800x450_79310.jpeg",
          "release_ru": "2006-01-20",
          "release_world": "2006-01-19",
          "availability": "2006-01-21",
          "voiceActing": [
            "СТС",
            "Eng.Original"
          ],
          "ads": false,
          "subtitle": []
        },
        {
          "episode": 13,
          "name": "The Pot Stirrer",
          "iframe_url": "",
          "iframe_poster": "https://img.imgilall.me/movies/video/7/9/3/0/3/0/0/0/0/0/800x450_79303.jpeg",
          "release_ru": "2006-01-27",
          "release_world": "2006-01-26",
          "availability": "2006-01-28",
          "voiceActing": [
            "СТС",
            "Eng.Original"
          ],
          "ads": false,
          "subtitle": []
        },
        {
          "episode": 14,
          "name": "The Cliffhanger",
          "iframe_url": "",
          "iframe_poster": "https://img.imgilall.me/movies/video/7/9/3/2/2/0/0/0/0/0/800x450_79322.jpeg",
          "release_ru": "2006-02-03",
          "release_world": "2006-02-02",
          "availability": "2006-02-04",
          "voiceActing": [
            "СТС",
            "Eng.Original"
          ],
          "ads": false,
          "subtitle": []
        },
        {
          "episode": 15,
          "name": "The Heavy Lifting",
          "iframe_url": "",
          "iframe_poster": "https://img.imgilall.me/movies/video/7/9/3/1/3/0/0/0/0/0/800x450_79313.jpeg",
          "release_ru": "2006-02-10",
          "release_world": "2006-02-09",
          "availability": "2006-02-11",
          "voiceActing": [
            "СТС",
            "Eng.Original"
          ],
          "ads": false,
          "subtitle": []
        },
        {
          "episode": 16,
          "name": "The Road Warrior",
          "iframe_url": "",
          "iframe_poster": "https://img.imgilall.me/movies/video/7/9/3/1/7/0/0/0/0/0/800x450_79317.jpeg",
          "release_ru": "2006-03-10",
          "release_world": "2006-03-09",
          "availability": "2006-03-11",
          "voiceActing": [
            "СТС",
            "Eng.Original"
          ],
          "ads": false,
          "subtitle": []
        },
        {
          "episode": 17,
          "name": "The Journey",
          "iframe_url": "",
          "iframe_poster": "https://img.imgilall.me/movies/video/7/9/3/2/1/0/0/0/0/0/800x450_79321.jpeg",
          "release_ru": "2006-03-17",
          "release_world": "2006-03-16",
          "availability": "2006-03-18",
          "voiceActing": [
            "СТС",
            "Eng.Original"
          ],
          "ads": false,
          "subtitle": []
        },
        {
          "episode": 18,
          "name": "The Undertow",
          "iframe_url": "",
          "iframe_poster": "https://img.imgilall.me/movies/video/7/9/3/0/0/0/0/0/0/0/800x450_79300.jpeg",
          "release_ru": "2006-03-24",
          "release_world": "2006-03-23",
          "availability": "2006-03-25",
          "voiceActing": [
            "СТС",
            "Eng.Original"
          ],
          "ads": false,
          "subtitle": []
        },
        {
          "episode": 19,
          "name": "The Secrets and Lies",
          "iframe_url": "",
          "iframe_poster": "https://img.imgilall.me/movies/video/7/9/3/0/7/0/0/0/0/0/800x450_79307.jpeg",
          "release_ru": "2006-03-31",
          "release_world": "2006-03-30",
          "availability": "2006-04-01",
          "voiceActing": [
            "СТС",
            "Eng.Original"
          ],
          "ads": false,
          "subtitle": []
        },
        {
          "episode": 20,
          "name": "The Day After Tomorrow",
          "iframe_url": "",
          "iframe_poster": "https://img.imgilall.me/movies/video/7/9/3/1/8/0/0/0/0/0/800x450_79318.jpeg",
          "release_ru": "2006-04-07",
          "release_world": "2006-04-06",
          "availability": "2006-04-08",
          "voiceActing": [
            "СТС",
            "Eng.Original"
          ],
          "ads": false,
          "subtitle": []
        },
        {
          "episode": 21,
          "name": "The Dawn Patrol",
          "iframe_url": "",
          "iframe_poster": "https://img.imgilall.me/movies/video/7/9/3/1/6/0/0/0/0/0/800x450_79316.jpeg",
          "release_ru": "2006-04-14",
          "release_world": "2006-04-13",
          "availability": "2006-04-15",
          "voiceActing": [
            "СТС",
            "Eng.Original"
          ],
          "ads": false,
          "subtitle": []
        },
        {
          "episode": 22,
          "name": "The College Try",
          "iframe_url": "",
          "iframe_poster": "https://img.imgilall.me/movies/video/7/9/3/1/4/0/0/0/0/0/800x450_79314.jpeg",
          "release_ru": "2006-04-21",
          "release_world": "2006-04-20",
          "availability": "2006-04-22",
          "voiceActing": [
            "СТС",
            "Eng.Original"
          ],
          "ads": false,
          "subtitle": []
        },
        {
          "episode": 23,
          "name": "The Party Favor",
          "iframe_url": "",
          "iframe_poster": "https://img.imgilall.me/movies/video/7/9/3/2/4/0/0/0/0/0/800x450_79324.jpeg",
          "release_ru": "2006-04-28",
          "release_world": "2006-04-27",
          "availability": "2006-04-29",
          "voiceActing": [
            "СТС",
            "Eng.Original"
          ],
          "ads": false,
          "subtitle": []
        },
        {
          "episode": 24,
          "name": "The Man of the Year",
          "iframe_url": "",
          "iframe_poster": "https://img.imgilall.me/movies/video/7/9/3/0/9/0/0/0/0/0/800x450_79309.jpeg",
          "release_ru": "2006-05-05",
          "release_world": "2006-05-04",
          "availability": "2006-05-06",
          "voiceActing": [
            "СТС",
            "Eng.Original"
          ],
          "ads": false,
          "subtitle": []
        },
        {
          "episode": 25,
          "name": "The Graduates",
          "iframe_url": "",
          "iframe_poster": "https://img.imgilall.me/movies/video/7/9/3/1/1/0/0/0/0/0/800x450_79311.jpeg",
          "release_ru": "2006-05-19",
          "release_world": "2006-05-18",
          "availability": "2006-05-20",
          "voiceActing": [
            "СТС",
            "Eng.Original"
          ],
          "ads": false,
          "subtitle": []
        }
      ]
    },
    {
      "poster": "https://img.imgilall.me/movies/season/5/0/7/5/0/0/0/0/0/0/610x900_5075.jpg",
      "release_ru": "2006-11-03",
      "release_world": "2006-11-02",
      "availability": "2006-11-04",
      "iframe_url": "",
      "season": 4,
      "episodes": [
        {
          "episode": 1,
          "name": "The Avengers",
          "iframe_url": "",
          "iframe_poster": "https://img.imgilall.me/movies/video/7/9/3/4/5/0/0/0/0/0/800x450_79345.jpeg",
          "release_ru": "2006-11-03",
          "release_world": "2006-11-02",
          "availability": "2006-11-04",
          "voiceActing": [
            "СТС",
            "Eng.Original"
          ],
          "ads": false,
          "subtitle": []
        },
        {
          "episode": 2,
          "name": "The Gringos",
          "iframe_url": "",
          "iframe_poster": "https://img.imgilall.me/movies/video/7/9/3/4/9/0/0/0/0/0/800x450_79349.jpeg",
          "release_ru": "2006-11-09",
          "release_world": "2006-11-08",
          "availability": "2006-11-10",
          "voiceActing": [
            "СТС",
            "Eng.Original"
          ],
          "ads": false,
          "subtitle": []
        },
        {
          "episode": 3,
          "name": "The Cold Turkey",
          "iframe_url": "",
          "iframe_poster": "https://img.imgilall.me/movies/video/7/9/3/5/8/0/0/0/0/0/800x450_79358.jpeg",
          "release_ru": "2006-11-10",
          "release_world": "2006-11-09",
          "availability": "2006-11-11",
          "voiceActing": [
            "СТС",
            "Eng.Original"
          ],
          "ads": false,
          "subtitle": []
        },
        {
          "episode": 4,
          "name": "The Metamorphosis",
          "iframe_url": "",
          "iframe_poster": "https://img.imgilall.me/movies/video/7/9/3/5/4/0/0/0/0/0/800x450_79354.jpeg",
          "release_ru": "2006-11-17",
          "release_world": "2006-11-16",
          "availability": "2006-11-18",
          "voiceActing": [
            "СТС",
            "Eng.Original"
          ],
          "ads": false,
          "subtitle": []
        },
        {
          "episode": 5,
          "name": "The Sleeping Beauty",
          "iframe_url": "",
          "iframe_poster": "https://img.imgilall.me/movies/video/7/9/3/5/6/0/0/0/0/0/800x450_79356.jpeg",
          "release_ru": "2006-12-01",
          "release_world": "2006-11-30",
          "availability": "2006-12-02",
          "voiceActing": [
            "СТС",
            "Eng.Original"
          ],
          "ads": false,
          "subtitle": []
        },
        {
          "episode": 6,
          "name": "The Summer Bummer",
          "iframe_url": "",
          "iframe_poster": "https://img.imgilall.me/movies/video/7/9/3/4/7/0/0/0/0/0/800x450_79347.jpeg",
          "release_ru": "2006-12-08",
          "release_world": "2006-12-07",
          "availability": "2006-12-09",
          "voiceActing": [
            "СТС",
            "Eng.Original"
          ],
          "ads": false,
          "subtitle": []
        },
        {
          "episode": 7,
          "name": "The Chrismukk-huh?",
          "iframe_url": "",
          "iframe_poster": "https://img.imgilall.me/movies/video/1/1/2/0/0/6/0/0/0/0/800x450_112006.jpeg",
          "release_ru": "2006-12-15",
          "release_world": "2006-12-14",
          "availability": "2006-12-16",
          "voiceActing": [
            "СТС",
            "Eng.Original"
          ],
          "ads": false,
          "subtitle": []
        },
        {
          "episode": 8,
          "name": "The Earth Girls Are Easy",
          "iframe_url": "",
          "iframe_poster": "https://img.imgilall.me/movies/video/7/9/3/5/3/0/0/0/0/0/800x450_79353.jpeg",
          "release_ru": "2006-12-22",
          "release_world": "2006-12-21",
          "availability": "2006-12-23",
          "voiceActing": [
            "СТС",
            "Eng.Original"
          ],
          "ads": false,
          "subtitle": []
        },
        {
          "episode": 9,
          "name": "The My Two Dads",
          "iframe_url": "",
          "iframe_poster": "https://img.imgilall.me/movies/video/7/9/3/4/3/0/0/0/0/0/800x450_79343.jpeg",
          "release_ru": "2007-01-05",
          "release_world": "2007-01-04",
          "availability": "2007-01-06",
          "voiceActing": [
            "СТС",
            "Eng.Original"
          ],
          "ads": false,
          "subtitle": []
        },
        {
          "episode": 10,
          "name": "The French Connection",
          "iframe_url": "",
          "iframe_poster": "https://img.imgilall.me/movies/video/7/9/3/5/1/0/0/0/0/0/800x450_79351.jpeg",
          "release_ru": "2007-01-12",
          "release_world": "2007-01-11",
          "availability": "2007-01-13",
          "voiceActing": [
            "СТС",
            "Eng.Original"
          ],
          "ads": false,
          "subtitle": []
        },
        {
          "episode": 11,
          "name": "The Dream Lover",
          "iframe_url": "",
          "iframe_poster": "https://img.imgilall.me/movies/video/7/9/3/4/4/0/0/0/0/0/800x450_79344.jpeg",
          "release_ru": "2007-01-19",
          "release_world": "2007-01-18",
          "availability": "2007-01-20",
          "voiceActing": [
            "СТС",
            "Eng.Original"
          ],
          "ads": false,
          "subtitle": []
        },
        {
          "episode": 12,
          "name": "The Groundhog Day",
          "iframe_url": "",
          "iframe_poster": "https://img.imgilall.me/movies/video/1/1/2/0/0/7/0/0/0/0/800x450_112007.jpeg",
          "release_ru": "2007-01-26",
          "release_world": "2007-01-25",
          "availability": "2007-01-27",
          "voiceActing": [
            "СТС",
            "Eng.Original"
          ],
          "ads": false,
          "subtitle": []
        },
        {
          "episode": 13,
          "name": "The Case of the Franks",
          "iframe_url": "",
          "iframe_poster": "https://img.imgilall.me/movies/video/7/9/3/4/8/0/0/0/0/0/800x450_79348.jpeg",
          "release_ru": "2007-02-02",
          "release_world": "2007-02-01",
          "availability": "2007-02-03",
          "voiceActing": [
            "СТС",
            "Eng.Original"
          ],
          "ads": false,
          "subtitle": []
        },
        {
          "episode": 14,
          "name": "The Shake Up",
          "iframe_url": "",
          "iframe_poster": "https://img.imgilall.me/movies/video/7/9/3/5/2/0/0/0/0/0/800x450_79352.jpeg",
          "release_ru": "2007-02-09",
          "release_world": "2007-02-08",
          "availability": "2007-02-10",
          "voiceActing": [
            "СТС",
            "Eng.Original"
          ],
          "ads": false,
          "subtitle": []
        },
        {
          "episode": 15,
          "name": "The Night Moves",
          "iframe_url": "",
          "iframe_poster": "https://img.imgilall.me/movies/video/7/9/3/5/5/0/0/0/0/0/800x450_79355.jpeg",
          "release_ru": "2007-02-16",
          "release_world": "2007-02-15",
          "availability": "2007-02-17",
          "voiceActing": [
            "СТС",
            "Eng.Original"
          ],
          "ads": false,
          "subtitle": []
        },
        {
          "episode": 16,
          "name": "The End's Not Near, It's Here",
          "iframe_url": "",
          "iframe_poster": "https://img.imgilall.me/movies/video/7/9/3/4/6/0/0/0/0/0/800x450_79346.jpeg",
          "release_ru": "2007-02-23",
          "release_world": "2007-02-22",
          "availability": "2007-02-24",
          "voiceActing": [
            "СТС",
            "Eng.Original"
          ],
          "ads": false,
          "subtitle": []
        }
      ]
    }
  ],
  "voiceActing": [
    "СТС",
    "Eng.Original"
  ],
  "subtitle": [],
  "parts": []
}
