{
  "id": 24466,
  "name": "Таймшер",
  "name_eng": "Time Share",
  "year": 2000,
  "slogan": "«When total opposites share a house...It's all out war...until love moves in»",
  "age": "12+",
  "type": "film",
  "quality": "SD",
  "imdb": "5.8",
  "imdb_id": "0207161",
  "kinopoisk": "7.0",
  "kinopoisk_id": "18787",
  "world_art": null,
  "world_art_id": null,
  "time": "87 мин. / 01:27",
  "ads": false,
  "premier": "2000-06-18",
  "premier_rus": "2000-06-19",
  "availability": "2000-06-20",
  "activate_time": "2020-06-18 13:04:00",
  "budget": null,
  "fees_use": null,
  "fees_world": null,
  "fees_rus": null,
  "rate_mpaa": "PG",
  "description": "Мэтт и Джулия едут на отдых каждый со своими детьми. Мэтт подрезал машину Джулии еще при въезде на паром, они «обменялись любезностями» и думали, что разъехались в разные стороны, но вскоре они узнали, что забронировали один и тот же дом. Теперь «подружившимся» семьям предстоит делить его весь отпуск.",
  "iframe_url": "",
  "iframe_poster": null,
  "poster": "https://img.imgilall.me/movies/franchise/2/4/4/6/6/0/0/0/0/0/610x900_24466.jpg",
  "country": {
    "1": "США",
    "20": "Германия"
  },
  "collection": [],
  "genre": {
    "33": "Семейный",
    "19": "Комедия",
    "8": "Мелодрама"
  },
  "director": [
    "Шэрон фон Витерсхайм"
  ],
  "screenwriter": [
    "Эрик Тачмен"
  ],
  "producer": [
    "Александра Хосдорфф",
    "Мартин Мошкович",
    "Джонатан Баруч"
  ],
  "operator": [
    "Кристиан Зебальдт"
  ],
  "composer": [
    "Ларри Сеймур"
  ],
  "design": [
    "Клер Браун",
    "Эрнестина Хиппер",
    "Таня Век"
  ],
  "editor": [
    "Джон Гилберт"
  ],
  "actors": [
    "Настасья Кински",
    "Тимоти Далтон",
    "Кевин Зегерс",
    "Камерон Финли",
    "Билли Кэй",
    "Натали Марстон",
    "Келли Гарнер",
    "Джеффри Лоуэр",
    "Рэндольф Мэнтут",
    "Джордж Мёрдок"
  ],
  "actors_dubl": [],
  "trivia": [
    "«Таймшер» — это термин, означающий приобретение права пользования недвижимостью в течение определенного срока в год."
  ],
  "trailers": [],
  "seasons": [],
  "voiceActing": [
    "Cartoon Network"
  ],
  "subtitle": [],
  "parts": []
}
