{
  "id": 23685,
  "name": "Интервью",
  "name_eng": "Interview",
  "year": 2006,
  "slogan": "«Everything you say can and will be used against you»",
  "age": "18+",
  "type": "film",
  "quality": "SD",
  "imdb": "6.8",
  "imdb_id": "0480269",
  "kinopoisk": "7.0",
  "kinopoisk_id": "195574",
  "world_art": null,
  "world_art_id": null,
  "time": "80 мин. / 01:20",
  "ads": false,
  "premier": "2007-01-20",
  "premier_rus": "2007-11-29",
  "availability": "2007-11-30",
  "activate_time": "2020-06-16 10:31:00",
  "budget": null,
  "fees_use": "$416 951",
  "fees_world": "+ $1 025 184 = $1 442 135",
  "fees_rus": "$70 680",
  "rate_mpaa": "R",
  "description": "Матерый, циничный, но не слишком удачливый политический журналист Пьер получает задание взять интервью у актрисы с русским именем Катя - звезды мыльных опер и «бэшных» хорроров. Задание это его не слишком сильно радует, так же как и саму Катю совсем не радует общение с малоприятным типом, задающим ей дурацкие вопросы. \r\rТем не менее, Кате и Пьеру предстоит незабываемый вечер в обществе друг друга. Вечер игры в эмоциональные кошки-мышки. Причем ответ на вопрос кто охотник, а кто жертва, отнюдь не очевиден...",
  "iframe_url": "",
  "iframe_poster": null,
  "poster": "https://img.imgilall.me/movies/franchise/2/3/6/8/5/0/0/0/0/0/610x900_23685.jpg",
  "country": {
    "7": "Канада",
    "31": "Нидерланды",
    "1": "США"
  },
  "collection": [],
  "genre": {
    "13": "Триллер",
    "7": "Драма"
  },
  "director": [
    "Стив Бушеми"
  ],
  "screenwriter": [
    "Дэвид Шехтер",
    "Тео ван Гог",
    "Теодор Холман"
  ],
  "producer": [
    "Скотт Хорнбэкер",
    "Брюс Уайсс",
    "Гийс ван де Вестелакен"
  ],
  "operator": [
    "Томас Кист"
  ],
  "composer": [
    "Эван Лури"
  ],
  "design": [
    "Лорен Викс",
    "Виктория Фаррелл",
    "Кристина К. Тонкин"
  ],
  "editor": [
    "Кейт Уильямс"
  ],
  "actors": [
    "Стив Бушеми",
    "Сиенна Миллер",
    "Майкл Бушеми",
    "Тара Элдерс",
    "Дэвид Шехтер",
    "Молли Гриффит",
    "Элизабет Бракко",
    "Джеймс Вильмэр",
    "Джексон Лу",
    "Мумс Да Шемер"
  ],
  "actors_dubl": [],
  "trivia": [
    "Катя Шуурман сыграла женщину, выходящую из лимузина в конце фильма. Она также исполнила роль Кати в оригинальном фильме 2003 года.",
    "Когда Пьер осматривает квартиру, ненадолго он останавливается около фотографии, на которой изображены мужчина и женщина. Это — Тео ван Гог, режиссер оригинального фильма, и Катя Шуурман, сыгравшая Катю в оригинальном фильме.",
    "Майкл Бушеми, брат Стива Бушеми, сыграл брата Пьера."
  ],
  "trailers": [],
  "seasons": [],
  "voiceActing": [
    "Diva Universal"
  ],
  "subtitle": [],
  "parts": []
}
