{
  "id": 26452,
  "name": "С меня хватит",
  "name_eng": "Enough",
  "year": 2002,
  "slogan": "«Лучшая защита - это нападение»",
  "age": "16+",
  "type": "film",
  "quality": "HD (720p)",
  "imdb": "5.8",
  "imdb_id": "0278435",
  "kinopoisk": "7.1",
  "kinopoisk_id": "1934",
  "world_art": null,
  "world_art_id": null,
  "time": "115 мин. / 01:55",
  "ads": false,
  "premier": "2002-05-21",
  "premier_rus": "2002-09-26",
  "availability": "2002-09-27",
  "activate_time": "2020-07-18 14:54:00",
  "budget": "$38 000 000",
  "fees_use": "$40 007 742",
  "fees_world": "+ $11 793 445 = $51 801 187",
  "fees_rus": "$802 516",
  "rate_mpaa": "PG-13",
  "description": "Жизнь официантки Слим коренным образом меняется, когда она встречает богатого незнакомца Митча. Они влюбляются, женятся, покупают красивый домик и у них рождается дочка. Но восхитительной счастливой новой жизни Слим вскоре приходит конец.Её муж - далеко не совершенство, и Слим узнаёт о его изменах. Оскорблённая поведением мужа, Слим пытается убежать от него, а ожесточившийся Митч теперь представляет смертельную угрозу ей и её пятилетней дочери. Скрываясь от мужа, Слим решает принять серьёзные меры. Она прячет дочь, а сама меняется морально и физически, намереваясь показать Митчу, что с неё довольно...",
  "iframe_url": "",
  "iframe_poster": null,
  "poster": "https://img.imgilall.me/movies/franchise/2/6/4/5/2/0/0/0/0/0/610x900_26452.jpg",
  "country": {
    "1": "США"
  },
  "collection": [],
  "genre": {
    "25": "Криминал",
    "13": "Триллер",
    "7": "Драма"
  },
  "director": [
    "Майкл Аптед"
  ],
  "screenwriter": [
    "Николас Казан"
  ],
  "producer": [
    "Роб Кауэн",
    "Ирвин Уинклер",
    "Джинни Ким"
  ],
  "operator": [
    "Рогир Стофферс"
  ],
  "composer": [
    "Дэвид Арнольд"
  ],
  "design": [
    "Даг Крэйнер",
    "Эндрю Мензес",
    "Шэй Канлифф"
  ],
  "editor": [
    "Рик Шэйн"
  ],
  "actors": [
    "Дженнифер Лопес",
    "Билл Кэмпбелл",
    "Тесса Аллен",
    "Джульетт Льюис",
    "Дэн Футтерман",
    "Ноа Уайли",
    "Фред Уорд",
    "Кристофер Мехер",
    "Джанет Кэрролл",
    "Билл Коббс"
  ],
  "actors_dubl": [
    "Анна Геллер",
    "Александр Баргман",
    "Александра Матвеева",
    "Станислав Концевич",
    "Сергей Дьячков"
  ],
  "trivia": [
    "Первоначально главную роль в фильме должна была сыграть Сандра Буллок.",
    "Съёмки фильма начались 12 марта 2001 года.",
    "Лопез в течение трех месяцев обучалась восточным единоборствам, которыми владеют израильские военные, у Саймона Крэйна, тренировавшего Анджелину Джоли для съемок в «Ларе Крофт — расхитительнице гробниц».",
    "Съемки проходили в Вашингтоне и Сан-Франциско."
  ],
  "trailers": [],
  "seasons": [],
  "voiceActing": [
    "Cartoon Network"
  ],
  "subtitle": [],
  "parts": []
}
