{
  "id": 47477,
  "name": "Штрафной батальон 999",
  "name_eng": "Strafbataillon 999",
  "year": 1960,
  "slogan": "—",
  "age": null,
  "type": "film",
  "quality": "SD",
  "imdb": "6.6",
  "imdb_id": "0053309",
  "kinopoisk": "6.3",
  "kinopoisk_id": "194792",
  "world_art": null,
  "world_art_id": null,
  "time": "109 мин. / 01:49",
  "ads": false,
  "premier": "1960-02-11",
  "premier_rus": "1960-02-12",
  "availability": "1960-02-13",
  "activate_time": "2021-05-30 16:16:00",
  "budget": null,
  "fees_use": null,
  "fees_world": null,
  "fees_rus": null,
  "rate_mpaa": null,
  "description": "Вторая мировая война, Восточный фронт. Немецкий батальон сражается против советских солдат и партизан. Но это не совсем обычный батальон. Они — солдаты штрафного батальона, приговоренные Верховным командованием к такому способу наказания за различные провинности и преступления. Их оскорбляют командиры, их посылают на убийственные задания, враги для них — всюду.",
  "iframe_url": "",
  "iframe_poster": null,
  "poster": "https://img.imgilall.me/movies/franchise/4/7/4/7/7/0/0/0/0/0/610x900_47477.jpg",
  "country": {
    "38": "Германия (ФРГ)"
  },
  "collection": [],
  "genre": {
    "32": "Военный",
    "7": "Драма"
  },
  "director": [
    "Харольд Филипп"
  ],
  "screenwriter": [
    "Хайнц Г. Конзалик",
    "Вольфганг Менге",
    "Харольд Филипп"
  ],
  "producer": [],
  "operator": [
    "Хайнц Хёльшер"
  ],
  "composer": [
    "Вилли Маттес"
  ],
  "design": [
    "Отто Эрдманн",
    "Ханс Юрген Кибах",
    "Ильзе Дюбуа"
  ],
  "editor": [
    "Элизабет Кляйнерт-Нойман"
  ],
  "actors": [
    "Соня Циманн",
    "Георг Томас",
    "Вернер Петерс",
    "Эрнст Шрёдер",
    "Хайнц Вайсс",
    "Курд Пириц",
    "Ганнс Эрнст Ягер",
    "Werner Hessenland",
    "Георг Лен",
    "Клаус Киндлер"
  ],
  "actors_dubl": [],
  "trivia": [],
  "trailers": [],
  "seasons": [],
  "voiceActing": [
    "С. Рябов",
    "German Original"
  ],
  "subtitle": [],
  "parts": []
}
