{
  "id": 43204,
  "name": "Ариана Гранде: Excuse Me, I Love You",
  "name_eng": "Ariana Grande: Excuse Me, I Love You",
  "year": 2020,
  "slogan": "—",
  "age": "18+",
  "type": "film",
  "quality": "FHD (1080p)",
  "imdb": "6.4",
  "imdb_id": "13615386",
  "kinopoisk": null,
  "kinopoisk_id": "2040001",
  "world_art": null,
  "world_art_id": null,
  "time": "97 мин. / 01:37",
  "ads": false,
  "premier": "2020-12-21",
  "premier_rus": "2020-12-22",
  "availability": "2020-12-23",
  "activate_time": "2020-12-29 11:09:00",
  "budget": null,
  "fees_use": null,
  "fees_world": null,
  "fees_rus": null,
  "rate_mpaa": null,
  "description": "Живое выступление Арианы Гранде в Лондоне в рамках мирового тура Sweetener.",
  "iframe_url": "",
  "iframe_poster": null,
  "poster": "https://img.imgilall.me/movies/franchise/4/3/2/0/4/0/0/0/0/0/610x900_43204.jpg",
  "country": {
    "1": "США"
  },
  "collection": {
    "40": "Netflix"
  },
  "genre": {
    "54": "Документальный"
  },
  "director": [
    "Story Syndicate",
    "Пол Дагдейл"
  ],
  "screenwriter": [],
  "producer": [
    "Дэн Коган",
    "Саймон Фишер",
    "Лиз Гарбус"
  ],
  "operator": [
    "Альфредо Флорес",
    "Торстен Тилоу",
    "Бретт Тернбулл"
  ],
  "composer": [
    "Ариана Гранде"
  ],
  "design": [],
  "editor": [
    "Саймон Брайант"
  ],
  "actors": [
    "Ариана Гранде",
    "Rim Taya Shawki"
  ],
  "actors_dubl": [],
  "trivia": [],
  "trailers": [],
  "seasons": [],
  "voiceActing": [
    "Original"
  ],
  "subtitle": [
    "Рус. полные"
  ],
  "parts": []
}
