{
  "id": 45082,
  "name": "Папа, перестань меня позорить",
  "name_eng": "Dad Stop Embarrassing Me",
  "year": 2021,
  "slogan": "—",
  "age": "12+",
  "type": "series",
  "quality": "FHD (1080p)",
  "imdb": "4.2",
  "imdb_id": "13018090",
  "kinopoisk": null,
  "kinopoisk_id": "2000650",
  "world_art": null,
  "world_art_id": null,
  "time": "25 мин",
  "ads": true,
  "premier": "2021-04-14",
  "premier_rus": "2021-04-15",
  "availability": "2021-04-16",
  "serial_status": "online",
  "activate_time": "2021-03-19 14:25:00",
  "budget": null,
  "fees_use": null,
  "fees_world": null,
  "fees_rus": null,
  "rate_mpaa": null,
  "description": "К отцу-одиночке, владельцу косметической компании, переезжает жить его дочь-подросток с непростым характером. Теперь ему предстоит ощутить все прелести отцовства.",
  "iframe_url": "",
  "poster": "https://img.imgilall.me/movies/franchise/4/5/0/8/2/0/0/0/0/0/610x900_45082.jpg",
  "country": {
    "1": "США"
  },
  "collection": {
    "40": "Netflix"
  },
  "genre": {
    "33": "Семейный",
    "19": "Комедия"
  },
  "director": [
    "Кен Уиттингэм",
    "Бентли Кайл Эванс"
  ],
  "screenwriter": [
    "Джейми Фокс",
    "Джонни Мак",
    "Джим Паттерсон"
  ],
  "producer": [
    "Жак Эдмондс",
    "Бентли Кайл Эванс",
    "Дженна Хенсел"
  ],
  "operator": [],
  "composer": [
    "Ainz Brainz Prasad"
  ],
  "design": [
    "Элизабет Андерсон"
  ],
  "editor": [
    "Энди Зэлл"
  ],
  "actors": [
    "Джейми Фокс",
    "Кайла-Дрю",
    "Порша Коулмэн",
    "Джонатан Кайт",
    "Дэвид Алан Грир",
    "Валенте Родригес",
    "Хезер Сайрус Хемменс",
    "Miracle Aaliyah Reigns",
    "Кит Джефферсон",
    "Элайджа М. Купер"
  ],
  "actors_dubl": [],
  "trivia": [],
  "trailers": [
    {
      "name": "трейлер №1",
      "number": 1,
      "iframe_poster": null,
      "season": 1,
      "iframe_url": ""
    }
  ],
  "seasons": [
    {
      "poster": null,
      "release_ru": null,
      "release_world": null,
      "availability": null,
      "iframe_url": "",
      "season": 1,
      "episodes": [
        {
          "episode": 1,
          "name": null,
          "iframe_url": "",
          "iframe_poster": null,
          "release_ru": null,
          "release_world": null,
          "availability": null,
          "voiceActing": [
            "WestFilm"
          ],
          "ads": true,
          "subtitle": []
        },
        {
          "episode": 2,
          "name": null,
          "iframe_url": "",
          "iframe_poster": null,
          "release_ru": null,
          "release_world": null,
          "availability": null,
          "voiceActing": [
            "WestFilm"
          ],
          "ads": true,
          "subtitle": []
        },
        {
          "episode": 3,
          "name": null,
          "iframe_url": "",
          "iframe_poster": null,
          "release_ru": null,
          "release_world": null,
          "availability": null,
          "voiceActing": [
            "WestFilm"
          ],
          "ads": true,
          "subtitle": []
        },
        {
          "episode": 4,
          "name": null,
          "iframe_url": "",
          "iframe_poster": null,
          "release_ru": null,
          "release_world": null,
          "availability": null,
          "voiceActing": [
            "WestFilm"
          ],
          "ads": true,
          "subtitle": []
        },
        {
          "episode": 5,
          "name": null,
          "iframe_url": "",
          "iframe_poster": null,
          "release_ru": null,
          "release_world": null,
          "availability": null,
          "voiceActing": [
            "WestFilm"
          ],
          "ads": true,
          "subtitle": []
        },
        {
          "episode": 6,
          "name": null,
          "iframe_url": "",
          "iframe_poster": null,
          "release_ru": null,
          "release_world": null,
          "availability": null,
          "voiceActing": [
            "WestFilm"
          ],
          "ads": true,
          "subtitle": []
        },
        {
          "episode": 7,
          "name": null,
          "iframe_url": "",
          "iframe_poster": null,
          "release_ru": null,
          "release_world": null,
          "availability": null,
          "voiceActing": [
            "WestFilm"
          ],
          "ads": true,
          "subtitle": []
        },
        {
          "episode": 8,
          "name": null,
          "iframe_url": "",
          "iframe_poster": null,
          "release_ru": null,
          "release_world": null,
          "availability": null,
          "voiceActing": [
            "WestFilm"
          ],
          "ads": true,
          "subtitle": []
        }
      ]
    }
  ],
  "voiceActing": [
    "WestFilm"
  ],
  "subtitle": [],
  "parts": []
}
