{
  "id": 17648,
  "name": "Не волнуйся, у меня всё нормально",
  "name_eng": "Je vais bien, ne t'en fais pas",
  "year": 2006,
  "slogan": "—",
  "age": "18+",
  "type": "film",
  "quality": "FHD (1080p)",
  "imdb": "7.3",
  "imdb_id": "0485241",
  "kinopoisk": "7.4",
  "kinopoisk_id": "208053",
  "world_art": null,
  "world_art_id": null,
  "time": "92 мин. / 01:32",
  "ads": false,
  "premier": "2006-07-31",
  "premier_rus": "2006-08-01",
  "availability": "2006-08-02",
  "activate_time": "2020-05-07 06:05:00",
  "budget": null,
  "fees_use": null,
  "fees_world": "$6 334 790",
  "fees_rus": null,
  "rate_mpaa": null,
  "description": "19-летняя Лили возвращается домой после каникул и обнаруживает, что ее брат-близнец Лоик, сильно рассорившись с отцом, ушел из дома. Не получая новостей от брата, сестра отправляется на поиски, и результат превзойдет все ее ожидания...",
  "iframe_url": "",
  "iframe_poster": null,
  "poster": "https://img.imgilall.me/movies/franchise/1/7/6/4/8/0/0/0/0/0/610x900_17648.jpg",
  "country": {
    "9": "Франция"
  },
  "collection": [],
  "genre": {
    "7": "Драма"
  },
  "director": [
    "Филипп Лиоре"
  ],
  "screenwriter": [
    "Филипп Лиоре",
    "Оливье Адам"
  ],
  "producer": [
    "Кристоф Россиньон",
    "Филипп Боэффард",
    "Ева Мачуэль"
  ],
  "operator": [
    "Саша Верник"
  ],
  "composer": [
    "Никола Пьовани"
  ],
  "design": [
    "Ив Бровер-Рабиновичи",
    "Фанни Друен",
    "Тьерри Руксель"
  ],
  "editor": [
    "Джудит Ривьер Кава",
    "Андреа Седлачкова"
  ],
  "actors": [
    "Мелани Лоран",
    "Кад Мерад",
    "Изабель Рено",
    "Жюльен Буасселье",
    "Аиса Маига",
    "Симон Бурет",
    "Кристоф Россиньон",
    "Эрик Эрсон-Макарель",
    "Тьерри Лават",
    "Эммануэль Курколь"
  ],
  "actors_dubl": [],
  "trivia": [
    "Фильм является экранизацией одноименного романа Оливера Адама, увидевшего свет в 2001 году.",
    "В одной из сцен друг Лоика включает Лили песню ее брата, написанную специально для главной героини и названную ее именем. Композиция на самом деле принадлежит участнику группы AaRON, Симону Бурету, второе название песни — U turn.",
    "Мелани Лоран (Лили) и Жюльен Бойсселье (Томас) после съемок в фильме стали встречаться и в жизни.",
    "Картина снималась в Виньё-Сюр-Сене, Монжероне и Савиньи-Сюр-Орже."
  ],
  "trailers": [],
  "seasons": [],
  "voiceActing": [
    "Рус. Одноголосый",
    "Fr. Original"
  ],
  "subtitle": [
    "Рус. полные"
  ],
  "parts": []
}
