{
  "id": 3263,
  "name": "Пережить Рождество",
  "name_eng": "Surviving Christmas",
  "year": 2004,
  "slogan": "«Share the warmth»",
  "age": "12+",
  "type": "film",
  "quality": "HD (720p)",
  "imdb": "5.5",
  "imdb_id": "0252028",
  "kinopoisk": "6.7",
  "kinopoisk_id": "20105",
  "world_art": null,
  "world_art_id": null,
  "time": "87 мин. / 01:27",
  "ads": false,
  "premier": "2004-10-22",
  "premier_rus": "2004-12-16",
  "availability": null,
  "activate_time": "2018-11-07 17:25:18",
  "budget": "$45 000 000",
  "fees_use": "$11 663 156",
  "fees_world": "$14 793 624",
  "fees_rus": "$1 070 000",
  "rate_mpaa": "PG-13",
  "description": "Опостылевшая рутинная жизнь богача Дрю Лэтама приводит его на Рождество в пригородный дом своего детства. И даже тот факт, что дом заселён теперь другими людьми, не может испортить Дрю настроение. За солидное вознаграждение он предлагает семейке Валко на время стать его роднёй, и сам мечтает отметить праздник в их кругу. Вот только деньги кружат голову далеко не всем его новым родственникам, да и сами Валко, кажется, представляют собой редкую семейку психопатов…",
  "iframe_url": "",
  "iframe_poster": "https://img.imgilall.me/movies/video/3/0/9/8/8/0/0/0/0/0/800x450_30988.jpeg",
  "poster": "https://img.imgilall.me/movies/franchise/3/2/6/3/0/0/0/0/0/0/610x900_3263.jpg",
  "country": {
    "1": "США"
  },
  "collection": {
    "3": "Рождественские"
  },
  "genre": {
    "19": "Комедия",
    "10": "Зарубежный",
    "8": "Мелодрама"
  },
  "director": [
    "Майк Митчелл"
  ],
  "screenwriter": [
    "Дебора Каплан",
    "Гарри Элфонт",
    "Джеффри Вентимилья"
  ],
  "producer": [
    "Бетти Томас",
    "Дженно Топпинг",
    "Эрин Стам"
  ],
  "operator": [
    "Питер Лайонс Коллистер",
    "Том Пристли мл."
  ],
  "composer": [
    "Рэнди Эдельман"
  ],
  "design": [
    "Кэролайн Ханания",
    "Сью Чан",
    "Мэри Джейн Форт"
  ],
  "editor": [
    "Крэйг МакКэй"
  ],
  "actors": [
    "Бен Аффлек",
    "Джеймс Гандольфини",
    "Кристина Эпплгейт",
    "Кэтрин О’Хара",
    "Джош Цуккерман",
    "Билл Мэйси",
    "Дженнифер Моррисон",
    "Удо Кир",
    "Дэвид Селби",
    "Стефани Фэраси"
  ],
  "actors_dubl": [
    "Олег Куликович",
    "Вадим Яковлев",
    "Елена Шульман",
    "Ирина Ракшина",
    "Борис Хволес"
  ],
  "trivia": [
    "Фильм снимался без полноценного сценария, и на площадке постоянно кипели споры о том, как должен выглядеть тот или другой фрагмент. Поэтому большая часть картины — актерские импровизации.",
    "Рабочим названием ленты было «The Twelve Days of Christmas» (12 Рождественских дней)."
  ],
  "trailers": [],
  "seasons": [],
  "voiceActing": [
    "Рус. Дублированный",
    "Tycoon",
    "C. Визгунов",
    "Ю. Немахов",
    "Укр. Проф. багатоголосий",
    "Eng.Original"
  ],
  "subtitle": [],
  "parts": []
}
