{
  "id": 48558,
  "name": "Президенты",
  "name_eng": "Présidents",
  "year": 2021,
  "slogan": "—",
  "age": null,
  "type": "film",
  "quality": "HD (720p)",
  "imdb": "5.8",
  "imdb_id": "13558724",
  "kinopoisk": null,
  "kinopoisk_id": "2000361",
  "world_art": null,
  "world_art_id": null,
  "time": "108 мин. / 01:48",
  "ads": true,
  "premier": "2021-06-10",
  "premier_rus": "2021-06-11",
  "availability": "2021-06-12",
  "activate_time": "2021-07-09 09:46:00",
  "budget": null,
  "fees_use": null,
  "fees_world": "$3 424 582",
  "fees_rus": null,
  "rate_mpaa": null,
  "description": "Бывший президент Николя пытается убедить Франсуа, своего ярого оппонента и тоже главу в отставке, снова вместе баллотироваться на пост президента (-ов).",
  "iframe_url": "",
  "iframe_poster": null,
  "poster": "https://img.imgilall.me/movies/franchise/4/8/5/5/8/0/0/0/0/0/610x900_48558.jpg",
  "country": {
    "9": "Франция"
  },
  "collection": [],
  "genre": {
    "19": "Комедия"
  },
  "director": [
    "Анн Фонтен"
  ],
  "screenwriter": [
    "Анн Фонтен"
  ],
  "producer": [
    "Филипп Каркассон"
  ],
  "operator": [
    "Ив Анжело"
  ],
  "composer": [],
  "design": [
    "Anne-Cécile Le Quere"
  ],
  "editor": [
    "Фабрис Руа"
  ],
  "actors": [
    "Жан Дюжарден",
    "Грегори Гадебуа",
    "Паскаль Арбийо",
    "Дория Тилье",
    "Жан-Шарль Клише",
    "Пьер Лоттен",
    "Жан-Мишель Лами",
    "Роксана Брэт",
    "Дени Подалидес",
    "Mickaël Wachnicki"
  ],
  "actors_dubl": [],
  "trivia": [],
  "trailers": [],
  "seasons": [],
  "voiceActing": [
    "@MUZOBOZ@"
  ],
  "subtitle": [],
  "parts": []
}
