{
  "id": 32759,
  "name": "Бродяги",
  "name_eng": "Strays",
  "year": 1997,
  "slogan": "«Life is a matador»",
  "age": "18+",
  "type": "film",
  "quality": "SD",
  "imdb": "5.6",
  "imdb_id": "0",
  "kinopoisk": "7.0",
  "kinopoisk_id": "20088",
  "world_art": null,
  "world_art_id": null,
  "time": "105 мин. / 01:45",
  "ads": false,
  "premier": "1997-01-18",
  "premier_rus": "1997-01-19",
  "availability": "1997-01-20",
  "activate_time": "2020-07-15 04:16:00",
  "budget": null,
  "fees_use": null,
  "fees_world": null,
  "fees_rus": null,
  "rate_mpaa": "R",
  "description": "Рик ищет стабильности в жизни. Он устал от наркотиков и вечеринок. Подсознательно он борется с трудностями, которые повлекло за собой отсутствие его отца. Рику кажется, что он никому не сможет доверять. Но однажды в его жизнь входит девушка, меняющая все на 180 градусов. Но Рику сложно привыкнуть к новому для него миру.",
  "iframe_url": "",
  "iframe_poster": null,
  "poster": "https://img.imgilall.me/movies/franchise/3/2/7/5/9/0/0/0/0/0/610x900_32759.jpg",
  "country": {
    "1": "США"
  },
  "collection": [],
  "genre": {
    "7": "Драма"
  },
  "director": [
    "Вин Дизель"
  ],
  "screenwriter": [
    "Вин Дизель"
  ],
  "producer": [
    "Джордж Закк",
    "Роберт Бигелоу",
    "Гордон Бижелонич"
  ],
  "operator": [
    "Эндрю Данн"
  ],
  "composer": [
    "Джулиус Робинсон"
  ],
  "design": [
    "Зельйка Павлинович"
  ],
  "editor": [],
  "actors": [
    "Вин Дизель",
    "Джои Дедио",
    "Т.К. Керклэнд",
    "Майк Эппс",
    "Ф. Валентино Моралес",
    "Сюзанн Ланза",
    "Дарнелл Уильямс",
    "Mihaela Kolich",
    "Юджин Осборн Смит",
    "Темпл Брукс"
  ],
  "actors_dubl": [],
  "trivia": [],
  "trailers": [],
  "seasons": [],
  "voiceActing": [
    "Важенин (BadBajo)"
  ],
  "subtitle": [],
  "parts": []
}
