{
  "id": 42703,
  "name": "Короли Йоханнесбурга",
  "name_eng": "Kings of Jo'burg",
  "year": 2020,
  "slogan": "—",
  "age": null,
  "type": "series",
  "quality": "HD (720p)",
  "imdb": "5.4",
  "imdb_id": "13453828",
  "kinopoisk": null,
  "kinopoisk_id": "2003366",
  "world_art": null,
  "world_art_id": null,
  "time": "—",
  "ads": true,
  "premier": "2020-12-04",
  "premier_rus": "2020-12-05",
  "availability": "2020-12-06",
  "serial_status": "paused",
  "activate_time": "2020-12-04 18:32:00",
  "budget": null,
  "fees_use": null,
  "fees_world": null,
  "fees_rus": null,
  "rate_mpaa": null,
  "description": null,
  "iframe_url": "",
  "poster": "https://img.imgilall.me/movies/franchise/4/2/7/0/3/0/0/0/0/0/610x900_42703.jpg",
  "country": {
    "27": "ЮАР"
  },
  "collection": [],
  "genre": {
    "25": "Криминал",
    "13": "Триллер"
  },
  "director": [],
  "screenwriter": [
    "Шона Фергюсон"
  ],
  "producer": [
    "Моди Мод",
    "Wesleigh Kapotis"
  ],
  "operator": [],
  "composer": [
    "Джоэль Ассайзки"
  ],
  "design": [],
  "editor": [],
  "actors": [
    "Llewellyn Cordier",
    "Майкл Энтони",
    "Connie Ferguson",
    "Шона Фергюсон",
    "Abdul Khoza",
    "Cindy Mahlangu",
    "Lunathi Mampofu",
    "Tsholofelo Matshaba",
    "Селло Себотсейн",
    "Thembi Seete"
  ],
  "actors_dubl": [],
  "trivia": [],
  "trailers": [],
  "seasons": [
    {
      "poster": null,
      "release_ru": "2020-12-05",
      "release_world": "2020-12-04",
      "availability": "2020-12-06",
      "iframe_url": "",
      "season": 1,
      "episodes": [
        {
          "episode": 1,
          "name": "Vader (Father)",
          "iframe_url": "",
          "iframe_poster": null,
          "release_ru": "2020-12-05",
          "release_world": "2020-12-04",
          "availability": "2020-12-06",
          "voiceActing": [
            "Ultradox"
          ],
          "ads": true,
          "subtitle": []
        },
        {
          "episode": 2,
          "name": "My Brother's Keeper",
          "iframe_url": "",
          "iframe_poster": null,
          "release_ru": "2020-12-05",
          "release_world": "2020-12-04",
          "availability": "2020-12-06",
          "voiceActing": [
            "Ultradox"
          ],
          "ads": true,
          "subtitle": []
        },
        {
          "episode": 3,
          "name": "Rise & Fall of the Young Prince",
          "iframe_url": "",
          "iframe_poster": null,
          "release_ru": "2020-12-05",
          "release_world": "2020-12-04",
          "availability": "2020-12-06",
          "voiceActing": [
            "Ultradox"
          ],
          "ads": true,
          "subtitle": []
        },
        {
          "episode": 4,
          "name": "Equilibrium",
          "iframe_url": "",
          "iframe_poster": null,
          "release_ru": "2020-12-05",
          "release_world": "2020-12-04",
          "availability": "2020-12-06",
          "voiceActing": [
            "Ultradox"
          ],
          "ads": true,
          "subtitle": []
        },
        {
          "episode": 5,
          "name": "We Are Brothers",
          "iframe_url": "",
          "iframe_poster": null,
          "release_ru": "2020-12-05",
          "release_world": "2020-12-04",
          "availability": "2020-12-06",
          "voiceActing": [
            "Ultradox"
          ],
          "ads": true,
          "subtitle": []
        },
        {
          "episode": 6,
          "name": "The Sacrifice",
          "iframe_url": "",
          "iframe_poster": null,
          "release_ru": "2020-12-05",
          "release_world": "2020-12-04",
          "availability": "2020-12-06",
          "voiceActing": [
            "Ultradox"
          ],
          "ads": true,
          "subtitle": []
        }
      ]
    }
  ],
  "voiceActing": [
    "Ultradox"
  ],
  "subtitle": [],
  "parts": []
}
