{
  "id": 30041,
  "name": "Тайна Мунакра",
  "name_eng": "The Secret of Moonacre",
  "year": 2008,
  "slogan": "«A Magical Journey Begins»",
  "age": "12+",
  "type": "film",
  "quality": "HD (720p)",
  "imdb": "6.1",
  "imdb_id": "0",
  "kinopoisk": "6.5",
  "kinopoisk_id": "215577",
  "world_art": null,
  "world_art_id": null,
  "time": "103 мин. / 01:43",
  "ads": false,
  "premier": "2008-09-06",
  "premier_rus": "2009-06-18",
  "availability": "2009-06-19",
  "activate_time": "2020-07-18 07:49:00",
  "budget": "$27 000 000",
  "fees_use": null,
  "fees_world": "$6 730 869",
  "fees_rus": "$373 270",
  "rate_mpaa": "PG",
  "description": "Когда отец 13-летней Марии умирает, оставив её бездомной сиротой, ей приходится оставить Лондон и переехать к сэру Бенджамину, эксцентричному дядюшке, о котором она никогда ранее не слышала, в его загадочное поместье «Лунная Долина». Мария оказывается в мире, разделённом древней враждой с тёмным родом де Нуар. Она - последняя Лунная Принцесса - должна преодолеть семейную гордость и раскрыть тайны прошлого до того, как Луна взойдёт пятитысячный раз и Лунную долину поглотит море.",
  "iframe_url": "",
  "iframe_poster": null,
  "poster": "https://img.imgilall.me/movies/franchise/3/0/0/4/1/0/0/0/0/0/610x900_30041.jpg",
  "country": {
    "1": "США",
    "2": "Великобритания",
    "4": "Австралия",
    "9": "Франция",
    "23": "Новая Зеландия",
    "32": "Венгрия"
  },
  "collection": [],
  "genre": {
    "9": "Приключения",
    "6": "Фэнтези",
    "33": "Семейный",
    "8": "Мелодрама"
  },
  "director": [
    "Габор Чупо"
  ],
  "screenwriter": [
    "Люси Шаттлворф",
    "Грэхэм Олборо",
    "Элизабет Гудж"
  ],
  "producer": [
    "Майкл Кауэн",
    "Мередит Гарлик",
    "Сэмюэл Хадида"
  ],
  "operator": [
    "Дэвид Эггби"
  ],
  "composer": [
    "Кристиан Хенсон"
  ],
  "design": [
    "Софи Бечер",
    "Билл Кратчер",
    "Моника Эстан"
  ],
  "editor": [
    "Джулиан Родд"
  ],
  "actors": [
    "Дакота Блю Ричардс",
    "Джульет Стивенсон",
    "Тим Карри",
    "Тамаш Тот",
    "Август Прю",
    "Дьёрдь Сатмари",
    "Наташа МакЭлхоун",
    "Йоан Гриффит",
    "Георге Мендел",
    "Майкл Веббер"
  ],
  "actors_dubl": [
    "Евгений Пашин"
  ],
  "trivia": [
    "Фильм снят по мотивам романа Элизабет Гудж «Тайна Лунной Долины» (The Little White Horse, 1946).",
    "Изначально сэра Бенжамина должен был играть Колин Ферт, но в итоге эту роль получил Йоан Гриффит."
  ],
  "trailers": [],
  "seasons": [],
  "voiceActing": [
    "Cartoon Network"
  ],
  "subtitle": [],
  "parts": []
}
