{
  "id": 39173,
  "name": "Земля Бансилала",
  "name_eng": "Isi Ka Naam Zindagi",
  "year": 1992,
  "slogan": "—",
  "age": "16+",
  "type": "film",
  "quality": "SD",
  "imdb": "5.7",
  "imdb_id": "0304204",
  "kinopoisk": "7.5",
  "kinopoisk_id": "220207",
  "world_art": null,
  "world_art_id": null,
  "time": "140 мин. / 02:20",
  "ads": false,
  "premier": null,
  "premier_rus": null,
  "availability": null,
  "activate_time": "2020-10-14 03:00:00",
  "budget": null,
  "fees_use": null,
  "fees_world": null,
  "fees_rus": null,
  "rate_mpaa": null,
  "description": "Бансилал — фермер, которого принуждают продать землю. Он наконец соглашается, но при условии, что новый владелец может получить землю только после смерти Бансилала. Тот, думая, что Бансилал не проживет и года, был рад, но он не знал, что внук Бансилала совершит то, что разрушит его планы.",
  "iframe_url": "",
  "iframe_poster": null,
  "poster": "https://img.imgilall.me/movies/franchise/3/9/1/7/3/0/0/0/0/0/610x900_39173.jpg",
  "country": {
    "26": "Индия"
  },
  "collection": [],
  "genre": {
    "33": "Семейный",
    "19": "Комедия",
    "17": "Боевик",
    "7": "Драма"
  },
  "director": [
    "Калидас"
  ],
  "screenwriter": [
    "Рамеш Пант",
    "Маной Митрэ"
  ],
  "producer": [
    "Ратан Махержи"
  ],
  "operator": [
    "Ратан Махержи"
  ],
  "composer": [
    "Баппи Лахири"
  ],
  "design": [
    "Jadab Bhattacharya",
    "Кришна Махержи"
  ],
  "editor": [
    "Ваман Б. Бхосл",
    "Гурудутт Ширали"
  ],
  "actors": [
    "Аамир Кхан",
    "Фарха Нааз",
    "Асрани",
    "Бина",
    "Теж Сапру",
    "Бхарат Капур",
    "Баблу Махержи",
    "Джамуна",
    "Анджан Шривастава",
    "Раджеш Пури"
  ],
  "actors_dubl": [],
  "trivia": [],
  "trailers": [],
  "seasons": [],
  "voiceActing": [
    "Diva Universal"
  ],
  "subtitle": [],
  "parts": []
}
