{
  "id": 31855,
  "name": "Галактика ужаса",
  "name_eng": "Galaxy of Terror",
  "year": 1981,
  "slogan": "«ALIEN was the beginning ... Hell Has Just Been Relocated!»",
  "age": null,
  "type": "film",
  "quality": "HD (720p)",
  "imdb": "5.1",
  "imdb_id": "0",
  "kinopoisk": "5.4",
  "kinopoisk_id": "2251",
  "world_art": null,
  "world_art_id": null,
  "time": "81 мин. / 01:21",
  "ads": false,
  "premier": "1982-01-01",
  "premier_rus": "1982-01-02",
  "availability": "1982-01-03",
  "activate_time": "2020-07-14 12:29:00",
  "budget": "$700 000",
  "fees_use": null,
  "fees_world": null,
  "fees_rus": null,
  "rate_mpaa": "R",
  "description": "Космический корабль находится в свободном поиске в космосе. На одной из планет галактики астронавты находят звездолёт, вероятно принадлежавший древней цивилизации. Люди хотят разобраться в причинах случившейся катастрофы и выяснить кому же принадлежал звездолёт. Всё кажется очень странным и опасным — и планета, на которую приземляются астронавты, и обнаруженный звездолёт, внешне похожий на пирамиду. К тому же оказывается, что на планете присутствует враждебная людям фауна — ужасные монстры. Один из монстров проникает на космический корабль и становится вечным кошмаром и источником опасности для всего экипажа звездолёта.",
  "iframe_url": "",
  "iframe_poster": null,
  "poster": "https://img.imgilall.me/movies/franchise/3/1/8/5/5/0/0/0/0/0/610x900_31855.jpg",
  "country": {
    "1": "США"
  },
  "collection": [],
  "genre": {
    "9": "Приключения",
    "26": "Ужасы",
    "11": "Фантастика",
    "17": "Боевик"
  },
  "director": [
    "Брюс Д. Кларк"
  ],
  "screenwriter": [
    "Марк Сиглер",
    "Брюс Д. Кларк",
    "Уильям Стаут"
  ],
  "producer": [
    "Роджер Корман",
    "Марк Сиглер"
  ],
  "operator": [
    "Жак Эткин",
    "Остин МакКинни"
  ],
  "composer": [
    "Бэрри Шрайдер"
  ],
  "design": [
    "Джеймс Кэмерон",
    "Роберт Скотак",
    "Стив Грациани"
  ],
  "editor": [
    "Ларри Бок",
    "Р.Дж. Кизер",
    "Бэрри Цетлин"
  ],
  "actors": [
    "Эдвард Альберт",
    "Эрин Моран",
    "Рей Уолстон",
    "Бернард Беренс",
    "Залман Кинг",
    "Роберт Инглунд",
    "Тааффе О’Коннелл",
    "Сид Хэйг",
    "Грейс Забриски",
    "Джек Блессинг"
  ],
  "actors_dubl": [],
  "trivia": [
    "Декораторы создали стены и переборки звездолёта из картонных коробок для еды на вынос из «Макдоналдса».",
    "В сцене с опарышами, ползающими по руке, молодой режиссёр второй группы Джеймс Кэмерон, только начинающий свой путь в кинематографе, положил муляж руки на замаскированную металлическую пластину, к которой подвёл ток, чтобы заставить опарышей шевелиться. По слухам, это произвело впечатление на маститого продюсера Роджера Кормана и открыло Кэмерону двери к более крупным кинопроектам.",
    "Вначале предполагалось, что гигантский червь съест героиню Тааффе О’Коннелл, но в самый последний момент режиссёр Брюс Д. Кларк решил заменить съедение изнасилованием. Во время съёмок муляж червя чуть не раздавил актрису."
  ],
  "trailers": [],
  "seasons": [],
  "voiceActing": [
    "НТВ"
  ],
  "subtitle": [],
  "parts": []
}
