{
  "id": 41377,
  "name": "Когда мышонку стало скучно",
  "name_eng": "The Lonesome Mouse",
  "year": 1943,
  "slogan": "—",
  "age": null,
  "type": "cartoon",
  "quality": "HD (720p)",
  "imdb": "7.8",
  "imdb_id": "0036119",
  "kinopoisk": "8.1",
  "kinopoisk_id": "221837",
  "world_art": null,
  "world_art_id": null,
  "time": "8 мин.",
  "ads": false,
  "premier": "1943-05-22",
  "premier_rus": "1943-05-23",
  "availability": "1943-05-24",
  "activate_time": "2020-11-18 11:44:00",
  "budget": null,
  "fees_use": null,
  "fees_world": null,
  "fees_rus": null,
  "rate_mpaa": null,
  "description": null,
  "iframe_url": "",
  "iframe_poster": null,
  "poster": "https://img.imgilall.me/movies/franchise/4/1/3/7/7/0/0/0/0/0/610x900_41377.jpg",
  "country": {
    "1": "США"
  },
  "collection": [],
  "genre": {
    "53": "Короткометражный",
    "33": "Семейный",
    "19": "Комедия"
  },
  "director": [
    "Джозеф Барбера",
    "Уильям Ханна"
  ],
  "screenwriter": [],
  "producer": [
    "Фред Квимби",
    "Уильям Ханна"
  ],
  "operator": [],
  "composer": [
    "Скотт Бредли"
  ],
  "design": [],
  "editor": [],
  "actors": [
    "Уильям Ханна",
    "Гарри Лэнг",
    "Лиллиэн Рэндольф"
  ],
  "actors_dubl": [],
  "trivia": [],
  "trailers": [],
  "seasons": [],
  "voiceActing": [
    "Рус. Люб. многоголосый"
  ],
  "subtitle": [],
  "parts": []
}
