{
  "id": 38109,
  "name": "Забытая жена",
  "name_eng": "Khushboo",
  "year": 1975,
  "slogan": "—",
  "age": "12+",
  "type": "film",
  "quality": "SD",
  "imdb": "7.0",
  "imdb_id": "0215900",
  "kinopoisk": null,
  "kinopoisk_id": "224975",
  "world_art": null,
  "world_art_id": null,
  "time": "132 мин. / 02:12",
  "ads": false,
  "premier": "1975-05-08",
  "premier_rus": "1975-05-09",
  "availability": "1975-05-10",
  "activate_time": "2020-10-19 17:26:00",
  "budget": null,
  "fees_use": null,
  "fees_world": null,
  "fees_rus": null,
  "rate_mpaa": null,
  "description": "Это — история гордой молодой женщины Кусум, которая, согласно традиции, распространенной тогда в Индии, была выдана замуж еще в детстве. Спустя двадцать лет после этого события ее муж Бриндаван возвращается домой с дипломом доктора.  Он не помнит брак и свою жену, но Кусум одевается и ведет себя, как замужняя женщина — брак это навсегда. \r\rКогда Бриндаван узнает правду, он делает все, чтобы исправить положение  дел. Но Кусум отвергает его. Лишь когда она узнает, что он — вдовец с маленьким сыном, она смягчаете отношение к нему. Вспышка чумы не позволяет Бриндавану прибыть в назначенный день. Кусум теряет всякую надежду стать невестой, но ее  жизнь полна неожиданностей!",
  "iframe_url": "",
  "iframe_poster": null,
  "poster": "https://img.imgilall.me/movies/franchise/3/8/1/0/9/0/0/0/0/0/610x900_38109.jpg",
  "country": {
    "26": "Индия"
  },
  "collection": [],
  "genre": {
    "38": "Мюзикл",
    "33": "Семейный",
    "7": "Драма"
  },
  "director": [
    "Сампуран Сингх Гульзар"
  ],
  "screenwriter": [
    "Сампуран Сингх Гульзар",
    "Д.Н. Мухерджи",
    "Бхушан Банмали"
  ],
  "producer": [
    "Прасан Капур",
    "Hariram Kapoor"
  ],
  "operator": [
    "К. Вайкунтх"
  ],
  "composer": [
    "Рахул Дев Бурман"
  ],
  "design": [
    "Канти Баи Пандья",
    "Ажит Баннерджи",
    "Мита Хассан"
  ],
  "editor": [],
  "actors": [
    "Джитендра",
    "Хема Малини",
    "Дурга Кхоте",
    "Фарида Джалал",
    "Чандрима Бхадури",
    "Сарика",
    "Дев Кишан",
    "Судхир Таккар",
    "Раджу Шреста",
    "Лила Мишра"
  ],
  "actors_dubl": [],
  "trivia": [],
  "trailers": [],
  "seasons": [],
  "voiceActing": [
    "Diva Universal"
  ],
  "subtitle": [],
  "parts": []
}
