{
  "id": 28158,
  "name": "А вдруг это любовь?",
  "name_eng": "Je crois que je l'aime",
  "year": 2007,
  "slogan": "—",
  "age": "18+",
  "type": "film",
  "quality": "SD",
  "imdb": "6.0",
  "imdb_id": "0488565",
  "kinopoisk": "6.8",
  "kinopoisk_id": "220291",
  "world_art": null,
  "world_art_id": null,
  "time": "90 мин. / 01:30",
  "ads": false,
  "premier": "2007-02-21",
  "premier_rus": "2007-07-05",
  "availability": "2007-07-06",
  "activate_time": "2020-06-27 08:26:00",
  "budget": null,
  "fees_use": null,
  "fees_world": null,
  "fees_rus": "$23 700",
  "rate_mpaa": null,
  "description": "Люка - крупный бизнесмен, разочаровавшийся в любви. Неожиданно для себя он со всей страстью увлекается 38-летней Эльзой. Боясь потерять и голову, и собственную компанию, он нанимает детектива, чтобы выяснить, почему успешная и красивая женщина не замужем и какие проблемы могут подстерегать влюбленного в нее мужчину. Однако Эльза оказывается не только красивой, но и умной женщиной. Догадавшись о планах поклонника, она начинает собственную игру...",
  "iframe_url": "",
  "iframe_poster": null,
  "poster": "https://img.imgilall.me/movies/franchise/2/8/1/5/8/0/0/0/0/0/610x900_28158.jpg",
  "country": {
    "9": "Франция"
  },
  "collection": [],
  "genre": {
    "19": "Комедия",
    "8": "Мелодрама",
    "7": "Драма"
  },
  "director": [
    "Пьер Жоливе"
  ],
  "screenwriter": [
    "Пьер Жоливе",
    "Симон Микаэль"
  ],
  "producer": [
    "Фридерик Бурбулон",
    "Пьер Кюбель",
    "Мари-Кастиль Менсьон-Шаар"
  ],
  "operator": [
    "Паскаль Ридао"
  ],
  "composer": [],
  "design": [
    "Элизабет Тавернье",
    "Филипп Кордом"
  ],
  "editor": [
    "Ив Дешам"
  ],
  "actors": [
    "Венсан Линдон",
    "Сандрин Боннэр",
    "Франсуа Берлеан",
    "Кад Мерад",
    "Лиан Фоли",
    "Элен де Сен-Пер",
    "Гилен Лондез",
    "Пьер Дио",
    "Альбер Дрэ",
    "Мар Содуп"
  ],
  "actors_dubl": [],
  "trivia": [],
  "trailers": [],
  "seasons": [],
  "voiceActing": [
    "Diva Universal"
  ],
  "subtitle": [],
  "parts": []
}
