{
  "id": 1972,
  "name": "Футурама: Большой куш Бендера",
  "name_eng": "Futurama: Bender's Big Score",
  "year": 2007,
  "slogan": "«Полнометражное эпическое приключение будущего»",
  "age": "12+",
  "type": "cartoon",
  "quality": "FHD (1080p)",
  "imdb": "7.7",
  "imdb_id": "0471711",
  "kinopoisk": "7.7",
  "kinopoisk_id": "229938",
  "world_art": null,
  "world_art_id": null,
  "time": "88 мин. / 01:28",
  "ads": false,
  "premier": "2007-11-27",
  "premier_rus": null,
  "availability": null,
  "activate_time": "2018-08-31 17:35:12",
  "budget": null,
  "fees_use": null,
  "fees_world": null,
  "fees_rus": null,
  "rate_mpaa": null,
  "description": "Когда злые инопланетяне-нудисты устраивают кибер-атаку на Планетный Экспресс, они обнаруживают шокирующий факт: секрет путешествий во времени волшебным образом вытатуирован на ягодицах Фрая. Используя своё окольное программное обеспечение, чтобы контролировать Бендера, они засылают робота в прошлое, чтобы разграблять величайшие сокровищницы Земли. Волнение Бендером пространства и времени приводит к ужасным последствиям, когда он сталкивается с Эл Гором во время пересчёта голосов в 2000 году…",
  "iframe_url": "",
  "iframe_poster": null,
  "poster": "https://img.imgilall.me/movies/franchise/1/9/7/2/0/0/0/0/0/0/610x900_1972.jpg",
  "country": {
    "1": "США"
  },
  "collection": {
    "21": "Для молодёжи"
  },
  "genre": {
    "34": "Полнометражный",
    "19": "Комедия",
    "10": "Зарубежный"
  },
  "director": [
    "Дуэйн Кэри-Хилл"
  ],
  "screenwriter": [
    "Дэвид И. Коэн",
    "Кен Килер",
    "Мэтт Грейнинг"
  ],
  "producer": [
    "Клаудия Кац",
    "Ли Суперчински",
    "Элиз Белнап"
  ],
  "operator": [],
  "composer": [
    "Кристофер Тинг"
  ],
  "design": [
    "Сербан Критеску"
  ],
  "editor": [
    "Пол Д. Калдер"
  ],
  "actors": [
    "Билли Уэст",
    "Кэти Сагал",
    "Джон Ди Маджио",
    "Тресс МакНилл",
    "Морис ЛаМарш",
    "Фил ЛаМарр",
    "Лорен Том",
    "Дэвид Херман",
    "Доун Льюис",
    "Кэт Суси"
  ],
  "actors_dubl": [],
  "trivia": [
    "В эпизоде указывается номер банковского счета профессора Фарнсворта — 299792458. Число выражает точную скорость света в метрах в секунду.",
    "В одном из эпизодов инопланетянин-нудист держит в руках книгу «Краткая история путешествий во времени». Это пародия на книгу Стивена Хокинга «Краткая история времени».",
    "В музее голов на заднем плане в одном из эпизодов можно увидеть голову Эрика Картмана и Апу Нахасапимапетилона."
  ],
  "trailers": [
    {
      "name": "трейлер №1",
      "number": 1,
      "iframe_poster": null,
      "season": null,
      "iframe_url": ""
    }
  ],
  "seasons": [],
  "voiceActing": [
    "Рус. Проф. многоголосый",
    "Рус. Проф. двухголосый",
    "Eng.Original"
  ],
  "subtitle": [
    "Рус. полные"
  ],
  "parts": [
    1968,
    1970,
    1971,
    1972
  ]
}
