{
  "id": 26263,
  "name": "В постели с Мадонной",
  "name_eng": "Madonna: Truth or Dare",
  "year": 1991,
  "slogan": "«Like you've never seen her before»",
  "age": "16+",
  "type": "film",
  "quality": "HD (720p)",
  "imdb": "6.3",
  "imdb_id": "0102370",
  "kinopoisk": "7.1",
  "kinopoisk_id": "22674",
  "world_art": null,
  "world_art_id": null,
  "time": "120 мин. / 02:00",
  "ads": false,
  "premier": "1991-05-10",
  "premier_rus": "1991-05-11",
  "availability": "1991-05-12",
  "activate_time": "2020-06-26 23:02:00",
  "budget": "$4 500 000",
  "fees_use": "$15 012 935",
  "fees_world": "+ $14 000 000 = $29 012 935",
  "fees_rus": null,
  "rate_mpaa": "R",
  "description": "Значительную часть творчества поп-звезда и актриса посвятила эксклюзивному эротическому учению. Серия стабильных скандалов, сопровождавшая выход видеофильма «порочная Мадонна», фотоальбома «Секс», компакт-диска «Эротика», добралась до респектабельного каннского кинофестиваля, где гвоздем сезона стал фильм «В постели с Мадонной».Саркастический розыгрыш пикантно-интимных ситуаций затянул даже кинозвезд Шона Пэнна и Уоррена Битти -бывших мужа и любовника Мадонны.",
  "iframe_url": "",
  "iframe_poster": null,
  "poster": "https://img.imgilall.me/movies/franchise/2/6/2/6/3/0/0/0/0/0/610x900_26263.jpg",
  "country": {
    "1": "США"
  },
  "collection": [],
  "genre": {
    "54": "Документальный"
  },
  "director": [
    "Алек Кешишян"
  ],
  "screenwriter": [],
  "producer": [
    "Тим Клоусон",
    "Джей Роу",
    "Грегг Финберг"
  ],
  "operator": [],
  "composer": [],
  "design": [],
  "editor": [
    "Бэрри Александер Браун"
  ],
  "actors": [
    "Мадонна",
    "Донна Делори",
    "Ники Харрис",
    "Луис Камачо",
    "Оливер Крамс мл.",
    "Салим Гоулус",
    "Кевин Александр Сти",
    "Габриэль Трупин",
    "Карлтон Уилборн",
    "Шэрон Голт"
  ],
  "actors_dubl": [],
  "trivia": [
    "Для раскрутки фильма на канале MTV показывались «live»-версии видеоклипов «Like a Virgin» и «Holiday».",
    "21 января 1992 года трое танцоров из «Blond Ambition» подали в суд на Мадонну за вторжение в личную жизнь во время съёмок фильма, с требованием возмещения ущерба за мошенничество и обман, намеренное введение в заблуждение, скрытие фактов и намеренное причинение морального ущерба за показ частной жизни."
  ],
  "trailers": [],
  "seasons": [],
  "voiceActing": [
    "Diva Universal"
  ],
  "subtitle": [],
  "parts": []
}
