{
  "id": 46114,
  "name": "Красавица-воин Сейлор Мун",
  "name_eng": "Bishôjo senshi Sêrâ Mûn",
  "year": 1992,
  "slogan": "«Борцы за добро и справедливость!»",
  "age": "6+",
  "type": "anime-series",
  "quality": "SD",
  "imdb": "7.8",
  "imdb_id": "0103369",
  "kinopoisk": "7.8",
  "kinopoisk_id": "229704",
  "world_art": "8.3",
  "world_art_id": "636",
  "time": "24 мин",
  "ads": false,
  "premier": "1992-03-07",
  "premier_rus": "1992-03-08",
  "availability": "1992-03-09",
  "serial_status": "offline",
  "activate_time": "2021-04-28 12:53:00",
  "budget": null,
  "fees_use": null,
  "fees_world": null,
  "fees_rus": null,
  "rate_mpaa": null,
  "description": "В далёком прошлом на Луне существовало королевство — Серебряное Тысячелетие. Оно мирно сосуществовало с Землей. Принц Земли Эндимион и принцесса Луны Серенити полюбили друг друга, но люди, охваченные тёмной силой, напали на Серебряное Тысячелетие. Воспользовавшись силой Иллюзорного Серебряного Кристалла Королева Серенити сумела остановить захватчиков, но её королевство было уничтожено. Всё, что смогла сделать Королева Серенити, это устроить так, чтобы её дочь и её воины-хранители родились вновь в будущем в мирное время и смогли прожить там счастливую и спокойную жизнь.Главная героиня «Сейлор Мун» — Усаги Цукино. Она была обычной школьницей, пока не встретила говорящую кошку Луну. Луна помогла Усаги пробудить свои силы и научила девушку превращаться в Сейлор Мун, чтобы сражаться со злом, пытающимся захватить Землю. В сражениях к ней присоединились и её подруги — другие воины в матросках.",
  "iframe_url": "",
  "poster": "https://img.imgilall.me/movies/franchise/4/6/1/1/4/0/0/0/0/0/610x900_46114.jpg",
  "country": {
    "18": "Япония"
  },
  "collection": [],
  "genre": {
    "9": "Приключения",
    "6": "Фэнтези",
    "24": "Детектив",
    "19": "Комедия",
    "17": "Боевик",
    "13": "Триллер",
    "8": "Мелодрама",
    "7": "Драма"
  },
  "director": [
    "Кунихико Икухара",
    "Дзюнъити Сато",
    "Такуя Игараси"
  ],
  "screenwriter": [
    "Наоко Такэути",
    "Олав Ф. Андерсен",
    "Сукэхиро Томита"
  ],
  "producer": [
    "Кэндзи Ота",
    "Ирия Адзума",
    "Джон Лэдфорд"
  ],
  "operator": [],
  "composer": [
    "Таканори Арисава"
  ],
  "design": [
    "Такамура Мукуо",
    "Кэнити Тадзири",
    "Кадзуюки Хасимото"
  ],
  "editor": [
    "Ясухиро Ёсикава",
    "Yôko Tsuru"
  ],
  "actors": [
    "Стефани Ше",
    "Котоно Мицуиси",
    "Кейт Хиггинс",
    "Ая Хисакава",
    "Кристина Валенсуэла",
    "Митиэ Томидзава",
    "Эми Синохара",
    "Аманда Селин Миллер",
    "Черами Ли",
    "Рика Фуками"
  ],
  "actors_dubl": [
    "Ольга Кузьмина",
    "Ольга Голованова",
    "Татьяна Абрамова",
    "Ева Финкельштейн",
    "Олег Вирозуб"
  ],
  "trivia": [],
  "trailers": [],
  "seasons": [
    {
      "poster": null,
      "release_ru": null,
      "release_world": null,
      "availability": null,
      "iframe_url": "",
      "season": 1,
      "episodes": [
        {
          "episode": 1,
          "name": null,
          "iframe_url": "",
          "iframe_poster": null,
          "release_ru": null,
          "release_world": null,
          "availability": null,
          "voiceActing": [
            "СТС"
          ],
          "ads": false,
          "subtitle": []
        },
        {
          "episode": 2,
          "name": null,
          "iframe_url": "",
          "iframe_poster": null,
          "release_ru": null,
          "release_world": null,
          "availability": null,
          "voiceActing": [
            "СТС"
          ],
          "ads": false,
          "subtitle": []
        },
        {
          "episode": 3,
          "name": null,
          "iframe_url": "",
          "iframe_poster": null,
          "release_ru": null,
          "release_world": null,
          "availability": null,
          "voiceActing": [
            "СТС"
          ],
          "ads": false,
          "subtitle": []
        },
        {
          "episode": 4,
          "name": null,
          "iframe_url": "",
          "iframe_poster": null,
          "release_ru": null,
          "release_world": null,
          "availability": null,
          "voiceActing": [
            "СТС"
          ],
          "ads": false,
          "subtitle": []
        },
        {
          "episode": 5,
          "name": null,
          "iframe_url": "",
          "iframe_poster": null,
          "release_ru": null,
          "release_world": null,
          "availability": null,
          "voiceActing": [
            "СТС"
          ],
          "ads": false,
          "subtitle": []
        },
        {
          "episode": 6,
          "name": null,
          "iframe_url": "",
          "iframe_poster": null,
          "release_ru": null,
          "release_world": null,
          "availability": null,
          "voiceActing": [
            "СТС"
          ],
          "ads": false,
          "subtitle": []
        },
        {
          "episode": 7,
          "name": null,
          "iframe_url": "",
          "iframe_poster": null,
          "release_ru": null,
          "release_world": null,
          "availability": null,
          "voiceActing": [
            "СТС"
          ],
          "ads": false,
          "subtitle": []
        },
        {
          "episode": 8,
          "name": null,
          "iframe_url": "",
          "iframe_poster": null,
          "release_ru": null,
          "release_world": null,
          "availability": null,
          "voiceActing": [
            "СТС"
          ],
          "ads": false,
          "subtitle": []
        },
        {
          "episode": 9,
          "name": null,
          "iframe_url": "",
          "iframe_poster": null,
          "release_ru": null,
          "release_world": null,
          "availability": null,
          "voiceActing": [
            "СТС"
          ],
          "ads": false,
          "subtitle": []
        },
        {
          "episode": 10,
          "name": null,
          "iframe_url": "",
          "iframe_poster": null,
          "release_ru": null,
          "release_world": null,
          "availability": null,
          "voiceActing": [
            "СТС"
          ],
          "ads": false,
          "subtitle": []
        },
        {
          "episode": 11,
          "name": null,
          "iframe_url": "",
          "iframe_poster": null,
          "release_ru": null,
          "release_world": null,
          "availability": null,
          "voiceActing": [
            "СТС"
          ],
          "ads": false,
          "subtitle": []
        },
        {
          "episode": 12,
          "name": null,
          "iframe_url": "",
          "iframe_poster": null,
          "release_ru": null,
          "release_world": null,
          "availability": null,
          "voiceActing": [
            "СТС"
          ],
          "ads": false,
          "subtitle": []
        },
        {
          "episode": 13,
          "name": null,
          "iframe_url": "",
          "iframe_poster": null,
          "release_ru": null,
          "release_world": null,
          "availability": null,
          "voiceActing": [
            "СТС"
          ],
          "ads": false,
          "subtitle": []
        },
        {
          "episode": 14,
          "name": null,
          "iframe_url": "",
          "iframe_poster": null,
          "release_ru": null,
          "release_world": null,
          "availability": null,
          "voiceActing": [
            "СТС"
          ],
          "ads": false,
          "subtitle": []
        },
        {
          "episode": 15,
          "name": null,
          "iframe_url": "",
          "iframe_poster": null,
          "release_ru": null,
          "release_world": null,
          "availability": null,
          "voiceActing": [
            "СТС"
          ],
          "ads": false,
          "subtitle": []
        },
        {
          "episode": 16,
          "name": null,
          "iframe_url": "",
          "iframe_poster": null,
          "release_ru": null,
          "release_world": null,
          "availability": null,
          "voiceActing": [
            "СТС"
          ],
          "ads": false,
          "subtitle": []
        },
        {
          "episode": 17,
          "name": null,
          "iframe_url": "",
          "iframe_poster": null,
          "release_ru": null,
          "release_world": null,
          "availability": null,
          "voiceActing": [
            "СТС"
          ],
          "ads": false,
          "subtitle": []
        },
        {
          "episode": 18,
          "name": null,
          "iframe_url": "",
          "iframe_poster": null,
          "release_ru": null,
          "release_world": null,
          "availability": null,
          "voiceActing": [
            "СТС"
          ],
          "ads": false,
          "subtitle": []
        },
        {
          "episode": 19,
          "name": null,
          "iframe_url": "",
          "iframe_poster": null,
          "release_ru": null,
          "release_world": null,
          "availability": null,
          "voiceActing": [
            "СТС"
          ],
          "ads": false,
          "subtitle": []
        },
        {
          "episode": 20,
          "name": null,
          "iframe_url": "",
          "iframe_poster": null,
          "release_ru": null,
          "release_world": null,
          "availability": null,
          "voiceActing": [
            "СТС"
          ],
          "ads": false,
          "subtitle": []
        },
        {
          "episode": 21,
          "name": null,
          "iframe_url": "",
          "iframe_poster": null,
          "release_ru": null,
          "release_world": null,
          "availability": null,
          "voiceActing": [
            "СТС"
          ],
          "ads": false,
          "subtitle": []
        },
        {
          "episode": 22,
          "name": null,
          "iframe_url": "",
          "iframe_poster": null,
          "release_ru": null,
          "release_world": null,
          "availability": null,
          "voiceActing": [
            "СТС"
          ],
          "ads": false,
          "subtitle": []
        },
        {
          "episode": 23,
          "name": null,
          "iframe_url": "",
          "iframe_poster": null,
          "release_ru": null,
          "release_world": null,
          "availability": null,
          "voiceActing": [
            "СТС"
          ],
          "ads": false,
          "subtitle": []
        },
        {
          "episode": 24,
          "name": null,
          "iframe_url": "",
          "iframe_poster": null,
          "release_ru": null,
          "release_world": null,
          "availability": null,
          "voiceActing": [
            "СТС"
          ],
          "ads": false,
          "subtitle": []
        },
        {
          "episode": 25,
          "name": null,
          "iframe_url": "",
          "iframe_poster": null,
          "release_ru": null,
          "release_world": null,
          "availability": null,
          "voiceActing": [
            "СТС"
          ],
          "ads": false,
          "subtitle": []
        },
        {
          "episode": 26,
          "name": null,
          "iframe_url": "",
          "iframe_poster": null,
          "release_ru": null,
          "release_world": null,
          "availability": null,
          "voiceActing": [
            "СТС"
          ],
          "ads": false,
          "subtitle": []
        },
        {
          "episode": 27,
          "name": null,
          "iframe_url": "",
          "iframe_poster": null,
          "release_ru": null,
          "release_world": null,
          "availability": null,
          "voiceActing": [
            "СТС"
          ],
          "ads": false,
          "subtitle": []
        },
        {
          "episode": 28,
          "name": null,
          "iframe_url": "",
          "iframe_poster": null,
          "release_ru": null,
          "release_world": null,
          "availability": null,
          "voiceActing": [
            "СТС"
          ],
          "ads": false,
          "subtitle": []
        },
        {
          "episode": 29,
          "name": null,
          "iframe_url": "",
          "iframe_poster": null,
          "release_ru": null,
          "release_world": null,
          "availability": null,
          "voiceActing": [
            "СТС"
          ],
          "ads": false,
          "subtitle": []
        },
        {
          "episode": 30,
          "name": null,
          "iframe_url": "",
          "iframe_poster": null,
          "release_ru": null,
          "release_world": null,
          "availability": null,
          "voiceActing": [
            "СТС"
          ],
          "ads": false,
          "subtitle": []
        },
        {
          "episode": 31,
          "name": null,
          "iframe_url": "",
          "iframe_poster": null,
          "release_ru": null,
          "release_world": null,
          "availability": null,
          "voiceActing": [
            "СТС"
          ],
          "ads": false,
          "subtitle": []
        },
        {
          "episode": 32,
          "name": null,
          "iframe_url": "",
          "iframe_poster": null,
          "release_ru": null,
          "release_world": null,
          "availability": null,
          "voiceActing": [
            "СТС"
          ],
          "ads": false,
          "subtitle": []
        },
        {
          "episode": 33,
          "name": null,
          "iframe_url": "",
          "iframe_poster": null,
          "release_ru": null,
          "release_world": null,
          "availability": null,
          "voiceActing": [
            "СТС"
          ],
          "ads": false,
          "subtitle": []
        },
        {
          "episode": 34,
          "name": null,
          "iframe_url": "",
          "iframe_poster": null,
          "release_ru": null,
          "release_world": null,
          "availability": null,
          "voiceActing": [
            "СТС"
          ],
          "ads": false,
          "subtitle": []
        },
        {
          "episode": 35,
          "name": null,
          "iframe_url": "",
          "iframe_poster": null,
          "release_ru": null,
          "release_world": null,
          "availability": null,
          "voiceActing": [
            "СТС"
          ],
          "ads": false,
          "subtitle": []
        },
        {
          "episode": 36,
          "name": null,
          "iframe_url": "",
          "iframe_poster": null,
          "release_ru": null,
          "release_world": null,
          "availability": null,
          "voiceActing": [
            "СТС"
          ],
          "ads": false,
          "subtitle": []
        },
        {
          "episode": 37,
          "name": null,
          "iframe_url": "",
          "iframe_poster": null,
          "release_ru": null,
          "release_world": null,
          "availability": null,
          "voiceActing": [
            "СТС"
          ],
          "ads": false,
          "subtitle": []
        },
        {
          "episode": 38,
          "name": null,
          "iframe_url": "",
          "iframe_poster": null,
          "release_ru": null,
          "release_world": null,
          "availability": null,
          "voiceActing": [
            "СТС"
          ],
          "ads": false,
          "subtitle": []
        },
        {
          "episode": 39,
          "name": null,
          "iframe_url": "",
          "iframe_poster": null,
          "release_ru": null,
          "release_world": null,
          "availability": null,
          "voiceActing": [
            "СТС"
          ],
          "ads": false,
          "subtitle": []
        },
        {
          "episode": 40,
          "name": null,
          "iframe_url": "",
          "iframe_poster": null,
          "release_ru": null,
          "release_world": null,
          "availability": null,
          "voiceActing": [
            "СТС"
          ],
          "ads": false,
          "subtitle": []
        },
        {
          "episode": 41,
          "name": null,
          "iframe_url": "",
          "iframe_poster": null,
          "release_ru": null,
          "release_world": null,
          "availability": null,
          "voiceActing": [
            "СТС"
          ],
          "ads": false,
          "subtitle": []
        },
        {
          "episode": 42,
          "name": null,
          "iframe_url": "",
          "iframe_poster": null,
          "release_ru": null,
          "release_world": null,
          "availability": null,
          "voiceActing": [
            "СТС"
          ],
          "ads": false,
          "subtitle": []
        },
        {
          "episode": 43,
          "name": null,
          "iframe_url": "",
          "iframe_poster": null,
          "release_ru": null,
          "release_world": null,
          "availability": null,
          "voiceActing": [
            "СТС"
          ],
          "ads": false,
          "subtitle": []
        },
        {
          "episode": 44,
          "name": null,
          "iframe_url": "",
          "iframe_poster": null,
          "release_ru": null,
          "release_world": null,
          "availability": null,
          "voiceActing": [
            "СТС"
          ],
          "ads": false,
          "subtitle": []
        },
        {
          "episode": 45,
          "name": null,
          "iframe_url": "",
          "iframe_poster": null,
          "release_ru": null,
          "release_world": null,
          "availability": null,
          "voiceActing": [
            "СТС"
          ],
          "ads": false,
          "subtitle": []
        },
        {
          "episode": 46,
          "name": null,
          "iframe_url": "",
          "iframe_poster": null,
          "release_ru": null,
          "release_world": null,
          "availability": null,
          "voiceActing": [
            "СТС"
          ],
          "ads": false,
          "subtitle": []
        }
      ]
    }
  ],
  "voiceActing": [
    "СТС"
  ],
  "subtitle": [],
  "parts": []
}
