{
  "id": 27321,
  "name": "Папаша с афиши",
  "name_eng": "Billboard Dad",
  "year": 1998,
  "slogan": "«Two sisters advertise to get their dad a date...and get a whole lot more»",
  "age": null,
  "type": "film",
  "quality": "SD",
  "imdb": "5.3",
  "imdb_id": "0167049",
  "kinopoisk": "6.3",
  "kinopoisk_id": "22410",
  "world_art": null,
  "world_art_id": null,
  "time": "92 мин. / 01:32",
  "ads": false,
  "premier": "1998-11-10",
  "premier_rus": "1998-11-11",
  "availability": "1998-11-12",
  "activate_time": "2020-06-27 06:08:00",
  "budget": null,
  "fees_use": null,
  "fees_world": null,
  "fees_rus": null,
  "rate_mpaa": "G",
  "description": "Две сестренки-близняшки, пытаясь устроить судьбу своего одинокого отца, находят очень оригинальное решение: они размещают его фотографию на гигантском щите, на самой оживленной улице. Он одинокий, он симпатяга, он мужчина что надо.С этого момента недоумевающему папе-одиночке решительно настроенные дамочки просто не дают прохода. Но на этом сюрпризы не заканчиваются — сестренки решают попробовать себя в роли детективов.",
  "iframe_url": "",
  "iframe_poster": null,
  "poster": "https://img.imgilall.me/movies/franchise/2/7/3/2/1/0/0/0/0/0/610x900_27321.jpg",
  "country": {
    "1": "США"
  },
  "collection": [],
  "genre": {
    "33": "Семейный",
    "19": "Комедия",
    "8": "Мелодрама"
  },
  "director": [
    "Алан Меттер"
  ],
  "screenwriter": [
    "Мария Жакеметтон"
  ],
  "producer": [
    "Нил Стейнберг",
    "Питер Абрамс",
    "Энди Коэн"
  ],
  "operator": [
    "Мауро Фиоре"
  ],
  "composer": [
    "Дэвид Майкл Фрэнк"
  ],
  "design": [
    "Мартина Бакли",
    "Ивана Летика",
    "Джуди Б. Шварц"
  ],
  "editor": [
    "Шэрин Л. Росс"
  ],
  "actors": [
    "Мэри-Кейт Олсен",
    "Эшли Олсен",
    "Том Амандес",
    "Джессика Так",
    "Карл Бэнкс",
    "Эллен Рэтнер",
    "Сэм Салетта",
    "Рафаэль Рохас III",
    "Тройэн Эвери Беллисарио",
    "Анжелика Парри"
  ],
  "actors_dubl": [
    "Анастасия Волкова",
    "Владимир Вихров",
    "Наталья Казначеева",
    "Григорий Сиятвинда",
    "Сергей Балабанов"
  ],
  "trivia": [],
  "trailers": [],
  "seasons": [],
  "voiceActing": [
    "Cartoon Network"
  ],
  "subtitle": [],
  "parts": []
}
