{
  "id": 4388,
  "name": "Пятница 13",
  "name_eng": "Friday the 13th",
  "year": 1980,
  "slogan": "«You may only see it once, but that will be enough»",
  "age": "16+",
  "type": "film",
  "quality": "FHD (1080p)",
  "imdb": "6.5",
  "imdb_id": "0080761",
  "kinopoisk": "6.3",
  "kinopoisk_id": "23922",
  "world_art": null,
  "world_art_id": null,
  "time": "95 мин. / 01:35",
  "ads": false,
  "premier": "1980-05-09",
  "premier_rus": null,
  "availability": null,
  "activate_time": "2018-12-06 14:38:51",
  "budget": "$700 000",
  "fees_use": "$39 754 601",
  "fees_world": null,
  "fees_rus": null,
  "rate_mpaa": "R",
  "description": "Их предупреждали… Их прокляли… В пятницу 13-го их уже ничего не спасёт. Уютный лагерь «Хрустальное озеро» вновь открывается! Вожатые ожидают летнюю смену, приготовив для юных гостей увлекательные мероприятия и забавные игры. Правда, появилась новая игра, о которой вожатые ещё не знают, и она будет пользоваться большой популярностью в этом сезоне. Игра называется «Убей вожатого!».",
  "iframe_url": "",
  "iframe_poster": null,
  "poster": "https://img.imgilall.me/movies/franchise/4/3/8/8/0/0/0/0/0/0/610x900_4388.jpg",
  "country": {
    "1": "США"
  },
  "collection": [],
  "genre": {
    "26": "Ужасы",
    "10": "Зарубежный"
  },
  "director": [
    "Шон С. Каннингэм"
  ],
  "screenwriter": [
    "Виктор Миллер",
    "Рон Кёрц"
  ],
  "producer": [
    "Шон С. Каннингэм",
    "Элвин Гейлер",
    "Стив Майнер"
  ],
  "operator": [
    "Бэрри Абрамс"
  ],
  "composer": [
    "Гарри Манфредини"
  ],
  "design": [
    "Вирджиния Филд",
    "Роберт Тополь",
    "Карон Коплан"
  ],
  "editor": [
    "Билл Фреда"
  ],
  "actors": [
    "Эдриенн Кинг",
    "Бетси Палмер",
    "Джаннин Тейлор",
    "Робби Морган",
    "Кевин Бейкон",
    "Гарри Кросби",
    "Лори Бартрам",
    "Марк Нельсон",
    "Питер Брауэр",
    "Рекс Эверхарт"
  ],
  "actors_dubl": [],
  "trivia": [
    "Летний лагерь, использовавшийся для съёмок фильма, расположен в Нью-Джерси и называется Camp Nobebosco.",
    "Виктор Миллер первоначально дал Джейсону имя Джош. Решив, что это звучит слишком мило, он сменил его на Джейсона в честь школьного хулигана.",
    "Действие фильма происходит 13 июня 1958 года и 13 июня 1980 года.",
    "Том Савини был одним из первых членов экипажа на борту фильма, потому что продюсеры боготворили его спецэффекты в «Рассвет мертвецов» (1978).",
    "В то время как большая часть актеров и членов съёмочной группы оставалась в отелях во время съемок, некоторые из преданных актеров и членов, включая Тома Савини и Тасо Н. Ставракиса, остались на месте лагеря. У них был видеомагнитофон Savani от Betamax и только несколько фильмов «Барбарелла» (1968) и «Марафонец» (1976) на видеопленке, чтобы развлекаться, поэтому каждую ночь они смотрели один из этих фильмов. По сей день Савини говорит, что он может наизусть прочесть эти фильмы.",
    "Рабочее название Виктора Миллера для сценария было — «Длинная ночь в лагере крови».",
    "В сцене, когда безжизненное тело Бренды влетает в окно дома, в качестве каскадёра снимался сам постановщик спецэффектов Том Савини.",
    "Всего в фильме убито 10 человек.",
    "Сцена с змеей не была в сценарии, и это была идея Тома Савини после опыта в его собственной каюте во время съемок. Змея в сцене была реальной, включая ее экранную смерть."
  ],
  "trailers": [],
  "seasons": [],
  "voiceActing": [
    "Рус. Проф. двухголосый",
    "Eng.Original"
  ],
  "subtitle": [
    "Рус. полные"
  ],
  "parts": [
    4388,
    4389,
    4390,
    4391,
    4392,
    4393,
    4394,
    4395,
    4396,
    4397,
    4398
  ]
}
