{
  "id": 39985,
  "name": "Обещание",
  "name_eng": "Pratigyabadh",
  "year": 1991,
  "slogan": "—",
  "age": null,
  "type": "film",
  "quality": "SD",
  "imdb": "5.6",
  "imdb_id": "0102702",
  "kinopoisk": null,
  "kinopoisk_id": "238714",
  "world_art": null,
  "world_art_id": null,
  "time": "164 мин. / 02:44",
  "ads": false,
  "premier": null,
  "premier_rus": null,
  "availability": null,
  "activate_time": "2020-10-31 04:46:00",
  "budget": null,
  "fees_use": null,
  "fees_world": null,
  "fees_rus": null,
  "rate_mpaa": null,
  "description": "После того как Бабурам Ядав отправился работать в Бомбей, чтобы попытаться отдать долг ростовщику, его жена Лакшми и трое детей остались жить за чертой бедности. В добавок они перестали получать письма от отца. Когда Лакшми отказалась от покровительства ростовщика, тот отобрал у нее дом и все имущество. В отчаяние Лакшми с детьми едет в Бомбей, чтобы отыскать мужа.",
  "iframe_url": "",
  "iframe_poster": null,
  "poster": "https://img.imgilall.me/movies/franchise/3/9/9/8/5/0/0/0/0/0/610x900_39985.jpg",
  "country": {
    "26": "Индия"
  },
  "collection": [],
  "genre": {
    "8": "Мелодрама"
  },
  "director": [
    "Рави Чопра"
  ],
  "screenwriter": [],
  "producer": [
    "Б.Р. Чопра"
  ],
  "operator": [],
  "composer": [
    "Баппи Лахири",
    "Ананджи Вирджи Шах",
    "Калианджи Вирджи Шах"
  ],
  "design": [],
  "editor": [],
  "actors": [
    "Асрани",
    "Бина",
    "Митхун Чакраборти",
    "Сунил Датт",
    "Кумар Гурав",
    "Шафи Инамдар",
    "Джавед Ризви Джарехави",
    "Анупам Кхер",
    "Нилам Котари",
    "Манмауджи"
  ],
  "actors_dubl": [],
  "trivia": [],
  "trailers": [],
  "seasons": [],
  "voiceActing": [
    "Cartoon Network"
  ],
  "subtitle": [],
  "parts": []
}
