{
  "id": 20428,
  "name": "Творение Господне",
  "name_eng": "Something the Lord Made",
  "year": 2004,
  "slogan": "«A breakthrough that changed the face of medicine. A unique partnership that broke the rules»",
  "age": "16+",
  "type": "film",
  "quality": "FHD (1080p)",
  "imdb": "8.2",
  "imdb_id": "0386792",
  "kinopoisk": "7.9",
  "kinopoisk_id": "233084",
  "world_art": null,
  "world_art_id": null,
  "time": "110 мин. / 01:50",
  "ads": false,
  "premier": "2004-05-30",
  "premier_rus": "2004-05-31",
  "availability": "2004-06-01",
  "activate_time": "2020-05-28 10:43:00",
  "budget": null,
  "fees_use": null,
  "fees_world": null,
  "fees_rus": null,
  "rate_mpaa": null,
  "description": "В 40-х годах XX-го века Альфред Блэлок, хирург от Бога, совершил революцию в медицине. Работая в одной из больниц Балтимора, он разработал методику операций по спасению детей с врожденным пороком сердца.Его соратником, незаменимым помощником и лучшим другом стал чернокожий лаборант Вивьен Томас. Общественное мнение никак не могло смириться с этим вопиющим фактом, и в итоге под угрозой оказалась не только их дружба, но и продолжение совместных исследований.",
  "iframe_url": "",
  "iframe_poster": null,
  "poster": "https://img.imgilall.me/movies/franchise/2/0/4/2/8/0/0/0/0/0/610x900_20428.jpg",
  "country": {
    "1": "США"
  },
  "collection": [],
  "genre": {
    "27": "Биографический",
    "7": "Драма"
  },
  "director": [
    "Джозеф Сарджент"
  ],
  "screenwriter": [
    "Питер Силверман",
    "Роберт Касуэлл"
  ],
  "producer": [
    "Майк Дрэйк",
    "Джулиан Крайнин",
    "Роберт В. Корт"
  ],
  "operator": [
    "Дональд М. Морган"
  ],
  "composer": [
    "Кристофер Янг"
  ],
  "design": [
    "Винсент Перанио",
    "Галина Гебаровиц",
    "Керин Вагнер"
  ],
  "editor": [
    "Майкл Браун"
  ],
  "actors": [
    "Алан Рикман",
    "Ясин Бей",
    "Кира Седжвик",
    "Гэбриэл Юнион",
    "Мерритт Уивер",
    "Клэйтон ЛеБеф",
    "Чарльз С. Даттон",
    "Мэри Стюарт Мастерсон",
    "Клифф МакКаллен",
    "Люрей Купер"
  ],
  "actors_dubl": [],
  "trivia": [
    "Фильм частично основан на рассказе Кейт МакКейб «Как творение Господне», опубликованном в журнале The Washingtonian и получившем премию National Magazine Awards в 1990-м году."
  ],
  "trailers": [],
  "seasons": [],
  "voiceActing": [
    "Рус. Проф. многоголосый",
    "Eng.Original"
  ],
  "subtitle": [],
  "parts": []
}
