{
  "id": 20047,
  "name": "Однажды в Китае",
  "name_eng": "Wong Fei Hung",
  "year": 1991,
  "slogan": "«Never was a Hero needed more...»",
  "age": "16+",
  "type": "film",
  "quality": "SD",
  "imdb": "7.3",
  "imdb_id": "0103285",
  "kinopoisk": "7.4",
  "kinopoisk_id": "23604",
  "world_art": null,
  "world_art_id": null,
  "time": "134 мин. / 02:14",
  "ads": false,
  "premier": "1991-08-15",
  "premier_rus": "1991-08-16",
  "availability": "1991-08-17",
  "activate_time": "2020-05-27 02:21:00",
  "budget": null,
  "fees_use": null,
  "fees_world": null,
  "fees_rus": null,
  "rate_mpaa": "R",
  "description": "Конец девятнадцатого столетия. Китайцы пытаются бороться всеми доступными им средствами с расширением американского влияния, решительно восстают против наглого грабежа и похищения людей.Но находятся и такие, которым чужестранная мода, традиции и культура пришлись на руку в их темных делишках. Народный герой Китая Вонг пытается защитить девушку, которую предприимчивый барыга - китаец продал на Запад в бордель.",
  "iframe_url": "",
  "iframe_poster": null,
  "poster": "https://img.imgilall.me/movies/franchise/2/0/0/4/7/0/0/0/0/0/610x900_20047.jpg",
  "country": {
    "12": "Гонконг"
  },
  "collection": {
    "16": "Про боевые искусства"
  },
  "genre": {
    "9": "Приключения",
    "28": "Исторический",
    "17": "Боевик"
  },
  "director": [
    "Цуй Харк"
  ],
  "screenwriter": [
    "Эдвард Люн",
    "Эльза Тэнг",
    "Цуй Харк"
  ],
  "producer": [
    "Цуй Харк",
    "Роджер Ли"
  ],
  "operator": [
    "Танг-Чен Чан",
    "Уилсон Чан",
    "Дэвид Чунг"
  ],
  "composer": [
    "Ромео Диаз",
    "Джеймс Вон"
  ],
  "design": [
    "Кеннет И",
    "Брюс Юй"
  ],
  "editor": [
    "Марко Мак"
  ],
  "actors": [
    "Джет Ли",
    "Юэнь Бяо",
    "Розамунд Кван",
    "Джеки Чун",
    "Кент Чэн",
    "Кам-Фай Юйэнь",
    "Ши-Кван Йен",
    "Лау Шунь",
    "У Ма",
    "Цю Цзяньго"
  ],
  "actors_dubl": [],
  "trivia": [],
  "trailers": [],
  "seasons": [],
  "voiceActing": [
    "Рус. Проф. двухголосый"
  ],
  "subtitle": [],
  "parts": []
}
