{
  "id": 24991,
  "name": "Доброе сердце",
  "name_eng": "The Good Heart",
  "year": 2009,
  "slogan": "«Everyone needs a refuge from the world»",
  "age": "16+",
  "type": "film",
  "quality": "HD (720p)",
  "imdb": "6.9",
  "imdb_id": "0808285",
  "kinopoisk": "7.1",
  "kinopoisk_id": "256496",
  "world_art": null,
  "world_art_id": null,
  "time": "99 мин. / 01:39",
  "ads": false,
  "premier": "2009-09-11",
  "premier_rus": "2009-09-12",
  "availability": "2009-09-13",
  "activate_time": "2020-06-22 18:52:00",
  "budget": "$3 800 000",
  "fees_use": "$20 930",
  "fees_world": "+ $322 888 = $343 818",
  "fees_rus": null,
  "rate_mpaa": "R",
  "description": "Жак - скупой, нелюдимый владелец бара, который служит домом для пестрой компании пьяниц со стажем. Уже едва живой от беспробудного пьянства, Жак встречает Лукаса, бездомного юношу, махнувшего на жизнь рукой. Надеясь сохранить свое наследие и считая Лукаса достойным наследником, он берет его под свое крылышко и воспитывает по законам «клуба алкоголиков»: никаких новых клиентов, никаких отношений с клиентами, и, наконец, никаких женщин! Лукас быстро учится, но их дружба подвергается серьезному испытанию, когда на пороге бара появляется красавица Эйприл. Девушка просит убежища, и молодой человек настаивает на том, чтобы помочь ей.",
  "iframe_url": "",
  "iframe_poster": null,
  "poster": "https://img.imgilall.me/movies/franchise/2/4/9/9/1/0/0/0/0/0/610x900_24991.jpg",
  "country": {
    "1": "США",
    "9": "Франция",
    "11": "Исландия",
    "20": "Германия",
    "25": "Дания"
  },
  "collection": [],
  "genre": {
    "19": "Комедия",
    "7": "Драма"
  },
  "director": [
    "Дагюр Каури"
  ],
  "screenwriter": [
    "Дагюр Каури"
  ],
  "producer": [
    "Доминик Барно",
    "Марк Бордюр",
    "Бо Эрхардт"
  ],
  "operator": [
    "Расмус Видебак"
  ],
  "composer": [
    "Орри Йоунссон",
    "Дагюр Каури"
  ],
  "design": [
    "Хальфдан Педерсен",
    "Хельга Роус Ханнам",
    "Ana Katharina Dreschsler"
  ],
  "editor": [
    "Андри Штейн"
  ],
  "actors": [
    "Пол Дано",
    "Брайан Кокс",
    "Билл Бюэлл",
    "Боди",
    "Сьюзан Бломмарт",
    "Элис Оливия Кларк",
    "Сонни Браун",
    "Стивен Хендерсон",
    "Сет Шарп",
    "Дэвид Мосс"
  ],
  "actors_dubl": [],
  "trivia": [],
  "trailers": [],
  "seasons": [],
  "voiceActing": [
    "R5",
    "Eng.Original"
  ],
  "subtitle": [
    "Рус. полные"
  ],
  "parts": []
}
