{
  "id": 46039,
  "name": "Осенние корабли",
  "name_eng": "",
  "year": 1982,
  "slogan": "—",
  "age": "0+",
  "type": "cartoon",
  "quality": "SD",
  "imdb": "7.4",
  "imdb_id": "5524154",
  "kinopoisk": "7.9",
  "kinopoisk_id": "258637",
  "world_art": null,
  "world_art_id": null,
  "time": "8 мин.",
  "ads": false,
  "premier": null,
  "premier_rus": null,
  "availability": null,
  "activate_time": "2021-04-26 00:25:00",
  "budget": null,
  "fees_use": null,
  "fees_world": null,
  "fees_rus": null,
  "rate_mpaa": null,
  "description": "Про Ежика, который мечтал о море.",
  "iframe_url": "",
  "iframe_poster": null,
  "poster": "https://img.imgilall.me/movies/franchise/4/6/0/3/9/0/0/0/0/0/610x900_46039.jpg",
  "country": {
    "24": "СССР"
  },
  "collection": {
    "46": "Советские"
  },
  "genre": {
    "53": "Короткометражный"
  },
  "director": [
    "Юрий Бутырин"
  ],
  "screenwriter": [
    "Сергей Козлов"
  ],
  "producer": [],
  "operator": [
    "Эрнст Гаман"
  ],
  "composer": [
    "Виктор Купревич"
  ],
  "design": [
    "Александр Елизаров"
  ],
  "editor": [
    "Любовь Георгиева"
  ],
  "actors": [
    "Вячеслав Невинный",
    "Клара Румянова",
    "Георгий Бурков",
    "Зинаида Нарышкина"
  ],
  "actors_dubl": [],
  "trivia": [],
  "trailers": [],
  "seasons": [],
  "voiceActing": [
    "Рус. Оригинальный"
  ],
  "subtitle": [],
  "parts": []
}
