{
  "id": 31255,
  "name": "Подарок для самого слабого",
  "name_eng": "",
  "year": 1978,
  "slogan": "—",
  "age": "6+",
  "type": "cartoon",
  "quality": "SD",
  "imdb": "7.7",
  "imdb_id": "0",
  "kinopoisk": "8.0",
  "kinopoisk_id": "256983",
  "world_art": null,
  "world_art_id": null,
  "time": "9 мин.",
  "ads": false,
  "premier": null,
  "premier_rus": null,
  "availability": null,
  "activate_time": "2020-07-12 05:18:00",
  "budget": null,
  "fees_use": null,
  "fees_world": null,
  "fees_rus": null,
  "rate_mpaa": null,
  "description": "Комедийная сказка о необходимости чуткого и внимательного отношения друг к другу. Лев решил заступиться за маленького Зайчишку.",
  "iframe_url": "",
  "iframe_poster": null,
  "poster": "https://img.imgilall.me/movies/franchise/3/1/2/5/5/0/0/0/0/0/610x900_31255.jpg",
  "country": {
    "24": "СССР"
  },
  "collection": [],
  "genre": {
    "53": "Короткометражный"
  },
  "director": [
    "Леонид Каюков"
  ],
  "screenwriter": [
    "Виталий Злотников"
  ],
  "producer": [],
  "operator": [
    "Борис Котов"
  ],
  "composer": [
    "Игорь Ефремов"
  ],
  "design": [
    "Нуратдин Юсупов"
  ],
  "editor": [
    "Г. Смирнова"
  ],
  "actors": [
    "Степан Бубнов",
    "Василий Ливанов",
    "Анатолий Папанов",
    "Клара Румянова",
    "Вячеслав Богачёв",
    "Ирина Карташёва"
  ],
  "actors_dubl": [],
  "trivia": [],
  "trailers": [],
  "seasons": [],
  "voiceActing": [
    "Original"
  ],
  "subtitle": [],
  "parts": []
}
