{
  "id": 24310,
  "name": "Птичка Тари",
  "name_eng": "",
  "year": 1976,
  "slogan": "—",
  "age": "0+",
  "type": "film",
  "quality": "SD",
  "imdb": "7.3",
  "imdb_id": "2265200",
  "kinopoisk": "7.6",
  "kinopoisk_id": "256529",
  "world_art": null,
  "world_art_id": null,
  "time": "9 мин.",
  "ads": false,
  "premier": null,
  "premier_rus": null,
  "availability": null,
  "activate_time": "2020-06-17 17:54:00",
  "budget": null,
  "fees_use": null,
  "fees_world": null,
  "fees_rus": null,
  "rate_mpaa": null,
  "description": "Однажды у крокодила заболели его страшные зубы. И никто не мог ему помочь, кроме маленькой птички Тари…",
  "iframe_url": "",
  "iframe_poster": null,
  "poster": "https://img.imgilall.me/movies/franchise/2/4/3/1/0/0/0/0/0/0/610x900_24310.jpg",
  "country": {
    "24": "СССР"
  },
  "collection": {
    "46": "Советские"
  },
  "genre": {
    "53": "Короткометражный"
  },
  "director": [
    "Геннадий Сокольский"
  ],
  "screenwriter": [
    "Борис Заходер"
  ],
  "producer": [],
  "operator": [
    "Михаил Друян"
  ],
  "composer": [
    "Шандор Каллош"
  ],
  "design": [
    "Ада Никольская",
    "Владимир Зуйков"
  ],
  "editor": [
    "Любовь Георгиева"
  ],
  "actors": [
    "Агарь Власова",
    "Лидия Катаева",
    "Леонид Броневой",
    "Мария Виноградова",
    "Зинаида Нарышкина"
  ],
  "actors_dubl": [],
  "trivia": [],
  "trailers": [],
  "seasons": [],
  "voiceActing": [
    "Original"
  ],
  "subtitle": [],
  "parts": []
}
