{
  "id": 25018,
  "name": "Чарулота",
  "name_eng": "Charulata",
  "year": 1964,
  "slogan": "—",
  "age": null,
  "type": "film",
  "quality": "SD",
  "imdb": "8.2",
  "imdb_id": "0057935",
  "kinopoisk": "7.9",
  "kinopoisk_id": "256412",
  "world_art": null,
  "world_art_id": null,
  "time": "117 мин. / 01:57",
  "ads": false,
  "premier": "1964-04-17",
  "premier_rus": "1964-04-18",
  "availability": "1964-04-19",
  "activate_time": "2020-06-22 18:06:00",
  "budget": null,
  "fees_use": "$77 820",
  "fees_world": null,
  "fees_rus": null,
  "rate_mpaa": null,
  "description": "Чарулота, бездетная жена богатого бенгальского интеллектуала, живет в уединении своего просторного и красивого дома в Калькутте, а за окнами в это время дуют ветры перемен. Ее муж, Бхупати, воодушевленный Миллом и Бентэмом, тратит унаследованное состояние на цели свободы и равенства, издавая либеральный политический еженедельник на английском языке. Но у него нет времени на Чару, которой абсолютно нечем заняться в доме, обслуживаемом, как отлаженный механизм, множеством старых слуг.И вот приезжает Амал, молодой и полный энергии племянник Бхупати. По инициативе Бхупати, между Амалом и Чару завязывается тесная дружба, основанная на общем интересе к литературе. Но под их интеллектуальными играми, однако, прячется более глубокая привязанность и потребность друг в друге, которые сначала они оба полностью не осознают и которые общество никогда не одобрит.",
  "iframe_url": "",
  "iframe_poster": null,
  "poster": "https://img.imgilall.me/movies/franchise/2/5/0/1/8/0/0/0/0/0/610x900_25018.jpg",
  "country": {
    "26": "Индия"
  },
  "collection": [],
  "genre": {
    "8": "Мелодрама",
    "7": "Драма"
  },
  "director": [
    "Сатьяджит Рай"
  ],
  "screenwriter": [
    "Сатьяджит Рай",
    "Рабиндранат Тагор"
  ],
  "producer": [
    "Р.Д. Бансал"
  ],
  "operator": [
    "Субрата Митра"
  ],
  "composer": [
    "Сатьяджит Рай"
  ],
  "design": [
    "Банси Чандрагупта"
  ],
  "editor": [
    "Дулал Дутта"
  ],
  "actors": [
    "Сумитра Чаттерджи",
    "Мадхаби Мухерджи",
    "Шайлен Мухерджи",
    "Шьямал Гхошал",
    "Гитали Рой",
    "Тарапада Басу",
    "Гопалдаш Бхаттачарья",
    "Дилип Босе",
    "Рамеш Чандра Чандра",
    "Сунилканта Дасгупта"
  ],
  "actors_dubl": [],
  "trivia": [],
  "trailers": [],
  "seasons": [],
  "voiceActing": [
    "Рус. Проф. двухголосый"
  ],
  "subtitle": [],
  "parts": []
}
