{
  "id": 23070,
  "name": "Отчим",
  "name_eng": "The Stepfather",
  "year": 2009,
  "slogan": "«This fall Daddy's home»",
  "age": "16+",
  "type": "film",
  "quality": "HD (720p)",
  "imdb": "5.6",
  "imdb_id": "0814335",
  "kinopoisk": "6.3",
  "kinopoisk_id": "258545",
  "world_art": null,
  "world_art_id": null,
  "time": "101 мин. / 01:41",
  "ads": false,
  "premier": "2009-10-16",
  "premier_rus": "2009-10-17",
  "availability": "2009-10-18",
  "activate_time": "2020-10-09 05:37:00",
  "budget": "$20 000 000",
  "fees_use": "$29 062 561",
  "fees_world": "+ $2 135 970 = $31 198 531",
  "fees_rus": null,
  "rate_mpaa": "PG-13",
  "description": "Майкл возвращается домой из военного училища и обнаруживает, что его мать живет в любви и согласии со своим новым бойфрендом, Дэвидом. Двое мужчин узнают друг друга получше, и Майкл начинает замечать все больше и больше странного за тем, кто подставлял плечо его матери.",
  "iframe_url": "",
  "iframe_poster": null,
  "poster": "https://img.imgilall.me/movies/franchise/2/3/0/7/0/0/0/0/0/0/610x900_23070.jpg",
  "country": {
    "1": "США"
  },
  "collection": [],
  "genre": {
    "25": "Криминал",
    "13": "Триллер"
  },
  "director": [
    "Нельсон МакКормик"
  ],
  "screenwriter": [
    "Дональд Э. Уэстлейк",
    "Дж.С. Кардоне",
    "Кэролин Лефкорт"
  ],
  "producer": [
    "Грег Мурадиан",
    "Марк Морган",
    "Дж.С. Кардоне"
  ],
  "operator": [
    "Патрик Кейди"
  ],
  "composer": [
    "Чарли Клаузер"
  ],
  "design": [
    "Стивен Дж. Джордан",
    "Тим Экел",
    "Лин Паоло"
  ],
  "editor": [
    "Эрик Л. Бисон"
  ],
  "actors": [
    "Дилан Уолш",
    "Села Уорд",
    "Пенн Бэджли",
    "Эмбер Хёрд",
    "Шерри Стрингфилд",
    "Пейдж Турко",
    "Джон Тенни",
    "Нэнси Лайнхэн Чарльз",
    "Маркус Харрис",
    "Браден Лемастерс"
  ],
  "actors_dubl": [],
  "trivia": [
    "Сюжет оригинального фильма основан на истории Ричарда Листа, убившего всех своих близких и подавшегося в бега. Его обнаружили только 18 лет спустя, жившим под вымышленным именем. Листа узнал сосед, который посмотрел телепередачу о разыскиваемых преступниках и позвонил в полицию."
  ],
  "trailers": [],
  "seasons": [],
  "voiceActing": [
    "Diva Universal"
  ],
  "subtitle": [],
  "parts": []
}
