{
  "id": 10021,
  "name": "Баязет",
  "name_eng": "",
  "year": 2003,
  "slogan": "«Стоять насмерть»",
  "age": "0+",
  "type": "series",
  "quality": "SD",
  "imdb": "7.0",
  "imdb_id": "0406397",
  "kinopoisk": "7.4",
  "kinopoisk_id": "255604",
  "world_art": null,
  "world_art_id": null,
  "time": "528 мин. всего",
  "ads": false,
  "premier": "2003-10-13",
  "premier_rus": "2003-10-14",
  "availability": "2003-10-15",
  "serial_status": "offline",
  "activate_time": "2019-08-30 12:08:00",
  "budget": "$15 000 000",
  "fees_use": null,
  "fees_world": null,
  "fees_rus": null,
  "rate_mpaa": null,
  "description": "Хроника русско-турецкой войны 1877-1878 годов — осады крепости Баязет. 24 дня немногочисленный русский гарнизон под командованием подполковника Пацевича мучается от голода и жажды, утопает в крови, но не отдает крепости вражеским войскам. На фоне трагедии, среди отчаяния и смерти, расцветает чистое и одновременно греховное чувство — тайная любовь русского офицера и жены командира гарнизона...",
  "iframe_url": "",
  "poster": "https://img.imgilall.me/movies/franchise/1/0/0/2/1/0/0/0/0/0/610x900_10021.jpg",
  "country": {
    "5": "Россия"
  },
  "collection": [],
  "genre": {
    "32": "Военный",
    "22": "Русский",
    "7": "Драма"
  },
  "director": [
    "Андрей Черных",
    "Николай Стамбула"
  ],
  "screenwriter": [
    "Владилен Арсеньев",
    "Эдуард Володарский",
    "Валентин Пикуль"
  ],
  "producer": [
    "Владилен Арсеньев"
  ],
  "operator": [
    "Сергей Мокрицкий"
  ],
  "composer": [
    "Николай Парфенюк"
  ],
  "design": [
    "Владимир Кирс"
  ],
  "editor": [],
  "actors": [
    "Алексей Серебряков",
    "Игнат Акрачков",
    "Лоуис Пьер Бруно",
    "Ольга Будина",
    "Александр Дьяченко",
    "Олег Морозов",
    "Сергей Греков",
    "Сергей Удовик",
    "Александр Ефимов",
    "Вячеслав Степанян"
  ],
  "actors_dubl": [],
  "trivia": [
    "Фильм снят по одноимённому роману Валентина Пикуля.",
    "Съемки фильма проходили в крепости госпитальеров Крак де Шевалье, расположенной в Сирии к востоку от ливанского Триполи на вершине утёса высотой 650 метров.",
    "И русские и турецкие войска пользуются французскими магазинными винтовками образца 1936 года MAS-36."
  ],
  "trailers": [],
  "seasons": [
    {
      "poster": null,
      "release_ru": "2003-10-14",
      "release_world": "2003-10-13",
      "availability": "2003-10-15",
      "iframe_url": "",
      "season": 1,
      "episodes": [
        {
          "episode": 1,
          "name": null,
          "iframe_url": "",
          "iframe_poster": null,
          "release_ru": "2003-10-14",
          "release_world": "2003-10-13",
          "availability": "2003-10-15",
          "voiceActing": [
            "Рус. Оригинальный"
          ],
          "ads": false,
          "subtitle": []
        },
        {
          "episode": 2,
          "name": null,
          "iframe_url": "",
          "iframe_poster": null,
          "release_ru": "2003-10-15",
          "release_world": "2003-10-14",
          "availability": "2003-10-16",
          "voiceActing": [
            "Рус. Оригинальный"
          ],
          "ads": false,
          "subtitle": []
        },
        {
          "episode": 3,
          "name": null,
          "iframe_url": "",
          "iframe_poster": null,
          "release_ru": "2003-10-16",
          "release_world": "2003-10-15",
          "availability": "2003-10-17",
          "voiceActing": [
            "Рус. Оригинальный"
          ],
          "ads": false,
          "subtitle": []
        },
        {
          "episode": 4,
          "name": null,
          "iframe_url": "",
          "iframe_poster": null,
          "release_ru": "2003-10-17",
          "release_world": "2003-10-16",
          "availability": "2003-10-18",
          "voiceActing": [
            "Рус. Оригинальный"
          ],
          "ads": false,
          "subtitle": []
        },
        {
          "episode": 5,
          "name": null,
          "iframe_url": "",
          "iframe_poster": null,
          "release_ru": "2003-10-21",
          "release_world": "2003-10-20",
          "availability": "2003-10-22",
          "voiceActing": [
            "Рус. Оригинальный"
          ],
          "ads": false,
          "subtitle": []
        },
        {
          "episode": 6,
          "name": null,
          "iframe_url": "",
          "iframe_poster": null,
          "release_ru": "2003-10-22",
          "release_world": "2003-10-21",
          "availability": "2003-10-23",
          "voiceActing": [
            "Рус. Оригинальный"
          ],
          "ads": false,
          "subtitle": []
        },
        {
          "episode": 7,
          "name": null,
          "iframe_url": "",
          "iframe_poster": null,
          "release_ru": "2003-10-23",
          "release_world": "2003-10-22",
          "availability": "2003-10-24",
          "voiceActing": [
            "Рус. Оригинальный"
          ],
          "ads": false,
          "subtitle": []
        },
        {
          "episode": 8,
          "name": null,
          "iframe_url": "",
          "iframe_poster": null,
          "release_ru": "2003-10-24",
          "release_world": "2003-10-23",
          "availability": "2003-10-25",
          "voiceActing": [
            "Рус. Оригинальный"
          ],
          "ads": false,
          "subtitle": []
        },
        {
          "episode": 9,
          "name": null,
          "iframe_url": "",
          "iframe_poster": null,
          "release_ru": "2003-10-28",
          "release_world": "2003-10-27",
          "availability": "2003-10-29",
          "voiceActing": [
            "Рус. Оригинальный"
          ],
          "ads": false,
          "subtitle": []
        },
        {
          "episode": 10,
          "name": null,
          "iframe_url": "",
          "iframe_poster": null,
          "release_ru": "2003-10-29",
          "release_world": "2003-10-28",
          "availability": "2003-10-30",
          "voiceActing": [
            "Рус. Оригинальный"
          ],
          "ads": false,
          "subtitle": []
        },
        {
          "episode": 11,
          "name": null,
          "iframe_url": "",
          "iframe_poster": null,
          "release_ru": "2003-10-30",
          "release_world": "2003-10-29",
          "availability": "2003-10-31",
          "voiceActing": [
            "Рус. Оригинальный"
          ],
          "ads": false,
          "subtitle": []
        },
        {
          "episode": 12,
          "name": null,
          "iframe_url": "",
          "iframe_poster": null,
          "release_ru": "2003-10-31",
          "release_world": "2003-10-30",
          "availability": "2003-11-01",
          "voiceActing": [
            "Рус. Оригинальный"
          ],
          "ads": false,
          "subtitle": []
        }
      ]
    }
  ],
  "voiceActing": [
    "Рус. Оригинальный"
  ],
  "subtitle": [],
  "parts": []
}
