{
  "id": 28935,
  "name": "Помутнение разума",
  "name_eng": "Blackout",
  "year": 2007,
  "slogan": "—",
  "age": null,
  "type": "film",
  "quality": "SD",
  "imdb": "5.9",
  "imdb_id": "0",
  "kinopoisk": "5.3",
  "kinopoisk_id": "261074",
  "world_art": null,
  "world_art_id": null,
  "time": "95 мин. / 01:35",
  "ads": false,
  "premier": "2007-09-29",
  "premier_rus": "2007-09-30",
  "availability": "2007-10-01",
  "activate_time": "2020-07-09 14:41:00",
  "budget": null,
  "fees_use": null,
  "fees_world": null,
  "fees_rus": null,
  "rate_mpaa": null,
  "description": "Помутнение разума погружает зрителя в забытые Богом окрестности Бруклина г. Нью-Йорка 14-го августа 2003 года. Фильм исследует природу человека, способного обмануть близких людей в то непростое время, когда они наиболее уязвимы. Основано на реальных событиях.",
  "iframe_url": "",
  "iframe_poster": null,
  "poster": "https://img.imgilall.me/movies/franchise/2/8/9/3/5/0/0/0/0/0/610x900_28935.jpg",
  "country": {
    "1": "США"
  },
  "collection": [],
  "genre": {
    "7": "Драма"
  },
  "director": [
    "Джерри Ламот"
  ],
  "screenwriter": [
    "Джерри Ламот"
  ],
  "producer": [
    "Джудит Айду",
    "Джеффри Райт",
    "Нора Айду"
  ],
  "operator": [
    "Бен Вульф"
  ],
  "composer": [
    "Джордж Дж. Фонтенетт"
  ],
  "design": [
    "Кай Ли",
    "Aissatou Parks"
  ],
  "editor": [
    "Тина Пачеко"
  ],
  "actors": [
    "Джеффри Райт",
    "Зои Салдана",
    "Мелвин Ван Пиблз",
    "Майкл Б. Джордан",
    "ЛаТаня Ричардсон Джексон",
    "Сол Рубинек",
    "Шон Блейкмор",
    "Сьюзэн Келечи Уотсон",
    "Туррон Кофи Аллейне",
    "Киша Батиста"
  ],
  "actors_dubl": [],
  "trivia": [],
  "trailers": [],
  "seasons": [],
  "voiceActing": [
    "JoyStudio"
  ],
  "subtitle": [],
  "parts": []
}
