{
  "id": 21672,
  "name": "Красная жара",
  "name_eng": "Red Heat",
  "year": 1988,
  "slogan": "«Police Captain Ivan Danko came from behind the Iron Curtain to the streets of Chicago, hunting down his country's deadliest criminal. Now Danko's about to team up with the city's most unpredictable lawman»",
  "age": "18+",
  "type": "film",
  "quality": "FHD (1080p)",
  "imdb": "6.1",
  "imdb_id": "0095963",
  "kinopoisk": "6.7",
  "kinopoisk_id": "2697",
  "world_art": null,
  "world_art_id": null,
  "time": "106 мин. / 01:46",
  "ads": false,
  "premier": "1988-06-14",
  "premier_rus": "1988-06-15",
  "availability": "1988-06-16",
  "activate_time": "2020-06-23 01:33:00",
  "budget": "$29 000 000",
  "fees_use": "$34 994 648",
  "fees_world": null,
  "fees_rus": null,
  "rate_mpaa": "R",
  "description": "В доперестроечные времена торговля наркотиками была из ряда вон выходящим преступлением. На борьбу с грузинским мафиози, который используя все связи США, пытается пристрастить к кокаину советских граждан, выходит гроза преступного мира милиционер Иван Данко.Этот парень не любит шутить, и доказательством серьезности его намерений служат большие мускулы и пистолет. Чтобы арестовать бандита, Иван направляется в Чикаго - рассадник капиталистической заразы. Там его помощником становится болтливый полицейский. Вместе они обезвреживают мафиози, разрушив при этом полгорода и расстреляв пару десятков негодяев.",
  "iframe_url": "",
  "iframe_poster": null,
  "poster": "https://img.imgilall.me/movies/franchise/2/1/6/7/2/0/0/0/0/0/610x900_21672.jpg",
  "country": {
    "1": "США",
    "32": "Венгрия"
  },
  "collection": [],
  "genre": {
    "25": "Криминал",
    "19": "Комедия",
    "17": "Боевик",
    "13": "Триллер"
  },
  "director": [
    "Уолтер Хилл"
  ],
  "screenwriter": [
    "Уолтер Хилл",
    "Гарри Клайнер",
    "Трой Кеннеди-Мартин"
  ],
  "producer": [
    "Гордон Кэрролл",
    "Уолтер Хилл",
    "Марио Кассар"
  ],
  "operator": [
    "Мэттью Ф. Леонетти"
  ],
  "composer": [
    "Джеймс Хорнер"
  ],
  "design": [
    "Джон Валлоне",
    "Майкл Коренблит",
    "Ласло Райк"
  ],
  "editor": [
    "Донн Арон",
    "Кармел Дейвис",
    "Фриман А. Дейвис"
  ],
  "actors": [
    "Арнольд Шварценеггер",
    "Джеймс Белуши",
    "Питер Бойл",
    "Эд О’Росс",
    "Лоренс Фишбёрн",
    "Джина Гершон",
    "Ричард Брайт",
    "Дж.В. Смит",
    "Брент Дженнингс",
    "Гретхен Палмер"
  ],
  "actors_dubl": [],
  "trivia": [
    "Первый западный фильм, съёмочной группе которого разрешили снимать на Красной площади в Москве.",
    "Большинство московских сцен на самом деле было снято в Венгрии.",
    "Фильм посвящен памяти постановщика трюков, Бенни Доббинса, который умер от сердечного приступа на съёмочной площадке этого фильма.",
    "Для съёмок сцены в тюрьме в качестве массовки было задействовано около 200 заключенных.",
    "До начала съёмок Арнольд Шварценеггер на протяжении трех месяцев брал уроки русского языка.",
    "До начала съёмок Джеймс Белуши проработал две недели в чикагском полицейском участке.",
    "Иван Данко (Шварценеггер) использует пистолет «Подберин 9,2 мм». Такого пистолета на самом деле не существует. То, что показывают в фильме — это модифицированный «Дезерт Игл Магнум».",
    "В одной из сцен фильма Данко обсуждает проблему героина в Америке. Также он называет место в США, где данная проблема стоит наиболее остро — Гарлем, однако, в английских субтитрах данное место указано как Майями.",
    "До начала съёмок Уолтер Хилл попросил Арнольда Шварценеггера похудеть на 10 фунтов (примерно 4,5 кг), а Джеймса Белуши — поправиться на 10 фунтов.",
    "В кофейне Ридзик показывает Данко различные полицейские отчеты, которые ему нужно заполнить. Если присмотреться внимательно к бланку, который показывают крупным планом, то можно увидеть его название — «Бесполезный отчет о происшествии полиции Чикаго».",
    "У создателей фильма ушло шесть месяцев, для того чтобы получить разрешение на съёмки на Красной площади. Им разрешили снимать в самом центре Москвы лишь потому, что главный герой фильма был русским.",
    "Имя и подпись, стоящие до Ивана Данко в гостевой книге гостиницы, принадлежат Джиму Моррисону, лидеру группы The Doors.",
    "Музыка в начальных и конечных титрах — фрагмент «Кантаты к 20-летию Октябрьской революции» Прокофьева, о чем в титрах даже не упоминается.",
    "Наркодилера, одетого в белый костюм, которого встретил Роставели на автобусной станции, зовут Лупо. Это тот же самый Лупо из фильма «Все меры предосторожности » (1987): он появляется в самой концовке фильма, после того как герой Ника Нолти застрелил героя Пауерса Бута."
  ],
  "trailers": [],
  "seasons": [],
  "voiceActing": [
    "Рус. Проф. многоголосый",
    "R5",
    "А. Гаврилов",
    "Дмитрий \"Goblin\" Пучков",
    "Л. Володарский",
    "В. Горчаков",
    "Ю. Живов",
    "Eng.Original"
  ],
  "subtitle": [
    "Рус. полные"
  ],
  "parts": []
}
