{
  "id": 41547,
  "name": "Котенок с улицы Лизюкова",
  "name_eng": "",
  "year": 1988,
  "slogan": "—",
  "age": "6+",
  "type": "cartoon",
  "quality": "HD (720p)",
  "imdb": "7.1",
  "imdb_id": "5099882",
  "kinopoisk": "7.8",
  "kinopoisk_id": "260076",
  "world_art": null,
  "world_art_id": null,
  "time": "9 мин.",
  "ads": false,
  "premier": null,
  "premier_rus": null,
  "availability": null,
  "activate_time": "2020-11-11 05:47:00",
  "budget": null,
  "fees_use": null,
  "fees_world": null,
  "fees_rus": null,
  "rate_mpaa": null,
  "description": "О том, как котенок хотел превратиться в зверя, которого бы все боялись.",
  "iframe_url": "",
  "iframe_poster": null,
  "poster": "https://img.imgilall.me/movies/franchise/4/1/5/4/7/0/0/0/0/0/610x900_41547.jpg",
  "country": {
    "24": "СССР"
  },
  "collection": [],
  "genre": {
    "53": "Короткометражный"
  },
  "director": [
    "Вячеслав Котёночкин"
  ],
  "screenwriter": [
    "Виталий Злотников"
  ],
  "producer": [],
  "operator": [
    "Александр Чеховский"
  ],
  "composer": [
    "Владимир Мигуля"
  ],
  "design": [
    "Алексей Котеночкин"
  ],
  "editor": [
    "Маргарита Михеева"
  ],
  "actors": [
    "Вячеслав Невинный",
    "Владимир Сошальский",
    "Маргарита Корабельникова",
    "Ольга Аросева"
  ],
  "actors_dubl": [],
  "trivia": [],
  "trailers": [],
  "seasons": [],
  "voiceActing": [
    "Original"
  ],
  "subtitle": [],
  "parts": []
}
