{
  "id": 40329,
  "name": "Неестественный повод",
  "name_eng": "Clean Break",
  "year": 2008,
  "slogan": "«Tara Reid is... Julia McKay»",
  "age": "16+",
  "type": "film",
  "quality": "HD (720p)",
  "imdb": "4.2",
  "imdb_id": "0867464",
  "kinopoisk": "4.9",
  "kinopoisk_id": "262913",
  "world_art": null,
  "world_art_id": null,
  "time": "93 мин. / 01:33",
  "ads": false,
  "premier": "2008-04-23",
  "premier_rus": "2008-04-24",
  "availability": "2008-04-25",
  "activate_time": "2020-10-31 10:31:00",
  "budget": "$3 000 000",
  "fees_use": null,
  "fees_world": null,
  "fees_rus": null,
  "rate_mpaa": null,
  "description": "Ревнивый муж, продажный полицейский и храбрая женщина. Сложная история, полная сюрпризов, в которой Джулия оказывается вовлеченной в борьбу за свою жизнь. Когда ее муж начинает подозревать ее в измене он начинает сходить с ума и допускает, чтобы ее убили. Но Джулии удается симулировать свое убийство и через некоторое время она появляется, но многие оказываются заинтересованы в том, чтобы она была мертва...",
  "iframe_url": "",
  "iframe_poster": null,
  "poster": "https://img.imgilall.me/movies/franchise/4/0/3/2/9/0/0/0/0/0/610x900_40329.jpg",
  "country": {
    "1": "США"
  },
  "collection": [],
  "genre": {
    "13": "Триллер",
    "7": "Драма"
  },
  "director": [
    "Роберт Малинфант"
  ],
  "screenwriter": [
    "Роберт Малинфант",
    "Жак Эткин",
    "Жак Хэйткин"
  ],
  "producer": [
    "Мануэль Корби",
    "Роджер Корби",
    "Джон Дж. Келли"
  ],
  "operator": [
    "Жак Эткин"
  ],
  "composer": [
    "Шон Мюррэй"
  ],
  "design": [
    "Пеп Оливер"
  ],
  "editor": [
    "Пол Дж. Волк"
  ],
  "actors": [
    "Тара Рид",
    "Колм Мини",
    "Энгус Макфадьен",
    "Франсеск Гарридо",
    "Роберт Галзарано",
    "Лорена Берналь",
    "Минго Рафольс",
    "Джордж Уэндт",
    "Марта Бейарри",
    "Рохер Дельмонт"
  ],
  "actors_dubl": [],
  "trivia": [],
  "trailers": [],
  "seasons": [],
  "voiceActing": [
    "Diva Universal"
  ],
  "subtitle": [],
  "parts": []
}
