{
  "id": 992,
  "name": "Париж",
  "name_eng": "Paris",
  "year": 2008,
  "slogan": "—",
  "age": "16+",
  "type": "film",
  "quality": "HD (720p)",
  "imdb": "6.8",
  "imdb_id": "0869994",
  "kinopoisk": "7.4",
  "kinopoisk_id": "264843",
  "world_art": null,
  "world_art_id": null,
  "time": "130 мин. / 02:10",
  "ads": false,
  "premier": "2008-01-19",
  "premier_rus": "2008-12-04",
  "availability": "2008-12-05",
  "activate_time": "2018-07-05 14:33:02",
  "budget": "$12 000 000",
  "fees_use": "$1 010 194",
  "fees_world": "+ $20 805 681 = $21 815 875",
  "fees_rus": "$318 061",
  "rate_mpaa": "R",
  "description": "Париж – город любви, город свободы, город беспечной жизни. Каждый мечтает хоть раз в жизни увидеть Эйфелеву башню или отведать свежих круассанов на берегу Сены. Легкость французской столицы притягивает людей со всего света. Но для своих жителей город поворачивается и другой стороной. Одинокая мать троих детей постоянно спорит со своим нелюдимым братом. Уважаемый профессор истории борется с собственными чувствами к юной студентке. А хозяйка булочной отчаивается в безнадежных попытках найти себе подсобного работника. Все эти маленькие истории делают Париж городом, который и любят, и ненавидят. Да, именно такой он – Париж…",
  "iframe_url": "",
  "iframe_poster": "https://img.imgilall.me/movies/video/4/9/7/9/7/0/0/0/0/0/800x450_49797.jpeg",
  "poster": "https://img.imgilall.me/movies/franchise/9/9/2/0/0/0/0/0/0/0/610x900_992.jpg",
  "country": {
    "9": "Франция"
  },
  "collection": [],
  "genre": {
    "19": "Комедия",
    "10": "Зарубежный",
    "8": "Мелодрама",
    "7": "Драма"
  },
  "director": [
    "Седрик Клапиш"
  ],
  "screenwriter": [
    "Седрик Клапиш"
  ],
  "producer": [
    "Бруно Леви",
    "Жан-Давид Лефевр",
    "Седрик Клапиш"
  ],
  "operator": [
    "Кристоф Бокарн"
  ],
  "composer": [
    "Роберт Бурк",
    "Лоик Дюри",
    "Кристоф Минк"
  ],
  "design": [
    "Мари Шеминаль",
    "Анн Скотт"
  ],
  "editor": [
    "Френсин Сандберг"
  ],
  "actors": [
    "Фабрис Лукини",
    "Ромен Дюрис",
    "Жофрей Платель",
    "Мелани Лоран",
    "Карин Вьяр",
    "Альбер Дюпонтель",
    "Зинедин Суалем",
    "Аннелиз Эсме",
    "Одри Марней",
    "Ксавье Робик"
  ],
  "actors_dubl": [],
  "trivia": [],
  "trailers": [],
  "seasons": [],
  "voiceActing": [
    "Рус. Проф. многоголосый"
  ],
  "subtitle": [],
  "parts": []
}
