{
  "id": 7119,
  "name": "Чиcтка до блеска",
  "name_eng": "Sunshine Cleaning",
  "year": 2008,
  "slogan": "«life's a messy business»",
  "age": "18+",
  "type": "film",
  "quality": "HD (720p)",
  "imdb": "6.8",
  "imdb_id": "0862846",
  "kinopoisk": "6.6",
  "kinopoisk_id": "263383",
  "world_art": null,
  "world_art_id": null,
  "time": "91 мин. / 01:31",
  "ads": false,
  "premier": "2008-01-18",
  "premier_rus": null,
  "availability": null,
  "activate_time": "2019-03-27 15:29:50",
  "budget": "$8 000 000",
  "fees_use": "$12 062 558",
  "fees_world": "+ $4 476 276 = $16 538 834",
  "fees_rus": null,
  "rate_mpaa": "R",
  "description": "«Чистка до блеска» – это название фирмы по уборке особо грязных мест преступлений, которую открывают две разнохарактерных сестры Роуз и Нора Лорковски. И всё ради того, чтобы отправить сына одной из них в частную школу.",
  "iframe_url": "",
  "iframe_poster": "https://img.imgilall.me/movies/video/7/6/8/2/9/0/0/0/0/0/800x450_76829.jpeg",
  "poster": "https://img.imgilall.me/movies/franchise/7/1/1/9/0/0/0/0/0/0/610x900_7119.jpg",
  "country": {
    "1": "США"
  },
  "collection": [],
  "genre": {
    "19": "Комедия",
    "10": "Зарубежный",
    "7": "Драма"
  },
  "director": [
    "Кристин Джэффс"
  ],
  "screenwriter": [
    "Меган Холли"
  ],
  "producer": [
    "Джеб Броди",
    "Питер Сараф",
    "Марк Тёртлтауб"
  ],
  "operator": [
    "Джон Тун"
  ],
  "composer": [
    "Майкл Пенн"
  ],
  "design": [
    "Джозеф Т. Гэррити",
    "Гай Барнс",
    "Аликс Фридберг"
  ],
  "editor": [
    "Хезер Персонс"
  ],
  "actors": [
    "Эми Адамс",
    "Эмили Блант",
    "Алан Аркин",
    "Джейсон Спивак",
    "Стив Зан",
    "Мэри Линн Райскаб",
    "Клифтон Коллинз мл.",
    "Эрик Кристиан Олсен",
    "Пол Дули",
    "Кевин Чэпмен"
  ],
  "actors_dubl": [],
  "trivia": [
    "Сюжет фильма основан на радиорепортаже, прозвучавшем в эфире новостной программы крупной американской радиокомпании National Public Radio в 2001 году, в котором шла речь о двух женщинах, открывших в предместье Сиэтла службу по удалению и чистке опасных органических загрязнений. Там, правда, женщины были просто хорошими подругами, а не сёстрами как в фильме."
  ],
  "trailers": [],
  "seasons": [],
  "voiceActing": [
    "Рус. Одноголосый",
    "Eng.Original"
  ],
  "subtitle": [],
  "parts": []
}
