{
  "id": 38415,
  "name": "Гнев и правосудие",
  "name_eng": "Janta Ki Adalat",
  "year": 1994,
  "slogan": "—",
  "age": null,
  "type": "film",
  "quality": "SD",
  "imdb": "5.2",
  "imdb_id": "0361764",
  "kinopoisk": null,
  "kinopoisk_id": "266001",
  "world_art": null,
  "world_art_id": null,
  "time": "135 мин. / 02:15",
  "ads": false,
  "premier": "1994-07-29",
  "premier_rus": "1994-07-30",
  "availability": "1994-07-31",
  "activate_time": "2020-10-12 08:33:00",
  "budget": null,
  "fees_use": null,
  "fees_world": null,
  "fees_rus": null,
  "rate_mpaa": null,
  "description": "Возлюбленная Шанкара накладывает на себя руки, когда ее попытался изнасиловать глава местной администрации. Обвиняют в убийстве Шанкара, который давно ставил палки в колеса коррумпированным чиновникам. Шанкар попадает в тюрьму, откуда бежит, чтобы восстановить справедливость.",
  "iframe_url": "",
  "iframe_poster": null,
  "poster": "https://img.imgilall.me/movies/franchise/3/8/4/1/5/0/0/0/0/0/610x900_38415.jpg",
  "country": {
    "26": "Индия"
  },
  "collection": [],
  "genre": {
    "17": "Боевик"
  },
  "director": [
    "Т.Л.В. Прасад"
  ],
  "screenwriter": [],
  "producer": [],
  "operator": [],
  "composer": [
    "Баппи Лахири"
  ],
  "design": [],
  "editor": [],
  "actors": [
    "Митхун Чакраборти",
    "Садашив Амрапуркар",
    "Сулабха Эрийа",
    "Асрани",
    "Лакшмикант Берде",
    "Гаутами",
    "Мадху",
    "Алок Нат",
    "Шива Риндани",
    "Сайгал"
  ],
  "actors_dubl": [],
  "trivia": [],
  "trailers": [],
  "seasons": [],
  "voiceActing": [
    "Diva Universal"
  ],
  "subtitle": [],
  "parts": []
}
