{
  "id": 25829,
  "name": "Барби: 12 танцующих принцесс",
  "name_eng": "Barbie in the 12 Dancing Princesses",
  "year": 2006,
  "slogan": "«Enchanted Dancing in a Magical World!»",
  "age": null,
  "type": "cartoon",
  "quality": "SD",
  "imdb": "6.8",
  "imdb_id": "0859594",
  "kinopoisk": "6.4",
  "kinopoisk_id": "260924",
  "world_art": null,
  "world_art_id": null,
  "time": "83 мин. / 01:23",
  "ads": false,
  "premier": "2006-09-19",
  "premier_rus": "2006-09-20",
  "availability": "2006-09-21",
  "activate_time": "2020-06-26 17:39:00",
  "budget": null,
  "fees_use": null,
  "fees_world": null,
  "fees_rus": null,
  "rate_mpaa": null,
  "description": "Когда отцу Женевьевы угрожает опасность потерять королевство, Принцесса и ее сестры объединяются, чтобы сохранить день и помочь отцу справиться с трудностями. Благодаря этому они познают, что сила семьи может преодолеть все препятствия.",
  "iframe_url": "",
  "iframe_poster": null,
  "poster": "https://img.imgilall.me/movies/franchise/2/5/8/2/9/0/0/0/0/0/610x900_25829.jpg",
  "country": {
    "7": "Канада",
    "1": "США"
  },
  "collection": [],
  "genre": {
    "33": "Семейный"
  },
  "director": [
    "Грег Ричардсон"
  ],
  "screenwriter": [
    "Элана Лессер",
    "Клифф Руби",
    "Рут Хэндлер"
  ],
  "producer": [
    "Шеа Вейгмен",
    "Шелли Теббат"
  ],
  "operator": [],
  "composer": [
    "Арни Рот"
  ],
  "design": [
    "Уолтер П. Мартишиус"
  ],
  "editor": [
    "Колин Адамс",
    "Джеймс Бошир"
  ],
  "actors": [
    "Келли Шеридан",
    "Кэтрин О’Хара",
    "Николь Оливер",
    "Дженнифер Коппинг",
    "Лалаиниа Линдбьерг",
    "Кэтлин Барр",
    "Кьяра Дзанни",
    "Эдриэнн Картер",
    "Эшли Болл",
    "Бритт Маккиллип"
  ],
  "actors_dubl": [],
  "trivia": [],
  "trailers": [],
  "seasons": [],
  "voiceActing": [
    "Cartoon Network"
  ],
  "subtitle": [],
  "parts": []
}
