{
  "id": 18112,
  "name": "Вчера, сегодня, завтра",
  "name_eng": "Ieri oggi domani",
  "year": 1963,
  "slogan": "«Together! The Most Rib-Tickling Team Since Adam and Eve!»",
  "age": "16+",
  "type": "film",
  "quality": "FHD (1080p)",
  "imdb": "7.3",
  "imdb_id": "0057171",
  "kinopoisk": "7.9",
  "kinopoisk_id": "26822",
  "world_art": null,
  "world_art_id": null,
  "time": "114 мин. / 01:54",
  "ads": false,
  "premier": "1963-12-21",
  "premier_rus": "1963-12-22",
  "availability": "1963-12-23",
  "activate_time": "2020-05-07 23:27:00",
  "budget": null,
  "fees_use": null,
  "fees_world": null,
  "fees_rus": null,
  "rate_mpaa": null,
  "description": "Софи Лорен и Марчелло Мастроянни исполнили здесь по три роли в трех комедийных новеллах о том, как итальянские женщины добиваются желаемого с помощью своей сексуальной привлекательности.Очень эротично выглядит Лорен, сыгравшая: жену безработного, вынужденную торговать контрабандными сигаретами, и рожать детей одного за другим, чтобы судебные приставы не описали имущество; эгоистичную светскую даму, выкидывающую своего любовника из автомобиля из-за ерунды; девицу легкого поведения, дающую обет целомудрия на целую неделю в тот момент, когда приехавший к ней любовник уже готов удушить ее в порыве страсти.Во всех этих историях несчастный герой Марчелло Мастроянни пасует перед животной энергией своей пассии.",
  "iframe_url": "",
  "iframe_poster": null,
  "poster": "https://img.imgilall.me/movies/franchise/1/8/1/1/2/0/0/0/0/0/610x900_18112.jpg",
  "country": {
    "8": "Италия",
    "9": "Франция"
  },
  "collection": [],
  "genre": {
    "19": "Комедия",
    "8": "Мелодрама"
  },
  "director": [
    "Витторио Де Сика"
  ],
  "screenwriter": [
    "Эдуардо Де Филиппо",
    "Чезаре Дзаваттини",
    "Изабелла Кварантотти"
  ],
  "producer": [
    "Карло Понти"
  ],
  "operator": [
    "Джузеппе Ротунно"
  ],
  "composer": [
    "Армандо Тровайоли"
  ],
  "design": [
    "Эцио Фриджерио",
    "Пьеро Този",
    "Эцио Алтери"
  ],
  "editor": [
    "Адриана Новелли"
  ],
  "actors": [
    "Софи Лорен",
    "Марчелло Мастроянни",
    "Альдо Джуффре",
    "Агостино Сальвьетти",
    "Лино Маттера",
    "Текла Скарано",
    "Сильвия Монелли",
    "Карло Кроччоло",
    "Паскуале Ченнамо",
    "Тонино Чанчи"
  ],
  "actors_dubl": [
    "Серафима Холина",
    "Евгений Весник",
    "Степан Бубнов",
    "Владимир Осенев",
    "Алексей Полевой"
  ],
  "trivia": [
    "В одном из эпизодов Анна садится в красный автомобиль. Это крайне редкая модель Ferrari 250 GT California Spyder SWB 1960 года выпуска. Было собрано всего 56 таких машин. Одна из них на аукционе в 2010 году ушла за $10 миллионов."
  ],
  "trailers": [],
  "seasons": [],
  "voiceActing": [
    "Рус. Проф. многоголосый",
    "Ital. Original"
  ],
  "subtitle": [],
  "parts": []
}
