{
  "id": 43201,
  "name": "Сказка о мертвой царевне и о семи богатырях",
  "name_eng": "",
  "year": 1951,
  "slogan": "—",
  "age": "12+",
  "type": "cartoon",
  "quality": "SD",
  "imdb": "7.6",
  "imdb_id": null,
  "kinopoisk": "7.8",
  "kinopoisk_id": "260006",
  "world_art": null,
  "world_art_id": null,
  "time": "32 мин.",
  "ads": false,
  "premier": null,
  "premier_rus": null,
  "availability": null,
  "activate_time": "2020-12-28 17:13:00",
  "budget": null,
  "fees_use": null,
  "fees_world": null,
  "fees_rus": null,
  "rate_mpaa": null,
  "description": "Мультипликационный фильм по сказке А. С. Пушкина. Новая жена царя хочет избавиться от своей падчерицы и отправляет её в лес на верную гибель. Царевна находит приют в лесной чаще у семи богатырей. Царица, узнав об этом, обманом отравляет её…",
  "iframe_url": "",
  "iframe_poster": null,
  "poster": "https://img.imgilall.me/movies/franchise/4/3/2/0/1/0/0/0/0/0/610x900_43201.jpg",
  "country": {
    "24": "СССР"
  },
  "collection": [],
  "genre": {
    "6": "Фэнтези",
    "53": "Короткометражный",
    "33": "Семейный",
    "8": "Мелодрама"
  },
  "director": [
    "Иван Иванов-Вано"
  ],
  "screenwriter": [
    "Иван Иванов-Вано",
    "Юрий Олеша",
    "Александр Пушкин"
  ],
  "producer": [],
  "operator": [
    "Николай Воинов"
  ],
  "composer": [
    "Юрий Никольский"
  ],
  "design": [
    "Лев Мильчин",
    "Виктор Никитин"
  ],
  "editor": [
    "Нина Майорова"
  ],
  "actors": [],
  "actors_dubl": [],
  "trivia": [],
  "trailers": [],
  "seasons": [],
  "voiceActing": [
    "Рус. Оригинальный"
  ],
  "subtitle": [],
  "parts": []
}
