{
  "id": 25698,
  "name": "Верните Рекса",
  "name_eng": "",
  "year": 1975,
  "slogan": "—",
  "age": "6+",
  "type": "cartoon",
  "quality": "SD",
  "imdb": "7.7",
  "imdb_id": "5871806",
  "kinopoisk": "8.2",
  "kinopoisk_id": "260142",
  "world_art": null,
  "world_art_id": null,
  "time": "16 мин.",
  "ads": false,
  "premier": null,
  "premier_rus": null,
  "availability": null,
  "activate_time": "2020-07-08 02:46:00",
  "budget": null,
  "fees_use": null,
  "fees_world": null,
  "fees_rus": null,
  "rate_mpaa": null,
  "description": "Фильм рассказывает о благородной профессии ветеринарного врача, о дружбе мальчика с собакой. Верный пёс отдал жизнь за маленького друга...",
  "iframe_url": "",
  "iframe_poster": null,
  "poster": "https://img.imgilall.me/movies/franchise/2/5/6/9/8/0/0/0/0/0/610x900_25698.jpg",
  "country": {
    "24": "СССР"
  },
  "collection": [],
  "genre": {
    "53": "Короткометражный"
  },
  "director": [
    "Владимир Попов",
    "Владимир Пекарь"
  ],
  "screenwriter": [
    "Арон Каневский"
  ],
  "producer": [],
  "operator": [
    "Кабул Расулов"
  ],
  "composer": [
    "Евгений Крылатов"
  ],
  "design": [
    "Петр Репкин",
    "Сергей Маракасов",
    "Дмитрий Анпилов"
  ],
  "editor": [
    "Наталия Степанцева"
  ],
  "actors": [
    "Светлана Харлап",
    "Всеволод Санаев",
    "Вячеслав Невинный",
    "Евгений Леонов"
  ],
  "actors_dubl": [],
  "trivia": [],
  "trailers": [],
  "seasons": [],
  "voiceActing": [
    "Original"
  ],
  "subtitle": [],
  "parts": []
}
