{
  "id": 17427,
  "name": "Кабеи",
  "name_eng": "Kâbê",
  "year": 2007,
  "slogan": "—",
  "age": "16+",
  "type": "film",
  "quality": "SD",
  "imdb": "7.5",
  "imdb_id": "0855852",
  "kinopoisk": "7.6",
  "kinopoisk_id": "279895",
  "world_art": null,
  "world_art_id": null,
  "time": "132 мин. / 02:12",
  "ads": false,
  "premier": "2008-01-26",
  "premier_rus": "2008-09-25",
  "availability": "2008-09-26",
  "activate_time": "2020-05-01 13:23:00",
  "budget": null,
  "fees_use": "$14 416",
  "fees_world": null,
  "fees_rus": "$7 018",
  "rate_mpaa": null,
  "description": "Во времена  жесткого внутреннего террора, когда Япония готовится вступить во Вторую мировую войну, муж главной героини попадает в лагерь из-за своих политических взглядов.\r  \rКабеи, оставшаяся одна с двумя детьми, не дает себе сдаться: назло всем - правительству, родному отцу, всему миру,- она не отказывается от мужа. Ее жизнь превращается в пример незаметного, непафосного, лишенного идеологии героизма,  когда нужно накормить детей, послать в тюрьму теплое кимоно, сходить на собрание жильцов… И все это так, чтобы окружающие не заметили, насколько тебе тяжело.",
  "iframe_url": "",
  "iframe_poster": null,
  "poster": "https://img.imgilall.me/movies/franchise/1/7/4/2/7/0/0/0/0/0/610x900_17427.jpg",
  "country": {
    "18": "Япония"
  },
  "collection": [],
  "genre": {
    "7": "Драма"
  },
  "director": [
    "Ёдзи Ямада"
  ],
  "screenwriter": [
    "Теруё Ногами",
    "Ёдзи Ямада",
    "Эмико Хирамацу"
  ],
  "producer": [
    "Хироси Фукадзава",
    "Такаси Ядзима",
    "Чиаки Нодзи"
  ],
  "operator": [
    "Муцуо Наганума"
  ],
  "composer": [
    "Исао Томита"
  ],
  "design": [
    "Мицуо Дэгава"
  ],
  "editor": [
    "Ивао Исии"
  ],
  "actors": [
    "Таданобу Асано",
    "Маюми Танака",
    "Мираи Сида",
    "Тиэко Байсё",
    "Дэндэн",
    "Саюри Ёсинага",
    "Мицуру Фукикоси",
    "Даисукэ Гори",
    "Кэйко Тода",
    "Митиэ Томидзава"
  ],
  "actors_dubl": [],
  "trivia": [],
  "trailers": [],
  "seasons": [],
  "voiceActing": [
    "Рус. Проф. многоголосый",
    "Japan Original"
  ],
  "subtitle": [],
  "parts": []
}
