{
  "id": 45205,
  "name": "Маленький апокалипсис",
  "name_eng": "Küçük Kiyamet",
  "year": 2006,
  "slogan": "—",
  "age": null,
  "type": "series",
  "quality": "SD",
  "imdb": "6.3",
  "imdb_id": "0845474",
  "kinopoisk": null,
  "kinopoisk_id": "270334",
  "world_art": null,
  "world_art_id": null,
  "time": "90 мин. / 01:30",
  "ads": false,
  "premier": "2006-12-22",
  "premier_rus": "2006-12-23",
  "availability": "2006-12-24",
  "serial_status": "offline",
  "activate_time": "2021-03-23 17:28:00",
  "budget": null,
  "fees_use": null,
  "fees_world": null,
  "fees_rus": null,
  "rate_mpaa": null,
  "description": null,
  "iframe_url": "",
  "poster": "https://img.imgilall.me/movies/franchise/4/5/2/0/5/0/0/0/0/0/610x900_45205.jpg",
  "country": {
    "36": "Турция"
  },
  "collection": [],
  "genre": {
    "26": "Ужасы",
    "6": "Фэнтези",
    "7": "Драма"
  },
  "director": [
    "Дурул Тайлан",
    "Ягмур Тайлан"
  ],
  "screenwriter": [
    "Dogu Yücel"
  ],
  "producer": [
    "Хайри Аслан",
    "Aydogan Gundogdu"
  ],
  "operator": [
    "Сойкут Туран"
  ],
  "composer": [
    "Кевин Мур"
  ],
  "design": [
    "Фикрет Соганджи",
    "Ясар Картоглу"
  ],
  "editor": [
    "Чичек Кахраман"
  ],
  "actors": [
    "Башак Кёклюкая",
    "Джансель Эльчин",
    "Биннур Кая",
    "Илькер Аксум",
    "Бора Аккаш",
    "Эдже Экси",
    "Serra Görgünlü",
    "Дениз Гюндогду",
    "Kayra Aleyna Zabçi",
    "Озгюр Чевик"
  ],
  "actors_dubl": [],
  "trivia": [],
  "trailers": [],
  "seasons": [
    {
      "poster": null,
      "release_ru": null,
      "release_world": null,
      "availability": null,
      "iframe_url": "",
      "season": 1,
      "episodes": [
        {
          "episode": 1,
          "name": null,
          "iframe_url": "",
          "iframe_poster": null,
          "release_ru": null,
          "release_world": null,
          "availability": null,
          "voiceActing": [
            "Рус. хардсаб"
          ],
          "ads": false,
          "subtitle": []
        },
        {
          "episode": 2,
          "name": null,
          "iframe_url": "",
          "iframe_poster": null,
          "release_ru": null,
          "release_world": null,
          "availability": null,
          "voiceActing": [
            "Рус. хардсаб"
          ],
          "ads": false,
          "subtitle": []
        },
        {
          "episode": 3,
          "name": null,
          "iframe_url": "",
          "iframe_poster": null,
          "release_ru": null,
          "release_world": null,
          "availability": null,
          "voiceActing": [
            "Рус. хардсаб"
          ],
          "ads": false,
          "subtitle": []
        },
        {
          "episode": 4,
          "name": null,
          "iframe_url": "",
          "iframe_poster": null,
          "release_ru": null,
          "release_world": null,
          "availability": null,
          "voiceActing": [
            "Рус. хардсаб"
          ],
          "ads": false,
          "subtitle": []
        }
      ]
    }
  ],
  "voiceActing": [
    "Рус. хардсаб"
  ],
  "subtitle": [],
  "parts": []
}
