{
  "id": 23365,
  "name": "Страх[и] темноты",
  "name_eng": "Peur(s) du noir",
  "year": 2007,
  "slogan": "«И не только»",
  "age": "16+",
  "type": "cartoon",
  "quality": "SD",
  "imdb": "6.7",
  "imdb_id": "0792986",
  "kinopoisk": "6.8",
  "kinopoisk_id": "275429",
  "world_art": null,
  "world_art_id": null,
  "time": "78 мин. / 01:18",
  "ads": false,
  "premier": "2007-10-21",
  "premier_rus": "2008-07-17",
  "availability": "2008-07-18",
  "activate_time": "2020-06-25 14:56:00",
  "budget": null,
  "fees_use": "$77 876",
  "fees_world": "+ $369 052 = $446 928",
  "fees_rus": "$44 206",
  "rate_mpaa": null,
  "description": "Уникальный анимационный проект, объединивший лучших художников в жанре комиксов. Впервые им было предложено «выложить» на кинопленку мурашки по коже,  обнаженные нервы и дрожь потных рук – все, что связано с самым древним человеческим страхом – страхом темноты.Прикосновение паучьих  лапок, странные звуки в пустом доме, ощущение чужого присутствия и собачий вой в тишине ночи… Стильный черно-белый кошмар, который не стоит смотреть в одиночестве на сон грядущий.",
  "iframe_url": "",
  "iframe_poster": null,
  "poster": "https://img.imgilall.me/movies/franchise/2/3/3/6/5/0/0/0/0/0/610x900_23365.jpg",
  "country": {
    "9": "Франция"
  },
  "collection": [],
  "genre": {
    "26": "Ужасы",
    "24": "Детектив"
  },
  "director": [
    "Блатч",
    "Чарльз Бернс",
    "Мари Кайу"
  ],
  "screenwriter": [
    "Блатч",
    "Чарльз Бернс",
    "Пьер Ди Сиулло"
  ],
  "producer": [
    "Кристоф Янкович",
    "Валери Шерман",
    "Женевьева Лемаль"
  ],
  "operator": [],
  "composer": [
    "Лорен Перез"
  ],
  "design": [
    "Этьен Робиаль"
  ],
  "editor": [
    "Селин Келепикис"
  ],
  "actors": [
    "Жиль Альма",
    "Ор Атика",
    "Франсуа Кретон",
    "Гийом Депардье",
    "Сара-Лора Эстранья",
    "Николя Ферумон",
    "Николь Гарсия",
    "Артур Аш",
    "Кристиан Эк",
    "Кристиан Хинкер"
  ],
  "actors_dubl": [],
  "trivia": [],
  "trailers": [],
  "seasons": [],
  "voiceActing": [
    "Diva Universal"
  ],
  "subtitle": [],
  "parts": []
}
