{
  "id": 41338,
  "name": "Красные цвета любви",
  "name_eng": "Red: The Dark Side",
  "year": 2007,
  "slogan": "«Somewhere a fear of love... Somewhere a love of fear...»",
  "age": "12+",
  "type": "film",
  "quality": "SD",
  "imdb": "3.3",
  "imdb_id": "0896968",
  "kinopoisk": "7.2",
  "kinopoisk_id": "279051",
  "world_art": null,
  "world_art_id": null,
  "time": "105 мин. / 01:45",
  "ads": false,
  "premier": "2007-03-09",
  "premier_rus": "2007-03-10",
  "availability": "2007-03-11",
  "activate_time": "2020-11-11 02:12:00",
  "budget": null,
  "fees_use": null,
  "fees_world": null,
  "fees_rus": null,
  "rate_mpaa": null,
  "description": "Промышленный магнат Нил Оберой смертельно болен. Вернуться с того света ему помогает донорское сердце погибшего в автомобильной катастрофе предпринимателя. Желая хоть как-то помочь вдове своего донора, Нил встречается с ней и влюбляется в нее. Но оказывается, что смерть ее мужа была не просто несчастным случаем...",
  "iframe_url": "",
  "iframe_poster": null,
  "poster": "https://img.imgilall.me/movies/franchise/4/1/3/3/8/0/0/0/0/0/610x900_41338.jpg",
  "country": {
    "26": "Индия"
  },
  "collection": [],
  "genre": {
    "13": "Триллер",
    "8": "Мелодрама",
    "7": "Драма"
  },
  "director": [
    "Викрам Бхатт"
  ],
  "screenwriter": [
    "Маной Тьяги"
  ],
  "producer": [
    "Сунил Чайнани",
    "Самир Шривастав",
    "Салил Дешпандэ"
  ],
  "operator": [
    "Правин Бхатт"
  ],
  "composer": [
    "Раджу Рао",
    "Химеш Решаммия"
  ],
  "design": [
    "Виолет Монис"
  ],
  "editor": [
    "Сендип Френсис"
  ],
  "actors": [
    "Афтаб Шивдасани",
    "Селина Джейтли",
    "Амрита Арора",
    "Амин Хаджи",
    "Аджай Джадхав",
    "Анудж Сахена",
    "Кишори Шахан",
    "Сушант Сингх"
  ],
  "actors_dubl": [],
  "trivia": [],
  "trailers": [],
  "seasons": [],
  "voiceActing": [
    "Diva Universal"
  ],
  "subtitle": [],
  "parts": []
}
