{
  "id": 19414,
  "name": "Желтый платочек счастья",
  "name_eng": "The Yellow Handkerchief",
  "year": 2008,
  "slogan": "«Life can be as sweet as you make it»",
  "age": null,
  "type": "film",
  "quality": "HD (720p)",
  "imdb": "6.7",
  "imdb_id": "0954990",
  "kinopoisk": "7.2",
  "kinopoisk_id": "278218",
  "world_art": null,
  "world_art_id": null,
  "time": "102 мин. / 01:42",
  "ads": true,
  "premier": "2008-01-18",
  "premier_rus": "2008-01-19",
  "availability": "2008-01-20",
  "activate_time": "2020-05-21 00:07:00",
  "budget": "$15 500 000",
  "fees_use": "$318 623",
  "fees_world": null,
  "fees_rus": null,
  "rate_mpaa": "PG-13",
  "description": "Бретт Хэнсон - преступник, которого только что выпустили на свободу. Вскоре его попутчиками становятся подросток Мартин и её приятель Горди.У каждого из участников этого путешествия своя цель: Мартин убегает от родителей, Горди пытается стать ближе к Мартин, а Брэтт должен решить, хочет ли он начать новую жизнь или вернуться к прошлому, в котором его ждет любимая женщина.",
  "iframe_url": "",
  "iframe_poster": null,
  "poster": "https://img.imgilall.me/movies/franchise/1/9/4/1/4/0/0/0/0/0/610x900_19414.jpg",
  "country": {
    "1": "США"
  },
  "collection": [],
  "genre": {
    "8": "Мелодрама",
    "7": "Драма"
  },
  "director": [
    "Юдайан Прасад"
  ],
  "screenwriter": [
    "Эрин Дигнам",
    "Пит Хэмилл"
  ],
  "producer": [
    "Артур Кон",
    "Лиллиэн Бернбаум",
    "Жанетт Экенштейн"
  ],
  "operator": [
    "Крис Менгис"
  ],
  "composer": [
    "Эф Барзелай",
    "Джек Ливси"
  ],
  "design": [
    "Монро Келли",
    "Кэролайн Эселин",
    "Люси Лири"
  ],
  "editor": [
    "Кристофер Теллефсен"
  ],
  "actors": [
    "Уильям Хёрт",
    "Кристен Стюарт",
    "Эдди Редмэйн",
    "Мария Белло",
    "Каори Момои",
    "Эммануэль Кон",
    "Нурит Кон",
    "Вероника Расселл",
    "Гроувер Колсон",
    "Лиша Брок"
  ],
  "actors_dubl": [],
  "trivia": [
    "Готовясь к роли, Уильям Хёрт провёл ночь в тюрьме штата Луизиана, известной как «Ангола»."
  ],
  "trailers": [],
  "seasons": [],
  "voiceActing": [
    "Рус. Проф. двухголосый",
    "Eng.Original"
  ],
  "subtitle": [
    "Eng. full"
  ],
  "parts": []
}
