{
  "id": 36612,
  "name": "В ярких красках",
  "name_eng": "In Living Color",
  "year": 1990,
  "slogan": "—",
  "age": "18+",
  "type": "series",
  "quality": "SD",
  "imdb": "8.1",
  "imdb_id": "0098830",
  "kinopoisk": "7.8",
  "kinopoisk_id": "279772",
  "world_art": null,
  "world_art_id": null,
  "time": "22 мин",
  "ads": false,
  "premier": "1990-04-15",
  "premier_rus": "1990-04-16",
  "availability": "1990-04-17",
  "serial_status": "offline",
  "activate_time": "2020-09-01 14:04:00",
  "budget": null,
  "fees_use": null,
  "fees_world": null,
  "fees_rus": null,
  "rate_mpaa": null,
  "description": "Юмор этого шоу представлен в совершенно разных цветах: есть и черный юмор (пародия на фильмы о Лэсси, напомнившая кино «Белая собака» со слоганом «выдрессированная убивать»); есть и шутки, построенные на актерской игре (образ Майка Тайсона, не знающего ничего, кроме как «получать экстаз»);но особое место занимает юмор с акцентом на афроамериканцев.",
  "iframe_url": "",
  "poster": "https://img.imgilall.me/movies/franchise/3/6/6/1/2/0/0/0/0/0/610x900_36612.jpg",
  "country": {
    "1": "США"
  },
  "collection": [],
  "genre": {
    "19": "Комедия"
  },
  "director": [
    "Терри МакКой",
    "Пол Миллер",
    "Рози Перес"
  ],
  "screenwriter": [
    "Кинен Айвори Уайанс",
    "Лес Файрстайн",
    "Пэм Визи"
  ],
  "producer": [
    "Кевин Берг",
    "Кинен Айвори Уайанс",
    "Тамара Равитт"
  ],
  "operator": [],
  "composer": [
    "Том Риззо"
  ],
  "design": [
    "Джон Сабато",
    "Джереми Рейлтон",
    "Джейн Флетчер"
  ],
  "editor": [
    "Крис Трекслер",
    "Дэррил Бейтс",
    "Кен Денисофф"
  ],
  "actors": [
    "Джим Керри",
    "Дэвид Алан Грир",
    "Ти’Кейя Кристел Кеймэ",
    "Томми Дэвидсон",
    "Деидре Лэнг",
    "Келли Коффилд",
    "Ким Уайанс",
    "Шон Уайанс",
    "Аль Чок",
    "Кинен Айвори Уайанс"
  ],
  "actors_dubl": [],
  "trivia": [
    "В нескольких первых сериях начальные титры шли на фоне достаточно вызывающего логотипа. Его сменили на менее броский, когда на авторов сериала пригрозила подать в суд группа Living Color, заявившая свои права на логотип."
  ],
  "trailers": [],
  "seasons": [
    {
      "poster": null,
      "release_ru": null,
      "release_world": null,
      "availability": null,
      "iframe_url": "",
      "season": 1,
      "episodes": [
        {
          "episode": 1,
          "name": null,
          "iframe_url": "",
          "iframe_poster": null,
          "release_ru": null,
          "release_world": null,
          "availability": null,
          "voiceActing": [
            "Рус. хардсаб"
          ],
          "ads": false,
          "subtitle": []
        },
        {
          "episode": 2,
          "name": null,
          "iframe_url": "",
          "iframe_poster": null,
          "release_ru": null,
          "release_world": null,
          "availability": null,
          "voiceActing": [
            "Рус. хардсаб"
          ],
          "ads": false,
          "subtitle": []
        },
        {
          "episode": 3,
          "name": null,
          "iframe_url": "",
          "iframe_poster": null,
          "release_ru": null,
          "release_world": null,
          "availability": null,
          "voiceActing": [
            "Рус. хардсаб"
          ],
          "ads": false,
          "subtitle": []
        },
        {
          "episode": 4,
          "name": null,
          "iframe_url": "",
          "iframe_poster": null,
          "release_ru": null,
          "release_world": null,
          "availability": null,
          "voiceActing": [
            "Рус. хардсаб"
          ],
          "ads": false,
          "subtitle": []
        },
        {
          "episode": 5,
          "name": null,
          "iframe_url": "",
          "iframe_poster": null,
          "release_ru": null,
          "release_world": null,
          "availability": null,
          "voiceActing": [
            "Рус. хардсаб"
          ],
          "ads": false,
          "subtitle": []
        },
        {
          "episode": 6,
          "name": null,
          "iframe_url": "",
          "iframe_poster": null,
          "release_ru": null,
          "release_world": null,
          "availability": null,
          "voiceActing": [
            "Рус. хардсаб"
          ],
          "ads": false,
          "subtitle": []
        },
        {
          "episode": 7,
          "name": null,
          "iframe_url": "",
          "iframe_poster": null,
          "release_ru": null,
          "release_world": null,
          "availability": null,
          "voiceActing": [
            "Рус. хардсаб"
          ],
          "ads": false,
          "subtitle": []
        },
        {
          "episode": 8,
          "name": null,
          "iframe_url": "",
          "iframe_poster": null,
          "release_ru": null,
          "release_world": null,
          "availability": null,
          "voiceActing": [
            "Рус. хардсаб"
          ],
          "ads": false,
          "subtitle": []
        },
        {
          "episode": 9,
          "name": null,
          "iframe_url": "",
          "iframe_poster": null,
          "release_ru": null,
          "release_world": null,
          "availability": null,
          "voiceActing": [
            "Рус. хардсаб"
          ],
          "ads": false,
          "subtitle": []
        },
        {
          "episode": 10,
          "name": null,
          "iframe_url": "",
          "iframe_poster": null,
          "release_ru": null,
          "release_world": null,
          "availability": null,
          "voiceActing": [
            "Рус. хардсаб"
          ],
          "ads": false,
          "subtitle": []
        },
        {
          "episode": 11,
          "name": null,
          "iframe_url": "",
          "iframe_poster": null,
          "release_ru": null,
          "release_world": null,
          "availability": null,
          "voiceActing": [
            "Рус. хардсаб"
          ],
          "ads": false,
          "subtitle": []
        },
        {
          "episode": 12,
          "name": null,
          "iframe_url": "",
          "iframe_poster": null,
          "release_ru": null,
          "release_world": null,
          "availability": null,
          "voiceActing": [
            "Рус. хардсаб"
          ],
          "ads": false,
          "subtitle": []
        },
        {
          "episode": 13,
          "name": null,
          "iframe_url": "",
          "iframe_poster": null,
          "release_ru": null,
          "release_world": null,
          "availability": null,
          "voiceActing": [
            "Рус. хардсаб"
          ],
          "ads": false,
          "subtitle": []
        }
      ]
    }
  ],
  "voiceActing": [
    "Рус. хардсаб"
  ],
  "subtitle": [],
  "parts": []
}
