{
  "id": 31718,
  "name": "Блюз малышки",
  "name_eng": "Baby Blues",
  "year": 2008,
  "slogan": "«On a secluded family farm, a mother suffers a psychotic break due to postpartum depression, forcing the eldest son to protects his siblings from the mother they have always loved»",
  "age": null,
  "type": "film",
  "quality": "HD (720p)",
  "imdb": "5.8",
  "imdb_id": "0",
  "kinopoisk": "6.0",
  "kinopoisk_id": "279911",
  "world_art": null,
  "world_art_id": null,
  "time": "85 мин. / 01:25",
  "ads": false,
  "premier": "2008-08-05",
  "premier_rus": "2008-08-06",
  "availability": "2008-08-07",
  "activate_time": "2020-07-14 04:32:00",
  "budget": null,
  "fees_use": null,
  "fees_world": null,
  "fees_rus": null,
  "rate_mpaa": "R",
  "description": "Женщина, живущая в доме на окраине и воспитывающая четырёх маленьких детей, сходит с ума. Теперь её самый старший сын - подросток должен спасти остальных детей, которым угрожает смерть от руки сумасшедшей матери.",
  "iframe_url": "",
  "iframe_poster": null,
  "poster": "https://img.imgilall.me/movies/franchise/3/1/7/1/8/0/0/0/0/0/610x900_31718.jpg",
  "country": {
    "1": "США"
  },
  "collection": [],
  "genre": {
    "26": "Ужасы",
    "13": "Триллер",
    "7": "Драма"
  },
  "director": [
    "Ларс Е. Джейкобсон",
    "Амардип Калека"
  ],
  "screenwriter": [
    "Ларс Е. Джейкобсон"
  ],
  "producer": [
    "Ларс Е. Джейкобсон",
    "Пит Баллард",
    "Закари Канепари"
  ],
  "operator": [
    "Мэттью МакКарти"
  ],
  "composer": [
    "Майкл Филимович"
  ],
  "design": [
    "Джэми Дорфман",
    "Райан Тейлор",
    "Даниэль Инглэнд"
  ],
  "editor": [
    "Амардип Калека"
  ],
  "actors": [
    "Коллин Порш",
    "Эйден Кирш",
    "Ридж Кэнайп",
    "Шон Джонсон",
    "Холден Томас Мэйнард",
    "Кали Мэйджерс",
    "Джоэль Брайант",
    "Джин Уитэм",
    "Тэннер Этан Тодд",
    "Чип Лэйн"
  ],
  "actors_dubl": [],
  "trivia": [],
  "trailers": [],
  "seasons": [],
  "voiceActing": [
    "Важенин (BadBajo)"
  ],
  "subtitle": [],
  "parts": []
}
