{
  "id": 38102,
  "name": "Служители",
  "name_eng": "Acolytes",
  "year": 2008,
  "slogan": "«Nothing stays buried forever»",
  "age": null,
  "type": "film",
  "quality": "SD",
  "imdb": "5.6",
  "imdb_id": "0902952",
  "kinopoisk": "5.2",
  "kinopoisk_id": "276294",
  "world_art": null,
  "world_art_id": null,
  "time": "91 мин. / 01:31",
  "ads": false,
  "premier": "2008-08-01",
  "premier_rus": "2008-08-02",
  "availability": "2008-08-03",
  "activate_time": "2020-10-12 11:50:00",
  "budget": null,
  "fees_use": null,
  "fees_world": null,
  "fees_rus": null,
  "rate_mpaa": null,
  "description": "Два парня и девушка случайным образом выходят на серийного убийцу, и вместо того, чтобы заявить на него в полицию, они решают его шантажировать.",
  "iframe_url": "",
  "iframe_poster": null,
  "poster": "https://img.imgilall.me/movies/franchise/3/8/1/0/2/0/0/0/0/0/610x900_38102.jpg",
  "country": {
    "4": "Австралия"
  },
  "collection": [],
  "genre": {
    "25": "Криминал",
    "26": "Ужасы",
    "24": "Детектив",
    "13": "Триллер",
    "7": "Драма"
  },
  "director": [
    "Джон Хьюит"
  ],
  "screenwriter": [
    "Шэйн Краузе",
    "Шэйн Армстронг",
    "Джон Хьюит"
  ],
  "producer": [
    "Ричард Стюарт",
    "Пенни Уолл",
    "Л. Грант Брэдли"
  ],
  "operator": [
    "Марк Паг"
  ],
  "composer": [
    "Дэвид Францке"
  ],
  "design": [
    "Мишель Созерн",
    "Кристофер Кокс",
    "Ванесса Лох"
  ],
  "editor": [
    "Саймон Мартин"
  ],
  "actors": [
    "Джоэл Эдгертон",
    "Майкл Дорман",
    "Себастьян Грегори",
    "Ханна Мэнгэн Лоуренс",
    "Джошуа Пэйн",
    "Белинда МакКлори",
    "Холли Болдуин",
    "Энтони Фелан",
    "Белла Хиткот",
    "Сью Двайер"
  ],
  "actors_dubl": [],
  "trivia": [],
  "trailers": [],
  "seasons": [],
  "voiceActing": [
    "JoyStudio"
  ],
  "subtitle": [],
  "parts": []
}
