{
  "id": 11213,
  "name": "Наруто: Ниндзя в стране снега",
  "name_eng": "Naruto the Movie: Ninja Clash in the Land of Snow",
  "year": 2004,
  "slogan": "—",
  "age": "16+",
  "type": "anime-film",
  "quality": "SD",
  "imdb": "6.7",
  "imdb_id": "0476680",
  "kinopoisk": "6.8",
  "kinopoisk_id": "283283",
  "world_art": "7.7",
  "world_art_id": "279",
  "time": "90 мин. / 01:30",
  "ads": false,
  "premier": "2004-08-21",
  "premier_rus": null,
  "availability": null,
  "activate_time": "2019-09-29 23:01:00",
  "budget": null,
  "fees_use": null,
  "fees_world": "$11 141 307",
  "fees_rus": null,
  "rate_mpaa": null,
  "description": "Команда №7 вместе с Какаси должны сопровождать актрису Фудзикадзэ Юкиэ в Страну Снега. Прибыв на место, они сталкиваются с сильнейшими синоби, которые пытаются любыми способами завладеть предметом, принадлежащим актрисе.",
  "iframe_url": "",
  "iframe_poster": "https://img.imgilall.me/movies/video/1/1/6/7/6/8/0/0/0/0/800x450_116768.jpeg",
  "poster": "https://img.imgilall.me/movies/franchise/1/1/2/1/3/0/0/0/0/0/610x900_11213.jpg",
  "country": {
    "18": "Япония"
  },
  "collection": [],
  "genre": {
    "9": "Приключения",
    "19": "Комедия",
    "17": "Боевик",
    "10": "Зарубежный"
  },
  "director": [
    "Тэнсаи Окамура"
  ],
  "screenwriter": [
    "Масаси Кисимото",
    "Кацуюки Сумидзава"
  ],
  "producer": [
    "Атасухиро Иваками"
  ],
  "operator": [],
  "composer": [
    "Тосио Масуда"
  ],
  "design": [
    "Сигэнори Такада"
  ],
  "editor": [],
  "actors": [
    "Дзюнко Такэути",
    "Тиэ Накамура",
    "Нориаки Сугияма",
    "Кадзухико Иноуэ",
    "Юко Каида",
    "Тикао Оцука",
    "Хидэхико Исидзука",
    "Исобэ Цутому",
    "Хари Канэко",
    "Дзюн Карасава"
  ],
  "actors_dubl": [],
  "trivia": [],
  "trailers": [],
  "seasons": [],
  "voiceActing": [
    "Рус. Люб. одноголосый"
  ],
  "subtitle": [],
  "parts": []
}
