{
  "id": 38093,
  "name": "Сахар и перец",
  "name_eng": "Sugar & Spice",
  "year": 2001,
  "slogan": "«Why would the most popular girl in school wear a mask?»",
  "age": null,
  "type": "film",
  "quality": "FHD (1080p)",
  "imdb": "5.7",
  "imdb_id": "0186589",
  "kinopoisk": "5.0",
  "kinopoisk_id": "2858",
  "world_art": null,
  "world_art_id": null,
  "time": "81 мин. / 01:21",
  "ads": false,
  "premier": "2001-01-24",
  "premier_rus": "2001-06-28",
  "availability": "2001-06-29",
  "activate_time": "2020-10-12 06:50:00",
  "budget": "$27 000 000",
  "fees_use": "$13 305 101",
  "fees_world": "+ $3 603 846 = $16 908 947",
  "fees_rus": null,
  "rate_mpaa": "PG-13",
  "description": "Забеременев от своего сверстника, футболиста Джека, Диана, капитан школьной команды болельщиц, предлагает своим очаровательным подружкам ограбить банк. Раздобыв оружие и тщательно спланировав свои действия, они отправляются на дело, но оказывается, их планы уже ни для кого не секрет.",
  "iframe_url": "",
  "iframe_poster": null,
  "poster": "https://img.imgilall.me/movies/franchise/3/8/0/9/3/0/0/0/0/0/610x900_38093.jpg",
  "country": {
    "1": "США"
  },
  "collection": [],
  "genre": {
    "25": "Криминал",
    "19": "Комедия"
  },
  "director": [
    "Фрэнсин МакДугалл"
  ],
  "screenwriter": [
    "Мэнди Нельсон"
  ],
  "producer": [
    "Венди Файнерман",
    "Мишель МакГуайр",
    "Грег Мурадиан"
  ],
  "operator": [
    "Роберт Бринкманн"
  ],
  "composer": [
    "Марк Мазерсбо"
  ],
  "design": [
    "Джефф Нипп",
    "Мария Л. Бэйкер",
    "Венди Чак"
  ],
  "editor": [
    "Лелэнд Грэй",
    "Слоун Клевин"
  ],
  "actors": [
    "Марла Соколофф",
    "Марли Шелтон",
    "Мелисса Джордж",
    "Мена Сувари",
    "Рейчел Блэнчард",
    "Александра Холден",
    "Сара Марш",
    "Джеймс Марсден",
    "Шон Янг",
    "У. Эрл Браун"
  ],
  "actors_dubl": [
    "Татьяна Весёлкина",
    "Ольга Голованова",
    "Жанна Никонова",
    "Лариса Некипелова",
    "Марианна Шульц"
  ],
  "trivia": [],
  "trailers": [],
  "seasons": [],
  "voiceActing": [
    "Cartoon Network"
  ],
  "subtitle": [],
  "parts": []
}
