{
  "id": 20097,
  "name": "Лето 42-го",
  "name_eng": "Summer of '42",
  "year": 1971,
  "slogan": "«In everyone's life there's a 'Summer of '42'»",
  "age": "18+",
  "type": "film",
  "quality": "FHD (1080p)",
  "imdb": "7.2",
  "imdb_id": "0067803",
  "kinopoisk": "7.7",
  "kinopoisk_id": "29914",
  "world_art": null,
  "world_art_id": null,
  "time": "104 мин. / 01:44",
  "ads": false,
  "premier": "1971-04-18",
  "premier_rus": "1971-04-19",
  "availability": "1971-04-20",
  "activate_time": "2020-05-30 11:18:00",
  "budget": "$1 000 000",
  "fees_use": "$44 690 000",
  "fees_world": null,
  "fees_rus": null,
  "rate_mpaa": "PG",
  "description": "Трое пятнадцатилетних подростков приезжают на летние каникулы в Новую Англию. Двое из них интересуются любовными похождениями со сверстницами, а третий переживает настоящий взрослый роман с двадцатидвухлетней женщиной, муж которой отбыл на фронт. Юное сердце сталкивается с нешуточными страстями, которые заставляют его сделать непростой выбор между чувством и сочувствием, желанием и состраданием по отношению к молодой женщине, оставшейся в одиночестве и потому особо нуждающейся в нежности.",
  "iframe_url": "",
  "iframe_poster": null,
  "poster": "https://img.imgilall.me/movies/franchise/2/0/0/9/7/0/0/0/0/0/610x900_20097.jpg",
  "country": {
    "1": "США"
  },
  "collection": [],
  "genre": {
    "8": "Мелодрама",
    "7": "Драма"
  },
  "director": [
    "Роберт Маллиган"
  ],
  "screenwriter": [
    "Херман Раукер"
  ],
  "producer": [
    "Дон Кранз",
    "Ричард А. Рот"
  ],
  "operator": [
    "Роберт Сёртис"
  ],
  "composer": [
    "Андре Оссейн",
    "Мишель Легран"
  ],
  "design": [
    "Альберт Бреннер",
    "Марвин Марч"
  ],
  "editor": [
    "Фольмар Блангстед"
  ],
  "actors": [
    "Дженнифер О’Нил",
    "Гэри Граймз",
    "Джерри Хаузер",
    "Оливер Конант",
    "Кэтрин Аллентак",
    "Кристофер Норрис",
    "Лу Фриззелл",
    "Роберт Маллиган",
    "Уолтер Скотт",
    "Морин Стейплтон"
  ],
  "actors_dubl": [],
  "trivia": [],
  "trailers": [],
  "seasons": [],
  "voiceActing": [
    "Рус. Проф. двухголосый",
    "Рус. Люб. одноголосый",
    "Eng.Original"
  ],
  "subtitle": [
    "Рус. полные"
  ],
  "parts": []
}
