{
  "id": 41363,
  "name": "Дикий цветок (ТВ)",
  "name_eng": "Wildflower",
  "year": 1991,
  "slogan": "—",
  "age": null,
  "type": "film",
  "quality": "FHD (1080p)",
  "imdb": "7.1",
  "imdb_id": "0103266",
  "kinopoisk": "7.2",
  "kinopoisk_id": "295579",
  "world_art": null,
  "world_art_id": null,
  "time": "120 мин. / 02:00",
  "ads": false,
  "premier": "1991-12-03",
  "premier_rus": "1991-12-04",
  "availability": "1991-12-05",
  "activate_time": "2020-11-10 11:15:00",
  "budget": null,
  "fees_use": null,
  "fees_world": null,
  "fees_rus": null,
  "rate_mpaa": "PG-13",
  "description": "Двое находчивых детей помогли вернуться в общество частично глухой девочке, испытавшей жестокое обращение.",
  "iframe_url": "",
  "iframe_poster": null,
  "poster": "https://img.imgilall.me/movies/franchise/4/1/3/6/3/0/0/0/0/0/610x900_41363.jpg",
  "country": {
    "1": "США"
  },
  "collection": [],
  "genre": {
    "8": "Мелодрама",
    "7": "Драма"
  },
  "director": [
    "Дайан Китон"
  ],
  "screenwriter": [
    "Сара Фланиган"
  ],
  "producer": [
    "Кэрролл Ньюман",
    "Ричард Фрид",
    "Джозеф Дж. Келли"
  ],
  "operator": [
    "Януш Камински"
  ],
  "composer": [
    "Кенни Эдвардс",
    "Джон Гилутин"
  ],
  "design": [
    "Гаррет Стоувер",
    "Крис Корнвэлл",
    "Дина Аппель"
  ],
  "editor": [
    "Стивен Е. Ривкин"
  ],
  "actors": [
    "Бо Бриджес",
    "Сьюзан Блейкли",
    "Уильям МакНамара",
    "Риз Уизерспун",
    "Патриша Аркетт",
    "Норман Макс Максвелл",
    "Коллин Уилкокс Пэкстон",
    "Ричард К. Олсен",
    "Эллисон Смит",
    "Хезер Линч"
  ],
  "actors_dubl": [],
  "trivia": [],
  "trailers": [],
  "seasons": [],
  "voiceActing": [
    "Важенин (BadBajo)"
  ],
  "subtitle": [],
  "parts": []
}
