{
  "id": 36153,
  "name": "Луни Тюнз. Ну, с Рождеством!",
  "name_eng": "Bah Humduck!: A Looney Tunes Christmas",
  "year": 2006,
  "slogan": "—",
  "age": null,
  "type": "cartoon",
  "quality": "HD (720p)",
  "imdb": "6.5",
  "imdb_id": "0896522",
  "kinopoisk": null,
  "kinopoisk_id": "305939",
  "world_art": null,
  "world_art_id": null,
  "time": "46 мин.",
  "ads": false,
  "premier": "2006-11-14",
  "premier_rus": "2006-11-15",
  "availability": "2006-11-16",
  "activate_time": "2020-08-14 11:27:00",
  "budget": null,
  "fees_use": null,
  "fees_world": null,
  "fees_rus": null,
  "rate_mpaa": null,
  "description": null,
  "iframe_url": "",
  "iframe_poster": null,
  "poster": "https://img.imgilall.me/movies/franchise/3/6/1/5/3/0/0/0/0/0/610x900_36153.jpg",
  "country": {
    "1": "США"
  },
  "collection": [],
  "genre": {
    "9": "Приключения",
    "11": "Фантастика",
    "38": "Мюзикл",
    "33": "Семейный",
    "19": "Комедия"
  },
  "director": [
    "Чарльз Виссер"
  ],
  "screenwriter": [
    "Рэй Де Лаурентис",
    "Чарльз Диккенс"
  ],
  "producer": [
    "Фрэнк Мольери",
    "Dorinda Marticorena",
    "Бобби Пейдж"
  ],
  "operator": [],
  "composer": [
    "Гордон Гудвин"
  ],
  "design": [],
  "editor": [
    "Роб Десейлс"
  ],
  "actors": [
    "Джо Аляски",
    "Боб Берген",
    "Билли Уэст",
    "Джун Форэй",
    "Морис ЛаМарш",
    "Джим Каммингс",
    "Тара Стронг",
    "Пол Джулиан"
  ],
  "actors_dubl": [],
  "trivia": [],
  "trailers": [
    {
      "name": "трейлер №1",
      "number": 1,
      "iframe_poster": null,
      "season": null,
      "iframe_url": ""
    }
  ],
  "seasons": [],
  "voiceActing": [
    "Рус. Дублированный"
  ],
  "subtitle": [],
  "parts": []
}
