{
  "id": 6225,
  "name": "Жизнь как приговор",
  "name_eng": "Life",
  "year": 2007,
  "slogan": "«Life was his sentence. Life is what he got back»",
  "age": "12+",
  "type": "series",
  "quality": "HD (720p)",
  "imdb": "8.3",
  "imdb_id": "0874936",
  "kinopoisk": "7.8",
  "kinopoisk_id": "306580",
  "world_art": null,
  "world_art_id": null,
  "time": "43 мин.",
  "ads": false,
  "premier": "2007-09-26",
  "premier_rus": null,
  "availability": null,
  "serial_status": "offline",
  "activate_time": "2019-02-21 14:33:22",
  "budget": null,
  "fees_use": null,
  "fees_world": null,
  "fees_rus": null,
  "rate_mpaa": null,
  "description": "Чарли Крус был обычным полицейским, пока его не обвинили в убийстве и не приговорили к пожизненному заключению. Он был обычным заключенным, пока, после пересмотра дела его не выпустили на свободу, выплатив компенсацию, размер которой не разглашается. Он мог бы быть обычным богачом, который наслаждается жизнью и пытается забыть о прошлом. Но он предпочел остаться собой, полицейским Чарли Крусом, и поэтому пошел работать в полицию детективом, получая в качестве напарника девушку с тяжелым характером и небезупречным прошлым.",
  "iframe_url": "",
  "poster": "https://img.imgilall.me/movies/franchise/6/2/2/5/0/0/0/0/0/0/610x900_6225.jpg",
  "country": {
    "1": "США"
  },
  "collection": {
    "62": "Про полицию"
  },
  "genre": {
    "25": "Криминал",
    "24": "Детектив",
    "10": "Зарубежный",
    "7": "Драма"
  },
  "director": [
    "Дэниэл Сакхайм",
    "Питер Маркл",
    "Дэвид Стрейтон"
  ],
  "screenwriter": [
    "Рэнд Рэвич",
    "Венди Кэлхун",
    "Скотт М. Гимпл"
  ],
  "producer": [
    "Лукас Джордж",
    "Рэнд Рэвич",
    "Фар Шариат"
  ],
  "operator": [
    "Джерри Сиделл",
    "Майкл Негрин",
    "Майкл Мэйерс"
  ],
  "composer": [
    "Джейсон Дерлатка",
    "Джон Эрлих"
  ],
  "design": [
    "Скотт П. Мерфи",
    "Филип Тулин",
    "Джеффри Мосса"
  ],
  "editor": [
    "Томас Р. Мур",
    "Кевин Красны",
    "Дэвид Пост"
  ],
  "actors": [
    "Дэмиэн Льюис",
    "Сара Шахи",
    "Адам Аркин",
    "Брент Секстон",
    "Донал Лог",
    "Уильям Этертон",
    "Гаррет Диллахант",
    "Гэбриэл Юнион",
    "Кристина Хендрикс",
    "Хелен Маккрори"
  ],
  "actors_dubl": [],
  "trivia": [
    "Сюжет о Дэни Риз и расследовании ФБР в конце 2-го сезона был написан из-за беременности исполнившей роль Дэни актрисы Сары Шахи. Актриса показана либо сидящей, либо сзади.",
    "Констанс в пилотной серии сыграла Мелисса Сейджмиллер, но впоследствии её сменила Брук Лэнгтон."
  ],
  "trailers": [],
  "seasons": [
    {
      "poster": "https://img.imgilall.me/movies/season/3/9/6/7/0/0/0/0/0/0/610x900_3967.jpg",
      "release_ru": "2007-09-27",
      "release_world": "2007-09-26",
      "availability": "2007-09-28",
      "iframe_url": "",
      "season": 1,
      "episodes": [
        {
          "episode": 1,
          "name": "Merit Badge",
          "iframe_url": "",
          "iframe_poster": "https://img.imgilall.me/movies/video/6/1/7/3/8/0/0/0/0/0/800x450_61738.jpeg",
          "release_ru": "2007-09-27",
          "release_world": "2007-09-26",
          "availability": "2007-09-28",
          "voiceActing": [
            "Fox",
            "Eng.Original"
          ],
          "ads": false,
          "subtitle": []
        },
        {
          "episode": 2,
          "name": "Tear Asunder",
          "iframe_url": "",
          "iframe_poster": "https://img.imgilall.me/movies/video/6/1/7/3/9/0/0/0/0/0/800x450_61739.jpeg",
          "release_ru": "2007-10-04",
          "release_world": "2007-10-03",
          "availability": "2007-10-05",
          "voiceActing": [
            "Fox",
            "Eng.Original"
          ],
          "ads": false,
          "subtitle": []
        },
        {
          "episode": 3,
          "name": "Let Her Go",
          "iframe_url": "",
          "iframe_poster": "https://img.imgilall.me/movies/video/6/1/7/4/0/0/0/0/0/0/800x450_61740.jpeg",
          "release_ru": "2007-10-11",
          "release_world": "2007-10-10",
          "availability": "2007-10-12",
          "voiceActing": [
            "Fox",
            "Eng.Original"
          ],
          "ads": false,
          "subtitle": []
        },
        {
          "episode": 4,
          "name": "What They Saw",
          "iframe_url": "",
          "iframe_poster": "https://img.imgilall.me/movies/video/6/1/7/4/1/0/0/0/0/0/800x450_61741.jpeg",
          "release_ru": "2007-10-18",
          "release_world": "2007-10-17",
          "availability": "2007-10-19",
          "voiceActing": [
            "Fox",
            "Eng.Original"
          ],
          "ads": false,
          "subtitle": []
        },
        {
          "episode": 5,
          "name": "The Fallen Woman",
          "iframe_url": "",
          "iframe_poster": "https://img.imgilall.me/movies/video/6/1/7/4/2/0/0/0/0/0/800x450_61742.jpeg",
          "release_ru": "2007-10-25",
          "release_world": "2007-10-24",
          "availability": "2007-10-26",
          "voiceActing": [
            "Fox",
            "Eng.Original"
          ],
          "ads": false,
          "subtitle": []
        },
        {
          "episode": 6,
          "name": "Powerless",
          "iframe_url": "",
          "iframe_poster": "https://img.imgilall.me/movies/video/6/1/7/4/3/0/0/0/0/0/800x450_61743.jpeg",
          "release_ru": "2007-11-01",
          "release_world": "2007-10-31",
          "availability": "2007-11-02",
          "voiceActing": [
            "Fox",
            "Eng.Original"
          ],
          "ads": false,
          "subtitle": []
        },
        {
          "episode": 7,
          "name": "A Civil War",
          "iframe_url": "",
          "iframe_poster": "https://img.imgilall.me/movies/video/6/1/7/4/4/0/0/0/0/0/800x450_61744.jpeg",
          "release_ru": "2007-11-08",
          "release_world": "2007-11-07",
          "availability": "2007-11-09",
          "voiceActing": [
            "Fox",
            "Eng.Original"
          ],
          "ads": false,
          "subtitle": []
        },
        {
          "episode": 8,
          "name": "Farthingale",
          "iframe_url": "",
          "iframe_poster": "https://img.imgilall.me/movies/video/6/1/7/4/5/0/0/0/0/0/800x450_61745.jpeg",
          "release_ru": "2007-11-15",
          "release_world": "2007-11-14",
          "availability": "2007-11-16",
          "voiceActing": [
            "Fox",
            "Eng.Original"
          ],
          "ads": false,
          "subtitle": []
        },
        {
          "episode": 9,
          "name": "Serious Control Issues",
          "iframe_url": "",
          "iframe_poster": "https://img.imgilall.me/movies/video/6/1/7/4/6/0/0/0/0/0/800x450_61746.jpeg",
          "release_ru": "2007-11-29",
          "release_world": "2007-11-28",
          "availability": "2007-11-30",
          "voiceActing": [
            "Fox",
            "Eng.Original"
          ],
          "ads": false,
          "subtitle": []
        },
        {
          "episode": 10,
          "name": "Dig a Hole (1)",
          "iframe_url": "",
          "iframe_poster": "https://img.imgilall.me/movies/video/6/1/7/4/7/0/0/0/0/0/800x450_61747.jpeg",
          "release_ru": "2007-12-04",
          "release_world": "2007-12-03",
          "availability": "2007-12-05",
          "voiceActing": [
            "Fox",
            "Eng.Original"
          ],
          "ads": false,
          "subtitle": []
        },
        {
          "episode": 11,
          "name": "Fill It Up (2)",
          "iframe_url": "",
          "iframe_poster": "https://img.imgilall.me/movies/video/6/1/7/4/8/0/0/0/0/0/800x450_61748.jpeg",
          "release_ru": "2007-12-06",
          "release_world": "2007-12-05",
          "availability": "2007-12-07",
          "voiceActing": [
            "Fox",
            "Eng.Original"
          ],
          "ads": false,
          "subtitle": []
        }
      ]
    },
    {
      "poster": "https://img.imgilall.me/movies/season/3/9/6/8/0/0/0/0/0/0/610x900_3968.jpg",
      "release_ru": "2008-09-30",
      "release_world": "2008-09-29",
      "availability": "2008-10-01",
      "iframe_url": "",
      "season": 2,
      "episodes": [
        {
          "episode": 1,
          "name": "Find Your Happy Place",
          "iframe_url": "",
          "iframe_poster": "https://img.imgilall.me/movies/video/6/1/8/8/9/0/0/0/0/0/800x450_61889.jpeg",
          "release_ru": "2008-09-30",
          "release_world": "2008-09-29",
          "availability": "2008-10-01",
          "voiceActing": [
            "Fox",
            "Eng.Original"
          ],
          "ads": false,
          "subtitle": []
        },
        {
          "episode": 2,
          "name": "Everything ... All The Time",
          "iframe_url": "",
          "iframe_poster": "https://img.imgilall.me/movies/video/6/1/8/9/0/0/0/0/0/0/800x450_61890.jpeg",
          "release_ru": "2008-10-04",
          "release_world": "2008-10-03",
          "availability": "2008-10-05",
          "voiceActing": [
            "Fox",
            "Eng.Original"
          ],
          "ads": false,
          "subtitle": []
        },
        {
          "episode": 3,
          "name": "The Business of Miracles",
          "iframe_url": "",
          "iframe_poster": "https://img.imgilall.me/movies/video/6/1/8/9/1/0/0/0/0/0/800x450_61891.jpeg",
          "release_ru": "2008-10-07",
          "release_world": "2008-10-06",
          "availability": "2008-10-08",
          "voiceActing": [
            "Fox",
            "Eng.Original"
          ],
          "ads": false,
          "subtitle": []
        },
        {
          "episode": 4,
          "name": "Not For Nothing",
          "iframe_url": "",
          "iframe_poster": "https://img.imgilall.me/movies/video/6/1/8/9/2/0/0/0/0/0/800x450_61892.jpeg",
          "release_ru": "2008-10-11",
          "release_world": "2008-10-10",
          "availability": "2008-10-12",
          "voiceActing": [
            "Fox",
            "Eng.Original"
          ],
          "ads": false,
          "subtitle": []
        },
        {
          "episode": 5,
          "name": "Crushed",
          "iframe_url": "",
          "iframe_poster": "https://img.imgilall.me/movies/video/6/1/8/9/3/0/0/0/0/0/800x450_61893.jpeg",
          "release_ru": "2008-10-18",
          "release_world": "2008-10-17",
          "availability": "2008-10-19",
          "voiceActing": [
            "Fox",
            "Eng.Original"
          ],
          "ads": false,
          "subtitle": []
        },
        {
          "episode": 6,
          "name": "Did You Feel That",
          "iframe_url": "",
          "iframe_poster": "https://img.imgilall.me/movies/video/6/1/8/9/4/0/0/0/0/0/800x450_61894.jpeg",
          "release_ru": "2008-10-25",
          "release_world": "2008-10-24",
          "availability": "2008-10-26",
          "voiceActing": [
            "Fox",
            "Eng.Original"
          ],
          "ads": false,
          "subtitle": []
        },
        {
          "episode": 7,
          "name": "Jackpot",
          "iframe_url": "",
          "iframe_poster": "https://img.imgilall.me/movies/video/6/1/8/9/5/0/0/0/0/0/800x450_61895.jpeg",
          "release_ru": "2008-11-06",
          "release_world": "2008-11-05",
          "availability": "2008-11-07",
          "voiceActing": [
            "Fox",
            "Eng.Original"
          ],
          "ads": false,
          "subtitle": []
        },
        {
          "episode": 8,
          "name": "Black Friday",
          "iframe_url": "",
          "iframe_poster": "https://img.imgilall.me/movies/video/6/1/8/9/6/0/0/0/0/0/800x450_61896.jpeg",
          "release_ru": "2008-11-13",
          "release_world": "2008-11-12",
          "availability": "2008-11-14",
          "voiceActing": [
            "Fox",
            "Eng.Original"
          ],
          "ads": false,
          "subtitle": []
        },
        {
          "episode": 9,
          "name": "Badge Bunny",
          "iframe_url": "",
          "iframe_poster": "https://img.imgilall.me/movies/video/6/1/8/9/7/0/0/0/0/0/800x450_61897.jpeg",
          "release_ru": "2008-11-20",
          "release_world": "2008-11-19",
          "availability": "2008-11-21",
          "voiceActing": [
            "Fox",
            "Eng.Original"
          ],
          "ads": false,
          "subtitle": []
        },
        {
          "episode": 10,
          "name": "Evil...And His Brother Ziggy",
          "iframe_url": "",
          "iframe_poster": "https://img.imgilall.me/movies/video/6/1/8/9/8/0/0/0/0/0/800x450_61898.jpeg",
          "release_ru": "2008-12-04",
          "release_world": "2008-12-03",
          "availability": "2008-12-05",
          "voiceActing": [
            "Fox",
            "Eng.Original"
          ],
          "ads": false,
          "subtitle": []
        },
        {
          "episode": 11,
          "name": "Canyon Flowers",
          "iframe_url": "",
          "iframe_poster": "https://img.imgilall.me/movies/video/6/1/8/9/9/0/0/0/0/0/800x450_61899.jpeg",
          "release_ru": "2008-12-11",
          "release_world": "2008-12-10",
          "availability": "2008-12-12",
          "voiceActing": [
            "Fox",
            "Eng.Original"
          ],
          "ads": false,
          "subtitle": []
        },
        {
          "episode": 12,
          "name": "Trapdoor",
          "iframe_url": "",
          "iframe_poster": "https://img.imgilall.me/movies/video/6/1/9/0/0/0/0/0/0/0/800x450_61900.jpeg",
          "release_ru": "2008-12-18",
          "release_world": "2008-12-17",
          "availability": "2008-12-19",
          "voiceActing": [
            "Fox",
            "Eng.Original"
          ],
          "ads": false,
          "subtitle": []
        },
        {
          "episode": 13,
          "name": "Re-Entry",
          "iframe_url": "",
          "iframe_poster": "https://img.imgilall.me/movies/video/6/1/9/0/1/0/0/0/0/0/800x450_61901.jpeg",
          "release_ru": "2009-02-05",
          "release_world": "2009-02-04",
          "availability": "2009-02-06",
          "voiceActing": [
            "Fox",
            "Eng.Original"
          ],
          "ads": false,
          "subtitle": []
        },
        {
          "episode": 14,
          "name": "Mirror Ball",
          "iframe_url": "",
          "iframe_poster": "https://img.imgilall.me/movies/video/6/1/9/0/2/0/0/0/0/0/800x450_61902.jpeg",
          "release_ru": "2009-02-12",
          "release_world": "2009-02-11",
          "availability": "2009-02-13",
          "voiceActing": [
            "Fox",
            "Eng.Original"
          ],
          "ads": false,
          "subtitle": []
        },
        {
          "episode": 15,
          "name": "I Heart Mom",
          "iframe_url": "",
          "iframe_poster": "https://img.imgilall.me/movies/video/6/1/9/0/3/0/0/0/0/0/800x450_61903.jpeg",
          "release_ru": "2009-02-19",
          "release_world": "2009-02-18",
          "availability": "2009-02-20",
          "voiceActing": [
            "Fox",
            "Eng.Original"
          ],
          "ads": false,
          "subtitle": []
        },
        {
          "episode": 16,
          "name": "Hit Me Baby",
          "iframe_url": "",
          "iframe_poster": "https://img.imgilall.me/movies/video/6/1/9/0/4/0/0/0/0/0/800x450_61904.jpeg",
          "release_ru": "2009-02-26",
          "release_world": "2009-02-25",
          "availability": "2009-02-27",
          "voiceActing": [
            "Fox",
            "Eng.Original"
          ],
          "ads": false,
          "subtitle": []
        },
        {
          "episode": 17,
          "name": "Shelf Life",
          "iframe_url": "",
          "iframe_poster": "https://img.imgilall.me/movies/video/6/1/9/0/5/0/0/0/0/0/800x450_61905.jpeg",
          "release_ru": "2009-03-12",
          "release_world": "2009-03-11",
          "availability": "2009-03-13",
          "voiceActing": [
            "Fox",
            "Eng.Original"
          ],
          "ads": false,
          "subtitle": []
        },
        {
          "episode": 18,
          "name": "3 Women",
          "iframe_url": "",
          "iframe_poster": "https://img.imgilall.me/movies/video/6/1/9/0/6/0/0/0/0/0/800x450_61906.jpeg",
          "release_ru": "2009-03-19",
          "release_world": "2009-03-18",
          "availability": "2009-03-20",
          "voiceActing": [
            "Fox",
            "Eng.Original"
          ],
          "ads": false,
          "subtitle": []
        },
        {
          "episode": 19,
          "name": "5 Quarts",
          "iframe_url": "",
          "iframe_poster": "https://img.imgilall.me/movies/video/6/1/9/0/7/0/0/0/0/0/800x450_61907.jpeg",
          "release_ru": "2009-03-26",
          "release_world": "2009-03-25",
          "availability": "2009-03-27",
          "voiceActing": [
            "Fox",
            "Eng.Original"
          ],
          "ads": false,
          "subtitle": []
        },
        {
          "episode": 20,
          "name": "Initiative 38",
          "iframe_url": "",
          "iframe_poster": "https://img.imgilall.me/movies/video/6/1/9/0/8/0/0/0/0/0/800x450_61908.jpeg",
          "release_ru": "2009-04-02",
          "release_world": "2009-04-01",
          "availability": "2009-04-03",
          "voiceActing": [
            "Fox",
            "Eng.Original"
          ],
          "ads": false,
          "subtitle": []
        },
        {
          "episode": 21,
          "name": "One",
          "iframe_url": "",
          "iframe_poster": "https://img.imgilall.me/movies/video/6/1/9/0/9/0/0/0/0/0/800x450_61909.jpeg",
          "release_ru": "2009-04-09",
          "release_world": "2009-04-08",
          "availability": "2009-04-10",
          "voiceActing": [
            "Fox",
            "Eng.Original"
          ],
          "ads": false,
          "subtitle": []
        }
      ]
    }
  ],
  "voiceActing": [
    "Fox",
    "Eng.Original"
  ],
  "subtitle": [],
  "parts": []
}
