{
  "id": 20780,
  "name": "Битва за Хадиту",
  "name_eng": "Battle for Haditha",
  "year": 2007,
  "slogan": "«There are many ways to see the same story»",
  "age": null,
  "type": "film",
  "quality": "FHD (1080p)",
  "imdb": "6.9",
  "imdb_id": "0870211",
  "kinopoisk": "6.8",
  "kinopoisk_id": "312224",
  "world_art": null,
  "world_art_id": null,
  "time": "97 мин. / 01:37",
  "ads": false,
  "premier": "2007-09-11",
  "premier_rus": "2007-09-12",
  "availability": "2007-09-13",
  "activate_time": "2020-06-05 18:52:00",
  "budget": null,
  "fees_use": "$10 310",
  "fees_world": "+ $235 211 = $245 521",
  "fees_rus": null,
  "rate_mpaa": "R",
  "description": "Фильм о расследовании хладнокровной бойни 24 человек, мужчин, женщин и детей в городе Хадита в Ираке, расстрелянных четырьмя моряками США в отплату за убитого миной морского пехотинца. Фильм показан как три истории, которые трагически сплетутся воедино — история двух повстанцев, заложивших мину, от которой погиб солдат, история четырех морских пехотинцев, жаждущих мести за смерть одного из них, и история невинной иракской семьи, которая понесла незаслуженное наказание.",
  "iframe_url": "",
  "iframe_poster": null,
  "poster": "https://img.imgilall.me/movies/franchise/2/0/7/8/0/0/0/0/0/0/610x900_20780.jpg",
  "country": {
    "2": "Великобритания"
  },
  "collection": {
    "12": "Для мужчин"
  },
  "genre": {
    "32": "Военный",
    "28": "Исторический",
    "7": "Драма"
  },
  "director": [
    "Ник Брумфилд"
  ],
  "screenwriter": [
    "Ник Брумфилд",
    "Марк Хёферин",
    "Анна Телфорд"
  ],
  "producer": [
    "Ник Брумфилд",
    "Барни Брумфилд",
    "Питер Дэйл"
  ],
  "operator": [
    "Марк Вульф"
  ],
  "composer": [
    "Ник Лэйрд-Клоус"
  ],
  "design": [
    "Дэвид Брайан"
  ],
  "editor": [
    "Стюарт Газзард",
    "Эш Дженкинс"
  ],
  "actors": [
    "Мэттью Нолл",
    "Эллиот Руис",
    "Эрик Мехалакопулос",
    "Нэйтан Де Ла Круз",
    "Эндрю МакЛарен",
    "Джес Уиллетт",
    "Томас Хеннесси",
    "Тони Спенсер",
    "Вернон Гейнс",
    "Антонио Тостадо"
  ],
  "actors_dubl": [],
  "trivia": [],
  "trailers": [],
  "seasons": [],
  "voiceActing": [
    "Ю. Живов"
  ],
  "subtitle": [],
  "parts": []
}
