{
  "id": 14918,
  "name": "Охота на зверя",
  "name_eng": "Belly of the Beast",
  "year": 2003,
  "slogan": "«A Father's Rage Has No Limit»",
  "age": "18+",
  "type": "film",
  "quality": "HD (720p)",
  "imdb": "4.7",
  "imdb_id": "0357474",
  "kinopoisk": "5.6",
  "kinopoisk_id": "31417",
  "world_art": null,
  "world_art_id": null,
  "time": "91 мин. / 01:31",
  "ads": false,
  "premier": "2003-12-30",
  "premier_rus": "2003-12-31",
  "availability": "2003-12-31",
  "activate_time": "2020-02-05 17:28:00",
  "budget": "$18 000 000",
  "fees_use": null,
  "fees_world": null,
  "fees_rus": null,
  "rate_mpaa": "R",
  "description": "В сердце экзотического Таиланда американка Джессика Хоппер и ее подруга, дочь сенатора, становятся заложницами жестокой экстремистской группировки. Бандиты убьют девушек, если не будут выполнены их требования, и отец Джессики понимает, что медлить нельзя.Джейк Хоппер, бывший агент ЦРУ и мастер боевых искусств, и его верный напарник объявляют войну бандитам, не подозревая, что оказались в центре паутины хитроумного заговора, в котором переплелись смерть и коварное предательство, древняя восточная мистика и могущественное колдовство.",
  "iframe_url": "",
  "iframe_poster": null,
  "poster": "https://img.imgilall.me/movies/franchise/1/4/9/1/8/0/0/0/0/0/610x900_14918.jpg",
  "country": {
    "7": "Канада",
    "12": "Гонконг",
    "2": "Великобритания"
  },
  "collection": {
    "57": "Про мафию, банды"
  },
  "genre": {
    "17": "Боевик",
    "10": "Зарубежный"
  },
  "director": [
    "Тони Чин"
  ],
  "screenwriter": [
    "Джеймс Таунсенд",
    "Томас Х. Фентон",
    "Стивен Сигал"
  ],
  "producer": [
    "Джэми Браун",
    "Рэндолл Эмметт",
    "Джордж Фурла"
  ],
  "operator": [
    "Дэнни Новак"
  ],
  "composer": [
    "Марк Сайер-Уэйд"
  ],
  "design": [
    "Тревор Мюррэй",
    "Сиранат Ратчусанти",
    "Катрина МакКарти"
  ],
  "editor": [
    "Дэвид М. Ричардсон"
  ],
  "actors": [
    "Стивен Сигал",
    "Байрон Манн",
    "Моника Ло",
    "Том У",
    "Сара Малакул Лэйн",
    "Патрик Робинсон",
    "Винсент Риотта",
    "Норман Виратум",
    "Эйлид МакКуин",
    "Сиу Танг Чан"
  ],
  "actors_dubl": [],
  "trivia": [],
  "trailers": [],
  "seasons": [],
  "voiceActing": [
    "Рус. Проф. многоголосый",
    "Рус. Проф. двухголосый",
    "Eng.Original"
  ],
  "subtitle": [],
  "parts": []
}
