{
  "id": 26657,
  "name": "Вторжение",
  "name_eng": "Infestation",
  "year": 2009,
  "slogan": "«Вы уже заражены!»",
  "age": "16+",
  "type": "film",
  "quality": "HD (720p)",
  "imdb": "5.9",
  "imdb_id": "1020543",
  "kinopoisk": "5.3",
  "kinopoisk_id": "311105",
  "world_art": null,
  "world_art_id": null,
  "time": "91 мин. / 01:31",
  "ads": false,
  "premier": "2009-07-02",
  "premier_rus": "2009-07-03",
  "availability": "2009-07-04",
  "activate_time": "2020-07-08 06:25:00",
  "budget": null,
  "fees_use": null,
  "fees_world": null,
  "fees_rus": null,
  "rate_mpaa": "R",
  "description": "Куперу крупно не повезло. Он опять опоздал на работу и его увольняют. Но не успел он выйти за дверь, как жуткий звук, как будто с небес, лишил его чувств. Очнулся он в коконе из паутины. Кругом его бывшие сослуживцы и почти все они мертвы. \r\rНачалось вторжение на Землю гигантских насекомых. Любой их укус превращает землянина в такую же безобразную тварь. Купер, вместе с дочкой начальницы Сарой и оставшимися в живых людьми, пытаются выбраться из города и спастись. По дороге они встречают спецназовца на пенсии и вместе с ним начинают войну с агрессорами.",
  "iframe_url": "",
  "iframe_poster": null,
  "poster": "https://img.imgilall.me/movies/franchise/2/6/6/5/7/0/0/0/0/0/610x900_26657.jpg",
  "country": {
    "1": "США"
  },
  "collection": [],
  "genre": {
    "9": "Приключения",
    "26": "Ужасы",
    "11": "Фантастика",
    "19": "Комедия",
    "17": "Боевик",
    "13": "Триллер"
  },
  "director": [
    "Кайл Ранкин"
  ],
  "screenwriter": [
    "Кайл Ранкин"
  ],
  "producer": [
    "Джефф Балис",
    "Брюс Дэвей",
    "Роудс Рейдер"
  ],
  "operator": [
    "Томас Э. Экермен"
  ],
  "composer": [
    "Стивен Гатайнц"
  ],
  "design": [
    "Кес Бонне",
    "Мария Младенова",
    "Ivan Chankov"
  ],
  "editor": [
    "Дэвид Финфер"
  ],
  "actors": [
    "Крис Маркетт",
    "Брук Невин",
    "Кинси Паккард",
    "Е. Куинси Слоун",
    "Уэсли Томпсон",
    "Линда Пак",
    "Дебора Геффнер",
    "Джим Коуди Уильямс",
    "Брю Мюллер",
    "Исмаэль ’Ист’ Карло"
  ],
  "actors_dubl": [],
  "trivia": [],
  "trailers": [],
  "seasons": [],
  "voiceActing": [
    "Рус. Проф. многоголосый"
  ],
  "subtitle": [],
  "parts": []
}
