{
  "id": 40125,
  "name": "Смертельная ставка",
  "name_eng": "Deadly Bet",
  "year": 1991,
  "slogan": "«Winning isn't everything, it's the only thing»",
  "age": null,
  "type": "film",
  "quality": "SD",
  "imdb": "5.1",
  "imdb_id": "0104066",
  "kinopoisk": "5.6",
  "kinopoisk_id": "31972",
  "world_art": null,
  "world_art_id": null,
  "time": "92 мин. / 01:32",
  "ads": false,
  "premier": "1992-04-16",
  "premier_rus": "1992-04-17",
  "availability": "1992-04-18",
  "activate_time": "2020-10-30 23:01:00",
  "budget": null,
  "fees_use": null,
  "fees_world": null,
  "fees_rus": null,
  "rate_mpaa": "R",
  "description": "Анжело с подругой приезжает в Лас-Вегас и решает принять участие в подпольном турнире по кикбоксингу, однако одолеть местного чемпиона Рико оказывается ему не по зубам. В результате Анжело проигрывает все свои деньги, теряет девушку и оказывается по уши в долгах. Но у него всё ещё есть шанс реабилитироваться: на носу новый нелегальный чемпионат с призовым фондом в миллион долларов, правда в числе его участников будет всё тот же Рико.",
  "iframe_url": "",
  "iframe_poster": null,
  "poster": "https://img.imgilall.me/movies/franchise/4/0/1/2/5/0/0/0/0/0/610x900_40125.jpg",
  "country": {
    "1": "США"
  },
  "collection": [],
  "genre": {
    "17": "Боевик"
  },
  "director": [
    "Ричард У. Манчкин"
  ],
  "screenwriter": [
    "Джозеф Мерхи",
    "Роберт Тиффи"
  ],
  "producer": [
    "Джозеф Мерхи",
    "Ричард Пепин",
    "Джин Ливайн"
  ],
  "operator": [
    "Ричард Пепин"
  ],
  "composer": [
    "Луи Фебре"
  ],
  "design": [
    "Грегори Мартин"
  ],
  "editor": [
    "Джерент Белл",
    "Джон Уайднер"
  ],
  "actors": [
    "Джефф Уинкотт",
    "Стивен Винсент Ли",
    "Шарлин Тилтон",
    "Майкл ДеЛано",
    "Майк Тони",
    "Джерри Тиффе",
    "Рэй «Бум Бум» Манчини",
    "Шерри Роуз",
    "Пэтти Той",
    "Карл Бутто"
  ],
  "actors_dubl": [],
  "trivia": [],
  "trailers": [],
  "seasons": [],
  "voiceActing": [
    "А. Дольский"
  ],
  "subtitle": [],
  "parts": []
}
