{
  "id": 844,
  "name": "Предложение",
  "name_eng": "The Proposal",
  "year": 2009,
  "slogan": "«Горько?.»",
  "age": "16+",
  "type": "film",
  "quality": "FHD (1080p)",
  "imdb": "6.7",
  "imdb_id": "1041829",
  "kinopoisk": "7.6",
  "kinopoisk_id": "321842",
  "world_art": null,
  "world_art_id": null,
  "time": "108 мин. / 01:48",
  "ads": false,
  "premier": "2009-06-01",
  "premier_rus": "2009-06-18",
  "availability": null,
  "activate_time": "2018-07-04 15:45:56",
  "budget": "$40 000 000",
  "fees_use": "$163 958 031",
  "fees_world": "+ $153 417 000 = $317 375 031",
  "fees_rus": "$7 594 066",
  "rate_mpaa": "PG-13",
  "description": "Главная героиня фильма – ответственная начальница, которой грозит высылка в Канаду. Ради того, чтобы избежать ссылки в край озер, героиня готова на все – даже фиктивно выскочить замуж за своего молодого ассистента...",
  "iframe_url": "",
  "iframe_poster": null,
  "poster": "https://img.imgilall.me/movies/franchise/8/4/4/0/0/0/0/0/0/0/610x900_844.jpg",
  "country": {
    "1": "США"
  },
  "collection": {
    "36": "Романтические комедии",
    "38": "Про любовь",
    "11": "Для женщин"
  },
  "genre": {
    "19": "Комедия",
    "10": "Зарубежный",
    "8": "Мелодрама",
    "7": "Драма"
  },
  "director": [
    "Энн Флетчер"
  ],
  "screenwriter": [
    "Пит Чиарелли"
  ],
  "producer": [
    "Дэвид Хоберман",
    "Тодд Либерман",
    "Сандра Буллок"
  ],
  "operator": [
    "Оливер Степлтон"
  ],
  "composer": [
    "Аарон Цигман"
  ],
  "design": [
    "Нельсон Коутс",
    "Скотт Миэн",
    "Катрин Мари Томас"
  ],
  "editor": [
    "Присцилла Недд-Френдли"
  ],
  "actors": [
    "Сандра Буллок",
    "Райан Рейнольдс",
    "Мэри Стинберген",
    "Крэйг Т. Нельсон",
    "Бетти Уайт",
    "Денис О’Хэр",
    "Малин Акерман",
    "Оскар Нуньес",
    "Аасиф Мандви",
    "Майкл Нури"
  ],
  "actors_dubl": [
    "Светлана Кузнецова",
    "Андрей Лёвин",
    "Александра Кожевникова",
    "Александр Аравушкин",
    "Майя Блинова"
  ],
  "trivia": [
    "Главная женская роль первоначально была отведена Джулии Робертс, но актриса не согласилась пойти на урезание своего обычного гонорара, и была заменена на Сандру Буллок."
  ],
  "trailers": [],
  "seasons": [],
  "voiceActing": [
    "Рус. Дублированный",
    "Укр. Дубльований",
    "Eng.Original"
  ],
  "subtitle": [
    "Рус. форсированные"
  ],
  "parts": []
}
