{
  "id": 27467,
  "name": "Монти Уолш",
  "name_eng": "Monte Walsh",
  "year": 2003,
  "slogan": "—",
  "age": null,
  "type": "film",
  "quality": "HD (720p)",
  "imdb": "7.1",
  "imdb_id": "0329390",
  "kinopoisk": "7.2",
  "kinopoisk_id": "326104",
  "world_art": null,
  "world_art_id": null,
  "time": "117 мин. / 01:57",
  "ads": false,
  "premier": "2003-01-17",
  "premier_rus": "2003-01-18",
  "availability": "2003-01-19",
  "activate_time": "2020-07-25 08:20:00",
  "budget": null,
  "fees_use": null,
  "fees_world": null,
  "fees_rus": null,
  "rate_mpaa": "PG-13",
  "description": "По мере приближения нового века стареющий ковбой старается придерживаться тех традиций, которые сделали его легендой. В то время как его тихий городок превращается в опустевшее место, как его друзья и любимые приходят и уходят, самыми сложными и загадочными для Монти Уолша навсегда останутся человеческое сердце и человеческая душа.",
  "iframe_url": "",
  "iframe_poster": null,
  "poster": "https://img.imgilall.me/movies/franchise/2/7/4/6/7/0/0/0/0/0/610x900_27467.jpg",
  "country": {
    "1": "США"
  },
  "collection": [],
  "genre": {
    "29": "Вестерн",
    "8": "Мелодрама"
  },
  "director": [
    "Саймон Уинсер"
  ],
  "screenwriter": [
    "Майкл Брэндмэн",
    "Роберт Б. Паркер",
    "Дэвид Зелаг Гудман"
  ],
  "producer": [
    "Джон Албанис",
    "Майкл Брэндмэн",
    "Стивен Дж. Брэндмэн"
  ],
  "operator": [
    "Дэвид Эггби"
  ],
  "composer": [
    "Эрик Колвин"
  ],
  "design": [
    "Рик Робертс",
    "Джанет Лейкман",
    "Майкл Т. Бойд"
  ],
  "editor": [
    "Алан Баумгартен"
  ],
  "actors": [
    "Том Селлек",
    "Изабелла Росселлини",
    "Кит Кэрредин",
    "Джордж Идс",
    "Роберт Кэрредин",
    "Бэрри Корбин",
    "Джеймс Гэммон",
    "Рекс Линн",
    "Джон Майкл Хиггинс",
    "Уильям Сэндерсон"
  ],
  "actors_dubl": [],
  "trivia": [],
  "trailers": [],
  "seasons": [],
  "voiceActing": [
    "Diva Universal"
  ],
  "subtitle": [],
  "parts": []
}
