{
  "id": 21999,
  "name": "Наша секретная жизнь",
  "name_eng": "The Secret Life of Us",
  "year": 2001,
  "slogan": "—",
  "age": null,
  "type": "series",
  "quality": "SD",
  "imdb": "7.6",
  "imdb_id": "0289825",
  "kinopoisk": "8.0",
  "kinopoisk_id": "337735",
  "world_art": null,
  "world_art_id": null,
  "time": "43 мин",
  "ads": false,
  "premier": "2001-07-16",
  "premier_rus": "2001-07-17",
  "availability": "2001-07-18",
  "serial_status": "offline",
  "activate_time": "2020-06-05 14:48:00",
  "budget": null,
  "fees_use": null,
  "fees_world": null,
  "fees_rus": null,
  "rate_mpaa": null,
  "description": "Сериал о жизни восьми друзей, живущих в Мельбурне и жаждущих того же, чего хотят все: секса, любви, карьеры, дружбы, успеха и снова секса. Они веселятся, пьют и думают слишком много. Они стараются не обидеть друг друга, но ничего не остается в секрете надолго, особенно в квартирном блоке по улице Кильда! Какая гамма чувств владеет друзьями! Иногда они безумно влюбляются и удивляются тому, как нравится им это чувство. У каждого героя есть привязанности, скелеты в шкафу, тайные чаяния, мечты и заветные секреты...",
  "iframe_url": "",
  "poster": "https://img.imgilall.me/movies/franchise/2/1/9/9/9/0/0/0/0/0/610x900_21999.jpg",
  "country": {
    "4": "Австралия"
  },
  "collection": [],
  "genre": {
    "7": "Драма"
  },
  "director": [
    "Стюарт МакДональд",
    "Роджер Хуткман",
    "Дэниэл Неттхейм"
  ],
  "screenwriter": [
    "Джуди МакКроссин",
    "Кристофер Ли",
    "Тони МакНамара"
  ],
  "producer": [
    "Джон Эдвардс",
    "Аманда Хиггс",
    "Росс Олсоп"
  ],
  "operator": [
    "Брендан Лэвэлл",
    "Эллери Райан",
    "Steve Welsh"
  ],
  "composer": [
    "Крис Петтифер",
    "Мюррэй Джемисон",
    "Мартин Армигер"
  ],
  "design": [
    "Сэлли Шеперд",
    "Аделе Флер",
    "Аделе Флер"
  ],
  "editor": [
    "Питер Кэрродэс",
    "Денис Харатзис",
    "Штраттс Псиридис"
  ],
  "actors": [
    "Дебора Мэйлман",
    "Дэвид Трединник",
    "Сэмюэл Джонсон",
    "Сибилла Бадд",
    "Спенсер МакЛарен",
    "Эби Такер",
    "Клаудия Карван",
    "Майкл Дорман",
    "Дэмиан Де Монтема",
    "Джоэл Эдгертон"
  ],
  "actors_dubl": [],
  "trivia": [],
  "trailers": [],
  "seasons": [
    {
      "poster": null,
      "release_ru": null,
      "release_world": null,
      "availability": null,
      "iframe_url": "",
      "season": 1,
      "episodes": [
        {
          "episode": 1,
          "name": null,
          "iframe_url": "",
          "iframe_poster": null,
          "release_ru": null,
          "release_world": null,
          "availability": null,
          "voiceActing": [
            "Рус. Проф. многоголосый"
          ],
          "ads": false,
          "subtitle": []
        },
        {
          "episode": 2,
          "name": null,
          "iframe_url": "",
          "iframe_poster": null,
          "release_ru": null,
          "release_world": null,
          "availability": null,
          "voiceActing": [
            "Рус. Проф. многоголосый"
          ],
          "ads": false,
          "subtitle": []
        },
        {
          "episode": 3,
          "name": null,
          "iframe_url": "",
          "iframe_poster": null,
          "release_ru": null,
          "release_world": null,
          "availability": null,
          "voiceActing": [
            "Рус. Проф. многоголосый"
          ],
          "ads": false,
          "subtitle": []
        },
        {
          "episode": 4,
          "name": null,
          "iframe_url": "",
          "iframe_poster": null,
          "release_ru": null,
          "release_world": null,
          "availability": null,
          "voiceActing": [
            "Рус. Проф. многоголосый"
          ],
          "ads": false,
          "subtitle": []
        },
        {
          "episode": 5,
          "name": null,
          "iframe_url": "",
          "iframe_poster": null,
          "release_ru": null,
          "release_world": null,
          "availability": null,
          "voiceActing": [
            "Рус. Проф. многоголосый"
          ],
          "ads": false,
          "subtitle": []
        },
        {
          "episode": 6,
          "name": null,
          "iframe_url": "",
          "iframe_poster": null,
          "release_ru": null,
          "release_world": null,
          "availability": null,
          "voiceActing": [
            "Рус. Проф. многоголосый"
          ],
          "ads": false,
          "subtitle": []
        }
      ]
    }
  ],
  "voiceActing": [
    "Рус. Проф. многоголосый"
  ],
  "subtitle": [],
  "parts": []
}
