{
  "id": 31090,
  "name": "Во всем виноват посыльный",
  "name_eng": "Blame It on the Bellboy",
  "year": 1992,
  "slogan": "—",
  "age": "12+",
  "type": "film",
  "quality": "HD (720p)",
  "imdb": "5.5",
  "imdb_id": "0",
  "kinopoisk": "6.8",
  "kinopoisk_id": "33625",
  "world_art": null,
  "world_art_id": null,
  "time": "78 мин. / 01:18",
  "ads": false,
  "premier": "1992-01-24",
  "premier_rus": "1992-01-25",
  "availability": "1992-01-26",
  "activate_time": "2020-07-12 11:17:00",
  "budget": null,
  "fees_use": "$3 104 545",
  "fees_world": null,
  "fees_rus": null,
  "rate_mpaa": "PG-13",
  "description": "Отель «Габриэлла» повидал на своем веку много забавного, но такая неразбериха в его стенах царит впервые! Педантичный киллер Лоутон охотится за одинокой леди, которую ему не заказывали. Брокер по недвижимости Ортон пытается навязать сделку толпе угрюмых мафиози.А ищущий любви на стороне женатый Хортон приходит на свидание туда, где настроились на деловую встречу. Кто ж виноват в этом нагромождении ошибок? А виноват простодушный посыльный отеля, перепутавший похожие фамилии постояльцев и передавший каждому послание, предназначенное для другого. И этой малости хватило, чтобы вызвать целую лавину анекдотических недоразумений.",
  "iframe_url": "",
  "iframe_poster": null,
  "poster": "https://img.imgilall.me/movies/franchise/3/1/0/9/0/0/0/0/0/0/610x900_31090.jpg",
  "country": {
    "1": "США",
    "2": "Великобритания"
  },
  "collection": [],
  "genre": {
    "19": "Комедия"
  },
  "director": [
    "Марк Херман"
  ],
  "screenwriter": [
    "Марк Херман"
  ],
  "producer": [
    "Стив Эбботт",
    "Дженнифер Ховарт"
  ],
  "operator": [
    "Эндрю Данн"
  ],
  "composer": [
    "Тревор Джонс"
  ],
  "design": [
    "Джемма Джексон",
    "Питер Расселл",
    "Линди Хемминг"
  ],
  "editor": [
    "Майкл Эллис"
  ],
  "actors": [
    "Дадли Мур",
    "Брайан Браун",
    "Ричард Гриффитс",
    "Андреас Кацулас",
    "Пэтси Кензит",
    "Элисон Стэдмен",
    "Пенелопа Уилтон",
    "Бронсон Пиншо",
    "Джим Картер",
    "Алекс Нортон"
  ],
  "actors_dubl": [
    "Александр Леньков",
    "Тимофей Спивак",
    "Андрей Мартынов",
    "Рогволд Суховерко",
    "Марина Дюжева"
  ],
  "trivia": [],
  "trailers": [],
  "seasons": [],
  "voiceActing": [
    "Cartoon Network"
  ],
  "subtitle": [],
  "parts": []
}
