{
  "id": 41881,
  "name": "Казус импровизус (ТВ)",
  "name_eng": "",
  "year": 1991,
  "slogan": "—",
  "age": null,
  "type": "film",
  "quality": "SD",
  "imdb": "4.6",
  "imdb_id": "0128983",
  "kinopoisk": "5.8",
  "kinopoisk_id": "331844",
  "world_art": null,
  "world_art_id": null,
  "time": "75 мин. / 01:15",
  "ads": false,
  "premier": null,
  "premier_rus": "1992-01-13",
  "availability": "1992-01-14",
  "activate_time": "2020-11-10 14:45:00",
  "budget": null,
  "fees_use": null,
  "fees_world": null,
  "fees_rus": null,
  "rate_mpaa": null,
  "description": "Действие происходит в курортной больнице, места в которой занимают вполне здоровые отдыхающие...",
  "iframe_url": "",
  "iframe_poster": null,
  "poster": "https://img.imgilall.me/movies/franchise/4/1/8/8/1/0/0/0/0/0/610x900_41881.jpg",
  "country": {
    "24": "СССР"
  },
  "collection": [],
  "genre": {
    "19": "Комедия"
  },
  "director": [
    "Евгений Каменькович",
    "Алла Сурикова"
  ],
  "screenwriter": [
    "Александр Буравский",
    "Валерий Шувалов",
    "Алла Сурикова"
  ],
  "producer": [],
  "operator": [
    "Валерий Шувалов"
  ],
  "composer": [
    "Владимир Быстряков"
  ],
  "design": [
    "Александр Боровский",
    "Владимир Королев"
  ],
  "editor": [
    "Инесса Брожовская"
  ],
  "actors": [
    "Александр Марин",
    "Мария Миронова",
    "Владимир Машков",
    "Ирина Петрова"
  ],
  "actors_dubl": [],
  "trivia": [],
  "trailers": [],
  "seasons": [],
  "voiceActing": [
    "Original"
  ],
  "subtitle": [],
  "parts": []
}
