{
  "id": 26554,
  "name": "Фантазм",
  "name_eng": "Phantasm",
  "year": 1978,
  "slogan": "«If you're looking for horror that's got balls...IT'S FOUND YOU»",
  "age": "16+",
  "type": "film",
  "quality": "HD (720p)",
  "imdb": "6.7",
  "imdb_id": "0079714",
  "kinopoisk": "6.7",
  "kinopoisk_id": "33614",
  "world_art": null,
  "world_art_id": null,
  "time": "85 мин. / 01:25",
  "ads": false,
  "premier": "1979-03-28",
  "premier_rus": "1979-03-29",
  "availability": "1979-03-30",
  "activate_time": "2020-07-08 13:41:00",
  "budget": "$300 000",
  "fees_use": "$11 988 469",
  "fees_world": null,
  "fees_rus": null,
  "rate_mpaa": "R",
  "description": "Подросток Майк становится свидетелем таинственных событий на городском кладбище Морнингсайд. Мрачный гробовщик – двухметровый Верзила – прямо из могил крадет свежие трупы и творит с ними в глубине похоронного бюро нечто ужасное. Родители Майка погибли, старший брат Джоди не верит ему - трудно принять всерьез рассказы мальчишки о злобных зомби-карликах и летающих сферах-убийцах. Но вскоре Джоди и его другу мороженщику Рэджи придется убедиться в том, как опасен Верзила и его твари.",
  "iframe_url": "",
  "iframe_poster": null,
  "poster": "https://img.imgilall.me/movies/franchise/2/6/5/5/4/0/0/0/0/0/610x900_26554.jpg",
  "country": {
    "1": "США"
  },
  "collection": [],
  "genre": {
    "26": "Ужасы",
    "11": "Фантастика"
  },
  "director": [
    "Дон Коскарелли"
  ],
  "screenwriter": [
    "Дон Коскарелли"
  ],
  "producer": [
    "Дак Коскарелли",
    "Пол Пепперман"
  ],
  "operator": [
    "Дон Коскарелли"
  ],
  "composer": [
    "Фред Майроу",
    "Малкольм Сигрейв"
  ],
  "design": [
    "Кейт Коскарелли",
    "Дэвид Гэвин Браун"
  ],
  "editor": [
    "Дон Коскарелли"
  ],
  "actors": [
    "А. Майкл Болдуин",
    "Ангус Скримм",
    "Билл Торнбери",
    "Рэджи Бэннистер",
    "Кэти Лестер",
    "Терри Калбус",
    "Кеннет В. Джонс",
    "Сьюзэн Харпер",
    "Линн Истмэн",
    "Дэвид Арнцен"
  ],
  "actors_dubl": [],
  "trivia": [
    "Дон Коскарелли в своем интервью сказал, что в Верзиле хотел воплотить саму смерть.",
    "Мать Дона Коскарелли занималась костюмами и гримом.",
    "Первоначальный хронометраж фильма составлял 3 часа.",
    "В фильме есть несколько отсылок к книге Фрэнка Герберта «Дюна», например — бар под названием «Дюна».",
    "В сцене похорон снимались родители Дона Коскарелли и Рэджи Бэннистера.",
    "Роли гномов исполняли дети.",
    "Сценарий фильма был написан за три недели Доном Коскарелли в уединении в собственном горном домике.",
    "Съёмки фильма осуществлялись на камеры Panavision. Чтобы сэкономить деньги, выделенные ему отцом для съёмок фильма (около 300 тысяч долларов), Коскарелли арендовывал дорогое оборудование по пятницам, использовал их на выходных, а возвращал в понедельник оплачивая аренду за один рабочий день.",
    "Интерьеры похоронного дома были выстроены в помещении старого склада вместе с Полом Пепперманом — со-продюсер фильма и давний приятель Коскарелли. Экстерьеры дома снимали в Окланде (Калифорния) со старинного викторианского особняка, который также снимали для фильма ужасов «Burnt Offerings» (1976) и для одной из серии фильмов про Джеймса Бонда — «Вид на убийство»(1985)",
    "Рост Скримма 193 см. Чтобы быть ещё выше при съёмках в роли персонажа Верзилы, он носил костюмы на несколько размеров меньше и туфли на платформе. Сыгранная им роль в «Фантазме» обеспечила ему стабильную актёрскую карьеру в кино и на телевидении.",
    "В Австралии дистрибьютеры были вынуждены изменить название фильма на The Never Dead, из-за популярной австралийской секс-комедии «Фантазм» (1976)."
  ],
  "trailers": [],
  "seasons": [],
  "voiceActing": [
    "Diva Universal"
  ],
  "subtitle": [],
  "parts": []
}
