{
  "id": 41026,
  "name": "Между двух огней",
  "name_eng": "Sir",
  "year": 1993,
  "slogan": "—",
  "age": null,
  "type": "film",
  "quality": "HD (720p)",
  "imdb": "6.3",
  "imdb_id": "0108144",
  "kinopoisk": null,
  "kinopoisk_id": "34947",
  "world_art": null,
  "world_art_id": null,
  "time": "151 мин. / 02:31",
  "ads": false,
  "premier": "1993-06-21",
  "premier_rus": "1993-06-22",
  "availability": "1993-06-23",
  "activate_time": "2020-11-07 20:24:00",
  "budget": null,
  "fees_use": null,
  "fees_world": null,
  "fees_rus": null,
  "rate_mpaa": null,
  "description": "Преподаватель колледжа Варма вызывается помочь одной из своих студенток, страдающей от заикания, но она оказывается родной дочерью главаря мафиозной группировки и её собирается похитить конкурирующая банда. Вопреки своей воле Варма оказывается втянутым в мафиозные разборки...",
  "iframe_url": "",
  "iframe_poster": null,
  "poster": "https://img.imgilall.me/movies/franchise/4/1/0/2/6/0/0/0/0/0/610x900_41026.jpg",
  "country": {
    "26": "Индия"
  },
  "collection": [],
  "genre": {
    "25": "Криминал",
    "7": "Драма"
  },
  "director": [
    "Махеш Бхатт"
  ],
  "screenwriter": [
    "Джей Диксит"
  ],
  "producer": [
    "Мукеш Бхатт"
  ],
  "operator": [
    "Правин Бхатт"
  ],
  "composer": [
    "Ану Малик"
  ],
  "design": [
    "Гаппа Чакраворти",
    "Хари Бхираде",
    "Санду Сонаван"
  ],
  "editor": [
    "Санджай Санкла"
  ],
  "actors": [
    "Насируддин Шах",
    "Пуджа Бхатт",
    "Атул Агнихотри",
    "Пареш Раваль",
    "Автар Гилл",
    "Сони Раздан",
    "Сушмита Махержи",
    "Гульшан Гровер",
    "Abha Ranjan",
    "Сухас Бхалекар"
  ],
  "actors_dubl": [],
  "trivia": [],
  "trailers": [],
  "seasons": [],
  "voiceActing": [
    "Важенин (BadBajo)"
  ],
  "subtitle": [],
  "parts": []
}
