{
  "id": 41319,
  "name": "Любовь, любовь, любовь",
  "name_eng": "Love Love Love",
  "year": 1989,
  "slogan": "—",
  "age": "16+",
  "type": "film",
  "quality": "HD (720p)",
  "imdb": "5.5",
  "imdb_id": "0097784",
  "kinopoisk": "8.0",
  "kinopoisk_id": "34962",
  "world_art": null,
  "world_art_id": null,
  "time": "146 мин. / 02:26",
  "ads": false,
  "premier": null,
  "premier_rus": null,
  "availability": null,
  "activate_time": "2020-11-11 16:13:00",
  "budget": null,
  "fees_use": null,
  "fees_world": null,
  "fees_rus": null,
  "rate_mpaa": null,
  "description": "Любовь есть любовь. Ей чужды сословные различия. Но мир так часто жесток к влюбленным... Сын таксиста и дочь владельца процветающей фирмы полюбили друг друга. И что тут началось!",
  "iframe_url": "",
  "iframe_poster": null,
  "poster": "https://img.imgilall.me/movies/franchise/4/1/3/1/9/0/0/0/0/0/610x900_41319.jpg",
  "country": {
    "26": "Индия"
  },
  "collection": [],
  "genre": {
    "8": "Мелодрама",
    "7": "Драма"
  },
  "director": [
    "Баббар Субхаш"
  ],
  "screenwriter": [
    "Баббар Субхаш"
  ],
  "producer": [
    "Баббар Субхаш"
  ],
  "operator": [
    "Радху Кармакар"
  ],
  "composer": [
    "Баппи Лахири"
  ],
  "design": [
    "Марутирао В. Кейл"
  ],
  "editor": [],
  "actors": [
    "Аамир Кхан",
    "Джухи Чавла",
    "Гульшан Гровер",
    "Далип Тахил",
    "Ом Шивпури",
    "Сарла Йеолекар",
    "Ананд Балрадж",
    "Джая Матур",
    "Чандрашекхар",
    "Шаши Киран"
  ],
  "actors_dubl": [
    "Иван Латышев",
    "Анна Мазур",
    "Геннадий Богачёв",
    "Владимир Летенков",
    "Вадим Яковлев"
  ],
  "trivia": [],
  "trailers": [],
  "seasons": [],
  "voiceActing": [
    "Cartoon Network"
  ],
  "subtitle": [],
  "parts": []
}
