{
  "id": 38375,
  "name": "Жертва во имя любви",
  "name_eng": "Pyar Ke Naam Qurbaan",
  "year": 1989,
  "slogan": "—",
  "age": "12+",
  "type": "film",
  "quality": "HD (720p)",
  "imdb": "5.7",
  "imdb_id": "0363915",
  "kinopoisk": "6.5",
  "kinopoisk_id": "34959",
  "world_art": null,
  "world_art_id": null,
  "time": "134 мин. / 02:14",
  "ads": false,
  "premier": "1990-01-05",
  "premier_rus": "1990-01-06",
  "availability": "1990-01-07",
  "activate_time": "2020-10-12 12:46:00",
  "budget": null,
  "fees_use": null,
  "fees_world": null,
  "fees_rus": null,
  "rate_mpaa": null,
  "description": "Любовь безответная, месть за бесчестье, подкупленный суд, самоубийство, похищение и счастливый конец - любовь взаимная...",
  "iframe_url": "",
  "iframe_poster": null,
  "poster": "https://img.imgilall.me/movies/franchise/3/8/3/7/5/0/0/0/0/0/610x900_38375.jpg",
  "country": {
    "26": "Индия"
  },
  "collection": [],
  "genre": {
    "25": "Криминал",
    "17": "Боевик",
    "8": "Мелодрама",
    "7": "Драма"
  },
  "director": [
    "Баббар Субхаш"
  ],
  "screenwriter": [
    "Анджан",
    "Др. Рахи Масум Реза",
    "Баббар Субхаш"
  ],
  "producer": [
    "Баббар Субхаш"
  ],
  "operator": [
    "Радху Кармакар"
  ],
  "composer": [
    "Баппи Лахири"
  ],
  "design": [
    "Марутирао В. Кейл"
  ],
  "editor": [
    "Мангеш Шаван"
  ],
  "actors": [
    "Митхун Чакраборти",
    "Димпл Кападиа",
    "Мандакини",
    "Дэнни Дензонгпа",
    "Юнус Парвез",
    "Раза Мурад",
    "Пайнтал",
    "Гульшан Гровер",
    "Гуллу Гандхи",
    "Шаши Киран"
  ],
  "actors_dubl": [
    "Владислав Пупков",
    "Валентина Гришокина",
    "Людмила Логийко",
    "Игорь Стариков",
    "Евгений Паперный"
  ],
  "trivia": [],
  "trailers": [],
  "seasons": [],
  "voiceActing": [
    "Cartoon Network"
  ],
  "subtitle": [],
  "parts": []
}
