{
  "id": 41346,
  "name": "Жаждущий мщения",
  "name_eng": "Ahankaar",
  "year": 1995,
  "slogan": "—",
  "age": "16+",
  "type": "film",
  "quality": "SD",
  "imdb": "6.0",
  "imdb_id": "0112309",
  "kinopoisk": null,
  "kinopoisk_id": "34927",
  "world_art": null,
  "world_art_id": null,
  "time": "148 мин. / 02:28",
  "ads": false,
  "premier": "1995-08-25",
  "premier_rus": "1995-08-26",
  "availability": "1995-08-27",
  "activate_time": "2020-11-10 07:34:00",
  "budget": null,
  "fees_use": null,
  "fees_world": null,
  "fees_rus": null,
  "rate_mpaa": null,
  "description": "После того, как отца молодого Прабхата посадили в тюрьму, на него ложится ответственность за семью: мачеху — вторую жену отца и ее двоих детей. С большим трудом, но к радости всей семьи и своей девушки Прабхат находит себе работу.Но случается так, что он застает за кражей управляющего фабрики Према, за что того арестовывают. Выйдя на свободу Прем с помощью своей дочери строит коварные замыслы мести.",
  "iframe_url": "",
  "iframe_poster": null,
  "poster": "https://img.imgilall.me/movies/franchise/4/1/3/4/6/0/0/0/0/0/610x900_41346.jpg",
  "country": {
    "26": "Индия"
  },
  "collection": [],
  "genre": {
    "17": "Боевик"
  },
  "director": [
    "Ашим С. Саманта"
  ],
  "screenwriter": [
    "Раджив Кол"
  ],
  "producer": [
    "Шакти Саманта"
  ],
  "operator": [
    "Алоке Дасгупта"
  ],
  "composer": [
    "Ану Малик"
  ],
  "design": [],
  "editor": [],
  "actors": [
    "Мохниш Бехл",
    "Митхун Чакраборти",
    "Прем Чопра",
    "Гульшан Гровер",
    "Динеш Хингу",
    "Аруна Ирани",
    "Дэйзи Ирани",
    "Ариф Кхан",
    "Мамта Кулкарни",
    "Сунила"
  ],
  "actors_dubl": [],
  "trivia": [],
  "trailers": [],
  "seasons": [],
  "voiceActing": [
    "Рус. Одноголосый"
  ],
  "subtitle": [],
  "parts": []
}
