{
  "id": 20778,
  "name": "С первого взгляда",
  "name_eng": "At First Sight",
  "year": 1999,
  "slogan": "«Only Love Can Bring You To Your Senses»",
  "age": "16+",
  "type": "film",
  "quality": "SD",
  "imdb": "6.0",
  "imdb_id": "0132512",
  "kinopoisk": "7.5",
  "kinopoisk_id": "3625",
  "world_art": null,
  "world_art_id": null,
  "time": "128 мин. / 02:08",
  "ads": false,
  "premier": "1999-01-12",
  "premier_rus": "1999-01-13",
  "availability": "1999-01-14",
  "activate_time": "2020-06-05 19:40:00",
  "budget": "$60 000 000",
  "fees_use": "$22 365 133",
  "fees_world": null,
  "fees_rus": null,
  "rate_mpaa": "PG-13",
  "description": "Картина снята на основе реальных событий, описанных известным американским писателем Оливером Саксом. Увидеть мир, который не мог видеть раньше, - это как родиться во второй раз. Еще ребенком Вирджил ослеп и потом вынужден был жить в мире, в котором... который он даже не знал как выглядит. Что такое цвет, пейзаж, как выглядит любимая девушка?И тут случилось чудо: хирург делает невозможное и возвращает Вирджилу, уже молодому человеку, зрение! Вот бинты после операции сняты и ему предстоит увидеть мир СВОИМИ глазами.",
  "iframe_url": "",
  "iframe_poster": null,
  "poster": "https://img.imgilall.me/movies/franchise/2/0/7/7/8/0/0/0/0/0/610x900_20778.jpg",
  "country": {
    "1": "США"
  },
  "collection": [],
  "genre": {
    "8": "Мелодрама",
    "7": "Драма"
  },
  "director": [
    "Ирвин Уинклер"
  ],
  "screenwriter": [
    "Стив Левитт",
    "Оливер Сакс"
  ],
  "producer": [
    "Роб Кауэн",
    "Ирвин Уинклер",
    "Роджер Парадизо"
  ],
  "operator": [
    "Джон Сил"
  ],
  "composer": [
    "Марк Айшем"
  ],
  "design": [
    "Джейн Маски",
    "Роберт Гуерра",
    "Джон А. Данн"
  ],
  "editor": [
    "Джули Монро"
  ],
  "actors": [
    "Вэл Килмер",
    "Мира Сорвино",
    "Келли МакГиллис",
    "Стивен Уэбер",
    "Брюс Дэвисон",
    "Нэйтан Лейн",
    "Кен Ховард",
    "Лаура Кирк",
    "Марго Уинклер",
    "Дайана Кролл"
  ],
  "actors_dubl": [
    "Валерий Сторожик",
    "Анна Каменкова",
    "Марина Тарасова",
    "Владимир Конкин",
    "Никита Прозоровский"
  ],
  "trivia": [
    "Фильм основан на реальных событиях, описанных в книге «To See And Not To See», американского невролога и нейропсихолога, доктора Оливера Сакса, другие исследования которого так же послужили основой к сюжету фильма «Пробуждение»."
  ],
  "trailers": [],
  "seasons": [],
  "voiceActing": [
    "Рус. Проф. многоголосый"
  ],
  "subtitle": [],
  "parts": []
}
