{
  "id": 40159,
  "name": "Вот и пришла любовь",
  "name_eng": "Hote Hote Pyar Hogaya",
  "year": 1999,
  "slogan": "—",
  "age": null,
  "type": "film",
  "quality": "SD",
  "imdb": "5.0",
  "imdb_id": "0206020",
  "kinopoisk": "7.8",
  "kinopoisk_id": "36580",
  "world_art": null,
  "world_art_id": null,
  "time": "125 мин. / 02:05",
  "ads": false,
  "premier": "1999-06-10",
  "premier_rus": "1999-06-11",
  "availability": "1999-06-12",
  "activate_time": "2020-10-31 04:52:00",
  "budget": null,
  "fees_use": "$214 574",
  "fees_world": null,
  "fees_rus": null,
  "rate_mpaa": null,
  "description": "Пинки и Банти учатся в колледже и встречаются на Молодёжном фестивале. Они сразу же проникают симпатией друг к другу и вскоре объясняются в любви. Но у их родителей свои планы относительно их будущей судьбы.Отец Банти обещал женить его на дочке близкогодруга, а Пинки помолвлена с офицером полиции Арджуном. Единственный способ соединить свои судьбы — бежать. Однако тётя Бинти отговаривает их от этого опрометчивого шага и предлагает свой вариант решения проблемы.",
  "iframe_url": "",
  "iframe_poster": null,
  "poster": "https://img.imgilall.me/movies/franchise/4/0/1/5/9/0/0/0/0/0/610x900_40159.jpg",
  "country": {
    "26": "Индия"
  },
  "collection": [],
  "genre": {
    "25": "Криминал",
    "17": "Боевик",
    "8": "Мелодрама"
  },
  "director": [
    "Фероз Ирани"
  ],
  "screenwriter": [
    "Фероз Ирани",
    "Сарой Кхан",
    "Наим-Еджаз"
  ],
  "producer": [
    "Ашутош Баджпай",
    "Прадип Джайн",
    "Саумил Пател"
  ],
  "operator": [
    "Дамодар Найду"
  ],
  "composer": [
    "Ананд Радж Ананд",
    "Эджаз Хуссэйн",
    "Чандер Макхавана"
  ],
  "design": [
    "Сайед Давуд Сайед",
    "Камакши Ирани",
    "Шабина Кхан"
  ],
  "editor": [
    "Хуссэйн А. Бурмавала"
  ],
  "actors": [
    "Каджол",
    "Атул Агнихотри",
    "Джеки Шрофф",
    "Аеша Джулка",
    "Аруна Ирани",
    "Кулбхушан Харбанда",
    "Ади Ирани",
    "Прем Чопра",
    "Mukesh Bansal",
    "Ашутош Баджпай"
  ],
  "actors_dubl": [],
  "trivia": [],
  "trailers": [],
  "seasons": [],
  "voiceActing": [
    "Diva Universal"
  ],
  "subtitle": [],
  "parts": []
}
