{
  "id": 1971,
  "name": "Футурама: Зверь с миллиардом спин",
  "name_eng": "Futurama: The Beast with a Billion Backs",
  "year": 2008,
  "slogan": "«Новое  полнометражное  космическое  приключение!!»",
  "age": "12+",
  "type": "cartoon",
  "quality": "FHD (1080p)",
  "imdb": "7.2",
  "imdb_id": "1054485",
  "kinopoisk": "7.2",
  "kinopoisk_id": "376446",
  "world_art": null,
  "world_art_id": null,
  "time": "88 мин. / 01:28",
  "ads": false,
  "premier": "2008-06-24",
  "premier_rus": null,
  "availability": null,
  "activate_time": "2018-08-31 17:30:47",
  "budget": null,
  "fees_use": null,
  "fees_world": null,
  "fees_rus": null,
  "rate_mpaa": null,
  "description": "События происходят непосредственно после «Большого куша Бендера».Огромный раскол в пространстве и времени позволяет отвратительному, размером с планету монстру из другой вселенной проникнуть на Землю. Он берёт под контроль Фрая, делая из него Папу новой религии, которая охватывает всю планету.",
  "iframe_url": "",
  "iframe_poster": null,
  "poster": "https://img.imgilall.me/movies/franchise/1/9/7/1/0/0/0/0/0/0/610x900_1971.jpg",
  "country": {
    "1": "США"
  },
  "collection": {
    "21": "Для молодёжи"
  },
  "genre": {
    "34": "Полнометражный",
    "19": "Комедия",
    "10": "Зарубежный"
  },
  "director": [
    "Питер Аванзино"
  ],
  "screenwriter": [
    "Дэвид И. Коэн",
    "Эрик Каплан",
    "Мэтт Грейнинг"
  ],
  "producer": [
    "Клаудия Кац",
    "Ли Суперчински",
    "Элиз Белнап"
  ],
  "operator": [],
  "composer": [
    "Кристофер Тинг"
  ],
  "design": [],
  "editor": [
    "Пол Д. Калдер"
  ],
  "actors": [
    "Билли Уэст",
    "Кэти Сагал",
    "Джон Ди Маджио",
    "Тресс МакНилл",
    "Морис ЛаМарш",
    "Фил ЛаМарр",
    "Лорен Том",
    "Дэвид Херман",
    "Дэн Кастелланета",
    "Дэвид Кросс"
  ],
  "actors_dubl": [],
  "trivia": [
    "По словам Дэвида Коэна, продюсера и автора сценария проекта, название было образовано от сексуального термина «зверь с двумя спинами» (the beast with two backs), впервые использованного Франсуа Рабле в романе «Гаргантюа и Пантагрюэль».",
    "Заставка видеотелефонной компании планеты Декапод 10 пародирует одну из ранних заставок кинокомпании Universal Pictures.",
    "Йиво управляет телом Фрая так же, как Левиафан телом доктора в фильме «Восставший из ада 2: Дорога в ад».",
    "Лига роботов с её ритуалами, тайными собраниями и прочей атрибутикой пародирует масонскую ложу.",
    "Лила пьёт напиток «Красный Минотавр», чтобы успокоиться. Это пародия на другой энергетический напиток — «Red Bull».",
    "Когда Бендер возвращается из больницы и говорит, что знает кем хочет стать когда вырастет, Гермес его спрашивает: «Опять будешь сниматься в сериале Калькулона как в прошлый раз?» Это отсылка к серии «Bender Should Not Be Allowed On TV»."
  ],
  "trailers": [
    {
      "name": "трейлер №1",
      "number": 1,
      "iframe_poster": null,
      "season": null,
      "iframe_url": ""
    }
  ],
  "seasons": [],
  "voiceActing": [
    "Рус. Проф. многоголосый",
    "Eng.Original",
    "Eng. Orig. with Commentary"
  ],
  "subtitle": [
    "Рус. полные"
  ],
  "parts": [
    1968,
    1970,
    1971,
    1972
  ]
}
