{
  "id": 26305,
  "name": "Волшебник страны Оз",
  "name_eng": "The Wizard of Oz",
  "year": 1939,
  "slogan": "«What is Oz?»",
  "age": null,
  "type": "film",
  "quality": "HD (720p)",
  "imdb": "8.0",
  "imdb_id": "0032138",
  "kinopoisk": "7.6",
  "kinopoisk_id": "379",
  "world_art": null,
  "world_art_id": null,
  "time": "101 мин. / 01:41",
  "ads": false,
  "premier": "1939-08-10",
  "premier_rus": "1939-08-11",
  "availability": "1939-08-12",
  "activate_time": "2020-06-27 16:01:00",
  "budget": "$2 777 000",
  "fees_use": "$24 770 492",
  "fees_world": "+ $969 000 = $25 739 492",
  "fees_rus": null,
  "rate_mpaa": "PG",
  "description": "Усаживайтесь поудобнее и приготовьтесь отправиться в долгое путешествие. Поднявшись выше радуги, вы окажетесь на дороге из желтого кирпича. Дорога проведет вас через заколдованные леса, царства злых ведьм и добрых фей в Изумрудный Город в далекой стране Оз. В мир, где любая мечта становится реальностью.",
  "iframe_url": "",
  "iframe_poster": null,
  "poster": "https://img.imgilall.me/movies/franchise/2/6/3/0/5/0/0/0/0/0/610x900_26305.jpg",
  "country": {
    "1": "США"
  },
  "collection": [],
  "genre": {
    "9": "Приключения",
    "6": "Фэнтези",
    "38": "Мюзикл",
    "33": "Семейный"
  },
  "director": [
    "Виктор Флеминг",
    "Джордж Кьюкор",
    "Мервин ЛеРой"
  ],
  "screenwriter": [
    "Ноэль Лэнгли",
    "Флоренс Райэрсон",
    "Эдгар Аллан Вулф"
  ],
  "producer": [
    "Мервин ЛеРой",
    "Артур Фрид"
  ],
  "operator": [
    "Гарольд Россон"
  ],
  "composer": [],
  "design": [
    "Малкольм Браун",
    "Уильям А. Хорнинг",
    "Джек Мартин Смит"
  ],
  "editor": [
    "Бланш Сьюэлл"
  ],
  "actors": [
    "Джуди Гарлэнд",
    "Фрэнк Морган",
    "Рэй Болджер",
    "Берт Лар",
    "Джек Хейли",
    "Билли Бурк",
    "Маргарет Хэмилтон",
    "Чарли Грейпвин",
    "Пэт Уолш",
    "Клара Блэндик"
  ],
  "actors_dubl": [
    "Татьяна Весёлкина",
    "Алексей Золотницкий",
    "Вячеслав Баранов",
    "Владимир Ферапонтов",
    "Валерий Сторожик"
  ],
  "trivia": [
    "Песня «Over the Rainbow» в исполнении героини Джуди Гарлэнд была признана лучшей песней ХХ века двумястами респондентами Американской звукозаписывающей ассоциации (RIAA).",
    "Британская газета The Independent поставила этот фильм на первое место в «Топ-10 проклятых голливудских фильмов».",
    "Фанаты группы Pink Floyd заметили множество совпадений между текстом и музыкой альбома «The Dark Side of the Moon» с событиями фильма при одновременном их воспроизведении.",
    "Впервые в на VHS фильм был выпущен в 1980 году.",
    "Костюмы для фильма разработали известные американские дизайнеры Эдриан (Adrian) и Седрик Гиббонс.",
    "Костюмеры компании MGM подыскивали поношенное, но элегантное пальто, чтобы одеть волшебника. По невероятному стечению обстоятельств в магазине поношенной одежды было найдено пальто, ранее принадлежавшее автору книги «Волшебник страны Оз» Фрэнку Бауму.",
    "Весь фильм снят в павильонах.",
    "Съёмки фильма продолжались 136 дней, а до этого 300 дней ушло на изготовление декораций.",
    "Фильм был снят в цвете, что было довольно редким явлением в те годы. Каждую сцену снимала специальная камера на три плёнки одновременно, которые потом сводились в одну — так появлялся цвет. Эта камера была невероятно тяжёлой и не могла работать более получаса без перерыва.",
    "Фильм включён в программу ЮНЕСКО «Память Мира» — программа, призванная защитить документальное наследие, была основана в 1992 году.",
    "Бадди Эбсен, игравший Железного Дровосека, был госпитализирован с тяжёлым отравлением: актёр надышался алюминиевого порошка, которым был покрыт его костюм. В итоге его роль досталась Джеку Хейли.",
    "Для имитации снега на съёмочной площадке использовался асбест."
  ],
  "trailers": [],
  "seasons": [],
  "voiceActing": [
    "Cartoon Network"
  ],
  "subtitle": [],
  "parts": []
}
