{
  "id": 3585,
  "name": "Крадущийся тигр затаившийся дракон",
  "name_eng": "Wo hu cang long",
  "year": 2000,
  "slogan": "«A film by Ang Lee»",
  "age": "12+",
  "type": "film",
  "quality": "HD (720p)",
  "imdb": "7.8",
  "imdb_id": "0190332",
  "kinopoisk": "7.4",
  "kinopoisk_id": "378",
  "world_art": null,
  "world_art_id": null,
  "time": "120 мин. / 02:00",
  "ads": false,
  "premier": "2000-05-16",
  "premier_rus": "2001-04-19",
  "availability": null,
  "activate_time": "2018-11-16 10:03:22",
  "budget": "$17 000 000",
  "fees_use": "$128 078 872",
  "fees_world": "$213 525 736",
  "fees_rus": null,
  "rate_mpaa": "PG-13",
  "description": "Легендарный мастер боевых искусств Ли Мубай отправляется на поиски магического меча зеленой стали, похищенного тайными злоумышленниками. Впереди его ждет зловещая фигура давнего противника, наемного убийцы, который после долгого отсутствия снова вернулся на тропу войны…",
  "iframe_url": "",
  "iframe_poster": null,
  "poster": "https://img.imgilall.me/movies/franchise/3/5/8/5/0/0/0/0/0/0/610x900_3585.jpg",
  "country": {
    "12": "Гонконг",
    "1": "США",
    "13": "Тайвань",
    "19": "Китай"
  },
  "collection": [],
  "genre": {
    "17": "Боевик",
    "10": "Зарубежный",
    "8": "Мелодрама",
    "7": "Драма"
  },
  "director": [
    "Энг Ли"
  ],
  "screenwriter": [
    "Ван Хуэйлин",
    "Джеймс Шеймус",
    "Куо Юнг Тсаи"
  ],
  "producer": [
    "Энг Ли",
    "Чуй По-Чу",
    "Дун Пин"
  ],
  "operator": [
    "Питер Пау"
  ],
  "composer": [
    "Тань Дунь"
  ],
  "design": [
    "Тим Йип",
    "Жан-Кво Ванг",
    "Эдди Вонг"
  ],
  "editor": [
    "Тим Скуайрес"
  ],
  "actors": [
    "Чоу Юнь-Фат",
    "Мишель Йео",
    "Чжан Цзыи",
    "Чан Чэнь",
    "Лун Сихун",
    "Чжэн Пэйпэй",
    "Ли Фацзэн",
    "Сянь Гао",
    "Хай Янь",
    "Де Минг Ванг"
  ],
  "actors_dubl": [],
  "trivia": [
    "Китайское название фильма является идиоматическим выражением, наиболее точным смысловым переводом на русский которого было бы «Тихий омут» (в тихом омуте черти водятся).",
    "Для тех, кто знаком с китайскими иероглифами, связь между названием фильма и сюжетом наглядно очевидна: в имени Джен есть слово «дракон», в то время как Ло — «тигр»."
  ],
  "trailers": [],
  "seasons": [],
  "voiceActing": [
    "Рус. Проф. многоголосый",
    "Ю. Живов",
    "1+1",
    "Eng.Original"
  ],
  "subtitle": [],
  "parts": []
}
