{
  "id": 492,
  "name": "Хатико: Самый верный друг",
  "name_eng": "Hachi: A Dog's Tale",
  "year": 2009,
  "slogan": "«Подлинная история веры, преданности и вечной любви»",
  "age": "0+",
  "type": "film",
  "quality": "FHD (1080p)",
  "imdb": "8.1",
  "imdb_id": "1028532",
  "kinopoisk": "8.3",
  "kinopoisk_id": "387556",
  "world_art": null,
  "world_art_id": null,
  "time": "89 мин. / 01:29",
  "ads": false,
  "premier": "2009-06-13",
  "premier_rus": "2009-10-22",
  "availability": null,
  "activate_time": "2018-06-18 10:40:36",
  "budget": "$16 000 000",
  "fees_use": null,
  "fees_world": "$46 184 345",
  "fees_rus": "$2 046 840",
  "rate_mpaa": "G",
  "description": "В основе сюжета - реальная история, случившаяся в Японии и потрясшая весь мир. Однажды, возвращаясь с работы, профессор колледжа нашел на вокзале симпатичного щенка породы акита-ину. Профессор и Хатико стали верными друзьями. Каждый день пес провожал и встречал Профессора на вокзале. И даже потеря хозяина не остановила пса в его надежде, что друг вернется.",
  "iframe_url": "",
  "iframe_poster": null,
  "poster": "https://img.imgilall.me/movies/franchise/4/9/2/0/0/0/0/0/0/0/610x900_492.jpg",
  "country": {
    "1": "США",
    "2": "Великобритания"
  },
  "collection": {
    "39": "На реальных событиях",
    "18": "Про животных"
  },
  "genre": {
    "33": "Семейный",
    "10": "Зарубежный",
    "7": "Драма"
  },
  "director": [
    "Лассе Халльстрём"
  ],
  "screenwriter": [
    "Стефен П. Линдси",
    "Канэто Синдо"
  ],
  "producer": [
    "Джефф Абберли",
    "Джулия Блэкман",
    "Джули Кристин"
  ],
  "operator": [
    "Ренато Фортунато"
  ],
  "composer": [
    "Ян А.П. Качмарек"
  ],
  "design": [
    "Чад Детуиллер",
    "Джордан Джейкобс",
    "Дебора Ньюхолл"
  ],
  "editor": [
    "Кристина Боден"
  ],
  "actors": [
    "Ричард Гир",
    "Джоан Аллен",
    "Кэри-Хироюки Тагава",
    "Сара Ремер",
    "Джейсон Александер",
    "Эрик Авари",
    "Давиния МакФэдден",
    "Робби Саблетт",
    "Кевин ДеКосте",
    "Роб Деньян"
  ],
  "actors_dubl": [
    "Александр Рахленко",
    "Марина Бакина",
    "Дальвин Щербаков",
    "Елена Ивасишина",
    "Владимир Герасимов"
  ],
  "trivia": [
    "Съёмки фильма проходили в университете Род-Айленда (Кингстон).",
    "Порода Хатико — акита-ину.",
    "Хатико в разные годы жизни играют три взрослые собаки и три щенка.",
    "Хатико был воздвигнут памятник, на открытии которого он лично присутствовал. После его смерти, ввиду широкого резонанса, в стране был объявлен день траура. Во время Второй мировой войны памятник был уничтожен — металл памятника пошёл на военные нужды. Но Япония не забыла пса, и после окончания войны, в августе 1948 года, памятник был восстановлен. Сегодня статуя Хатико у станции Сибуя является местом встречи влюблённых, а сам образ пса в Японии стал примером беззаветной любви и верности.",
    "Фильм основан на реальных событиях.",
    "Хатико умер от филяриатоза сердца, а в его желудке было найдено несколько палочек от якитори."
  ],
  "trailers": [],
  "seasons": [],
  "voiceActing": [
    "Рус. Дублированный",
    "Eng.Original"
  ],
  "subtitle": [],
  "parts": []
}
