{
  "id": 41539,
  "name": "Джонни предатель",
  "name_eng": "Johnny Gaddaar",
  "year": 2007,
  "slogan": "—",
  "age": "18+",
  "type": "film",
  "quality": "SD",
  "imdb": "7.8",
  "imdb_id": "1077248",
  "kinopoisk": "7.2",
  "kinopoisk_id": "391070",
  "world_art": null,
  "world_art_id": null,
  "time": "131 мин. / 02:11",
  "ads": false,
  "premier": "2007-09-28",
  "premier_rus": "2007-09-29",
  "availability": "2007-09-30",
  "activate_time": "2020-11-11 02:50:00",
  "budget": null,
  "fees_use": null,
  "fees_world": null,
  "fees_rus": null,
  "rate_mpaa": null,
  "description": "Группа теневых дельцов собирается совершить крупную сделку, которая должна принести всей компании большой куш. Но у одного из членов группировки свои планы на эту сделку, что приводит к неожиданному результату.",
  "iframe_url": "",
  "iframe_poster": null,
  "poster": "https://img.imgilall.me/movies/franchise/4/1/5/3/9/0/0/0/0/0/610x900_41539.jpg",
  "country": {
    "26": "Индия"
  },
  "collection": [],
  "genre": {
    "25": "Криминал",
    "24": "Детектив",
    "13": "Триллер",
    "7": "Драма"
  },
  "director": [
    "Шрирам Рагхаван"
  ],
  "screenwriter": [
    "Винай Чоудари",
    "Шрирам Рагхаван"
  ],
  "producer": [
    "Санджай Роутрай"
  ],
  "operator": [
    "С.К. Муралидаран"
  ],
  "composer": [
    "Дэниэл Б. Джордж",
    "Шанкар Махадеван",
    "Лой Мендонса"
  ],
  "design": [
    "Гурав Бозе",
    "Ракеш Морчхале"
  ],
  "editor": [
    "Пуджа Ладха Сурти"
  ],
  "actors": [
    "Дхармендра",
    "Рими Сен",
    "Ашвини Кхалсекар",
    "Нил Нитин Мукеш",
    "Винай Патхак",
    "Закир Хуссэйн",
    "Дайя Шетти",
    "Говинд Намдео",
    "Расика Джоши",
    "Шанкар Сачдэв"
  ],
  "actors_dubl": [],
  "trivia": [],
  "trailers": [],
  "seasons": [],
  "voiceActing": [
    "Diva Universal"
  ],
  "subtitle": [],
  "parts": []
}
