{
  "id": 37671,
  "name": "Моя могучая принцесса",
  "name_eng": "Murim yeodaesaeng",
  "year": 2008,
  "slogan": "—",
  "age": null,
  "type": "film",
  "quality": "FHD (1080p)",
  "imdb": "6.2",
  "imdb_id": "0985101",
  "kinopoisk": "7.2",
  "kinopoisk_id": "391510",
  "world_art": null,
  "world_art_id": null,
  "time": "122 мин. / 02:02",
  "ads": false,
  "premier": "2008-06-26",
  "premier_rus": "2008-06-27",
  "availability": "2008-06-28",
  "activate_time": "2020-10-12 11:48:00",
  "budget": "$7 000 000",
  "fees_use": null,
  "fees_world": "$183 844",
  "fees_rus": null,
  "rate_mpaa": null,
  "description": "Кан Со-хи - непростая девчонка. Силой и выносливостью она превосходит любого парня и к тому же умеет летать. Девушка походит из древнего клана, и отец настаивает, чтобы она занялась тренировками, научилась мастерству покойной матери и вернула некий украденный меч огромной силы. Но Со-хи это не интересует. Она влюбилась в парня, ради встреч с которым записалась на хоккей, но тут на горизонте объявляется её друг детства, который влюблён в неё. Он родом из того же клана и пытается убедить Со-хи заняться тем, что ей на роду написано.",
  "iframe_url": "",
  "iframe_poster": null,
  "poster": "https://img.imgilall.me/movies/franchise/3/7/6/7/1/0/0/0/0/0/610x900_37671.jpg",
  "country": {
    "16": "Корея Южная"
  },
  "collection": [],
  "genre": {
    "19": "Комедия",
    "17": "Боевик",
    "8": "Мелодрама"
  },
  "director": [
    "Квак Чэ-ён"
  ],
  "screenwriter": [
    "Квак Чэ-ён",
    "Ли Щин-хо"
  ],
  "producer": [
    "Чи Ён-джун",
    "Ан Хо-ван",
    "Щин Сан-хан"
  ],
  "operator": [
    "Чинь Тинчан"
  ],
  "composer": [
    "Чхве Сын-хён"
  ],
  "design": [
    "Ким Ин-ян"
  ],
  "editor": [
    "Ким Джэ-бом",
    "Ким Сан-бом"
  ],
  "actors": [
    "Щин Мин-а",
    "Он Джу-ван",
    "Чха Тхэ-хён",
    "Чхве Джэ-сон",
    "Чон Хо-бин",
    "Дион Лам",
    "Чжи-су Ли",
    "Лим Е-джин",
    "Ю Гон",
    "Ли Дэ-гын"
  ],
  "actors_dubl": [],
  "trivia": [],
  "trailers": [],
  "seasons": [],
  "voiceActing": [
    "Рус. Люб. одноголосый"
  ],
  "subtitle": [],
  "parts": []
}
