{
  "id": 40396,
  "name": "Квартал",
  "name_eng": "Ilaaka",
  "year": 1989,
  "slogan": "—",
  "age": "12+",
  "type": "film",
  "quality": "HD (720p)",
  "imdb": "4.8",
  "imdb_id": "0097563",
  "kinopoisk": null,
  "kinopoisk_id": "39699",
  "world_art": null,
  "world_art_id": null,
  "time": "161 мин. / 02:41",
  "ads": false,
  "premier": "1989-04-19",
  "premier_rus": "1989-04-20",
  "availability": "1989-04-21",
  "activate_time": "2020-10-31 09:08:00",
  "budget": null,
  "fees_use": null,
  "fees_world": null,
  "fees_rus": null,
  "rate_mpaa": null,
  "description": "В этом квартале царит свой маленький собственный мир. Мир мечты и желаний, любви и тоски, ненависти и затруднений. Здесь мы встретим Раджа, который стоит на перекрестке двух дорог: правды и традиций. \r\rВ этом маленьком мире мы познакомимся с Серадж и Неха — двумя участниками общественной компании против энергии зла. И нам встретятся  воплощение зла на Земле! Это Нагар — столь же порочный, как гадюка и измученный жаждой крови, как волк. Мы узнаем доброго старика Мастерджи, который готов пожертвовать собой ради спокойствия  крошечного мира этого квартала. И встретим хитреца Свами, готового разрушить все вокруг. \r\rВ этом квартале сплелись любовь и смех, кровь и слезы. Это выглядит столь тонко, как лепесток и твердо, как сталь. Наш квартал — это живописная картина, где бушуют все семь цветов радуги.",
  "iframe_url": "",
  "iframe_poster": null,
  "poster": "https://img.imgilall.me/movies/franchise/4/0/3/9/6/0/0/0/0/0/610x900_40396.jpg",
  "country": {
    "26": "Индия"
  },
  "collection": [],
  "genre": {
    "17": "Боевик",
    "7": "Драма"
  },
  "director": [
    "Азиз Седжавал"
  ],
  "screenwriter": [
    "Джавед Сиддики"
  ],
  "producer": [
    "Джоти Гуха",
    "Raju Mavani"
  ],
  "operator": [
    "Арвинд Лаад"
  ],
  "composer": [
    "Шраван Ратод",
    "Надим Саифи"
  ],
  "design": [
    "Р. Верман Шетти",
    "Лиина Дару",
    "Rupama"
  ],
  "editor": [
    "Ваман Б. Бхосл",
    "Гурудутт Ширали"
  ],
  "actors": [
    "Митхун Чакраборти",
    "Санджай Датт",
    "Мадхури Диксит",
    "Амриш Пури",
    "Амрита Сингх",
    "Далип Тахил",
    "А.К. Хангал",
    "Гога Капур",
    "Дхармендра",
    "Ракхи Гулзар"
  ],
  "actors_dubl": [],
  "trivia": [],
  "trailers": [],
  "seasons": [],
  "voiceActing": [
    "Diva Universal"
  ],
  "subtitle": [],
  "parts": []
}
