{
  "id": 22809,
  "name": "Ноториус",
  "name_eng": "Notorious",
  "year": 2009,
  "slogan": "«No dream is too big»",
  "age": "16+",
  "type": "film",
  "quality": "FHD (1080p)",
  "imdb": "6.7",
  "imdb_id": "0472198",
  "kinopoisk": "7.6",
  "kinopoisk_id": "397372",
  "world_art": null,
  "world_art_id": null,
  "time": "122 мин. / 02:02",
  "ads": true,
  "premier": "2009-01-16",
  "premier_rus": "2009-01-17",
  "availability": "2009-01-18",
  "activate_time": "2020-06-15 17:30:00",
  "budget": "$20 000 000",
  "fees_use": "$36 842 118",
  "fees_world": "+ $3 640 745 = $40 482 863",
  "fees_rus": null,
  "rate_mpaa": "R",
  "description": "История жизни и смерти Кристофера Уоллеса, более известного под псевдонимом Notorious B.I.G., бруклинского рэпера, сделавшего головокружительную карьеру в музыке, трагически погибшего рано утром 9-го марта 1997 года в Лос-Анджелесе.",
  "iframe_url": "",
  "iframe_poster": null,
  "poster": "https://img.imgilall.me/movies/franchise/2/2/8/0/9/0/0/0/0/0/610x900_22809.jpg",
  "country": {
    "1": "США"
  },
  "collection": [],
  "genre": {
    "25": "Криминал",
    "27": "Биографический",
    "7": "Драма"
  },
  "director": [
    "Джордж Тиллман мл."
  ],
  "screenwriter": [
    "Регги Рок Байтвуд",
    "Чео Ходаки Кокер"
  ],
  "producer": [
    "Уэйн Барроу",
    "Триш Хофманн",
    "Марк Питтс"
  ],
  "operator": [
    "Майкл Грэйди"
  ],
  "composer": [
    "Дэнни Элфман"
  ],
  "design": [
    "Джейн Маски",
    "Лора Боллинджер",
    "Александра Мазур"
  ],
  "editor": [
    "Стивен Розенблюм",
    "Дирк Уэстервелт"
  ],
  "actors": [
    "Джамал Вулард",
    "Дерек Люк",
    "Деннис Л.А. Уайт",
    "Анджела Бассетт",
    "Марк Джон Джеффрис",
    "Нэтари Наутон",
    "Энтони Маки",
    "Антоник Смит",
    "Кристофер Джордан Уоллес",
    "Онжаню Эллис"
  ],
  "actors_dubl": [],
  "trivia": [
    "Знаменитого рэппера в детские годы сыграл Кристофер Джордан Уоллес, его одиннадцатилетний на тот момент сын от брака с американской певицей и актрисой Фэйт Эванс.",
    "Первоначально режиссёром картины должен был стать Антуан Фукуа.",
    "Актёр Джамал Вулард напряжённо готовился к своей роли на протяжении многих месяцев, слушая и запоминая наизусть песни Ноториус Биг, набирая вес и беря уроки вокала в известной художественной школе Juilliard School, находящейся в Нью-Йорке.",
    "Основой для фильма послужила книга хип-хоп журналиста Чео Ходаки Кокера под названием “Unbelievable: The Life, Death and Afterlife of the Notorious B.I.G.”, вышедшая в марте 2004 года.",
    "Во время объявленного в начале октября 2007 года открытого кастинга на главную роль на неё пробовались достаточно известные рэпперы Бини Сигел и Гверилья Блэк. Также на неё претендовал молодой ямайский певец рэгги Шон Кингстон, который даже заявил публично о том, что роль уже досталась ему.",
    "Мать Кристофера Уоллеса Волетта выступила одним из продюсеров фильма."
  ],
  "trailers": [],
  "seasons": [],
  "voiceActing": [
    "Рус. Проф. многоголосый",
    "Eng.Original"
  ],
  "subtitle": [
    "Eng. SDH"
  ],
  "parts": []
}
