{
  "id": 4691,
  "name": "Гарольд и Кумар уходят в отрыв",
  "name_eng": "Harold & Kumar Go to White Castle",
  "year": 2004,
  "slogan": "«Трава зовет»",
  "age": "18+",
  "type": "film",
  "quality": "HD (720p)",
  "imdb": "7.1",
  "imdb_id": "0366551",
  "kinopoisk": "6.7",
  "kinopoisk_id": "39881",
  "world_art": null,
  "world_art_id": null,
  "time": "88 мин. / 01:28",
  "ads": false,
  "premier": "2004-05-20",
  "premier_rus": "2004-09-23",
  "availability": null,
  "activate_time": "2018-12-14 17:47:03",
  "budget": "$9 000 000",
  "fees_use": "$18 250 550",
  "fees_world": "$23 936 908",
  "fees_rus": "$455 000",
  "rate_mpaa": "R",
  "description": "Гарольд и Кумар очень разные, но при этом как-то уживаются в одной квартире. Однажды, выкурив по сигаретке, друзья решают оттянуться гамбургерами. Взяв старт, приятели окунаются в такой круговорот событий, что не успевают осознать происходящее.",
  "iframe_url": "",
  "iframe_poster": null,
  "poster": "https://img.imgilall.me/movies/franchise/4/6/9/1/0/0/0/0/0/0/610x900_4691.jpg",
  "country": {
    "7": "Канада",
    "1": "США",
    "20": "Германия"
  },
  "collection": {
    "82": "Молодежные комедии",
    "21": "Для молодёжи"
  },
  "genre": {
    "9": "Приключения",
    "19": "Комедия",
    "10": "Зарубежный"
  },
  "director": [
    "Дэнни Лейнер"
  ],
  "screenwriter": [
    "Джон Харвитц",
    "Хейден Шлоссберг"
  ],
  "producer": [
    "Натан Каан",
    "Грег Шапиро",
    "Дэвид Брюингтон"
  ],
  "operator": [
    "Брюс Дуглас Джонсон"
  ],
  "composer": [
    "Дэвид Китэй"
  ],
  "design": [
    "Стив Розензвеиг",
    "Боб Шер",
    "Алекс Кэвэна"
  ],
  "editor": [
    "Джефф Бетанкорт"
  ],
  "actors": [
    "Джон Чо",
    "Кэл Пенн",
    "Нил Патрик Харрис",
    "Дэвид Крамхолц",
    "Эдди Кэй Томас",
    "Паула Гарсес",
    "Кристофер Мелони",
    "Малин Акерман",
    "Брук Д’Орсей",
    "Энтони Андерсон"
  ],
  "actors_dubl": [
    "Сергей Быстрицкий",
    "Андрей Бархударов",
    "Александр Гаврилин",
    "Дмитрий Полонский",
    "Александр Комлев"
  ],
  "trivia": [
    "Во время съёмок сцены, где Гарольд и Кумар идут к дому Страшилы, Джон Чо понятия не имел, что там в вольере живёт немецкая овчарка. Его испуганная реакция на лай собаки была совершенно не наигранной.",
    "Нил Патрик Харрис изображает персонаж по имени Нил Патрик Харрис. В титрах указанно именно так, а не сказано, что это Нил Патрик Харрис «в роли самого себя». Утверждается, будто это было сделано, чтобы подчеркнуть, что актёр играет пародию на самого себя."
  ],
  "trailers": [],
  "seasons": [],
  "voiceActing": [
    "Рус. Дублированный",
    "Рус. Проф. многоголосый",
    "Карповский",
    "Укр. Проф. багатоголосий",
    "1+1",
    "Eng.Original"
  ],
  "subtitle": [],
  "parts": [
    3322,
    4691,
    4692
  ]
}
