{
  "id": 3470,
  "name": "Рождественская История",
  "name_eng": "A Christmas Carol",
  "year": 2009,
  "slogan": "«Season's Greedings»",
  "age": "12+",
  "type": "cartoon",
  "quality": "FHD (1080p)",
  "imdb": "6.8",
  "imdb_id": "1067106",
  "kinopoisk": "7.7",
  "kinopoisk_id": "391755",
  "world_art": null,
  "world_art_id": null,
  "time": "96 мин. / 01:36",
  "ads": false,
  "premier": "2009-11-03",
  "premier_rus": "2009-11-19",
  "availability": null,
  "activate_time": "2018-11-14 11:39:48",
  "budget": "$200 000 000",
  "fees_use": "$137 855 863",
  "fees_world": "$325 286 646",
  "fees_rus": "$13 318 820",
  "rate_mpaa": "PG",
  "description": "Это викторианская поучительная история о старом и ожесточившемся скупердяе Эбенезере Скрудже, который в течение одной ночи переживает испытание глубокого очищения. Мистер Скрудж — финансист/денежный меняла, который посвятил всю свою жизнь накоплению богатства. Он презирает всё, кроме денег, включая дружбу, любовь и рождественские праздники.",
  "iframe_url": "",
  "iframe_poster": null,
  "poster": "https://img.imgilall.me/movies/franchise/3/4/7/0/0/0/0/0/0/0/610x900_3470.jpg",
  "country": {
    "1": "США"
  },
  "collection": {
    "37": "Disney",
    "3": "Рождественские"
  },
  "genre": {
    "6": "Фэнтези",
    "37": "Детский",
    "34": "Полнометражный",
    "10": "Зарубежный",
    "7": "Драма"
  },
  "director": [
    "Роберт Земекис"
  ],
  "screenwriter": [
    "Роберт Земекис",
    "Чарльз Диккенс"
  ],
  "producer": [
    "Джек Рэпк",
    "Стив Старки",
    "Роберт Земекис"
  ],
  "operator": [
    "Роберт Пресли"
  ],
  "composer": [
    "Алан Сильвестри"
  ],
  "design": [
    "Даг Чианг",
    "Брайан Флора",
    "Марк Габбана"
  ],
  "editor": [
    "Джереми О’Дрискол"
  ],
  "actors": [
    "Джим Керри",
    "Гари Олдман",
    "Колин Фёрт",
    "Кэри Элвес",
    "Робин Райт",
    "Боб Хоскинс",
    "Стив Валентайн",
    "Дэрил Сабара",
    "Сэйдж Райан",
    "Эмбер Гейни Миде"
  ],
  "actors_dubl": [
    "Александр Филиппенко",
    "Андрей Лёвин",
    "Вадим Романов",
    "Максим Сергеев",
    "Юрий Лазарев"
  ],
  "trivia": [
    "Фильм снят по мотивам повести Чарльза Диккенса «Рождественская песнь» (A Christmas Carol, 1841).",
    "Режиссер картины Роберт Земекис не работал с «Walt Disney Company» с 1988 года. Именно тогда он поставил свой анимированный фильм «Кто подставил кролика Роджера».",
    "Третья по счёту диснеевская адаптация классической повести Чарльза Диккенса. В 1983 году вышел мультфильм «Рождественская история Микки», в которой приняли участие практически все персонажи диснеевской анимационной классики. Девять лет спустя, в 1992 году, на экраны вышла кукольная версия «Рождественская сказка Маппетов», прокатчиком которой была также студия Disney.",
    "Это первый проект Джима Керри на студии «Disney» за всю его многолетнюю актёрскую карьеру.",
    "В доме Крэтчитов можно заметить портрет автора «Рождественской истории» Чарльза Диккенса, висящий над камином.",
    "Когда Скрудж падает в свою могилу, мы можем увидеть момент, когда камера приближается к лицу Призрака Грядущего Рождества, и его пустые глазницы вспыхивают голубым огнём. Это прямая отсылка к Смерти из цикла «Плоский мир» популярного британского писателя Терри Пратчетта: «Его глазницы пусты, но в их глубине горят крохотные синие огоньки»."
  ],
  "trailers": [
    {
      "name": "трейлер №1",
      "number": 1,
      "iframe_poster": null,
      "season": null,
      "iframe_url": ""
    }
  ],
  "seasons": [],
  "voiceActing": [
    "Рус. Дублированный",
    "Укр. Дубльований",
    "Eng.Original",
    "Eng. Orig. with Commentary"
  ],
  "subtitle": [
    "Рус. форсированные"
  ],
  "parts": []
}
