{
  "id": 5591,
  "name": "Одна неделя",
  "name_eng": "One Week",
  "year": 2008,
  "slogan": "«What would you do?»",
  "age": "16+",
  "type": "film",
  "quality": "HD (720p)",
  "imdb": "7.0",
  "imdb_id": "1104806",
  "kinopoisk": "7.1",
  "kinopoisk_id": "395143",
  "world_art": null,
  "world_art_id": null,
  "time": "94 мин. / 01:34",
  "ads": false,
  "premier": "2008-09-08",
  "premier_rus": null,
  "availability": null,
  "activate_time": "2019-01-22 15:18:29",
  "budget": "CAD 2 000 000",
  "fees_use": null,
  "fees_world": null,
  "fees_rus": null,
  "rate_mpaa": null,
  "description": "Когда Бену Тайлеру был диагностирован рак, небольшой шанс на излечение он сразу отверг, а стал собираться в своё последнее путешествие. Пересекая Канаду на мотоцикле он найдёт новых друзей, многое переосмыслит, вспомнит несбывшиеся мечты. А главное поймёт, что нельзя найти смысл своей жизни, не научившись сперва свою жизнь ценить.",
  "iframe_url": "",
  "iframe_poster": "https://img.imgilall.me/movies/video/5/2/7/4/9/0/0/0/0/0/800x450_52749.jpeg",
  "poster": "https://img.imgilall.me/movies/franchise/5/5/9/1/0/0/0/0/0/0/610x900_5591.jpg",
  "country": {
    "7": "Канада"
  },
  "collection": {
    "71": "Про путешествия"
  },
  "genre": {
    "9": "Приключения",
    "10": "Зарубежный",
    "7": "Драма"
  },
  "director": [
    "Майкл МакГоун"
  ],
  "screenwriter": [
    "Майкл МакГоун",
    "Маргарит Пижотт"
  ],
  "producer": [
    "Ник де Пенсьер",
    "Майкл МакГоун",
    "Джейн Таттерсалл"
  ],
  "operator": [
    "Артур Э. Купер"
  ],
  "composer": [
    "Эндрю Локингтон"
  ],
  "design": [
    "Малкольм Байард",
    "Джули О’Брайэн",
    "Ромке ДеВос"
  ],
  "editor": [
    "Родерик Диогрэйдс"
  ],
  "actors": [
    "Джошуа Джексон",
    "Лиэн Балабан",
    "Кэмпбелл Скотт",
    "Фиона Рид",
    "Чак Шамата",
    "Горд Дауни",
    "Марк Стрэйндж",
    "Гэбриел Хоган",
    "Джейн Спиделл",
    "Эмм Гринер"
  ],
  "actors_dubl": [],
  "trivia": [
    "Мотоцикл Бена — это Norton 850 Commando 1973 года выпуска."
  ],
  "trailers": [],
  "seasons": [],
  "voiceActing": [
    "Рус. Проф. многоголосый",
    "Рус. Проф. двухголосый",
    "Eng.Original"
  ],
  "subtitle": [],
  "parts": []
}
