{
  "id": 30916,
  "name": "Платон",
  "name_eng": "",
  "year": 2008,
  "slogan": "«...он продаёт счастье»",
  "age": "16+",
  "type": "film",
  "quality": "SD",
  "imdb": "5.2",
  "imdb_id": "0",
  "kinopoisk": "5.7",
  "kinopoisk_id": "395373",
  "world_art": null,
  "world_art_id": null,
  "time": "90 мин. / 01:30",
  "ads": false,
  "premier": "2008-11-20",
  "premier_rus": "2008-11-20",
  "availability": "2008-11-21",
  "activate_time": "2020-07-11 17:56:00",
  "budget": "$2 500 000",
  "fees_use": null,
  "fees_world": "$5 600 325",
  "fees_rus": "$5 129 300",
  "rate_mpaa": null,
  "description": "Платон. В московской жизни он как рыба в воде. Успешный, обаятельный, суетливый, он знает всю Москву, Москва знает его. Он делает деньги на основных инстинктах. Контакты, связи, деньги, девочки - у него было все. И все было прекрасно, пока он не встретил: Любовь.",
  "iframe_url": "",
  "iframe_poster": null,
  "poster": "https://img.imgilall.me/movies/franchise/3/0/9/1/6/0/0/0/0/0/610x900_30916.jpg",
  "country": {
    "5": "Россия"
  },
  "collection": [],
  "genre": {
    "19": "Комедия",
    "7": "Драма"
  },
  "director": [
    "Вартан Акопян"
  ],
  "screenwriter": [
    "Вартан Акопян"
  ],
  "producer": [
    "Армен Манасарян",
    "Геворг Нерсисян",
    "Артур Гуацаев"
  ],
  "operator": [
    "Ваагн Тер-Акопян"
  ],
  "composer": [
    "Арто Тунч"
  ],
  "design": [
    "Анастасия Нефедова"
  ],
  "editor": [
    "Маргарита Смирнова"
  ],
  "actors": [
    "Павел Воля",
    "Елизавета Лотова",
    "Эвелина Блёданс",
    "Олегар Федоро",
    "Станислав Бондаренко",
    "Ксения Князева",
    "Александр Лымарев",
    "Алексей Гришин",
    "Патимат Давыдова",
    "Олег Каменщиков"
  ],
  "actors_dubl": [],
  "trivia": [
    "Рабочее название фильма — «Платон: Философ любви»."
  ],
  "trailers": [],
  "seasons": [],
  "voiceActing": [
    "Original"
  ],
  "subtitle": [],
  "parts": []
}
