{
  "id": 29780,
  "name": "Девочка-пулемет",
  "name_eng": "Kataude mashin garu",
  "year": 2008,
  "slogan": "«It's Payback Time!»",
  "age": null,
  "type": "film",
  "quality": "HD (720p)",
  "imdb": "5.9",
  "imdb_id": "0",
  "kinopoisk": "5.1",
  "kinopoisk_id": "398839",
  "world_art": null,
  "world_art_id": null,
  "time": "96 мин. / 01:36",
  "ads": false,
  "premier": "2008-03-22",
  "premier_rus": "2008-03-23",
  "availability": "2008-03-24",
  "activate_time": "2020-07-10 06:49:00",
  "budget": null,
  "fees_use": null,
  "fees_world": null,
  "fees_rus": null,
  "rate_mpaa": null,
  "description": "Ами - дерзкая, но во всём остальном обычная школьница, которая пытается вести нормальную жизнь. Но её мир рушится, когда она узнает, что брат с другом были убиты беспощадными хулиганами. Ами находит их главаря и с удивлением узнаёт, что они связаны со зловещей семьёй ниндзя якудзы. Ами теряет руку и, заменяя её различными инструментами смерти, планирует месть.",
  "iframe_url": "",
  "iframe_poster": null,
  "poster": "https://img.imgilall.me/movies/franchise/2/9/7/8/0/0/0/0/0/0/610x900_29780.jpg",
  "country": {
    "1": "США",
    "18": "Япония"
  },
  "collection": [],
  "genre": {
    "26": "Ужасы",
    "19": "Комедия",
    "17": "Боевик",
    "13": "Триллер"
  },
  "director": [
    "Нобору Игути"
  ],
  "screenwriter": [
    "Нобору Игути"
  ],
  "producer": [
    "Ёсинори Тиба",
    "Ёко Хаяма",
    "Сатоси Накамура"
  ],
  "operator": [
    "Ясутака Нагано"
  ],
  "composer": [
    "Ко Накагава"
  ],
  "design": [
    "Ясуо Куросу"
  ],
  "editor": [
    "Кэндзи Танабэ"
  ],
  "actors": [
    "Минасэ Ясиро",
    "Асами",
    "Нобухиро Нисихара",
    "Кэнтаро Симадзу",
    "Рёсукэ Кавамура",
    "Юя Исикава",
    "Норико Кидзима",
    "Цутому Утигасаки",
    "Хироко Ясики",
    "Таро Сува"
  ],
  "actors_dubl": [],
  "trivia": [],
  "trailers": [],
  "seasons": [],
  "voiceActing": [
    "JoyStudio"
  ],
  "subtitle": [],
  "parts": []
}
