{
  "id": 45581,
  "name": "Миледи: История продолжается...",
  "name_eng": "Milady, la historia continúa",
  "year": 1997,
  "slogan": "—",
  "age": null,
  "type": "series",
  "quality": "SD",
  "imdb": "7.9",
  "imdb_id": "0227933",
  "kinopoisk": "6.3",
  "kinopoisk_id": "405434",
  "world_art": null,
  "world_art_id": null,
  "time": "45 мин",
  "ads": false,
  "premier": "1997-09-08",
  "premier_rus": "1997-09-09",
  "availability": "1997-09-10",
  "serial_status": "offline",
  "activate_time": "2021-04-22 15:14:00",
  "budget": null,
  "fees_use": null,
  "fees_world": null,
  "fees_rus": null,
  "rate_mpaa": null,
  "description": "В центре истории — любовный треугольник: Максимо — Дельфина — Федерико. Максимо и Федерико — братья, наследники состояния Валладарес. Федерико — светский человек, на котором держится семейный бизнес. Он скован условностями и правилами высшего общества. Максимо, наоборот, вырос в деревне и любит свободу. После самоубийства отца, он решает остаться, чтобы выяснить причины смерти матери, погибшей 10 лет назад в автокатострофе. Дельфина влюбляется в Федерико и выходит за него замуж. Она считает себя самой счастливой женщиной на свете и не подозревает, что Федерико женился не по любви, и что другой брат, Максимо, по-настоящему ее любит. Потеряв дочь, разочаровавшись в браке, Дельфина находится в депрессии, из которой ее выводит Максимо. Но они не могут быть вместе, им все время мешают. Тем более, что за всеми преступлениями стоит темный ангел семьи — Регина де Валладарес...",
  "iframe_url": "",
  "poster": "https://img.imgilall.me/movies/franchise/4/5/5/8/1/0/0/0/0/0/610x900_45581.jpeg",
  "country": {
    "22": "Аргентина"
  },
  "collection": [],
  "genre": {
    "8": "Мелодрама",
    "7": "Драма"
  },
  "director": [
    "Гаита Арагона",
    "Виктор Стелья"
  ],
  "screenwriter": [
    "Алехандра Бочатей",
    "Лаура Феррари"
  ],
  "producer": [
    "Тато Коллер",
    "Орнелла Дзампичинини"
  ],
  "operator": [
    "Херардо Солдатос"
  ],
  "composer": [],
  "design": [
    "Сусана Перес Амиго",
    "Селина Амадео"
  ],
  "editor": [
    "Гэбриел Симари"
  ],
  "actors": [
    "Габриэль Коррадо",
    "Освальдо Лапорт",
    "Флоренция Рагги",
    "Сусана Кампос",
    "Хорхе Д’Элия",
    "Лукресия Капельо",
    "Адела Глейхер",
    "Жинетт Рейнал",
    "Франсиско Наполи",
    "Флоренсия Ортис"
  ],
  "actors_dubl": [],
  "trivia": [],
  "trailers": [],
  "seasons": [
    {
      "poster": null,
      "release_ru": null,
      "release_world": null,
      "availability": null,
      "iframe_url": "",
      "season": 1,
      "episodes": [
        {
          "episode": 1,
          "name": null,
          "iframe_url": "",
          "iframe_poster": null,
          "release_ru": null,
          "release_world": null,
          "availability": null,
          "voiceActing": [
            "Рус. Люб. одноголосый",
            "Spanish Original"
          ],
          "ads": false,
          "subtitle": []
        },
        {
          "episode": 2,
          "name": null,
          "iframe_url": "",
          "iframe_poster": null,
          "release_ru": null,
          "release_world": null,
          "availability": null,
          "voiceActing": [
            "Рус. Люб. одноголосый",
            "Spanish Original"
          ],
          "ads": false,
          "subtitle": []
        },
        {
          "episode": 3,
          "name": null,
          "iframe_url": "",
          "iframe_poster": null,
          "release_ru": null,
          "release_world": null,
          "availability": null,
          "voiceActing": [
            "Рус. Люб. одноголосый",
            "Spanish Original"
          ],
          "ads": false,
          "subtitle": []
        },
        {
          "episode": 4,
          "name": null,
          "iframe_url": "",
          "iframe_poster": null,
          "release_ru": null,
          "release_world": null,
          "availability": null,
          "voiceActing": [
            "Рус. Люб. одноголосый",
            "Spanish Original"
          ],
          "ads": false,
          "subtitle": []
        },
        {
          "episode": 5,
          "name": null,
          "iframe_url": "",
          "iframe_poster": null,
          "release_ru": null,
          "release_world": null,
          "availability": null,
          "voiceActing": [
            "Рус. Люб. одноголосый",
            "Spanish Original"
          ],
          "ads": false,
          "subtitle": []
        },
        {
          "episode": 6,
          "name": null,
          "iframe_url": "",
          "iframe_poster": null,
          "release_ru": null,
          "release_world": null,
          "availability": null,
          "voiceActing": [
            "Рус. Люб. одноголосый",
            "Spanish Original"
          ],
          "ads": false,
          "subtitle": []
        }
      ]
    }
  ],
  "voiceActing": [
    "Рус. Люб. одноголосый",
    "Spanish Original"
  ],
  "subtitle": [],
  "parts": []
}
