{
  "id": 3344,
  "name": "Лузер",
  "name_eng": "",
  "year": 2008,
  "slogan": null,
  "age": "18+",
  "type": "film",
  "quality": "SD",
  "imdb": null,
  "imdb_id": null,
  "kinopoisk": "6.0",
  "kinopoisk_id": "401770",
  "world_art": null,
  "world_art_id": null,
  "time": "104 мин.",
  "ads": false,
  "premier": "2008-01-03",
  "premier_rus": "2008-01-03",
  "availability": null,
  "activate_time": "2018-11-09 12:45:14",
  "budget": null,
  "fees_use": null,
  "fees_world": null,
  "fees_rus": null,
  "rate_mpaa": null,
  "description": "Вначале все события происходят в Москве, где главный герой Дима после серии неудач случайно оказывается в казино. И тут ему начинает везти. Сначала он выигрывает миллион и шикарный автомобиль, а затем неожиданно Диму приглашает его давний друг из Питера встречать Новый год.На новой машине главный герой фильма мчится в сторону северной столицы, но на середине пути, около Валдая его машину останавливает бдительный гаишник Павел. Дима, пытаясь растопить сердце стража порядка, рассказывает Павлу трогательную историю о своей возлюбленной, которая живет в маленьком городе Валдае. Однако, названный наобум адрес, оказывается адресом, где живет сам Павел. Потрясенный гаишник устраивает очную ставку так называемым «любовникам».",
  "iframe_url": "",
  "iframe_poster": "https://img.imgilall.me/movies/video/3/1/4/6/5/0/0/0/0/0/800x450_31465.jpeg",
  "poster": "https://img.imgilall.me/movies/franchise/3/3/4/4/0/0/0/0/0/0/610x900_3344.jpg",
  "country": {
    "5": "Россия"
  },
  "collection": [],
  "genre": {
    "22": "Русский",
    "19": "Комедия"
  },
  "director": [
    "Александр Абдулов",
    "Владимир Фатьянов"
  ],
  "screenwriter": [
    "Александр Абдулов",
    "Владимир Фатьянов",
    "Игорь Афанасьев"
  ],
  "producer": [
    "Александр Абдулов",
    "Сергей Куликов",
    "Анатолий Чижиков"
  ],
  "operator": [
    "Алексей Федоров"
  ],
  "composer": [
    "Андрей Державин"
  ],
  "design": [],
  "editor": [],
  "actors": [
    "Александр Абдулов",
    "Сергей Никоненко",
    "Ирина Розанова",
    "Сергей Степанченко",
    "Инна Пиварс",
    "Лариса Удовиченко",
    "Андрей Макаревич",
    "Олег Янковский",
    "Александр Збруев",
    "Леонид Ярмольник"
  ],
  "actors_dubl": [],
  "trivia": [],
  "trailers": [],
  "seasons": [],
  "voiceActing": [
    "Рус. Оригинальный"
  ],
  "subtitle": [],
  "parts": []
}
