{
  "id": 37948,
  "name": "Дела сердечные",
  "name_eng": "Haal-e-Dil",
  "year": 2008,
  "slogan": "—",
  "age": "12+",
  "type": "film",
  "quality": "SD",
  "imdb": "3.4",
  "imdb_id": "1252488",
  "kinopoisk": "7.0",
  "kinopoisk_id": "418271",
  "world_art": null,
  "world_art_id": null,
  "time": "124 мин. / 02:04",
  "ads": false,
  "premier": "2008-06-20",
  "premier_rus": "2008-06-21",
  "availability": "2008-06-22",
  "activate_time": "2020-10-12 06:14:00",
  "budget": null,
  "fees_use": null,
  "fees_world": null,
  "fees_rus": null,
  "rate_mpaa": null,
  "description": "Это история Санджаны, для которой любовь целомудренна и священна. Для нее любовь — не часть жизни, а сама жизнь. Это история Шекхара, который волочится за каждой второй девчонкой, не подозревая, что скоро встретит девушку, которая изменит его существование. Это история Рохита, который влюблен настолько сильно, что не остановится ни перед чем, чтобы достичь своей любви... Санджана неожиданно оказывается перед выбором между идеальной любовью и идеальным незнакомцем. Что делать, когда ты доверяешь человеку, который тебе совсем не подходит, но ты уже любишь кого-то еще?",
  "iframe_url": "",
  "iframe_poster": null,
  "poster": "https://img.imgilall.me/movies/franchise/3/7/9/4/8/0/0/0/0/0/610x900_37948.jpg",
  "country": {
    "26": "Индия"
  },
  "collection": [],
  "genre": {
    "8": "Мелодрама",
    "7": "Драма"
  },
  "director": [
    "Анил Девган"
  ],
  "screenwriter": [
    "Дхирадж Раттан",
    "Шаббир Ахмад",
    "Саджид Али"
  ],
  "producer": [
    "Индерджит Чадха",
    "Пуджа Гуджрал",
    "Санджив Джоши"
  ],
  "operator": [
    "Раджив Рави"
  ],
  "composer": [
    "Ананд Радж Ананд",
    "Вишал Бхарадвадж",
    "Притам Чакраборти"
  ],
  "design": [],
  "editor": [
    "Дхармендра Шарма"
  ],
  "actors": [
    "Амита Патхак",
    "Накуул Мехта",
    "Адхиаян Суман",
    "Нассар Абдулла",
    "Бхарати Ачрекар",
    "Аджай Девган",
    "Шариб Хашми",
    "Каджол",
    "Химани Шивпури",
    "Тануджа"
  ],
  "actors_dubl": [],
  "trivia": [],
  "trailers": [],
  "seasons": [],
  "voiceActing": [
    "Diva Universal"
  ],
  "subtitle": [],
  "parts": []
}
