{
  "id": 42106,
  "name": "Неутомимый",
  "name_eng": "Indian",
  "year": 2001,
  "slogan": "—",
  "age": "12+",
  "type": "film",
  "quality": "HD (720p)",
  "imdb": "5.4",
  "imdb_id": "0300028",
  "kinopoisk": null,
  "kinopoisk_id": "41685",
  "world_art": null,
  "world_art_id": null,
  "time": "172 мин. / 02:52",
  "ads": false,
  "premier": "2001-10-26",
  "premier_rus": "2001-10-27",
  "availability": "2001-10-28",
  "activate_time": "2020-11-11 06:24:00",
  "budget": null,
  "fees_use": null,
  "fees_world": null,
  "fees_rus": null,
  "rate_mpaa": null,
  "description": "Старший офицер полиции Азад посадил за решетку опасного преступника Васим Кхана. Коррумпированный начальник городской полиции Сурьяпратаб предлагает Азаду выпустить бандита на свободу. Ни угрозы, ни деньги не могут заставить полицейского стать сообщником продажного руководства. Впереди схватка не на жизнь, а на смерть.",
  "iframe_url": "",
  "iframe_poster": null,
  "poster": "https://img.imgilall.me/movies/franchise/4/2/1/0/6/0/0/0/0/0/610x900_42106.jpg",
  "country": {
    "26": "Индия"
  },
  "collection": [],
  "genre": {
    "25": "Криминал",
    "17": "Боевик",
    "13": "Триллер",
    "7": "Драма"
  },
  "director": [
    "N. Maharajan"
  ],
  "screenwriter": [
    "Санджай Масум"
  ],
  "producer": [
    "Фироз Багбан",
    "Санни Деол",
    "Дипак Раи Шарма"
  ],
  "operator": [],
  "composer": [
    "Ананд Радж Ананд"
  ],
  "design": [
    "Реза Шараффи"
  ],
  "editor": [],
  "actors": [
    "Санни Деол",
    "Шилпа Шетти",
    "Радж Баббар",
    "Дэнни Дензонгпа",
    "Раджат Беди",
    "Рахул Дев",
    "Санджай Нарвекар",
    "Ом Пури",
    "Прамод Мутху",
    "Мукеш Риши"
  ],
  "actors_dubl": [],
  "trivia": [],
  "trailers": [],
  "seasons": [],
  "voiceActing": [
    "JoyStudio"
  ],
  "subtitle": [],
  "parts": []
}
