{
  "id": 30088,
  "name": "Улыбка Бога, или Чисто одесская история",
  "name_eng": "",
  "year": 2008,
  "slogan": "«Здесь вам не Америка!»",
  "age": "12+",
  "type": "film",
  "quality": "HD (720p)",
  "imdb": "6.0",
  "imdb_id": "0",
  "kinopoisk": "6.8",
  "kinopoisk_id": "417714",
  "world_art": null,
  "world_art_id": null,
  "time": "117 мин. / 01:57",
  "ads": false,
  "premier": "2009-11-26",
  "premier_rus": "2009-12-03",
  "availability": "2009-12-04",
  "activate_time": "2020-07-11 05:57:00",
  "budget": "$8 500 000",
  "fees_use": null,
  "fees_world": "$117 970",
  "fees_rus": "$48 972",
  "rate_mpaa": null,
  "description": "Богатый старый одессит Филипп Ольшанский, который в очередной раз собирается отойти в мир иной, созывает всю семью и объявляет о некоторых изменениях в завещании. Чтобы исполнить просьбу дедушки, его внуку Алэну приходится вылететь в Одессу. И здесь он попадает в череду приключений. Несмотря на то, что оставил в Америке свою прагматичную невесту, Алэн встречается с очаровательной рыжеволосой одесситкой и…",
  "iframe_url": "",
  "iframe_poster": null,
  "poster": "https://img.imgilall.me/movies/franchise/3/0/0/8/8/0/0/0/0/0/610x900_30088.jpg",
  "country": {
    "5": "Россия"
  },
  "collection": [],
  "genre": {
    "6": "Фэнтези",
    "19": "Комедия"
  },
  "director": [
    "Владимир Алеников"
  ],
  "screenwriter": [
    "Владимир Алеников",
    "Георгий Голубенко"
  ],
  "producer": [
    "Валерий Горелов",
    "Владимир Алеников",
    "Георгий Голубенко"
  ],
  "operator": [
    "Кирилл Давидофф"
  ],
  "composer": [
    "Игорь Зубков"
  ],
  "design": [
    "Лариса Токарева",
    "Татьяна Поддубная"
  ],
  "editor": [
    "Владимир Алеников",
    "Ольга Прошкина"
  ],
  "actors": [
    "Иван Жидков",
    "Армен Джигарханян",
    "Роман Карцев",
    "Мария Горбань",
    "Александр Панкратов-Черный",
    "Тамара Тана",
    "Нина Усатова",
    "Сергей Мигицко",
    "Вячеслав Гришечкин",
    "Дмитрий Сергин"
  ],
  "actors_dubl": [],
  "trivia": [],
  "trailers": [],
  "seasons": [],
  "voiceActing": [
    "Original"
  ],
  "subtitle": [],
  "parts": []
}
