{
  "id": 38367,
  "name": "Побег ради любви",
  "name_eng": "Parugu",
  "year": 2008,
  "slogan": "—",
  "age": "18+",
  "type": "film",
  "quality": "SD",
  "imdb": "7.1",
  "imdb_id": "1198349",
  "kinopoisk": "8.3",
  "kinopoisk_id": "410332",
  "world_art": null,
  "world_art_id": null,
  "time": "165 мин. / 02:45",
  "ads": false,
  "premier": "2008-05-01",
  "premier_rus": "2008-05-02",
  "availability": "2008-05-03",
  "activate_time": "2020-10-12 03:48:00",
  "budget": null,
  "fees_use": null,
  "fees_world": null,
  "fees_rus": null,
  "rate_mpaa": null,
  "description": "Нилаканта — это могущественный человек в деревне Рамачандрапурам, который не верит в браки по любви. У него было две дочери. Его старшая дочь Саббалакшми сбежала с парнем по имени Ерра Бабу из старшего класса как раз в ту ночь, когда намечалась ее свадьба. Люди Нилаканта похитили всех друзей Бабу. Кришна — счастливый беззаботный парень из Хидерабада, с ним так же Скрину из Неллора. Кришна влюблен в девушку Мина, которая является младшей дочерью Нилаканта. В остальном это история об одном из двух — как Кришна сбегает с Миной или как убеждает Нилаканту отдать ему дочь в жены.",
  "iframe_url": "",
  "iframe_poster": null,
  "poster": "https://img.imgilall.me/movies/franchise/3/8/3/6/7/0/0/0/0/0/610x900_38367.jpg",
  "country": {
    "26": "Индия"
  },
  "collection": [],
  "genre": {
    "38": "Мюзикл",
    "17": "Боевик",
    "8": "Мелодрама"
  },
  "director": [
    "Бхаскар"
  ],
  "screenwriter": [
    "Бхаскар",
    "Б.В.С. Рави",
    "Кораталла Сива"
  ],
  "producer": [
    "Дил Раджу",
    "Лэкшман",
    "Сирееш"
  ],
  "operator": [
    "Виджай К. Чакраватхи"
  ],
  "composer": [
    "Мани Шарма"
  ],
  "design": [
    "Ананд Сай"
  ],
  "editor": [
    "Мартанд К. Венкатеш"
  ],
  "actors": [
    "Аллу Арджун",
    "Шила",
    "Пунам Баджва",
    "Пракаш Радж",
    "Джаясудха",
    "Сунил",
    "Шриниваса Редди",
    "Читрам Сринивас",
    "Калпана",
    "Джива"
  ],
  "actors_dubl": [],
  "trivia": [],
  "trailers": [],
  "seasons": [],
  "voiceActing": [
    "Diva Universal"
  ],
  "subtitle": [],
  "parts": []
}
