{
  "id": 38568,
  "name": "У любви нет цены",
  "name_eng": "Awara Paagal Deewana",
  "year": 2002,
  "slogan": "—",
  "age": null,
  "type": "film",
  "quality": "FHD (1080p)",
  "imdb": "6.2",
  "imdb_id": "0319020",
  "kinopoisk": "6.3",
  "kinopoisk_id": "41680",
  "world_art": null,
  "world_art_id": null,
  "time": "160 мин. / 02:40",
  "ads": false,
  "premier": "2002-06-20",
  "premier_rus": "2002-06-21",
  "availability": "2002-06-22",
  "activate_time": "2020-10-14 11:00:00",
  "budget": null,
  "fees_use": null,
  "fees_world": null,
  "fees_rus": null,
  "rate_mpaa": null,
  "description": "Когда в соседнем коттедже поселяется новый жилец, владелец зубоврачебного кабинета доктор Анмол Ачария узнаёт в нём ганстера, за информацию о котором в преступном мире Индии объявлена награда.По настоянию жены он вместе с тестем отправляется в Индию за обещанной наградой, но здесь он оказывается вовлеченным в погоню за алмазами, цена которых в конечном итоге будет определяться возможностью быть вместе с любимой.",
  "iframe_url": "",
  "iframe_poster": null,
  "poster": "https://img.imgilall.me/movies/franchise/3/8/5/6/8/0/0/0/0/0/610x900_38568.jpg",
  "country": {
    "26": "Индия"
  },
  "collection": [],
  "genre": {
    "25": "Криминал",
    "19": "Комедия",
    "17": "Боевик",
    "13": "Триллер",
    "7": "Драма"
  },
  "director": [
    "Викрам Бхатт"
  ],
  "screenwriter": [
    "Ананд С. Вардхан",
    "Мангеш Кулкарни",
    "Нирадж Вора"
  ],
  "producer": [
    "Фироз Надиадвала"
  ],
  "operator": [
    "Правин Бхатт"
  ],
  "composer": [
    "Ану Малик",
    "Франко Ваз"
  ],
  "design": [
    "Сайлеш Махадик",
    "Шитал",
    "Анна Сингх"
  ],
  "editor": [
    "Амит Сахена"
  ],
  "actors": [
    "Акшай Кумар",
    "Сунил Шетти",
    "Афтаб Шивдасани",
    "Пареш Раваль",
    "Прити Джангиани",
    "Амрита Арора",
    "Суприя Пилгаонкар",
    "Арти Чабрия",
    "Джонни Левер",
    "Рахул Дев"
  ],
  "actors_dubl": [],
  "trivia": [],
  "trailers": [],
  "seasons": [],
  "voiceActing": [
    "Diva Universal"
  ],
  "subtitle": [],
  "parts": []
}
