{
  "id": 26261,
  "name": "Я – это любовь",
  "name_eng": "Io sono l'amore",
  "year": 2009,
  "slogan": "—",
  "age": "18+",
  "type": "film",
  "quality": "FHD (1080p)",
  "imdb": "7.0",
  "imdb_id": "1226236",
  "kinopoisk": "6.9",
  "kinopoisk_id": "412363",
  "world_art": null,
  "world_art_id": null,
  "time": "120 мин. / 02:00",
  "ads": false,
  "premier": "2009-09-05",
  "premier_rus": "2009-09-06",
  "availability": "2009-09-07",
  "activate_time": "2020-07-25 04:55:00",
  "budget": "$10 000 000",
  "fees_use": "$5 005 465",
  "fees_world": "+ $5 901 103 = $10 906 568",
  "fees_rus": null,
  "rate_mpaa": "R",
  "description": "Патриарх респектабельного семейства Рекки, Эдуардо-старший, предчувствуя скорую кончину, на торжестве в честь собственного дня рождения объявляет родственникам, что собирается передать бразды правления семейным бизнесом своему сыну Танкреди и внуку, Эдуардо-младшему. Но у последнего совсем другие планы: вместе со своим другом Антонио он хочет открыть ресторан, но для этого ему нужны деньги. Пока Эду набирается смелости, чтобы попросить поддержки у отца, его мать Эмма без памяти влюбляется в Антонио и заводит с ним роман.",
  "iframe_url": "",
  "iframe_poster": null,
  "poster": "https://img.imgilall.me/movies/franchise/2/6/2/6/1/0/0/0/0/0/610x900_26261.jpg",
  "country": {
    "8": "Италия"
  },
  "collection": [],
  "genre": {
    "8": "Мелодрама",
    "7": "Драма"
  },
  "director": [
    "Лука Гуаданьино"
  ],
  "screenwriter": [
    "Лука Гуаданьино",
    "Барбара Альберти",
    "Иван Котронео"
  ],
  "producer": [
    "Лука Гуаданьино",
    "Франческо Мельци д’Эрил",
    "Марко Морабито"
  ],
  "operator": [
    "Йорик Ле Со"
  ],
  "composer": [
    "Джон Адамс"
  ],
  "design": [
    "Франческа Балестра Ди Моттола",
    "Антонелла Каннароцци",
    "Моника Сирони"
  ],
  "editor": [
    "Уолтер Фазано"
  ],
  "actors": [
    "Тильда Суинтон",
    "Флавио Паренти",
    "Эдоардо Габбриэллини",
    "Альба Рорвахер",
    "Пиппо Дельбоно",
    "Мария Пайато",
    "Диан Флери",
    "Варис Ахлувалиа",
    "Маттиа Дзаккаро",
    "Джиневра Нотарбартоло"
  ],
  "actors_dubl": [],
  "trivia": [
    "Для съёмок в фильме исполнительница главной роли Тильда Суинтон выучила итальянский и русский языки.",
    "Эмма смотрит по телевизору драму Джонатана Демме «Филадельфия» (1993) с Томом Хэнксом в главной роли.",
    "Эмму в детстве сыграла Онор, дочь Тильды Суинтон.",
    "На производство фильма у продюсеров Тильды Суинтон и Луки Гуаданьино ушло 11 лет."
  ],
  "trailers": [],
  "seasons": [],
  "voiceActing": [
    "Diva Universal"
  ],
  "subtitle": [],
  "parts": []
}
