{
  "id": 14875,
  "name": "Ундина",
  "name_eng": "Ondine",
  "year": 2009,
  "slogan": "«Истина не то, что вы знаете. Это то, во что вы верите»",
  "age": "16+",
  "type": "film",
  "quality": "HD (720p)",
  "imdb": "6.8",
  "imdb_id": "1235796",
  "kinopoisk": "6.9",
  "kinopoisk_id": "418734",
  "world_art": null,
  "world_art_id": null,
  "time": "111 мин. / 01:51",
  "ads": false,
  "premier": "2009-09-14",
  "premier_rus": null,
  "availability": "2009-09-15",
  "activate_time": "2020-01-31 12:33:00",
  "budget": "$12 000 000",
  "fees_use": "$550 472",
  "fees_world": "+ $1 094 283 = $1 644 755",
  "fees_rus": null,
  "rate_mpaa": "PG-13",
  "description": "Жизнь рыбака Сиракуза и его дочки Энни переворачивается, когда главному герою в сети попадает прекрасная и таинственная незнакомка. Энни верит, что девушка - волшебное существо, а у Сиракуза все прозаичнее: он попросту безнадежно влюбляется в красавицу. Постепенно жизнь Сиракуза и всех его окружающих меняется, и они начинают подозревать, что в сети попалась не просто девушка, а морская нимфа.",
  "iframe_url": "",
  "iframe_poster": null,
  "poster": "https://img.imgilall.me/movies/franchise/1/4/8/7/5/0/0/0/0/0/610x900_14875.jpg",
  "country": {
    "1": "США",
    "21": "Ирландия"
  },
  "collection": {
    "38": "Про любовь",
    "21": "Для молодёжи",
    "11": "Для женщин"
  },
  "genre": {
    "24": "Детектив",
    "10": "Зарубежный",
    "8": "Мелодрама",
    "7": "Драма"
  },
  "director": [
    "Нил Джордан"
  ],
  "screenwriter": [
    "Нил Джордан"
  ],
  "producer": [
    "Бен Браунинг",
    "Джеймс Флинн",
    "Нил Джордан"
  ],
  "operator": [
    "Кристофер Дойл"
  ],
  "composer": [
    "Кьяртан Свейнссон"
  ],
  "design": [
    "Анна Рэкард",
    "Мартин Гулдинг",
    "Марк Лоури"
  ],
  "editor": [
    "Тони Лосон"
  ],
  "actors": [
    "Колин Фаррелл",
    "Алиция Бахледа",
    "Дервла Кирван",
    "Элисон Бэрри",
    "Мэрион О’Двайр",
    "Тони Кёрран",
    "Мэри О’Ши",
    "Джемма Ривз",
    "Стивен Ри",
    "Норма Шихан"
  ],
  "actors_dubl": [],
  "trivia": [
    "Роль Ундины планировалось предложить Марион Котийяр, однако сыграла её польская актриса Алиция Бахледа (Алиция Бахледа-Цурусь)."
  ],
  "trailers": [],
  "seasons": [],
  "voiceActing": [
    "Рус. Проф. двухголосый",
    "Eng.Original"
  ],
  "subtitle": [],
  "parts": []
}
