{
  "id": 10027,
  "name": "Читающий мысли",
  "name_eng": "The Listener",
  "year": 2009,
  "slogan": "—",
  "age": "16+",
  "type": "series",
  "quality": "SD",
  "imdb": "6.8",
  "imdb_id": "1181541",
  "kinopoisk": "7.3",
  "kinopoisk_id": "412372",
  "world_art": null,
  "world_art_id": null,
  "time": "43 мин",
  "ads": false,
  "premier": "2009-03-02",
  "premier_rus": null,
  "availability": null,
  "serial_status": "offline",
  "activate_time": "2019-07-26 14:01:00",
  "budget": null,
  "fees_use": null,
  "fees_world": null,
  "fees_rus": null,
  "rate_mpaa": null,
  "description": "Тоби Логан - 28-летний парамедик, обладающий способностью читать мысли людей. В один прекрасный день он решает использовать свой дар на благо других людей и помогать раскрывать преступления.",
  "iframe_url": "",
  "poster": "https://img.imgilall.me/movies/franchise/1/0/0/2/7/0/0/0/0/0/610x900_10027.jpg",
  "country": {
    "7": "Канада"
  },
  "collection": [],
  "genre": {
    "25": "Криминал",
    "11": "Фантастика",
    "6": "Фэнтези",
    "7": "Драма"
  },
  "director": [
    "Клемент Вирго",
    "Кари Скогланд",
    "Питер Стеббингс"
  ],
  "screenwriter": [
    "Майкл Амо",
    "Сэм Иган",
    "Мэтт МакЛеннан"
  ],
  "producer": [
    "Кристина Дженнингс",
    "Шэйн Киннер",
    "Джули Лэйси"
  ],
  "operator": [
    "Рудольф Блахачек",
    "Стивен Рейзерс",
    "Джеймс Джеффри"
  ],
  "composer": [
    "Том Тирд",
    "Филип Дж Беннетт"
  ],
  "design": [
    "Линдси Хермер-Белл",
    "Сандра Кибартас",
    "Брэд Гривз"
  ],
  "editor": [
    "Жан Коломб",
    "Весна Свиланович",
    "Майкл Доэрти"
  ],
  "actors": [
    "Крэйг Олейник",
    "Эннис Эсмер",
    "Лорен Ли Смит",
    "Рейнбоу Фрэнкс",
    "Питер Стеббингс",
    "Милен Робик",
    "Тара Спенсер-Нэйрн",
    "Арнольд Пиннок",
    "Мелани Скрофано",
    "Энтони Лемке"
  ],
  "actors_dubl": [],
  "trivia": [],
  "trailers": [],
  "seasons": [
    {
      "poster": null,
      "release_ru": "2009-06-04",
      "release_world": "2009-06-03",
      "availability": "2009-06-05",
      "iframe_url": "",
      "season": 1,
      "episodes": [
        {
          "episode": 1,
          "name": "I'm an Adult Now",
          "iframe_url": "",
          "iframe_poster": "https://img.imgilall.me/movies/video/1/0/6/1/6/9/0/0/0/0/800x450_106169.jpeg",
          "release_ru": "2009-06-04",
          "release_world": "2009-06-03",
          "availability": "2009-06-05",
          "voiceActing": [
            "Fox",
            "Eng.Original"
          ],
          "ads": false,
          "subtitle": []
        },
        {
          "episode": 2,
          "name": "Emotional Rescue",
          "iframe_url": "",
          "iframe_poster": "https://img.imgilall.me/movies/video/1/0/6/1/7/0/0/0/0/0/800x450_106170.jpeg",
          "release_ru": "2009-06-05",
          "release_world": "2009-06-04",
          "availability": "2009-06-06",
          "voiceActing": [
            "Fox",
            "Eng.Original"
          ],
          "ads": false,
          "subtitle": []
        },
        {
          "episode": 3,
          "name": "A Voice in the Dark",
          "iframe_url": "",
          "iframe_poster": "https://img.imgilall.me/movies/video/1/0/6/1/7/1/0/0/0/0/800x450_106171.jpeg",
          "release_ru": "2009-06-12",
          "release_world": "2009-06-11",
          "availability": "2009-06-13",
          "voiceActing": [
            "Fox",
            "Eng.Original"
          ],
          "ads": false,
          "subtitle": []
        },
        {
          "episode": 4,
          "name": "Some Kinda Love",
          "iframe_url": "",
          "iframe_poster": "https://img.imgilall.me/movies/video/1/0/6/1/7/2/0/0/0/0/800x450_106172.jpeg",
          "release_ru": "2009-06-19",
          "release_world": "2009-06-18",
          "availability": "2009-06-20",
          "voiceActing": [
            "Fox",
            "Eng.Original"
          ],
          "ads": false,
          "subtitle": []
        },
        {
          "episode": 5,
          "name": "Lisa Says",
          "iframe_url": "",
          "iframe_poster": "https://img.imgilall.me/movies/video/1/0/6/1/7/3/0/0/0/0/800x450_106173.jpeg",
          "release_ru": "2009-07-03",
          "release_world": "2009-07-02",
          "availability": "2009-07-04",
          "voiceActing": [
            "Fox",
            "Eng.Original"
          ],
          "ads": false,
          "subtitle": []
        },
        {
          "episode": 6,
          "name": "Foggy Notion",
          "iframe_url": "",
          "iframe_poster": "https://img.imgilall.me/movies/video/1/0/6/1/7/4/0/0/0/0/800x450_106174.jpeg",
          "release_ru": "2009-07-10",
          "release_world": "2009-07-09",
          "availability": "2009-07-11",
          "voiceActing": [
            "Fox",
            "Eng.Original"
          ],
          "ads": false,
          "subtitle": []
        },
        {
          "episode": 7,
          "name": "Iris",
          "iframe_url": "",
          "iframe_poster": "https://img.imgilall.me/movies/video/1/0/6/1/7/5/0/0/0/0/800x450_106175.jpeg",
          "release_ru": "2009-07-17",
          "release_world": "2009-07-16",
          "availability": "2009-07-18",
          "voiceActing": [
            "Fox",
            "Eng.Original"
          ],
          "ads": false,
          "subtitle": []
        },
        {
          "episode": 8,
          "name": "One Way or Another",
          "iframe_url": "",
          "iframe_poster": "https://img.imgilall.me/movies/video/1/0/6/1/7/6/0/0/0/0/800x450_106176.jpeg",
          "release_ru": "2009-07-24",
          "release_world": "2009-07-23",
          "availability": "2009-07-25",
          "voiceActing": [
            "Fox",
            "Eng.Original"
          ],
          "ads": false,
          "subtitle": []
        },
        {
          "episode": 9,
          "name": "Inside Man",
          "iframe_url": "",
          "iframe_poster": "https://img.imgilall.me/movies/video/1/0/6/1/7/7/0/0/0/0/800x450_106177.jpeg",
          "release_ru": "2009-07-31",
          "release_world": "2009-07-30",
          "availability": "2009-08-01",
          "voiceActing": [
            "Fox",
            "Eng.Original"
          ],
          "ads": false,
          "subtitle": []
        },
        {
          "episode": 10,
          "name": "Missing",
          "iframe_url": "",
          "iframe_poster": "https://img.imgilall.me/movies/video/1/0/6/1/7/8/0/0/0/0/800x450_106178.jpeg",
          "release_ru": "2009-08-07",
          "release_world": "2009-08-06",
          "availability": "2009-08-08",
          "voiceActing": [
            "Fox",
            "Eng.Original"
          ],
          "ads": false,
          "subtitle": []
        },
        {
          "episode": 11,
          "name": "Beginning to See the Light",
          "iframe_url": "",
          "iframe_poster": "https://img.imgilall.me/movies/video/1/0/6/1/7/9/0/0/0/0/800x450_106179.jpeg",
          "release_ru": "2009-08-14",
          "release_world": "2009-08-13",
          "availability": "2009-08-15",
          "voiceActing": [
            "Fox",
            "Eng.Original"
          ],
          "ads": false,
          "subtitle": []
        },
        {
          "episode": 12,
          "name": "My Sister's Keeper",
          "iframe_url": "",
          "iframe_poster": "https://img.imgilall.me/movies/video/1/0/6/1/8/0/0/0/0/0/800x450_106180.jpeg",
          "release_ru": "2009-08-21",
          "release_world": "2009-08-20",
          "availability": "2009-08-22",
          "voiceActing": [
            "Fox",
            "Eng.Original"
          ],
          "ads": false,
          "subtitle": []
        },
        {
          "episode": 13,
          "name": "The Journey",
          "iframe_url": "",
          "iframe_poster": "https://img.imgilall.me/movies/video/1/0/6/1/8/1/0/0/0/0/800x450_106181.jpeg",
          "release_ru": "2009-08-28",
          "release_world": "2009-08-27",
          "availability": "2009-08-29",
          "voiceActing": [
            "Fox",
            "Eng.Original"
          ],
          "ads": false,
          "subtitle": []
        }
      ]
    },
    {
      "poster": null,
      "release_ru": "2011-02-09",
      "release_world": "2011-02-08",
      "availability": "2011-02-10",
      "iframe_url": "",
      "season": 2,
      "episodes": [
        {
          "episode": 1,
          "name": "Lady in the Lake",
          "iframe_url": "",
          "iframe_poster": "https://img.imgilall.me/movies/video/1/0/6/1/8/2/0/0/0/0/800x450_106182.jpeg",
          "release_ru": "2011-02-09",
          "release_world": "2011-02-08",
          "availability": "2011-02-10",
          "voiceActing": [
            "Fox",
            "Eng.Original"
          ],
          "ads": false,
          "subtitle": []
        },
        {
          "episode": 2,
          "name": "Crime Seen",
          "iframe_url": "",
          "iframe_poster": "https://img.imgilall.me/movies/video/1/0/6/1/8/3/0/0/0/0/800x450_106183.jpeg",
          "release_ru": "2011-02-16",
          "release_world": "2011-02-15",
          "availability": "2011-02-17",
          "voiceActing": [
            "Fox",
            "Eng.Original"
          ],
          "ads": false,
          "subtitle": []
        },
        {
          "episode": 3,
          "name": "In His Sights",
          "iframe_url": "",
          "iframe_poster": "https://img.imgilall.me/movies/video/1/0/6/1/8/4/0/0/0/0/800x450_106184.jpeg",
          "release_ru": "2011-02-23",
          "release_world": "2011-02-22",
          "availability": "2011-02-24",
          "voiceActing": [
            "Fox",
            "Eng.Original"
          ],
          "ads": false,
          "subtitle": []
        },
        {
          "episode": 4,
          "name": "The Brothers Volkov",
          "iframe_url": "",
          "iframe_poster": "https://img.imgilall.me/movies/video/1/0/6/1/8/5/0/0/0/0/800x450_106185.jpeg",
          "release_ru": "2011-03-09",
          "release_world": "2011-03-08",
          "availability": "2011-03-10",
          "voiceActing": [
            "Fox",
            "Eng.Original"
          ],
          "ads": false,
          "subtitle": []
        },
        {
          "episode": 5,
          "name": "Inner Circle",
          "iframe_url": "",
          "iframe_poster": "https://img.imgilall.me/movies/video/1/0/6/1/8/6/0/0/0/0/800x450_106186.jpeg",
          "release_ru": "2011-03-16",
          "release_world": "2011-03-15",
          "availability": "2011-03-17",
          "voiceActing": [
            "Fox",
            "Eng.Original"
          ],
          "ads": false,
          "subtitle": []
        },
        {
          "episode": 6,
          "name": "The Magician",
          "iframe_url": "",
          "iframe_poster": "https://img.imgilall.me/movies/video/1/0/6/1/8/7/0/0/0/0/800x450_106187.jpeg",
          "release_ru": "2011-03-23",
          "release_world": "2011-03-22",
          "availability": "2011-03-24",
          "voiceActing": [
            "Fox",
            "Eng.Original"
          ],
          "ads": false,
          "subtitle": []
        },
        {
          "episode": 7,
          "name": "Ace in the Hole",
          "iframe_url": "",
          "iframe_poster": "https://img.imgilall.me/movies/video/1/0/6/1/8/8/0/0/0/0/800x450_106188.jpeg",
          "release_ru": "2011-04-02",
          "release_world": "2011-04-01",
          "availability": "2011-04-03",
          "voiceActing": [
            "Fox",
            "Eng.Original"
          ],
          "ads": false,
          "subtitle": []
        },
        {
          "episode": 8,
          "name": "Vanished",
          "iframe_url": "",
          "iframe_poster": "https://img.imgilall.me/movies/video/1/0/6/1/8/9/0/0/0/0/800x450_106189.jpeg",
          "release_ru": "2011-04-09",
          "release_world": "2011-04-08",
          "availability": "2011-04-10",
          "voiceActing": [
            "Fox",
            "Eng.Original"
          ],
          "ads": false,
          "subtitle": []
        },
        {
          "episode": 9,
          "name": "Jericho",
          "iframe_url": "",
          "iframe_poster": "https://img.imgilall.me/movies/video/1/0/6/1/9/0/0/0/0/0/800x450_106190.jpeg",
          "release_ru": "2011-04-16",
          "release_world": "2011-04-15",
          "availability": "2011-04-17",
          "voiceActing": [
            "Fox",
            "Eng.Original"
          ],
          "ads": false,
          "subtitle": []
        },
        {
          "episode": 10,
          "name": "Desperate Hours",
          "iframe_url": "",
          "iframe_poster": "https://img.imgilall.me/movies/video/1/0/6/1/9/1/0/0/0/0/800x450_106191.jpeg",
          "release_ru": "2011-04-23",
          "release_world": "2011-04-22",
          "availability": "2011-04-24",
          "voiceActing": [
            "Fox",
            "Eng.Original"
          ],
          "ads": false,
          "subtitle": []
        },
        {
          "episode": 11,
          "name": "To Die For",
          "iframe_url": "",
          "iframe_poster": "https://img.imgilall.me/movies/video/1/0/6/1/9/2/0/0/0/0/800x450_106192.jpeg",
          "release_ru": "2011-05-11",
          "release_world": "2011-05-10",
          "availability": "2011-05-12",
          "voiceActing": [
            "Fox",
            "Eng.Original"
          ],
          "ads": false,
          "subtitle": []
        },
        {
          "episode": 12,
          "name": "Eye of the Storm",
          "iframe_url": "",
          "iframe_poster": "https://img.imgilall.me/movies/video/1/0/6/1/9/3/0/0/0/0/800x450_106193.jpeg",
          "release_ru": "2011-05-18",
          "release_world": "2011-05-17",
          "availability": "2011-05-19",
          "voiceActing": [
            "Fox",
            "Eng.Original"
          ],
          "ads": false,
          "subtitle": []
        },
        {
          "episode": 13,
          "name": "Reckoning",
          "iframe_url": "",
          "iframe_poster": "https://img.imgilall.me/movies/video/1/0/6/1/9/4/0/0/0/0/800x450_106194.jpeg",
          "release_ru": "2011-05-25",
          "release_world": "2011-05-24",
          "availability": "2011-05-26",
          "voiceActing": [
            "Fox",
            "Eng.Original"
          ],
          "ads": false,
          "subtitle": []
        }
      ]
    },
    {
      "poster": null,
      "release_ru": "2012-05-31",
      "release_world": "2012-05-30",
      "availability": "2012-06-01",
      "iframe_url": "",
      "season": 3,
      "episodes": [
        {
          "episode": 1,
          "name": "The Bank Job",
          "iframe_url": "",
          "iframe_poster": "https://img.imgilall.me/movies/video/1/0/6/1/9/5/0/0/0/0/800x450_106195.jpeg",
          "release_ru": "2012-05-31",
          "release_world": "2012-05-30",
          "availability": "2012-06-01",
          "voiceActing": [
            "Fox",
            "Eng.Original"
          ],
          "ads": false,
          "subtitle": []
        },
        {
          "episode": 2,
          "name": "Cold Case Blues",
          "iframe_url": "",
          "iframe_poster": "https://img.imgilall.me/movies/video/1/0/6/1/9/6/0/0/0/0/800x450_106196.jpeg",
          "release_ru": "2012-06-07",
          "release_world": "2012-06-06",
          "availability": "2012-06-08",
          "voiceActing": [
            "Fox",
            "Eng.Original"
          ],
          "ads": false,
          "subtitle": []
        },
        {
          "episode": 3,
          "name": "Curtain Call",
          "iframe_url": "",
          "iframe_poster": "https://img.imgilall.me/movies/video/1/0/6/1/9/7/0/0/0/0/800x450_106197.jpeg",
          "release_ru": "2012-06-14",
          "release_world": "2012-06-13",
          "availability": "2012-06-15",
          "voiceActing": [
            "Fox",
            "Eng.Original"
          ],
          "ads": false,
          "subtitle": []
        },
        {
          "episode": 4,
          "name": "The Taking",
          "iframe_url": "",
          "iframe_poster": "https://img.imgilall.me/movies/video/1/0/6/1/9/8/0/0/0/0/800x450_106198.jpeg",
          "release_ru": "2012-06-21",
          "release_world": "2012-06-20",
          "availability": "2012-06-22",
          "voiceActing": [
            "Fox",
            "Eng.Original"
          ],
          "ads": false,
          "subtitle": []
        },
        {
          "episode": 5,
          "name": "Rogue's Gallery",
          "iframe_url": "",
          "iframe_poster": "https://img.imgilall.me/movies/video/1/0/6/1/9/9/0/0/0/0/800x450_106199.jpeg",
          "release_ru": "2012-06-28",
          "release_world": "2012-06-27",
          "availability": "2012-06-29",
          "voiceActing": [
            "Fox",
            "Eng.Original"
          ],
          "ads": false,
          "subtitle": []
        },
        {
          "episode": 6,
          "name": "She Sells Sanctuary",
          "iframe_url": "",
          "iframe_poster": "https://img.imgilall.me/movies/video/1/0/6/2/0/0/0/0/0/0/800x450_106200.jpeg",
          "release_ru": "2012-07-12",
          "release_world": "2012-07-11",
          "availability": "2012-07-13",
          "voiceActing": [
            "Fox",
            "Eng.Original"
          ],
          "ads": false,
          "subtitle": []
        },
        {
          "episode": 7,
          "name": "Poisoned Minds",
          "iframe_url": "",
          "iframe_poster": "https://img.imgilall.me/movies/video/1/0/6/2/0/1/0/0/0/0/800x450_106201.jpeg",
          "release_ru": "2012-07-19",
          "release_world": "2012-07-18",
          "availability": "2012-07-20",
          "voiceActing": [
            "Fox",
            "Eng.Original"
          ],
          "ads": false,
          "subtitle": []
        },
        {
          "episode": 8,
          "name": "Now You See Him",
          "iframe_url": "",
          "iframe_poster": "https://img.imgilall.me/movies/video/1/0/6/2/0/2/0/0/0/0/800x450_106202.jpeg",
          "release_ru": "2012-07-26",
          "release_world": "2012-07-25",
          "availability": "2012-07-27",
          "voiceActing": [
            "Fox",
            "Eng.Original"
          ],
          "ads": false,
          "subtitle": []
        },
        {
          "episode": 9,
          "name": "Crossed",
          "iframe_url": "",
          "iframe_poster": "https://img.imgilall.me/movies/video/1/0/6/2/0/3/0/0/0/0/800x450_106203.jpeg",
          "release_ru": "2012-08-16",
          "release_world": "2012-08-15",
          "availability": "2012-08-17",
          "voiceActing": [
            "Fox",
            "Eng.Original"
          ],
          "ads": false,
          "subtitle": []
        },
        {
          "episode": 10,
          "name": "Lockdown",
          "iframe_url": "",
          "iframe_poster": "https://img.imgilall.me/movies/video/1/0/6/2/0/4/0/0/0/0/800x450_106204.jpeg",
          "release_ru": "2012-08-23",
          "release_world": "2012-08-22",
          "availability": "2012-08-24",
          "voiceActing": [
            "Fox",
            "Eng.Original"
          ],
          "ads": false,
          "subtitle": []
        },
        {
          "episode": 11,
          "name": "Captain Nightfall",
          "iframe_url": "",
          "iframe_poster": "https://img.imgilall.me/movies/video/1/0/6/2/0/5/0/0/0/0/800x450_106205.jpeg",
          "release_ru": "2012-08-30",
          "release_world": "2012-08-29",
          "availability": "2012-08-31",
          "voiceActing": [
            "Fox",
            "Eng.Original"
          ],
          "ads": false,
          "subtitle": []
        },
        {
          "episode": 12,
          "name": "The Bro Code",
          "iframe_url": "",
          "iframe_poster": "https://img.imgilall.me/movies/video/1/0/6/2/0/6/0/0/0/0/800x450_106206.jpeg",
          "release_ru": "2012-09-06",
          "release_world": "2012-09-05",
          "availability": "2012-09-07",
          "voiceActing": [
            "Fox",
            "Eng.Original"
          ],
          "ads": false,
          "subtitle": []
        },
        {
          "episode": 13,
          "name": "The Shooting",
          "iframe_url": "",
          "iframe_poster": "https://img.imgilall.me/movies/video/1/0/6/2/0/7/0/0/0/0/800x450_106207.jpeg",
          "release_ru": "2012-09-13",
          "release_world": "2012-09-12",
          "availability": "2012-09-14",
          "voiceActing": [
            "Fox",
            "Eng.Original"
          ],
          "ads": false,
          "subtitle": []
        }
      ]
    },
    {
      "poster": null,
      "release_ru": "2013-05-30",
      "release_world": "2013-05-29",
      "availability": "2013-05-31",
      "iframe_url": "",
      "season": 4,
      "episodes": [
        {
          "episode": 1,
          "name": "Blast from the Past",
          "iframe_url": "",
          "iframe_poster": "https://img.imgilall.me/movies/video/1/0/6/2/0/8/0/0/0/0/800x450_106208.jpeg",
          "release_ru": "2013-05-30",
          "release_world": "2013-05-29",
          "availability": "2013-05-31",
          "voiceActing": [
            "Fox",
            "Eng.Original"
          ],
          "ads": false,
          "subtitle": []
        },
        {
          "episode": 2,
          "name": "The Blue Line",
          "iframe_url": "",
          "iframe_poster": "https://img.imgilall.me/movies/video/1/0/6/2/0/9/0/0/0/0/800x450_106209.jpeg",
          "release_ru": "2013-06-06",
          "release_world": "2013-06-05",
          "availability": "2013-06-07",
          "voiceActing": [
            "Fox",
            "Eng.Original"
          ],
          "ads": false,
          "subtitle": []
        },
        {
          "episode": 3,
          "name": "Early Checkout",
          "iframe_url": "",
          "iframe_poster": "https://img.imgilall.me/movies/video/1/0/6/2/1/0/0/0/0/0/800x450_106210.jpeg",
          "release_ru": "2013-06-13",
          "release_world": "2013-06-12",
          "availability": "2013-06-14",
          "voiceActing": [
            "Fox",
            "Eng.Original"
          ],
          "ads": false,
          "subtitle": []
        },
        {
          "episode": 4,
          "name": "Cold Storage",
          "iframe_url": "",
          "iframe_poster": "https://img.imgilall.me/movies/video/1/0/6/2/1/1/0/0/0/0/800x450_106211.jpeg",
          "release_ru": "2013-06-20",
          "release_world": "2013-06-19",
          "availability": "2013-06-21",
          "voiceActing": [
            "Fox",
            "Eng.Original"
          ],
          "ads": false,
          "subtitle": []
        },
        {
          "episode": 5,
          "name": "Buckle Up",
          "iframe_url": "",
          "iframe_poster": "https://img.imgilall.me/movies/video/1/0/6/2/1/2/0/0/0/0/800x450_106212.jpeg",
          "release_ru": "2013-06-27",
          "release_world": "2013-06-26",
          "availability": "2013-06-28",
          "voiceActing": [
            "Fox",
            "Eng.Original"
          ],
          "ads": false,
          "subtitle": []
        },
        {
          "episode": 6,
          "name": "Witness for the Prosecution",
          "iframe_url": "",
          "iframe_poster": "https://img.imgilall.me/movies/video/1/0/6/2/1/3/0/0/0/0/800x450_106213.jpeg",
          "release_ru": "2013-07-11",
          "release_world": "2013-07-10",
          "availability": "2013-07-12",
          "voiceActing": [
            "Fox",
            "Eng.Original"
          ],
          "ads": false,
          "subtitle": []
        },
        {
          "episode": 7,
          "name": "Caged In",
          "iframe_url": "",
          "iframe_poster": "https://img.imgilall.me/movies/video/1/0/6/2/1/4/0/0/0/0/800x450_106214.jpeg",
          "release_ru": "2013-07-18",
          "release_world": "2013-07-17",
          "availability": "2013-07-19",
          "voiceActing": [
            "Fox",
            "Eng.Original"
          ],
          "ads": false,
          "subtitle": []
        },
        {
          "episode": 8,
          "name": "The Illustrated Woman",
          "iframe_url": "",
          "iframe_poster": "https://img.imgilall.me/movies/video/1/0/6/2/1/5/0/0/0/0/800x450_106215.jpeg",
          "release_ru": "2013-07-25",
          "release_world": "2013-07-24",
          "availability": "2013-07-26",
          "voiceActing": [
            "Fox",
            "Eng.Original"
          ],
          "ads": false,
          "subtitle": []
        },
        {
          "episode": 9,
          "name": "Love's a Bitch",
          "iframe_url": "",
          "iframe_poster": "https://img.imgilall.me/movies/video/1/0/6/2/1/6/0/0/0/0/800x450_106216.jpeg",
          "release_ru": "2013-08-01",
          "release_world": "2013-07-31",
          "availability": "2013-08-02",
          "voiceActing": [
            "Fox",
            "Eng.Original"
          ],
          "ads": false,
          "subtitle": []
        },
        {
          "episode": 10,
          "name": "The Long Con",
          "iframe_url": "",
          "iframe_poster": "https://img.imgilall.me/movies/video/1/0/6/2/1/7/0/0/0/0/800x450_106217.jpeg",
          "release_ru": "2013-08-08",
          "release_world": "2013-08-07",
          "availability": "2013-08-09",
          "voiceActing": [
            "Fox",
            "Eng.Original"
          ],
          "ads": false,
          "subtitle": []
        },
        {
          "episode": 11,
          "name": "House of Horror",
          "iframe_url": "",
          "iframe_poster": "https://img.imgilall.me/movies/video/1/0/6/2/1/8/0/0/0/0/800x450_106218.jpeg",
          "release_ru": "2013-08-15",
          "release_world": "2013-08-14",
          "availability": "2013-08-16",
          "voiceActing": [
            "Fox",
            "Eng.Original"
          ],
          "ads": false,
          "subtitle": []
        },
        {
          "episode": 12,
          "name": "False I.D.",
          "iframe_url": "",
          "iframe_poster": "https://img.imgilall.me/movies/video/1/0/6/2/1/9/0/0/0/0/800x450_106219.jpeg",
          "release_ru": "2013-08-22",
          "release_world": "2013-08-21",
          "availability": "2013-08-23",
          "voiceActing": [
            "Fox",
            "Eng.Original"
          ],
          "ads": false,
          "subtitle": []
        },
        {
          "episode": 13,
          "name": "Fatal Vision",
          "iframe_url": "",
          "iframe_poster": "https://img.imgilall.me/movies/video/1/0/6/2/2/0/0/0/0/0/800x450_106220.jpeg",
          "release_ru": "2013-08-29",
          "release_world": "2013-08-28",
          "availability": "2013-08-30",
          "voiceActing": [
            "Fox",
            "Eng.Original"
          ],
          "ads": false,
          "subtitle": []
        }
      ]
    },
    {
      "poster": null,
      "release_ru": "2014-05-27",
      "release_world": "2014-05-26",
      "availability": "2014-05-28",
      "iframe_url": "",
      "season": 5,
      "episodes": [
        {
          "episode": 1,
          "name": "The Wrong Man",
          "iframe_url": "",
          "iframe_poster": "https://img.imgilall.me/movies/video/1/0/6/2/2/1/0/0/0/0/800x450_106221.jpeg",
          "release_ru": "2014-05-27",
          "release_world": "2014-05-26",
          "availability": "2014-05-28",
          "voiceActing": [
            "Fox",
            "Eng.Original"
          ],
          "ads": false,
          "subtitle": []
        },
        {
          "episode": 2,
          "name": "The Lockup",
          "iframe_url": "",
          "iframe_poster": "https://img.imgilall.me/movies/video/1/0/6/2/2/2/0/0/0/0/800x450_106222.jpeg",
          "release_ru": "2014-06-03",
          "release_world": "2014-06-02",
          "availability": "2014-06-04",
          "voiceActing": [
            "Fox",
            "Eng.Original"
          ],
          "ads": false,
          "subtitle": []
        },
        {
          "episode": 3,
          "name": "Dancing with the Enemy",
          "iframe_url": "",
          "iframe_poster": "https://img.imgilall.me/movies/video/1/0/6/2/2/3/0/0/0/0/800x450_106223.jpeg",
          "release_ru": "2014-06-10",
          "release_world": "2014-06-09",
          "availability": "2014-06-11",
          "voiceActing": [
            "Fox",
            "Eng.Original"
          ],
          "ads": false,
          "subtitle": []
        },
        {
          "episode": 4,
          "name": "Smoke and Mirrors",
          "iframe_url": "",
          "iframe_poster": "https://img.imgilall.me/movies/video/1/0/6/2/2/4/0/0/0/0/800x450_106224.jpeg",
          "release_ru": "2014-06-17",
          "release_world": "2014-06-16",
          "availability": "2014-06-18",
          "voiceActing": [
            "Fox",
            "Eng.Original"
          ],
          "ads": false,
          "subtitle": []
        },
        {
          "episode": 5,
          "name": "Game Over",
          "iframe_url": "",
          "iframe_poster": "https://img.imgilall.me/movies/video/1/0/6/2/2/5/0/0/0/0/800x450_106225.jpeg",
          "release_ru": "2014-06-24",
          "release_world": "2014-06-23",
          "availability": "2014-06-25",
          "voiceActing": [
            "Fox",
            "Eng.Original"
          ],
          "ads": false,
          "subtitle": []
        },
        {
          "episode": 6,
          "name": "Man in the Mirror",
          "iframe_url": "",
          "iframe_poster": "https://img.imgilall.me/movies/video/1/0/6/2/2/6/0/0/0/0/800x450_106226.jpeg",
          "release_ru": "2014-07-01",
          "release_world": "2014-06-30",
          "availability": "2014-07-02",
          "voiceActing": [
            "Fox",
            "Eng.Original"
          ],
          "ads": false,
          "subtitle": []
        },
        {
          "episode": 7,
          "name": "Amuse Bouche",
          "iframe_url": "",
          "iframe_poster": "https://img.imgilall.me/movies/video/1/0/6/2/2/7/0/0/0/0/800x450_106227.jpeg",
          "release_ru": "2014-07-08",
          "release_world": "2014-07-07",
          "availability": "2014-07-09",
          "voiceActing": [
            "Fox",
            "Eng.Original"
          ],
          "ads": false,
          "subtitle": []
        },
        {
          "episode": 8,
          "name": "White Whale",
          "iframe_url": "",
          "iframe_poster": "https://img.imgilall.me/movies/video/1/0/6/2/2/8/0/0/0/0/800x450_106228.jpeg",
          "release_ru": "2014-07-15",
          "release_world": "2014-07-14",
          "availability": "2014-07-16",
          "voiceActing": [
            "Fox",
            "Eng.Original"
          ],
          "ads": false,
          "subtitle": []
        },
        {
          "episode": 9,
          "name": "The Fugitive",
          "iframe_url": "",
          "iframe_poster": "https://img.imgilall.me/movies/video/1/0/6/2/2/9/0/0/0/0/800x450_106229.jpeg",
          "release_ru": "2014-07-22",
          "release_world": "2014-07-21",
          "availability": "2014-07-23",
          "voiceActing": [
            "Fox",
            "Eng.Original"
          ],
          "ads": false,
          "subtitle": []
        },
        {
          "episode": 10,
          "name": "Family Secrets",
          "iframe_url": "",
          "iframe_poster": "https://img.imgilall.me/movies/video/1/0/6/2/3/0/0/0/0/0/800x450_106230.jpeg",
          "release_ru": "2014-07-29",
          "release_world": "2014-07-28",
          "availability": "2014-07-30",
          "voiceActing": [
            "Fox",
            "Eng.Original"
          ],
          "ads": false,
          "subtitle": []
        },
        {
          "episode": 11,
          "name": "Zero Recall",
          "iframe_url": "",
          "iframe_poster": "https://img.imgilall.me/movies/video/1/0/6/2/3/1/0/0/0/0/800x450_106231.jpeg",
          "release_ru": "2014-08-05",
          "release_world": "2014-08-04",
          "availability": "2014-08-06",
          "voiceActing": [
            "Fox",
            "Eng.Original"
          ],
          "ads": false,
          "subtitle": []
        },
        {
          "episode": 12,
          "name": "An Innocent Man",
          "iframe_url": "",
          "iframe_poster": "https://img.imgilall.me/movies/video/1/0/6/2/3/2/0/0/0/0/800x450_106232.jpeg",
          "release_ru": "2014-08-12",
          "release_world": "2014-08-11",
          "availability": "2014-08-13",
          "voiceActing": [
            "Fox",
            "Eng.Original"
          ],
          "ads": false,
          "subtitle": []
        },
        {
          "episode": 13,
          "name": "In Our Midst",
          "iframe_url": "",
          "iframe_poster": "https://img.imgilall.me/movies/video/1/0/6/2/3/3/0/0/0/0/800x450_106233.jpeg",
          "release_ru": "2014-08-19",
          "release_world": "2014-08-18",
          "availability": "2014-08-20",
          "voiceActing": [
            "Fox",
            "Eng.Original"
          ],
          "ads": false,
          "subtitle": []
        }
      ]
    }
  ],
  "voiceActing": [
    "Fox",
    "Eng.Original"
  ],
  "subtitle": [],
  "parts": []
}
