{
  "id": 21203,
  "name": "Север",
  "name_eng": "Nord",
  "year": 2009,
  "slogan": "«An anti-depressive off-road movie»",
  "age": "18+",
  "type": "film",
  "quality": "SD",
  "imdb": "6.7",
  "imdb_id": "1252610",
  "kinopoisk": "6.8",
  "kinopoisk_id": "418091",
  "world_art": null,
  "world_art_id": null,
  "time": "79 мин. / 01:19",
  "ads": true,
  "premier": "2009-02-06",
  "premier_rus": "2010-05-27",
  "availability": "2010-05-28",
  "activate_time": "2020-06-01 16:21:00",
  "budget": null,
  "fees_use": null,
  "fees_world": null,
  "fees_rus": null,
  "rate_mpaa": null,
  "description": "После нервного срыва бывший спортсмен Йомар работает в должности смотрителя в лыжном парке, мечтая вновь оказаться в уютной психиатрической больнице. Но Йомар узнает, что, возможно, является отцом. Взяв с собой только канистру самогона и упаковку транквилизаторов, он отправляется на Север, навестить бывшую подругу и посмотреть на возникшего из ниоткуда отпрыска. В путешествии по арктическому бездорожью Йомара поджидают передряги и  неожиданные знакомства.",
  "iframe_url": "",
  "iframe_poster": null,
  "poster": "https://img.imgilall.me/movies/franchise/2/1/2/0/3/0/0/0/0/0/610x900_21203.jpg",
  "country": {
    "53": "Норвегия"
  },
  "collection": {
    "76": "Про спорт",
    "21": "Для молодёжи"
  },
  "genre": {
    "19": "Комедия",
    "7": "Драма"
  },
  "director": [
    "Руне Денстад Лангло"
  ],
  "screenwriter": [
    "Эрленд Лу"
  ],
  "producer": [
    "Сигве Эндресен",
    "Бреде Ховланд"
  ],
  "operator": [
    "Филип Огаард"
  ],
  "composer": [
    "Ола Квернберг"
  ],
  "design": [
    "Хеге Палсруд"
  ],
  "editor": [
    "Заклина Стойчевская"
  ],
  "actors": [
    "Андерс Баасмо Кристиансен",
    "Кюрре Хеллум",
    "Марте Онемо",
    "Мадс Сьёгард Петтерсен",
    "Lars Olsen",
    "Астрид Солхауг",
    "Ивен Вестерхус",
    "Рагнхильд Ваннебо",
    "Селин Энгебритсен",
    "Оле Дален"
  ],
  "actors_dubl": [],
  "trivia": [],
  "trailers": [],
  "seasons": [],
  "voiceActing": [
    "Рус. Проф. многоголосый",
    "Norsk.Original"
  ],
  "subtitle": [],
  "parts": []
}
