{
  "id": 47630,
  "name": "Генерал",
  "name_eng": "",
  "year": 1992,
  "slogan": "—",
  "age": "12+",
  "type": "film",
  "quality": "SD",
  "imdb": "6.0",
  "imdb_id": "0",
  "kinopoisk": "6.7",
  "kinopoisk_id": "41181",
  "world_art": null,
  "world_art_id": null,
  "time": "104 мин. / 01:44",
  "ads": false,
  "premier": null,
  "premier_rus": null,
  "availability": null,
  "activate_time": "2021-06-03 15:06:00",
  "budget": null,
  "fees_use": null,
  "fees_world": null,
  "fees_rus": null,
  "rate_mpaa": null,
  "description": "Фильм рассказывает о драматической судьбе известного советского военачальника А.В. Горбатова. Его судьба — армия, тюрьма, лагерь, реабилитация и снова армия...",
  "iframe_url": "",
  "iframe_poster": null,
  "poster": "https://img.imgilall.me/movies/franchise/4/7/6/3/0/0/0/0/0/0/610x900_47630.jpg",
  "country": {
    "5": "Россия"
  },
  "collection": {
    "69": "Про войну 1941-1945"
  },
  "genre": {
    "32": "Военный",
    "7": "Драма"
  },
  "director": [
    "Игорь Николаев"
  ],
  "screenwriter": [
    "Игорь Николаев",
    "Василий Соловьев"
  ],
  "producer": [],
  "operator": [
    "Николай Жолудев"
  ],
  "composer": [
    "Алексей Николаев"
  ],
  "design": [
    "Юрий Кашанский",
    "Игорь Николаев"
  ],
  "editor": [],
  "actors": [
    "Владимир Гостюхин",
    "Алексей Жарков",
    "Александр Хочинский",
    "Сергей Чурбаков",
    "Владимир Меньшов",
    "Ирина Акулова",
    "Светлана Коновалова",
    "Евгений Карельских",
    "Владимир Пермяков",
    "Юрий Маляров"
  ],
  "actors_dubl": [],
  "trivia": [],
  "trailers": [],
  "seasons": [],
  "voiceActing": [
    "Рус. Оригинальный"
  ],
  "subtitle": [],
  "parts": []
}
