{
  "id": 26607,
  "name": "Гангстеры",
  "name_eng": "Mobsters",
  "year": 1991,
  "slogan": "«So you think life was quieter in the old days...? THINK AGAIN!»",
  "age": "16+",
  "type": "film",
  "quality": "HD (720p)",
  "imdb": "6.0",
  "imdb_id": "0102460",
  "kinopoisk": "6.8",
  "kinopoisk_id": "4178",
  "world_art": null,
  "world_art_id": null,
  "time": "104 мин. / 01:44",
  "ads": false,
  "premier": "1991-07-26",
  "premier_rus": "1991-07-27",
  "availability": "1991-07-28",
  "activate_time": "2020-06-27 05:30:00",
  "budget": "$23 000 000",
  "fees_use": "$20 246 790",
  "fees_world": null,
  "fees_rus": null,
  "rate_mpaa": "R",
  "description": "Их было четверо. Они были особенными и знали это. Они не побоялись тех, кто был сильнее их и не стали ни под кого «прогибаться».Они заставили считаться с собой целый континент, при помощи силы, ума и автомата Томми - насадили свои законы. Они стали легендой криминальной истории Америки!",
  "iframe_url": "",
  "iframe_poster": null,
  "poster": "https://img.imgilall.me/movies/franchise/2/6/6/0/7/0/0/0/0/0/610x900_26607.jpg",
  "country": {
    "1": "США"
  },
  "collection": [],
  "genre": {
    "25": "Криминал",
    "7": "Драма"
  },
  "director": [
    "Майкл Карбельникофф"
  ],
  "screenwriter": [
    "Майкл Махерн",
    "Николас Казан"
  ],
  "producer": [
    "С. Эриксон",
    "Стивен Дж. Рот"
  ],
  "operator": [
    "Лайош Кольтаи"
  ],
  "composer": [
    "Майкл Смолл"
  ],
  "design": [
    "Ричард Силберт",
    "Питер Лэндсдаун Смит",
    "Эллен Мирожник"
  ],
  "editor": [
    "Джо Д’Аугустине",
    "М. Скотт Смит"
  ],
  "actors": [
    "Кристиан Слэйтер",
    "Родни Истман",
    "Костас Мэндилор",
    "Ричард Греко",
    "Джереми Шоенберг",
    "Майлз Перлих",
    "Алан Чароф",
    "Патрик Демпси",
    "Анто Нолан",
    "Энди Романо"
  ],
  "actors_dubl": [],
  "trivia": [
    "В реальной жизни Энтони Куинн был близким другом гангстера Фрэнка Костелло."
  ],
  "trailers": [],
  "seasons": [],
  "voiceActing": [
    "Diva Universal"
  ],
  "subtitle": [],
  "parts": []
}
