{
  "id": 24891,
  "name": "Трудно быть богом",
  "name_eng": "",
  "year": 1989,
  "slogan": "«Wenn Macht zur Ohnmacht wird und Wissen zum Fluch...»",
  "age": "16+",
  "type": "film",
  "quality": "SD",
  "imdb": "6.4",
  "imdb_id": "0097292",
  "kinopoisk": "6.1",
  "kinopoisk_id": "42000",
  "world_art": null,
  "world_art_id": null,
  "time": "119 мин. / 01:59",
  "ads": false,
  "premier": "1989-09-12",
  "premier_rus": "1989-09-13",
  "availability": "1989-09-14",
  "activate_time": "2020-06-22 10:17:00",
  "budget": null,
  "fees_use": null,
  "fees_world": null,
  "fees_rus": null,
  "rate_mpaa": null,
  "description": "Ученый с Земли далекого и светлого будущего заброшен на планету, живущую по средневековым законам, под видом местного аристократа Руматы Эсторского. Его цель - быть сторонним наблюдателем и записывать получаемую информацию. Но, видя кругом чудовищную несправедливость, он решает взять в руки меч и вступить в бой...",
  "iframe_url": "",
  "iframe_poster": null,
  "poster": "https://img.imgilall.me/movies/franchise/2/4/8/9/1/0/0/0/0/0/610x900_24891.jpg",
  "country": {
    "24": "СССР",
    "9": "Франция",
    "10": "Швейцария",
    "20": "Германия"
  },
  "collection": {
    "46": "Советские"
  },
  "genre": {
    "9": "Приключения",
    "11": "Фантастика",
    "7": "Драма"
  },
  "director": [
    "Петер Фляйшман"
  ],
  "screenwriter": [
    "Жан-Клод Каррьер",
    "Петер Фляйшман",
    "Аркадий Стругацкий"
  ],
  "producer": [],
  "operator": [
    "Павел Лебешев"
  ],
  "composer": [
    "Юрген Фриц"
  ],
  "design": [
    "Сергей Хотимский",
    "Оксана Медведь",
    "Татьяна Рахманова"
  ],
  "editor": [
    "Мари-Жозе Одиар",
    "Кристиан Вирмон"
  ],
  "actors": [
    "Эдвард Жентара",
    "Александр Филиппенко",
    "Анн Готье",
    "Кристина Кауфманн",
    "Андрей Болтнев",
    "Пьер Клеманти",
    "Михаил Глузский",
    "Элгуджа Бурдули",
    "Биргит Долль",
    "Вернер Херцог"
  ],
  "actors_dubl": [
    "Андрей Гриневич",
    "Валентина Гришокина",
    "Владислав Пупков",
    "Геннадий Болотов"
  ],
  "trivia": [
    "Главным требованием Стругацких для съёмок фильма было наличие советского режиссера, желательно Алексея Германа, но режиссёром был утверждён Фляйшман. Из-за его несговорчивости и тяжёлого характера, Стругацкие прекратили контролировать процесс съёмок и, в итоге, получившийся фильм крайне им не понравился."
  ],
  "trailers": [],
  "seasons": [],
  "voiceActing": [
    "Cartoon Network"
  ],
  "subtitle": [],
  "parts": []
}
