{
  "id": 31470,
  "name": "Непросто сделать выбор",
  "name_eng": "Aloo Chaat",
  "year": 2009,
  "slogan": "—",
  "age": "16+",
  "type": "film",
  "quality": "SD",
  "imdb": "5.8",
  "imdb_id": "0",
  "kinopoisk": null,
  "kinopoisk_id": "429112",
  "world_art": null,
  "world_art_id": null,
  "time": "110 мин. / 01:50",
  "ads": false,
  "premier": "2009-03-20",
  "premier_rus": "2009-03-21",
  "availability": "2009-03-22",
  "activate_time": "2020-07-12 07:27:00",
  "budget": null,
  "fees_use": null,
  "fees_world": null,
  "fees_rus": null,
  "rate_mpaa": null,
  "description": "Никхил работает в международном банке в США. Родом этот молодой и современный товарищ из Дели и он решил навестить свою семейку в Индии. Амна — любимая девушка Никхила. Она вполне современна, но тем не менее весьма чтит индийские традиции и в душе она стопроцентная  индуска. В фильме рэп переплелся с традиционной индийской музыкой и танцами.Но что делать, если семья против твоего выбора? Может быть выбрать другую семью или сменить невесту? Оба варианта заманчивы, но есть и третий путь.",
  "iframe_url": "",
  "iframe_poster": null,
  "poster": "https://img.imgilall.me/movies/franchise/3/1/4/7/0/0/0/0/0/0/610x900_31470.jpg",
  "country": {
    "26": "Индия"
  },
  "collection": [],
  "genre": {
    "19": "Комедия",
    "8": "Мелодрама",
    "7": "Драма"
  },
  "director": [
    "Робби Грюал"
  ],
  "screenwriter": [
    "Робби Грюал",
    "Сайед Гулрез",
    "Випин Мишра"
  ],
  "producer": [
    "А.П. Париги",
    "Гари С.",
    "Анудж Сахена"
  ],
  "operator": [
    "Санджай Капур"
  ],
  "composer": [
    "Сайед Гулрез",
    "Випин Мишра",
    "Rdb"
  ],
  "design": [],
  "editor": [
    "Аариф Шейх"
  ],
  "actors": [
    "Афтаб Шивдасани",
    "Аамна Шарифф",
    "Линда Арсенио",
    "Санджай Мишра",
    "Манодж Пахва",
    "Кулбхушан Харбанда",
    "Долли Ахлувалиа",
    "Минакши",
    "Чандан Ананд",
    "Лалит Парашар"
  ],
  "actors_dubl": [],
  "trivia": [],
  "trailers": [],
  "seasons": [],
  "voiceActing": [
    "Diva Universal"
  ],
  "subtitle": [],
  "parts": []
}
