{
  "id": 32654,
  "name": "Каждый Божий день",
  "name_eng": "Every Day",
  "year": 2010,
  "slogan": "«Семья и еще раз семья!»",
  "age": "18+",
  "type": "film",
  "quality": "HD (720p)",
  "imdb": "5.7",
  "imdb_id": "0",
  "kinopoisk": "6.1",
  "kinopoisk_id": "427207",
  "world_art": null,
  "world_art_id": null,
  "time": "91 мин. / 01:31",
  "ads": false,
  "premier": "2010-04-24",
  "premier_rus": "2010-04-25",
  "availability": "2010-04-26",
  "activate_time": "2020-07-15 06:05:00",
  "budget": "$3 000 000",
  "fees_use": "$46 029",
  "fees_world": null,
  "fees_rus": null,
  "rate_mpaa": "R",
  "description": "У  Неда – кризис среднего возраста. Работа уже давно не приносит удовлетворение, дети – сплошное разочарование. В довершение ко всему,  жена привозит своего сварливого, больного отца в их дом в Нью-Йорке. Каждый день Неда проходит в  борьбе с членами семьи. Ему придется  пережить неожиданные повороты событий, которые являются просто частью действительности, такими как старость и смерть; обязательства и свобода; любовь и понимание. Этот фильм  - бескомпромиссный взгляд на обычную семью, пытающуюся разобраться в своих взаимоотношениях.",
  "iframe_url": "",
  "iframe_poster": null,
  "poster": "https://img.imgilall.me/movies/franchise/3/2/6/5/4/0/0/0/0/0/610x900_32654.jpg",
  "country": {
    "1": "США"
  },
  "collection": [],
  "genre": {
    "19": "Комедия",
    "8": "Мелодрама",
    "7": "Драма"
  },
  "director": [
    "Ричард Ливайн"
  ],
  "screenwriter": [
    "Ричард Ливайн"
  ],
  "producer": [
    "Миранда Бэйли",
    "Майкл Бедерман",
    "Сэм Хоффман"
  ],
  "operator": [
    "Нэнси Шрайбер"
  ],
  "composer": [
    "Джанин Тесори"
  ],
  "design": [
    "Адам Штокхаузен",
    "Брайан Зулауф",
    "Эни Крэбтри"
  ],
  "editor": [
    "Пэм Уайз"
  ],
  "actors": [
    "Лив Шрайбер",
    "Хелен Хант",
    "Карла Гуджино",
    "Эзра Миллер",
    "Скайлер Фортганг",
    "Дэвид Харбор",
    "Эдди Иззард",
    "Брайан Деннехи",
    "Крис Битем",
    "Дэниэл Фарчер"
  ],
  "actors_dubl": [],
  "trivia": [],
  "trailers": [],
  "seasons": [],
  "voiceActing": [
    "Diva Universal"
  ],
  "subtitle": [],
  "parts": []
}
