{
  "id": 133,
  "name": "Кунг-фу Панда 2",
  "name_eng": "Kung Fu Panda 2",
  "year": 2011,
  "slogan": "«Пандамания продолжается»",
  "age": "0+",
  "type": "cartoon",
  "quality": "FHD (1080p)",
  "imdb": "7.2",
  "imdb_id": "1302011",
  "kinopoisk": "7.4",
  "kinopoisk_id": "427878",
  "world_art": null,
  "world_art_id": null,
  "time": "91 мин. / 01:31",
  "ads": false,
  "premier": "2011-05-22",
  "premier_rus": "2011-05-26",
  "availability": null,
  "activate_time": "2018-05-28 17:09:58",
  "budget": "$150 000 000",
  "fees_use": "$165 249 063",
  "fees_world": "$665 692 281",
  "fees_rus": "$31 832 221",
  "rate_mpaa": "PG",
  "description": "Панда По наконец-то исполнит свою мечту, станет Воином Дракона и со своими друзьями и мастерами кунг-фу — Неистовой Пятеркой — защитит Великую Долину от страшного злодея и его легиона…",
  "iframe_url": "",
  "iframe_poster": null,
  "poster": "https://img.imgilall.me/movies/franchise/1/3/3/0/0/0/0/0/0/0/610x900_133.jpg",
  "country": {
    "1": "США"
  },
  "collection": {
    "98": "DreamWorks",
    "16": "Про боевые искусства",
    "18": "Про животных"
  },
  "genre": {
    "37": "Детский",
    "34": "Полнометражный",
    "33": "Семейный",
    "19": "Комедия",
    "10": "Зарубежный"
  },
  "director": [
    "Дженнифер Ю"
  ],
  "screenwriter": [
    "Джонатан Айбел",
    "Гленн Бергер",
    "Этан Райфф"
  ],
  "producer": [
    "Мелисса Кобб",
    "Джонатан Айбел",
    "Гленн Бергер"
  ],
  "operator": [],
  "composer": [
    "Джон Пауэлл",
    "Ханс Циммер"
  ],
  "design": [
    "Рэймонд Зибах",
    "Тэнг Кхенг Хенг"
  ],
  "editor": [
    "Марианн Брэндон",
    "Клер Де Шеню"
  ],
  "actors": [
    "Джек Блэк",
    "Анджелина Джоли",
    "Дастин Хоффман",
    "Гари Олдман",
    "Джеки Чан",
    "Сет Роген",
    "Люси Лью",
    "Дэвид Кросс",
    "Джеймс Хун",
    "Мишель Йео"
  ],
  "actors_dubl": [
    "Михаил Галустян",
    "Ольга Зубкова",
    "Александр Хотченков",
    "Василий Дахненко",
    "Диомид Виноградов"
  ],
  "trivia": [
    "Рабочее название картины — «Kung Fu Panda II: The Kaboom of Doom»."
  ],
  "trailers": [
    {
      "name": "трейлер №1",
      "number": 1,
      "iframe_poster": null,
      "season": null,
      "iframe_url": ""
    }
  ],
  "seasons": [],
  "voiceActing": [
    "Рус. Дублированный",
    "Укр. Дубльований",
    "Eng.Original",
    "Eng. Orig. with Commentary"
  ],
  "subtitle": [
    "Рус. полные"
  ],
  "parts": [
    132,
    133,
    310,
    3255,
    3487
  ]
}
