{
  "id": 44640,
  "name": "Дома безопаснее",
  "name_eng": "Safer at Home",
  "year": 2019,
  "slogan": "«Isolation is a killer»",
  "age": "16+",
  "type": "film",
  "quality": "FHD (1080p)",
  "imdb": "4.2",
  "imdb_id": "13651858",
  "kinopoisk": "4.5",
  "kinopoisk_id": "4294420",
  "world_art": null,
  "world_art_id": null,
  "time": "82 мин. / 01:22",
  "ads": false,
  "premier": "2021-02-26",
  "premier_rus": null,
  "availability": null,
  "activate_time": "2021-02-28 10:52:00",
  "budget": null,
  "fees_use": "$95 643",
  "fees_world": "+ $4 680 = $100 323",
  "fees_rus": null,
  "rate_mpaa": "R",
  "description": "Распространяющаяся пандемия коронавируса вызывает настоящий хаос в Лос-Анджелесе, а город трансформируется в штат полицейских. Главные герои устраивают вечеринку онлайн в зуме, чтобы играть всю ночь в видеоигры, пробовать наркотики и спиртное. Но после употребления экстази их жизнь дома превращается в ужас.",
  "iframe_url": "",
  "iframe_poster": null,
  "poster": "https://img.imgilall.me/movies/franchise/4/4/6/4/0/0/0/0/0/0/610x900_44640.jpg",
  "country": {
    "1": "США"
  },
  "collection": [],
  "genre": {
    "13": "Триллер"
  },
  "director": [
    "Уилл Верник"
  ],
  "screenwriter": [
    "Уилл Верник",
    "Лия Бозонелис",
    "Джон Иерарди"
  ],
  "producer": [
    "Джон Иерарди",
    "Уилл Верник",
    "Бритни Янблад"
  ],
  "operator": [
    "Джейсон Гуделл"
  ],
  "composer": [
    "Женевьева Винсент"
  ],
  "design": [],
  "editor": [
    "Шон Эйлуорд"
  ],
  "actors": [
    "Джослин Хадон",
    "Эмма Лахана",
    "Элиса Эллепач",
    "Эдвин Браун",
    "Дэн Дж. Джонсон",
    "Майкл Куписк",
    "Дэниэл Робер",
    "Лия Бозонелис",
    "Кэти Л. Холл",
    "Марк Ирвингсен"
  ],
  "actors_dubl": [
    "Татьяна Абрамова",
    "Анна Киселёва",
    "Юлия Горохова",
    "Дмитрий Череватенко",
    "Олег Новиков"
  ],
  "trivia": [],
  "trailers": [],
  "seasons": [],
  "voiceActing": [
    "Рус. Дублированный",
    "Eng.Original"
  ],
  "subtitle": [
    "Eng. full"
  ],
  "parts": []
}
