{
  "id": 18029,
  "name": "Человек у окна",
  "name_eng": "Man at the window",
  "year": 2009,
  "slogan": "—",
  "age": "16+",
  "type": "film",
  "quality": "SD",
  "imdb": "6.7",
  "imdb_id": "1774319",
  "kinopoisk": "7.2",
  "kinopoisk_id": "422948",
  "world_art": null,
  "world_art_id": null,
  "time": "96 мин. / 01:36",
  "ads": false,
  "premier": "2010-11-03",
  "premier_rus": null,
  "availability": null,
  "activate_time": "2020-05-06 20:19:00",
  "budget": null,
  "fees_use": null,
  "fees_world": null,
  "fees_rus": null,
  "rate_mpaa": null,
  "description": "Артист Александр Дронов, которого все зовут Шурой, в свои пятьдесят с хвостиком, казалось бы, не добился ничего, что приносило бы ему счастье. Он не состоялся как актер — уходит из театра еще до поклонов; не состоялся как муж и отец — сын далеко, а жена сосуществует с ним только по привычке; не состоялся и как друг — единственный близкий ему человек, тот, с кем он делит гримерку, — презирает Шуру. Немолодой, неуспешный, некрасивый... и все же, у Дронова есть свое дело. Он — человек у окна. он может вложить в уста людей, за которыми наблюдает, правильные слова, направить их в правильном направлении — и изменить их судьбы. Он может многое и ничего не может поделать с самим собой.",
  "iframe_url": "",
  "iframe_poster": null,
  "poster": "https://img.imgilall.me/movies/franchise/1/8/0/2/9/0/0/0/0/0/610x900_18029.jpg",
  "country": [
    "Россия"
  ],
  "collection": [],
  "genre": [
    "Мелодрама",
    "Комедия"
  ],
  "director": [
    "Дмитрий Месхиев"
  ],
  "screenwriter": [
    "Илья Тилькин"
  ],
  "producer": [
    "Сергей Шумаков",
    "Сергей Мелькумов",
    "Дмитрий Месхиев"
  ],
  "operator": [
    "Сергей Мачильский"
  ],
  "composer": [
    "Юрий Потеенко"
  ],
  "design": [
    "Игорь Карев",
    "Александр Стройло",
    "Алексей Филюшкин"
  ],
  "editor": [
    "Алексей Маклаков"
  ],
  "actors": [
    "Юрий Стоянов",
    "Кристина Кузьмина",
    "Сергей Гармаш",
    "Владимир Вдовиченков",
    "Мария Звонарева",
    "Маргарита Бычкова",
    "Виталий Коваленко",
    "Игорь Шибанов",
    "Наталья Высочанская",
    "Сергей Николаев"
  ],
  "actors_dubl": [],
  "trivia": [],
  "trailers": [],
  "seasons": [],
  "voiceActing": [
    "Рус. Оригинальный"
  ],
  "subtitle": [],
  "parts": []
}
