{
  "id": 49466,
  "name": "Братц: Модные феечки",
  "name_eng": "Bratz. Fashion pixiez",
  "year": 2007,
  "slogan": "—",
  "age": "12+",
  "type": "cartoon",
  "quality": "SD",
  "imdb": "5.6",
  "imdb_id": "2330312",
  "kinopoisk": "3.3",
  "kinopoisk_id": "425991",
  "world_art": null,
  "world_art_id": null,
  "time": "68 мин. / 01:08",
  "ads": false,
  "premier": null,
  "premier_rus": null,
  "availability": null,
  "activate_time": "2021-08-12 23:12:00",
  "budget": null,
  "fees_use": null,
  "fees_world": null,
  "fees_rus": null,
  "rate_mpaa": null,
  "description": "Увлекательное путешествие  Жасмин и Хлои, которые попадают в Волшебную страну, полную секретов и восхитительных приключений.  Когда они возвращаются домой, Саша и Жаде им не верят, но вскоре Жасмин показывает им волшебные стеклышки, через которые можно увидеть Мир Фей. Но в светлом мире фей есть и злые. Братц ждут супер приключения в реальном мире и Волшебной стране Фантазии.",
  "iframe_url": "",
  "iframe_poster": null,
  "poster": "https://img.imgilall.me/movies/franchise/4/9/4/6/6/0/0/0/0/0/610x900_49466.jpg",
  "country": {
    "1": "США"
  },
  "collection": [],
  "genre": {
    "37": "Детский"
  },
  "director": [],
  "screenwriter": [],
  "producer": [],
  "operator": [],
  "composer": [],
  "design": [],
  "editor": [],
  "actors": [],
  "actors_dubl": [],
  "trivia": [],
  "trailers": [],
  "seasons": [],
  "voiceActing": [
    "Рус. Дублированный",
    "Eng.Original"
  ],
  "subtitle": [],
  "parts": []
}
