{
  "id": 2653,
  "name": "Тихий океан / Тихоокеанский фронт",
  "name_eng": "The Pacific",
  "year": 2010,
  "slogan": "«Hell was an ocean away»",
  "age": "16+",
  "type": "series",
  "quality": "FHD (1080p)",
  "imdb": "8.3",
  "imdb_id": "0374463",
  "kinopoisk": "8.2",
  "kinopoisk_id": "426030",
  "world_art": null,
  "world_art_id": null,
  "time": "54 мин.",
  "ads": false,
  "premier": "2010-03-14",
  "premier_rus": "2010-10-10",
  "availability": "2010-10-11",
  "serial_status": "offline",
  "activate_time": "2018-09-28 16:21:50",
  "budget": "$200 000 000",
  "fees_use": null,
  "fees_world": null,
  "fees_rus": null,
  "rate_mpaa": null,
  "description": "Сериал создан на основе мемуаров морских пехотинцев США Юджина Следжа и Роберта Леки, которые сражались в боях на Тихом океане во время Второй мировой войны. Сюжет описывает ключевые битвы, которые вошли в историю, глазами обычных солдат и их близких.",
  "iframe_url": "",
  "poster": "https://img.imgilall.me/movies/franchise/2/6/5/3/0/0/0/0/0/0/610x900_2653.jpg",
  "country": {
    "1": "США"
  },
  "collection": {
    "12": "Для мужчин",
    "97": "HBO"
  },
  "genre": {
    "9": "Приключения",
    "32": "Военный",
    "28": "Исторический",
    "17": "Боевик",
    "10": "Зарубежный",
    "7": "Драма"
  },
  "director": [
    "Джереми Подесва",
    "Тимоти Ван Паттен",
    "Дэвид Наттер"
  ],
  "screenwriter": [
    "Лоуренс Эндрис",
    "Мишель Эшфорд",
    "Роберт Леки"
  ],
  "producer": [
    "Джонатан Брайтус",
    "Гари Гоэцман",
    "Том Хэнкс"
  ],
  "operator": [
    "Реми Адефаразин",
    "Стивен Ф. Уиндон"
  ],
  "composer": [
    "Блейк Нили",
    "Джеф Дзанелли",
    "Ханс Циммер"
  ],
  "design": [
    "Энтони Прэтт",
    "Алисия Маккароне",
    "Скотт Бёрд"
  ],
  "editor": [
    "Алан Коуди",
    "Марта Эври",
    "Эдвард А. Уоршилка"
  ],
  "actors": [
    "Джеймс Бэдж Дэйл",
    "Джозеф Маццелло",
    "Джон Седа",
    "Эштон Холмс",
    "Джош Хелман",
    "Рами Малек",
    "Мартин МакКанн",
    "Кит Ноббс",
    "Тоби Леонард Мур",
    "Том Хэнкс"
  ],
  "actors_dubl": [],
  "trivia": [
    "Основой сценария является несколько документальных источников, в частности книга Юджина Следжа «Со старым поколением: На Пелелиу и Окинаве» (With the Old Breed), мемуары Роберта Лекки «Каска вместо подушки» («Helmet for My Pillow»), а также реальная история морского пехотинца Джона Бэсилона — единственного морского пехотинца, заслужившего своим героизмом во время войны и Почётную медаль Конгресса (Medal of Honor), и военно-морской крест (Navy Cross), и «Пурпурное сердце» (Purple Heart) и погибшего в битве при Иводзиме."
  ],
  "trailers": [],
  "seasons": [
    {
      "poster": "https://img.imgilall.me/movies/season/1/4/9/4/0/0/0/0/0/0/610x900_1494.jpg",
      "release_ru": "2010-03-15",
      "release_world": "2010-03-14",
      "availability": "2010-03-16",
      "iframe_url": "",
      "season": 1,
      "episodes": [
        {
          "episode": 1,
          "name": "Part One",
          "iframe_url": "",
          "iframe_poster": null,
          "release_ru": "2010-03-15",
          "release_world": "2010-03-14",
          "availability": "2010-03-16",
          "voiceActing": [
            "LostFilm",
            "Кубик в кубе",
            "Рус. Проф. двухголосый",
            "Рус. Проф. многоголосый",
            "Рус. Люб. многоголосый",
            "Eng.Original"
          ],
          "ads": false,
          "subtitle": [
            "Рус. полные"
          ]
        },
        {
          "episode": 2,
          "name": "Part Two",
          "iframe_url": "",
          "iframe_poster": null,
          "release_ru": "2010-03-22",
          "release_world": "2010-03-21",
          "availability": "2010-03-23",
          "voiceActing": [
            "LostFilm",
            "Кубик в кубе",
            "Рус. Проф. двухголосый",
            "Рус. Проф. многоголосый",
            "Рус. Люб. многоголосый",
            "Eng.Original"
          ],
          "ads": false,
          "subtitle": [
            "Рус. полные"
          ]
        },
        {
          "episode": 3,
          "name": "Part Three",
          "iframe_url": "",
          "iframe_poster": null,
          "release_ru": "2010-03-29",
          "release_world": "2010-03-28",
          "availability": "2010-03-30",
          "voiceActing": [
            "LostFilm",
            "Кубик в кубе",
            "Рус. Проф. двухголосый",
            "Рус. Проф. многоголосый",
            "Рус. Люб. многоголосый",
            "Eng.Original"
          ],
          "ads": false,
          "subtitle": [
            "Рус. полные"
          ]
        },
        {
          "episode": 4,
          "name": "Part Four",
          "iframe_url": "",
          "iframe_poster": null,
          "release_ru": "2010-04-05",
          "release_world": "2010-04-04",
          "availability": "2010-04-06",
          "voiceActing": [
            "LostFilm",
            "Кубик в кубе",
            "Рус. Проф. двухголосый",
            "Рус. Проф. многоголосый",
            "Рус. Люб. многоголосый",
            "Eng.Original"
          ],
          "ads": false,
          "subtitle": [
            "Рус. полные"
          ]
        },
        {
          "episode": 5,
          "name": "Part Five",
          "iframe_url": "",
          "iframe_poster": null,
          "release_ru": "2010-04-12",
          "release_world": "2010-04-11",
          "availability": "2010-04-13",
          "voiceActing": [
            "LostFilm",
            "Кубик в кубе",
            "Рус. Проф. двухголосый",
            "Рус. Проф. многоголосый",
            "Рус. Люб. многоголосый",
            "Eng.Original"
          ],
          "ads": false,
          "subtitle": [
            "Рус. полные"
          ]
        },
        {
          "episode": 6,
          "name": "Part Six",
          "iframe_url": "",
          "iframe_poster": null,
          "release_ru": "2010-04-19",
          "release_world": "2010-04-18",
          "availability": "2010-04-20",
          "voiceActing": [
            "LostFilm",
            "Кубик в кубе",
            "Рус. Проф. двухголосый",
            "Рус. Проф. многоголосый",
            "Рус. Люб. многоголосый",
            "Eng.Original"
          ],
          "ads": false,
          "subtitle": [
            "Рус. полные"
          ]
        },
        {
          "episode": 7,
          "name": "Part Seven",
          "iframe_url": "",
          "iframe_poster": null,
          "release_ru": "2010-04-26",
          "release_world": "2010-04-25",
          "availability": "2010-04-27",
          "voiceActing": [
            "LostFilm",
            "Кубик в кубе",
            "Рус. Проф. двухголосый",
            "Рус. Проф. многоголосый",
            "Рус. Люб. многоголосый",
            "Eng.Original"
          ],
          "ads": false,
          "subtitle": [
            "Рус. полные"
          ]
        },
        {
          "episode": 8,
          "name": "Part Eight",
          "iframe_url": "",
          "iframe_poster": null,
          "release_ru": "2010-05-03",
          "release_world": "2010-05-02",
          "availability": "2010-05-04",
          "voiceActing": [
            "LostFilm",
            "Кубик в кубе",
            "Рус. Проф. двухголосый",
            "Рус. Проф. многоголосый",
            "Рус. Люб. многоголосый",
            "Eng.Original"
          ],
          "ads": false,
          "subtitle": [
            "Рус. полные"
          ]
        },
        {
          "episode": 9,
          "name": "Part Nine",
          "iframe_url": "",
          "iframe_poster": null,
          "release_ru": "2010-05-10",
          "release_world": "2010-05-09",
          "availability": "2010-05-11",
          "voiceActing": [
            "LostFilm",
            "Кубик в кубе",
            "Рус. Проф. двухголосый",
            "Рус. Проф. многоголосый",
            "Рус. Люб. многоголосый",
            "Eng.Original"
          ],
          "ads": false,
          "subtitle": [
            "Рус. полные"
          ]
        },
        {
          "episode": 10,
          "name": "Part Ten",
          "iframe_url": "",
          "iframe_poster": null,
          "release_ru": "2010-05-17",
          "release_world": "2010-05-16",
          "availability": "2010-05-18",
          "voiceActing": [
            "LostFilm",
            "Кубик в кубе",
            "Рус. Проф. двухголосый",
            "Рус. Проф. многоголосый",
            "Рус. Люб. многоголосый",
            "Eng.Original"
          ],
          "ads": false,
          "subtitle": [
            "Рус. полные"
          ]
        }
      ]
    }
  ],
  "voiceActing": [
    "LostFilm",
    "Кубик в кубе",
    "Рус. Проф. двухголосый",
    "Рус. Проф. многоголосый",
    "Рус. Люб. многоголосый",
    "Eng.Original"
  ],
  "subtitle": [
    "Рус. полные"
  ],
  "parts": []
}
