{
  "id": 40182,
  "name": "Я — Куба",
  "name_eng": "Soy Cuba",
  "year": 1964,
  "slogan": "—",
  "age": null,
  "type": "film",
  "quality": "FHD (1080p)",
  "imdb": "8.2",
  "imdb_id": "0058604",
  "kinopoisk": "8.1",
  "kinopoisk_id": "43937",
  "world_art": null,
  "world_art_id": null,
  "time": "141 мин. / 02:21",
  "ads": false,
  "premier": "1964-10-26",
  "premier_rus": "1964-10-27",
  "availability": "1964-10-28",
  "activate_time": "2020-10-31 13:45:00",
  "budget": null,
  "fees_use": "$168 100",
  "fees_world": null,
  "fees_rus": null,
  "rate_mpaa": null,
  "description": "Фильм посвящён революционным событиям на Кубе.",
  "iframe_url": "",
  "iframe_poster": null,
  "poster": "https://img.imgilall.me/movies/franchise/4/0/1/8/2/0/0/0/0/0/610x900_40182.jpg",
  "country": {
    "24": "СССР",
    "74": "Куба"
  },
  "collection": [],
  "genre": {
    "32": "Военный",
    "28": "Исторический",
    "7": "Драма"
  },
  "director": [
    "Михаил Калатозов"
  ],
  "screenwriter": [
    "Энрике Пинеда Барнет",
    "Евгений Евтушенко"
  ],
  "producer": [],
  "operator": [
    "Сергей Урусевский"
  ],
  "composer": [
    "Карлос Фариньяс"
  ],
  "design": [
    "Евгений Свидетелев",
    "Рене Портокарреро"
  ],
  "editor": [
    "Нина Глаголева"
  ],
  "actors": [
    "Серхио Коррьери",
    "Сальвадор Вуд",
    "Хосе Галлардо",
    "Рауль Гарсия",
    "Луз Мария Коллазо",
    "Жан Буиз",
    "Альберто Морган",
    "Селия Родригес",
    "Фаусто Мирабаль",
    "Роберто Гарсия Йорк"
  ],
  "actors_dubl": [],
  "trivia": [],
  "trailers": [],
  "seasons": [],
  "voiceActing": [
    "Diva Universal"
  ],
  "subtitle": [],
  "parts": []
}
