{
  "id": 45009,
  "name": "Перепутанные в Средиземноморье",
  "name_eng": "Mix Up in the Mediterranean",
  "year": 2021,
  "slogan": "«Twin brothers. One competition. Endless complications»",
  "age": null,
  "type": "film",
  "quality": "HD (720p)",
  "imdb": "6.4",
  "imdb_id": "13737848",
  "kinopoisk": null,
  "kinopoisk_id": "4380814",
  "world_art": null,
  "world_art_id": null,
  "time": "84 мин. / 01:24",
  "ads": true,
  "premier": "2021-02-20",
  "premier_rus": "2021-02-21",
  "availability": "2021-02-22",
  "activate_time": "2021-03-17 10:29:00",
  "budget": null,
  "fees_use": null,
  "fees_world": null,
  "fees_rus": null,
  "rate_mpaa": null,
  "description": "Джош, повар из маленького городка, изображает шеф-повара Джулиана, своего близнеца, чтобы участвовать в кулинарном конкурсе, на котором он влюбляется в Мэг, ответственную за мероприятие.",
  "iframe_url": "",
  "iframe_poster": null,
  "poster": "https://img.imgilall.me/movies/franchise/4/5/0/0/9/0/0/0/0/0/610x900_45009.jpg",
  "country": {
    "1": "США"
  },
  "collection": [],
  "genre": {
    "19": "Комедия",
    "8": "Мелодрама"
  },
  "director": [
    "Джонатан Райт"
  ],
  "screenwriter": [
    "Julie Kim",
    "Kariné Marwood"
  ],
  "producer": [
    "Колин Аццопарди",
    "Аньес Бристоу",
    "Борга Дортер"
  ],
  "operator": [
    "Рудольф Блахачек"
  ],
  "composer": [
    "Крис Гуглик"
  ],
  "design": [
    "Чарло Далли",
    "Luke Ferris",
    "Эрнест Камиллери"
  ],
  "editor": [
    "Пол Уайтхед"
  ],
  "actors": [
    "Джессика Лаундс",
    "Джереми Джордан",
    "Каллум Блу",
    "Michelle Martin",
    "Edward De Gaetano",
    "Энтони Эдридж",
    "Nadia Sohawon",
    "Nicholas Jackman",
    "Emelie Ulfeby",
    "Михаил Басмаджян"
  ],
  "actors_dubl": [],
  "trivia": [],
  "trailers": [],
  "seasons": [],
  "voiceActing": [
    "Рус. Люб. многоголосый"
  ],
  "subtitle": [],
  "parts": []
}
