{
  "id": 30008,
  "name": "По щучьему веленью",
  "name_eng": "",
  "year": 1938,
  "slogan": "—",
  "age": null,
  "type": "film",
  "quality": "SD",
  "imdb": "6.9",
  "imdb_id": "0",
  "kinopoisk": "7.5",
  "kinopoisk_id": "43008",
  "world_art": null,
  "world_art_id": null,
  "time": "60 мин.",
  "ads": false,
  "premier": "1938-12-30",
  "premier_rus": "1938-12-31",
  "availability": "1939-01-01",
  "activate_time": "2020-07-11 08:14:00",
  "budget": null,
  "fees_use": null,
  "fees_world": null,
  "fees_rus": null,
  "rate_mpaa": null,
  "description": "Картина снята по одноименной пьесе Е.Тараховской, в основе сюжета которой четыре русские народные сказки: «По щучьему велению», «Царевна Несмеяна», «Плясовая гармонь», «Емеля-дурачок».",
  "iframe_url": "",
  "iframe_poster": null,
  "poster": "https://img.imgilall.me/movies/franchise/3/0/0/0/8/0/0/0/0/0/610x900_30008.jpg",
  "country": {
    "24": "СССР"
  },
  "collection": [],
  "genre": {
    "6": "Фэнтези",
    "33": "Семейный"
  },
  "director": [
    "Александр Роу"
  ],
  "screenwriter": [
    "Олег Леонидов",
    "Елизавета Тараховская"
  ],
  "producer": [],
  "operator": [
    "Иван Горчилин"
  ],
  "composer": [
    "Владимир Кочетов"
  ],
  "design": [
    "Н. Левин"
  ],
  "editor": [
    "Ксения Блинова"
  ],
  "actors": [
    "Петр Савин",
    "Мария Кравчуновская",
    "Георгий Милляр",
    "С. Терентьева",
    "Лев Потемкин",
    "Андрей Файт",
    "Александр Жуков",
    "Татьяна Струкова",
    "Лидия Рюмина",
    "Владимир Лепко"
  ],
  "actors_dubl": [],
  "trivia": [
    "Фильм снят по одноимённой пьесе Елизаветы Тараховской, в основу сюжета которой легли три русские народные сказки: «По щучьему велению», «Царевна Несмеяна», «Плясовая гармонь».",
    "Во время работы над фильмом неожиданно растаял снег, и не все зимние сцены успели отснять. Тогда придумали в «щучье слово» внести новую сцену — «Обернись, зима лютая, летом красным». Так вышли из положения с зимней натурой, и картина обогатилась новым трюком — переходом из зимы в лето на глазах у изумленного зрителя."
  ],
  "trailers": [],
  "seasons": [],
  "voiceActing": [
    "Original"
  ],
  "subtitle": [],
  "parts": []
}
