{
  "id": 30900,
  "name": "Жить и умереть в Лос-Анджелесе",
  "name_eng": "To Live and Die in L.A.",
  "year": 1985,
  "slogan": "«Detroit, Chicago, New York, Miami were like this! This is THE CITY OF ANGELS! This is L.A»",
  "age": "12+",
  "type": "film",
  "quality": "HD (720p)",
  "imdb": "7.3",
  "imdb_id": "0",
  "kinopoisk": "6.9",
  "kinopoisk_id": "4335",
  "world_art": null,
  "world_art_id": null,
  "time": "116 мин. / 01:56",
  "ads": false,
  "premier": "1985-11-01",
  "premier_rus": "1985-11-02",
  "availability": "1985-11-03",
  "activate_time": "2020-07-12 12:14:00",
  "budget": "$6 000 000",
  "fees_use": "$17 307 019",
  "fees_world": null,
  "fees_rus": null,
  "rate_mpaa": "R",
  "description": "Если ты работаешь в Секретной службе США, то умереть тебе намного проще, чем жить... Напарник Ричарда Ченса погибает от руки неуловимого фальшивомонетчика Мастерса. Ричард клянется засадить убийцу за решетку, даже если ради этого ему самому придется пойти на преступление.",
  "iframe_url": "",
  "iframe_poster": null,
  "poster": "https://img.imgilall.me/movies/franchise/3/0/9/0/0/0/0/0/0/0/610x900_30900.jpg",
  "country": {
    "1": "США"
  },
  "collection": [],
  "genre": {
    "25": "Криминал",
    "17": "Боевик",
    "13": "Триллер",
    "7": "Драма"
  },
  "director": [
    "Уильям Фридкин"
  ],
  "screenwriter": [
    "Джералд Петевич",
    "Уильям Фридкин"
  ],
  "producer": [
    "Ирвинг Х. Левин",
    "Сэмюэл Шульман",
    "Бад С. Смит"
  ],
  "operator": [
    "Робби Мюллер"
  ],
  "composer": [
    "Wang Chung"
  ],
  "design": [
    "Лилли Килверт",
    "Бадди Коун",
    "Линда М. Басс"
  ],
  "editor": [
    "М. Скотт Смит"
  ],
  "actors": [
    "Уильям Петерсен",
    "Уиллем Дефо",
    "Джон Пэнкоу",
    "Дебра Фойер",
    "Джон Туртурро",
    "Дарлэнн Флюгел",
    "Дин Стокуэлл",
    "Стив Джеймс",
    "Роберт Дауни ст.",
    "Майкл Грин"
  ],
  "actors_dubl": [],
  "trivia": [],
  "trailers": [],
  "seasons": [],
  "voiceActing": [
    "Diva Universal"
  ],
  "subtitle": [],
  "parts": []
}
