{
  "id": 39832,
  "name": "Веселая карусель № 7",
  "name_eng": "",
  "year": 1975,
  "slogan": "—",
  "age": null,
  "type": "cartoon",
  "quality": "SD",
  "imdb": "6.8",
  "imdb_id": "1325666",
  "kinopoisk": "6.8",
  "kinopoisk_id": "432762",
  "world_art": null,
  "world_art_id": null,
  "time": "10 мин.",
  "ads": false,
  "premier": null,
  "premier_rus": null,
  "availability": null,
  "activate_time": "2020-10-29 12:39:00",
  "budget": null,
  "fees_use": null,
  "fees_world": null,
  "fees_rus": null,
  "rate_mpaa": null,
  "description": "Сюжеты — «Бегемотик», «Глупая лошадь».",
  "iframe_url": "",
  "iframe_poster": null,
  "poster": "https://img.imgilall.me/movies/franchise/3/9/8/3/2/0/0/0/0/0/610x900_39832.jpg",
  "country": {
    "24": "СССР"
  },
  "collection": [],
  "genre": {
    "53": "Короткометражный"
  },
  "director": [
    "Галина Баринова",
    "Эдуард Назаров"
  ],
  "screenwriter": [
    "Эдуард Назаров"
  ],
  "producer": [],
  "operator": [
    "Михаил Друян"
  ],
  "composer": [
    "Владимир Щукин",
    "Олег Янченко"
  ],
  "design": [
    "Галина Баринова",
    "Владимир Пальчиков"
  ],
  "editor": [
    "Любовь Георгиева"
  ],
  "actors": [
    "Лев Любецкий"
  ],
  "actors_dubl": [],
  "trivia": [],
  "trailers": [],
  "seasons": [],
  "voiceActing": [
    "Рус. Оригинальный"
  ],
  "subtitle": [],
  "parts": []
}
