{
  "id": 45926,
  "name": "Катарина Хусс",
  "name_eng": "Huss",
  "year": 2021,
  "slogan": "—",
  "age": null,
  "type": "series",
  "quality": "FHD (1080p)",
  "imdb": "6.6",
  "imdb_id": "14025544",
  "kinopoisk": null,
  "kinopoisk_id": "4367276",
  "world_art": null,
  "world_art_id": null,
  "time": "90 мин",
  "ads": false,
  "premier": "2021-03-19",
  "premier_rus": "2021-03-20",
  "availability": "2021-03-21",
  "serial_status": "offline",
  "activate_time": "2021-04-22 14:36:00",
  "budget": null,
  "fees_use": null,
  "fees_world": null,
  "fees_rus": null,
  "rate_mpaa": null,
  "description": null,
  "iframe_url": "",
  "poster": "https://img.imgilall.me/movies/franchise/4/5/9/2/6/0/0/0/0/0/610x900_45926.jpg",
  "country": {
    "28": "Швеция"
  },
  "collection": [],
  "genre": {
    "25": "Криминал",
    "7": "Драма"
  },
  "director": [
    "Йорген Бергмарк",
    "Annika Appelin"
  ],
  "screenwriter": [
    "Йорген Бергмарк",
    "Петер Линдблум",
    "Ханс Йорнлинд"
  ],
  "producer": [
    "Сара Перссон",
    "Стефан Барон",
    "Ulrika Bokstad"
  ],
  "operator": [
    "Линус Эклунд",
    "Лизаби Фриделль",
    "Филип Лиман"
  ],
  "composer": [],
  "design": [
    "Элле Фурудаль",
    "Сара Пертманн"
  ],
  "editor": [
    "Томас Беийе",
    "Бьёрн Линдгрен",
    "Андреас Нилссон"
  ],
  "actors": [
    "Карин Франц Корлоф",
    "Кардо Радзаци",
    "Андерс Берг",
    "Филип Берг",
    "Кайса Эрнст",
    "Кристер Керн",
    "Mikael Nevalainen",
    "Victor Ståhl Segerhagen",
    "Nikolai Shervin",
    "Tove Wiréen"
  ],
  "actors_dubl": [],
  "trivia": [],
  "trailers": [],
  "seasons": [
    {
      "poster": null,
      "release_ru": null,
      "release_world": null,
      "availability": null,
      "iframe_url": "",
      "season": 1,
      "episodes": [
        {
          "episode": 1,
          "name": null,
          "iframe_url": "",
          "iframe_poster": null,
          "release_ru": null,
          "release_world": null,
          "availability": null,
          "voiceActing": [
            "TVShows",
            "Swedish original"
          ],
          "ads": false,
          "subtitle": [
            "Рус. полные"
          ]
        },
        {
          "episode": 2,
          "name": null,
          "iframe_url": "",
          "iframe_poster": null,
          "release_ru": null,
          "release_world": null,
          "availability": null,
          "voiceActing": [
            "TVShows",
            "Swedish original"
          ],
          "ads": false,
          "subtitle": [
            "Рус. полные"
          ]
        },
        {
          "episode": 3,
          "name": null,
          "iframe_url": "",
          "iframe_poster": null,
          "release_ru": null,
          "release_world": null,
          "availability": null,
          "voiceActing": [
            "TVShows",
            "Swedish original"
          ],
          "ads": false,
          "subtitle": [
            "Рус. полные"
          ]
        },
        {
          "episode": 4,
          "name": null,
          "iframe_url": "",
          "iframe_poster": null,
          "release_ru": null,
          "release_world": null,
          "availability": null,
          "voiceActing": [
            "TVShows",
            "Swedish original"
          ],
          "ads": false,
          "subtitle": [
            "Рус. полные"
          ]
        },
        {
          "episode": 5,
          "name": null,
          "iframe_url": "",
          "iframe_poster": null,
          "release_ru": null,
          "release_world": null,
          "availability": null,
          "voiceActing": [
            "TVShows",
            "Swedish original"
          ],
          "ads": false,
          "subtitle": [
            "Рус. полные"
          ]
        }
      ]
    }
  ],
  "voiceActing": [
    "TVShows",
    "Swedish original"
  ],
  "subtitle": [
    "Рус. полные"
  ],
  "parts": []
}
