{
  "id": 49176,
  "name": "Ожерелье для моей любимой",
  "name_eng": "",
  "year": 1971,
  "slogan": "—",
  "age": "6+",
  "type": "film",
  "quality": "SD",
  "imdb": "6.6",
  "imdb_id": "0068993",
  "kinopoisk": "7.2",
  "kinopoisk_id": "43607",
  "world_art": null,
  "world_art_id": null,
  "time": "75 мин. / 01:15",
  "ads": false,
  "premier": "1971-09-09",
  "premier_rus": "1971-09-10",
  "availability": "1971-09-11",
  "activate_time": "2021-08-04 22:40:00",
  "budget": null,
  "fees_use": null,
  "fees_world": null,
  "fees_rus": null,
  "rate_mpaa": null,
  "description": "Фильм о любви, преодолевающей вековую вражду между родами — своего рода вариант «Ромео и Джульетты», решенный в комическом ключе. Это и фильм — притча, говорящий о том, что земля держится на тепле человеческой дружбы и любви.",
  "iframe_url": "",
  "iframe_poster": null,
  "poster": "https://img.imgilall.me/movies/franchise/4/9/1/7/6/0/0/0/0/0/610x900_49176.jpg",
  "country": {
    "24": "СССР"
  },
  "collection": [],
  "genre": {
    "28": "Исторический",
    "7": "Драма"
  },
  "director": [
    "Тенгиз Абуладзе"
  ],
  "screenwriter": [
    "Ахмедхан Абу-Бакар",
    "Тенгиз Абуладзе",
    "Тамаз Мелиава"
  ],
  "producer": [],
  "operator": [
    "Ломер Ахвледиани"
  ],
  "composer": [
    "Нодар Габуния"
  ],
  "design": [
    "Ника Казбеги",
    "Асхаб Абакаров",
    "А. Бакаров"
  ],
  "editor": [
    "Дж. Омиадзе"
  ],
  "actors": [
    "Рамаз Гиоргобиани",
    "Нани Брегвадзе",
    "Эроси Манджгаладзе",
    "Георгий Гегечкори",
    "Рамаз Чхиквадзе",
    "Этери Абзианидзе",
    "Леонид Енгибаров",
    "Кахи Кавсадзе",
    "Отар Мегвинетухуцеси",
    "Давид Кобулов"
  ],
  "actors_dubl": [],
  "trivia": [],
  "trailers": [],
  "seasons": [],
  "voiceActing": [
    "Рус. Оригинальный"
  ],
  "subtitle": [],
  "parts": []
}
