{
  "id": 43196,
  "name": "Волк и семеро козлят",
  "name_eng": "",
  "year": 1957,
  "slogan": "—",
  "age": "6+",
  "type": "cartoon",
  "quality": "SD",
  "imdb": "7.0",
  "imdb_id": "2273812",
  "kinopoisk": "7.2",
  "kinopoisk_id": "440080",
  "world_art": null,
  "world_art_id": null,
  "time": "10 мин.",
  "ads": false,
  "premier": "1957-11-14",
  "premier_rus": "1957-11-15",
  "availability": "1957-11-16",
  "activate_time": "2020-12-28 17:52:00",
  "budget": null,
  "fees_use": null,
  "fees_world": null,
  "fees_rus": null,
  "rate_mpaa": null,
  "description": "Однажды голодный Волк услыхал, как Коза спела своим козлятам песенку и они открыли ей дверь. После ухода мамы Козы Волк подобрался к домику и запел ту же песенку. Но козлята, услыхав грубый голос Волка, не пустили его в дом. Тогда Волк пошёл к Медведю-кузнецу. Искусный мастер выковал серому разбойнику тоненький голосок. На этот раз хитрость удалась: Волк проник в дом, забрал всех козлят в мешок и унёс их...",
  "iframe_url": "",
  "iframe_poster": null,
  "poster": "https://img.imgilall.me/movies/franchise/4/3/1/9/6/0/0/0/0/0/610x900_43196.jpg",
  "country": {
    "24": "СССР"
  },
  "collection": [],
  "genre": {
    "53": "Короткометражный"
  },
  "director": [
    "Петр Носов"
  ],
  "screenwriter": [
    "Николай Абрамов"
  ],
  "producer": [],
  "operator": [
    "Екатерина Ризо"
  ],
  "composer": [
    "Артемий Айвазян"
  ],
  "design": [
    "Владимир Арбеков",
    "Василий Рябчиков",
    "Игорь Знаменский"
  ],
  "editor": [],
  "actors": [],
  "actors_dubl": [],
  "trivia": [],
  "trailers": [],
  "seasons": [],
  "voiceActing": [
    "Рус. Оригинальный"
  ],
  "subtitle": [],
  "parts": []
}
