{
  "id": 18735,
  "name": "Воспитание крошки",
  "name_eng": "Bringing Up Baby",
  "year": 1938,
  "slogan": "«And so begins the hilarious adventure of Professor David Huxley and Miss Susan Vance, a flutter-brained vixen with love in her heart!»",
  "age": "0+",
  "type": "film",
  "quality": "SD",
  "imdb": "7.9",
  "imdb_id": "0029947",
  "kinopoisk": "7.8",
  "kinopoisk_id": "440",
  "world_art": null,
  "world_art_id": null,
  "time": "102 мин. / 01:42",
  "ads": false,
  "premier": "1938-02-16",
  "premier_rus": "1938-02-17",
  "availability": "1938-02-18",
  "activate_time": "2020-05-12 20:53:00",
  "budget": "$1 073 000",
  "fees_use": null,
  "fees_world": null,
  "fees_rus": null,
  "rate_mpaa": null,
  "description": "Дэвид Хаксли – чудаковатый палеонтолог, последние четыре года жизни по косточке воссоздающий скелет бронтозавра. За день до свадьбы злодейка-судьба сталкивает его со Сьюзан, неуемной молодой девицей, которая тут же положила на него глаз и начала причинять бесконечные неприятности, пытаясь заполучить его.Венцом всеобщего кавардака является постоянно путающийся под ногами леопард ее тетушки по кличке Крошка. Дэвид, пытаясь вырваться из сетей Сьюзан, попадает во все более и более смешные ситуации.",
  "iframe_url": "",
  "iframe_poster": null,
  "poster": "https://img.imgilall.me/movies/franchise/1/8/7/3/5/0/0/0/0/0/610x900_18735.jpg",
  "country": {
    "1": "США"
  },
  "collection": [],
  "genre": {
    "33": "Семейный",
    "19": "Комедия",
    "8": "Мелодрама"
  },
  "director": [
    "Ховард Хоукс"
  ],
  "screenwriter": [
    "Хагар Вильде",
    "Дадли Николс"
  ],
  "producer": [
    "Ховард Хоукс",
    "Клифф Рейд"
  ],
  "operator": [
    "Расселл Метти"
  ],
  "composer": [
    "Рой Уэбб"
  ],
  "design": [
    "Ван Нест Полглейс",
    "Ховард Грир"
  ],
  "editor": [
    "Джордж Хайвли"
  ],
  "actors": [
    "Кэтрин Хепберн",
    "Кэри Грант",
    "Чарльз Рагглз",
    "Уолтер Кэтлетт",
    "Бэрри Фицджералд",
    "Мэй Робсон",
    "Фриц Фельд",
    "Леона Робертс",
    "Джордж Ирвинг",
    "Тала Бирелл"
  ],
  "actors_dubl": [],
  "trivia": [
    "В 1990 году фильм был включён в Национальный реестр фильмов Библиотеки Конгресса США."
  ],
  "trailers": [],
  "seasons": [],
  "voiceActing": [
    "Рус. Проф. многоголосый",
    "Eng.Original"
  ],
  "subtitle": [
    "Рус. полные"
  ],
  "parts": []
}
