{
  "id": 51319,
  "name": "День Элизы",
  "name_eng": "Elisa's Day",
  "year": 2021,
  "slogan": "—",
  "age": null,
  "type": "film",
  "quality": "HD (720p)",
  "imdb": "5.4",
  "imdb_id": "14246504",
  "kinopoisk": null,
  "kinopoisk_id": "4404947",
  "world_art": null,
  "world_art_id": null,
  "time": "106 мин. / 01:46",
  "ads": true,
  "premier": "2021-03-06",
  "premier_rus": "2021-03-07",
  "availability": "2021-03-08",
  "activate_time": "2021-10-11 11:16:00",
  "budget": null,
  "fees_use": null,
  "fees_world": "$48 043",
  "fees_rus": null,
  "rate_mpaa": null,
  "description": null,
  "iframe_url": "",
  "iframe_poster": null,
  "poster": "https://img.imgilall.me/movies/franchise/5/1/3/1/9/0/0/0/0/0/610x900_51319.jpg",
  "country": {
    "12": "Гонконг"
  },
  "collection": [],
  "genre": {
    "25": "Криминал",
    "24": "Детектив",
    "7": "Драма"
  },
  "director": [
    "Алан Фун"
  ],
  "screenwriter": [
    "Алан Фанг"
  ],
  "producer": [
    "Вон Ят-Пин"
  ],
  "operator": [
    "Чжан Ин"
  ],
  "composer": [
    "Тац Лау"
  ],
  "design": [
    "Альберт Пун",
    "Ka-Kwok Yiu"
  ],
  "editor": [
    "Алан Чэн"
  ],
  "actors": [
    "Ханна Чань",
    "Рональд Чэн",
    "Кэрол То",
    "Тони У"
  ],
  "actors_dubl": [],
  "trivia": [],
  "trailers": [],
  "seasons": [],
  "voiceActing": [
    "Синема УС"
  ],
  "subtitle": [],
  "parts": []
}
