{
  "id": 8867,
  "name": "Сказка. Есть",
  "name_eng": "",
  "year": 2012,
  "slogan": "—",
  "age": "0+",
  "type": "film",
  "quality": "HD (720p)",
  "imdb": "1.3",
  "imdb_id": "2349098",
  "kinopoisk": "1.4",
  "kinopoisk_id": "445129",
  "world_art": null,
  "world_art_id": null,
  "time": "92 мин. / 01:32",
  "ads": false,
  "premier": "2012-09-13",
  "premier_rus": "2012-09-13",
  "availability": null,
  "activate_time": "2019-05-20 15:38:52",
  "budget": "$3 500 000",
  "fees_use": null,
  "fees_world": null,
  "fees_rus": "$247 247",
  "rate_mpaa": null,
  "description": "Хотели бы Вы очутиться в настоящей игрушечной стране, где плюшевый мишка, букварь и ваш mp-3 плеер, могут стать вашими друзьями и помогут выбраться из очень опасного приключения? Или побывать ночью в цирке, на необычном представлении, где вы оказались, «следуя за белым кроликом», как героиня другой известной сказки? Или оказаться в школе, где вместо уроков вас ждут «страшные приключения» и сказочные монстры? Именно такие истории пришлось пережить героям фильма «Сказка. Есть» - самым обычным детям 21 века.",
  "iframe_url": "",
  "iframe_poster": "https://img.imgilall.me/movies/video/9/3/1/5/1/0/0/0/0/0/800x450_93151.jpeg",
  "poster": "https://img.imgilall.me/movies/franchise/8/8/6/7/0/0/0/0/0/0/610x900_8867.jpg",
  "country": {
    "5": "Россия"
  },
  "collection": [],
  "genre": {
    "9": "Приключения",
    "6": "Фэнтези",
    "33": "Семейный",
    "22": "Русский"
  },
  "director": [
    "Константин Статский",
    "Елизавета Соломина",
    "Александр Баршак"
  ],
  "screenwriter": [
    "Надежда Рящикова",
    "Леля Смолина",
    "Анастасия Перова"
  ],
  "producer": [
    "Михаил Пореченков",
    "Анастасия Перова",
    "Максим Королев"
  ],
  "operator": [
    "Артем Анисимов",
    "Андрей Каторженко"
  ],
  "composer": [
    "Александр Маноцков"
  ],
  "design": [
    "Андрей Понкратов",
    "Нана Абдрашитова",
    "Андрей Грачев"
  ],
  "editor": [
    "Игорь Литонинский"
  ],
  "actors": [
    "Елизавета Боярская",
    "Максим Матвеев",
    "Анфиса Вистингаузен",
    "Михаил Пореченков",
    "Константин Хабенский",
    "Михаил Трухин",
    "Андрей Смоляков",
    "Дарья Мороз",
    "Сергей Угрюмов",
    "Светлана Иванова"
  ],
  "actors_dubl": [],
  "trivia": [],
  "trailers": [],
  "seasons": [],
  "voiceActing": [
    "Рус. Оригинальный"
  ],
  "subtitle": [],
  "parts": []
}
