{
  "id": 51281,
  "name": "Миф: Охотники на бигфута",
  "name_eng": "Myth: Bigfoot Hunters",
  "year": 2021,
  "slogan": "—",
  "age": null,
  "type": "film",
  "quality": "HD (720p)",
  "imdb": "2.6",
  "imdb_id": "14222772",
  "kinopoisk": null,
  "kinopoisk_id": "4414209",
  "world_art": null,
  "world_art_id": null,
  "time": "60 мин.",
  "ads": true,
  "premier": "2021-01-10",
  "premier_rus": "2021-01-11",
  "availability": "2021-01-12",
  "activate_time": "2021-10-09 22:40:00",
  "budget": null,
  "fees_use": null,
  "fees_world": null,
  "fees_rus": null,
  "rate_mpaa": null,
  "description": null,
  "iframe_url": "",
  "iframe_poster": null,
  "poster": "https://img.imgilall.me/movies/franchise/5/1/2/8/1/0/0/0/0/0/610x900_51281.jpg",
  "country": {
    "1": "США"
  },
  "collection": [],
  "genre": {
    "17": "Боевик",
    "7": "Драма"
  },
  "director": [],
  "screenwriter": [],
  "producer": [
    "Ian McCain"
  ],
  "operator": [
    "Bobbee Darko"
  ],
  "composer": [
    "Джейкоб Дюфур",
    "Eddie Van Zant"
  ],
  "design": [],
  "editor": [
    "Joni Brummett",
    "Bobbee Darko"
  ],
  "actors": [
    "Jack Rooney",
    "Алекса Рэй",
    "Kevin Alexander",
    "Хауке Бар",
    "Брайан Патрик МакКалли",
    "John Francis",
    "Синди Мэйплс",
    "W.E. Walker Jr.",
    "Jake Amrhein",
    "Nick Hein"
  ],
  "actors_dubl": [],
  "trivia": [],
  "trailers": [],
  "seasons": [],
  "voiceActing": [
    "Синема УС"
  ],
  "subtitle": [],
  "parts": []
}
