{
  "id": 22191,
  "name": "Господин оформитель",
  "name_eng": "",
  "year": 1988,
  "slogan": "—",
  "age": "16+",
  "type": "film",
  "quality": "SD",
  "imdb": "7.1",
  "imdb_id": "0157713",
  "kinopoisk": "7.4",
  "kinopoisk_id": "44587",
  "world_art": null,
  "world_art_id": null,
  "time": "109 мин. / 01:49",
  "ads": false,
  "premier": "1990-05-18",
  "premier_rus": "1990-05-19",
  "availability": "1990-05-20",
  "activate_time": "2020-06-08 12:39:00",
  "budget": null,
  "fees_use": null,
  "fees_world": null,
  "fees_rus": null,
  "rate_mpaa": null,
  "description": "Художник однажды встречает прекрасную женщину, как две капли воды похожую на одно из его творений.",
  "iframe_url": "",
  "iframe_poster": null,
  "poster": "https://img.imgilall.me/movies/franchise/2/2/1/9/1/0/0/0/0/0/610x900_22191.jpg",
  "country": {
    "24": "СССР"
  },
  "collection": [],
  "genre": {
    "26": "Ужасы",
    "6": "Фэнтези",
    "24": "Детектив",
    "7": "Драма"
  },
  "director": [
    "Олег Тепцов"
  ],
  "screenwriter": [
    "Юрий Арабов",
    "Александр Грин"
  ],
  "producer": [],
  "operator": [
    "Анатолий Лапшов"
  ],
  "composer": [
    "Сергей Курехин"
  ],
  "design": [
    "Наталья Васильева",
    "Лариса Конникова"
  ],
  "editor": [
    "Ирина Гороховская"
  ],
  "actors": [
    "Виктор Авилов",
    "Анна Демьяненко",
    "Михаил Козаков",
    "Иван Краско",
    "Вадим Лобанов",
    "Валентина Малахиева",
    "Константин Лукашов",
    "Константин Комаров",
    "Юрий Башков",
    "Юрий Ароян"
  ],
  "actors_dubl": [
    "Светлана Смирнова"
  ],
  "trivia": [
    "Фильм снят по мотивам рассказа Александра Грина «Серый автомобиль».",
    "Этот фильм является ремейком дипломной работы режиссера Олега Тепцова, которую ему порекомендовали снять в виде полнометражной картины.",
    "Женский вокал, звучащий в кульминации фильма, принадлежит Ольге Кондиной (в титрах её имя не упоминается).",
    "В фильме использованы работы таких художников как Франц фон Штук (1863-1928), Эдвард Берн-Джонс (1833-1898), Одилон Редон (1840-1916), Арнольд Беклин (1827-1901), Джон Эверетт Миллес (1829-1896), Жан Дельвиль (1867-1953), Макс Клингер (1857-1920) и других.",
    "В конце фильма, когда господин оформитель лежит у камина в крови, звучит запись стихотворения А. А. Блока «Шаги Командора» в исполнении Эдуарда Багрицкого. В фильме есть и цитата из Блока: Арлекин, прыгающий в нарисованное окошко, — эпизод из пьесы «Балаганчик», написанной Блоком в 1906 году. В одном из кадров видна фотография на столе Платона Андреевича, на которой он запечатлён рядом с Блоком. Это фото является монтажом снимка Виктора Авилова и фотографии, на которой рядом с Блоком стоит Корней Чуковский.",
    "Дружбу героя Виктора Авилова с Блоком косвенно подтверждает ещё и тот факт, что поэт с осени 1907 года по 1910 год проживал в дворовом флигеле особняка А. И. Томсен-Боннара, на Галерной улице, 41. Как известно, дом господина оформителя находился на той же улице, только в доме 55."
  ],
  "trailers": [],
  "seasons": [],
  "voiceActing": [
    "Рус. Оригинальный"
  ],
  "subtitle": [],
  "parts": []
}
