{
  "id": 1124,
  "name": "Рамона и Бизус",
  "name_eng": "Ramona and Beezus",
  "year": 2010,
  "slogan": "«A Little Sister Goes A Long Way»",
  "age": "12+",
  "type": "film",
  "quality": "FHD (1080p)",
  "imdb": "6.5",
  "imdb_id": "0493949",
  "kinopoisk": "7.2",
  "kinopoisk_id": "446200",
  "world_art": null,
  "world_art_id": null,
  "time": "104 мин. / 01:44",
  "ads": false,
  "premier": "2010-07-23",
  "premier_rus": null,
  "availability": null,
  "activate_time": "2018-07-06 17:05:58",
  "budget": "$15 000 000",
  "fees_use": "$26 167 002",
  "fees_world": "+ $1 126 741 = $27 293 743",
  "fees_rus": null,
  "rate_mpaa": "G",
  "description": "Рамона - маленькая девочка с очень большим воображением и тягой к приключениям. Ее озорные выходки заставляют семью быть всегда начеку, включая ее старшую сестру, Бизус, которая при этом еще пытается привыкнуть к учебе в школе. Проходя через все заботы и радости детства, сестры понимают, что нет ничего невозможного, когда веришь в себя и есть на кого положиться.",
  "iframe_url": "",
  "iframe_poster": null,
  "poster": "https://img.imgilall.me/movies/franchise/1/1/2/4/0/0/0/0/0/0/610x900_1124.jpg",
  "country": {
    "1": "США"
  },
  "collection": [],
  "genre": {
    "9": "Приключения",
    "6": "Фэнтези",
    "33": "Семейный",
    "19": "Комедия",
    "10": "Зарубежный"
  },
  "director": [
    "Элизабет Аллен"
  ],
  "screenwriter": [
    "Лори Крэйг",
    "Ник Пустей",
    "Беверли Клири"
  ],
  "producer": [
    "Дениз Ди Нови",
    "Элисон Гринспен",
    "Брэд  Ван Аррагон"
  ],
  "operator": [
    "Джон Бэйли"
  ],
  "composer": [
    "Марк Мазерсбо"
  ],
  "design": [
    "Брент Томас",
    "Шеннон Гроувер",
    "Патриция Харгривз"
  ],
  "editor": [
    "Джейн Моран"
  ],
  "actors": [
    "Джои Кинг",
    "Селена Гомес",
    "Джон Корбетт",
    "Бриджет Мойнэхэн",
    "Джиннифер Гудвин",
    "Джош Дюамель",
    "Джейсон Спивак",
    "Сьерра Маккормик",
    "Сандра О",
    "Кэтрин Зэнна"
  ],
  "actors_dubl": [],
  "trivia": [
    "Фильм снят по мотивам повести Беверли Клири «Рамона и Бизус» (Ramona and Beezus, 1955).",
    "Первое время Рамона и Бизус были второстепенными персонажами в серии детских книг Беверли Клири, где главным героем был Генри Хиггинс. Всего в рамках данной серии с 1950 по 1964 год вышло шесть произведений. Первая книга, посвящённая непосредственно сёстрам Рамоне и Бизус, появилась в промежутке между ними (в 1955 году), а затем в период с 1968 по 1999 год было опубликовано ещё семь повестей.",
    "На роль Рамоны и Бизус претендовали Майли Сайрус и её младшая сестра.",
    "Роль младшей дочери супругов Куимби Роберты сыграли две актрисы, сестры-близнецы Айла МакКаббинг и Занти МакКаббинг."
  ],
  "trailers": [],
  "seasons": [],
  "voiceActing": [
    "Рус. Проф. многоголосый",
    "Eng.Original"
  ],
  "subtitle": [
    "Рус. форсированные"
  ],
  "parts": []
}
