{
  "id": 24361,
  "name": "Жизнь, или Что-то вроде того",
  "name_eng": "Life or Something Like It",
  "year": 2002,
  "slogan": "«What if you only had 7 days to live?»",
  "age": "16+",
  "type": "film",
  "quality": "HD (720p)",
  "imdb": "5.8",
  "imdb_id": "0282687",
  "kinopoisk": "6.9",
  "kinopoisk_id": "4475",
  "world_art": null,
  "world_art_id": null,
  "time": "103 мин. / 01:43",
  "ads": false,
  "premier": "2002-04-26",
  "premier_rus": "2002-04-27",
  "availability": "2002-04-28",
  "activate_time": "2020-06-18 11:34:00",
  "budget": "$40 000 000",
  "fees_use": "$14 448 589",
  "fees_world": "+ $2 424 082 = $16 872 671",
  "fees_rus": null,
  "rate_mpaa": "PG-13",
  "description": "«Ты умрешь в следующий четверг». Конечно, на эту фразу бомжа-предсказателя можно было не обращать никакого внимания. Но он угадал, что утром будет град и с каким счетом закончится футбольный матч. А это значит, что через неделю ты умрешь... наверное.Репортеру Лэнни не повезло - именно ей была адресована фраза загадочного бомжа. Она хочет долго жить, у нее есть жених, которого она, наверное, любит. Но если осталось жить всего семь дней, то все это, скорее всего, теперь неважно? Надо что-то сделать, ведь еще можно изменить свою судьбу. Или уже нельзя?",
  "iframe_url": "",
  "iframe_poster": null,
  "poster": "https://img.imgilall.me/movies/franchise/2/4/3/6/1/0/0/0/0/0/610x900_24361.jpg",
  "country": {
    "1": "США"
  },
  "collection": {
    "36": "Романтические комедии"
  },
  "genre": {
    "19": "Комедия",
    "10": "Зарубежный",
    "8": "Мелодрама"
  },
  "director": [
    "Стивен Херек"
  ],
  "screenwriter": [
    "Джон Скотт Шеперд",
    "Дэна Стивенс"
  ],
  "producer": [
    "Джон Дэвис",
    "Тоби Джаффе",
    "Арнон Милчен"
  ],
  "operator": [
    "Стивен Х. Бёрум"
  ],
  "composer": [
    "Дэвид Ньюман"
  ],
  "design": [
    "Билл Грум",
    "Хелен Джарвис",
    "Эджи Джерард Роджерс"
  ],
  "editor": [
    "Труди Шип"
  ],
  "actors": [
    "Анджелина Джоли",
    "Эдвард Бёрнс",
    "Тони Шэлуб",
    "Кристиан Кэйн",
    "Джеймс Гэммон",
    "Мелисса Эррико",
    "Стокард Ченнинг",
    "Лиза Торнхилл",
    "Грегори Итцин",
    "Макс Бейкер"
  ],
  "actors_dubl": [],
  "trivia": [
    "Первоначально режиссёром картины должен был быть Джоэл Шумахер, однако он предпочёл поработать над картиной «Плохая компания».",
    "Съёмки фильма начались в апреле 2001 года."
  ],
  "trailers": [],
  "seasons": [],
  "voiceActing": [
    "Рус. Проф. многоголосый",
    "ТНТ",
    "Рус. Проф. двухголосый",
    "Рус. Одноголосый",
    "Укр. Проф. Двоголосий",
    "Eng.Original",
    "Eng. Orig. with Commentary"
  ],
  "subtitle": [
    "Рус. полные"
  ],
  "parts": []
}
