{
  "id": 17833,
  "name": "Россия 88",
  "name_eng": "",
  "year": 2009,
  "slogan": "—",
  "age": "18+",
  "type": "film",
  "quality": "FHD (1080p)",
  "imdb": "6.2",
  "imdb_id": "1362118",
  "kinopoisk": "5.9",
  "kinopoisk_id": "445042",
  "world_art": null,
  "world_art_id": null,
  "time": "104 мин. / 01:44",
  "ads": false,
  "premier": "2009-02-06",
  "premier_rus": "2010-03-11",
  "availability": "2010-03-12",
  "activate_time": "2020-05-05 22:56:00",
  "budget": null,
  "fees_use": null,
  "fees_world": "$5 553",
  "fees_rus": "$8 652",
  "rate_mpaa": null,
  "description": "Банда скинхэдов «Россия 88» снимает агитационные ролики для того, чтобы выкладывать их в интернет. Попутно камера фиксирует жизнь банды — к ней привыкают и перестают обращать на нее внимание. Главарь банды — Штык обнаруживает, что его сестра встречается с кавказцем. Семейная драма перерастает  в трагедию. И камера сопровождает героев до самой развязки. Сюжет схож с историей Ромео и Джульетты. Но только главный герой в фильме — яростный и нетерпимый Тибальт.",
  "iframe_url": "",
  "iframe_poster": null,
  "poster": "https://img.imgilall.me/movies/franchise/1/7/8/3/3/0/0/0/0/0/610x900_17833.jpg",
  "country": {
    "5": "Россия"
  },
  "collection": [],
  "genre": {
    "7": "Драма"
  },
  "director": [
    "Павел Бардин"
  ],
  "screenwriter": [
    "Павел Бардин",
    "Пётр Фёдоров"
  ],
  "producer": [
    "Павел Бардин",
    "Василий Соловьев",
    "Филипп Пастухов"
  ],
  "operator": [
    "Сергей Дандурян"
  ],
  "composer": [
    "Пётр Фёдоров"
  ],
  "design": [
    "Кирилл Петровский",
    "Ксения Фоминова"
  ],
  "editor": [],
  "actors": [
    "Пётр Фёдоров",
    "Михаил Поляков",
    "Марина Орел",
    "Николай Мачульский",
    "Михаил Павлик",
    "Вера Строкова",
    "Александр Макаров",
    "Петр Баранчеев",
    "Андрей Мерзликин",
    "Кирилл Каганович"
  ],
  "actors_dubl": [],
  "trivia": [
    "В фильме использована только оригинальная нацистская музыка — диски куплены в торговом центре «Горбушка» в Москве.",
    "Вся одежда героев фильма — из реального московского магазина, включая майки с надписями «Я — русский» и цитатой «14 слов» нацистского идеолога Дэвида Лейна.",
    "Чиновник, которого сыграл Андрей Мерзликин, говорит фразами из переписки двух наци-деятелей, электронную почту которых взломала хакерская команда антифашистов.",
    "Местом жительства для членов банды выбран московский район Тушино. В фильме об этом явно не говорится, но во многих сценах, где действие происходит под открытым небом, можно увидеть различные части этого района.",
    "По словам Петра Фёдорова, из-за фильма у него испортились отношения с матерью.",
    "В 2010 году прокуратурой Самарской области был подан иск о конфискации и изъятии из гражданского оборота кинофильма «Россия 88» как экстремистского. В дальнейшем прокуратура по требованию Генпрокуратуры отозвала иск."
  ],
  "trailers": [],
  "seasons": [],
  "voiceActing": [
    "Рус. Ориг. (без цензуры)"
  ],
  "subtitle": [],
  "parts": []
}
