{
  "id": 35810,
  "name": "Новая история Белоснежки",
  "name_eng": "Happily N'Ever After 2",
  "year": 2009,
  "slogan": "«Another Bite @ the Apple»",
  "age": "12+",
  "type": "cartoon",
  "quality": "FHD (1080p)",
  "imdb": "3.8",
  "imdb_id": "1235837",
  "kinopoisk": "4.3",
  "kinopoisk_id": "445854",
  "world_art": null,
  "world_art_id": null,
  "time": "75 мин. / 01:15",
  "ads": false,
  "premier": "2009-03-24",
  "premier_rus": "2009-03-25",
  "availability": "2009-03-26",
  "activate_time": "2020-08-04 12:09:00",
  "budget": null,
  "fees_use": null,
  "fees_world": null,
  "fees_rus": null,
  "rate_mpaa": null,
  "description": "Нас ждет встреча с Красной Шапочкой, Белоснежкой, Златовлаской, Шалтаем-Болтаем, Семью Гномами, Злой мачехой и многими-многими другими. Знакомые с детства герои сказок предстанут перед нами совсем в другом облике и кто знает, чем на сей раз закончится эта казалось бы знакомая история.",
  "iframe_url": "",
  "iframe_poster": null,
  "poster": "https://img.imgilall.me/movies/franchise/3/5/8/1/0/0/0/0/0/0/610x900_35810.jpg",
  "country": {
    "1": "США",
    "20": "Германия"
  },
  "collection": [],
  "genre": {
    "9": "Приключения",
    "6": "Фэнтези",
    "33": "Семейный",
    "19": "Комедия"
  },
  "director": [
    "Стивен Е. Гордон",
    "Бойд Керклэнд"
  ],
  "screenwriter": [
    "Крис Денк"
  ],
  "producer": [
    "Лорис Крамер",
    "Джейсон Неттер",
    "Др. Фолькер Бас"
  ],
  "operator": [],
  "composer": [
    "Пол Бакли"
  ],
  "design": [],
  "editor": [
    "Том Уайтхед"
  ],
  "actors": [
    "Гилберт Боус",
    "Келли Брюстер",
    "Даг Эрхольц",
    "Дженни Фан",
    "Джим Салливан",
    "Кейт Хиггинс",
    "Хелен Нидвик",
    "Алексис Лэнг",
    "Катрин Лавин",
    "Дэвид Лодж"
  ],
  "actors_dubl": [],
  "trivia": [],
  "trailers": [
    {
      "name": "трейлер №1",
      "number": 1,
      "iframe_poster": null,
      "season": null,
      "iframe_url": ""
    }
  ],
  "seasons": [],
  "voiceActing": [
    "Рус. Проф. многоголосый",
    "Eng.Original"
  ],
  "subtitle": [
    "Eng. full"
  ],
  "parts": []
}
