{
  "id": 15389,
  "name": "Маленькие женщины",
  "name_eng": "Little Women",
  "year": 1994,
  "slogan": "«The story that has Lived in our hearts For generations, Now comes to the screen For the holidays»",
  "age": "12+",
  "type": "film",
  "quality": "HD (720p)",
  "imdb": "7.3",
  "imdb_id": "0110367",
  "kinopoisk": "7.7",
  "kinopoisk_id": "4568",
  "world_art": null,
  "world_art_id": null,
  "time": "115 мин. / 01:55",
  "ads": false,
  "premier": "1994-12-21",
  "premier_rus": null,
  "availability": "1994-12-22",
  "activate_time": "2020-02-17 16:17:00",
  "budget": "$18 000 000",
  "fees_use": "$50 083 616",
  "fees_world": null,
  "fees_rus": null,
  "rate_mpaa": "PG",
  "description": "История взросления сестёр Марч, живущих в городе Конкорд штата Массачусетс во время Гражданской войны: об их первой любви, надеждах и разочарованиях, о формировании их жизненной позиции и начале самостоятельной жизни.",
  "iframe_url": "",
  "iframe_poster": null,
  "poster": "https://img.imgilall.me/movies/franchise/1/5/3/8/9/0/0/0/0/0/610x900_15389.jpg",
  "country": {
    "7": "Канада",
    "1": "США"
  },
  "collection": {
    "11": "Для женщин"
  },
  "genre": {
    "33": "Семейный",
    "10": "Зарубежный",
    "8": "Мелодрама",
    "7": "Драма"
  },
  "director": [
    "Джиллиан Армстронг"
  ],
  "screenwriter": [
    "Робин Суикорд",
    "Луиза Мей Олкотт"
  ],
  "producer": [
    "Уоррен Карр",
    "Дениз Ди Нови",
    "Робин Суикорд"
  ],
  "operator": [
    "Джефри Симпсон"
  ],
  "composer": [
    "Томас Ньюман"
  ],
  "design": [
    "Ян Рулфс",
    "Ричард Хьюдолин",
    "Коллин Этвуд"
  ],
  "editor": [
    "Николас Боман"
  ],
  "actors": [
    "Вайнона Райдер",
    "Гэбриел Бирн",
    "Трини Альварадо",
    "Саманта Мэтис",
    "Кирстен Данст",
    "Клэр Дэйнс",
    "Кристиан Бэйл",
    "Эрик Столц",
    "Мэри Уикс",
    "Сьюзен Сарандон"
  ],
  "actors_dubl": [],
  "trivia": [
    "Фильм снят по одноименному роману Луизы Мей Олкотт.",
    "Фильм был снят в Массачусеттсе (США) и в Британской Колумбии (Канада).",
    "Кристиана Бэйла в фильм пригласила Вайнона Райдер, исполнительница главной роли.",
    "Вайнона Райдер посвятила этот фильм Полли Ханне Клаас (Polly Hannah Klaas), 12-летней девочке, которая была убита в Петалуме (штат Калифорния) — родном городе Вайноны Райдер. Роман «Маленькие женщины» был любимой книгой Полли."
  ],
  "trailers": [],
  "seasons": [],
  "voiceActing": [
    "Первый Канал",
    "НТВ",
    "Рус. Проф. многоголосый",
    "Рус. Проф. двухголосый",
    "C. Визгунов",
    "Eng.Original"
  ],
  "subtitle": [],
  "parts": []
}
