{
  "id": 52134,
  "name": "В небе «ночные ведьмы»",
  "name_eng": "",
  "year": 1981,
  "slogan": "—",
  "age": "6+",
  "type": "film",
  "quality": "SD",
  "imdb": "7.3",
  "imdb_id": "0232882",
  "kinopoisk": "7.3",
  "kinopoisk_id": "45612",
  "world_art": null,
  "world_art_id": null,
  "time": "80 мин. / 01:20",
  "ads": false,
  "premier": "1981-11-30",
  "premier_rus": "1981-12-01",
  "availability": "1981-12-02",
  "activate_time": "2021-11-11 16:59:00",
  "budget": null,
  "fees_use": null,
  "fees_world": null,
  "fees_rus": null,
  "rate_mpaa": null,
  "description": "Этот фильм о событиях второй мировой войны. «Ночными ведьмами» называли бесстрашных советских летчиц фашисты. Они воевали на «ночных» бомбардировщиках ПО-2. Для девушек это прозвище было самой высшей оценкой их вклада в победу.",
  "iframe_url": "",
  "iframe_poster": null,
  "poster": "https://img.imgilall.me/movies/franchise/5/2/1/3/4/0/0/0/0/0/610x900_52134.jpg",
  "country": {
    "24": "СССР"
  },
  "collection": {
    "69": "Про войну 1941-1945"
  },
  "genre": {
    "32": "Военный"
  },
  "director": [
    "Евгения Жигуленко"
  ],
  "screenwriter": [
    "Владимир Валуцкий",
    "Евгения Жигуленко"
  ],
  "producer": [],
  "operator": [
    "Лев Рогозин"
  ],
  "composer": [
    "Евгений Крылатов"
  ],
  "design": [
    "Борис Комяков"
  ],
  "editor": [],
  "actors": [
    "Валентина Грушина",
    "Яна Друзь",
    "Дмитрий Замулин",
    "Нина Меньшикова",
    "Валерия Заклунная",
    "Татьяна Чернопятова",
    "Елена Астафьева",
    "Александра Свиридова",
    "Сергей Мартынов",
    "Додо Чоговадзе"
  ],
  "actors_dubl": [],
  "trivia": [],
  "trailers": [],
  "seasons": [],
  "voiceActing": [
    "Рус. Оригинальный"
  ],
  "subtitle": [],
  "parts": []
}
