{
  "id": 50512,
  "name": "Испытание верности",
  "name_eng": "Killer Profile",
  "year": 2021,
  "slogan": "—",
  "age": null,
  "type": "film",
  "quality": "HD (720p)",
  "imdb": null,
  "imdb_id": "14925556",
  "kinopoisk": null,
  "kinopoisk_id": "4502019",
  "world_art": null,
  "world_art_id": null,
  "time": "—",
  "ads": true,
  "premier": null,
  "premier_rus": null,
  "availability": null,
  "activate_time": "2021-09-12 15:57:00",
  "budget": null,
  "fees_use": null,
  "fees_world": null,
  "fees_rus": null,
  "rate_mpaa": null,
  "description": null,
  "iframe_url": "",
  "iframe_poster": null,
  "poster": "https://img.imgilall.me/movies/franchise/5/0/5/1/2/0/0/0/0/0/610x900_50512.jpg",
  "country": {
    "1": "США"
  },
  "collection": [],
  "genre": {
    "13": "Триллер"
  },
  "director": [
    "Тед Кэмпбелл"
  ],
  "screenwriter": [
    "Ричард Пирс"
  ],
  "producer": [
    "Роберт Балло",
    "Дайджа Абрам",
    "Мэтти Феллбаум"
  ],
  "operator": [
    "Джозеф М. Сетеле"
  ],
  "composer": [
    "Эмир Ишилай"
  ],
  "design": [
    "Мэтт Уокер",
    "Сиара Флинн",
    "Лина Лоллис"
  ],
  "editor": [
    "Джош Мускатин"
  ],
  "actors": [
    "Lawson Greyson",
    "Kendall Cato",
    "Gina Simms",
    "Derek Rivera",
    "Luka Oida",
    "Alexis Samone",
    "Майкл Сковотти",
    "Мередит Луиз Томас",
    "Kemp Connelly",
    "Anthony Carro"
  ],
  "actors_dubl": [],
  "trivia": [],
  "trailers": [],
  "seasons": [],
  "voiceActing": [
    "Синема УС"
  ],
  "subtitle": [],
  "parts": []
}
