{
  "id": 22975,
  "name": "Финал",
  "name_eng": "The Final",
  "year": 2010,
  "slogan": "«One Question. What did I do to deserve this?»",
  "age": null,
  "type": "film",
  "quality": "SD",
  "imdb": "5.4",
  "imdb_id": "1390535",
  "kinopoisk": "4.9",
  "kinopoisk_id": "450505",
  "world_art": null,
  "world_art_id": null,
  "time": "93 мин. / 01:33",
  "ads": false,
  "premier": "2010-01-29",
  "premier_rus": "2010-01-30",
  "availability": "2010-01-31",
  "activate_time": "2020-06-11 16:26:00",
  "budget": "$1 000 000",
  "fees_use": null,
  "fees_world": "$28 491",
  "fees_rus": null,
  "rate_mpaa": "R",
  "description": "Несколько изгоев, издевательство над которыми стало нормой в школе, превращают карнавал в орудие мести за все свои обиды. Они используют различные психологические и физические пытки в ответ на все оскорбления и мучения, полученные от других подростков…",
  "iframe_url": "",
  "iframe_poster": null,
  "poster": "https://img.imgilall.me/movies/franchise/2/2/9/7/5/0/0/0/0/0/610x900_22975.jpg",
  "country": {
    "1": "США"
  },
  "collection": [],
  "genre": {
    "26": "Ужасы",
    "13": "Триллер",
    "7": "Драма"
  },
  "director": [
    "Джои Стюарт"
  ],
  "screenwriter": [
    "Джейсон Каболати"
  ],
  "producer": [
    "Джейсон Каболати",
    "Стефани Фергюсон",
    "Билл Рэндл"
  ],
  "operator": [
    "Дэвид МакФарланд"
  ],
  "composer": [
    "Дэймон Крисвелл"
  ],
  "design": [
    "Эрик Уитни",
    "Бо Этридж",
    "Стивен М. Чудей"
  ],
  "editor": [
    "Билл Марселлус"
  ],
  "actors": [
    "Марк Донато",
    "Яша Вашингтон",
    "Уитни Хой",
    "Джастин Арнольд",
    "Линдсэй Сидел",
    "Юлин",
    "Лаура Эшли Сэмюэлс",
    "Тревис Тедфорд",
    "Эрик Айзенхауэр",
    "Винсент Силохан"
  ],
  "actors_dubl": [],
  "trivia": [],
  "trailers": [],
  "seasons": [],
  "voiceActing": [
    "JoyStudio"
  ],
  "subtitle": [],
  "parts": []
}
