{
  "id": 22719,
  "name": "Оргия крови",
  "name_eng": "Orgy of the Damned",
  "year": 2010,
  "slogan": "«Come for the orgy... Stay for the blood!»",
  "age": "18+",
  "type": "film",
  "quality": "SD",
  "imdb": "4.1",
  "imdb_id": "1403210",
  "kinopoisk": "2.1",
  "kinopoisk_id": "454920",
  "world_art": null,
  "world_art_id": null,
  "time": "92 мин. / 01:32",
  "ads": false,
  "premier": "2010-10-07",
  "premier_rus": "2010-10-08",
  "availability": "2010-10-09",
  "activate_time": "2020-06-11 11:11:00",
  "budget": "$250 000",
  "fees_use": null,
  "fees_world": null,
  "fees_rus": null,
  "rate_mpaa": null,
  "description": "Эротическая легенда о трёхсотлетнем вампире Фоско и его семье. Жизнь Фоско и его жены Сабины протекает в сюрреалистическом мире наслаждения и предательства — непрекращающаяся оргия страсти двух влюблённых. Чета вампиров живёт в красивом доме, и неспешно воспитывают своего сына Дмитри. И всё это длится до тех пор, пока на их пути не появляется молодая наивная женщина Фауна и её бойфренд Мика. Именно они превращают Фоско и Сабину в подлых убийц одержимых местью и жаждой власти.",
  "iframe_url": "",
  "iframe_poster": null,
  "poster": "https://img.imgilall.me/movies/franchise/2/2/7/1/9/0/0/0/0/0/610x900_22719.jpg",
  "country": {
    "1": "США"
  },
  "collection": [],
  "genre": {
    "26": "Ужасы",
    "6": "Фэнтези",
    "13": "Триллер"
  },
  "director": [
    "Крип Криперсин"
  ],
  "screenwriter": [
    "Домициано Арканджели",
    "Крип Криперсин"
  ],
  "producer": [
    "Эйн Лейхт",
    "Никки Уолл",
    "Домициано Арканджели"
  ],
  "operator": [
    "Мирко Сгарци"
  ],
  "composer": [
    "Blake Brown"
  ],
  "design": [
    "Мэтт Олтмэн",
    "Дэвид Александр",
    "Мередит Майерс"
  ],
  "editor": [
    "Aaron Benore",
    "Брайан Койн",
    "Крип Криперсин"
  ],
  "actors": [
    "Домициано Арканджели",
    "Лориэлль Нью",
    "Грег Дьюк",
    "Чандлер Манесс",
    "Наама Кейтс",
    "Винсент Хосс-Десмарайс",
    "Рендал Мэлоун",
    "Элисса Даулинг",
    "Фиби Доллар",
    "Элина Мэдисон"
  ],
  "actors_dubl": [],
  "trivia": [],
  "trailers": [],
  "seasons": [],
  "voiceActing": [
    "Diva Universal"
  ],
  "subtitle": [],
  "parts": []
}
