{
  "id": 49866,
  "name": "Когда плачут цикады: Вспышка",
  "name_eng": "Higurashi no Naku Koro ni Kaku: Outbreak",
  "year": 2013,
  "slogan": "—",
  "age": null,
  "type": "anime-film",
  "quality": "SD",
  "imdb": "7.4",
  "imdb_id": "6070340",
  "kinopoisk": null,
  "kinopoisk_id": "4530379",
  "world_art": null,
  "world_art_id": null,
  "time": "52 мин.",
  "ads": false,
  "premier": "2013-08-15",
  "premier_rus": "2013-08-16",
  "availability": "2013-08-17",
  "activate_time": "2021-08-24 23:04:00",
  "budget": null,
  "fees_use": null,
  "fees_world": null,
  "fees_rus": null,
  "rate_mpaa": null,
  "description": "1983 год. В деревне Хинамидзава выявлена вспышка неизвестного вируса, из-за чего деревушку вместе с жителями закрывают на карантин. Кэити, Рена и их друзья пытаются разобраться в ситуации, еще не догадываясь с каким жутким врагом им придётся столкнуться на этот раз.",
  "iframe_url": "",
  "iframe_poster": null,
  "poster": "https://img.imgilall.me/movies/franchise/4/9/8/6/6/0/0/0/0/0/610x900_49866.jpg",
  "country": {
    "18": "Япония"
  },
  "collection": [],
  "genre": {
    "26": "Ужасы",
    "24": "Детектив",
    "13": "Триллер"
  },
  "director": [
    "Тосифуми Кавасэ"
  ],
  "screenwriter": [
    "Тосифуми Кавасэ",
    "Рюкиси07"
  ],
  "producer": [],
  "operator": [],
  "composer": [
    "Кэндзи Каваи"
  ],
  "design": [],
  "editor": [],
  "actors": [
    "Юкари Тамура",
    "Мика Канаи",
    "Соитиро Хоси",
    "Маи Накахара",
    "Сацуки Юкино",
    "Юи Хориэ",
    "Наоко Мацуи",
    "Ясунори Мацумото",
    "Тосихико Сэки",
    "Риэ Танака"
  ],
  "actors_dubl": [],
  "trivia": [],
  "trailers": [],
  "seasons": [],
  "voiceActing": [
    "AniDub"
  ],
  "subtitle": [],
  "parts": []
}
