{
  "id": 51158,
  "name": "Братцы кролики: Байки старого замка",
  "name_eng": "",
  "year": 2021,
  "slogan": "—",
  "age": "6+",
  "type": "cartoon",
  "quality": "TS",
  "imdb": null,
  "imdb_id": null,
  "kinopoisk": null,
  "kinopoisk_id": "4640143",
  "world_art": null,
  "world_art_id": null,
  "time": "52 мин.",
  "ads": true,
  "premier": null,
  "premier_rus": "2021-09-30",
  "availability": "2021-10-01",
  "activate_time": "2021-10-05 14:46:00",
  "budget": null,
  "fees_use": null,
  "fees_world": null,
  "fees_rus": null,
  "rate_mpaa": null,
  "description": "Истории о двух братьях кроликах — Оскаре и Адаме и их сестре Мэри, живущих в старинном замке по соседству с древними тайнами, привидениями и сказочными обитателями маленькой страны чудес. Главные герои не обязательно белые, но точно пушистые. Они где-то символизируют плодовитость и жизненную силу, где-то мастерски дурачат врагов, а где-то смотрят на луну и готовят эликсир бессмертия.",
  "iframe_url": "",
  "iframe_poster": null,
  "poster": "https://img.imgilall.me/movies/franchise/5/1/1/5/8/0/0/0/0/0/610x900_51158.jpg",
  "country": {
    "5": "Россия"
  },
  "collection": [],
  "genre": {
    "37": "Детский"
  },
  "director": [
    "Дмитрий Семенов"
  ],
  "screenwriter": [
    "Сергей Е. Динов",
    "Евгений Ленский",
    "Дмитрий Семенов"
  ],
  "producer": [
    "Илья Иванов",
    "Евгений Ленский",
    "Дмитрий Семенов"
  ],
  "operator": [],
  "composer": [],
  "design": [
    "Маргарита Дружинина"
  ],
  "editor": [],
  "actors": [
    "Татьяна Весёлкина",
    "Ольга Шорохова",
    "Лариса Брохман",
    "Дмитрий Филимонов"
  ],
  "actors_dubl": [],
  "trivia": [],
  "trailers": [],
  "seasons": [],
  "voiceActing": [
    "Рус. Оригинальный"
  ],
  "subtitle": [],
  "parts": []
}
