{
  "id": 52240,
  "name": "Рождество в моём сердце",
  "name_eng": "Christmas in My Heart",
  "year": 2021,
  "slogan": "—",
  "age": null,
  "type": "film",
  "quality": "HD (720p)",
  "imdb": "6.8",
  "imdb_id": "15655480",
  "kinopoisk": null,
  "kinopoisk_id": "4679756",
  "world_art": null,
  "world_art_id": null,
  "time": "84 мин. / 01:24",
  "ads": true,
  "premier": "2021-10-23",
  "premier_rus": "2021-10-24",
  "availability": "2021-10-25",
  "activate_time": "2021-11-17 00:01:00",
  "budget": null,
  "fees_use": null,
  "fees_world": null,
  "fees_rus": null,
  "rate_mpaa": null,
  "description": null,
  "iframe_url": "",
  "iframe_poster": null,
  "poster": "https://img.imgilall.me/movies/franchise/5/2/2/4/0/0/0/0/0/0/610x900_52240.jpg",
  "country": {
    "1": "США"
  },
  "collection": {
    "3": "Рождественские"
  },
  "genre": {
    "8": "Мелодрама"
  },
  "director": [
    "Пэт Кили"
  ],
  "screenwriter": [
    "Джэми Пачино",
    "Shari Sharpe",
    "Элизабет Гилберт"
  ],
  "producer": [
    "Роберт Врум",
    "Сюзанн Л. Бергер",
    "Меган Эллстром"
  ],
  "operator": [
    "Серж Дерозье"
  ],
  "composer": [
    "Джеймс Гелфэнд",
    "Лолита"
  ],
  "design": [
    "Андре Шамберлан",
    "Клер Надон"
  ],
  "editor": [
    "Жан Бодуан"
  ],
  "actors": [
    "Хезер Сайрус Хемменс",
    "Люк МакФарлейн",
    "Maria Nash",
    "Шерил Ли Ральф",
    "Дон Андерсон",
    "Alma Aristilde",
    "Rickson Aristilde",
    "Ange Carelle Atchouelou",
    "Jack Everett Carter",
    "Ларри Дэй"
  ],
  "actors_dubl": [],
  "trivia": [],
  "trailers": [],
  "seasons": [],
  "voiceActing": [
    "Рус. Люб. многоголосый"
  ],
  "subtitle": [],
  "parts": []
}
