{
  "id": 23027,
  "name": "Изнанка города",
  "name_eng": "Wrong Side of Town",
  "year": 2010,
  "slogan": "«Who wants to die first»",
  "age": "16+",
  "type": "film",
  "quality": "SD",
  "imdb": "3.9",
  "imdb_id": "1431191",
  "kinopoisk": "4.2",
  "kinopoisk_id": "464092",
  "world_art": null,
  "world_art_id": null,
  "time": "88 мин. / 01:28",
  "ads": false,
  "premier": "2010-02-23",
  "premier_rus": "2010-02-24",
  "availability": "2010-02-25",
  "activate_time": "2020-10-09 03:44:00",
  "budget": "$5 500 000",
  "fees_use": null,
  "fees_world": null,
  "fees_rus": null,
  "rate_mpaa": "R",
  "description": "Бывший морской пехотинец собирает команду сослуживцев и начинает охоту за похитителями своей дочери.",
  "iframe_url": "",
  "iframe_poster": null,
  "poster": "https://img.imgilall.me/movies/franchise/2/3/0/2/7/0/0/0/0/0/610x900_23027.jpg",
  "country": {
    "1": "США"
  },
  "collection": [],
  "genre": {
    "25": "Криминал",
    "17": "Боевик",
    "13": "Триллер"
  },
  "director": [
    "Дэвид ДеФалко"
  ],
  "screenwriter": [
    "Дэвид ДеФалко"
  ],
  "producer": [
    "Дэвид ДеФалко",
    "Джейсон Хьюит",
    "Карстен Х.В. Лоренц"
  ],
  "operator": [
    "Томас Лембке"
  ],
  "composer": [
    "Джим Кауфман"
  ],
  "design": [
    "Джереми Вулси",
    "Сюзанн М.Б. Чамблисс",
    "Роберт В. Савина"
  ],
  "editor": [
    "Эндрю Дразек",
    "Эзра Голд",
    "Дональд Рэй Вашингтон"
  ],
  "actors": [
    "Роб Ван Дам",
    "Дэйв Батиста",
    "Лара Грайс",
    "Эдрик Браун",
    "Ава Сантана",
    "Сторми",
    "Рендал Ридер",
    "Джером Кац",
    "Луис Хертэм",
    "Брук Фрост"
  ],
  "actors_dubl": [],
  "trivia": [],
  "trailers": [],
  "seasons": [],
  "voiceActing": [
    "Diva Universal"
  ],
  "subtitle": [],
  "parts": []
}
