{
  "id": 25490,
  "name": "Неоконченная пьеса для механического пианино",
  "name_eng": "",
  "year": 1976,
  "slogan": "—",
  "age": "12+",
  "type": "film",
  "quality": "HD (720p)",
  "imdb": "7.8",
  "imdb_id": "0076446",
  "kinopoisk": "8.0",
  "kinopoisk_id": "46398",
  "world_art": null,
  "world_art_id": null,
  "time": "103 мин. / 01:43",
  "ads": false,
  "premier": "1977-09-05",
  "premier_rus": "1977-09-06",
  "availability": "1977-09-07",
  "activate_time": "2020-07-18 09:38:00",
  "budget": null,
  "fees_use": null,
  "fees_world": "$2 047",
  "fees_rus": null,
  "rate_mpaa": null,
  "description": "Мишель Платонов в юности был умен, смел, подавал большие надежды и был влюблен в прелестную Софи. И вот, спустя семь лет, в гостях у генеральши, где собирается весь уездный «бомонд», они встречаются снова - простой деревенский учитель Платонов и Софья - солидная, одержимая «идеями» замужняя дама...",
  "iframe_url": "",
  "iframe_poster": null,
  "poster": "https://img.imgilall.me/movies/franchise/2/5/4/9/0/0/0/0/0/0/610x900_25490.jpg",
  "country": {
    "24": "СССР"
  },
  "collection": [],
  "genre": {
    "7": "Драма"
  },
  "director": [
    "Никита Михалков"
  ],
  "screenwriter": [
    "Александр Адабашьян",
    "Никита Михалков",
    "Антон Чехов"
  ],
  "producer": [],
  "operator": [
    "Павел Лебешев"
  ],
  "composer": [
    "Эдуард Артемьев"
  ],
  "design": [
    "Александр Адабашьян",
    "Александр Самулекин",
    "Майя Абар-Барановская"
  ],
  "editor": [
    "Людмила Елян"
  ],
  "actors": [
    "Александр Калягин",
    "Елена Соловей",
    "Евгения Глушенко",
    "Антонина Шуранова",
    "Юрий Богатырев",
    "Олег Табаков",
    "Николай Пастухов",
    "Павел Кадочников",
    "Никита Михалков",
    "Анатолий Ромашин"
  ],
  "actors_dubl": [],
  "trivia": [
    "Фильм снят по произведениям Антона Чехова «Безотцовщина», «В усадьбе», «Учитель словесности», «Три года», «Моя жизнь»."
  ],
  "trailers": [],
  "seasons": [],
  "voiceActing": [
    "Original"
  ],
  "subtitle": [],
  "parts": []
}
