{
  "id": 511,
  "name": "Москва слезам не верит",
  "name_eng": "",
  "year": 1980,
  "slogan": "«The Funniest, Tenderest Love Story of the Year»",
  "age": "16+",
  "type": "film",
  "quality": "FHD (1080p)",
  "imdb": "8.1",
  "imdb_id": "0079579",
  "kinopoisk": "8.4",
  "kinopoisk_id": "46708",
  "world_art": null,
  "world_art_id": null,
  "time": "150 мин. / 02:30",
  "ads": false,
  "premier": "1980-02-11",
  "premier_rus": null,
  "availability": null,
  "activate_time": "2018-06-18 11:08:03",
  "budget": "$900 000",
  "fees_use": "$2 500 000",
  "fees_world": null,
  "fees_rus": null,
  "rate_mpaa": "PG",
  "description": "Москва пятидесятых годов. Три молодые провинциалки приезжают в Москву в поисках того, что ищут люди во всех столицах мира — любви, счастья и достатка. Их судьбы складываются именно так, как предполагает характер каждой из девушек. \n\nАнтонина выходит замуж, растит детей, любит мужа. Людмиле Москва представляется лотереей, в которой она должна выиграть свое особенное счастье. Катерина же — отчаянно влюбляется, но избранник ее оставляет. Однако она не опускает руки, в одиночку растит дочь и к тому же успевает сделать блестящую карьеру. В сорок лет судьба дарит ей встречу с прекрасным человеком и настоящую любовь…",
  "iframe_url": "",
  "iframe_poster": null,
  "poster": "https://img.imgilall.me/movies/franchise/5/1/1/0/0/0/0/0/0/0/610x900_511.jpg",
  "country": {
    "24": "СССР"
  },
  "collection": {
    "46": "Советские"
  },
  "genre": {
    "22": "Русский",
    "19": "Комедия",
    "8": "Мелодрама",
    "7": "Драма"
  },
  "director": [
    "Владимир Меньшов"
  ],
  "screenwriter": [
    "Валентин Черных"
  ],
  "producer": [],
  "operator": [
    "Игорь Слабневич"
  ],
  "composer": [
    "Сергей Никитин"
  ],
  "design": [
    "Саид Меняльщиков",
    "Жанна Мелконян"
  ],
  "editor": [
    "Елена Михайлова"
  ],
  "actors": [
    "Вера Алентова",
    "Ирина Муравьёва",
    "Алексей Баталов",
    "Раиса Рязанова",
    "Александр Фатюшин",
    "Борис Сморчков",
    "Юрий Васильев",
    "Наталья Вавилова",
    "Виктор Уральский",
    "Валентина Ушакова"
  ],
  "actors_dubl": [],
  "trivia": [
    "Режиссер картины Владимир Меньшов сыграл в фильме небольшую роль-камео. Его герой — это один из друзей Гоши, которые присутствовали на пикнике.",
    "На роль Катерины Тихомировой приглашали Ирину Купченко и Маргариту Терехову.",
    "Занимает по посещаемости 2-е место среди отечественных фильмов за всю историю советского кинопроката.",
    "Лучший фильм по опросу журнала «Советский экран» в 1981 году.",
    "Когда герои Алентовой и Баталова включают телевизор (перед приходом Александры), то «сетку» на экране сопровождает вальс из кинофильма «Розыгрыш» — предыдущей режиссёрской работы Владимира Меньшова. Подобный приём используется в следующем фильме Меньшова «Любовь и голуби», где по телевизору показывают фрагмент из «Москва слезам не верит».",
    "Сценарий фильма был написан Валентином Чёрных для конкурса на лучший фильм о Москве. Он занял всего лишь третье место. Правда, два первых места вообще никому не присудили: не нашли достойных.",
    "На роль сорокалетнего слесаря Гоши режиссёр пробовал Виталия Соломина, Леонида Дьячкова, других актёров. Ни один не подходил. И тогда Меньшов решил, что в крайнем случае сыграет эту роль сам.",
    "Мужа Антонины мог сыграть Юрий Кузьменков. Но ассистент тогда привела двух актёров, которых Меньшов не знал. Это Борис Сморчков, его утвердили на роль Николая, и Александр Фатюшин, ставший в фильме хоккеистом Гуриным.",
    "Исчез из фильма эпизод, где хоккеист Гурин (Александр Фатюшин), объявивший, что «завязал со спиртным и уходит на тренерскую работу», снова появляется пьяный и говорит: «Займи ещё трёшку для ровного счёта». Режиссёра попросили это убрать, сказав: «Давайте оставим надежду. Пусть зритель верит, что Гурин исправился»."
  ],
  "trailers": [],
  "seasons": [],
  "voiceActing": [
    "Рус. Оригинальный"
  ],
  "subtitle": [],
  "parts": []
}
