{
  "id": 17233,
  "name": "Явление",
  "name_eng": "The Apparition",
  "year": 2011,
  "slogan": "«Поверишь - умрешь»",
  "age": "16+",
  "type": "film",
  "quality": "FHD (1080p)",
  "imdb": "4.1",
  "imdb_id": "1433822",
  "kinopoisk": "4.2",
  "kinopoisk_id": "467100",
  "world_art": null,
  "world_art_id": null,
  "time": "83 мин. / 01:23",
  "ads": false,
  "premier": "2012-08-23",
  "premier_rus": "2012-08-30",
  "availability": "2012-08-31",
  "activate_time": "2020-04-30 10:04:00",
  "budget": "$17 000 000",
  "fees_use": "$4 936 819",
  "fees_world": "+ $6 413 846 = $11 350 665",
  "fees_rus": "$2 640 498",
  "rate_mpaa": "PG-13",
  "description": "Когда в их доме начинают происходить странные пугающие события, молодые люди Келли и Бен выясняют, что их преследует потусторонняя сущность, случайно вызванная во время парапсихологического эксперимента в университете. Страшное нечто питается их страхами и истязает их, куда бы они ни бежали. Последняя надежда молодых людей – на эксперта по паранормальным явлениям, но может статься, что спасать их жизни от пугающей потусторонней силы уже слишком поздно – даже с его помощью…",
  "iframe_url": "",
  "iframe_poster": null,
  "poster": "https://img.imgilall.me/movies/franchise/1/7/2/3/3/0/0/0/0/0/610x900_17233.jpg",
  "country": {
    "1": "США",
    "20": "Германия"
  },
  "collection": [],
  "genre": {
    "26": "Ужасы",
    "13": "Триллер",
    "10": "Зарубежный"
  },
  "director": [
    "Тодд Линкольн"
  ],
  "screenwriter": [
    "Тодд Линкольн"
  ],
  "producer": [
    "Алекс Хейнеман",
    "Эндрю Рона",
    "Джоэл Силвер"
  ],
  "operator": [
    "Дэниэл Перл"
  ],
  "composer": [
    "Томэндэнди"
  ],
  "design": [
    "Стив Сэклад",
    "Давид Шойнеман",
    "Стив Саммерсгилл"
  ],
  "editor": [
    "Джефф Бетанкорт",
    "Том Элкинс",
    "Харольд Паркер"
  ],
  "actors": [
    "Эшли Грин",
    "Себастиан Стэн",
    "Том Фелтон",
    "Джулианна Гуилл",
    "Люк Паскуалино",
    "Рик Гомес",
    "Анна Кларк",
    "Сюзанн Форд",
    "Тим Уильямс",
    "Мелисса Голдберг"
  ],
  "actors_dubl": [
    "Наталья Терешкова",
    "Михаил Тихонов",
    "Антон Колесников",
    "Анастасия Жаркова",
    "Всеволод Кузнецов"
  ],
  "trivia": [
    "Прежде чем фильм появился на экранах в августе 2012-го, его выпуск был задержан на 2 года после того, как Warner Bros. разорвала свои отношения с производящей компанией Dark Castle Entertainment. Warner Bros. обеспечили фильму минимальное количество копий в прокате по сравнению с любыми другими фильмами за всю их историю в качестве компании-дистрибьютора.",
    "На 12-й минуте фильма Келли и Бен играют на X-box 360 в игру Super Street Fighter IV."
  ],
  "trailers": [],
  "seasons": [],
  "voiceActing": [
    "Рус. Дублированный",
    "Рус. Люб. двухголосый",
    "Рус. Люб. одноголосый",
    "Eng.Original"
  ],
  "subtitle": [
    "Рус. полные"
  ],
  "parts": []
}
