{
  "id": 38705,
  "name": "Путешествие с Хару",
  "name_eng": "Haru tono tabi",
  "year": 2010,
  "slogan": "—",
  "age": "16+",
  "type": "film",
  "quality": "SD",
  "imdb": "7.1",
  "imdb_id": "1418796",
  "kinopoisk": null,
  "kinopoisk_id": "461218",
  "world_art": null,
  "world_art_id": null,
  "time": "134 мин. / 02:14",
  "ads": false,
  "premier": "2010-05-22",
  "premier_rus": "2010-05-23",
  "availability": "2010-05-24",
  "activate_time": "2020-10-14 03:14:00",
  "budget": null,
  "fees_use": null,
  "fees_world": null,
  "fees_rus": null,
  "rate_mpaa": null,
  "description": "Фильм рассказывает про бывшего рыбака Тадао, который живет со своей 18-летней внучкой Хару в небольшом доме возле гавани на острове Хоккайдо. Хару мечтает переехать в Токио, она недавно потеряла работу, и Тадао не хочет быть для нее в тягость из-за своей больной ноги. Тадао решает обратиться за помощью к своим братьям, с которыми давно не общался из-за инцидентов в прошлом.",
  "iframe_url": "",
  "iframe_poster": null,
  "poster": "https://img.imgilall.me/movies/franchise/3/8/7/0/5/0/0/0/0/0/610x900_38705.jpg",
  "country": {
    "18": "Япония"
  },
  "collection": [],
  "genre": {
    "7": "Драма"
  },
  "director": [
    "Масахиро Кобаяси"
  ],
  "screenwriter": [
    "Масахиро Кобаяси"
  ],
  "producer": [
    "Мунэюки Кии",
    "Наоко Кобаяси",
    "Наохито Хагихара"
  ],
  "operator": [
    "Кэндзи Такама"
  ],
  "composer": [
    "Дзюнпэй Сакума"
  ],
  "design": [
    "Тэру Ямадзаки",
    "Кейко Хосоя"
  ],
  "editor": [
    "Наоки Канэко"
  ],
  "actors": [
    "Тацуя Накадаи",
    "Эри Токунага",
    "Хидэдзи Отаки",
    "Кин Сугаи",
    "Каору Кобаяси",
    "Юко Танака",
    "Тикагэ Авасима",
    "Тецуя Ямамото",
    "Нана Нагао",
    "Акира Эмото"
  ],
  "actors_dubl": [],
  "trivia": [],
  "trailers": [],
  "seasons": [],
  "voiceActing": [
    "Важенин (BadBajo)"
  ],
  "subtitle": [],
  "parts": []
}
