{
  "id": 4580,
  "name": "Очень плохая училка",
  "name_eng": "Bad Teacher",
  "year": 2011,
  "slogan": "«Ей всё по X+Y=?»",
  "age": "18+",
  "type": "film",
  "quality": "FHD (1080p)",
  "imdb": "5.6",
  "imdb_id": "1284575",
  "kinopoisk": "6.3",
  "kinopoisk_id": "465673",
  "world_art": null,
  "world_art_id": null,
  "time": "89 мин. / 01:29",
  "ads": false,
  "premier": "2011-06-17",
  "premier_rus": "2011-07-07",
  "availability": null,
  "activate_time": "2018-12-11 14:41:29",
  "budget": "$20 000 000",
  "fees_use": "$100 292 856",
  "fees_world": "$216 197 492",
  "fees_rus": "$13 431 196",
  "rate_mpaa": "R",
  "description": "Учительница средних классов живет гламурной жизнью светской львицы, ходит на работу как на вечеринку и мечтает об увеличении объема собственного бюста. Однако после внезапного разрыва с богатым бойфрендом ее образ жизни резко меняется, хотя сама она это осознает не сразу. Но когда в их школу приходит новый преподаватель, она совершенно теряет голову и начинает охоту за… деньгами.",
  "iframe_url": "",
  "iframe_poster": null,
  "poster": "https://img.imgilall.me/movies/franchise/4/5/8/0/0/0/0/0/0/0/610x900_4580.jpg",
  "country": {
    "1": "США"
  },
  "collection": {
    "82": "Молодежные комедии",
    "36": "Романтические комедии",
    "74": "Про школу",
    "43": "Про подростков"
  },
  "genre": {
    "19": "Комедия",
    "10": "Зарубежный"
  },
  "director": [
    "Джейк Кэздан"
  ],
  "screenwriter": [
    "Джин Ступницки",
    "Ли Айзенберг"
  ],
  "producer": [
    "Джимми Миллер",
    "Кэри Дитрих",
    "Ли Айзенберг"
  ],
  "operator": [
    "Алар Кивило"
  ],
  "composer": [
    "Майкл Эндрюс"
  ],
  "design": [
    "Джефферсон Сэйдж",
    "Эндрю Макс Кан",
    "Дебра МакГуайр"
  ],
  "editor": [
    "Тара Тимпоне"
  ],
  "actors": [
    "Кэмерон Диаз",
    "Джастин Тимберлейк",
    "Джейсон Сигел",
    "Люси Панч",
    "Филлис Смит",
    "Джон Майкл Хиггинс",
    "Мэттью Дж. Эванс",
    "Кейтлин Дивер",
    "Томас Леннон",
    "Эрик Стоунстрит"
  ],
  "actors_dubl": [
    "Татьяна Шитова",
    "Илья Бледный",
    "Пётр Иващенко",
    "Дарья Фролова",
    "Ольга Шорохова"
  ],
  "trivia": [
    "На роль Скотта Делакорта рассматривался Брэдли Купер.",
    "Один из фильмов, который Элизабет показывает ученикам — «Опасные умы» 1995 года, где Мишель Пфайффер играет учителя. В этот же момент играет главная тема из того фильма — Coolio «Gangsta`s Paradise»."
  ],
  "trailers": [],
  "seasons": [],
  "voiceActing": [
    "Рус. Дублированный",
    "Укр. Дубльований",
    "Eng.Original"
  ],
  "subtitle": [
    "Рус. полные"
  ],
  "parts": []
}
