{
  "id": 23337,
  "name": "Человеческий род",
  "name_eng": "The Human Race",
  "year": 2013,
  "slogan": "«Race Or Die...»",
  "age": null,
  "type": "film",
  "quality": "HD (720p)",
  "imdb": "5.1",
  "imdb_id": "1427298",
  "kinopoisk": "5.0",
  "kinopoisk_id": "463913",
  "world_art": null,
  "world_art_id": null,
  "time": "87 мин. / 01:27",
  "ads": false,
  "premier": "2012-11-08",
  "premier_rus": "2012-11-09",
  "availability": "2012-11-10",
  "activate_time": "2020-10-14 10:45:00",
  "budget": null,
  "fees_use": null,
  "fees_world": null,
  "fees_rus": null,
  "rate_mpaa": null,
  "description": "Вероника внезапно оказывается участницей нереально ужасного марафонского забега. Правила просты: если вы уклоняетесь - вы умираете, если вы сходите с дистанции - вы умираете. Многие начинают стартовать, но только один из них сможет пересечь финишную черту живым.",
  "iframe_url": "",
  "iframe_poster": null,
  "poster": "https://img.imgilall.me/movies/franchise/2/3/3/3/7/0/0/0/0/0/610x900_23337.jpg",
  "country": {
    "1": "США"
  },
  "collection": {
    "29": "Психологические"
  },
  "genre": {
    "26": "Ужасы",
    "11": "Фантастика",
    "17": "Боевик"
  },
  "director": [
    "Пол Хью"
  ],
  "screenwriter": [
    "Пол Хью"
  ],
  "producer": [
    "Брайан Койн",
    "Пол Хью",
    "Tracey Adlai"
  ],
  "operator": [
    "Мэтт Фо"
  ],
  "composer": [
    "Мариньо Нобре"
  ],
  "design": [
    "Shawn Coyne"
  ],
  "editor": [
    "Пол Хью"
  ],
  "actors": [
    "Пол МакКарти-Бойингтон",
    "Эдди МакГи",
    "Триста Робинсон",
    "T. Arthur Cottam",
    "Брианна Лорен Джексон",
    "Фред Каури",
    "Б. Энтони Коэн",
    "Ноэль Бриттон",
    "Джим Рейд",
    "Селин Тиен"
  ],
  "actors_dubl": [],
  "trivia": [],
  "trailers": [],
  "seasons": [],
  "voiceActing": [
    "Рус. Люб. многоголосый"
  ],
  "subtitle": [],
  "parts": []
}
