{
  "id": 52321,
  "name": "Живая земля",
  "name_eng": "The Zeme",
  "year": 2021,
  "slogan": "«Once you are here, You are here forever»",
  "age": null,
  "type": "film",
  "quality": "FHD (1080p)",
  "imdb": null,
  "imdb_id": "15554840",
  "kinopoisk": null,
  "kinopoisk_id": "4658365",
  "world_art": null,
  "world_art_id": null,
  "time": "91 мин. / 01:31",
  "ads": true,
  "premier": "2021-11-01",
  "premier_rus": "2021-11-02",
  "availability": "2021-11-03",
  "activate_time": "2021-11-19 02:24:00",
  "budget": null,
  "fees_use": null,
  "fees_world": null,
  "fees_rus": null,
  "rate_mpaa": null,
  "description": null,
  "iframe_url": "",
  "iframe_poster": null,
  "poster": "https://img.imgilall.me/movies/franchise/5/2/3/2/1/0/0/0/0/0/610x900_52321.jpg",
  "country": {
    "7": "Канада"
  },
  "collection": [],
  "genre": {
    "26": "Ужасы",
    "13": "Триллер"
  },
  "director": [
    "Goldie Dhillon"
  ],
  "screenwriter": [
    "Goldie Dhillon"
  ],
  "producer": [
    "Amandeep S. Bindra",
    "Mandip Dhami"
  ],
  "operator": [
    "Mohit Bhardwaj"
  ],
  "composer": [
    "Mr. V Groves",
    "Mr. Vgrooves"
  ],
  "design": [
    "Gn Panesar",
    "Jaskirat Singh"
  ],
  "editor": [
    "Sarb Nagra"
  ],
  "actors": [
    "Ник Престон",
    "Shenandoah Adams",
    "Leysan Timirboulatova",
    "Alexis Frison",
    "Ava Trasolini",
    "Фил Трасолини",
    "Malcolm Mcsporran",
    "Alysha Bindra",
    "Fabian Novell",
    "Гэйл Симпсон"
  ],
  "actors_dubl": [],
  "trivia": [],
  "trailers": [],
  "seasons": [],
  "voiceActing": [
    "@MUZOBOZ@"
  ],
  "subtitle": [],
  "parts": []
}
