{
  "id": 12795,
  "name": "Девичник",
  "name_eng": "",
  "year": 2010,
  "slogan": "«Иногда мир принадлежит женщинам»",
  "age": "16+",
  "type": "series",
  "quality": "HD (720p)",
  "imdb": null,
  "imdb_id": "3205326",
  "kinopoisk": "6.8",
  "kinopoisk_id": "470680",
  "world_art": null,
  "world_art_id": null,
  "time": "52 мин. серия (412 мин. всего)",
  "ads": false,
  "premier": "2010-02-22",
  "premier_rus": "2010-07-19",
  "availability": null,
  "serial_status": "offline",
  "activate_time": "2019-11-27 16:01:00",
  "budget": null,
  "fees_use": null,
  "fees_world": null,
  "fees_rus": null,
  "rate_mpaa": null,
  "description": "Бывшие однокурсницы – Катя, Вика, Люба и Маруся – дружат почти пятнадцать лет. Когда-то они вместе закончили факультет журналистики МГУ, но сейчас журналистикой занимается только одна Катя. Вика и Люба – успешные бизнес-вумен, а Маруся сама себя называет «работающей домохозяйкой». Подруги часто встречаются и – если нужно – помогают друг другу. Есть у них и своя традиция – регулярно собираться на «девичник». Случается так, что накануне одного из таких «девичников», судьба сталкивает каждую из четырех героинь с каким-то тяжелым испытанием… Вика теряет ребенка и расстается со своим мужчиной. Катя уходит от мужа, обнаружив, что тот втайне торговал её именем и влиянием на телевидении. Люба, всего два года назад выставившая своего экзотического, но трусливого японского мужа, переживает очередное разочарование в мужчинах. А терпеливая и преданная Маруся забирает двух маленьких детей и уходит от мужа, с которым прожила больше десяти лет …Удастся ли подругам преодолеть все трудности и забыть разочарования и когда-нибудь снова провести вместе беззаботный вечер?",
  "iframe_url": "",
  "poster": "https://img.imgilall.me/movies/franchise/1/2/7/9/5/0/0/0/0/0/610x900_12795.jpg",
  "country": {
    "5": "Россия"
  },
  "collection": [],
  "genre": {
    "24": "Детектив",
    "22": "Русский",
    "19": "Комедия",
    "8": "Мелодрама"
  },
  "director": [
    "Анна Легчилова"
  ],
  "screenwriter": [
    "Татьяна Сарана"
  ],
  "producer": [
    "Юрий Сапронов",
    "Андрей Смирнов",
    "Дмитрий Сидоров"
  ],
  "operator": [
    "Сергей Бледнов"
  ],
  "composer": [
    "Петр Дранга"
  ],
  "design": [
    "Александр Кудрявов"
  ],
  "editor": [],
  "actors": [
    "Наталия Курдюбова",
    "Любовь Толкалина",
    "Елена Панова",
    "Эльвира Болгова",
    "Андрей Кузичев",
    "Борис Шевченко",
    "Игорь Бочкин",
    "Евдокия Германова",
    "Татьяна Лютаева",
    "Илья Рутберг"
  ],
  "actors_dubl": [],
  "trivia": [],
  "trailers": [],
  "seasons": [
    {
      "poster": null,
      "release_ru": "2018-03-09",
      "release_world": "2018-03-08",
      "availability": "2018-03-10",
      "iframe_url": "",
      "season": 1,
      "episodes": [
        {
          "episode": 1,
          "name": null,
          "iframe_url": "",
          "iframe_poster": null,
          "release_ru": "2018-03-09",
          "release_world": "2018-03-08",
          "availability": "2018-03-10",
          "voiceActing": [
            "Рус. Оригинальный"
          ],
          "ads": false,
          "subtitle": []
        },
        {
          "episode": 2,
          "name": null,
          "iframe_url": "",
          "iframe_poster": null,
          "release_ru": "2018-03-09",
          "release_world": "2018-03-08",
          "availability": "2018-03-10",
          "voiceActing": [
            "Рус. Оригинальный"
          ],
          "ads": false,
          "subtitle": []
        },
        {
          "episode": 3,
          "name": null,
          "iframe_url": "",
          "iframe_poster": null,
          "release_ru": "2018-03-09",
          "release_world": "2018-03-08",
          "availability": "2018-03-10",
          "voiceActing": [
            "Рус. Оригинальный"
          ],
          "ads": false,
          "subtitle": []
        },
        {
          "episode": 4,
          "name": null,
          "iframe_url": "",
          "iframe_poster": null,
          "release_ru": "2018-03-09",
          "release_world": "2018-03-08",
          "availability": "2018-03-10",
          "voiceActing": [
            "Рус. Оригинальный"
          ],
          "ads": false,
          "subtitle": []
        },
        {
          "episode": 5,
          "name": null,
          "iframe_url": "",
          "iframe_poster": null,
          "release_ru": null,
          "release_world": null,
          "availability": null,
          "voiceActing": [
            "Рус. Оригинальный"
          ],
          "ads": false,
          "subtitle": []
        },
        {
          "episode": 6,
          "name": null,
          "iframe_url": "",
          "iframe_poster": null,
          "release_ru": null,
          "release_world": null,
          "availability": null,
          "voiceActing": [
            "Рус. Оригинальный"
          ],
          "ads": false,
          "subtitle": []
        },
        {
          "episode": 7,
          "name": null,
          "iframe_url": "",
          "iframe_poster": null,
          "release_ru": null,
          "release_world": null,
          "availability": null,
          "voiceActing": [
            "Рус. Оригинальный"
          ],
          "ads": false,
          "subtitle": []
        },
        {
          "episode": 8,
          "name": null,
          "iframe_url": "",
          "iframe_poster": null,
          "release_ru": null,
          "release_world": null,
          "availability": null,
          "voiceActing": [
            "Рус. Оригинальный"
          ],
          "ads": false,
          "subtitle": []
        }
      ]
    }
  ],
  "voiceActing": [
    "Рус. Оригинальный"
  ],
  "subtitle": [],
  "parts": []
}
