{
  "id": 31019,
  "name": "Молот",
  "name_eng": "Hamill",
  "year": 2010,
  "slogan": "«He knew he could be a champion. They knew he could be much more»",
  "age": "18+",
  "type": "film",
  "quality": "SD",
  "imdb": "7.0",
  "imdb_id": "0",
  "kinopoisk": "7.7",
  "kinopoisk_id": "477589",
  "world_art": null,
  "world_art_id": null,
  "time": "108 мин. / 01:48",
  "ads": false,
  "premier": "2010-11-07",
  "premier_rus": "2010-11-08",
  "availability": "2010-11-09",
  "activate_time": "2020-07-12 11:33:00",
  "budget": null,
  "fees_use": null,
  "fees_world": null,
  "fees_rus": null,
  "rate_mpaa": "PG-13",
  "description": "История жизни борца Мэтта Хэмилла, родившегося глухим.",
  "iframe_url": "",
  "iframe_poster": null,
  "poster": "https://img.imgilall.me/movies/franchise/3/1/0/1/9/0/0/0/0/0/610x900_31019.jpg",
  "country": {
    "1": "США"
  },
  "collection": [],
  "genre": {
    "27": "Биографический",
    "23": "Спортивный",
    "7": "Драма"
  },
  "director": [
    "Орен Каплан"
  ],
  "screenwriter": [
    "Эбен Костбар",
    "Джозеф МакКелхир"
  ],
  "producer": [
    "Эбен Костбар",
    "Джозеф МакКелхир",
    "Боб Бертосевич"
  ],
  "operator": [
    "Дэвид Ром"
  ],
  "composer": [
    "Филь Эйслер"
  ],
  "design": [
    "Рутерфорд Пекинпау",
    "Брайан Ловели",
    "Алексис Бек"
  ],
  "editor": [
    "Жаклин Дин"
  ],
  "actors": [
    "Расселл Харвард",
    "Рэймонд Дж. Бэрри",
    "Шошанна Штерн",
    "Майкл Энтони",
    "Кортни Хэлверсон",
    "Сьюзэн Гибни",
    "Джозеф МакКелхир",
    "Эбен Костбар",
    "Рич Франклин",
    "Стивен Додд"
  ],
  "actors_dubl": [],
  "trivia": [
    "«Молот» выиграл приз зрительских симпатий на многочисленных кинофестивалях, включая AFI Fest, Международный кинофестиваль в Кливленде, кинофестиваль в Флориде, кинофестиваль в Хартленде, кинофестиваль в Майами и кинофестиваль в Ньюпорт-Бич."
  ],
  "trailers": [],
  "seasons": [],
  "voiceActing": [
    "Diva Universal"
  ],
  "subtitle": [],
  "parts": []
}
