{
  "id": 39311,
  "name": "Ключи от рая",
  "name_eng": "",
  "year": 1975,
  "slogan": "—",
  "age": "12+",
  "type": "film",
  "quality": "FHD (1080p)",
  "imdb": "5.4",
  "imdb_id": "2395363",
  "kinopoisk": "6.2",
  "kinopoisk_id": "472259",
  "world_art": null,
  "world_art_id": null,
  "time": "94 мин. / 01:34",
  "ads": false,
  "premier": "1976-06-14",
  "premier_rus": "1976-06-15",
  "availability": "1976-06-16",
  "activate_time": "2020-10-14 07:27:00",
  "budget": null,
  "fees_use": null,
  "fees_world": null,
  "fees_rus": null,
  "rate_mpaa": null,
  "description": "...Внезапная смерть дантиста Якова Бельского наводит на мысль об умышленном убийстве. Подозрения падают на модельершу Регину, с которой был близок покойный. Капитан милиции Крастыньш, расследующий дело, обнаруживает связь убиства с операциями дельцов-валютчиков, которые обменивают алмазы на привезенное контрабандным путем иностранное золото. Проявляя мужество и находчивость, а также знание психологии людей, делает безошибочные выводы из запутанного клубка фактов - уверенно разоблачает торговцев золотом.",
  "iframe_url": "",
  "iframe_poster": null,
  "poster": "https://img.imgilall.me/movies/franchise/3/9/3/1/1/0/0/0/0/0/610x900_39311.jpg",
  "country": {
    "24": "СССР"
  },
  "collection": [],
  "genre": {
    "25": "Криминал",
    "24": "Детектив"
  },
  "director": [
    "Алоиз Бренч"
  ],
  "screenwriter": [
    "Владимир Кузнецов"
  ],
  "producer": [],
  "operator": [
    "Рихард Пикс"
  ],
  "composer": [
    "Ивар Вигнерс"
  ],
  "design": [
    "Гунарс Балодис"
  ],
  "editor": [
    "Т. Масс"
  ],
  "actors": [
    "Елена Козелькова",
    "Владимир Осенев",
    "Улдис Пуцитис",
    "Улдис Думпис",
    "Карлис Тренцис",
    "Бронюс Бабкаускас",
    "Леонардас Зельчюс",
    "Янис Мелдерис",
    "Волдемар Зандбергс",
    "Харий Лиепиньш"
  ],
  "actors_dubl": [
    "Александр Белявский",
    "Ростислав Плятт",
    "Рудольф Панков"
  ],
  "trivia": [],
  "trailers": [],
  "seasons": [],
  "voiceActing": [
    "Original"
  ],
  "subtitle": [],
  "parts": []
}
