{
  "id": 17394,
  "name": "Кикбоксер 4: Агрессор",
  "name_eng": "Kickboxer 4: The Aggressor",
  "year": 1994,
  "slogan": "«The Explosive Kickboxer Legacy Continues!»",
  "age": "16+",
  "type": "film",
  "quality": "SD",
  "imdb": "4.0",
  "imdb_id": "0110255",
  "kinopoisk": "4.4",
  "kinopoisk_id": "47372",
  "world_art": null,
  "world_art_id": null,
  "time": "90 мин. / 01:30",
  "ads": false,
  "premier": "1994-03-03",
  "premier_rus": "1994-03-04",
  "availability": "1994-03-05",
  "activate_time": "2020-05-01 09:31:00",
  "budget": "$400 000",
  "fees_use": null,
  "fees_world": null,
  "fees_rus": null,
  "rate_mpaa": "R",
  "description": "Злодей Тонг По похищает миссис Слоун и сообщает об этом ее мужу, которого он же подставил и засадил в тюрьму. Агентство по борьбе с наркотиками обращается к Слоуну с предложением. Раз в год Тонг По устраивает в своей цитадели турниры по кикбоксингу с призом в миллион долларов.Единственная возможность добраться до злодея — тоже принять участие в этом смертельном чемпионате под чужим именем. Слоуна выпускают из тюрьмы, он восстанавливает спортивную форму, и кикбоксинг начинается...",
  "iframe_url": "",
  "iframe_poster": null,
  "poster": "https://img.imgilall.me/movies/franchise/1/7/3/9/4/0/0/0/0/0/610x900_17394.jpg",
  "country": {
    "1": "США"
  },
  "collection": {
    "12": "Для мужчин",
    "16": "Про боевые искусства"
  },
  "genre": {
    "23": "Спортивный",
    "17": "Боевик",
    "10": "Зарубежный"
  },
  "director": [
    "Альберт Пьюн"
  ],
  "screenwriter": [
    "Альберт Пьюн",
    "Дэвид Йоркин"
  ],
  "producer": [
    "Джессика Дж. Бадин"
  ],
  "operator": [
    "Джордж Мурадиан"
  ],
  "composer": [
    "Энтони Рипаретти"
  ],
  "design": [
    "Тимоти Гордон",
    "Шелли Бускалакки",
    "Уильям Ф. Рейнерт"
  ],
  "editor": [
    "Кен Моррисей"
  ],
  "actors": [
    "Саша Митчелл",
    "Камель Крифа",
    "Брэд Торнтон",
    "Джилл Пирс",
    "Мишель Красну",
    "Николас Гест",
    "Том Мэтьюз",
    "Бертон Ричардсон",
    "Дебора Мэнси",
    "Николас Энтони"
  ],
  "actors_dubl": [],
  "trivia": [
    "В фильме, в отличие от первых двух частей, Тонга По играет другой актёр."
  ],
  "trailers": [],
  "seasons": [],
  "voiceActing": [
    "Ю. Сербин",
    "Eng.Original"
  ],
  "subtitle": [],
  "parts": [
    17394,
    23645
  ]
}
