{
  "id": 21540,
  "name": "Одержимая",
  "name_eng": "Possessed",
  "year": 2009,
  "slogan": "—",
  "age": null,
  "type": "film",
  "quality": "HD (720p)",
  "imdb": "6.2",
  "imdb_id": "1535472",
  "kinopoisk": "6.1",
  "kinopoisk_id": "488364",
  "world_art": null,
  "world_art_id": null,
  "time": "106 мин. / 01:46",
  "ads": false,
  "premier": "2009-08-12",
  "premier_rus": "2009-08-13",
  "availability": "2009-08-14",
  "activate_time": "2020-06-09 17:23:00",
  "budget": null,
  "fees_use": null,
  "fees_world": null,
  "fees_rus": null,
  "rate_mpaa": null,
  "description": "Студентка колледжа получает сообщение, что её младшая сестра пропала. Она возвращается домой и находит всю свою семью и соседей в припадке некоего религиозного безумия. Тогда она вместе с детективом отправляется на поиски пропавшей сестры.",
  "iframe_url": "",
  "iframe_poster": null,
  "poster": "https://img.imgilall.me/movies/franchise/2/1/5/4/0/0/0/0/0/0/610x900_21540.jpg",
  "country": {
    "16": "Корея Южная"
  },
  "collection": [],
  "genre": {
    "26": "Ужасы",
    "24": "Детектив",
    "13": "Триллер"
  },
  "director": [
    "Ли Ён-джу"
  ],
  "screenwriter": [
    "Ли Ён-джу"
  ],
  "producer": [
    "Чон Сын-хе",
    "Ли Джон-сэ",
    "Пак Хён-тхэ"
  ],
  "operator": [
    "Мин Гю-дон",
    "Чо Сан-юн"
  ],
  "composer": [
    "Ким Хон-джип"
  ],
  "design": [],
  "editor": [
    "Ким Сан-бом"
  ],
  "actors": [
    "Нам Сан-ми",
    "Рю Сын-нён",
    "Ким Бо-ён",
    "Щим Ын-гён",
    "Мун Хи-гён",
    "Ли Чхан-джик",
    "Чан Ён-нам",
    "О Джи-ын",
    "Щин Ын-гён",
    "Мин Ён"
  ],
  "actors_dubl": [],
  "trivia": [],
  "trailers": [],
  "seasons": [],
  "voiceActing": [
    "Рус. Люб. двухголосый"
  ],
  "subtitle": [],
  "parts": []
}
