{
  "id": 33883,
  "name": "Игра с огнем",
  "name_eng": "Monsterwolf",
  "year": 2010,
  "slogan": "—",
  "age": "16+",
  "type": "film",
  "quality": "HD (720p)",
  "imdb": "3.6",
  "imdb_id": "0",
  "kinopoisk": "3.4",
  "kinopoisk_id": "484401",
  "world_art": null,
  "world_art_id": null,
  "time": "84 мин. / 01:24",
  "ads": false,
  "premier": "2010-10-09",
  "premier_rus": "2010-10-10",
  "availability": "2010-10-11",
  "activate_time": "2020-07-16 05:48:00",
  "budget": null,
  "fees_use": null,
  "fees_world": null,
  "fees_rus": null,
  "rate_mpaa": "R",
  "description": "В предместьях небольшого города Луизианы команда бурильщиков ищет нефтяные месторождения и выпускает на свободу Kachinawaya, древний дух животного, защищающий индейские земли от захватчиков.",
  "iframe_url": "",
  "iframe_poster": null,
  "poster": "https://img.imgilall.me/movies/franchise/3/3/8/8/3/0/0/0/0/0/610x900_33883.jpg",
  "country": {
    "1": "США"
  },
  "collection": [],
  "genre": {
    "26": "Ужасы",
    "6": "Фэнтези"
  },
  "director": [
    "Тодор Чапканов"
  ],
  "screenwriter": [
    "Чарльз Болон"
  ],
  "producer": [
    "Кеннет М. Бэдиш",
    "Грифф Ферст",
    "Дэниэл Льюис"
  ],
  "operator": [
    "Лоренцо Сенаторе"
  ],
  "composer": [
    "Майлз Хэнкинс"
  ],
  "design": [
    "Джейми Бон",
    "Джон Мэнсфилд Финли",
    "Лидия Гриффит"
  ],
  "editor": [
    "Мэтт Тейлор"
  ],
  "actors": [
    "Леонор Варела",
    "Роберт Пикардо",
    "Марк Маколей",
    "Стив Ривис",
    "Джейсон Лондон",
    "Джон Эйз",
    "Грифф Ферст",
    "Рики Уэйн",
    "Николь Барре",
    "Эмбер Бартлетт"
  ],
  "actors_dubl": [],
  "trivia": [],
  "trailers": [],
  "seasons": [],
  "voiceActing": [
    "Diva Universal"
  ],
  "subtitle": [],
  "parts": []
}
