{
  "id": 22973,
  "name": "Планета Халка",
  "name_eng": "Planet Hulk",
  "year": 2010,
  "slogan": "«Халк спасет их мир... или разрушит?»",
  "age": "16+",
  "type": "cartoon",
  "quality": "HD (720p)",
  "imdb": "6.8",
  "imdb_id": "1483025",
  "kinopoisk": "6.7",
  "kinopoisk_id": "485325",
  "world_art": null,
  "world_art_id": null,
  "time": "81 мин. / 01:21",
  "ads": false,
  "premier": "2010-02-02",
  "premier_rus": "2010-02-03",
  "availability": "2010-02-04",
  "activate_time": "2020-06-11 16:57:00",
  "budget": null,
  "fees_use": null,
  "fees_world": null,
  "fees_rus": null,
  "rate_mpaa": "PG-13",
  "description": "Сохранит ли он свой мир или разрушить его? Когда Халк становится слишком опасным для Земли, его сажают в челноки и запускают в космос. К сожалению, сбой в челноке приводит к тому, что Халк приземляется на планету Sakaar, где он был продан в рабство в качестве гладиатора.",
  "iframe_url": "",
  "iframe_poster": null,
  "poster": "https://img.imgilall.me/movies/franchise/2/2/9/7/3/0/0/0/0/0/610x900_22973.jpg",
  "country": {
    "1": "США"
  },
  "collection": [],
  "genre": {
    "9": "Приключения",
    "11": "Фантастика",
    "17": "Боевик"
  },
  "director": [
    "Сэм Лью"
  ],
  "screenwriter": [
    "Грег Джонсон",
    "Стэн Ли",
    "Джек Кёрби"
  ],
  "producer": [
    "Фрэнк Пор",
    "Джошуа Файн",
    "Кен Кацумото"
  ],
  "operator": [],
  "composer": [
    "Гай Мишельмор"
  ],
  "design": [],
  "editor": [
    "Джордж Ризкалла"
  ],
  "actors": [
    "Рик Д. Вассерман",
    "Лиза Энн Бели",
    "Марк Хилдрет",
    "Лайам О’Брайэн",
    "Кевин Майкл Ричардсон",
    "Сэм Винсент",
    "Адвах Судак",
    "Майкл Копса",
    "Пол Добсон",
    "Марк Уорден"
  ],
  "actors_dubl": [],
  "trivia": [],
  "trailers": [
    {
      "name": "трейлер №1",
      "number": 1,
      "iframe_poster": null,
      "season": null,
      "iframe_url": ""
    }
  ],
  "seasons": [],
  "voiceActing": [
    "Diva Universal"
  ],
  "subtitle": [],
  "parts": []
}
