{
  "id": 27941,
  "name": "Восточная сказка",
  "name_eng": "Basmati Blues",
  "year": 2017,
  "slogan": "«Journey to a place with A rhythm all its own»",
  "age": "16+",
  "type": "film",
  "quality": "HD (720p)",
  "imdb": "3.6",
  "imdb_id": "1131728",
  "kinopoisk": "5.2",
  "kinopoisk_id": "483510",
  "world_art": null,
  "world_art_id": null,
  "time": "105 мин. / 01:45",
  "ads": false,
  "premier": "2017-11-06",
  "premier_rus": "2017-11-07",
  "availability": "2017-11-08",
  "activate_time": "2020-07-18 13:16:00",
  "budget": null,
  "fees_use": null,
  "fees_world": null,
  "fees_rus": null,
  "rate_mpaa": null,
  "description": "Линде пришлось отправиться на край света, в Индию, чтобы найти настоящую любовь. Прикоснитесь вместе с ней к магии востока, откройте экзотическую страну, секретные специи, волшебную музыку и неповторимый вкус жизни!",
  "iframe_url": "",
  "iframe_poster": null,
  "poster": "https://img.imgilall.me/movies/franchise/2/7/9/4/1/0/0/0/0/0/610x900_27941.jpg",
  "country": {
    "1": "США"
  },
  "collection": [],
  "genre": {
    "38": "Мюзикл",
    "19": "Комедия",
    "8": "Мелодрама"
  },
  "director": [
    "Dan Baron"
  ],
  "screenwriter": [
    "Dan Baron",
    "Jeff Dorchen",
    "Дэнни Томпсон"
  ],
  "producer": [
    "Моника Колфилд",
    "Джеффри Сорос",
    "Джонатан Т. Бэйкер"
  ],
  "operator": [
    "Химман Дхамиджа"
  ],
  "composer": [
    "Стивен Аргила"
  ],
  "design": [
    "Перри Блейк",
    "Бернардо Трухильо",
    "Прадип Редидж"
  ],
  "editor": [
    "Том Льюис"
  ],
  "actors": [
    "Бри Ларсон",
    "Уткарш Амбудкар",
    "Скотт Бакула",
    "Саахил Сегал",
    "Тайн Дейли",
    "Дональд Сазерленд",
    "Лакшми Манчу",
    "Бугс Бхаргава",
    "Далип Тахил",
    "Сухасини Малай"
  ],
  "actors_dubl": [],
  "trivia": [
    "Вначале фильм снимался в 2013 году. К сожалению, отснять всё за один раз не удалось, т. к. наступил период муссонных дождей. Пришлось собирать дополнительную сумму денег и фильм переснимать. Это произошло уже в 2015 году.",
    "Вначале предполагалось снимать в штате Тамилнад на юге Индии, однако из-за засухи съёмки пришлось перенести в штат Керала на юго-западе страны.",
    "Первое прослушивание Уткарш Амбудкар провалил, однако впоследствии роль в фильме всё-таки получил благодаря способности импровизировать и блестящей работе в кадре с Бри Ларсон."
  ],
  "trailers": [],
  "seasons": [],
  "voiceActing": [
    "Diva Universal"
  ],
  "subtitle": [],
  "parts": []
}
