{
  "id": 22157,
  "name": "Обрубок",
  "name_eng": "Chop",
  "year": 2011,
  "slogan": "«An Eye For An Eye ... And Then Some»",
  "age": null,
  "type": "film",
  "quality": "SD",
  "imdb": "5.6",
  "imdb_id": "1544578",
  "kinopoisk": "5.7",
  "kinopoisk_id": "486125",
  "world_art": null,
  "world_art_id": null,
  "time": "83 мин. / 01:23",
  "ads": false,
  "premier": "2011-04-15",
  "premier_rus": "2011-04-16",
  "availability": "2011-04-17",
  "activate_time": "2020-06-08 10:11:00",
  "budget": null,
  "fees_use": null,
  "fees_world": null,
  "fees_rus": null,
  "rate_mpaa": null,
  "description": "Где-то за городом у паренька по имени Ланс сломалась машина. Ситуация, знакомая многим, но к счастью рядом тут же оказался добрый самаритянин на пикапе, который согласился подбросить бедолагу до города. Все бы ничего, но водитель ведет себя странно. Так Ланс попадает в переплет, в котором начинает терять некоторые части своего тела.",
  "iframe_url": "",
  "iframe_poster": null,
  "poster": "https://img.imgilall.me/movies/franchise/2/2/1/5/7/0/0/0/0/0/610x900_22157.jpg",
  "country": {
    "1": "США"
  },
  "collection": [],
  "genre": {
    "26": "Ужасы",
    "19": "Комедия",
    "13": "Триллер"
  },
  "director": [
    "Трент Хаага"
  ],
  "screenwriter": [
    "Адам Минарович"
  ],
  "producer": [
    "Чед Феррин",
    "Трент Хаага",
    "Джефф Хэмилтон"
  ],
  "operator": [
    "Кристиан Янсс"
  ],
  "composer": [
    "Мэтт Оливо"
  ],
  "design": [
    "Элизабет Р. Розенбаум"
  ],
  "editor": [
    "Джехад Фериф"
  ],
  "actors": [
    "Уилл Кинэн",
    "Тимоти Мускателл",
    "Чед Феррин",
    "Макс Хаага",
    "Данте Рота",
    "Таниша",
    "Адам Минарович",
    "Тэмил Т. Ри",
    "Джон Сантос",
    "Калеб Эмерсон"
  ],
  "actors_dubl": [],
  "trivia": [],
  "trailers": [],
  "seasons": [],
  "voiceActing": [
    "Рус. Люб. одноголосый"
  ],
  "subtitle": [],
  "parts": []
}
