{
  "id": 28838,
  "name": "Герб ангелов",
  "name_eng": "Angels Crest",
  "year": 2011,
  "slogan": "«One town. One life. One wrong turn»",
  "age": null,
  "type": "film",
  "quality": "HD (720p)",
  "imdb": "5.8",
  "imdb_id": "0",
  "kinopoisk": "6.7",
  "kinopoisk_id": "487764",
  "world_art": null,
  "world_art_id": null,
  "time": "92 мин. / 01:32",
  "ads": false,
  "premier": "2011-04-22",
  "premier_rus": "2011-04-23",
  "availability": "2011-04-24",
  "activate_time": "2020-07-24 14:59:00",
  "budget": null,
  "fees_use": "$832",
  "fees_world": null,
  "fees_rus": null,
  "rate_mpaa": "R",
  "description": "Во время первого снега 3-летний Нейт Дентон блуждает недалеко от грузовика его отца и исчезает. Лихорадочные поиски завершились печально- найдено крошечное, замороженное тело. Смерть Нейта приводит малочисленное сообщество «Гребень Ангела» в беспорядок. Жители противостоят тому, что смерть Нейта значит для них, и перед лицом той борьбы они имеют дело со своими собственными понятиями, что правильно, а что нет",
  "iframe_url": "",
  "iframe_poster": null,
  "poster": "https://img.imgilall.me/movies/franchise/2/8/8/3/8/0/0/0/0/0/610x900_28838.jpg",
  "country": {
    "7": "Канада",
    "2": "Великобритания"
  },
  "collection": [],
  "genre": {
    "7": "Драма"
  },
  "director": [
    "Гэби Диллэл"
  ],
  "screenwriter": [
    "Катрин Тришман",
    "Лесли Шварц"
  ],
  "producer": [
    "Лесли Кауэн",
    "Роуз Гарнетт",
    "William Mulroy"
  ],
  "operator": [
    "Дэвид Джонсон"
  ],
  "composer": [
    "Стивен Уорбек"
  ],
  "design": [
    "Луиз Миддлтон",
    "Кэти Кауэн",
    "Кристин Томсон"
  ],
  "editor": [
    "Мик Одсли",
    "Джиллз Бари"
  ],
  "actors": [
    "Амеко Экс Масс Кэрролл",
    "Томас Деккер",
    "Мира Сорвино",
    "Эмма Макгилливрей",
    "Дэйв Браун",
    "Колин А. Кэмпбелл",
    "Линн Коллинс",
    "Джозеф Морган",
    "Грег Лосон",
    "Марти Антонини"
  ],
  "actors_dubl": [],
  "trivia": [],
  "trailers": [],
  "seasons": [],
  "voiceActing": [
    "Важенин (BadBajo)"
  ],
  "subtitle": [],
  "parts": []
}
