{
  "id": 28458,
  "name": "Всем нужна Кэт",
  "name_eng": "Cat Run",
  "year": 2011,
  "slogan": "«Поймай ее, если сможешь»",
  "age": "16+",
  "type": "film",
  "quality": "HD (720p)",
  "imdb": "5.6",
  "imdb_id": "1446147",
  "kinopoisk": "5.7",
  "kinopoisk_id": "491648",
  "world_art": null,
  "world_art_id": null,
  "time": "105 мин. / 01:45",
  "ads": false,
  "premier": "2011-04-01",
  "premier_rus": "2011-10-06",
  "availability": "2011-10-07",
  "activate_time": "2020-07-18 07:49:00",
  "budget": null,
  "fees_use": "$30 000",
  "fees_world": null,
  "fees_rus": null,
  "rate_mpaa": "R",
  "description": "Специальный агент британской разведки MI-6 Элен Бингам уже несколько лет как на пенсии. Этот факт не мешает респектабельной пенсионерке иногда смахивать пыль с залежавшегося на полке браунинга и браться за деликатные частные заказы. Клиентам хорошо известны бескомпромиссные методы агента Бингам: если кто попался на ее пути – пощады не ожидается. На этот раз бывшей шпионке необходимо разыскать красавицу Кэт, которая случайно захватила с элитной вечеринки кое-какие бумаги, не предназначенные для посторонних глаз. Теперь всем нужна Кэт.",
  "iframe_url": "",
  "iframe_poster": null,
  "poster": "https://img.imgilall.me/movies/franchise/2/8/4/5/8/0/0/0/0/0/610x900_28458.jpg",
  "country": {
    "1": "США"
  },
  "collection": [],
  "genre": {
    "19": "Комедия",
    "17": "Боевик"
  },
  "director": [
    "Джон Стокуэлл"
  ],
  "screenwriter": [
    "Ник Болл",
    "Джон Найвен"
  ],
  "producer": [
    "Билл Перкинс",
    "Рэм Бергман",
    "Николь Эскибель"
  ],
  "operator": [
    "Жан-Франсуа Энсгенс"
  ],
  "composer": [
    "Девин Пауэрс"
  ],
  "design": [
    "Александр Денич",
    "Родослав Михайлович",
    "Бояна Никитович"
  ],
  "editor": [
    "Бен Каллахан",
    "Джефф МакЭвой"
  ],
  "actors": [
    "Пас Вега",
    "Джанет Мактир",
    "Альфонсо МакОли",
    "Скотт Мехловиц",
    "Кристофер Макдональд",
    "Карел Роден",
    "Д.Л. Хьюли",
    "Тони Кёрран",
    "Мишель Ломбардо",
    "Радик Головков"
  ],
  "actors_dubl": [],
  "trivia": [],
  "trailers": [],
  "seasons": [],
  "voiceActing": [
    "Diva Universal"
  ],
  "subtitle": [],
  "parts": []
}
