{
  "id": 24434,
  "name": "Сын маски",
  "name_eng": "Son of the Mask",
  "year": 2005,
  "slogan": "«Следующее поколение озорников»",
  "age": "12+",
  "type": "film",
  "quality": "SD",
  "imdb": "2.2",
  "imdb_id": "0362165",
  "kinopoisk": "3.2",
  "kinopoisk_id": "4982",
  "world_art": null,
  "world_art_id": null,
  "time": "94 мин. / 01:34",
  "ads": false,
  "premier": "2005-02-11",
  "premier_rus": "2005-03-17",
  "availability": "2005-03-18",
  "activate_time": "2020-10-17 02:39:00",
  "budget": "$84 000 000",
  "fees_use": "$17 018 422",
  "fees_world": "+ $40 534 165 = $57 552 587",
  "fees_rus": "$1 910 000",
  "rate_mpaa": "PG",
  "description": "Маска возвращается. Десятилетие спустя легендарная Маска Локи попадает в руки карикатуриста Тима Эвери, чей новорожденный сын имеет сверхъестественные способности. Малыш напару с собакой испытывают фантастические способности Маски, переворочивая дом вверх дном. Но настоящие проблемы возникают, когда сам Локи, бог озорства, отправляется на поиски магической Маски, готовый на все, чтобы вернуть ее себе…",
  "iframe_url": "",
  "iframe_poster": null,
  "poster": "https://img.imgilall.me/movies/franchise/2/4/4/3/4/0/0/0/0/0/610x900_24434.jpg",
  "country": {
    "1": "США",
    "4": "Австралия",
    "20": "Германия"
  },
  "collection": {
    "21": "Для молодёжи"
  },
  "genre": {
    "6": "Фэнтези",
    "33": "Семейный",
    "19": "Комедия"
  },
  "director": [
    "Лоуренс Гутерман"
  ],
  "screenwriter": [
    "Лэнс Казей"
  ],
  "producer": [
    "Эрика Хаггинс",
    "Скотт Крупф",
    "Кент Альтерман"
  ],
  "operator": [
    "Грег Гардинер"
  ],
  "composer": [
    "Рэнди Эдельман"
  ],
  "design": [
    "Айвор Лесли Дилли",
    "Билл Бут",
    "Дэн Морски"
  ],
  "editor": [
    "Малкольм Кэмпбелл",
    "Джон Конильо",
    "Дебра Нил Фишер"
  ],
  "actors": [
    "Джейми Кеннеди",
    "Алан Камминг",
    "Трейлор Ховард",
    "Стивен Райт",
    "Кэл Пенн",
    "Бен Стайн",
    "Боб Хоскинс",
    "Лайам Фалконер",
    "Райан Фалконер",
    "Бретт Пикап"
  ],
  "actors_dubl": [
    "Борис Шувалов",
    "Алексей Колган",
    "Мария Овчинникова",
    "Михаил Бескаравайный",
    "Василий Дахненко"
  ],
  "trivia": [
    "Бен Стайн — единственный из актёрского состава сиквела, кто сыграл в оригинальном фильме Чака Рассела «Маска» (1994).",
    "Отиса сыграли две собаки, которых обучили разным трюкам. Шерсть им пришлось подкрашивать, чтобы не было заметно разницы.",
    "С предложением вновь сыграть Стэнли Ипкисса, то есть «Маску», обратились к Джиму Керри, и актёр ответил согласием. По прочтении сценария, однако, он от роли отказался, решив, что проект это провальный.",
    "Снять фильм попросили режиссёра оригинальной картины Чака Рассела, но тот отказался, когда выяснилось, что Джима Керри в фильме не будет."
  ],
  "trailers": [],
  "seasons": [],
  "voiceActing": [
    "Рус. Дублированный",
    "Eng.Original"
  ],
  "subtitle": [],
  "parts": []
}
