{
  "id": 13307,
  "name": "Эзель",
  "name_eng": "Ezel",
  "year": 2009,
  "slogan": "«Revenge. That will bring them together»",
  "age": null,
  "type": "series",
  "quality": "SD",
  "imdb": "8.6",
  "imdb_id": "1534360",
  "kinopoisk": "8.3",
  "kinopoisk_id": "497667",
  "world_art": null,
  "world_art_id": null,
  "time": "90 мин",
  "ads": false,
  "premier": "2009-09-28",
  "premier_rus": null,
  "availability": null,
  "serial_status": "offline",
  "activate_time": "2019-12-13 15:00:00",
  "budget": null,
  "fees_use": null,
  "fees_world": null,
  "fees_rus": null,
  "rate_mpaa": null,
  "description": "Сначала был Омер. Вместе с семьей у него была своя простая жизнь. Он был счастлив. Потом он полюбил девушку. Он собирался жениться на ней, вернувшись из армии. Все было в порядке, так, как и должно быть. Но внезапно Омер оказался в тюрьме за убийство. Привычная жизнь, знакомые люди – все исчезло в мгновение ока. На их место пришел один-единственный вопрос – почему? Он жег его мозг, словно раскаленное клеймо. Его предали, подставили, с ним сыграли страшную игру. Любимая девушка Эйшан, лучший друг Дженгиз и Али, который был ему старшим братом, – все они были как-то замешаны в этом. Омер не мог найти ответы на мучавшие его вопросы, он потерял надежду… До тех пор, пока не познакомился в тюрьме с человеком, изменившим его жизнь. Омер умер в тюрьме, но родился Эзель, человек с другим лицом и другим именем. Он готов отомстить людям, отнявшим у него все, но сначала ему нужно убить внутри себя эту бесконечную, бессмертную, не отпускающую его любовь…",
  "iframe_url": "",
  "poster": "https://img.imgilall.me/movies/franchise/1/3/3/0/7/0/0/0/0/0/610x900_13307.jpg",
  "country": {
    "36": "Турция"
  },
  "collection": [],
  "genre": {
    "25": "Криминал",
    "13": "Триллер",
    "7": "Драма"
  },
  "director": [
    "Улуч Байрактар"
  ],
  "screenwriter": [
    "Пынар Булут",
    "Керем Дерен"
  ],
  "producer": [
    "Керем Чатай"
  ],
  "operator": [
    "Вейсель Текшахин"
  ],
  "composer": [
    "Тойгар Ышыклы"
  ],
  "design": [
    "Сельда Чичек",
    "Айнур Топалак"
  ],
  "editor": [
    "Сердар Чакулар"
  ],
  "actors": [
    "Кенан Имирзалыоглу",
    "Джансу Дере",
    "Бадэ Ишчил",
    "Йигит Озшенер",
    "Барыш Фалай",
    "Сарп Аккая",
    "Нархан Озенен",
    "Тунджел Куртиз",
    "Бурчин Терзиоглу",
    "Салих Кэлион"
  ],
  "actors_dubl": [],
  "trivia": [],
  "trailers": [],
  "seasons": [
    {
      "poster": null,
      "release_ru": "2009-09-29",
      "release_world": "2009-09-28",
      "availability": "2009-09-30",
      "iframe_url": "",
      "season": 1,
      "episodes": [
        {
          "episode": 1,
          "name": "Her İhanet Sevgiyle Başlar",
          "iframe_url": "",
          "iframe_poster": null,
          "release_ru": "2009-09-29",
          "release_world": "2009-09-28",
          "availability": "2009-09-30",
          "voiceActing": [
            "Рус. Проф. двухголосый"
          ],
          "ads": false,
          "subtitle": []
        },
        {
          "episode": 2,
          "name": "Seni Seven Senin Kurbanındır",
          "iframe_url": "",
          "iframe_poster": null,
          "release_ru": "2009-10-06",
          "release_world": "2009-10-05",
          "availability": "2009-10-07",
          "voiceActing": [
            "Рус. Проф. двухголосый",
            "Рус. Люб. одноголосый"
          ],
          "ads": false,
          "subtitle": []
        },
        {
          "episode": 3,
          "name": "Aşk Ölümden Güçlüdür",
          "iframe_url": "",
          "iframe_poster": null,
          "release_ru": "2009-10-13",
          "release_world": "2009-10-12",
          "availability": "2009-10-14",
          "voiceActing": [
            "Рус. Проф. двухголосый",
            "Рус. Люб. одноголосый"
          ],
          "ads": false,
          "subtitle": []
        },
        {
          "episode": 4,
          "name": "En Zoru Eve Dönmektir",
          "iframe_url": "",
          "iframe_poster": null,
          "release_ru": "2009-10-20",
          "release_world": "2009-10-19",
          "availability": "2009-10-21",
          "voiceActing": [
            "Рус. Проф. двухголосый",
            "Рус. Люб. одноголосый"
          ],
          "ads": false,
          "subtitle": []
        },
        {
          "episode": 5,
          "name": "Aşk mı Kaderi Kovalar, Kader mi Aşkı",
          "iframe_url": "",
          "iframe_poster": null,
          "release_ru": "2009-10-27",
          "release_world": "2009-10-26",
          "availability": "2009-10-28",
          "voiceActing": [
            "Рус. Проф. двухголосый",
            "Рус. Люб. одноголосый"
          ],
          "ads": false,
          "subtitle": []
        },
        {
          "episode": 6,
          "name": "Hayaller Hayaletler",
          "iframe_url": "",
          "iframe_poster": null,
          "release_ru": "2009-11-10",
          "release_world": "2009-11-09",
          "availability": "2009-11-11",
          "voiceActing": [
            "Рус. Проф. двухголосый",
            "Рус. Люб. одноголосый"
          ],
          "ads": false,
          "subtitle": []
        },
        {
          "episode": 7,
          "name": "Gitmek/Kalmak",
          "iframe_url": "",
          "iframe_poster": null,
          "release_ru": "2009-11-17",
          "release_world": "2009-11-16",
          "availability": "2009-11-18",
          "voiceActing": [
            "Рус. Проф. двухголосый",
            "Рус. Люб. одноголосый"
          ],
          "ads": false,
          "subtitle": []
        },
        {
          "episode": 8,
          "name": "Akreple Kurbağa",
          "iframe_url": "",
          "iframe_poster": null,
          "release_ru": "2009-11-24",
          "release_world": "2009-11-23",
          "availability": "2009-11-25",
          "voiceActing": [
            "Рус. Проф. двухголосый",
            "Рус. Люб. одноголосый"
          ],
          "ads": false,
          "subtitle": []
        },
        {
          "episode": 9,
          "name": "En Kötü İhtimal",
          "iframe_url": "",
          "iframe_poster": null,
          "release_ru": "2009-12-01",
          "release_world": "2009-11-30",
          "availability": "2009-12-02",
          "voiceActing": [
            "Рус. Проф. двухголосый"
          ],
          "ads": false,
          "subtitle": []
        },
        {
          "episode": 10,
          "name": "Sadakat",
          "iframe_url": "",
          "iframe_poster": null,
          "release_ru": "2009-12-08",
          "release_world": "2009-12-07",
          "availability": "2009-12-09",
          "voiceActing": [
            "Рус. Проф. двухголосый",
            "Рус. Люб. одноголосый"
          ],
          "ads": false,
          "subtitle": []
        },
        {
          "episode": 11,
          "name": "Utanç",
          "iframe_url": "",
          "iframe_poster": null,
          "release_ru": "2009-12-15",
          "release_world": "2009-12-14",
          "availability": "2009-12-16",
          "voiceActing": [
            "Рус. Проф. двухголосый",
            "Рус. Люб. одноголосый"
          ],
          "ads": false,
          "subtitle": []
        },
        {
          "episode": 12,
          "name": "Yalnız Kalmak",
          "iframe_url": "",
          "iframe_poster": null,
          "release_ru": "2009-12-22",
          "release_world": "2009-12-21",
          "availability": "2009-12-23",
          "voiceActing": [
            "Рус. Проф. двухголосый",
            "Рус. Люб. одноголосый"
          ],
          "ads": false,
          "subtitle": []
        },
        {
          "episode": 13,
          "name": "Kaçınılmaz",
          "iframe_url": "",
          "iframe_poster": null,
          "release_ru": "2010-01-05",
          "release_world": "2010-01-04",
          "availability": "2010-01-06",
          "voiceActing": [
            "Рус. Проф. двухголосый",
            "Рус. Люб. одноголосый"
          ],
          "ads": false,
          "subtitle": []
        },
        {
          "episode": 14,
          "name": "İlk Günah",
          "iframe_url": "",
          "iframe_poster": null,
          "release_ru": "2010-01-12",
          "release_world": "2010-01-11",
          "availability": "2010-01-13",
          "voiceActing": [
            "Рус. Проф. двухголосый",
            "Рус. Люб. одноголосый"
          ],
          "ads": false,
          "subtitle": []
        },
        {
          "episode": 15,
          "name": "Çıkar Yol",
          "iframe_url": "",
          "iframe_poster": null,
          "release_ru": "2010-01-26",
          "release_world": "2010-01-25",
          "availability": "2010-01-27",
          "voiceActing": [
            "Рус. Проф. двухголосый",
            "Рус. Люб. одноголосый"
          ],
          "ads": false,
          "subtitle": []
        },
        {
          "episode": 16,
          "name": "Dönüş Yolu",
          "iframe_url": "",
          "iframe_poster": null,
          "release_ru": "2010-02-02",
          "release_world": "2010-02-01",
          "availability": "2010-02-03",
          "voiceActing": [
            "Рус. Проф. двухголосый",
            "Рус. Люб. одноголосый"
          ],
          "ads": false,
          "subtitle": []
        },
        {
          "episode": 17,
          "name": "Geçmişin Ayak İzleri",
          "iframe_url": "",
          "iframe_poster": null,
          "release_ru": "2010-02-09",
          "release_world": "2010-02-08",
          "availability": "2010-02-10",
          "voiceActing": [
            "Рус. Проф. двухголосый"
          ],
          "ads": false,
          "subtitle": []
        },
        {
          "episode": 18,
          "name": "Gitmesine İzin Vermek",
          "iframe_url": "",
          "iframe_poster": null,
          "release_ru": "2010-02-16",
          "release_world": "2010-02-15",
          "availability": "2010-02-17",
          "voiceActing": [
            "Рус. Проф. двухголосый"
          ],
          "ads": false,
          "subtitle": []
        },
        {
          "episode": 19,
          "name": "Gerçekleri Öğrenme Zamanı",
          "iframe_url": "",
          "iframe_poster": null,
          "release_ru": "2010-02-23",
          "release_world": "2010-02-22",
          "availability": "2010-02-24",
          "voiceActing": [
            "Рус. Проф. двухголосый",
            "Рус. Люб. одноголосый"
          ],
          "ads": false,
          "subtitle": []
        },
        {
          "episode": 20,
          "name": "Emanet",
          "iframe_url": "",
          "iframe_poster": null,
          "release_ru": "2010-03-09",
          "release_world": "2010-03-08",
          "availability": "2010-03-10",
          "voiceActing": [
            "Рус. Проф. двухголосый",
            "Рус. Люб. одноголосый"
          ],
          "ads": false,
          "subtitle": []
        },
        {
          "episode": 21,
          "name": "Ailede Bir Ölüm",
          "iframe_url": "",
          "iframe_poster": null,
          "release_ru": "2010-03-16",
          "release_world": "2010-03-15",
          "availability": "2010-03-17",
          "voiceActing": [
            "Рус. Проф. двухголосый",
            "Рус. Люб. одноголосый"
          ],
          "ads": false,
          "subtitle": []
        },
        {
          "episode": 22,
          "name": "Masumiyet",
          "iframe_url": "",
          "iframe_poster": null,
          "release_ru": "2010-03-23",
          "release_world": "2010-03-22",
          "availability": "2010-03-24",
          "voiceActing": [
            "Рус. Проф. двухголосый",
            "Рус. Люб. одноголосый"
          ],
          "ads": false,
          "subtitle": []
        },
        {
          "episode": 23,
          "name": "Oyunbozan",
          "iframe_url": "",
          "iframe_poster": null,
          "release_ru": "2010-04-13",
          "release_world": "2010-04-12",
          "availability": "2010-04-14",
          "voiceActing": [
            "Рус. Проф. двухголосый",
            "Рус. Люб. одноголосый"
          ],
          "ads": false,
          "subtitle": []
        },
        {
          "episode": 24,
          "name": "Başlasın İntikam",
          "iframe_url": "",
          "iframe_poster": null,
          "release_ru": "2010-04-20",
          "release_world": "2010-04-19",
          "availability": "2010-04-21",
          "voiceActing": [
            "Рус. Проф. двухголосый",
            "Рус. Люб. одноголосый"
          ],
          "ads": false,
          "subtitle": []
        },
        {
          "episode": 25,
          "name": "Gerçeğin Gücü",
          "iframe_url": "",
          "iframe_poster": null,
          "release_ru": "2010-04-27",
          "release_world": "2010-04-26",
          "availability": "2010-04-28",
          "voiceActing": [
            "Рус. Проф. двухголосый",
            "Рус. Люб. одноголосый"
          ],
          "ads": false,
          "subtitle": []
        },
        {
          "episode": 26,
          "name": "En Önemli Şey",
          "iframe_url": "",
          "iframe_poster": null,
          "release_ru": "2010-05-04",
          "release_world": "2010-05-03",
          "availability": "2010-05-05",
          "voiceActing": [
            "Рус. Проф. двухголосый",
            "Рус. Люб. одноголосый"
          ],
          "ads": false,
          "subtitle": []
        },
        {
          "episode": 27,
          "name": "Kimin Tarafındasın",
          "iframe_url": "",
          "iframe_poster": null,
          "release_ru": "2010-05-11",
          "release_world": "2010-05-10",
          "availability": "2010-05-12",
          "voiceActing": [
            "Рус. Проф. двухголосый",
            "Рус. Люб. одноголосый"
          ],
          "ads": false,
          "subtitle": []
        },
        {
          "episode": 28,
          "name": "Bizden Biri",
          "iframe_url": "",
          "iframe_poster": null,
          "release_ru": "2010-05-18",
          "release_world": "2010-05-17",
          "availability": "2010-05-19",
          "voiceActing": [
            "Рус. Проф. двухголосый",
            "Рус. Люб. одноголосый"
          ],
          "ads": false,
          "subtitle": []
        },
        {
          "episode": 29,
          "name": "Sürgün",
          "iframe_url": "",
          "iframe_poster": null,
          "release_ru": "2010-05-25",
          "release_world": "2010-05-24",
          "availability": "2010-05-26",
          "voiceActing": [
            "Рус. Проф. двухголосый",
            "Рус. Люб. одноголосый"
          ],
          "ads": false,
          "subtitle": []
        },
        {
          "episode": 30,
          "name": "Özlemek",
          "iframe_url": "",
          "iframe_poster": null,
          "release_ru": "2010-06-01",
          "release_world": "2010-05-31",
          "availability": "2010-06-02",
          "voiceActing": [
            "Рус. Проф. двухголосый",
            "Рус. Люб. одноголосый"
          ],
          "ads": false,
          "subtitle": []
        },
        {
          "episode": 31,
          "name": "Yaşama Sebebi",
          "iframe_url": "",
          "iframe_poster": null,
          "release_ru": "2010-06-08",
          "release_world": "2010-06-07",
          "availability": "2010-06-09",
          "voiceActing": [
            "Рус. Проф. двухголосый",
            "Рус. Люб. одноголосый"
          ],
          "ads": false,
          "subtitle": []
        },
        {
          "episode": 32,
          "name": "Haksızlığa Karşı",
          "iframe_url": "",
          "iframe_poster": null,
          "release_ru": "2010-06-15",
          "release_world": "2010-06-14",
          "availability": "2010-06-16",
          "voiceActing": [
            "Рус. Проф. двухголосый",
            "Рус. Люб. одноголосый"
          ],
          "ads": false,
          "subtitle": []
        },
        {
          "episode": 33,
          "name": "İkinci Hayat",
          "iframe_url": "",
          "iframe_poster": null,
          "release_ru": "2010-06-22",
          "release_world": "2010-06-21",
          "availability": "2010-06-23",
          "voiceActing": [
            "Рус. Проф. двухголосый",
            "Рус. Люб. одноголосый"
          ],
          "ads": false,
          "subtitle": []
        }
      ]
    },
    {
      "poster": null,
      "release_ru": "2010-09-14",
      "release_world": "2010-09-13",
      "availability": "2010-09-15",
      "iframe_url": "",
      "season": 2,
      "episodes": [
        {
          "episode": 34,
          "name": "Yalniz Bir Adam",
          "iframe_url": "",
          "iframe_poster": null,
          "release_ru": "2011-05-17",
          "release_world": "2011-05-16",
          "availability": "2011-05-18",
          "voiceActing": [
            "Рус. Проф. двухголосый",
            "Рус. Люб. одноголосый"
          ],
          "ads": false,
          "subtitle": []
        },
        {
          "episode": 35,
          "name": "Mükemmel Bir Cinayet",
          "iframe_url": "",
          "iframe_poster": null,
          "release_ru": "2011-05-31",
          "release_world": "2011-05-30",
          "availability": "2011-06-01",
          "voiceActing": [
            "Рус. Проф. двухголосый",
            "Рус. Люб. одноголосый"
          ],
          "ads": false,
          "subtitle": []
        },
        {
          "episode": 36,
          "name": "İmkansız Aşk Yoktur",
          "iframe_url": "",
          "iframe_poster": null,
          "release_ru": "2011-06-07",
          "release_world": "2011-06-06",
          "availability": "2011-06-08",
          "voiceActing": [
            "Рус. Проф. двухголосый",
            "Рус. Люб. одноголосый"
          ],
          "ads": false,
          "subtitle": []
        },
        {
          "episode": 37,
          "name": "Mutlu Sonlara Kim İnanır?",
          "iframe_url": "",
          "iframe_poster": null,
          "release_ru": "2011-06-14",
          "release_world": "2011-06-13",
          "availability": "2011-06-15",
          "voiceActing": [
            "Рус. Проф. двухголосый",
            "Рус. Люб. одноголосый"
          ],
          "ads": false,
          "subtitle": []
        },
        {
          "episode": 38,
          "name": "...Ama Herkes Ölmez",
          "iframe_url": "",
          "iframe_poster": null,
          "release_ru": "2011-06-21",
          "release_world": "2011-06-20",
          "availability": "2011-06-22",
          "voiceActing": [
            "Рус. Проф. двухголосый",
            "Рус. Люб. одноголосый"
          ],
          "ads": false,
          "subtitle": []
        },
        {
          "episode": 39,
          "name": null,
          "iframe_url": "",
          "iframe_poster": null,
          "release_ru": null,
          "release_world": null,
          "availability": null,
          "voiceActing": [
            "Рус. Проф. двухголосый",
            "Рус. Люб. одноголосый"
          ],
          "ads": false,
          "subtitle": []
        },
        {
          "episode": 40,
          "name": null,
          "iframe_url": "",
          "iframe_poster": null,
          "release_ru": null,
          "release_world": null,
          "availability": null,
          "voiceActing": [
            "Рус. Проф. двухголосый",
            "Рус. Люб. одноголосый"
          ],
          "ads": false,
          "subtitle": []
        },
        {
          "episode": 41,
          "name": null,
          "iframe_url": "",
          "iframe_poster": null,
          "release_ru": null,
          "release_world": null,
          "availability": null,
          "voiceActing": [
            "Рус. Проф. двухголосый",
            "Рус. Люб. одноголосый"
          ],
          "ads": false,
          "subtitle": []
        },
        {
          "episode": 42,
          "name": null,
          "iframe_url": "",
          "iframe_poster": null,
          "release_ru": null,
          "release_world": null,
          "availability": null,
          "voiceActing": [
            "Рус. Проф. двухголосый",
            "Рус. Люб. одноголосый"
          ],
          "ads": false,
          "subtitle": []
        },
        {
          "episode": 43,
          "name": null,
          "iframe_url": "",
          "iframe_poster": null,
          "release_ru": null,
          "release_world": null,
          "availability": null,
          "voiceActing": [
            "Рус. Проф. двухголосый",
            "Рус. Люб. одноголосый"
          ],
          "ads": false,
          "subtitle": []
        },
        {
          "episode": 44,
          "name": null,
          "iframe_url": "",
          "iframe_poster": null,
          "release_ru": null,
          "release_world": null,
          "availability": null,
          "voiceActing": [
            "Рус. Проф. двухголосый",
            "Рус. Люб. одноголосый"
          ],
          "ads": false,
          "subtitle": []
        },
        {
          "episode": 45,
          "name": null,
          "iframe_url": "",
          "iframe_poster": null,
          "release_ru": null,
          "release_world": null,
          "availability": null,
          "voiceActing": [
            "Рус. Проф. двухголосый",
            "Рус. Люб. одноголосый"
          ],
          "ads": false,
          "subtitle": []
        },
        {
          "episode": 46,
          "name": null,
          "iframe_url": "",
          "iframe_poster": null,
          "release_ru": null,
          "release_world": null,
          "availability": null,
          "voiceActing": [
            "Рус. Проф. двухголосый",
            "Рус. Люб. одноголосый"
          ],
          "ads": false,
          "subtitle": []
        },
        {
          "episode": 47,
          "name": null,
          "iframe_url": "",
          "iframe_poster": null,
          "release_ru": null,
          "release_world": null,
          "availability": null,
          "voiceActing": [
            "Рус. Проф. двухголосый",
            "Рус. Люб. одноголосый"
          ],
          "ads": false,
          "subtitle": []
        },
        {
          "episode": 48,
          "name": null,
          "iframe_url": "",
          "iframe_poster": null,
          "release_ru": null,
          "release_world": null,
          "availability": null,
          "voiceActing": [
            "Рус. Проф. двухголосый",
            "Рус. Люб. одноголосый"
          ],
          "ads": false,
          "subtitle": []
        },
        {
          "episode": 49,
          "name": null,
          "iframe_url": "",
          "iframe_poster": null,
          "release_ru": null,
          "release_world": null,
          "availability": null,
          "voiceActing": [
            "Рус. Проф. двухголосый",
            "Рус. Люб. одноголосый"
          ],
          "ads": false,
          "subtitle": []
        },
        {
          "episode": 50,
          "name": null,
          "iframe_url": "",
          "iframe_poster": null,
          "release_ru": null,
          "release_world": null,
          "availability": null,
          "voiceActing": [
            "Рус. Проф. двухголосый",
            "Рус. Люб. одноголосый"
          ],
          "ads": false,
          "subtitle": []
        },
        {
          "episode": 51,
          "name": null,
          "iframe_url": "",
          "iframe_poster": null,
          "release_ru": null,
          "release_world": null,
          "availability": null,
          "voiceActing": [
            "Рус. Проф. двухголосый",
            "Рус. Люб. одноголосый"
          ],
          "ads": false,
          "subtitle": []
        },
        {
          "episode": 52,
          "name": null,
          "iframe_url": "",
          "iframe_poster": null,
          "release_ru": null,
          "release_world": null,
          "availability": null,
          "voiceActing": [
            "Рус. Проф. двухголосый",
            "Рус. Люб. одноголосый"
          ],
          "ads": false,
          "subtitle": []
        },
        {
          "episode": 53,
          "name": null,
          "iframe_url": "",
          "iframe_poster": null,
          "release_ru": null,
          "release_world": null,
          "availability": null,
          "voiceActing": [
            "Рус. Проф. двухголосый",
            "Рус. Люб. одноголосый"
          ],
          "ads": false,
          "subtitle": []
        },
        {
          "episode": 54,
          "name": null,
          "iframe_url": "",
          "iframe_poster": null,
          "release_ru": null,
          "release_world": null,
          "availability": null,
          "voiceActing": [
            "Рус. Проф. двухголосый",
            "Рус. Люб. одноголосый"
          ],
          "ads": false,
          "subtitle": []
        },
        {
          "episode": 55,
          "name": null,
          "iframe_url": "",
          "iframe_poster": null,
          "release_ru": null,
          "release_world": null,
          "availability": null,
          "voiceActing": [
            "Рус. Проф. двухголосый",
            "Рус. Люб. одноголосый"
          ],
          "ads": false,
          "subtitle": []
        },
        {
          "episode": 56,
          "name": null,
          "iframe_url": "",
          "iframe_poster": null,
          "release_ru": null,
          "release_world": null,
          "availability": null,
          "voiceActing": [
            "Рус. Проф. двухголосый",
            "Рус. Люб. одноголосый"
          ],
          "ads": false,
          "subtitle": []
        },
        {
          "episode": 57,
          "name": null,
          "iframe_url": "",
          "iframe_poster": null,
          "release_ru": null,
          "release_world": null,
          "availability": null,
          "voiceActing": [
            "Рус. Проф. двухголосый",
            "Рус. Люб. одноголосый"
          ],
          "ads": false,
          "subtitle": []
        },
        {
          "episode": 58,
          "name": null,
          "iframe_url": "",
          "iframe_poster": null,
          "release_ru": null,
          "release_world": null,
          "availability": null,
          "voiceActing": [
            "Рус. Проф. двухголосый",
            "Рус. Люб. одноголосый"
          ],
          "ads": false,
          "subtitle": []
        },
        {
          "episode": 59,
          "name": null,
          "iframe_url": "",
          "iframe_poster": null,
          "release_ru": null,
          "release_world": null,
          "availability": null,
          "voiceActing": [
            "Рус. Проф. двухголосый",
            "Рус. Люб. одноголосый"
          ],
          "ads": false,
          "subtitle": []
        },
        {
          "episode": 60,
          "name": null,
          "iframe_url": "",
          "iframe_poster": null,
          "release_ru": null,
          "release_world": null,
          "availability": null,
          "voiceActing": [
            "Рус. Проф. двухголосый",
            "Рус. Люб. одноголосый"
          ],
          "ads": false,
          "subtitle": []
        },
        {
          "episode": 61,
          "name": null,
          "iframe_url": "",
          "iframe_poster": null,
          "release_ru": null,
          "release_world": null,
          "availability": null,
          "voiceActing": [
            "Рус. Проф. двухголосый",
            "Рус. Люб. одноголосый"
          ],
          "ads": false,
          "subtitle": []
        },
        {
          "episode": 62,
          "name": null,
          "iframe_url": "",
          "iframe_poster": null,
          "release_ru": null,
          "release_world": null,
          "availability": null,
          "voiceActing": [
            "Рус. Проф. двухголосый",
            "Рус. Люб. одноголосый"
          ],
          "ads": false,
          "subtitle": []
        },
        {
          "episode": 63,
          "name": null,
          "iframe_url": "",
          "iframe_poster": null,
          "release_ru": null,
          "release_world": null,
          "availability": null,
          "voiceActing": [
            "Рус. Проф. двухголосый",
            "Рус. Люб. одноголосый"
          ],
          "ads": false,
          "subtitle": []
        },
        {
          "episode": 64,
          "name": null,
          "iframe_url": "",
          "iframe_poster": null,
          "release_ru": null,
          "release_world": null,
          "availability": null,
          "voiceActing": [
            "Рус. Проф. двухголосый",
            "Рус. Люб. одноголосый"
          ],
          "ads": false,
          "subtitle": []
        },
        {
          "episode": 65,
          "name": null,
          "iframe_url": "",
          "iframe_poster": null,
          "release_ru": null,
          "release_world": null,
          "availability": null,
          "voiceActing": [
            "Рус. Проф. двухголосый",
            "Рус. Люб. одноголосый"
          ],
          "ads": false,
          "subtitle": []
        },
        {
          "episode": 66,
          "name": null,
          "iframe_url": "",
          "iframe_poster": null,
          "release_ru": null,
          "release_world": null,
          "availability": null,
          "voiceActing": [
            "Рус. Проф. двухголосый",
            "Рус. Люб. одноголосый"
          ],
          "ads": false,
          "subtitle": []
        },
        {
          "episode": 67,
          "name": null,
          "iframe_url": "",
          "iframe_poster": null,
          "release_ru": null,
          "release_world": null,
          "availability": null,
          "voiceActing": [
            "Рус. Проф. двухголосый",
            "Рус. Люб. одноголосый"
          ],
          "ads": false,
          "subtitle": []
        },
        {
          "episode": 68,
          "name": null,
          "iframe_url": "",
          "iframe_poster": null,
          "release_ru": null,
          "release_world": null,
          "availability": null,
          "voiceActing": [
            "Рус. Проф. двухголосый",
            "Рус. Люб. одноголосый"
          ],
          "ads": false,
          "subtitle": []
        },
        {
          "episode": 69,
          "name": null,
          "iframe_url": "",
          "iframe_poster": null,
          "release_ru": null,
          "release_world": null,
          "availability": null,
          "voiceActing": [
            "Рус. Проф. двухголосый",
            "Рус. Люб. одноголосый"
          ],
          "ads": false,
          "subtitle": []
        },
        {
          "episode": 70,
          "name": null,
          "iframe_url": "",
          "iframe_poster": null,
          "release_ru": null,
          "release_world": null,
          "availability": null,
          "voiceActing": [
            "Рус. Проф. двухголосый",
            "Рус. Люб. одноголосый"
          ],
          "ads": false,
          "subtitle": []
        },
        {
          "episode": 71,
          "name": null,
          "iframe_url": "",
          "iframe_poster": null,
          "release_ru": null,
          "release_world": null,
          "availability": null,
          "voiceActing": [
            "Рус. Проф. двухголосый",
            "Рус. Люб. одноголосый"
          ],
          "ads": false,
          "subtitle": []
        }
      ]
    }
  ],
  "voiceActing": [
    "Рус. Проф. двухголосый",
    "Рус. Люб. одноголосый"
  ],
  "subtitle": [],
  "parts": []
}
