{
  "id": 22867,
  "name": "Освободите Джимми",
  "name_eng": "Slipp Jimmy fri",
  "year": 2006,
  "slogan": "—",
  "age": "16+",
  "type": "cartoon",
  "quality": "SD",
  "imdb": "6.0",
  "imdb_id": "0298337",
  "kinopoisk": "6.4",
  "kinopoisk_id": "49062",
  "world_art": null,
  "world_art_id": null,
  "time": "83 мин. / 01:23",
  "ads": true,
  "premier": "2006-04-21",
  "premier_rus": "2006-04-22",
  "availability": "2006-04-23",
  "activate_time": "2020-06-11 15:46:00",
  "budget": "NOK 100 000 000",
  "fees_use": null,
  "fees_world": "$2 270 059",
  "fees_rus": "$6 864",
  "rate_mpaa": null,
  "description": "Четверо «отвязных» рокеров - явных «отморозков» и психопатов - случайно попадают в бродячий цирк. Гвоздь цирковой программы - слон Джимми. Задача новых работничков – держать слона «под вечным кайфом» с помощью коктейля из наркотиков. Однако, слоник срывает все планы и накануне премьеры сбегает, не дождавшись «дозы». И начинается сумасшедшая гонка: проштрафившиеся парни должны нагнать Джимми, прежде, чем у того начнется «ломка» - а вы можете себе представить «ломку» у слона?! В погоню за ними увязывается целая толпа – «зеленые» активисты, охотники-маньяки из Шотландии, мечтающие украсить гостиную головой слона и, наконец, лапландская мафия – «самые мерзкие люди на всем севере». Единственное спасение Джимми – добродушный лось, который встречается ему на пути. Поможет ли сохатый Джимми избавиться от пагубного пристрастия и кучки психов?",
  "iframe_url": "",
  "iframe_poster": null,
  "poster": "https://img.imgilall.me/movies/franchise/2/2/8/6/7/0/0/0/0/0/610x900_22867.jpg",
  "country": {
    "2": "Великобритания",
    "53": "Норвегия"
  },
  "collection": {
    "18": "Про животных"
  },
  "genre": {
    "19": "Комедия"
  },
  "director": [
    "Кристофер Нилсен"
  ],
  "screenwriter": [
    "Кристофер Нилсен",
    "Саймон Пегг"
  ],
  "producer": [
    "Хакон Гундерсен",
    "Ларс Андреас Хеллебуст",
    "Энди Фрейн"
  ],
  "operator": [],
  "composer": [
    "Саймон Босуэлл"
  ],
  "design": [
    "Mikael Holmberg"
  ],
  "editor": [
    "Аластер Рейд"
  ],
  "actors": [
    "Вуди Харрельсон",
    "Саймон Пегг",
    "Фил Дэниелс",
    "Джей Симпсон",
    "Кайл МакЛоклен",
    "Саманта Мортон",
    "Джим Бродбент",
    "Эмилия Фокс",
    "Крис Маршалл",
    "Лиза Максвелл"
  ],
  "actors_dubl": [],
  "trivia": [],
  "trailers": [
    {
      "name": "трейлер №1",
      "number": 1,
      "iframe_poster": null,
      "season": null,
      "iframe_url": ""
    }
  ],
  "seasons": [],
  "voiceActing": [
    "R5",
    "А.Киреев по переводу Гоблина"
  ],
  "subtitle": [],
  "parts": []
}
