{
  "id": 22791,
  "name": "Увольнение",
  "name_eng": "Fired",
  "year": 2010,
  "slogan": "—",
  "age": null,
  "type": "film",
  "quality": "SD",
  "imdb": "4.5",
  "imdb_id": "1577050",
  "kinopoisk": null,
  "kinopoisk_id": "494816",
  "world_art": null,
  "world_art_id": null,
  "time": "87 мин. / 01:27",
  "ads": false,
  "premier": "2010-01-29",
  "premier_rus": "2010-01-30",
  "availability": "2010-01-31",
  "activate_time": "2020-06-11 12:00:00",
  "budget": null,
  "fees_use": null,
  "fees_world": null,
  "fees_rus": null,
  "rate_mpaa": null,
  "description": "Хладнокровный и безжалостный менеджер одной из самых крупных компаний в Лондоне, Джой Миттал является настоящей акулой в мире бизнеса. Он решает восстановить скандальную репутацию компании, тем самым возвысив свой статус перед партнёрами и руководством. Чтобы хоть как-то ослабить давление со стороны финансов и надвигающего экономического кризиса, он не задумываясь увольняет 121 сотрудников, включая 29-летнюю красавицу Руби, с которой у него завязался роман. Но у Джоя тоже есть свои скелеты в шкафу. Он морально неусточивый тип, который сидит на сильных лекарствах и склонен к острым приступам депрессии и агрессии. Задержавшись очередной раз поздно на работе, он решает уехать домой. Но из офиса выйти не так уж и просто...",
  "iframe_url": "",
  "iframe_poster": null,
  "poster": "https://img.imgilall.me/movies/franchise/2/2/7/9/1/0/0/0/0/0/610x900_22791.jpg",
  "country": {
    "26": "Индия"
  },
  "collection": {
    "14": "Для взрослых"
  },
  "genre": {
    "26": "Ужасы"
  },
  "director": [
    "Саджит Варриер"
  ],
  "screenwriter": [
    "Kenny Basumatary",
    "Rohit Gahlowt",
    "Шрипал Моракхиа"
  ],
  "producer": [
    "Шрипал Моракхиа",
    "Шарлотта Уонтнер",
    "Ашиш Бхатнагар"
  ],
  "operator": [
    "Jogendra Nath Panda"
  ],
  "composer": [
    "Раджу Сингх"
  ],
  "design": [
    "Дэмиен Криг",
    "Свапнил Шинде",
    "Тэмсин Кларк"
  ],
  "editor": [
    "Тим Клэйтон",
    "Хамфри Диксон",
    "Джеймс Скелтон"
  ],
  "actors": [
    "Рахул Бозе",
    "Динеш Ламба",
    "Нассар Абдулла",
    "Пол Клеркин",
    "Саша Десоуза-Уиллок",
    "Джолион Диксон",
    "Nickul Hathi",
    "Юсуф Хуссэйн",
    "Мо Идрисс",
    "Ванесса Лам"
  ],
  "actors_dubl": [],
  "trivia": [],
  "trailers": [],
  "seasons": [],
  "voiceActing": [
    "Хихикающий доктор"
  ],
  "subtitle": [],
  "parts": []
}
