{
  "id": 801,
  "name": "Полицейская академия 3: Переподготовка",
  "name_eng": "Police Academy 3: Back in Training",
  "year": 1986,
  "slogan": "«An open-and-shut case of nonstop laughter»",
  "age": "16+",
  "type": "film",
  "quality": "FHD (1080p)",
  "imdb": "5.4",
  "imdb_id": "0091777",
  "kinopoisk": "7.2",
  "kinopoisk_id": "4966",
  "world_art": null,
  "world_art_id": null,
  "time": "83 мин. / 01:23",
  "ads": false,
  "premier": "1986-03-21",
  "premier_rus": null,
  "availability": null,
  "activate_time": "2018-07-04 12:29:29",
  "budget": null,
  "fees_use": "$43 579 163",
  "fees_world": null,
  "fees_rus": null,
  "rate_mpaa": "PG",
  "description": "Правительство заявило, что только одна из двух полицейских школ может продолжать свою работу. Начинается жестокое состязание на выживание - ни одна из академий не желает закрываться, в дело идут все средства. Махони, Хайтауэр, Тэклберри, Джонс, Хукс и Кэллагэн под командованием несгибаемого коменданта Лассарда, мобилизуют для спасения своей альма-матер новую команду безнадежных рекрутов.",
  "iframe_url": "",
  "iframe_poster": null,
  "poster": "https://img.imgilall.me/movies/franchise/8/0/1/0/0/0/0/0/0/0/610x900_801.jpg",
  "country": {
    "1": "США"
  },
  "collection": {
    "21": "Для молодёжи"
  },
  "genre": {
    "25": "Криминал",
    "19": "Комедия",
    "10": "Зарубежный"
  },
  "director": [
    "Джерри Пэрис"
  ],
  "screenwriter": [
    "Джин Квинтано",
    "Нил Израэл",
    "Пэт Профт"
  ],
  "producer": [
    "Пол Масланский",
    "Дон Уэст"
  ],
  "operator": [
    "Роберт Саад"
  ],
  "composer": [
    "Роберт Фолк"
  ],
  "design": [
    "Тревор Уильямс",
    "Райли Фуллер",
    "Дэннис Девенпорт"
  ],
  "editor": [
    "Бад Молин"
  ],
  "actors": [
    "Стив Гуттенберг",
    "Бубба Смит",
    "Дэвид Граф",
    "Майкл Уинслоу",
    "Мэрион Рэмси",
    "Лесли Истербрук",
    "Арт Метрано",
    "Тим Казурински",
    "Бобкэт Голдтуэйт",
    "Джордж Гейнс"
  ],
  "actors_dubl": [
    "Сергей Чекан",
    "Дмитрий Матвеев",
    "Леонид Белозорович",
    "Владимир Конкин",
    "Ольга Голованова"
  ],
  "trivia": [
    "Этот фильм стал последним для актера Арта Метрано, сыгравшего роль Маузера. В 1989 году, в результате несчастного случая, актер больше не может ходить.",
    "Актрисе Лесли Истербрук понадобилось четыре часа на то, чтобы научиться кататься на гидроцикле для съемки финальной сцены фильма.",
    "Бубба Смит безумно боялся акул, а посему во время съемок сцены, в которой актер в воде останавливал лодку, он был напуган до смерти."
  ],
  "trailers": [
    {
      "name": "трейлер №1",
      "number": 1,
      "iframe_poster": null,
      "season": null,
      "iframe_url": ""
    }
  ],
  "seasons": [],
  "voiceActing": [
    "Рус. Дублированный",
    "Рус. Проф. многоголосый",
    "Рус. Проф. двухголосый",
    "А. Гаврилов",
    "Л. Володарский",
    "М. Иванов",
    "Eng.Original"
  ],
  "subtitle": [
    "Eng. SDH"
  ],
  "parts": [
    799,
    800,
    801,
    802,
    803,
    804,
    805
  ]
}
