{
  "id": 24633,
  "name": "27 украденных поцелуев",
  "name_eng": "27 Missing Kisses",
  "year": 2000,
  "slogan": "«A Hot Summer, A Broken Promise, A Tragic Comedy Love Story»",
  "age": "16+",
  "type": "film",
  "quality": "SD",
  "imdb": "6.7",
  "imdb_id": "0246405",
  "kinopoisk": "6.7",
  "kinopoisk_id": "49416",
  "world_art": null,
  "world_art_id": null,
  "time": "98 мин. / 01:38",
  "ads": true,
  "premier": "2000-05-11",
  "premier_rus": "2002-05-23",
  "availability": "2002-05-24",
  "activate_time": "2020-06-19 17:57:00",
  "budget": "DEM 4 300 000",
  "fees_use": null,
  "fees_world": null,
  "fees_rus": null,
  "rate_mpaa": null,
  "description": "Приезд юной Сибиллы всколыхнул сонную грузинскую деревушку, где время навсегда затерялось среди солнечных гор и прозрачных рек. Подружившись с местным парнем Мики, независимая Сибилла вскоре влюбилась в его отца, астронома Александра, интеллектуала и ловеласа.Проблема лишь в том, что Сибилле всего 14 лет, и ее не по-детски откровенные слова и поступки возмущают и шокируют обывателей. Кажется, что юная сердцеедка не найдет понимания среди своих новых знакомых, а ее любовь останется без ответа, однако ситуация в деревне неожиданно меняется, когда однажды вечером в клубе решают показать знаменитый фильм «Эммануэль»...",
  "iframe_url": "",
  "iframe_poster": null,
  "poster": "https://img.imgilall.me/movies/franchise/2/4/6/3/3/0/0/0/0/0/610x900_24633.jpg",
  "country": {
    "2": "Великобритания",
    "9": "Франция",
    "20": "Германия",
    "69": "Грузия"
  },
  "collection": {
    "36": "Романтические комедии"
  },
  "genre": {
    "19": "Комедия",
    "8": "Мелодрама",
    "7": "Драма"
  },
  "director": [
    "Нана Джорджадзе"
  ],
  "screenwriter": [
    "Нана Джорджадзе",
    "Ираклий Квирикадзе"
  ],
  "producer": [
    "Оливер Дамиан",
    "Йенс Мойрер",
    "Наталия Григорова"
  ],
  "operator": [
    "Фидон Папамайкл"
  ],
  "composer": [
    "Горан Брегович"
  ],
  "design": [
    "Важа Джалагания",
    "Теймураз Хмаладзе",
    "Ираклий Квирикадзе"
  ],
  "editor": [
    "Веселла Мартшевски"
  ],
  "actors": [
    "Нуца Кухианидзе",
    "Евгений Сидихин",
    "Шалва Иашвили",
    "Пьер Ришар",
    "Амалия Мордвинова",
    "Леван Учанейшвили",
    "Дато Гогибедашвили",
    "Элгуджа Бурдули",
    "Бая Двалишвили",
    "Хатуна Иоселиани"
  ],
  "actors_dubl": [],
  "trivia": [],
  "trailers": [],
  "seasons": [],
  "voiceActing": [
    "Рус. Проф. двухголосый"
  ],
  "subtitle": [],
  "parts": []
}
