{
  "id": 22721,
  "name": "Большая маленькая Я",
  "name_eng": "L'âge de raison",
  "year": 2010,
  "slogan": "—",
  "age": "16+",
  "type": "film",
  "quality": "SD",
  "imdb": "5.8",
  "imdb_id": "1594503",
  "kinopoisk": "6.8",
  "kinopoisk_id": "496855",
  "world_art": null,
  "world_art_id": null,
  "time": "90 мин. / 01:30",
  "ads": true,
  "premier": "2010-07-04",
  "premier_rus": "2010-07-05",
  "availability": "2010-07-06",
  "activate_time": "2020-06-11 13:35:00",
  "budget": "€8 000 000",
  "fees_use": null,
  "fees_world": null,
  "fees_rus": null,
  "rate_mpaa": null,
  "description": "Когда-то успешная бизнес-леди Марго Флор была маленькой девочкой. Кем только ей не хотелось стать в будущем: от исследователя морских глубин до покорителя иных планет. Но судьба распорядилась иначе: теперь Марго заключает сделки на миллионы евро, ее жизнь расписана по минутам на ближайшие полгода и даже со своим любимым, англичанином Малькольмом, она встречается в спокойной обстановке не чаще раза в месяц. И вот однажды пожилой нотариус Фернан Мериньяк приносит ей письмо, начинающееся словами: «Дорогая Я, мне сейчас семь лет и я пишу это письмо, чтобы ты не забыла обещания, которые дала себе, и помнила, кем хочешь быть…»",
  "iframe_url": "",
  "iframe_poster": null,
  "poster": "https://img.imgilall.me/movies/franchise/2/2/7/2/1/0/0/0/0/0/610x900_22721.jpg",
  "country": {
    "9": "Франция",
    "29": "Бельгия"
  },
  "collection": {
    "71": "Про путешествия"
  },
  "genre": {
    "19": "Комедия",
    "8": "Мелодрама"
  },
  "director": [
    "Ян Самюэль"
  ],
  "screenwriter": [
    "Ян Самюэль"
  ],
  "producer": [
    "Бенедикт Беллок",
    "Кристоф Россиньон",
    "Филипп Боэффард"
  ],
  "operator": [
    "Антуан Рош"
  ],
  "composer": [
    "Сирилль Офорт"
  ],
  "design": [
    "Жан-Мишель Симонет",
    "Фанни Друен"
  ],
  "editor": [
    "Андреа Седлачкова"
  ],
  "actors": [
    "Софи Марсо",
    "Мартон Чокаш",
    "Мишель Дюшоссуа",
    "Жонатан Заккаи",
    "Эммануэль Грёнвольд",
    "Жюльетт Шаппи",
    "Тьерри Ансисс",
    "Дебора Марике",
    "Ромео Лебо",
    "Джарод Легран"
  ],
  "actors_dubl": [],
  "trivia": [],
  "trailers": [],
  "seasons": [],
  "voiceActing": [
    "Рус. Проф. двухголосый"
  ],
  "subtitle": [],
  "parts": []
}
