{
  "id": 1017,
  "name": "Другие",
  "name_eng": "The Others",
  "year": 2001,
  "slogan": "«Рано или поздно они найдут тебя...»",
  "age": "16+",
  "type": "film",
  "quality": "FHD (1080p)",
  "imdb": "7.6",
  "imdb_id": "0230600",
  "kinopoisk": "7.9",
  "kinopoisk_id": "494",
  "world_art": null,
  "world_art_id": null,
  "time": "101 мин. / 01:41",
  "ads": false,
  "premier": "2001-08-02",
  "premier_rus": "2001-12-27",
  "availability": null,
  "activate_time": "2018-07-05 16:53:29",
  "budget": "$17 000 000",
  "fees_use": "$96 522 687",
  "fees_world": "+ $113 424 350 = $209 947 037",
  "fees_rus": null,
  "rate_mpaa": "PG-13",
  "description": "Грейс прячет своих детей в уединенном особняке на острове, где семейство дожидается окончания Второй мировой войны. Войны, с которой должен вернуться муж Грейс.Её дочь и сын страдают странным заболеванием, они не выносят прямого дневного света. Когда в доме появляются трое новых слуг, им приходится соблюдать правила: все комнаты всегда должны быть в полумраке, и нельзя открывать дверь, пока не заперта предыдущая. Но мерному течению жизни дома вскоре приходит конец - некая потусторонняя сущность пытается нарушить заведённый порядок.",
  "iframe_url": "",
  "iframe_poster": null,
  "poster": "https://img.imgilall.me/movies/franchise/1/0/1/7/0/0/0/0/0/0/610x900_1017.jpg",
  "country": {
    "1": "США",
    "3": "Испания",
    "8": "Италия",
    "9": "Франция"
  },
  "collection": {
    "45": "Фильмы на Хэллоуин"
  },
  "genre": {
    "26": "Ужасы",
    "24": "Детектив",
    "13": "Триллер",
    "10": "Зарубежный",
    "7": "Драма"
  },
  "director": [
    "Алехандро Аменабар"
  ],
  "screenwriter": [
    "Алехандро Аменабар"
  ],
  "producer": [
    "Фернандо Бовайра",
    "Хосе Луис Куэрда",
    "Пак Сон-мин"
  ],
  "operator": [
    "Хавьер Агирресаробе"
  ],
  "composer": [
    "Алехандро Аменабар"
  ],
  "design": [
    "Бенхамин Фернандес",
    "Соня Гранде",
    "Эмилио Ардура"
  ],
  "editor": [
    "Начо Руис Капильяс"
  ],
  "actors": [
    "Николь Кидман",
    "Финола Флэнаган",
    "Кристофер Экклстон",
    "Алакина Манн",
    "Джеймс Бентли",
    "Эрик Сайкс",
    "Элейн Кэссиди",
    "Рене Эшерсон",
    "Гордон Рид",
    "Кит Аллен"
  ],
  "actors_dubl": [
    "Анжелика Неволина",
    "Елена Терновая",
    "Станислав Концевич",
    "Анатолий Азо",
    "Алексей Гурьев"
  ],
  "trivia": [
    "Режиссировать фильм Алехандро Аменабар специально был приглашён актёром и продюсером Томом Крузом.",
    "Версия начала фильма, показываемого в американских кинотеатрах, немного длиннее, чем версия, попавшая на DVD. По словам создателей, фильм был незначительно урезан, так как многое в начале намекало на сюжет развязки картины.",
    "Съёмки фильма проходили в период с 30 сентября 2000 по 5 декабря 2000 года в окрестностях Мадрида. Кроме того частично съёмки проходили на Лонг-Айленде в Нью-Йорке и особняке Palacio De Los Hornillos в городе Сантандер на севере Испании, который использовали в качестве экстерьера особняка Грейс.",
    "Австралийская музыкальная группа Elora Danan написала песню о фильме и назвала её «Thank God For Their Growth In Faith And Love» — такая надпись видна на доске в последней сцене фильма. Песня вошла в дебютный альбом «We All Have Secrets».",
    "Группа Venetian Snares использовала семпл из фильма в песне «Children’s Limbo», вошедшей в альбом «Find Candace».",
    "Болезнь, которой страдают дети, действительно существует, хотя она очень редкая — лишь около тысячи людей в мире болеют ею. Её название «ксеродерма».",
    "Фильм стал последним совместным проектом Круза и Кидман. В неделю выхода фильма в прокат их бракоразводный процесс был официально закончен.",
    "Алехандро Аменабар написал сценарий на испанском языке, а затем перевёл его на английский.",
    "На момент выхода фильм стал самым кассовым в Испании за всю историю проката.",
    "Фильм начинается со слов Николь Кидман, чей голос доносится из-за кадра: «Устроились удобно? Тогда я начну…» («…are you sitting comfortably? Then I’ll begin.»). Этими же словами начиналась британская радио-передача BBC «Listen With Mother», выходившая в эфир с 1950 по 1982 год.",
    "Призрачное изображение позади Грейс в одной из сцен на самом деле портрет Эдуардо Норьеги. Причём это часть картины 1855 года «The Wounded Cavalier» английского художника Уильяма Шекспира Бёртона.",
    "Фильм стал первой испанской картиной, номинировавшейся на «Премию Гойя», в которой все диалоги произносятся на английском.",
    "Алакина Манн и Джеймс Бентли получили свои роли после длительного кастинга, который прошли более 5 тысяч детей.",
    "Кидман просила Аменабара и братьев Боба и Харви Вайнштейн найти другую актрису на роль Грейс, так как после работы над ярким «Мулен Руж» (2001) ей было трудно приступить к съёмкам столь мрачной картины.",
    "В фильме «Другие» у режиссера картины Алехандро Аменабара очень любопытное камео — его можно увидеть на одной из фотографий в «книге мертвых».",
    "Также в фотосессии «покойников» присутствует Матео Хиль, сценарист предыдущей ленты Аменабара «Открой глаза» (1997)."
  ],
  "trailers": [],
  "seasons": [],
  "voiceActing": [
    "Рус. Дублированный",
    "Рус. Проф. многоголосый",
    "А. Гаврилов",
    "Ю. Живов",
    "Eng.Original"
  ],
  "subtitle": [
    "Рус. полные"
  ],
  "parts": []
}
