{
  "id": 762,
  "name": "Гонка на вымирание",
  "name_eng": "Racing Extinction",
  "year": 2015,
  "slogan": "«Winning is the only option»",
  "age": "16+",
  "type": "film",
  "quality": "HD (720p)",
  "imdb": "8.2",
  "imdb_id": "1618448",
  "kinopoisk": "8.2",
  "kinopoisk_id": "502270",
  "world_art": null,
  "world_art_id": null,
  "time": "90 мин. / 01:30",
  "ads": false,
  "premier": "2015-01-24",
  "premier_rus": "2015-12-02",
  "availability": null,
  "activate_time": "2018-07-04 10:50:28",
  "budget": null,
  "fees_use": null,
  "fees_world": null,
  "fees_rus": null,
  "rate_mpaa": null,
  "description": "Группа энергичных и неравнодушных активистов поставила перед собой цель пролить свет на две основные угрозы живой природе на Земле. Первая исходит от международной торговли животными и растениями и всевозможных лже-лекарств и тоников, которые производятся в ущерб фауне и потом продаются, ставя под угрозу существование целых видов живых существ, населяющих нашу планету вот уже миллионы лет. Вторая – скрытые выбросы углекислого газа, смертельные для живых организмов.",
  "iframe_url": "",
  "iframe_poster": null,
  "poster": "https://img.imgilall.me/movies/franchise/7/6/2/0/0/0/0/0/0/0/610x900_762.jpg",
  "country": {
    "12": "Гонконг",
    "17": "Мексика",
    "1": "США",
    "2": "Великобритания",
    "19": "Китай",
    "40": "Индонезия"
  },
  "collection": [],
  "genre": {
    "9": "Приключения",
    "54": "Документальный",
    "17": "Боевик",
    "13": "Триллер",
    "10": "Зарубежный"
  },
  "director": [
    "Луи Сахойос"
  ],
  "screenwriter": [
    "Марк Монро"
  ],
  "producer": [
    "Оливия Анеманн",
    "Фишер Стивенс",
    "Джоди Аллен"
  ],
  "operator": [
    "Джон Беренс",
    "Шон Хайнрихс",
    "Шон Кирби"
  ],
  "composer": [
    "Джошуа Ральф"
  ],
  "design": [],
  "editor": [
    "Джеффри Ричман",
    "Лиман Смит",
    "Джейсон Зелдс"
  ],
  "actors": [
    "Луи Сахойос",
    "Хезер Доун Ралли",
    "Christopher W. Clark",
    "Кирк Джонсон",
    "Ади Джил",
    "Шон Хайнрихс",
    "Пол Хилтон",
    "Чарльз Хэмблетон",
    "David Doubilet",
    "Jerry Greenberg"
  ],
  "actors_dubl": [],
  "trivia": [],
  "trailers": [],
  "seasons": [],
  "voiceActing": [
    "Рус. Проф. многоголосый",
    "Eng.Original"
  ],
  "subtitle": [
    "Eng. full"
  ],
  "parts": []
}
