{
  "id": 2339,
  "name": "Скуби-Ду",
  "name_eng": "Scooby-Doo",
  "year": 2002,
  "slogan": "«И появится герой... четвероногий»",
  "age": "12+",
  "type": "film",
  "quality": "FHD (1080p)",
  "imdb": "5.1",
  "imdb_id": "0267913",
  "kinopoisk": "5.9",
  "kinopoisk_id": "5091",
  "world_art": null,
  "world_art_id": null,
  "time": "86 мин. / 01:26",
  "ads": false,
  "premier": "2002-06-08",
  "premier_rus": "2002-08-15",
  "availability": "2002-08-16",
  "activate_time": "2018-09-14 14:57:02",
  "budget": "$84 000 000",
  "fees_use": "$153 294 164",
  "fees_world": "$275 650 703",
  "fees_rus": "$721 980",
  "rate_mpaa": "PG",
  "description": "Два года спустя после того, как Тайная корпорация распалась из-за возникших противоречий Скуби-Ду и его сообразительных приятелей, раскрывших не одно преступление, Фреда, Дафну, Шэгги и Велму, поодиночке вызывают на Зловещий остров, чтобы они начали расследование серии паранормальных явлений, происходящих в Спринг-Брейк.Опасаясь, что его невероятно популярный курорт на самом деле может быть населен привидениями, владелец Зловещего острова Эмиль Мондавариус пытается воссоединить легендарных детективов, чтобы те разрешили загадку, пока сверхъестественная тайна не распугала всех отдыхающих студентов.Скуби-Ду и его команде придется преодолеть личные разногласия и по-новому взглянуть на мнимых вампиров и нереальных привидений. И все это, чтобы распутать дело, спасти самих себя, а возможно… и весь мир…",
  "iframe_url": "",
  "iframe_poster": null,
  "poster": "https://img.imgilall.me/movies/franchise/2/3/3/9/0/0/0/0/0/0/610x900_2339.jpg",
  "country": {
    "1": "США",
    "4": "Австралия"
  },
  "collection": {
    "22": "Про призраков"
  },
  "genre": {
    "9": "Приключения",
    "36": "Мистический",
    "24": "Детектив",
    "19": "Комедия",
    "10": "Зарубежный"
  },
  "director": [
    "Раджа Госнелл"
  ],
  "screenwriter": [
    "Джеймс Ганн",
    "Крэйг Титли",
    "Уильям Ханна"
  ],
  "producer": [
    "Чарльз Ровен",
    "Ричард Сакл",
    "Джозеф Барбера"
  ],
  "operator": [
    "Дэвид Эггби"
  ],
  "composer": [
    "Дэвид Ньюман"
  ],
  "design": [
    "Билл Боэ",
    "Билл Бут",
    "Донна Браун"
  ],
  "editor": [
    "Кент Бейда"
  ],
  "actors": [
    "Фредди Принц мл.",
    "Сара Мишель Геллар",
    "Мэттью Лиллард",
    "Линда Карделлини",
    "Роуэн Эткинсон",
    "Айла Фишер",
    "Мигель А. Нуньес мл.",
    "Стивен Грайвз",
    "Чарльз Стэн Фрэзиер",
    "Крэйг Баллок"
  ],
  "actors_dubl": [
    "Андрей Градов",
    "Ольга Голованова",
    "Андрей Бархударов",
    "Нина Тобилевич",
    "Алексей Золотницкий"
  ],
  "trivia": [
    "Мэттью Лиллард долго и громко кричал, чтобы голос охрип до состояния, когда можно будет озвучивать Норвилла Шэгги Роджерса. Когда это не помогло, он просто заговорил голосом, уставшим от долгого крика.",
    "Скраппи говорит голосом Скотта Иннеса, который озвучивал Скуби-Ду и Шэгги во многих экранизациях, начиная с анимационных комедий Джима Стенструма «Скуби-Ду на острове Мертвецов» (1998) и «Скуби-Ду и призрак ведьмы» (1999)."
  ],
  "trailers": [
    {
      "name": "трейлер №1",
      "number": 1,
      "iframe_poster": null,
      "season": null,
      "iframe_url": ""
    }
  ],
  "seasons": [],
  "voiceActing": [
    "Рус. Дублированный",
    "Eng.Original"
  ],
  "subtitle": [
    "Eng. full"
  ],
  "parts": [
    2333,
    2332,
    13651,
    2349,
    2326,
    2327,
    2325,
    2350,
    9650,
    2334,
    2335,
    2345,
    5979,
    11997,
    2323,
    11923,
    15817,
    11851,
    2339,
    2336,
    2340,
    2435,
    2347,
    2342,
    2346,
    9336,
    11850,
    11924,
    2348,
    2337,
    2343,
    2331,
    2341,
    11925,
    9338,
    2328,
    9339,
    2329,
    2324
  ]
}
