{
  "id": 21279,
  "name": "Вход в никуда",
  "name_eng": "Enter Nowhere",
  "year": 2011,
  "slogan": "«Welcome to our nightmare!»",
  "age": null,
  "type": "film",
  "quality": "FHD (1080p)",
  "imdb": "6.5",
  "imdb_id": "1631707",
  "kinopoisk": "6.8",
  "kinopoisk_id": "506369",
  "world_art": null,
  "world_art_id": null,
  "time": "90 мин. / 01:30",
  "ads": false,
  "premier": "2011-10-22",
  "premier_rus": "2011-10-23",
  "availability": "2011-10-24",
  "activate_time": "2020-06-01 18:53:00",
  "budget": "$500 000",
  "fees_use": null,
  "fees_world": null,
  "fees_rus": null,
  "rate_mpaa": "R",
  "description": "В центре сюжета фильма - несколько человек, оказавшихся волей случая в безлюдном сверхъестественном лесу. Мистические обстоятельства приводят героев в пустующую сторожку, где их судьбы переплетаются самым жестоким образом.",
  "iframe_url": "",
  "iframe_poster": null,
  "poster": "https://img.imgilall.me/movies/franchise/2/1/2/7/9/0/0/0/0/0/610x900_21279.jpg",
  "country": {
    "1": "США"
  },
  "collection": [],
  "genre": {
    "11": "Фантастика",
    "24": "Детектив",
    "13": "Триллер"
  },
  "director": [
    "Джек Хеллер"
  ],
  "screenwriter": [
    "Шон Кристенсен",
    "Джейсон Долан"
  ],
  "producer": [
    "Джек Хеллер",
    "Даллас Зонньер",
    "Шон Кристенсен"
  ],
  "operator": [
    "Том Хартинг"
  ],
  "composer": [
    "Даррен Морзе"
  ],
  "design": [
    "Марина Олбрайт"
  ],
  "editor": [
    "Майкл Спиритус"
  ],
  "actors": [
    "Кэтрин Уотерстон",
    "Скотт Иствуд",
    "Сара Пэкстон",
    "Шон Сайпос",
    "Кристофер Денэм",
    "Джесси Перез",
    "Лей Лезарк",
    "Вик Финалборго"
  ],
  "actors_dubl": [],
  "trivia": [
    "Скотт Иствуд (Том) приходится сыном Клинту Иствуду, Кэтрин Уотерстон (Сэм) – дочерью Сэму Уотерстону, а Сара Пэкстон (Джоди) – дальней родственницей Биллу Пэкстону.",
    "Когда Том разжигает огонь в камине, на газете видна дата — 21 ноября 2011 года."
  ],
  "trailers": [],
  "seasons": [],
  "voiceActing": [
    "Рус. Люб. многоголосый",
    "Eng.Original"
  ],
  "subtitle": [
    "Eng. forced"
  ],
  "parts": []
}
