{
  "id": 8504,
  "name": "Загадочное убийство / Убийство на яхте",
  "name_eng": "Murder Mystery",
  "year": 2019,
  "slogan": "«First class problems. Second class detectives»",
  "age": "16+",
  "type": "film",
  "quality": "FHD (1080p)",
  "imdb": "6.0",
  "imdb_id": "1618434",
  "kinopoisk": "6.3",
  "kinopoisk_id": "505995",
  "world_art": null,
  "world_art_id": null,
  "time": "97 мин. / 01:37",
  "ads": false,
  "premier": "2019-06-14",
  "premier_rus": null,
  "availability": null,
  "activate_time": "2019-05-09 16:34:03",
  "budget": null,
  "fees_use": null,
  "fees_world": null,
  "fees_rus": null,
  "rate_mpaa": "PG-13",
  "description": "После 15 лет брака американская супружеская пара Ник и Одри Шпиц, полицейский и парикмахерша, наконец-то отправляется в отпуск в Европу. В самолёте супруга умудряется познакомиться с английским аристократом, и тот приглашает их с мужем провести время на яхте дяди — известного миллиардера. Супруги Шпиц оказываются в высшем обществе в окружении невиданной роскоши, когда вдруг престарелого главу семейства убивают при загадочных обстоятельствах. Мотивы есть у всех присутствующих, но французский детектив решает, что главные подозреваемые — американцы, при этом большая любительница детективов Одри видит в этой ситуации главное приключение своей жизни.",
  "iframe_url": "",
  "iframe_poster": null,
  "poster": "https://img.imgilall.me/movies/franchise/8/5/0/4/0/0/0/0/0/0/610x900_8504.jpg",
  "country": {
    "1": "США"
  },
  "collection": [],
  "genre": {
    "25": "Криминал",
    "24": "Детектив",
    "19": "Комедия",
    "17": "Боевик",
    "10": "Зарубежный",
    "8": "Мелодрама",
    "7": "Драма"
  },
  "director": [
    "Кайл Ньюачек"
  ],
  "screenwriter": [
    "Джеймс Вандербилт"
  ],
  "producer": [
    "Аллен Коверт",
    "Адам Сэндлер",
    "Джеймс Д. Штерн"
  ],
  "operator": [
    "Амир М. Мокри"
  ],
  "composer": [
    "Руперт Грегсон-Уильямс"
  ],
  "design": [
    "Перри Энделин Блейк",
    "Лаура Бони",
    "Rocco Ceraolo"
  ],
  "editor": [
    "Том Костэйн"
  ],
  "actors": [
    "Адам Сэндлер",
    "Дженнифер Энистон",
    "Люк Эванс",
    "Теренс Стэмп",
    "Джемма Артертон",
    "Дэвид Уоллиамс",
    "Дэни Бун",
    "Джон Кани",
    "Адиль Ахтар",
    "Оулавюр Дарри Оулафссон"
  ],
  "actors_dubl": [
    "Пётр Иващенко",
    "Людмила Шувалова",
    "Сергей Смирнов",
    "Владимир Левашёв",
    "Наталья Грачёва"
  ],
  "trivia": [],
  "trailers": [
    {
      "name": "трейлер №1",
      "number": 1,
      "iframe_poster": "https://img.imgilall.me/movies/trailer/6/0/1/0/0/0/0/0/0/0/800x450_601.jpeg",
      "season": null,
      "iframe_url": ""
    },
    {
      "name": "трейлер №1",
      "number": 1,
      "iframe_poster": "https://img.imgilall.me/movies/trailer/5/4/5/0/0/0/0/0/0/0/800x450_545.jpeg",
      "season": null,
      "iframe_url": ""
    }
  ],
  "seasons": [],
  "voiceActing": [
    "Пифагор",
    "Eng.Original"
  ],
  "subtitle": [
    "Рус. форсированные"
  ],
  "parts": []
}
