{
  "id": 12443,
  "name": "Элвин и бурундуки 3",
  "name_eng": "Alvin and the Chipmunks: Chipwrecked",
  "year": 2011,
  "slogan": "«Полундра!»",
  "age": "0+",
  "type": "film",
  "quality": "FHD (1080p)",
  "imdb": "4.3",
  "imdb_id": "1615918",
  "kinopoisk": "5.3",
  "kinopoisk_id": "502036",
  "world_art": null,
  "world_art_id": null,
  "time": "84 мин. / 01:24",
  "ads": false,
  "premier": "2011-12-14",
  "premier_rus": "2011-12-29",
  "availability": null,
  "activate_time": "2019-11-14 10:06:00",
  "budget": "$75 000 000",
  "fees_use": "$133 110 742",
  "fees_world": "+ $209 584 693 = $342 695 435",
  "fees_rus": "$6 901 871",
  "rate_mpaa": "G",
  "description": "Приключения троицы непоседливых братьев-бурундуков продолжаются! Элвин, Саймон и Теодор, а также их подруги бурундушки, просто не могут оставаться в стороне от различного рода неприятностей, сулящих им новые увлекательные приключения. Что на этот раз уготовила судьба нашим героям, и как они выпутаются из очередной передряги — вот в чём вопрос.",
  "iframe_url": "",
  "iframe_poster": null,
  "poster": "https://img.imgilall.me/movies/franchise/1/2/4/4/3/0/0/0/0/0/610x900_12443.jpg",
  "country": {
    "1": "США"
  },
  "collection": [],
  "genre": {
    "9": "Приключения",
    "6": "Фэнтези",
    "33": "Семейный",
    "19": "Комедия"
  },
  "director": [
    "Майк Митчелл"
  ],
  "screenwriter": [
    "Джонатан Айбел",
    "Гленн Бергер",
    "Росс Багдасарян"
  ],
  "producer": [
    "Дженис Карман",
    "Росс Багдасарян мл.",
    "Нил А. Мачлиз"
  ],
  "operator": [
    "Томас Э. Экермен"
  ],
  "composer": [
    "Марк Мазерсбо"
  ],
  "design": [
    "Ричард Холлэнд",
    "Дон Макколей",
    "Александра Уэлкер"
  ],
  "editor": [
    "Питер Амундсон"
  ],
  "actors": [
    "Джейсон Ли",
    "Дэвид Кросс",
    "Дженни Слейт",
    "Джастин Лонг",
    "Мэттью Грей Гублер",
    "Джесси МакКартни",
    "Эми Полер",
    "Анна Фэрис",
    "Кристина Эпплгейт",
    "Алан Тьюдик"
  ],
  "actors_dubl": [
    "Сергей Бурунов",
    "Никита Прозоровский",
    "Татьяна Шитова",
    "Вероника Саркисова",
    "Владимир Антоник"
  ],
  "trivia": [
    "Животное, которое называют медоедом, на самом деле — сурикат. Ни те, ни другие в южной части Тихого океана не водятся."
  ],
  "trailers": [],
  "seasons": [],
  "voiceActing": [
    "Рус. Дублированный",
    "Укр. Дубльований",
    "Eng.Original"
  ],
  "subtitle": [
    "Рус. полные"
  ],
  "parts": []
}
