{
  "id": 12564,
  "name": "Заражение",
  "name_eng": "Contagion",
  "year": 2011,
  "slogan": "«Скоро мир будет инфицирован»",
  "age": "12+",
  "type": "film",
  "quality": "FHD (1080p)",
  "imdb": "6.7",
  "imdb_id": "1598778",
  "kinopoisk": "6.5",
  "kinopoisk_id": "501821",
  "world_art": null,
  "world_art_id": null,
  "time": "106 мин. / 01:46",
  "ads": false,
  "premier": "2011-09-03",
  "premier_rus": "2011-10-13",
  "availability": "2011-10-14",
  "activate_time": "2019-11-22 17:41:00",
  "budget": "$60 000 000",
  "fees_use": "$75 658 097",
  "fees_world": "+ $60 857 770 = $136 515 867",
  "fees_rus": "$3 791 868",
  "rate_mpaa": "PG-13",
  "description": "Международная организация врачей совместно с Центром по контролю и профилактике заболеваний США пытается помешать распространению смертельного вируса.",
  "iframe_url": "",
  "iframe_poster": null,
  "poster": "https://img.imgilall.me/movies/franchise/1/2/5/6/4/0/0/0/0/0/610x900_12564.jpg",
  "country": {
    "39": "ОАЭ",
    "1": "США"
  },
  "collection": [],
  "genre": {
    "13": "Триллер",
    "7": "Драма"
  },
  "director": [
    "Стивен Содерберг"
  ],
  "screenwriter": [
    "Скотт З. Бёрнс"
  ],
  "producer": [
    "Грегори Джейкобс",
    "Майкл Шамберг",
    "Стейси Шер"
  ],
  "operator": [
    "Стивен Содерберг"
  ],
  "composer": [
    "Клифф Мартинес"
  ],
  "design": [
    "Ховард Каммингс",
    "Абделла Баадиль",
    "Саймон Доббин"
  ],
  "editor": [
    "Стивен Миррионе"
  ],
  "actors": [
    "Мэтт Дэймон",
    "Лоренс Фишбёрн",
    "Джуд Лоу",
    "Кейт Уинслет",
    "Марион Котийяр",
    "Гвинет Пэлтроу",
    "Брайан Крэнстон",
    "Дженнифер Эль",
    "Санаа Лэтэн",
    "Эллиотт Гулд"
  ],
  "actors_dubl": [
    "Борис Шувалов",
    "Алексей Рязанцев",
    "Василий Дахненко",
    "Марианна Шульц",
    "Рамиля Искандер"
  ],
  "trivia": [
    "В качестве рекламной акции канадское отделение кинокомпании «Warner Bros. Pictures» заказало две огромные чашки Петри и установило их в витрине торгового центра в Торонто. За несколько дней бактерии и грибки в них выросли и образовали название фильма и знаки биологической опасности.",
    "Консультант фильма доктор Йен Липкин, профессор эпидемиологии из Школы управления здравоохранения им. Мейлмана при Колумбийском университете, заявил, что описанный в фильме вирус напоминает вирус Нипах, который был впервые выявлен в Малайзии в конце 1990-х годов во время вспышки заболевания среди фермеров-свиноводов.",
    "Все эпизоды с участием Кейт Уинслет были сняты за 10 дней.",
    "Это первый фильм после «Талантливого мистера Рипли» (1999), в котором вместе сыграли Гвинет Пэлтроу, Мэтт Дэймон и Джуд Лоу. Ни в одной сцене Лоу не появляется в кадре вместе с Пэлтроу или Дэймоном, тогда как Пэлтроу и Дэймон проводят вместе не больше минуты экранного времени за весь фильм.",
    "После фильма «Информатор!» (2009) Стивен Содерберг и Скотт Бёрнс намеревались снять биографическую ленту о неоднозначном немецком кинорежиссёре Лени Рифеншталь, однако Содерберг отказался от этой идеи, осознав, насколько ограниченной будет его аудитория. После этого Содерберг и Бёрнс решили сделать драму о вызовах, с которыми сталкивается мировая система здравоохранения.",
    "В творческом коллективе фильма очень много актёров, которые были номинированы или даже получили премию «Оскар». Это Марион Котийяр (награда за лучшую женскую роль в фильме «Жизнь в розовом цвете» в 2008 году), Мэтт Дэймон (лучший сценарий за фильм «Умница Уилл Хантинг» в 1998 году), Лоренс Фишбёрн (номинация в категории «лучший актёр» за работу в фильме «На что способна любовь» в 1994 году), Эллиотт Гулд (номинация в категории «лучший актёр» в работу в фильме «Боб и Кэрол, Тэд и Элис» в 1970 году), Джон Хоукс (номинация в категории «лучший актёр» в фильме «Зимняя кость» в 2011 году), Джуд Лоу (номинирован дважды), Гвинет Пэлтроу (премия за лучшую женскую роль в фильме «Влюблённый Шекспир» в 1999 году) и Кейт Уинслет (награда за лучшую женскую роль в фильме «Чтец» в 2009 году).",
    "Лорен Васкес работает за столом Бенни Евангелиста, репортёра газеты San Francisco Chronicle. Евангелиста известен тем, что на его рабочем столе вечно царит страшный бардак, и авторы фильма решили так его и запечатлеть.",
    "Это второй фильм 2011 года, где вместе сыграли Дженнифер Или и Мэтт Дэймон. Первым был научно-фантастический триллер «Меняющие реальность».",
    "Роль Бет Эмхофф планировалось предложить Дженнифер Коннелли.",
    "Это первый фильм Стивена Содерберга, выпущенный в формате IMAX.",
    "Йон Нил, с которым Бет в исполнении Гвинет Пэлтроу разговаривает по телефону из аэропорта, говорит голосом Стивена Содерберга.",
    "Консультант Йен Липкин настоял на повторной съёмке сцены, в которой доктор Элли Хекстолл делает себе экспериментальную прививку. Вначале актриса Дженнифер Или сделала себе укол прямо через одежду."
  ],
  "trailers": [
    {
      "name": "трейлер №1",
      "number": 1,
      "iframe_poster": null,
      "season": null,
      "iframe_url": ""
    }
  ],
  "seasons": [],
  "voiceActing": [
    "Рус. Дублированный",
    "Eng.Original"
  ],
  "subtitle": [
    "rus"
  ],
  "parts": []
}
