{
  "id": 3062,
  "name": "Сумерки. Сага. Рассвет: Часть 2",
  "name_eng": "The Twilight Saga: Breaking Dawn - Part 2",
  "year": 2012,
  "slogan": "«Грандиозный финал бессмертной саги»",
  "age": "12+",
  "type": "film",
  "quality": "FHD (1080p)",
  "imdb": "5.5",
  "imdb_id": "1673434",
  "kinopoisk": "6.6",
  "kinopoisk_id": "527662",
  "world_art": null,
  "world_art_id": null,
  "time": "115 мин. / 01:55",
  "ads": false,
  "premier": "2012-11-12",
  "premier_rus": "2012-11-15",
  "availability": null,
  "activate_time": "2018-10-30 12:54:32",
  "budget": "$120 000 000",
  "fees_use": "$292 324 737",
  "fees_world": "$829 746 820",
  "fees_rus": "$42 816 364",
  "rate_mpaa": "PG-13",
  "description": "Белла, став вампиром, постепенно свыкается со своей новой природой. В этом ей помогают Эдвард и остальные члены семьи Калленов. К тому же теперь у Беллы есть дочь Ренесми и вечность впереди. Джейкоб, запечатленный с Ренесми, становится для девочки другом и наставником. Ненадолго для героев наступают спокойные, счастливые дни.Все заканчивается, когда вести о Ренесми доходят до Вольтури. «Обращение» детей строго запрещено в мире вампиров. Не зная о необычном происхождении Ренесми, Вольтури собирают армию и направляются в Форкс, чтобы уничтожить Калленов.",
  "iframe_url": "",
  "iframe_poster": null,
  "poster": "https://img.imgilall.me/movies/franchise/3/0/6/2/0/0/0/0/0/0/610x900_3062.jpg",
  "country": {
    "1": "США"
  },
  "collection": {
    "17": "Про вампиров",
    "54": "Про оборотней"
  },
  "genre": {
    "9": "Приключения",
    "6": "Фэнтези",
    "13": "Триллер",
    "10": "Зарубежный",
    "8": "Мелодрама",
    "7": "Драма"
  },
  "director": [
    "Билл Кондон"
  ],
  "screenwriter": [
    "Мелисса Розенберг",
    "Стефани Майер"
  ],
  "producer": [
    "Вик Годфри",
    "Стефани Майер",
    "Карен Розенфельт"
  ],
  "operator": [
    "Гильермо Наварро"
  ],
  "composer": [
    "Картер Бёруэлл"
  ],
  "design": [
    "Ричард Шерман",
    "Лорин Флемминг",
    "Нэйт Фреденбург"
  ],
  "editor": [
    "Вирджиния Кац",
    "Йен Слэйтер"
  ],
  "actors": [
    "Кристен Стюарт",
    "Роберт Паттинсон",
    "Тэйлор Лотнер",
    "Питер Фачинелли",
    "Элизабет Ризер",
    "Эшли Грин",
    "Джексон Рэтбоун",
    "Келлан Латс",
    "Никки Рид",
    "Билли Бёрк"
  ],
  "actors_dubl": [
    "Наталья Фищук",
    "Александр Гаврилин",
    "Илья Хвостиков",
    "Василий Дахненко",
    "Василиса Воронина"
  ],
  "trivia": [
    "Фильм снят по мотивам романа Стефани Майер «Рассвет» (Breaking Dawn, 2008) из серии романов «Сумерки».",
    "Фильм снимался одновременно с «Сумерки. Сага. Рассвет: Часть 1» (2011). Съемки фильма начались 1 ноября 2010 года и завершились 15 апреля 2011-го. Они проходили в таких местах, как Батон-Руж (Луизиана) и Рио-де-Жанейро (Бразилия), а также в Ванкувере (Канада).",
    "Во время съемок были использованы как аниматронный ребенок, так и настоящие трехнедельные младенцы. Кристен Стюарт предпочла работать с настоящими детьми, потому что чувствовала, что они помогают ей лучше исполнять свою роль.",
    "Во время съемок обеих частей фильма у Маккензи Фой была банка обещаний, в которую другие актеры клали ей деньги, если выражались нецензурно в ее присутствии. Эту банку ей сделал Билл Кондон, а все собранные средства были пожертвованы в детскую больницу святого Иуды."
  ],
  "trailers": [],
  "seasons": [],
  "voiceActing": [
    "Рус. Дублированный",
    "Укр. Дубльований",
    "Eng.Original"
  ],
  "subtitle": [
    "Рус. полные"
  ],
  "parts": [
    3058,
    3059,
    3060,
    3061,
    3062
  ]
}
