{
  "id": 25110,
  "name": "Шоппинг",
  "name_eng": "Shopping",
  "year": 1994,
  "slogan": "«Crash & Carry»",
  "age": "16+",
  "type": "film",
  "quality": "HD (720p)",
  "imdb": "5.4",
  "imdb_id": "0111173",
  "kinopoisk": "6.0",
  "kinopoisk_id": "5225",
  "world_art": null,
  "world_art_id": null,
  "time": "105 мин. / 01:45",
  "ads": false,
  "premier": "1994-06-24",
  "premier_rus": "1994-06-25",
  "availability": "1994-06-26",
  "activate_time": "2020-06-23 13:25:00",
  "budget": null,
  "fees_use": "$3 061",
  "fees_world": null,
  "fees_rus": null,
  "rate_mpaa": "R",
  "description": "Билли и его подруга Джо очень любят «шоппинг», правда, немного необычный. Они угоняют дорогие автомобили и на полном ходу врезаются в витрины магазинов. Билли нравится эта опасная и безумная жизнь с повышенным уровнем адреналина в крови.И никто не заставит его отступить – ни банда его главного конкурента Томми, ни местный криминальный авторитет Веннинг. Билли готов бросить вызов всем. Ставки растут, и залитые неоном городские улицы становятся полем жестокой и беспощадной битвы…",
  "iframe_url": "",
  "iframe_poster": null,
  "poster": "https://img.imgilall.me/movies/franchise/2/5/1/1/0/0/0/0/0/0/610x900_25110.jpg",
  "country": {
    "2": "Великобритания",
    "18": "Япония"
  },
  "collection": {
    "57": "Про мафию, банды",
    "21": "Для молодёжи"
  },
  "genre": {
    "25": "Криминал",
    "17": "Боевик",
    "13": "Триллер",
    "7": "Драма"
  },
  "director": [
    "Пол У. С. Андерсон"
  ],
  "screenwriter": [
    "Пол У. С. Андерсон"
  ],
  "producer": [
    "Джереми Болт",
    "Лори Борг"
  ],
  "operator": [
    "Тони Айми"
  ],
  "composer": [
    "Баррингтон Фелунг"
  ],
  "design": [
    "Макс Готтлиб",
    "Крис Таунсенд",
    "Ховард Бюрден"
  ],
  "editor": [
    "Дэвид Стивен"
  ],
  "actors": [
    "Сэди Фрост",
    "Джуд Лоу",
    "Шон Пертуи",
    "Фрайзер Джеймс",
    "Шон Бин",
    "Марианна Фэйтфулл",
    "Джонатан Прайс",
    "Дэниэл Ньюман",
    "Ли Уитлок",
    "Ралф Айнесон"
  ],
  "actors_dubl": [],
  "trivia": [
    "На съёмках Джуд Лоу познакомился с своей будущей женой Сэди Фрост, которая играла Джо, подругу его героя Билли."
  ],
  "trailers": [],
  "seasons": [],
  "voiceActing": [
    "Diva Universal"
  ],
  "subtitle": [],
  "parts": []
}
