{
  "id": 48456,
  "name": "Петровка, 38. Команда Семенова",
  "name_eng": "",
  "year": 2008,
  "slogan": "—",
  "age": "16+",
  "type": "series",
  "quality": "SD",
  "imdb": null,
  "imdb_id": null,
  "kinopoisk": "5.7",
  "kinopoisk_id": "532878",
  "world_art": null,
  "world_art_id": null,
  "time": "48 мин",
  "ads": false,
  "premier": "2009-12-05",
  "premier_rus": "2009-12-06",
  "availability": "2009-12-07",
  "serial_status": "offline",
  "activate_time": "2021-07-02 17:15:00",
  "budget": null,
  "fees_use": null,
  "fees_world": null,
  "fees_rus": null,
  "rate_mpaa": null,
  "description": "На Петровке, 38 сформирован отдел, занимающийся расследованием особо важных и социально значимых преступлений, характеризующих сегодняшнее время….",
  "iframe_url": "",
  "poster": "https://img.imgilall.me/movies/franchise/4/8/4/5/6/0/0/0/0/0/610x900_48456.jpg",
  "country": {
    "5": "Россия"
  },
  "collection": [],
  "genre": {
    "25": "Криминал",
    "24": "Детектив"
  },
  "director": [
    "Станислав Довжик",
    "Павел Сафонов",
    "Олег Сафаралиев"
  ],
  "screenwriter": [
    "Анна Рудницкая",
    "Вера Шер",
    "Светлана Цивинская"
  ],
  "producer": [
    "Андрей Резник",
    "Александр Акопов",
    "Наталия Шнейдерова"
  ],
  "operator": [
    "Сергей Политик",
    "Виталий Абрамов",
    "Максим Максимов"
  ],
  "composer": [
    "Антон Шварц",
    "Сергей Григорьев",
    "Илья Ефимов"
  ],
  "design": [
    "Александр Кудрявов"
  ],
  "editor": [],
  "actors": [
    "Владислав Галкин",
    "Илья Любимов",
    "Елена Подкаминская",
    "Мария Леонова",
    "Дарья Повереннова",
    "Анна Апрельская",
    "Мария Хижняк",
    "Ирина Цывина",
    "Александр Числов",
    "Ольга Моховая"
  ],
  "actors_dubl": [],
  "trivia": [],
  "trailers": [],
  "seasons": [
    {
      "poster": null,
      "release_ru": null,
      "release_world": null,
      "availability": null,
      "iframe_url": "",
      "season": 1,
      "episodes": [
        {
          "episode": 1,
          "name": null,
          "iframe_url": "",
          "iframe_poster": null,
          "release_ru": null,
          "release_world": null,
          "availability": null,
          "voiceActing": [
            "Рус. Оригинальный"
          ],
          "ads": false,
          "subtitle": []
        },
        {
          "episode": 2,
          "name": null,
          "iframe_url": "",
          "iframe_poster": null,
          "release_ru": null,
          "release_world": null,
          "availability": null,
          "voiceActing": [
            "Рус. Оригинальный"
          ],
          "ads": false,
          "subtitle": []
        },
        {
          "episode": 3,
          "name": null,
          "iframe_url": "",
          "iframe_poster": null,
          "release_ru": null,
          "release_world": null,
          "availability": null,
          "voiceActing": [
            "Рус. Оригинальный"
          ],
          "ads": false,
          "subtitle": []
        },
        {
          "episode": 4,
          "name": null,
          "iframe_url": "",
          "iframe_poster": null,
          "release_ru": null,
          "release_world": null,
          "availability": null,
          "voiceActing": [
            "Рус. Оригинальный"
          ],
          "ads": false,
          "subtitle": []
        },
        {
          "episode": 5,
          "name": null,
          "iframe_url": "",
          "iframe_poster": null,
          "release_ru": null,
          "release_world": null,
          "availability": null,
          "voiceActing": [
            "Рус. Оригинальный"
          ],
          "ads": false,
          "subtitle": []
        },
        {
          "episode": 6,
          "name": null,
          "iframe_url": "",
          "iframe_poster": null,
          "release_ru": null,
          "release_world": null,
          "availability": null,
          "voiceActing": [
            "Рус. Оригинальный"
          ],
          "ads": false,
          "subtitle": []
        }
      ]
    }
  ],
  "voiceActing": [
    "Рус. Оригинальный"
  ],
  "subtitle": [],
  "parts": []
}
