{
  "id": 28294,
  "name": "Завещание",
  "name_eng": "Testament",
  "year": 1983,
  "slogan": "«It happened in an instant. The televisions went blank, the radios - silent. The cities were gone, the future abandoned. And the only thing they have left to hold onto, is the people they love»",
  "age": "18+",
  "type": "film",
  "quality": "HD (720p)",
  "imdb": "7.0",
  "imdb_id": "0086429",
  "kinopoisk": "5.8",
  "kinopoisk_id": "5446",
  "world_art": null,
  "world_art_id": null,
  "time": "90 мин. / 01:30",
  "ads": false,
  "premier": "1983-11-04",
  "premier_rus": "1983-11-05",
  "availability": "1983-11-06",
  "activate_time": "2020-06-27 13:24:00",
  "budget": null,
  "fees_use": "$2 044 892",
  "fees_world": null,
  "fees_rus": null,
  "rate_mpaa": "PG",
  "description": "Основанная на журнальной статье Кэрол Эймен «Последнее завещание», картина описывает обычное, тихое сообщество в маленьком калифорнийском городке Хэмлин. Спокойствие городка потревожено, когда по телевизору в новостях объявляют, что ядерные бомбы взорвались в Нью-Йорке и на Восточном побережье, и экран внезапно желтеет и изображение стирается, что означает взрывы на Западном побережье. Местный радио оператор Хенри Эбхарт становится единственным средством связи с внешним миром.",
  "iframe_url": "",
  "iframe_poster": null,
  "poster": "https://img.imgilall.me/movies/franchise/2/8/2/9/4/0/0/0/0/0/610x900_28294.jpg",
  "country": {
    "1": "США"
  },
  "collection": [],
  "genre": {
    "7": "Драма"
  },
  "director": [
    "Линн Литман"
  ],
  "screenwriter": [
    "Джон Сейкрет Янг",
    "Кэрол Амен"
  ],
  "producer": [
    "Джонатан Бернштейн",
    "Линн Литман",
    "Андреа Азимов"
  ],
  "operator": [
    "Стивен Б. Постер"
  ],
  "composer": [
    "Джеймс Хорнер"
  ],
  "design": [
    "Дэвид Николс",
    "Линда Перл",
    "Джули Уайсс"
  ],
  "editor": [
    "Сюзанн Петтит"
  ],
  "actors": [
    "Джейн Александр",
    "Уильям Дивэйн",
    "Росси Харрис",
    "Роксана Зэл",
    "Лукас Хаас",
    "Филип Энглим",
    "Лилия Скала",
    "Леон Эймс",
    "Лёрин Таттл",
    "Ребекка Де Морнэй"
  ],
  "actors_dubl": [],
  "trivia": [],
  "trailers": [],
  "seasons": [],
  "voiceActing": [
    "Рус. Проф. многоголосый"
  ],
  "subtitle": [],
  "parts": []
}
