{
  "id": 31763,
  "name": "Железный смерч",
  "name_eng": "Metal Tornado",
  "year": 2011,
  "slogan": "«Этого не ждал никто»",
  "age": "12+",
  "type": "film",
  "quality": "SD",
  "imdb": "3.2",
  "imdb_id": "0",
  "kinopoisk": "3.7",
  "kinopoisk_id": "549630",
  "world_art": null,
  "world_art_id": null,
  "time": "83 мин. / 01:23",
  "ads": false,
  "premier": "2011-07-22",
  "premier_rus": "2011-07-23",
  "availability": "2011-07-24",
  "activate_time": "2020-07-14 07:53:00",
  "budget": null,
  "fees_use": null,
  "fees_world": null,
  "fees_rus": null,
  "rate_mpaa": "PG",
  "description": "В результате чудовищной вспышки на Солнце, «Гелиос» — новая экспериментальная установка по получению энергии дает сбой, и излишки солнечной плазмы образуют магнитный вихрь невероятной силы. Железный смерч начинает двигаться в сторону Филадельфии, поглощая все металлическое на своем пути и неся гибель всему живому. Астрофизики Майкл Эдвардс и Ребекка Адлер пытаются понять природу смерча и предупредить руководство эксперимента о смертельной опасности...",
  "iframe_url": "",
  "iframe_poster": null,
  "poster": "https://img.imgilall.me/movies/franchise/3/1/7/6/3/0/0/0/0/0/610x900_31763.jpg",
  "country": {
    "7": "Канада"
  },
  "collection": [],
  "genre": {
    "11": "Фантастика"
  },
  "director": [
    "Гордон Янг"
  ],
  "screenwriter": [
    "Джейсон Бурк",
    "Эндрю С. Эрин",
    "Трэвис Стивенс"
  ],
  "producer": [
    "Кертис Кроуфорд",
    "Стефан Водославски",
    "Жози Бернард"
  ],
  "operator": [
    "Билл Ст. Джон"
  ],
  "composer": [
    "Ричард Бауэрс"
  ],
  "design": [
    "Цаба Андраш Кертес",
    "Эндрю Тейт"
  ],
  "editor": [
    "Мари Лу Жингра"
  ],
  "actors": [
    "Лу Даймонд Филлипс",
    "Николь де Бур",
    "Грег Эвиган",
    "Стивен МакДональд",
    "Джон МакЛарен",
    "Синтия Бурк",
    "Софи Гендрон",
    "Фрэнк Скорпион",
    "Алексис Мейтленд",
    "Роб Стюарт"
  ],
  "actors_dubl": [],
  "trivia": [],
  "trailers": [],
  "seasons": [],
  "voiceActing": [
    "Diva Universal"
  ],
  "subtitle": [],
  "parts": []
}
