{
  "id": 24937,
  "name": "Молодой Карл Маркс",
  "name_eng": "Le jeune Karl Marx",
  "year": 2017,
  "slogan": "—",
  "age": null,
  "type": "film",
  "quality": "HD (720p)",
  "imdb": "6.6",
  "imdb_id": "1699518",
  "kinopoisk": "6.5",
  "kinopoisk_id": "557897",
  "world_art": null,
  "world_art_id": null,
  "time": "118 мин. / 01:58",
  "ads": false,
  "premier": "2017-02-12",
  "premier_rus": "2017-02-13",
  "availability": "2017-02-14",
  "activate_time": "2020-06-22 12:33:00",
  "budget": "€9 500 000",
  "fees_use": "$125 659",
  "fees_world": null,
  "fees_rus": null,
  "rate_mpaa": null,
  "description": "Марксу всего 26 лет, он живет в изгнании в Париже и по горло в долгах. Знакомство с Фридрихом Энгельсом сделает его одним из величайших мировых философов.",
  "iframe_url": "",
  "iframe_poster": null,
  "poster": "https://img.imgilall.me/movies/franchise/2/4/9/3/7/0/0/0/0/0/610x900_24937.jpg",
  "country": {
    "9": "Франция",
    "20": "Германия",
    "29": "Бельгия"
  },
  "collection": [],
  "genre": {
    "28": "Исторический",
    "27": "Биографический",
    "7": "Драма"
  },
  "director": [
    "Рауль Пек"
  ],
  "screenwriter": [
    "Паскаль Боницер",
    "Рауль Пек",
    "Бертина Хенрикс"
  ],
  "producer": [
    "Николас Бланк",
    "Rémi Grellety",
    "Робер Гедигян"
  ],
  "operator": [
    "Коля Брандт"
  ],
  "composer": [
    "Алексей Айги"
  ],
  "design": [
    "Бенуа Бару",
    "Кристоф Кузон",
    "Мерлин Ортнер"
  ],
  "editor": [
    "Фредерик Броос"
  ],
  "actors": [
    "Аугуст Диль",
    "Штефан Конарске",
    "Вики Крипс",
    "Оливье Гурме",
    "Ханна Стил",
    "Александр Шеер",
    "Ханс-Уве Бауэр",
    "Михаэль Бранднер",
    "Иван Франек",
    "Питер Бенедикт"
  ],
  "actors_dubl": [],
  "trivia": [],
  "trailers": [],
  "seasons": [],
  "voiceActing": [
    "Рус. Люб. многоголосый"
  ],
  "subtitle": [],
  "parts": []
}
