{
  "id": 1091,
  "name": "Хозяин морей: На краю Земли",
  "name_eng": "Master and Commander: The Far Side of the World",
  "year": 2003,
  "slogan": "«The Courage To Do The Impossible Lies In The Hearts of Men»",
  "age": "12+",
  "type": "film",
  "quality": "FHD (1080p)",
  "imdb": "7.4",
  "imdb_id": "0311113",
  "kinopoisk": "7.6",
  "kinopoisk_id": "5565",
  "world_art": null,
  "world_art_id": null,
  "time": "138 мин. / 02:18",
  "ads": false,
  "premier": "2003-11-14",
  "premier_rus": "2003-11-27",
  "availability": null,
  "activate_time": "2018-07-06 15:01:49",
  "budget": "$150 000 000",
  "fees_use": "$93 927 920",
  "fees_world": "+ $116 400 000 = $210 327 920",
  "fees_rus": "$3 010 000",
  "rate_mpaa": "PG-13",
  "description": "Время Наполеоновских войн. Военный парусник Ее Величества «Сюрприз», бороздящий просторы Атлантики, был неожиданно атакован огромным неизвестным кораблем, появившимся из тумана. Благодаря смелости и находчивости команды «Сюрпризу» удается уйти от смерти. Несмотря на тяжелые повреждения и потери, капитан Джек Обри по прозвищу Счастливчик принимает решение преследовать врага и устремляется в погоню, которая уведет его на край света.",
  "iframe_url": "",
  "iframe_poster": null,
  "poster": "https://img.imgilall.me/movies/franchise/1/0/9/1/0/0/0/0/0/0/610x900_1091.jpg",
  "country": {
    "1": "США"
  },
  "collection": {
    "33": "Экранизация книг",
    "14": "Для взрослых"
  },
  "genre": {
    "9": "Приключения",
    "32": "Военный",
    "17": "Боевик",
    "10": "Зарубежный",
    "7": "Драма"
  },
  "director": [
    "Питер Уир"
  ],
  "screenwriter": [
    "Питер Уир",
    "Джон Колли",
    "Патрик О’Брайан"
  ],
  "producer": [
    "Сэмюэл Голдуин мл.",
    "Дункан Хендерсон",
    "Питер Уир"
  ],
  "operator": [
    "Рассел Бойд"
  ],
  "composer": [
    "Айва Дэвис",
    "Кристофер Гордон",
    "Ричард Тоньетти"
  ],
  "design": [
    "Уильям Сэнделл",
    "Брюс Кроун",
    "Марк В. Мэнсбридж"
  ],
  "editor": [
    "Ли Смит"
  ],
  "actors": [
    "Рассел Кроу",
    "Пол Беттани",
    "Джеймс Д’Арси",
    "Эдвард Вудалл",
    "Крис Ларкин",
    "Макс Пиркис",
    "Джек Рэндалл",
    "Макс Бениц",
    "Ли Инглби",
    "Ричард Пейтс"
  ],
  "actors_dubl": [
    "Станислав Концевич",
    "Андрей Ургант",
    "Олег Куликович",
    "Андрей Лёвин",
    "Евгений Иванов"
  ],
  "trivia": [
    "Фильм снят по мотивам серии романов Патрика О’Брайана о капитане Джеке Обри и докторе Стивене Мэтьюрине (1970-2004).",
    "Для того чтобы актеры, играющие членов команды корабля, сильнее сплотились, Рассел Кроу организовывал регулярные игры в регби.",
    "На роль доктора Мэтьюрина рассматривался Рэйф Файнс.",
    "В процессе производства картины, использовалось примерно 2000 костюмов.",
    "Съемочный процесс составил около 100 дней на студии Байя в Мексике, и только 10 дней в море.",
    "Рассел Кроу самостоятельно исполнил большую часть игры на скрипке. Позже, он признался, что обучение стало самым сложным, что он когда-либо делал для фильма.",
    "Для исследования своей роли Пол Беттани отправился в Королевский колледж хирургов в Лондоне, чтобы обучиться использованию хирургических инструментов 18-го столетия.",
    "В соответствии с письмом Обри к своей любимой, действие картины происходит в 1805 году.",
    "В русском переводе книги корабль Джека Обри называется «Сюрприз». Между фильмом и книгами достаточно много различий.",
    "На съемках фильма «Хозяин морей: На краю Земли» постоянно присутствовали консультанты-историки, которые помогали съемочной группе и консультировали по важным историческим событиям.",
    "Для того чтобы участвовать в этом проекте, Рассел Кроу на время отказался от работы в фильме «Нокдаун». Затем он все-таки вернулся в проект, но там уже успел смениться режиссер.",
    "Первый в истории фильм, который снимался на Галапагосских островах.",
    "Для съемок фильма использовалось два корабля, один из которых — «Роза» — был точной копией фрегата «Внезапный». Второй корабль был точной копией «Розы», он стоял в декорациях на киностудии в Мексике."
  ],
  "trailers": [],
  "seasons": [],
  "voiceActing": [
    "Рус. Дублированный",
    "Рус. Проф. многоголосый",
    "Eng.Original"
  ],
  "subtitle": [
    "Рус. полные"
  ],
  "parts": []
}
