{
  "id": 3543,
  "name": "Волшебные часы Олинцеро",
  "name_eng": "Olentzero and Present Giving Time",
  "year": 2008,
  "slogan": null,
  "age": "0+",
  "type": "cartoon",
  "quality": "SD",
  "imdb": null,
  "imdb_id": "2380107",
  "kinopoisk": null,
  "kinopoisk_id": "566506",
  "world_art": null,
  "world_art_id": null,
  "time": "78 мин. / 01:18",
  "ads": false,
  "premier": "2008-12-02",
  "premier_rus": null,
  "availability": null,
  "activate_time": "2018-11-15 12:33:59",
  "budget": null,
  "fees_use": null,
  "fees_world": null,
  "fees_rus": null,
  "rate_mpaa": null,
  "description": "Небольшой самолет попадает в авиакатастрофу в глухих, заброшенных местах. На счастье, неподалеку от дома Олинцеро, старого угольщика, который сотню лет наполняет мешки подарками к рождеству для всех детей. Обнаружив в самолете бесчувственное тело незнакомца, которого сопровождала маленькая обезьянка, угольщик решил перевезти пилота в поселок и оказать ему помощь. Однако впоследствии выясняется, что спасенный незнакомец – это опасный грабитель банковских сейфов. К тому же, у Олинцеро пропадают его волшебные часы, без которых невозможно подготовить рождественские подарки детям. Смогут ли Олинцеро и его друзья вернуть волшебные часы и подарить детям рождественскую сказку?",
  "iframe_url": "",
  "iframe_poster": "https://img.imgilall.me/movies/video/3/4/2/6/4/0/0/0/0/0/800x450_34264.jpeg",
  "poster": "https://img.imgilall.me/movies/franchise/3/5/4/3/0/0/0/0/0/0/610x900_3543.jpg",
  "country": {
    "3": "Испания"
  },
  "collection": [],
  "genre": {
    "6": "Фэнтези",
    "37": "Детский"
  },
  "director": [
    "Горка Сесма"
  ],
  "screenwriter": [
    "Сегундо Альтолагирре"
  ],
  "producer": [
    "Эдуардо Баринага",
    "Кармело Виванко",
    "Мигель Гомес-Техедор"
  ],
  "operator": [],
  "composer": [
    "Хосе Рамон Гутьеррес"
  ],
  "design": [],
  "editor": [],
  "actors": [],
  "actors_dubl": [],
  "trivia": [],
  "trailers": [],
  "seasons": [],
  "voiceActing": [
    "Рус. Проф. многоголосый",
    "Spanish Original"
  ],
  "subtitle": [],
  "parts": []
}
