{
  "id": 46427,
  "name": "Молочные телята",
  "name_eng": "Longhorns",
  "year": 2011,
  "slogan": "«Beers, Steers...and a few Queers»",
  "age": "18+",
  "type": "film",
  "quality": "HD (720p)",
  "imdb": "5.4",
  "imdb_id": "569814",
  "kinopoisk": "6.1",
  "kinopoisk_id": "569814",
  "world_art": null,
  "world_art_id": null,
  "time": "75 мин. / 01:15",
  "ads": false,
  "premier": "2011-06-25",
  "premier_rus": "2011-06-26",
  "availability": "2011-06-27",
  "activate_time": "2021-05-15 05:56:00",
  "budget": null,
  "fees_use": null,
  "fees_world": null,
  "fees_rus": null,
  "rate_mpaa": null,
  "description": "Пиво, быки... и несколько молодых парней. Восьмидесятые шумно наступают в этой рискованной и сексуальной комедии, рассказывающей о группе парней из студенческого братства Техаса, поселившихся в захолустном доме с кучей пива, чтобы придать новое значение выражению «оседлай их ковбой»...",
  "iframe_url": "",
  "iframe_poster": null,
  "poster": "https://img.imgilall.me/movies/franchise/4/6/4/2/7/0/0/0/0/0/610x900_46427.jpg",
  "country": {
    "1": "США"
  },
  "collection": [],
  "genre": {
    "19": "Комедия",
    "8": "Мелодрама",
    "7": "Драма"
  },
  "director": [
    "Дэвид Льюис"
  ],
  "screenwriter": [
    "Дэвид Льюис"
  ],
  "producer": [
    "Х.П. Мендоса",
    "Льюис Тайс",
    "Steven Chiem"
  ],
  "operator": [
    "Фрейзер Брэдшоу"
  ],
  "composer": [
    "Х.П. Мендоса"
  ],
  "design": [
    "Кори Вайнштейн"
  ],
  "editor": [
    "Х.П. Мендоса"
  ],
  "actors": [
    "Джейкоб Ньютон",
    "Дерек Эфрен Вильянуэва",
    "Дилан Вокс",
    "Кевин Хелд",
    "Стивен Мацке",
    "Бонни Мэрион",
    "Катрина Шервуд",
    "Софи Ревелли",
    "Чак Коннорс"
  ],
  "actors_dubl": [],
  "trivia": [],
  "trailers": [],
  "seasons": [],
  "voiceActing": [
    "Рус. Люб. многоголосый"
  ],
  "subtitle": [],
  "parts": []
}
