{
  "id": 31754,
  "name": "Штирия",
  "name_eng": "Styria",
  "year": 2014,
  "slogan": "«Love requires sacrifice»",
  "age": null,
  "type": "film",
  "quality": "HD (720p)",
  "imdb": "5.6",
  "imdb_id": "0",
  "kinopoisk": "5.0",
  "kinopoisk_id": "572097",
  "world_art": null,
  "world_art_id": null,
  "time": "99 мин. / 01:39",
  "ads": false,
  "premier": "2014-08-21",
  "premier_rus": "2014-08-22",
  "availability": "2014-08-23",
  "activate_time": "2020-07-14 06:58:00",
  "budget": "$3 000 000",
  "fees_use": null,
  "fees_world": null,
  "fees_rus": null,
  "rate_mpaa": null,
  "description": "1989 год. Лару исключают из школы, и её отец, доктор Хилл, вынужден взять дочь с собой в экспедицию в Венгрию восстанавливать фрески полуразрушенного замка Карнштейн. Там Лара знакомится с девушкой Кармиллой, они вместе бродят по развалинам замка и окрестным лесами и весело проводят время. Тем временем таинственные силы просыпаются в замке и одолевают его обитателей.",
  "iframe_url": "",
  "iframe_poster": null,
  "poster": "https://img.imgilall.me/movies/franchise/3/1/7/5/4/0/0/0/0/0/610x900_31754.jpg",
  "country": {
    "32": "Венгрия"
  },
  "collection": [],
  "genre": {
    "26": "Ужасы",
    "6": "Фэнтези",
    "24": "Детектив",
    "13": "Триллер"
  },
  "director": [
    "Маурицио Черновецкий",
    "Марк Девендорф"
  ],
  "screenwriter": [
    "Карл Бардош",
    "Маурицио Черновецкий",
    "Марк Девендорф"
  ],
  "producer": [
    "Маурицио Черновецкий",
    "Марк Девендорф",
    "Ильдико Кемень"
  ],
  "operator": [
    "Grzegorz Bartoszewicz"
  ],
  "composer": [
    "Марселло Де Франчиши"
  ],
  "design": [
    "Джим Дау",
    "Ian Dow",
    "Колос Шиллинг"
  ],
  "editor": [
    "Марк Девендорф"
  ],
  "actors": [
    "Элинор Томлинсон",
    "Стивен Ри",
    "Джулз Уиллкокс",
    "Эрика Марожан",
    "Кэти Силверман",
    "Миклош Б. Секей",
    "Юлия Петруха",
    "Яцек Ленартович",
    "Герда Пикали",
    "Ласло Кадар"
  ],
  "actors_dubl": [],
  "trivia": [],
  "trailers": [],
  "seasons": [],
  "voiceActing": [
    "JoyStudio"
  ],
  "subtitle": [],
  "parts": []
}
