{
  "id": 28667,
  "name": "Слон и моська",
  "name_eng": "",
  "year": 2010,
  "slogan": "—",
  "age": "16+",
  "type": "film",
  "quality": "SD",
  "imdb": null,
  "imdb_id": null,
  "kinopoisk": "6.2",
  "kinopoisk_id": "575982",
  "world_art": null,
  "world_art_id": null,
  "time": "80 мин. / 01:20",
  "ads": false,
  "premier": "2011-01-09",
  "premier_rus": "2011-01-10",
  "availability": "2011-01-11",
  "activate_time": "2020-07-15 05:59:00",
  "budget": null,
  "fees_use": null,
  "fees_world": null,
  "fees_rus": null,
  "rate_mpaa": null,
  "description": "Андрей — бывший капитан РУБОПа, три командировки в Чечню. Сейчас работает охранником в элитном клубе. Один воспитывает 17-ти летнюю дочь. Случайная встреча на берегу реки со Светланой пробудила в его душе новые, уже забытые ощущения.",
  "iframe_url": "",
  "iframe_poster": null,
  "poster": "https://img.imgilall.me/movies/franchise/2/8/6/6/7/0/0/0/0/0/610x900_28667.jpg",
  "country": {
    "5": "Россия"
  },
  "collection": [],
  "genre": {
    "8": "Мелодрама"
  },
  "director": [
    "Павел Игнатов"
  ],
  "screenwriter": [
    "Павел Игнатов"
  ],
  "producer": [],
  "operator": [],
  "composer": [],
  "design": [
    "Лилия Иксарь"
  ],
  "editor": [],
  "actors": [
    "Татьяна Черкасова",
    "Александр Робак",
    "Мария Звонарева",
    "Евгений Мундум",
    "Дарья Хорошилова",
    "Александр Макогон",
    "Максим Лагашкин",
    "Екатерина Стулова",
    "Дмитрий Лавров",
    "Сергей Чирков"
  ],
  "actors_dubl": [],
  "trivia": [],
  "trailers": [],
  "seasons": [],
  "voiceActing": [
    "Original"
  ],
  "subtitle": [],
  "parts": []
}
