{
  "id": 194,
  "name": "Пираты Карибского моря: Мертвецы не рассказывают сказки",
  "name_eng": "Pirates of the Caribbean: Dead Men Tell No Tales",
  "year": 2017,
  "slogan": "«All pirates must die»",
  "age": "16+",
  "type": "film",
  "quality": "FHD (1080p)",
  "imdb": "6.5",
  "imdb_id": "1790809",
  "kinopoisk": "6.6",
  "kinopoisk_id": "575180",
  "world_art": null,
  "world_art_id": null,
  "time": "129 мин. / 02:09",
  "ads": false,
  "premier": "2017-05-11",
  "premier_rus": "2017-05-25",
  "availability": null,
  "activate_time": "2018-06-06 11:10:25",
  "budget": "$230 000 000",
  "fees_use": "$172 558 876",
  "fees_world": "$794 861 794",
  "fees_rus": "$40 541 653",
  "rate_mpaa": "PG-13",
  "description": "Исчерпавший свою удачу капитан Джек Воробей обнаруживает, что за ним охотится его старый неприятель, ужасный капитан Салазар и его мертвецы. Они только что сбежали из Дьявольского треугольника и намерены уничтожить всех пиратов, включая Джека. Поможет спастись лишь могущественный артефакт — трезубец Посейдона, который дарует своему обладателю полный контроль над морями.",
  "iframe_url": "",
  "iframe_poster": null,
  "poster": "https://img.imgilall.me/movies/franchise/1/9/4/0/0/0/0/0/0/0/610x900_194.jpg",
  "country": {
    "1": "США"
  },
  "collection": {
    "88": "Про острова",
    "37": "Disney"
  },
  "genre": {
    "9": "Приключения",
    "6": "Фэнтези",
    "41": "Блокбастер",
    "19": "Комедия",
    "17": "Боевик",
    "10": "Зарубежный"
  },
  "director": [
    "Хоаким Роннинг",
    "Эспен Сандберг"
  ],
  "screenwriter": [
    "Джефф Натансон",
    "Терри Россио",
    "Тед Эллиот"
  ],
  "producer": [
    "Джерри Брукхаймер",
    "Джозеф М. Карачиоло мл.",
    "Чад Оман"
  ],
  "operator": [
    "Пол Кэмерон"
  ],
  "composer": [
    "Джеф Дзанелли"
  ],
  "design": [
    "Найджел Фелпс",
    "Джон Декстер",
    "Йен Грейси"
  ],
  "editor": [
    "Роджер Бартон",
    "Ли Фолсом"
  ],
  "actors": [
    "Джонни Депп",
    "Хавьер Бардем",
    "Джеффри Раш",
    "Брентон Туэйтс",
    "Кая Скоделарио",
    "Кевин МакНэлли",
    "Голшифте Фарахани",
    "Дэвид Уэнэм",
    "Стивен Грэм",
    "Энгус Барнетт"
  ],
  "actors_dubl": [
    "Александр Баргман",
    "Артур Ваха",
    "Валентин Морозов",
    "Егор Лесников",
    "Василиса Ручимская"
  ],
  "trivia": [
    "На роль режиссёра фильма рассматривались кандидатуры Фредрика Бонда, Тима Бёртона, Альфонсо Куарона, Шона Леви, Сэма Рэйми, Руперта Сандерса и Криса Вайца.",
    "На роль Генри рассматривались кандидатуры Энсела Эльгорта, Брентона Туэйтса, Тэрона Эджертона, Джорджа МакКэя и Сэма Кили. Выбор в конце концов пал на Туэйтеса.",
    "Во время съёмок в Австралии Джонни Депп повредил руку и был вынужден вернуться в США.",
    "Шорт-лист на роль главной героини фильма включал в себя Люси Бойнтон, Габриэллу Уайлд, Дженну Тиам, Каю Скоделарио и Александру Доулинг. Когда на роль Генри отобрали Брентона Туэйтеса, студия организовала его кинопробы с актрисами из шорт-листа. В результате было решено, что на роль возлюбленной этого персонажа лучше всего подходит Скоделарио.",
    "По продолжительности эта часть самая короткая из всей серии.",
    "Кристоф Вальц вёл переговоры о выступлении в качестве главного антагониста фильма, но в итоге отказался.",
    "Двое детей режиссёра Хоакима Роннинга появляются в фильме в качестве массовки.",
    "Съемки начались 17 февраля 2015 года. Судовые сцены были сняты перед гигантским наружным хромакеем в Хеленсвейле. Съемки фильма переехали в Парк Дуг Дженнингс с 30 марта по 15 июня 2015 года для водных сцен. Тем не менее, из-за сильной морской болезни среди актеров и съемочной группы, киносъемки переехали в Raby Bay для более спокойных водных сцен. Сцены были сняты в Lennox Head 1 июня. Сцены с изображением скелета кашалота были сняты в Хэйстингс Пойнт с 21 по 23 июня.",
    "В некоторых странах, включая англоязычные, фильм вышел под названием «Пираты Карибского моря: Месть Салазара».",
    "Съёмочные площадки пытались оградить от присутствия поклонников франшизы, поэтому всем интересующимся говорили, что здесь снимают фильм «Гершель»."
  ],
  "trailers": [],
  "seasons": [],
  "voiceActing": [
    "Рус. Дублированный",
    "Eng.Original"
  ],
  "subtitle": [
    "Рус. форсированные"
  ],
  "parts": [
    194,
    321,
    322,
    323,
    324
  ]
}
