{
  "id": 3053,
  "name": "МакХер",
  "name_eng": "McDick",
  "year": 2017,
  "slogan": "",
  "age": "16+",
  "type": "film",
  "quality": "HD (720p)",
  "imdb": "4.1",
  "imdb_id": "1781777",
  "kinopoisk": null,
  "kinopoisk_id": "580966",
  "world_art": null,
  "world_art_id": null,
  "time": "90 мин. / 01:30",
  "ads": true,
  "premier": "2017-10-07",
  "premier_rus": "2017-10-08",
  "availability": "2017-10-09",
  "activate_time": "2018-10-30 09:18:10",
  "budget": "",
  "fees_use": "",
  "fees_world": "",
  "fees_rus": "",
  "rate_mpaa": "",
  "description": "Если вы захотите представить самого худшего в мире полицейского, то посмотрите на МакХера, настоящего неудачника, испытывающего искренний страх перед малейшей опасностью и теряющего сознание при виде оружия, направленного на него. Нелепый офицер - предмет для постоянных насмешек коллег и негодования женщин, за которыми он частенько подглядывает. В итоге, из-за очередного провала МакХера увольняют, и он решает осуществить свою давнюю мечту - открыть детективное агентство. Волею случая, он становится мишенью практически для всех преступников города. Теперь мужчине придётся перебороть собственную лень, нерасторопность и неспособность к слежке, чтобы спасти свою жизнь.",
  "iframe_url": "",
  "iframe_poster": "https://img.imgilall.me/movies/video/2/8/2/4/3/0/0/0/0/0/800x450_28243.jpeg",
  "poster": "https://img.imgilall.me/movies/franchise/3/0/5/3/0/0/0/0/0/0/610x900_3053.jpg",
  "country": {
    "1": "США"
  },
  "collection": {
    "62": "Про полицию"
  },
  "genre": {
    "19": "Комедия",
    "10": "Зарубежный"
  },
  "director": [
    "Крис МакДоннел"
  ],
  "screenwriter": [
    "Крис МакДоннел",
    "Michael McDonnell"
  ],
  "producer": [
    "Дэвид Бьянчи",
    "Патч МакКензи",
    "Крис МакДоннел"
  ],
  "operator": [
    "Скотт Бердсли"
  ],
  "composer": [
    "Randall Marsh"
  ],
  "design": [
    "Кит Гарви"
  ],
  "editor": [
    "Stonegarden Grindlife",
    "Крис МакДоннел"
  ],
  "actors": [
    "Крис МакДоннел",
    "Мо Коллинз",
    "Питер Брейтмайер",
    "Дэнни Трехо",
    "Аманда Конлон",
    "Санджай Малхотра",
    "Brandon Motherway",
    "Zachary Wobensmith",
    "Эмили Лоб",
    "Casey Webb"
  ],
  "actors_dubl": [],
  "trivia": [],
  "trailers": [],
  "seasons": [],
  "voiceActing": [
    "Рус. Люб. многоголосый"
  ],
  "subtitle": [],
  "parts": []
}
