{
  "id": 50316,
  "name": "Отсчет утопленников",
  "name_eng": "Drowning by Numbers",
  "year": 1988,
  "slogan": "«The great death game»",
  "age": "18+",
  "type": "film",
  "quality": "FHD (1080p)",
  "imdb": "7.2",
  "imdb_id": "0092929",
  "kinopoisk": "7.5",
  "kinopoisk_id": "5824",
  "world_art": null,
  "world_art_id": null,
  "time": "118 мин. / 01:58",
  "ads": false,
  "premier": "1988-09-10",
  "premier_rus": "1988-09-11",
  "availability": "1988-09-12",
  "activate_time": "2021-09-05 21:36:00",
  "budget": null,
  "fees_use": "$424 773",
  "fees_world": null,
  "fees_rus": null,
  "rate_mpaa": "R",
  "description": "Три женщины с одинаковым именем Сисси Колпиттс решили утопить надоевших им мужей. Они отлично знают, что все сойдет им с рук. Влюбленный во всех троих судебно-медицинский эксперт охотно выпишет им свидетельства о смерти в результате несчастного случая.Но, связанный обещанием молчать, он оказывается в «глубокой луже», когда на поверхность начинают «всплывать» свидетели убийств...",
  "iframe_url": "",
  "iframe_poster": null,
  "poster": "https://img.imgilall.me/movies/franchise/5/0/3/1/6/0/0/0/0/0/610x900_50316.jpg",
  "country": {
    "31": "Нидерланды",
    "2": "Великобритания"
  },
  "collection": [],
  "genre": {
    "19": "Комедия",
    "7": "Драма"
  },
  "director": [
    "Питер Гринуэй"
  ],
  "screenwriter": [
    "Питер Гринуэй"
  ],
  "producer": [
    "Кеес Касандер",
    "Дэнис Вигман",
    "Питер Жак"
  ],
  "operator": [
    "Саша Вьерни"
  ],
  "composer": [
    "Майкл Найман"
  ],
  "design": [
    "Бен ван Ос",
    "Ян Рулфс",
    "Дин ван Страален"
  ],
  "editor": [
    "Джон Уилсон"
  ],
  "actors": [
    "Джоан Плаурайт",
    "Джульет Стивенсон",
    "Джоэли Ричардсон",
    "Бернард Хилл",
    "Джейсон Эдвардс",
    "Брайан Прингл",
    "Тревор Купер",
    "Дэвид Моррисси",
    "Джон Роган",
    "Пол Муни"
  ],
  "actors_dubl": [],
  "trivia": [],
  "trailers": [],
  "seasons": [],
  "voiceActing": [
    "Рус. Проф. многоголосый",
    "Eng.Original"
  ],
  "subtitle": [],
  "parts": []
}
