{
  "id": 13367,
  "name": "Принцесса хлопковых полей",
  "name_eng": "Beyaz Gelincik",
  "year": 2005,
  "slogan": "—",
  "age": null,
  "type": "series",
  "quality": "SD",
  "imdb": "5.1",
  "imdb_id": "0482653",
  "kinopoisk": null,
  "kinopoisk_id": "584071",
  "world_art": null,
  "world_art_id": null,
  "time": "60 мин",
  "ads": false,
  "premier": "2005-09-19",
  "premier_rus": null,
  "availability": null,
  "serial_status": "offline",
  "activate_time": "2019-12-20 15:40:00",
  "budget": "TRL 50 000 000",
  "fees_use": null,
  "fees_world": null,
  "fees_rus": null,
  "rate_mpaa": null,
  "description": "Эта история развивается на плодородных землях Аданы в Западной Турции. Клан Асланбас самая богатая семья Аданы. Владельцы тысяч акров хлопковых полей, они живут в роскошном загородном особняке. Основа бизнеса Холдинга Асланбас хлопок, но они достигли успеха и в иных деловых сферах. Семья содержит тысячи наемных работников – рабочие в поле, прислуга в доме, а также штат крупного холдинга… В центре истории - 4 брата семьи Асланбас. Каждый из них либо имеет собственную семью, либо собирается обзавестись ею. События начинают развиваться, когда один из них - Омер, встречает прекрасную Принцессу хлопка - Белоснежку Черен. В семье начинают раскрываться тайны, звучит ложь во имя любви и могущества…",
  "iframe_url": "",
  "poster": "https://img.imgilall.me/movies/franchise/1/3/3/6/7/0/0/0/0/0/610x900_13367.jpg",
  "country": {
    "36": "Турция"
  },
  "collection": [],
  "genre": {
    "7": "Драма"
  },
  "director": [
    "Гюзиде Бальджи"
  ],
  "screenwriter": [
    "Фикрет Беклер",
    "Керим Джейлан",
    "Сулхи Долек"
  ],
  "producer": [
    "Эрол Авджи"
  ],
  "operator": [
    "Колен Мунье"
  ],
  "composer": [
    "Кырач"
  ],
  "design": [
    "Вели Кахраман"
  ],
  "editor": [
    "Айкут Йылдырым"
  ],
  "actors": [
    "Эркан Петеккая",
    "Сезин Акбашогуллары",
    "Исмаил Хаджиоглу",
    "Тюлин Озен",
    "Бетюль Шахин",
    "Шейда Шашмаз",
    "Айчин Туюн",
    "Альтан Эркекли",
    "Эсра Кызылдоган",
    "Олгун Шимшек"
  ],
  "actors_dubl": [],
  "trivia": [],
  "trailers": [],
  "seasons": [
    {
      "poster": null,
      "release_ru": "2005-09-20",
      "release_world": "2005-09-19",
      "availability": "2005-09-21",
      "iframe_url": "",
      "season": 1,
      "episodes": [
        {
          "episode": 1,
          "name": null,
          "iframe_url": "",
          "iframe_poster": null,
          "release_ru": "2005-09-20",
          "release_world": "2005-09-19",
          "availability": "2005-09-21",
          "voiceActing": [
            "Рус. Проф. двухголосый",
            "Turk.Original"
          ],
          "ads": false,
          "subtitle": []
        },
        {
          "episode": 2,
          "name": null,
          "iframe_url": "",
          "iframe_poster": null,
          "release_ru": "2005-09-27",
          "release_world": "2005-09-26",
          "availability": "2005-09-28",
          "voiceActing": [
            "Рус. Проф. двухголосый",
            "Turk.Original"
          ],
          "ads": false,
          "subtitle": []
        },
        {
          "episode": 3,
          "name": null,
          "iframe_url": "",
          "iframe_poster": null,
          "release_ru": "2005-10-04",
          "release_world": "2005-10-03",
          "availability": "2005-10-05",
          "voiceActing": [
            "Рус. Проф. двухголосый",
            "Turk.Original"
          ],
          "ads": false,
          "subtitle": []
        },
        {
          "episode": 4,
          "name": null,
          "iframe_url": "",
          "iframe_poster": null,
          "release_ru": "2005-10-11",
          "release_world": "2005-10-10",
          "availability": "2005-10-12",
          "voiceActing": [
            "Рус. Проф. двухголосый",
            "Turk.Original"
          ],
          "ads": false,
          "subtitle": []
        },
        {
          "episode": 5,
          "name": null,
          "iframe_url": "",
          "iframe_poster": null,
          "release_ru": "2005-10-18",
          "release_world": "2005-10-17",
          "availability": "2005-10-19",
          "voiceActing": [
            "Рус. Проф. двухголосый",
            "Turk.Original"
          ],
          "ads": false,
          "subtitle": []
        },
        {
          "episode": 6,
          "name": null,
          "iframe_url": "",
          "iframe_poster": null,
          "release_ru": "2005-10-25",
          "release_world": "2005-10-24",
          "availability": "2005-10-26",
          "voiceActing": [
            "Рус. Проф. двухголосый",
            "Turk.Original"
          ],
          "ads": false,
          "subtitle": []
        },
        {
          "episode": 7,
          "name": null,
          "iframe_url": "",
          "iframe_poster": null,
          "release_ru": "2005-11-01",
          "release_world": "2005-10-31",
          "availability": "2005-11-02",
          "voiceActing": [
            "Рус. Проф. двухголосый",
            "Turk.Original"
          ],
          "ads": false,
          "subtitle": []
        },
        {
          "episode": 8,
          "name": null,
          "iframe_url": "",
          "iframe_poster": null,
          "release_ru": "2005-11-08",
          "release_world": "2005-11-07",
          "availability": "2005-11-09",
          "voiceActing": [
            "Рус. Проф. двухголосый",
            "Turk.Original"
          ],
          "ads": false,
          "subtitle": []
        },
        {
          "episode": 9,
          "name": null,
          "iframe_url": "",
          "iframe_poster": null,
          "release_ru": "2005-11-15",
          "release_world": "2005-11-14",
          "availability": "2005-11-16",
          "voiceActing": [
            "Рус. Проф. двухголосый",
            "Turk.Original"
          ],
          "ads": false,
          "subtitle": []
        },
        {
          "episode": 10,
          "name": null,
          "iframe_url": "",
          "iframe_poster": null,
          "release_ru": "2005-11-22",
          "release_world": "2005-11-21",
          "availability": "2005-11-23",
          "voiceActing": [
            "Рус. Проф. двухголосый",
            "Turk.Original"
          ],
          "ads": false,
          "subtitle": []
        },
        {
          "episode": 11,
          "name": null,
          "iframe_url": "",
          "iframe_poster": null,
          "release_ru": "2005-11-29",
          "release_world": "2005-11-28",
          "availability": "2005-11-30",
          "voiceActing": [
            "Рус. Проф. двухголосый",
            "Turk.Original"
          ],
          "ads": false,
          "subtitle": []
        },
        {
          "episode": 12,
          "name": null,
          "iframe_url": "",
          "iframe_poster": null,
          "release_ru": "2005-12-06",
          "release_world": "2005-12-05",
          "availability": "2005-12-07",
          "voiceActing": [
            "Рус. Проф. двухголосый",
            "Turk.Original"
          ],
          "ads": false,
          "subtitle": []
        },
        {
          "episode": 13,
          "name": null,
          "iframe_url": "",
          "iframe_poster": null,
          "release_ru": "2005-12-13",
          "release_world": "2005-12-12",
          "availability": "2005-12-14",
          "voiceActing": [
            "Рус. Проф. двухголосый",
            "Turk.Original"
          ],
          "ads": false,
          "subtitle": []
        },
        {
          "episode": 14,
          "name": null,
          "iframe_url": "",
          "iframe_poster": null,
          "release_ru": "2005-12-20",
          "release_world": "2005-12-19",
          "availability": "2005-12-21",
          "voiceActing": [
            "Рус. Проф. двухголосый",
            "Turk.Original"
          ],
          "ads": false,
          "subtitle": []
        },
        {
          "episode": 15,
          "name": null,
          "iframe_url": "",
          "iframe_poster": null,
          "release_ru": "2005-12-27",
          "release_world": "2005-12-26",
          "availability": "2005-12-28",
          "voiceActing": [
            "Рус. Проф. двухголосый",
            "Turk.Original"
          ],
          "ads": false,
          "subtitle": []
        },
        {
          "episode": 16,
          "name": null,
          "iframe_url": "",
          "iframe_poster": null,
          "release_ru": "2006-01-03",
          "release_world": "2006-01-02",
          "availability": "2006-01-04",
          "voiceActing": [
            "Рус. Проф. двухголосый",
            "Turk.Original"
          ],
          "ads": false,
          "subtitle": []
        },
        {
          "episode": 17,
          "name": null,
          "iframe_url": "",
          "iframe_poster": null,
          "release_ru": "2006-01-17",
          "release_world": "2006-01-16",
          "availability": "2006-01-18",
          "voiceActing": [
            "Рус. Проф. двухголосый",
            "Turk.Original"
          ],
          "ads": false,
          "subtitle": []
        },
        {
          "episode": 18,
          "name": null,
          "iframe_url": "",
          "iframe_poster": null,
          "release_ru": "2006-01-24",
          "release_world": "2006-01-23",
          "availability": "2006-01-25",
          "voiceActing": [
            "Рус. Проф. двухголосый",
            "Turk.Original"
          ],
          "ads": false,
          "subtitle": []
        },
        {
          "episode": 19,
          "name": null,
          "iframe_url": "",
          "iframe_poster": null,
          "release_ru": "2006-01-31",
          "release_world": "2006-01-30",
          "availability": "2006-02-01",
          "voiceActing": [
            "Рус. Проф. двухголосый",
            "Turk.Original"
          ],
          "ads": false,
          "subtitle": []
        },
        {
          "episode": 20,
          "name": null,
          "iframe_url": "",
          "iframe_poster": null,
          "release_ru": "2006-02-07",
          "release_world": "2006-02-06",
          "availability": "2006-02-08",
          "voiceActing": [
            "Рус. Проф. двухголосый",
            "Turk.Original"
          ],
          "ads": false,
          "subtitle": []
        },
        {
          "episode": 21,
          "name": null,
          "iframe_url": "",
          "iframe_poster": null,
          "release_ru": "2006-02-14",
          "release_world": "2006-02-13",
          "availability": "2006-02-15",
          "voiceActing": [
            "Рус. Проф. двухголосый",
            "Turk.Original"
          ],
          "ads": false,
          "subtitle": []
        },
        {
          "episode": 22,
          "name": null,
          "iframe_url": "",
          "iframe_poster": null,
          "release_ru": "2006-02-21",
          "release_world": "2006-02-20",
          "availability": "2006-02-22",
          "voiceActing": [
            "Рус. Проф. двухголосый",
            "Turk.Original"
          ],
          "ads": false,
          "subtitle": []
        },
        {
          "episode": 23,
          "name": null,
          "iframe_url": "",
          "iframe_poster": null,
          "release_ru": "2006-02-28",
          "release_world": "2006-02-27",
          "availability": "2006-03-01",
          "voiceActing": [
            "Рус. Проф. двухголосый",
            "Turk.Original"
          ],
          "ads": false,
          "subtitle": []
        },
        {
          "episode": 24,
          "name": null,
          "iframe_url": "",
          "iframe_poster": null,
          "release_ru": "2006-03-07",
          "release_world": "2006-03-06",
          "availability": "2006-03-08",
          "voiceActing": [
            "Рус. Проф. двухголосый",
            "Turk.Original"
          ],
          "ads": false,
          "subtitle": []
        },
        {
          "episode": 25,
          "name": null,
          "iframe_url": "",
          "iframe_poster": null,
          "release_ru": "2006-03-14",
          "release_world": "2006-03-13",
          "availability": "2006-03-15",
          "voiceActing": [
            "Рус. Проф. двухголосый",
            "Turk.Original"
          ],
          "ads": false,
          "subtitle": []
        },
        {
          "episode": 26,
          "name": null,
          "iframe_url": "",
          "iframe_poster": null,
          "release_ru": "2006-03-21",
          "release_world": "2006-03-20",
          "availability": "2006-03-22",
          "voiceActing": [
            "Рус. Проф. двухголосый",
            "Turk.Original"
          ],
          "ads": false,
          "subtitle": []
        },
        {
          "episode": 27,
          "name": null,
          "iframe_url": "",
          "iframe_poster": null,
          "release_ru": "2006-03-28",
          "release_world": "2006-03-27",
          "availability": "2006-03-29",
          "voiceActing": [
            "Рус. Проф. двухголосый",
            "Turk.Original"
          ],
          "ads": false,
          "subtitle": []
        },
        {
          "episode": 28,
          "name": null,
          "iframe_url": "",
          "iframe_poster": null,
          "release_ru": "2006-04-04",
          "release_world": "2006-04-03",
          "availability": "2006-04-05",
          "voiceActing": [
            "Рус. Проф. двухголосый",
            "Turk.Original"
          ],
          "ads": false,
          "subtitle": []
        },
        {
          "episode": 29,
          "name": null,
          "iframe_url": "",
          "iframe_poster": null,
          "release_ru": "2006-04-11",
          "release_world": "2006-04-10",
          "availability": "2006-04-12",
          "voiceActing": [
            "Рус. Проф. двухголосый",
            "Turk.Original"
          ],
          "ads": false,
          "subtitle": []
        },
        {
          "episode": 30,
          "name": null,
          "iframe_url": "",
          "iframe_poster": null,
          "release_ru": "2006-04-18",
          "release_world": "2006-04-17",
          "availability": "2006-04-19",
          "voiceActing": [
            "Рус. Проф. двухголосый",
            "Turk.Original"
          ],
          "ads": false,
          "subtitle": []
        },
        {
          "episode": 31,
          "name": null,
          "iframe_url": "",
          "iframe_poster": null,
          "release_ru": "2006-04-25",
          "release_world": "2006-04-24",
          "availability": "2006-04-26",
          "voiceActing": [
            "Рус. Проф. двухголосый",
            "Turk.Original"
          ],
          "ads": false,
          "subtitle": []
        },
        {
          "episode": 32,
          "name": null,
          "iframe_url": "",
          "iframe_poster": null,
          "release_ru": "2006-05-02",
          "release_world": "2006-05-01",
          "availability": "2006-05-03",
          "voiceActing": [
            "Рус. Проф. двухголосый",
            "Turk.Original"
          ],
          "ads": false,
          "subtitle": []
        },
        {
          "episode": 33,
          "name": null,
          "iframe_url": "",
          "iframe_poster": null,
          "release_ru": "2006-05-09",
          "release_world": "2006-05-08",
          "availability": "2006-05-10",
          "voiceActing": [
            "Рус. Проф. двухголосый",
            "Turk.Original"
          ],
          "ads": false,
          "subtitle": []
        },
        {
          "episode": 34,
          "name": null,
          "iframe_url": "",
          "iframe_poster": null,
          "release_ru": "2006-05-16",
          "release_world": "2006-05-15",
          "availability": "2006-05-17",
          "voiceActing": [
            "Рус. Проф. двухголосый",
            "Turk.Original"
          ],
          "ads": false,
          "subtitle": []
        },
        {
          "episode": 35,
          "name": null,
          "iframe_url": "",
          "iframe_poster": null,
          "release_ru": "2006-05-23",
          "release_world": "2006-05-22",
          "availability": "2006-05-24",
          "voiceActing": [
            "Рус. Проф. двухголосый",
            "Turk.Original"
          ],
          "ads": false,
          "subtitle": []
        },
        {
          "episode": 36,
          "name": null,
          "iframe_url": "",
          "iframe_poster": null,
          "release_ru": "2006-05-30",
          "release_world": "2006-05-29",
          "availability": "2006-05-31",
          "voiceActing": [
            "Рус. Проф. двухголосый",
            "Turk.Original"
          ],
          "ads": false,
          "subtitle": []
        }
      ]
    },
    {
      "poster": null,
      "release_ru": "2006-09-19",
      "release_world": "2006-09-18",
      "availability": "2006-09-20",
      "iframe_url": "",
      "season": 2,
      "episodes": [
        {
          "episode": 37,
          "name": null,
          "iframe_url": "",
          "iframe_poster": null,
          "release_ru": "2007-06-05",
          "release_world": "2007-06-04",
          "availability": "2007-06-06",
          "voiceActing": [
            "Рус. Проф. двухголосый"
          ],
          "ads": false,
          "subtitle": []
        },
        {
          "episode": 38,
          "name": null,
          "iframe_url": "",
          "iframe_poster": null,
          "release_ru": "2007-06-12",
          "release_world": "2007-06-11",
          "availability": "2007-06-13",
          "voiceActing": [
            "Рус. Проф. двухголосый"
          ],
          "ads": false,
          "subtitle": []
        },
        {
          "episode": 39,
          "name": null,
          "iframe_url": "",
          "iframe_poster": null,
          "release_ru": null,
          "release_world": null,
          "availability": null,
          "voiceActing": [
            "Рус. Проф. двухголосый"
          ],
          "ads": false,
          "subtitle": []
        },
        {
          "episode": 40,
          "name": null,
          "iframe_url": "",
          "iframe_poster": null,
          "release_ru": null,
          "release_world": null,
          "availability": null,
          "voiceActing": [
            "Рус. Проф. двухголосый"
          ],
          "ads": false,
          "subtitle": []
        },
        {
          "episode": 41,
          "name": null,
          "iframe_url": "",
          "iframe_poster": null,
          "release_ru": null,
          "release_world": null,
          "availability": null,
          "voiceActing": [
            "Рус. Проф. двухголосый"
          ],
          "ads": false,
          "subtitle": []
        },
        {
          "episode": 42,
          "name": null,
          "iframe_url": "",
          "iframe_poster": null,
          "release_ru": null,
          "release_world": null,
          "availability": null,
          "voiceActing": [
            "Рус. Проф. двухголосый"
          ],
          "ads": false,
          "subtitle": []
        },
        {
          "episode": 43,
          "name": null,
          "iframe_url": "",
          "iframe_poster": null,
          "release_ru": null,
          "release_world": null,
          "availability": null,
          "voiceActing": [
            "Рус. Проф. двухголосый"
          ],
          "ads": false,
          "subtitle": []
        },
        {
          "episode": 44,
          "name": null,
          "iframe_url": "",
          "iframe_poster": null,
          "release_ru": null,
          "release_world": null,
          "availability": null,
          "voiceActing": [
            "Рус. Проф. двухголосый"
          ],
          "ads": false,
          "subtitle": []
        },
        {
          "episode": 45,
          "name": null,
          "iframe_url": "",
          "iframe_poster": null,
          "release_ru": null,
          "release_world": null,
          "availability": null,
          "voiceActing": [
            "Рус. Проф. двухголосый"
          ],
          "ads": false,
          "subtitle": []
        },
        {
          "episode": 46,
          "name": null,
          "iframe_url": "",
          "iframe_poster": null,
          "release_ru": null,
          "release_world": null,
          "availability": null,
          "voiceActing": [
            "Рус. Проф. двухголосый"
          ],
          "ads": false,
          "subtitle": []
        },
        {
          "episode": 47,
          "name": null,
          "iframe_url": "",
          "iframe_poster": null,
          "release_ru": null,
          "release_world": null,
          "availability": null,
          "voiceActing": [
            "Рус. Проф. двухголосый"
          ],
          "ads": false,
          "subtitle": []
        },
        {
          "episode": 48,
          "name": null,
          "iframe_url": "",
          "iframe_poster": null,
          "release_ru": null,
          "release_world": null,
          "availability": null,
          "voiceActing": [
            "Рус. Проф. двухголосый"
          ],
          "ads": false,
          "subtitle": []
        },
        {
          "episode": 49,
          "name": null,
          "iframe_url": "",
          "iframe_poster": null,
          "release_ru": null,
          "release_world": null,
          "availability": null,
          "voiceActing": [
            "Рус. Проф. двухголосый"
          ],
          "ads": false,
          "subtitle": []
        },
        {
          "episode": 50,
          "name": null,
          "iframe_url": "",
          "iframe_poster": null,
          "release_ru": null,
          "release_world": null,
          "availability": null,
          "voiceActing": [
            "Рус. Проф. двухголосый"
          ],
          "ads": false,
          "subtitle": []
        },
        {
          "episode": 51,
          "name": null,
          "iframe_url": "",
          "iframe_poster": null,
          "release_ru": null,
          "release_world": null,
          "availability": null,
          "voiceActing": [
            "Рус. Проф. двухголосый"
          ],
          "ads": false,
          "subtitle": []
        },
        {
          "episode": 52,
          "name": null,
          "iframe_url": "",
          "iframe_poster": null,
          "release_ru": null,
          "release_world": null,
          "availability": null,
          "voiceActing": [
            "Рус. Проф. двухголосый"
          ],
          "ads": false,
          "subtitle": []
        },
        {
          "episode": 53,
          "name": null,
          "iframe_url": "",
          "iframe_poster": null,
          "release_ru": null,
          "release_world": null,
          "availability": null,
          "voiceActing": [
            "Рус. Проф. двухголосый"
          ],
          "ads": false,
          "subtitle": []
        },
        {
          "episode": 54,
          "name": null,
          "iframe_url": "",
          "iframe_poster": null,
          "release_ru": null,
          "release_world": null,
          "availability": null,
          "voiceActing": [
            "Рус. Проф. двухголосый"
          ],
          "ads": false,
          "subtitle": []
        },
        {
          "episode": 55,
          "name": null,
          "iframe_url": "",
          "iframe_poster": null,
          "release_ru": null,
          "release_world": null,
          "availability": null,
          "voiceActing": [
            "Рус. Проф. двухголосый"
          ],
          "ads": false,
          "subtitle": []
        },
        {
          "episode": 56,
          "name": null,
          "iframe_url": "",
          "iframe_poster": null,
          "release_ru": null,
          "release_world": null,
          "availability": null,
          "voiceActing": [
            "Рус. Проф. двухголосый"
          ],
          "ads": false,
          "subtitle": []
        },
        {
          "episode": 57,
          "name": null,
          "iframe_url": "",
          "iframe_poster": null,
          "release_ru": null,
          "release_world": null,
          "availability": null,
          "voiceActing": [
            "Рус. Проф. двухголосый"
          ],
          "ads": false,
          "subtitle": []
        },
        {
          "episode": 58,
          "name": null,
          "iframe_url": "",
          "iframe_poster": null,
          "release_ru": null,
          "release_world": null,
          "availability": null,
          "voiceActing": [
            "Рус. Проф. двухголосый"
          ],
          "ads": false,
          "subtitle": []
        },
        {
          "episode": 59,
          "name": null,
          "iframe_url": "",
          "iframe_poster": null,
          "release_ru": null,
          "release_world": null,
          "availability": null,
          "voiceActing": [
            "Рус. Проф. двухголосый"
          ],
          "ads": false,
          "subtitle": []
        },
        {
          "episode": 60,
          "name": null,
          "iframe_url": "",
          "iframe_poster": null,
          "release_ru": null,
          "release_world": null,
          "availability": null,
          "voiceActing": [
            "Рус. Проф. двухголосый"
          ],
          "ads": false,
          "subtitle": []
        },
        {
          "episode": 61,
          "name": null,
          "iframe_url": "",
          "iframe_poster": null,
          "release_ru": null,
          "release_world": null,
          "availability": null,
          "voiceActing": [
            "Рус. Проф. двухголосый"
          ],
          "ads": false,
          "subtitle": []
        },
        {
          "episode": 62,
          "name": null,
          "iframe_url": "",
          "iframe_poster": null,
          "release_ru": null,
          "release_world": null,
          "availability": null,
          "voiceActing": [
            "Рус. Проф. двухголосый"
          ],
          "ads": false,
          "subtitle": []
        },
        {
          "episode": 63,
          "name": null,
          "iframe_url": "",
          "iframe_poster": null,
          "release_ru": null,
          "release_world": null,
          "availability": null,
          "voiceActing": [
            "Рус. Проф. двухголосый"
          ],
          "ads": false,
          "subtitle": []
        },
        {
          "episode": 64,
          "name": null,
          "iframe_url": "",
          "iframe_poster": null,
          "release_ru": null,
          "release_world": null,
          "availability": null,
          "voiceActing": [
            "Рус. Проф. двухголосый"
          ],
          "ads": false,
          "subtitle": []
        },
        {
          "episode": 65,
          "name": null,
          "iframe_url": "",
          "iframe_poster": null,
          "release_ru": null,
          "release_world": null,
          "availability": null,
          "voiceActing": [
            "Рус. Проф. двухголосый"
          ],
          "ads": false,
          "subtitle": []
        },
        {
          "episode": 66,
          "name": null,
          "iframe_url": "",
          "iframe_poster": null,
          "release_ru": null,
          "release_world": null,
          "availability": null,
          "voiceActing": [
            "Рус. Проф. двухголосый"
          ],
          "ads": false,
          "subtitle": []
        },
        {
          "episode": 67,
          "name": null,
          "iframe_url": "",
          "iframe_poster": null,
          "release_ru": null,
          "release_world": null,
          "availability": null,
          "voiceActing": [
            "Рус. Проф. двухголосый"
          ],
          "ads": false,
          "subtitle": []
        },
        {
          "episode": 68,
          "name": null,
          "iframe_url": "",
          "iframe_poster": null,
          "release_ru": null,
          "release_world": null,
          "availability": null,
          "voiceActing": [
            "Рус. Проф. двухголосый"
          ],
          "ads": false,
          "subtitle": []
        },
        {
          "episode": 69,
          "name": null,
          "iframe_url": "",
          "iframe_poster": null,
          "release_ru": null,
          "release_world": null,
          "availability": null,
          "voiceActing": [
            "Рус. Проф. двухголосый"
          ],
          "ads": false,
          "subtitle": []
        },
        {
          "episode": 70,
          "name": null,
          "iframe_url": "",
          "iframe_poster": null,
          "release_ru": null,
          "release_world": null,
          "availability": null,
          "voiceActing": [
            "Рус. Проф. двухголосый"
          ],
          "ads": false,
          "subtitle": []
        },
        {
          "episode": 71,
          "name": null,
          "iframe_url": "",
          "iframe_poster": null,
          "release_ru": null,
          "release_world": null,
          "availability": null,
          "voiceActing": [
            "Рус. Проф. двухголосый"
          ],
          "ads": false,
          "subtitle": []
        },
        {
          "episode": 72,
          "name": null,
          "iframe_url": "",
          "iframe_poster": null,
          "release_ru": null,
          "release_world": null,
          "availability": null,
          "voiceActing": [
            "Рус. Проф. двухголосый"
          ],
          "ads": false,
          "subtitle": []
        },
        {
          "episode": 73,
          "name": null,
          "iframe_url": "",
          "iframe_poster": null,
          "release_ru": null,
          "release_world": null,
          "availability": null,
          "voiceActing": [
            "Рус. Проф. двухголосый"
          ],
          "ads": false,
          "subtitle": []
        },
        {
          "episode": 74,
          "name": null,
          "iframe_url": "",
          "iframe_poster": null,
          "release_ru": null,
          "release_world": null,
          "availability": null,
          "voiceActing": [
            "Рус. Проф. двухголосый"
          ],
          "ads": false,
          "subtitle": []
        }
      ]
    }
  ],
  "voiceActing": [
    "Рус. Проф. двухголосый",
    "Turk.Original"
  ],
  "subtitle": [],
  "parts": []
}
