{
  "id": 42141,
  "name": "Olsen Banden Junior",
  "name_eng": "",
  "year": 2001,
  "slogan": "—",
  "age": null,
  "type": "film",
  "quality": "SD",
  "imdb": "4.4",
  "imdb_id": "0296788",
  "kinopoisk": null,
  "kinopoisk_id": "58112",
  "world_art": null,
  "world_art_id": null,
  "time": "85 мин. / 01:25",
  "ads": false,
  "premier": "2001-12-14",
  "premier_rus": "2001-12-15",
  "availability": "2001-12-16",
  "activate_time": "2020-11-10 16:06:00",
  "budget": null,
  "fees_use": null,
  "fees_world": null,
  "fees_rus": null,
  "rate_mpaa": null,
  "description": "Банда Ольсена снова в деле! Или, точнее, как всё начиналось...Далёкий 1958 год... СССР запустил «Спутник-2», который доставил на околоземную орбиту первое живое существо — собаку по кличке Лайка. Но на лавры в запуске первого в мире человека в космос претендует скандинавская компания во главе с Халландсеном. Они решают послать в полёт никому не нужного детдомовского мальчика, Эгона Ольсена, выкупив его у директора детдома за миллион крон. Но Эгон Ольсен далеко не так прост, у него всегда есть план! И к тому же, имеются верные друзья!",
  "iframe_url": "",
  "iframe_poster": null,
  "poster": "https://img.imgilall.me/movies/franchise/4/2/1/4/1/0/0/0/0/0/610x900_42141.jpg",
  "country": {
    "25": "Дания"
  },
  "collection": [],
  "genre": {
    "25": "Криминал",
    "19": "Комедия"
  },
  "director": [
    "Петер Флинт"
  ],
  "screenwriter": [
    "Ларс Меринг",
    "Энн-Мари Олесен",
    "Николай Шерфиг"
  ],
  "producer": [
    "Томас Хейнесен",
    "Шарлотта Бух",
    "Кристел К.Д. Карлсен"
  ],
  "operator": [],
  "composer": [
    "Сёрен Хюлльгор"
  ],
  "design": [
    "Томас Равн",
    "Франсуаза Николет"
  ],
  "editor": [
    "Гита Бекендорфф"
  ],
  "actors": [
    "Аксель Лет",
    "Кристиан Столтенберг",
    "Jacob A. Bernit",
    "Синье Лерче",
    "Йеспер Лангберг",
    "Эллен Хиллингсо",
    "Кристина Стоянович",
    "Хенрик Люккегорд",
    "Клаус Буе",
    "Клаус Рискьяр"
  ],
  "actors_dubl": [],
  "trivia": [],
  "trailers": [],
  "seasons": [],
  "voiceActing": [
    "Важенин (BadBajo)"
  ],
  "subtitle": [],
  "parts": []
}
