{
  "id": 24649,
  "name": "И пришел паук",
  "name_eng": "Along Came a Spider",
  "year": 2001,
  "slogan": "«The game is far from over»",
  "age": "18+",
  "type": "film",
  "quality": "SD",
  "imdb": "6.4",
  "imdb_id": "0164334",
  "kinopoisk": "6.9",
  "kinopoisk_id": "586",
  "world_art": null,
  "world_art_id": null,
  "time": "104 мин. / 01:44",
  "ads": false,
  "premier": "2001-04-02",
  "premier_rus": "2001-08-02",
  "availability": "2001-08-03",
  "activate_time": "2020-06-19 12:02:00",
  "budget": "$60 000 000",
  "fees_use": "$74 078 174",
  "fees_world": "+ $31 100 387 = $105 178 561",
  "fees_rus": null,
  "rate_mpaa": "R",
  "description": "Из элитной школы похищают девочку Меган, дочь сенатора Роуза. Преступник оказывается оригиналом, каких мало: вместо того чтобы спокойно дождаться своего заслуженного выкупа, он начинает играть с полицией в опасную игру, основными участниками которой становятся доктор Алекс Кросс и Джез Флэниган, его новая напарница из секретной службы, охранявшей школу.",
  "iframe_url": "",
  "iframe_poster": null,
  "poster": "https://img.imgilall.me/movies/franchise/2/4/6/4/9/0/0/0/0/0/610x900_24649.jpg",
  "country": {
    "7": "Канада",
    "1": "США",
    "20": "Германия"
  },
  "collection": [],
  "genre": {
    "13": "Триллер",
    "7": "Драма"
  },
  "director": [
    "Ли Тамахори"
  ],
  "screenwriter": [
    "Марк Мосс",
    "Джеймс Паттерсон"
  ],
  "producer": [
    "Дэвид Браун",
    "Джо Уайзен",
    "Морган Фриман"
  ],
  "operator": [
    "Мэттью Ф. Леонетти"
  ],
  "composer": [
    "Джерри Голдсмит"
  ],
  "design": [
    "Ида Рэндом",
    "Сэнди Кокрейн",
    "Санья Милкович Хэйс"
  ],
  "editor": [
    "Нил Трэвис"
  ],
  "actors": [
    "Морган Фриман",
    "Моника Поттер",
    "Майкл Уинкотт",
    "Дилан Бейкер",
    "Мика Бурем",
    "Антон Ельчин",
    "Кимберли Хоторн",
    "Джей О. Сэндерс",
    "Билли Бёрк",
    "Майкл Мориарти"
  ],
  "actors_dubl": [
    "Александр Груздев",
    "Алёна Ивченко",
    "Денис Беспалый",
    "Александр Воеводин",
    "Анастасия Волкова"
  ],
  "trivia": [
    "Фильм снят по мотивам романа Джеймса Паттерсона «И пришел паук» (Along Came a Spider, 1993).",
    "Это первая глава приключений детектива Алекса Кросса. Продолжение — книга «Целуя девушек» (1995), по которой также сняли фильм с Морганом Фриманом в главной роли."
  ],
  "trailers": [],
  "seasons": [],
  "voiceActing": [
    "Рус. Дублированный"
  ],
  "subtitle": [],
  "parts": []
}
