{
  "id": 39101,
  "name": "Olsen-banden ser rødt",
  "name_eng": "",
  "year": 1976,
  "slogan": "—",
  "age": null,
  "type": "film",
  "quality": "FHD (1080p)",
  "imdb": "7.6",
  "imdb_id": null,
  "kinopoisk": null,
  "kinopoisk_id": "58158",
  "world_art": null,
  "world_art_id": null,
  "time": "100 мин. / 01:40",
  "ads": false,
  "premier": "1976-10-01",
  "premier_rus": "1976-10-02",
  "availability": "1976-10-03",
  "activate_time": "2020-10-14 07:07:00",
  "budget": null,
  "fees_use": null,
  "fees_world": null,
  "fees_rus": null,
  "rate_mpaa": null,
  "description": "Эгон с приятелями планируют украсть у местного аристократа древнюю китайскую вазу, подменив её дешёвой подделкой. Удачный случай подворачивается, когда барон решает устроить охотничью вечеринку.",
  "iframe_url": "",
  "iframe_poster": null,
  "poster": "https://img.imgilall.me/movies/franchise/3/9/1/0/1/0/0/0/0/0/610x900_39101.jpg",
  "country": {
    "25": "Дания"
  },
  "collection": [],
  "genre": {
    "25": "Криминал",
    "19": "Комедия"
  },
  "director": [
    "Эрик Баллинг"
  ],
  "screenwriter": [
    "Эрик Баллинг",
    "Хеннинг Бас"
  ],
  "producer": [
    "Бо Кристенсен"
  ],
  "operator": [
    "Хеннинг Кристиансен"
  ],
  "composer": [
    "Бент Фабрисиус-Бьерре",
    "Фридрих Кулау"
  ],
  "design": [
    "Хеннинг Бас",
    "Питер Хёймарк",
    "Лотте Данданелл"
  ],
  "editor": [
    "Оле Стин Нилсен"
  ],
  "actors": [
    "Ове Спрогёе",
    "Мортен Грунвальд",
    "Поуль Бундгор",
    "Кирстен Вальтер",
    "Jes Holtsø",
    "Лене Брандум",
    "Бьорн Ватт-Боольсен",
    "Ове Вернер Хансен",
    "Эйнер Федершпиль",
    "Аксель Стрёбюе"
  ],
  "actors_dubl": [],
  "trivia": [],
  "trailers": [],
  "seasons": [],
  "voiceActing": [
    "Важенин (BadBajo)"
  ],
  "subtitle": [],
  "parts": []
}
