{
  "id": 23642,
  "name": "Саундтрек",
  "name_eng": "Soundtrack",
  "year": 2011,
  "slogan": "—",
  "age": "16+",
  "type": "film",
  "quality": "SD",
  "imdb": "7.1",
  "imdb_id": "1941657",
  "kinopoisk": null,
  "kinopoisk_id": "591752",
  "world_art": null,
  "world_art_id": null,
  "time": "130 мин. / 02:10",
  "ads": false,
  "premier": "2011-10-07",
  "premier_rus": "2011-10-08",
  "availability": "2011-10-09",
  "activate_time": "2020-06-15 17:56:00",
  "budget": "₹ 50 000 000",
  "fees_use": null,
  "fees_world": null,
  "fees_rus": null,
  "rate_mpaa": null,
  "description": "У каждого из нас есть мечта, которой мы живём, к осуществлению которой стремимся всей душой и сердцем, не замечая преград, идя вперёд. Но не всем мечтам суждено сбываться, а цена за их исполнение порой оказывается слишком дорогой.",
  "iframe_url": "",
  "iframe_poster": null,
  "poster": "https://img.imgilall.me/movies/franchise/2/3/6/4/2/0/0/0/0/0/610x900_23642.jpg",
  "country": {
    "26": "Индия"
  },
  "collection": {
    "21": "Для молодёжи"
  },
  "genre": {
    "38": "Мюзикл",
    "7": "Драма"
  },
  "director": [
    "Neerav Ghosh"
  ],
  "screenwriter": [
    "Чинтан Гандхи",
    "Neerav Ghosh",
    "Раджив Гопалкришан"
  ],
  "producer": [
    "Апурв Наджпал",
    "Санджив Гоенка",
    "Судеш Нану"
  ],
  "operator": [
    "Аншуман Махейли"
  ],
  "composer": [
    "Карш Кейл",
    "Мидивал Пундиц"
  ],
  "design": [
    "Saini S. Johray",
    "Фабеха",
    "Напур Джоши"
  ],
  "editor": [
    "Санджай Родерик",
    "Амбар Вьяс"
  ],
  "actors": [
    "Раджив Кханделвал",
    "Соха Али Кхан",
    "Мриналини Шарма",
    "Мохан Капур",
    "Ятин Карьекар",
    "Анкур Тевари",
    "Сиддхаратх Коутто",
    "Маню Риши",
    "Jyamin Ali",
    "Энджи"
  ],
  "actors_dubl": [],
  "trivia": [],
  "trailers": [],
  "seasons": [],
  "voiceActing": [
    "Diva Universal"
  ],
  "subtitle": [],
  "parts": []
}
