{
  "id": 19201,
  "name": "Небо моего детства",
  "name_eng": "Sky of my childhood",
  "year": 2011,
  "slogan": "—",
  "age": "6+",
  "type": "film",
  "quality": "SD",
  "imdb": "6.6",
  "imdb_id": "2086942",
  "kinopoisk": "5.7",
  "kinopoisk_id": "591720",
  "world_art": null,
  "world_art_id": null,
  "time": "111 мин. / 01:51",
  "ads": false,
  "premier": "2011-04-14",
  "premier_rus": "2011-04-14",
  "availability": "2011-04-15",
  "activate_time": "2020-05-19 12:09:00",
  "budget": null,
  "fees_use": null,
  "fees_world": null,
  "fees_rus": null,
  "rate_mpaa": null,
  "description": "История мальчика, детство которого пришлось на тяжелые военные и послевоенные годы. Кинокартина расскажет о становлении личности, характера, мироощущении ребенка, о первых разочарованиях, о рождении и осуществлении его мечты.",
  "iframe_url": "",
  "iframe_poster": null,
  "poster": "https://img.imgilall.me/movies/franchise/1/9/2/0/1/0/0/0/0/0/610x900_19201.jpg",
  "country": {
    "58": "Казахстан"
  },
  "collection": [],
  "genre": {
    "7": "Драма"
  },
  "director": [
    "Рустем Абдрашев"
  ],
  "screenwriter": [
    "Шахимарден Хусаинов",
    "Рустем Абдрашев"
  ],
  "producer": [
    "Тасболат Мерекенов"
  ],
  "operator": [
    "Александр Рубанов"
  ],
  "composer": [
    "Куат Шильдебаев"
  ],
  "design": [
    "Сабит Курманбеков"
  ],
  "editor": [
    "Татьяна Белоусова",
    "Галымжан Санбаев"
  ],
  "actors": [
    "Байкенже Бельбаев",
    "Мухамадали Махмадов",
    "Нурлан Алимжанов",
    "Нуржуман Ихтымбаев",
    "Бибигуль Тулегенова",
    "Асылхан Толепов",
    "Сатимжан Санбаев",
    "Наталья Аринбасарова",
    "Алмагуль Алишева",
    "Ержан Жарылкасынулы"
  ],
  "actors_dubl": [],
  "trivia": [],
  "trailers": [],
  "seasons": [],
  "voiceActing": [
    "Рус. Дублированный"
  ],
  "subtitle": [],
  "parts": []
}
