{
  "id": 29859,
  "name": "Черно-белый секс",
  "name_eng": "Black & White & Sex",
  "year": 2012,
  "slogan": "«Sex is never black or white»",
  "age": "18+",
  "type": "film",
  "quality": "FHD (1080p)",
  "imdb": "5.7",
  "imdb_id": "0",
  "kinopoisk": "5.4",
  "kinopoisk_id": "605592",
  "world_art": null,
  "world_art_id": null,
  "time": "92 мин. / 01:32",
  "ads": false,
  "premier": "2012-01-27",
  "premier_rus": "2012-01-28",
  "availability": "2012-01-29",
  "activate_time": "2020-07-10 06:46:00",
  "budget": null,
  "fees_use": null,
  "fees_world": null,
  "fees_rus": null,
  "rate_mpaa": null,
  "description": "Проститутка, сексуальная и соблазнительная, Энджи намерена установить рекорд в откровениях о сексе. Открывая себя шаг за шагом человеку, который берет у нее интервью, она в то же время провоцирует и его самого. Иногда слишком откровенная, иногда нежная и всегда сексуальная, героиня фильма уводит за собой за кулисы в особый мир.",
  "iframe_url": "",
  "iframe_poster": null,
  "poster": "https://img.imgilall.me/movies/franchise/2/9/8/5/9/0/0/0/0/0/610x900_29859.jpg",
  "country": {
    "4": "Австралия"
  },
  "collection": [],
  "genre": {
    "7": "Драма"
  },
  "director": [
    "Джон Винтер"
  ],
  "screenwriter": [
    "Джон Винтер"
  ],
  "producer": [
    "Мелисса Бюфорд",
    "Джон Винтер",
    "Лиза Шонесси"
  ],
  "operator": [
    "Николя Дэйли"
  ],
  "composer": [
    "Кэйтлин Йо"
  ],
  "design": [
    "Ивонн Моксэм"
  ],
  "editor": [
    "Адриан Ростиролла"
  ],
  "actors": [
    "Кэтерин Хикс",
    "Anya Beyersdorf",
    "Валери Бейдер",
    "Роксана Уилсон",
    "Мишель Вергара Мур",
    "Дина Паноццо",
    "Саския Бурмайстер",
    "Майа Томас",
    "Мэттью Холмс",
    "Nick Waterman"
  ],
  "actors_dubl": [],
  "trivia": [],
  "trailers": [],
  "seasons": [],
  "voiceActing": [
    "НТВ"
  ],
  "subtitle": [],
  "parts": []
}
