{
  "id": 16647,
  "name": "Таяние",
  "name_eng": "Melting Away",
  "year": 2011,
  "slogan": "—",
  "age": null,
  "type": "film",
  "quality": "SD",
  "imdb": "6.8",
  "imdb_id": "1820531",
  "kinopoisk": "7.6",
  "kinopoisk_id": "604358",
  "world_art": null,
  "world_art_id": null,
  "time": "86 мин. / 01:26",
  "ads": false,
  "premier": "2012-01-12",
  "premier_rus": "2012-01-13",
  "availability": "2012-01-14",
  "activate_time": "2020-04-16 14:52:00",
  "budget": null,
  "fees_use": null,
  "fees_world": null,
  "fees_rus": null,
  "rate_mpaa": null,
  "description": "Благополучная и состоятельная семейная пара обнаруживает, что их 17-летний сын Асаф ведет двойную жизнь; за пределами дома он носит женскую одежду, испытывая неприязнь к своему генетическому полу; обескураженные родители, в «воспитательных целях», выгоняют подростка на улицу, в надежде, что тот, получив урок, вернется домой и возьмётся за ум; Асаф уходит из дома, чтобы больше не вернуться никогда... Спустя четыре года мать нанимает частного детектива, чтобы тот нашел пропавшего сына — заболевший раком отец доживает последние дни; вскоре, будто из ниоткуда, в клинике появляется очаровательная медсестра Анна, чтобы ухаживать за больным.",
  "iframe_url": "",
  "iframe_poster": null,
  "poster": "https://img.imgilall.me/movies/franchise/1/6/6/4/7/0/0/0/0/0/610x900_16647.jpg",
  "country": {
    "7": "Канада",
    "72": "Израиль"
  },
  "collection": [],
  "genre": {
    "10": "Зарубежный",
    "7": "Драма"
  },
  "director": [
    "Дорон Эран"
  ],
  "screenwriter": [
    "Billy Ben-Moshe"
  ],
  "producer": [
    "Billy Ben-Moshe",
    "Micky Dotan",
    "Леон Эдери"
  ],
  "operator": [
    "Даниель Кедем"
  ],
  "composer": [
    "Майкл Харпаз",
    "Дэни Рейшенталь"
  ],
  "design": [
    "Йорам Шайер",
    "Рона Дорон"
  ],
  "editor": [
    "Реут Хань"
  ],
  "actors": [
    "Хен Янни",
    "Йонатан Барак",
    "Лимор Голдштейн",
    "Шоша Горен",
    "Шай Кадими",
    "Одед Лэпард",
    "Эял Розалес",
    "Hannan Suissa",
    "Ами Вайнберг"
  ],
  "actors_dubl": [],
  "trivia": [],
  "trailers": [],
  "seasons": [],
  "voiceActing": [
    "Рус. Проф. двухголосый"
  ],
  "subtitle": [],
  "parts": []
}
