{
  "id": 27381,
  "name": "Робот Джи",
  "name_eng": "Robo Jî",
  "year": 2012,
  "slogan": "—",
  "age": null,
  "type": "film",
  "quality": "HD (720p)",
  "imdb": "6.6",
  "imdb_id": "1805492",
  "kinopoisk": "6.9",
  "kinopoisk_id": "607576",
  "world_art": null,
  "world_art_id": null,
  "time": "112 мин. / 01:52",
  "ads": false,
  "premier": "2012-01-14",
  "premier_rus": "2012-01-15",
  "availability": "2012-01-16",
  "activate_time": "2020-07-18 13:44:00",
  "budget": null,
  "fees_use": null,
  "fees_world": null,
  "fees_rus": null,
  "rate_mpaa": null,
  "description": "За несколько дней до выставки РобоЭкспо сотрудники небольшой компании, выпускающей бытовую электронику, случайно сломали экспериментальную модель человекоподобного робота, над которой работали последнее время. Понимая, что дело пахнет керосином, и их могут уволить, они решают всех обмануть, одев человека в оболочку робота. Найденный ими актер своими действиями притягивает внимание СМИ, так робот становится очень популярным.",
  "iframe_url": "",
  "iframe_poster": null,
  "poster": "https://img.imgilall.me/movies/franchise/2/7/3/8/1/0/0/0/0/0/610x900_27381.jpg",
  "country": {
    "18": "Япония"
  },
  "collection": [],
  "genre": {
    "19": "Комедия",
    "7": "Драма"
  },
  "director": [
    "Синобу Ягути"
  ],
  "screenwriter": [
    "Синобу Ягути"
  ],
  "producer": [
    "Наото Инаба"
  ],
  "operator": [
    "Кацуми Янагисима"
  ],
  "composer": [],
  "design": [],
  "editor": [
    "Рюдзи Миядзима"
  ],
  "actors": [
    "Наото Такэнака",
    "Юрико Ёситака",
    "Ёсиюки Морисита",
    "Томоко Табата",
    "Гаку Хамада",
    "Мики Кертис",
    "Эми Вакуи",
    "Тору Кидзу",
    "Такэхико Оно",
    "Тан Кавай"
  ],
  "actors_dubl": [],
  "trivia": [],
  "trailers": [],
  "seasons": [],
  "voiceActing": [
    "JoyStudio"
  ],
  "subtitle": [],
  "parts": []
}
