{
  "id": 24946,
  "name": "Вместе навсегда",
  "name_eng": "Anegan",
  "year": 2015,
  "slogan": "—",
  "age": null,
  "type": "film",
  "quality": "FHD (1080p)",
  "imdb": "6.7",
  "imdb_id": "2002868",
  "kinopoisk": null,
  "kinopoisk_id": "611801",
  "world_art": null,
  "world_art_id": null,
  "time": "154 мин. / 02:34",
  "ads": false,
  "premier": "2015-02-12",
  "premier_rus": "2015-02-13",
  "availability": "2015-02-14",
  "activate_time": "2020-06-22 14:38:00",
  "budget": null,
  "fees_use": null,
  "fees_world": null,
  "fees_rus": null,
  "rate_mpaa": null,
  "description": null,
  "iframe_url": "",
  "iframe_poster": null,
  "poster": "https://img.imgilall.me/movies/franchise/2/4/9/4/6/0/0/0/0/0/610x900_24946.jpg",
  "country": {
    "26": "Индия"
  },
  "collection": [],
  "genre": {
    "17": "Боевик",
    "13": "Триллер",
    "8": "Мелодрама"
  },
  "director": [
    "Ананд К.В."
  ],
  "screenwriter": [
    "А.Н. Балакришнан",
    "Д. Суреш",
    "Ананд К.В."
  ],
  "producer": [
    "Kalpathi S. Agoram",
    "Kalpathi S. Ganesh",
    "Kalpathi S. Suresh"
  ],
  "operator": [
    "Ом Пракаш",
    "Ом Пракаш"
  ],
  "composer": [
    "Харрис Джайярадж"
  ],
  "design": [
    "Kiran"
  ],
  "editor": [
    "Энтони"
  ],
  "actors": [
    "Дхануш",
    "Картик",
    "Амира Дастур",
    "Айшварья Деван",
    "Ашиш Видьятхи",
    "Мукеш Тивари",
    "Тхалаивасал Виджай",
    "Джаган Аян",
    "Vinaya Prakash",
    "Шанкар Кришнамуртхи"
  ],
  "actors_dubl": [],
  "trivia": [],
  "trailers": [],
  "seasons": [],
  "voiceActing": [
    "Рус. Люб. одноголосый",
    "Original"
  ],
  "subtitle": [],
  "parts": []
}
