{
  "id": 25141,
  "name": "Обратная тяга",
  "name_eng": "Backdraft",
  "year": 1991,
  "slogan": "«Один глоток кислорода - и он взрывается со смертоносной силой»",
  "age": "16+",
  "type": "film",
  "quality": "FHD (1080p)",
  "imdb": "6.7",
  "imdb_id": "0101393",
  "kinopoisk": "7.7",
  "kinopoisk_id": "6236",
  "world_art": null,
  "world_art_id": null,
  "time": "137 мин. / 02:17",
  "ads": false,
  "premier": "1991-05-22",
  "premier_rus": "1991-05-23",
  "availability": "1991-05-24",
  "activate_time": "2020-06-23 15:24:00",
  "budget": "$75 000 000",
  "fees_use": "$77 868 585",
  "fees_world": "+ $74 500 000 = $152 368 585",
  "fees_rus": null,
  "rate_mpaa": "R",
  "description": "«Обратная тяга» - это термин профессиональных пожарных. В результате «обратной тяги» погибает отец Брайана и Стивена. В отличие от Стивена, Брайан отказывается от карьеры пожарного, но судьба распоряжается так, что братья оказываются в одном отряде. Отношения между ними натянуты. Вскоре младший покидает команду, чтобы вместе со следователем поймать поджигателя-маньяка...",
  "iframe_url": "",
  "iframe_poster": null,
  "poster": "https://img.imgilall.me/movies/franchise/2/5/1/4/1/0/0/0/0/0/610x900_25141.jpg",
  "country": {
    "1": "США"
  },
  "collection": {
    "29": "Психологические",
    "27": "Про жизнь",
    "21": "Для молодёжи"
  },
  "genre": {
    "25": "Криминал",
    "24": "Детектив",
    "13": "Триллер",
    "7": "Драма"
  },
  "director": [
    "Рон Ховард"
  ],
  "screenwriter": [
    "Грегори Уайден"
  ],
  "producer": [
    "Пен Деншэм",
    "Джон Уотсон",
    "Раффаэлла Де Лаурентис"
  ],
  "operator": [
    "Микаэл Саломон"
  ],
  "composer": [
    "Ханс Циммер"
  ],
  "design": [
    "Альберт Бреннер",
    "Кэрол Уинстэд Вуд",
    "Джоди Линн Тиллен"
  ],
  "editor": [
    "Дэниэл П. Хэнли",
    "Майк Хилл"
  ],
  "actors": [
    "Курт Рассел",
    "Уильям Болдуин",
    "Роберт Де Ниро",
    "Дональд Сазерленд",
    "Дженнифер Джейсон Ли",
    "Скотт Гленн",
    "Ребекка Де Морнэй",
    "Джейсон Гедрик",
    "Дж.Т. Уолш",
    "Энтони Мокус ст."
  ],
  "actors_dubl": [],
  "trivia": [],
  "trailers": [],
  "seasons": [],
  "voiceActing": [
    "R5",
    "Рус. Проф. многоголосый",
    "ОРТ",
    "Рус. Проф. двухголосый",
    "А. Гаврилов",
    "Ю. Живов",
    "Eng.Original",
    "Eng. Orig. with Commentary"
  ],
  "subtitle": [
    "Рус. полные"
  ],
  "parts": []
}
