{
  "id": 43374,
  "name": "Хюррем Султан",
  "name_eng": "Hürrem Sultan",
  "year": 2003,
  "slogan": "—",
  "age": null,
  "type": "series",
  "quality": "SD",
  "imdb": "3.1",
  "imdb_id": "0424656",
  "kinopoisk": "6.7",
  "kinopoisk_id": "623705",
  "world_art": null,
  "world_art_id": null,
  "time": "—",
  "ads": false,
  "premier": "2003-09-01",
  "premier_rus": "2003-09-02",
  "availability": "2003-09-03",
  "serial_status": "offline",
  "activate_time": "2021-01-06 13:17:00",
  "budget": null,
  "fees_use": null,
  "fees_world": null,
  "fees_rus": null,
  "rate_mpaa": null,
  "description": "В основу многосерийного фильма «Хюррем Султан» легли подлинные события, произошедшие с уроженкой Украины Александрой Лисовской, более известной, как Роксолана. Александра попала в плен к крымским татарам, во время их нападения на Дикое Поле. Девушка очутилась в Стамбуле при дворе турецкого Султана Сулеймана. Визир Ибрагим — паша подарил ее султану. Судьба распорядилась жизнью этой девушки и кажется, будто ей остается только подчиниться и перестать роптать, жить при дворе и выполнять прихоти своего хозяина, как и полагает молодой наложнице. Александре пришлось принять другую веру, но даже после этого она не пожелала мириться со своим положением рабы. Молодая наложница Хюррем призвала на помощь все свое мужество, чтобы противостоять тем, кто покусился на ее свободу…",
  "iframe_url": "",
  "poster": "https://img.imgilall.me/movies/franchise/4/3/3/7/4/0/0/0/0/0/610x900_43374.jpg",
  "country": {
    "36": "Турция"
  },
  "collection": [],
  "genre": {
    "28": "Исторический"
  },
  "director": [
    "Фатих Аксой",
    "Фатманур Севинч"
  ],
  "screenwriter": [
    "Ильхами Алгёр",
    "Хюсейин Карагёз",
    "Мехмет Мурат Сомер"
  ],
  "producer": [
    "Фарук Аксой",
    "Фатих Аксой"
  ],
  "operator": [],
  "composer": [
    "Рахман Алтин"
  ],
  "design": [],
  "editor": [
    "Энгин Озтюрк"
  ],
  "actors": [
    "Гюльбен Эрген",
    "Али Сюрмели",
    "Есим Алич",
    "Перим Амач",
    "Хатидже Аслан",
    "Айберк Атила",
    "Эбру Айкач",
    "Халдун Бойсан",
    "Асуман Дабак",
    "Хусейн Авни Даньял"
  ],
  "actors_dubl": [],
  "trivia": [],
  "trailers": [],
  "seasons": [
    {
      "poster": null,
      "release_ru": null,
      "release_world": null,
      "availability": null,
      "iframe_url": "",
      "season": 1,
      "episodes": [
        {
          "episode": 1,
          "name": null,
          "iframe_url": "",
          "iframe_poster": null,
          "release_ru": null,
          "release_world": null,
          "availability": null,
          "voiceActing": [
            "Рус. Проф. многоголосый",
            "Turk.Original"
          ],
          "ads": false,
          "subtitle": []
        },
        {
          "episode": 2,
          "name": null,
          "iframe_url": "",
          "iframe_poster": null,
          "release_ru": null,
          "release_world": null,
          "availability": null,
          "voiceActing": [
            "Рус. Проф. многоголосый",
            "Turk.Original"
          ],
          "ads": false,
          "subtitle": []
        },
        {
          "episode": 3,
          "name": null,
          "iframe_url": "",
          "iframe_poster": null,
          "release_ru": null,
          "release_world": null,
          "availability": null,
          "voiceActing": [
            "Рус. Проф. многоголосый",
            "Turk.Original"
          ],
          "ads": false,
          "subtitle": []
        },
        {
          "episode": 4,
          "name": null,
          "iframe_url": "",
          "iframe_poster": null,
          "release_ru": null,
          "release_world": null,
          "availability": null,
          "voiceActing": [
            "Рус. Проф. многоголосый",
            "Turk.Original"
          ],
          "ads": false,
          "subtitle": []
        },
        {
          "episode": 5,
          "name": null,
          "iframe_url": "",
          "iframe_poster": null,
          "release_ru": null,
          "release_world": null,
          "availability": null,
          "voiceActing": [
            "Рус. Проф. многоголосый",
            "Turk.Original"
          ],
          "ads": false,
          "subtitle": []
        },
        {
          "episode": 6,
          "name": null,
          "iframe_url": "",
          "iframe_poster": null,
          "release_ru": null,
          "release_world": null,
          "availability": null,
          "voiceActing": [
            "Рус. Проф. многоголосый",
            "Turk.Original"
          ],
          "ads": false,
          "subtitle": []
        },
        {
          "episode": 7,
          "name": null,
          "iframe_url": "",
          "iframe_poster": null,
          "release_ru": null,
          "release_world": null,
          "availability": null,
          "voiceActing": [
            "Рус. Проф. многоголосый",
            "Turk.Original"
          ],
          "ads": false,
          "subtitle": []
        },
        {
          "episode": 8,
          "name": null,
          "iframe_url": "",
          "iframe_poster": null,
          "release_ru": null,
          "release_world": null,
          "availability": null,
          "voiceActing": [
            "Рус. Проф. многоголосый",
            "Turk.Original"
          ],
          "ads": false,
          "subtitle": []
        }
      ]
    }
  ],
  "voiceActing": [
    "Рус. Проф. многоголосый",
    "Turk.Original"
  ],
  "subtitle": [],
  "parts": []
}
