{
  "id": 18080,
  "name": "Маруся",
  "name_eng": "Marussia",
  "year": 2013,
  "slogan": "—",
  "age": "0+",
  "type": "film",
  "quality": "FHD (1080p)",
  "imdb": "6.9",
  "imdb_id": "1906422",
  "kinopoisk": "5.3",
  "kinopoisk_id": "637982",
  "world_art": null,
  "world_art_id": null,
  "time": "82 мин. / 01:22",
  "ads": false,
  "premier": "2013-02-10",
  "premier_rus": "2013-02-11",
  "availability": "2013-02-12",
  "activate_time": "2020-05-19 04:57:00",
  "budget": "€800 000",
  "fees_use": null,
  "fees_world": null,
  "fees_rus": null,
  "rate_mpaa": null,
  "description": "Маруся - так зовут маленькую девочку, дочку 38-летней Ларисы, бывшей фотомодели, которая живет во Франции, стране ее мечты, где она так долго и безуспешно ищет мужчину своей мечты. «Ma Roussie» - по-французски «моя Россия». Имя девочки так созвучно с названием ее страны, о которой пятилетняя Маруся почти ничего не помнит, разве что «там много снега, и они едят с бабушкой апельсины только зимой». Ее дом давно уже здесь во Франции, правда, у ее мамы здесь нет ни работы, ни крыши над головой. Иногда они даже не знают, где им переночевать. Но разве это важно? Главное, что они есть друг у друга. Мать и дочь. А значит все будет хорошо, если не сейчас, то в будущем точно.",
  "iframe_url": "",
  "iframe_poster": null,
  "poster": "https://img.imgilall.me/movies/franchise/1/8/0/8/0/0/0/0/0/0/610x900_18080.jpg",
  "country": {
    "9": "Франция",
    "5": "Россия"
  },
  "collection": {
    "79": "Про детей"
  },
  "genre": {
    "33": "Семейный",
    "7": "Драма"
  },
  "director": [
    "Эва Перволовичи"
  ],
  "screenwriter": [
    "Эва Перволовичи",
    "Моника Стэн"
  ],
  "producer": [
    "Янья Крали",
    "Фридерик Беллайше",
    "Константин Божанов"
  ],
  "operator": [
    "Альфредо Альтамирано"
  ],
  "composer": [
    "Витто Мерейе"
  ],
  "design": [
    "Селин Геру",
    "Клоэ Тревело"
  ],
  "editor": [
    "Дуня Сычева"
  ],
  "actors": [
    "Динара Друкарова",
    "Мари-Изабель Стейнман",
    "Георгий Баблуани",
    "Дуня Сычева",
    "Мадалина Константин",
    "Шарунас Бартас",
    "Дени Лаван",
    "Константин Лунарин",
    "Софи Вербек",
    "Лоррэйн Мордилла"
  ],
  "actors_dubl": [],
  "trivia": [],
  "trailers": [],
  "seasons": [],
  "voiceActing": [
    "Рус. Проф. многоголосый"
  ],
  "subtitle": [],
  "parts": []
}
