{
  "id": 49729,
  "name": "Девочки снова сверху",
  "name_eng": "Mädchen Mädchen 2",
  "year": 2004,
  "slogan": "«Дас ист суперфантастиш!»",
  "age": "16+",
  "type": "film",
  "quality": "SD",
  "imdb": "4.8",
  "imdb_id": "0385891",
  "kinopoisk": "5.7",
  "kinopoisk_id": "63907",
  "world_art": null,
  "world_art_id": null,
  "time": "88 мин. / 01:28",
  "ads": false,
  "premier": "2004-06-17",
  "premier_rus": "2005-09-08",
  "availability": "2005-09-09",
  "activate_time": "2021-08-19 14:51:00",
  "budget": null,
  "fees_use": null,
  "fees_world": null,
  "fees_rus": "$270 000",
  "rate_mpaa": null,
  "description": "Иногда они уходят добровольно. Иногда получают «крепкого пинка». Это называется «расставание с родителями и начало самостоятельной жизни». В случае с Инкен это был как раз второй вариант.Она вместе с подружками Леной и Люси решают снять квартиру, но как это сделать при полном отсутствии материальных средств? Выход есть: найти обеспеченных парней с большими… квартирами. У девчонок есть и шарм, и обаяние, и им остается лишь одно: найти подходящую «жертву»…",
  "iframe_url": "",
  "iframe_poster": null,
  "poster": "https://img.imgilall.me/movies/franchise/4/9/7/2/9/0/0/0/0/0/610x900_49729.jpg",
  "country": {
    "20": "Германия"
  },
  "collection": [],
  "genre": {
    "19": "Комедия",
    "8": "Мелодрама"
  },
  "director": [
    "Петер Герсина"
  ],
  "screenwriter": [
    "Мэгги Перен",
    "Петер Герсина",
    "Виола Ягер"
  ],
  "producer": [
    "Виола Ягер",
    "Харольд Кёглер",
    "Молли фон Фюрстенберг"
  ],
  "operator": [
    "Йохен Штёбляйн"
  ],
  "composer": [
    "Кристоф Кайзер",
    "Юлиан Маас"
  ],
  "design": [
    "Йозеф Санктйоханзер",
    "Ева Кантор"
  ],
  "editor": [
    "Энн Кристин Лоуэр"
  ],
  "actors": [
    "Диана Амфт",
    "Каролина Херфурт",
    "Жасмин Герат",
    "Макс Римельт",
    "Себастьян Штробель",
    "Симон Ферхоэвен",
    "Макс фон Тун",
    "Флориан Давид Фиц",
    "Патрик Гюльденберг",
    "Михаэль Бранднер"
  ],
  "actors_dubl": [],
  "trivia": [],
  "trailers": [],
  "seasons": [],
  "voiceActing": [
    "Diva Universal"
  ],
  "subtitle": [],
  "parts": [
    49729,
    49728
  ]
}
