{
  "id": 20744,
  "name": "Лондон, Париж, Нью-Йорк",
  "name_eng": "London Paris New York",
  "year": 2012,
  "slogan": "«3 Days... Infinite Moments...»",
  "age": null,
  "type": "film",
  "quality": "SD",
  "imdb": "5.7",
  "imdb_id": "2064849",
  "kinopoisk": "6.9",
  "kinopoisk_id": "633844",
  "world_art": null,
  "world_art_id": null,
  "time": "100 мин. / 01:40",
  "ads": true,
  "premier": "2012-03-01",
  "premier_rus": "2012-03-02",
  "availability": "2012-03-03",
  "activate_time": "2020-06-01 13:15:00",
  "budget": null,
  "fees_use": null,
  "fees_world": null,
  "fees_rus": null,
  "rate_mpaa": "PG-13",
  "description": "Настоящую любовь нельзя или найти, или встретить: мимо неё невозможно пройти!  Так и случилось с Лалитой и Никхилом, которые однажды оказались в одном аэропорту в Лондоне. Никхил подобрал оброненную книгу и отдал ее куда-то спешащей девушке, и, видно, что-то в ней его так зацепило, что расстаться с Лалитой он уже не смог. Девушке негде было остановиться в Лондоне, и Никхил провел с ней весь день и всю ночь, показывая красоты города и всячески развлекая, а утром посадил ее на самолет, чтобы затем встретиться с Лалитой… только через 2 года. Следующее приключение в Париже стоило им слез, обид и расставания еще на 6 лет. Нью-Йорк встретил их изменившимися, раскаявшимися в прошлых грехах, но время для любви, возможно, уже безвозвратно утеряно, если только… их чувства не настоящие.",
  "iframe_url": "",
  "iframe_poster": null,
  "poster": "https://img.imgilall.me/movies/franchise/2/0/7/4/4/0/0/0/0/0/610x900_20744.jpg",
  "country": {
    "26": "Индия"
  },
  "collection": {
    "38": "Про любовь"
  },
  "genre": {
    "8": "Мелодрама"
  },
  "director": [
    "Ану Менон"
  ],
  "screenwriter": [
    "Риту Бхатия",
    "Ану Менон"
  ],
  "producer": [
    "Голди Бехл",
    "Вивек Агравал",
    "Шришти Бехл"
  ],
  "operator": [
    "Самир Арья"
  ],
  "composer": [
    "Али Зафар"
  ],
  "design": [
    "Шрия Ананд",
    "Мандип Патхеджа"
  ],
  "editor": [
    "Салли Салгаонкар"
  ],
  "actors": [
    "Али Зафар",
    "Адити Рао Хидари",
    "Candice Lana Pereira",
    "Шеррикар Белл",
    "Гуршаран Чаггар",
    "Дила Гуломова",
    "Джудит Клементс",
    "Крис Коулин",
    "Марко Фламмер",
    "Ойхана Гарде"
  ],
  "actors_dubl": [],
  "trivia": [],
  "trailers": [],
  "seasons": [],
  "voiceActing": [
    "Рус. Проф. многоголосый",
    "Hindi Original"
  ],
  "subtitle": [],
  "parts": []
}
