{
  "id": 4947,
  "name": "Большая рыба и Бегония",
  "name_eng": "Da Hai",
  "year": 2016,
  "slogan": null,
  "age": "12+",
  "type": "cartoon",
  "quality": "HD (720p)",
  "imdb": "7.1",
  "imdb_id": "1920885",
  "kinopoisk": "7.5",
  "kinopoisk_id": "630465",
  "world_art": null,
  "world_art_id": null,
  "time": "100 мин. / 01:40",
  "ads": false,
  "premier": "2016-07-03",
  "premier_rus": "2018-08-09",
  "availability": null,
  "activate_time": "2018-12-24 12:48:40",
  "budget": "CNY 30 000 000",
  "fees_use": null,
  "fees_world": "$85 409 373",
  "fees_rus": "$127 922",
  "rate_mpaa": "PG-13",
  "description": "В сердце океана сокрыт волшебный мир — обитель существ, управляющих течениями и сменой времён года. У них есть традиция: как только обитатель того мира достигает 16-летия, он должен на 7 дней отправиться в мир людей. Девушка Юна принимает облик красного дельфина и плывет посмотреть на человечество, но попадает в рыболовные сети. Ценой собственной жизни её спасает местный парень, и тогда Юна, чувствуя вину и ответственность, обращает его душу в маленькую рыбку и берет её с собой в волшебный мир.",
  "iframe_url": "",
  "iframe_poster": "https://img.imgilall.me/movies/video/4/6/8/8/4/0/0/0/0/0/800x450_46884.jpeg",
  "poster": "https://img.imgilall.me/movies/franchise/4/9/4/7/0/0/0/0/0/0/610x900_4947.jpg",
  "country": {
    "19": "Китай"
  },
  "collection": [],
  "genre": {
    "6": "Фэнтези",
    "7": "Драма"
  },
  "director": [
    "Лян Сюань",
    "Чжан Чунь"
  ],
  "screenwriter": [
    "Лян Сюань"
  ],
  "producer": [
    "Чэнь Цзе",
    "Филип Чань",
    "Чэнь Личжи"
  ],
  "operator": [
    "Лян Сюань"
  ],
  "composer": [
    "Киёси Ёсида"
  ],
  "design": [
    "Чжан Чунь"
  ],
  "editor": [
    "Ту Ижань"
  ],
  "actors": [
    "Цзи Гуаньлинь",
    "Су Шанцин",
    "Сюй Вэйчжоу",
    "Цзинь Шицзя",
    "Пань Шулань",
    "Чжан Юаньюань",
    "Цзюэр",
    "Сюэ Лифан",
    "Чжан Цзе",
    "Лю Сяоюй"
  ],
  "actors_dubl": [
    "Алёна Созинова",
    "Прохор Чеховской",
    "Иван Породнов",
    "Людмила Ильина",
    "Ольга Голованова"
  ],
  "trivia": [
    "Производство мультфильма в сумме заняло 12 лет: начиналось в 2004 году, потом прекратилось финансирование, в 2013 году запустилась краудфандинговая кампания, и лишь в 2016 году состоялась премьера.",
    "В оригинальной версии главную героиню зовут Чунь."
  ],
  "trailers": [],
  "seasons": [],
  "voiceActing": [
    "Рус. Люб. многоголосый"
  ],
  "subtitle": [],
  "parts": []
}
