{
  "id": 3539,
  "name": "Секретная служба Санты: Шалуны против Паинек",
  "name_eng": "Prep & Landing: Naughty vs. Nice",
  "year": 2011,
  "slogan": null,
  "age": "0+",
  "type": "cartoon",
  "quality": "HD (720p)",
  "imdb": "7.4",
  "imdb_id": "2069885",
  "kinopoisk": "7.0",
  "kinopoisk_id": "630035",
  "world_art": null,
  "world_art_id": null,
  "time": "22 мин.",
  "ads": false,
  "premier": "2011-12-05",
  "premier_rus": "2011-12-31",
  "availability": null,
  "activate_time": "2018-11-15 12:28:42",
  "budget": null,
  "fees_use": null,
  "fees_world": null,
  "fees_rus": null,
  "rate_mpaa": null,
  "description": "Что может быть сложнее, чем спасти грядущее Рождество? Судьба уготовила отважным эльфам Уэйну и Лэнни новую миссию по спасению грядущего праздника… А поможет им в этом старый знакомый Уэйна — эльф-угольщик Ноэл.",
  "iframe_url": "",
  "iframe_poster": "https://img.imgilall.me/movies/video/3/3/7/5/9/0/0/0/0/0/800x450_33759.jpeg",
  "poster": "https://img.imgilall.me/movies/franchise/3/5/3/9/0/0/0/0/0/0/610x900_3539.jpg",
  "country": {
    "1": "США"
  },
  "collection": {
    "3": "Рождественские"
  },
  "genre": {
    "6": "Фэнтези",
    "53": "Короткометражный",
    "37": "Детский",
    "33": "Семейный",
    "17": "Боевик",
    "10": "Зарубежный"
  },
  "director": [
    "Кевин Дитерс",
    "Стиви Вермерс"
  ],
  "screenwriter": [
    "Кевин Дитерс",
    "Стиви Вермерс",
    "Пол Бриггс"
  ],
  "producer": [
    "Дороти МакКим",
    "Джон Лассетер",
    "Крэйг Сост"
  ],
  "operator": [],
  "composer": [
    "Майкл Джаккино"
  ],
  "design": [],
  "editor": [
    "Джефф Дрэхейм"
  ],
  "actors": [
    "Дэйв Фоли",
    "Дерек Ричардсон",
    "Сара Чок",
    "Роб Риггл",
    "Крис Парнелл",
    "Уильям Морган Шеппард",
    "Эмили Элин Линд",
    "Хэйз МакАртур",
    "Фил ЛаМарр",
    "Крис Харрисон"
  ],
  "actors_dubl": [
    "Диомид Виноградов",
    "Прохор Чеховской",
    "Ирина Киреева",
    "Пётр Иващенко",
    "Михаил Георгиу"
  ],
  "trivia": [],
  "trailers": [],
  "seasons": [],
  "voiceActing": [
    "Рус. Дублированный",
    "Рус. Проф. многоголосый",
    "Eng.Original"
  ],
  "subtitle": [],
  "parts": [
    3482,
    3539
  ]
}
