{
  "id": 20900,
  "name": "Голубь сидел на ветке, размышляя о бытии",
  "name_eng": "En duva satt på en gren och funderade på tillvaron",
  "year": 2014,
  "slogan": "—",
  "age": "12+",
  "type": "film",
  "quality": "HD (720p)",
  "imdb": "7.0",
  "imdb_id": "1883180",
  "kinopoisk": "6.5",
  "kinopoisk_id": "634473",
  "world_art": null,
  "world_art_id": null,
  "time": "101 мин. / 01:41",
  "ads": true,
  "premier": "2014-09-02",
  "premier_rus": "2015-07-02",
  "availability": "2015-07-03",
  "activate_time": "2020-05-29 20:19:00",
  "budget": null,
  "fees_use": "$222 989",
  "fees_world": "+ $1 249 442 = $1 472 431",
  "fees_rus": "$65 131",
  "rate_mpaa": "PG-13",
  "description": "Действие фильма, состоящего из 39 трагикомических скетчей, разворачивается в неопределённой западноевропейской стране. Герои сменяют друг друга; основная сюжетная нагрузка приходится на странную пару — это внешне слегка напоминающий зомби торговец бессмысленной утварью (клык вампира, «мешок со смехом», страшная резиновая маска) и его умственно отсталый приятель.",
  "iframe_url": "",
  "iframe_poster": null,
  "poster": "https://img.imgilall.me/movies/franchise/2/0/9/0/0/0/0/0/0/0/610x900_20900.jpg",
  "country": {
    "9": "Франция",
    "20": "Германия",
    "25": "Дания",
    "28": "Швеция",
    "53": "Норвегия"
  },
  "collection": {
    "38": "Про любовь"
  },
  "genre": {
    "6": "Фэнтези",
    "19": "Комедия",
    "7": "Драма"
  },
  "director": [
    "Рой Андерссон"
  ],
  "screenwriter": [
    "Рой Андерссон"
  ],
  "producer": [
    "Филипп Бобер",
    "Пернилла Сандстрём",
    "Йохан Карлссон"
  ],
  "operator": [
    "Иштван Борбаш",
    "Гергей Палош"
  ],
  "composer": [
    "Хани Джаззар",
    "Горм Сандберг"
  ],
  "design": [
    "Джулия Тегстрём"
  ],
  "editor": [
    "Александра Штраусс"
  ],
  "actors": [
    "Нилс Вестблом",
    "Хольгер Андерссон",
    "Per Bergqvist",
    "Лотта Ларссон",
    "Солвейг Андерссон",
    "Виктор Джилленберг",
    "Стюр Олссон",
    "Лотти Тёрнрос",
    "Йонас Герхолм",
    "Ingvar Olsson"
  ],
  "actors_dubl": [],
  "trivia": [
    "На выбор названия фильма повлияла вдохновившая его создателей картина Питера Брейгеля-старшего «Охотники на снегу» («The Hunters in the Snow»).",
    "В военном гимне, который несколько раз исполняется в фильме, использована мелодия «Боевого гимна Республики».",
    "По словам Роя Андерссона, источником вдохновения для этого проекта для него послужил фильм «Похитители велосипедов» (1948)."
  ],
  "trailers": [],
  "seasons": [],
  "voiceActing": [
    "Рус. Проф. многоголосый",
    "Original"
  ],
  "subtitle": [
    "Рус. полные"
  ],
  "parts": []
}
