{
  "id": 32306,
  "name": "Убойный уикенд",
  "name_eng": "Cottage Country",
  "year": 2012,
  "slogan": "«They aren't going to let a little blood spoil their perfect wedding»",
  "age": "18+",
  "type": "film",
  "quality": "HD (720p)",
  "imdb": "5.6",
  "imdb_id": "0",
  "kinopoisk": "5.1",
  "kinopoisk_id": "630398",
  "world_art": null,
  "world_art_id": null,
  "time": "91 мин. / 01:31",
  "ads": false,
  "premier": "2013-07-03",
  "premier_rus": "2013-10-10",
  "availability": "2013-10-11",
  "activate_time": "2020-07-14 06:54:00",
  "budget": null,
  "fees_use": null,
  "fees_world": "$174 306",
  "fees_rus": "$185 345",
  "rate_mpaa": null,
  "description": "Тодд Чиповски собирается провести незабываемый уикенд в загородном коттедже, который он арендовал специально для того, чтобы сделать предложение своей возлюбленной Кэмми Райан. Но торжественное событие и чудесный отдых подпортило появление братца Тодда Сэлинджера и его подружки Маши. Однако выходные всё равно становятся для героев незабываемыми — особенно после того, как Тодд в порыве ярости случайно убивает своего брата топором.",
  "iframe_url": "",
  "iframe_poster": null,
  "poster": "https://img.imgilall.me/movies/franchise/3/2/3/0/6/0/0/0/0/0/610x900_32306.jpg",
  "country": {
    "7": "Канада"
  },
  "collection": [],
  "genre": {
    "25": "Криминал",
    "19": "Комедия",
    "13": "Триллер"
  },
  "director": [
    "Питер Веллингтон"
  ],
  "screenwriter": [
    "Джереми Боксен"
  ],
  "producer": [
    "Фрэнк Сиракуза",
    "Пол Гросс"
  ],
  "operator": [
    "Люк Монпелье"
  ],
  "composer": [
    "Эшер Ленц",
    "Стивен Скратт"
  ],
  "design": [
    "Филлип Баркер",
    "Назгол Гоштасбпур",
    "Лиа Карлсон"
  ],
  "editor": [
    "Кристофер Дональдсон"
  ],
  "actors": [
    "Тайлер Лабин",
    "Малин Акерман",
    "Люси Панч",
    "Дэн Петрониевич",
    "Бенджамин Эйрс",
    "Кеннет Уэлш",
    "Нэнси Битти",
    "Сабрина Грдевич",
    "Джим Аннан",
    "Джонатан Кромби"
  ],
  "actors_dubl": [
    "Иван Калинин",
    "Лариса Некипелова",
    "Елена Шульман",
    "Антон Савенков",
    "Станислав Стрелков"
  ],
  "trivia": [],
  "trailers": [],
  "seasons": [],
  "voiceActing": [
    "Cartoon Network"
  ],
  "subtitle": [],
  "parts": []
}
