{
  "id": 2820,
  "name": "Эммануэль",
  "name_eng": "Emmanuelle",
  "year": 1974,
  "slogan": "«X was never like this»",
  "age": "18+",
  "type": "film",
  "quality": "FHD (1080p)",
  "imdb": "5.3",
  "imdb_id": "0071464",
  "kinopoisk": "5.8",
  "kinopoisk_id": "63774",
  "world_art": null,
  "world_art_id": null,
  "time": "105 мин. / 01:45",
  "ads": false,
  "premier": "1974-06-26",
  "premier_rus": null,
  "availability": null,
  "activate_time": "2018-10-12 11:05:13",
  "budget": "$500 000",
  "fees_use": "$8 720 000",
  "fees_world": null,
  "fees_rus": null,
  "rate_mpaa": "R",
  "description": "Первый фильм о жрице любви Эммануэль. Сюжет служит канвой для описания сексуальных похождений героини в Юго-Восточной Азии.Муж Эммануэль, работающий в посольстве, поощряет в ней стремление к раскрепощенности в сексе, благо весь дипломатический корпус, особенно женщины, изнывают от скуки. За её воспитание берется уже пожилой специалист. Эммануэль делает большие успехи в искусстве любви.",
  "iframe_url": "",
  "iframe_poster": null,
  "poster": "https://img.imgilall.me/movies/franchise/2/8/2/0/0/0/0/0/0/0/610x900_2820.jpg",
  "country": {
    "9": "Франция"
  },
  "collection": [],
  "genre": {
    "55": "Эротика",
    "10": "Зарубежный",
    "7": "Драма"
  },
  "director": [
    "Жюст Жэкин"
  ],
  "screenwriter": [
    "Жан-Луи Ришар",
    "Эмманюэль Арсан"
  ],
  "producer": [
    "Ив Руссе-Руар"
  ],
  "operator": [
    "Ричард Судзуки"
  ],
  "composer": [
    "Пьер Башле"
  ],
  "design": [
    "Жорж Бриль"
  ],
  "editor": [
    "Клодин Буше"
  ],
  "actors": [
    "Сильвия Кристель",
    "Ален Кюни",
    "Марика Грин",
    "Даниэль Сарки",
    "Жанна Коллетен",
    "Кристин Буассон",
    "Саманта",
    "Габриэль Бриан",
    "Грегори"
  ],
  "actors_dubl": [],
  "trivia": [
    "В кинотеатре на Елисейских полях в Париже фильм шёл без перерывов с 1974 по 1985 год.",
    "Власти Таиланда отказали в разрешении на съёмки из-за эротического характера фильма, вынудив его авторов пойти на уловку. Властям была представлена начальная версия сценария, который авторы фильма снимать не собирались.",
    "Фильм дал старт множеству сиквелов и спин-оффов, самыми известными из которых являются итальянские фильмы о чёрной Эмануэль (одну «м» из имени главной героини убрали во избежание претензий со стороны создателей фильма об Эммануэль)."
  ],
  "trailers": [],
  "seasons": [],
  "voiceActing": [
    "Рус. Проф. многоголосый",
    "Fr. Original"
  ],
  "subtitle": [
    "Рус. полные"
  ],
  "parts": [
    2820,
    2821,
    2822,
    2823
  ]
}
