{
  "id": 32815,
  "name": "Разрешите вас прикончить?",
  "name_eng": "May I Kill U?",
  "year": 2012,
  "slogan": "«A psychopath on the cycle path»",
  "age": "16+",
  "type": "film",
  "quality": "SD",
  "imdb": "5.6",
  "imdb_id": "0",
  "kinopoisk": "5.3",
  "kinopoisk_id": "634086",
  "world_art": null,
  "world_art_id": null,
  "time": "88 мин. / 01:28",
  "ads": false,
  "premier": "2012-08-25",
  "premier_rus": "2013-03-14",
  "availability": "2013-03-15",
  "activate_time": "2020-07-14 13:16:00",
  "budget": "£ 1 000 000",
  "fees_use": null,
  "fees_world": null,
  "fees_rus": "$11 057",
  "rate_mpaa": null,
  "description": "Британская черная комедия, возникшая на фоне недавних беспорядков в Лондоне и рассказывающая историю патрульного полицейского, одержимого буйными идеями. В компании с камерой на своём шлеме он крутит педали велосипеда вперёд, в поисках славы и возмездия — с веселыми и очень разрушительными последствиями.",
  "iframe_url": "",
  "iframe_poster": null,
  "poster": "https://img.imgilall.me/movies/franchise/3/2/8/1/5/0/0/0/0/0/610x900_32815.jpg",
  "country": {
    "2": "Великобритания"
  },
  "collection": [],
  "genre": {
    "19": "Комедия",
    "13": "Триллер"
  },
  "director": [
    "Стюарт Урбан"
  ],
  "screenwriter": [
    "Стюарт Урбан"
  ],
  "producer": [
    "Алан Джей",
    "Стюарт Урбан",
    "Карлин Бидл"
  ],
  "operator": [
    "Фернандо Руис Ромеро"
  ],
  "composer": [
    "Хаим Фрэнк Ильфман"
  ],
  "design": [
    "Сабина Саттар",
    "Питер Сеймур Хауэлл",
    "Кэти Лэнг"
  ],
  "editor": [
    "Кристофер К.Ф. Чоу",
    "Фернандо Руис Ромеро"
  ],
  "actors": [
    "Кевин Бишоп",
    "Джек Дулан",
    "Фрэнсис Барбер",
    "Хейли-Мари Экс",
    "Катажина Колечек",
    "Розмари Лич",
    "Али Крэйг",
    "Рэйчел Эвелин",
    "Израэль Оба",
    "Джессика Джексон-Смит"
  ],
  "actors_dubl": [],
  "trivia": [
    "Во время съемок на скрытую камеру дублер Кевина Бишопа был замечен полицейскими на юго-западе Лондона, когда промчался мимо их машины на полицейском велосипеде с прикрепленной на нем камерой. Полиция начала его преследовать, но каскадеру удалось скрыться.",
    "Во время съемок Кевина Бишопа несколько раз принимали за настоящего полицейского, разъезжающего на велосипеде по улицам Лондона. Он угрожал арестовать назойливого таксиста, который въехал в кадр, и благодаря этому удалось завершить сцену."
  ],
  "trailers": [],
  "seasons": [],
  "voiceActing": [
    "Diva Universal"
  ],
  "subtitle": [],
  "parts": []
}
