{
  "id": 35816,
  "name": "Ночь живых морковок",
  "name_eng": "Night of the Living Carrots",
  "year": 2011,
  "slogan": "—",
  "age": null,
  "type": "cartoon",
  "quality": "FHD (1080p)",
  "imdb": "6.3",
  "imdb_id": "2090578",
  "kinopoisk": "6.0",
  "kinopoisk_id": "638877",
  "world_art": null,
  "world_art_id": null,
  "time": "13 мин.",
  "ads": false,
  "premier": "2011-10-12",
  "premier_rus": "2011-10-13",
  "availability": "2011-10-14",
  "activate_time": "2020-08-04 13:27:00",
  "budget": null,
  "fees_use": null,
  "fees_world": null,
  "fees_rus": null,
  "rate_mpaa": null,
  "description": "После того, как чужеродная тыква-мутант взрывается в морковном саду Мерфи, зомби начинают атаковать морковь в непосредственной близости, и это приводит к сумасшедшим событиям.",
  "iframe_url": "",
  "iframe_poster": null,
  "poster": "https://img.imgilall.me/movies/franchise/3/5/8/1/6/0/0/0/0/0/610x900_35816.jpg",
  "country": {
    "1": "США"
  },
  "collection": [],
  "genre": {
    "11": "Фантастика",
    "53": "Короткометражный",
    "33": "Семейный",
    "19": "Комедия"
  },
  "director": [
    "Роберт Портер"
  ],
  "screenwriter": [
    "Билл Рилинг",
    "Роберт Портер",
    "Спенсер Филичия"
  ],
  "producer": [
    "Лиза Стюарт",
    "Аарон Дем"
  ],
  "operator": [],
  "composer": [
    "Мэттью Марджесон"
  ],
  "design": [
    "Сэм Михлэп"
  ],
  "editor": [
    "Брэт Марнелл"
  ],
  "actors": [
    "Сет Роген",
    "Кифер Сазерленд",
    "Джеймс Хоран",
    "Дэвид Кэй",
    "Джули Уайт",
    "Джеффри Тэмбор",
    "Брэт Марнелл",
    "Стивен Кеарин"
  ],
  "actors_dubl": [
    "Константин Карасик",
    "Александр Новиков",
    "Данил Щебланов",
    "Сергей Чихачёв",
    "Диомид Виноградов"
  ],
  "trivia": [],
  "trailers": [],
  "seasons": [],
  "voiceActing": [
    "Рус. Дублированный",
    "Рус. Люб. многоголосый",
    "Eng.Original"
  ],
  "subtitle": [
    "Eng. full"
  ],
  "parts": []
}
