{
  "id": 38305,
  "name": "Чертова дюжина из Шанхая",
  "name_eng": "Shang Hai tan: Shi san tai bao",
  "year": 1984,
  "slogan": "—",
  "age": null,
  "type": "film",
  "quality": "SD",
  "imdb": "6.4",
  "imdb_id": "0083061",
  "kinopoisk": null,
  "kinopoisk_id": "64229",
  "world_art": null,
  "world_art_id": null,
  "time": "90 мин. / 01:30",
  "ads": false,
  "premier": null,
  "premier_rus": null,
  "availability": null,
  "activate_time": "2020-10-12 06:05:00",
  "budget": null,
  "fees_use": null,
  "fees_world": null,
  "fees_rus": null,
  "rate_mpaa": null,
  "description": "Представители китайских властей готовятся подписать договор с японцами, который превратит Китай фактически в придаток Страны Восходящего солнца. Все это делается в тайне от общественности, но патриоты хотят, чтобы все знали правду. Поэтому они выкрадывают готовящийся документ и пытаются переправить его в Гонконг. На защиту господина Гао, во владении которого находится бумага, встают лучшие бойцы Шанхая, но им нужно все время быть начеку – по следам Гао идут безжалостные убийцы.",
  "iframe_url": "",
  "iframe_poster": null,
  "poster": "https://img.imgilall.me/movies/franchise/3/8/3/0/5/0/0/0/0/0/610x900_38305.jpg",
  "country": {
    "12": "Гонконг",
    "13": "Тайвань"
  },
  "collection": [],
  "genre": {
    "17": "Боевик"
  },
  "director": [
    "Чан Че"
  ],
  "screenwriter": [
    "Чан Че"
  ],
  "producer": [
    "Си Фэн Чан"
  ],
  "operator": [
    "У Коцзэнь"
  ],
  "composer": [
    "Моу Шан Хуанг"
  ],
  "design": [
    "Neng-Yuan Ku",
    "Юнг Хуанг",
    "Chih-Liang Chou"
  ],
  "editor": [
    "Shan-Liang Lin"
  ],
  "actors": [
    "Чэнь Куаньтай",
    "Шенг Чианг",
    "Фенг Лу",
    "Майкл Чан",
    "Чан Фэн",
    "Hai-Lun Chang",
    "Питер Чанг",
    "Таи Ланг Чанг",
    "Чен Ча Хой",
    "Чэнь Син"
  ],
  "actors_dubl": [],
  "trivia": [],
  "trailers": [],
  "seasons": [],
  "voiceActing": [
    "Важенин (BadBajo)"
  ],
  "subtitle": [],
  "parts": []
}
