{
  "id": 27878,
  "name": "Опасные игры",
  "name_eng": "The Dangerous Lives of Altar Boys",
  "year": 2002,
  "slogan": "«Trouble is Their Only Defense Against Boredom»",
  "age": "16+",
  "type": "film",
  "quality": "HD (720p)",
  "imdb": "7.0",
  "imdb_id": "0238924",
  "kinopoisk": "7.1",
  "kinopoisk_id": "647",
  "world_art": null,
  "world_art_id": null,
  "time": "104 мин. / 01:44",
  "ads": false,
  "premier": "2002-01-18",
  "premier_rus": "2002-01-19",
  "availability": "2002-01-20",
  "activate_time": "2020-06-27 10:48:00",
  "budget": "$12 000 000",
  "fees_use": "$1 815 864",
  "fees_world": "+ $220 735 = $2 036 599",
  "fees_rus": null,
  "rate_mpaa": "R",
  "description": "История двух друзей-школьников, жизнь которых, как и у большинства их сверстников, заполнена обычными мальчишескими развлечениями: шалости на уроках, дружеские подначки, издевки над учителями и первая юношеская любовь... Но со временем забавы двух приятелей все ближе подходят к опасной черте - ставкой в новой «игре» становится жизнь человека.",
  "iframe_url": "",
  "iframe_poster": null,
  "poster": "https://img.imgilall.me/movies/franchise/2/7/8/7/8/0/0/0/0/0/610x900_27878.jpg",
  "country": {
    "1": "США"
  },
  "collection": [],
  "genre": {
    "19": "Комедия",
    "7": "Драма"
  },
  "director": [
    "Питер Кэа"
  ],
  "screenwriter": [
    "Джефф Стокуэлл",
    "Майкл Петрони",
    "Крис Фюрман"
  ],
  "producer": [
    "Джоди Фостер",
    "Мэг ЛеФов",
    "Джей Шапиро"
  ],
  "operator": [
    "Лэнс Экорд"
  ],
  "composer": [
    "Марко Белтрами"
  ],
  "design": [
    "Гидеон Понте",
    "Джеффри С. Гримсман",
    "Мари Френс"
  ],
  "editor": [
    "Крис Пеппе"
  ],
  "actors": [
    "Эмиль Хирш",
    "Киран Калкин",
    "Винсент Д’Онофрио",
    "Джена Мэлоун",
    "Джэйк Ричардсон",
    "Тайлер Лонг",
    "Джоди Фостер",
    "Артур Бриджерс",
    "Скотт Симпсон",
    "Мелисса Сюзанн МакБрайд"
  ],
  "actors_dubl": [],
  "trivia": [
    "Фильм снят по мотивам романа Криса Фюрмана «The Dangerous Lives of Altar Boys».",
    "Фильм посвящен памяти Криса Фюрмана, автора оригинальной книги, не дожившего до премьеры."
  ],
  "trailers": [],
  "seasons": [],
  "voiceActing": [
    "Рус. Проф. двухголосый"
  ],
  "subtitle": [],
  "parts": []
}
