{
  "id": 12708,
  "name": "Хватай и беги",
  "name_eng": "Hit and Run",
  "year": 2012,
  "slogan": "«Когда прошлое висит на хвосте»",
  "age": "16+",
  "type": "film",
  "quality": "HD (720p)",
  "imdb": "6.1",
  "imdb_id": "2097307",
  "kinopoisk": "5.5",
  "kinopoisk_id": "645029",
  "world_art": null,
  "world_art_id": null,
  "time": "100 мин. / 01:40",
  "ads": false,
  "premier": "2012-08-02",
  "premier_rus": "2013-01-31",
  "availability": null,
  "activate_time": "2019-11-21 10:59:00",
  "budget": "$2 000 000",
  "fees_use": "$13 749 300",
  "fees_world": "+ $704 054 = $14 453 354",
  "fees_rus": "$289 584",
  "rate_mpaa": "R",
  "description": "Бывший грабитель банков Чарли, когда-то пошедший на сделку с правосудием, скрывается в маленьком калифорнийском городке: у него свой дом, налаженный быт и любимая девушка Энни. Когда Энни узнает, что у нее есть шанс получить работу мечты в Лос-Анджелесе, она уговаривает Чарли нарушить правила, высунуть нос из городка и отвезти ее на собеседование. Программа по защите свидетелей дает сбой, и на след Чарли выходят его бывшие подельники, во главе с мстительным психопатом Алексом. К погоне также присоединяются неуравновешенный федеральный маршал, приставленный для охраны Чарли, и ревнивый бывший парень Энни. Вместо увеселительной прогулки Чарли ждет непрекращающаяся череда столкновений, ловушек и подстав - не говоря уже о встречах с колоритными жителями Южной Калифорнии, которые вносят дополнительные нотки сумасшествия в и без того безумную гонку.",
  "iframe_url": "",
  "iframe_poster": null,
  "poster": "https://img.imgilall.me/movies/franchise/1/2/7/0/8/0/0/0/0/0/610x900_12708.jpg",
  "country": {
    "1": "США"
  },
  "collection": [],
  "genre": {
    "19": "Комедия",
    "17": "Боевик"
  },
  "director": [
    "Дэвид Палмер",
    "Дэкс Шепард"
  ],
  "screenwriter": [
    "Дэкс Шепард"
  ],
  "producer": [
    "Эндрю Панай",
    "Нат Так",
    "Ким Уалтрип"
  ],
  "operator": [
    "Брэдли Стоунсайфер"
  ],
  "composer": [
    "Роберт Мервак",
    "Джулиан Уасс"
  ],
  "design": [
    "Эмили Блум",
    "Мариано Руэда",
    "Брук Дюльен"
  ],
  "editor": [
    "Кит Крокет",
    "Дэкс Шепард"
  ],
  "actors": [
    "Кристен Белл",
    "Дэкс Шепард",
    "Брэдли Купер",
    "Том Арнольд",
    "Кристин Ченоуэт",
    "Майкл Розенбаум",
    "Джой Брайант",
    "Райан Хансен",
    "Бо Бриджес",
    "Шон Хейс"
  ],
  "actors_dubl": [
    "Наталья Терешкова",
    "Александр Гаврилин",
    "Всеволод Кузнецов",
    "Константин Карасик",
    "Наталья Грачёва"
  ],
  "trivia": [
    "Автомобили, «сыгравшие» в фильме главные роли, — это Chevrolet Corvette, Cadillac CTS sport wagon, Pontiac Soltice, Lincoln Continental и кастомный багги. Они принадлежат автору фильма Дэксу Шепарду. Кроме того, поскольку фильм снимался без контроля студии и имел очень скромный бюджет, Дэкс и многие другие актеры самостоятельно исполняли свои автомобильные трюки.",
    "Бюджет фильма составил около 2 млн долларов. Из них 1 млн пошел правообладателям за песни, использованные в картине.",
    "Брэдли Купер на протяжении всего фильма носит очки Oakley Plaintiff."
  ],
  "trailers": [],
  "seasons": [],
  "voiceActing": [
    "Рус. Проф. многоголосый",
    "Eng.Original"
  ],
  "subtitle": [],
  "parts": []
}
