{
  "id": 26145,
  "name": "Темный кристалл",
  "name_eng": "The Dark Crystal",
  "year": 1982,
  "slogan": "«When evil screams throughout the world, when all three suns converge, when all that's fair and fine seems lost... a hero will emerge!»",
  "age": "12+",
  "type": "film",
  "quality": "HD (720p)",
  "imdb": "7.2",
  "imdb_id": "0083791",
  "kinopoisk": "7.0",
  "kinopoisk_id": "6468",
  "world_art": null,
  "world_art_id": null,
  "time": "93 мин. / 01:33",
  "ads": false,
  "premier": "1982-12-01",
  "premier_rus": "1982-12-02",
  "availability": "1982-12-03",
  "activate_time": "2020-07-24 12:57:00",
  "budget": "$15 000 000",
  "fees_use": "$40 577 001",
  "fees_world": null,
  "fees_rus": null,
  "rate_mpaa": "PG",
  "description": "Веками в волшебной стране, которую населял народ гелфлингов, царил мир и покой. Но однажды произошла страшная беда: был поврежден Темный кристалл, магический камень, управляющий законами Вселенной. Из-за этого нарушилось равновесие хаоса и порядка, а бедных человекообразных гелфлингов поработили воинственные, злобные ящеры скексисы.Если Темный кристалл не починить до дня Великого слияния трех солнц, кошмарные скексисы будут вечно править миром. И тогда храбрые гелфлинги Джен и Кира отправляются на полные опасностей и приключений поиски отколовшейся части кристалла,без которой нельзя исправить святыню.",
  "iframe_url": "",
  "iframe_poster": null,
  "poster": "https://img.imgilall.me/movies/franchise/2/6/1/4/5/0/0/0/0/0/610x900_26145.jpg",
  "country": {
    "1": "США",
    "2": "Великобритания"
  },
  "collection": [],
  "genre": {
    "9": "Приключения",
    "6": "Фэнтези",
    "33": "Семейный"
  },
  "director": [
    "Джим Хенсон",
    "Фрэнк Оз"
  ],
  "screenwriter": [
    "Дэвид Оделл",
    "Джим Хенсон"
  ],
  "producer": [
    "Лью Грейд",
    "Джим Хенсон",
    "Дункан Кенуорси"
  ],
  "operator": [
    "Освальд Моррис"
  ],
  "composer": [
    "Тревор Джонс"
  ],
  "design": [
    "Гарри Ланж",
    "Брайан Эклэнд-Сноу",
    "Терри Эклэнд-Сноу"
  ],
  "editor": [
    "Ральф Кемплен"
  ],
  "actors": [
    "Джим Хенсон",
    "Кэтрин Маллен",
    "Фрэнк Оз",
    "Дэйв Гольц",
    "Стив Уитмир",
    "Луиз Голд",
    "Брайан Мюэль",
    "Боб Пэйн",
    "Майк Куинн",
    "Тимоти М. Роуз"
  ],
  "actors_dubl": [],
  "trivia": [
    "В фильме их показано 9, но изначально в основе природы каждого скексиса лежал смертный грех.",
    "Фильм был запрещён в некоторых исламских странах. Все дублированные на фарси и арабский копии фильма были уничтожены.",
    "Костюмы гартимов были такими тяжёлыми, что через каждые несколько минут исполнителям приходилось отдыхать, не снимая их.",
    "Иллюстратор Брайан Фрауд посвятил работе над проектом 5 лет жизни.",
    "Джим Хенсон (1936-1990) назвал мир, где разворачивается сюжет, «Митрой». Когда кто-то упомянул в его присутствии, что название звучит, словно имя какого-то персидского божества, его сменили на «Нитру», а затем вообще на «Тру». Так или иначе, название мира в фильме не упоминается ни разу.",
    "Изначально предполагалось, что скексисы и мистики будут говорить на собственных языках. Автор сценария Дэвид Оделл даже придумал для актёров реплики и целые монологи. В конце концов от этой идеи было решено отказаться. После первого же просмотра в проект пригласили писателя-фантаста Алана Гарднера с заданием написать вступительный текст. После этого Оделлу пришлось «переводить» написанное им обратно на английский, да ещё следить за тем, чтобы у героев на экране совпадали движения губ.",
    "Изначально Джим Хенсон попросил Брайана Фрауда сделать скексисов существами, напоминающими крокодилов и обитающими в замке.",
    "В работе над фильмом принимали участие талантливые актёры-карлики Майк Эдмондс, Дип Рой, Джек Пёрвис, Малкольм Диксон и другие.",
    "Прообразом Огры стала ведьма из древнегреческой мифологии."
  ],
  "trailers": [],
  "seasons": [],
  "voiceActing": [
    "Рус. Проф. двухголосый"
  ],
  "subtitle": [],
  "parts": []
}
