{
  "id": 40442,
  "name": "Первые встречи",
  "name_eng": "",
  "year": 1973,
  "slogan": "—",
  "age": "6+",
  "type": "cartoon",
  "quality": "SD",
  "imdb": null,
  "imdb_id": null,
  "kinopoisk": null,
  "kinopoisk_id": "647450",
  "world_art": null,
  "world_art_id": null,
  "time": "11 мин.",
  "ads": false,
  "premier": null,
  "premier_rus": null,
  "availability": null,
  "activate_time": "2020-10-31 10:45:00",
  "budget": null,
  "fees_use": null,
  "fees_world": null,
  "fees_rus": null,
  "rate_mpaa": null,
  "description": "О приключениях двух цыплят.",
  "iframe_url": "",
  "iframe_poster": null,
  "poster": "https://img.imgilall.me/movies/franchise/4/0/4/4/2/0/0/0/0/0/610x900_40442.jpg",
  "country": {
    "24": "СССР"
  },
  "collection": [],
  "genre": {
    "53": "Короткометражный"
  },
  "director": [
    "Борис Бутаков"
  ],
  "screenwriter": [
    "Генрих Сапгир",
    "Геннадий Цыферов"
  ],
  "producer": [],
  "operator": [
    "Евгений Туревич"
  ],
  "composer": [
    "Игорь Ефремов"
  ],
  "design": [
    "Вячеслав Назарук"
  ],
  "editor": [
    "Нина Бутакова"
  ],
  "actors": [
    "Клара Румянова",
    "Агарь Власова",
    "Галина Иванова"
  ],
  "actors_dubl": [],
  "trivia": [],
  "trailers": [],
  "seasons": [],
  "voiceActing": [
    "Original"
  ],
  "subtitle": [],
  "parts": []
}
