{
  "id": 25059,
  "name": "Дочурка Груффало",
  "name_eng": "The Gruffalo's Child",
  "year": 2011,
  "slogan": "—",
  "age": null,
  "type": "cartoon",
  "quality": "FHD (1080p)",
  "imdb": "7.1",
  "imdb_id": "2132486",
  "kinopoisk": "7.0",
  "kinopoisk_id": "654933",
  "world_art": null,
  "world_art_id": null,
  "time": "27 мин.",
  "ads": false,
  "premier": "2011-12-25",
  "premier_rus": "2011-12-26",
  "availability": "2011-12-27",
  "activate_time": "2020-06-23 10:39:00",
  "budget": null,
  "fees_use": null,
  "fees_world": null,
  "fees_rus": null,
  "rate_mpaa": null,
  "description": "Продолжение приключений храброго мышонка. Теперь в существование большого злобного мыша предстоит поверить дочурке Граффало.",
  "iframe_url": "",
  "iframe_poster": null,
  "poster": "https://img.imgilall.me/movies/franchise/2/5/0/5/9/0/0/0/0/0/610x900_25059.jpg",
  "country": {
    "2": "Великобритания",
    "20": "Германия"
  },
  "collection": [],
  "genre": {
    "6": "Фэнтези",
    "53": "Короткометражный",
    "33": "Семейный",
    "19": "Комедия"
  },
  "director": [
    "Уве Хеидсшоттер",
    "Йоханнес Вейланд"
  ],
  "screenwriter": [
    "Джулия Дональдсон",
    "Аксель Шеффлер",
    "Йоханна Стуттманн"
  ],
  "producer": [
    "Мартин Поуп",
    "Майкл Роуз",
    "Дэрил Шуте"
  ],
  "operator": [],
  "composer": [
    "Рене Обри"
  ],
  "design": [
    "Мануэль Аренас"
  ],
  "editor": [
    "Робин Сэйлс"
  ],
  "actors": [
    "Хелена Бонем Картер",
    "Ширли Хендерсон",
    "Робби Колтрейн",
    "Роб Брайдон",
    "Джон Хёрт",
    "Том Уилкинсон",
    "Джеймс Корден",
    "Фиби Гиврон-Тейлор",
    "Сэм Льюис"
  ],
  "actors_dubl": [],
  "trivia": [
    "Экранизация одноименной британской сказки Джулии Дональдсон и Акселя Шеффлера."
  ],
  "trailers": [],
  "seasons": [],
  "voiceActing": [
    "Cartoon Network"
  ],
  "subtitle": [],
  "parts": []
}
