{
  "id": 38189,
  "name": "Источник молодости",
  "name_eng": "Shishun no izumi",
  "year": 1953,
  "slogan": "—",
  "age": null,
  "type": "film",
  "quality": "SD",
  "imdb": "6.1",
  "imdb_id": "0155169",
  "kinopoisk": null,
  "kinopoisk_id": "65576",
  "world_art": null,
  "world_art_id": null,
  "time": "88 мин. / 01:28",
  "ads": false,
  "premier": "1953-11-03",
  "premier_rus": "1953-11-04",
  "availability": "1953-11-05",
  "activate_time": "2020-10-12 14:40:00",
  "budget": null,
  "fees_use": null,
  "fees_world": null,
  "fees_rus": null,
  "rate_mpaa": null,
  "description": "На остров Хонсю пришла долгожданная пора сенокоса. На полях кипит работа, трудятся стар и мал. Для девушки Мойоко и юноши Токидзо это скорее развлечение, чем труд. Оба они молоды, веселы, возбуждены общим ожиданием праздника урожая и даже ещё не догадываются, что начинают любить друг друга. Поэтому-то первый же робкий намёк на признание вносит такое смятение в их души и чуть не приводит к серьёзной размолвке. Медвежью услугу оказали влюблённым их сварливые тётушки...",
  "iframe_url": "",
  "iframe_poster": null,
  "poster": "https://img.imgilall.me/movies/franchise/3/8/1/8/9/0/0/0/0/0/610x900_38189.jpg",
  "country": {
    "18": "Япония"
  },
  "collection": [],
  "genre": {
    "19": "Комедия",
    "7": "Драма"
  },
  "director": [
    "Нобуо Накагава"
  ],
  "screenwriter": [
    "Ёдзиро Исидзака"
  ],
  "producer": [],
  "operator": [
    "Минору Ёкояма"
  ],
  "composer": [
    "Итиро Саито"
  ],
  "design": [],
  "editor": [],
  "actors": [
    "Сумико Абэ",
    "Токуэ Ханадзава",
    "Сатико Хидари",
    "Тиэко Хигасияма",
    "Тэруко Киси",
    "Томоо Нагаи",
    "Ясуси Нагата",
    "Эитаро Одзава",
    "Корэя Сэнда",
    "Тоёко Такахаси"
  ],
  "actors_dubl": [
    "Элла Некрасова",
    "Антонина Кончакова",
    "Марина Гаврилко",
    "Михаил Глузский",
    "Елена Егорова"
  ],
  "trivia": [],
  "trailers": [],
  "seasons": [],
  "voiceActing": [
    "Cartoon Network"
  ],
  "subtitle": [],
  "parts": []
}
