{
  "id": 3902,
  "name": "Динозавр",
  "name_eng": "Dinosaur",
  "year": 2000,
  "slogan": "«Discover a world you've only imagined»",
  "age": "6+",
  "type": "cartoon",
  "quality": "FHD (1080p)",
  "imdb": "6.5",
  "imdb_id": "0130623",
  "kinopoisk": "7.7",
  "kinopoisk_id": "652",
  "world_art": null,
  "world_art_id": null,
  "time": "82 мин. / 01:22",
  "ads": false,
  "premier": "2000-05-13",
  "premier_rus": "2001-04-29",
  "availability": null,
  "activate_time": "2018-11-23 15:05:52",
  "budget": "$127 500 000",
  "fees_use": "$137 748 063",
  "fees_world": "$349 822 765",
  "fees_rus": null,
  "rate_mpaa": "PG",
  "description": "Путешествие трехтонного игуанодонта по имени Аладар, который был разбужен из своего яйца племенем лемуров и случайно воссоединившегося с себе подобными. Из-за огненных метеоритов, разрушающих ландшафт и нехватки воды в исчезающих водоемах динозавры оказались в гонке за выживание, где главным их противником стало время.Аладар наживает себе врага в лице бессердечного вожака Крона, когда заступается за беззащитных животных в несущемся сломя голову стаде. Лицом к лицу с такими опасностями, как внезапные оползни и атакующие тиранозавры, Аладар и его новые друзья должны преодолеть невероятные трудности до того, как обретут новую родину в прекрасной долине…",
  "iframe_url": "",
  "iframe_poster": null,
  "poster": "https://img.imgilall.me/movies/franchise/3/9/0/2/0/0/0/0/0/0/610x900_3902.jpg",
  "country": {
    "1": "США"
  },
  "collection": {
    "91": "Про динозавров",
    "37": "Disney"
  },
  "genre": {
    "37": "Детский",
    "34": "Полнометражный",
    "10": "Зарубежный"
  },
  "director": [
    "Эрик Лейтон",
    "Ральф Зондаг"
  ],
  "screenwriter": [
    "Джон Харрисон",
    "Роберт Нелсон Джекобс",
    "Уэйлон Грин"
  ],
  "producer": [
    "Пэм Мэрсден",
    "Бэйкер Бладуорф",
    "Джим Бертон"
  ],
  "operator": [
    "Дэвид Р. Хардбергер",
    "Стивен Дуглас Смит"
  ],
  "composer": [
    "Джеймс Ньютон Ховард"
  ],
  "design": [
    "Уолтер П. Мартишиус",
    "Кристи Мальтезе"
  ],
  "editor": [
    "Х. Ли Петерсон"
  ],
  "actors": [
    "Элфри Вудард",
    "Осси Дэвис",
    "Макс Казелла",
    "Хайден Панеттьери",
    "Д.Б. Суини",
    "Сэмюэл Э. Райт",
    "Питер Сирагуса",
    "Джулианна Маргулис",
    "Джоан Плаурайт",
    "Делла Риз"
  ],
  "actors_dubl": [
    "Светлана Шейченко",
    "Игорь Шибанов",
    "Алексей Федотов",
    "Эльвира Ишмуратова",
    "Сергей Дьячков"
  ],
  "trivia": [
    "Побережье, над которым пролетает птеранодон с яйцом, похоже на ландшафт современной Австралии."
  ],
  "trailers": [
    {
      "name": "трейлер №1",
      "number": 1,
      "iframe_poster": null,
      "season": null,
      "iframe_url": ""
    }
  ],
  "seasons": [],
  "voiceActing": [
    "Рус. Дублированный",
    "Рус. Проф. многоголосый",
    "Eng.Original"
  ],
  "subtitle": [
    "Рус. полные"
  ],
  "parts": []
}
