{
  "id": 41232,
  "name": "Два справедливых цыпленка (ТВ)",
  "name_eng": "",
  "year": 1984,
  "slogan": "—",
  "age": "12+",
  "type": "cartoon",
  "quality": "SD",
  "imdb": "6.7",
  "imdb_id": "2699260",
  "kinopoisk": null,
  "kinopoisk_id": "666718",
  "world_art": null,
  "world_art_id": null,
  "time": "10 мин.",
  "ads": false,
  "premier": null,
  "premier_rus": null,
  "availability": null,
  "activate_time": "2020-11-10 20:25:00",
  "budget": null,
  "fees_use": null,
  "fees_world": null,
  "fees_rus": null,
  "rate_mpaa": null,
  "description": "О том, как два добрых, благородных цыпленка помогли заколдованному Журавлю обрести свободу.",
  "iframe_url": "",
  "iframe_poster": null,
  "poster": "https://img.imgilall.me/movies/franchise/4/1/2/3/2/0/0/0/0/0/610x900_41232.jpg",
  "country": {
    "24": "СССР"
  },
  "collection": [],
  "genre": {
    "53": "Короткометражный"
  },
  "director": [
    "Леонид Зарубин"
  ],
  "screenwriter": [
    "Наталья Абрамова"
  ],
  "producer": [],
  "operator": [
    "В. Бодак"
  ],
  "composer": [
    "Александр Осадчий"
  ],
  "design": [
    "Николай Сапожников"
  ],
  "editor": [
    "С. Васильева"
  ],
  "actors": [
    "Оксана Карпус",
    "Яков Горбаченко"
  ],
  "actors_dubl": [],
  "trivia": [],
  "trailers": [],
  "seasons": [],
  "voiceActing": [
    "Original"
  ],
  "subtitle": [],
  "parts": []
}
