{
  "id": 34053,
  "name": "Франкенштейн",
  "name_eng": "Frankenstein",
  "year": 1994,
  "slogan": "«Гений породил чудовище»",
  "age": "16+",
  "type": "film",
  "quality": "HD (720p)",
  "imdb": "6.4",
  "imdb_id": "0",
  "kinopoisk": "7.2",
  "kinopoisk_id": "6668",
  "world_art": null,
  "world_art_id": null,
  "time": "123 мин. / 02:03",
  "ads": false,
  "premier": "1994-11-04",
  "premier_rus": "1995-11-20",
  "availability": "1995-11-21",
  "activate_time": "2020-07-17 14:58:00",
  "budget": "$45 000 000",
  "fees_use": "$22 006 296",
  "fees_world": "+ $90 000 000 = $112 006 296",
  "fees_rus": null,
  "rate_mpaa": "R",
  "description": "Капитан Роберт Уолтон, исследователь, одержимый маниакальным стремлением во что бы то ни стало достичь Северного полюса, в арктической пустыне встречает доктора Виктора Франкенштейна, преследующего таинственное человекоподобное существо.Узнав о цели капитана, Франкенштейн рассказывает ему свою печальную и жуткую историю. Еще в юности Виктор увлекся наукой. А после смерти матери твердо решил стать ученым и победить смерть. Его одержимость привела к ужасающе трагическим последствиям и для него самого, и для всех его близких...",
  "iframe_url": "",
  "iframe_poster": null,
  "poster": "https://img.imgilall.me/movies/franchise/3/4/0/5/3/0/0/0/0/0/610x900_34053.jpg",
  "country": {
    "1": "США",
    "2": "Великобритания",
    "18": "Япония"
  },
  "collection": [],
  "genre": {
    "26": "Ужасы",
    "11": "Фантастика",
    "8": "Мелодрама",
    "7": "Драма"
  },
  "director": [
    "Кеннет Брана"
  ],
  "screenwriter": [
    "Стеф Леди",
    "Фрэнк Дарабонт",
    "Мэри Шелли"
  ],
  "producer": [
    "Фрэнсис Форд Коппола",
    "Джеймс В. Харт",
    "Джон Вэйтч"
  ],
  "operator": [
    "Роджер Прэтт"
  ],
  "composer": [
    "Патрик Дойл"
  ],
  "design": [
    "Тим Харви",
    "Мартин Чайлдс",
    "Десмонд Кроу"
  ],
  "editor": [
    "Эндрю Маркус"
  ],
  "actors": [
    "Роберт Де Ниро",
    "Кеннет Брана",
    "Том Халс",
    "Хелена Бонем Картер",
    "Айдан Куинн",
    "Иэн Холм",
    "Ричард Брирс",
    "Джон Клиз",
    "Роберт Харди",
    "Шери Лунги"
  ],
  "actors_dubl": [
    "Дмитрий Матвеев",
    "Александр Демьяненко",
    "Валерий Кухарешин",
    "Александр Новиков",
    "Владимир Конкин"
  ],
  "trivia": [
    "«Франкенштейн» — экранизация романа Мэри Шелли «Франкенштейн, или Современный Прометей». Несмотря на некоторые расхождения с оригинальным литературным произведением, это самая близкая к тексту киноверсия «Франкенштейна» Шелли.",
    "В одной из сцен Роберт Де Ниро должен был укусить эпизодическую героиню, которую играла Фэй Рипли. Сцену сняли, но в окончательный вариант она не вошла.",
    "Одну из второплановых ролей мог сыграть Кристофер Ламберт, но незадолго до начала съемок его заменили на другого актёра.",
    "Кеннет Брана (режиссер) настоял на том, чтобы слово «монстр» не использовалось в титрах фильма.",
    "Роберт Де Ниро специально общался с людьми, пережившими тяжелые физические травмы, чтобы научиться говорить также, как человек, находящийся в подобном состоянии.",
    "От роли монстра отказался Жерар Депардье.",
    "Съемочный период: октябрь 1993 — февраль 1994."
  ],
  "trailers": [],
  "seasons": [],
  "voiceActing": [
    "Cartoon Network"
  ],
  "subtitle": [],
  "parts": []
}
