{
  "id": 28376,
  "name": "Уличные танцы 3: Все звезды",
  "name_eng": "All Stars",
  "year": 2013,
  "slogan": "«Шесть френдов. Одна команда. Грандиозное шоу. Победа без вариантов!»",
  "age": "6+",
  "type": "film",
  "quality": "HD (720p)",
  "imdb": "5.1",
  "imdb_id": "2186766",
  "kinopoisk": "5.4",
  "kinopoisk_id": "669750",
  "world_art": null,
  "world_art_id": null,
  "time": "106 мин. / 01:46",
  "ads": false,
  "premier": "2013-05-03",
  "premier_rus": "2013-06-06",
  "availability": "2013-06-07",
  "activate_time": "2020-07-18 10:30:00",
  "budget": null,
  "fees_use": null,
  "fees_world": null,
  "fees_rus": "$539 552",
  "rate_mpaa": "PG",
  "description": "Герой фильма, энергичный и бойкий Этан, объединяется со скромным профессиональным стритдансером Джейденом для участия в очередном чемпионате по уличным танцам. Только своей победой ребята смогут спасти свой молодежный клуб от закрытия. И они сделают это, во что бы то ни стало…",
  "iframe_url": "",
  "iframe_poster": null,
  "poster": "https://img.imgilall.me/movies/franchise/2/8/3/7/6/0/0/0/0/0/610x900_28376.jpg",
  "country": {
    "2": "Великобритания"
  },
  "collection": [],
  "genre": {
    "33": "Семейный",
    "19": "Комедия"
  },
  "director": [
    "Бен Грегор"
  ],
  "screenwriter": [
    "Пол Герстенбергер"
  ],
  "producer": [
    "Луиза Киллин",
    "Ник Лав",
    "Эл Мунтяну"
  ],
  "operator": [
    "Бен Вилер"
  ],
  "composer": [
    "Саймон Вудгейт"
  ],
  "design": [
    "Мэттью Баттон",
    "Даниэла Фаджио",
    "Эндрю Кокс"
  ],
  "editor": [
    "Джоно Гриффит"
  ],
  "actors": [
    "Тео Стивенсон",
    "Флер Хаудейк",
    "Доминик Герман-Дэй",
    "Амелия Кларксон",
    "Джамал Тосифа",
    "Эшли Дженсен",
    "Хью Дэннис",
    "Кевин Бишоп",
    "Эшли Уолтерс",
    "Акай Осей-Мэнсфилд"
  ],
  "actors_dubl": [
    "Даниил Трещов",
    "Элиза Мартиросова",
    "Евгения Ваган",
    "Татьяна Шитова",
    "Александр Коврижных"
  ],
  "trivia": [],
  "trailers": [],
  "seasons": [],
  "voiceActing": [
    "Cartoon Network"
  ],
  "subtitle": [],
  "parts": []
}
