{
  "id": 12340,
  "name": "На колёсах",
  "name_eng": "Wheels",
  "year": 2014,
  "slogan": "—",
  "age": "18+",
  "type": "film",
  "quality": "HD (720p)",
  "imdb": "8.4",
  "imdb_id": "2170667",
  "kinopoisk": "6.3",
  "kinopoisk_id": "660555",
  "world_art": null,
  "world_art_id": null,
  "time": "115 мин. / 01:55",
  "ads": true,
  "premier": "2014-04-27",
  "premier_rus": null,
  "availability": "2014-04-28",
  "activate_time": "2019-11-11 16:37:00",
  "budget": "",
  "fees_use": "",
  "fees_world": "",
  "fees_rus": "",
  "rate_mpaa": "R",
  "description": "Двое наркоманов с суицидальными наклонностями на инвалидных колясках катаются по городу и встревают во всякие неприятности, пытаясь найти причину жить.",
  "iframe_url": "",
  "iframe_poster": null,
  "poster": "https://img.imgilall.me/movies/franchise/1/2/3/4/0/0/0/0/0/0/610x900_12340.jpg",
  "country": {
    "1": "США"
  },
  "collection": [],
  "genre": {
    "7": "Драма"
  },
  "director": [
    "Тим Гальярдо",
    "Донаван Томас"
  ],
  "screenwriter": [
    "Донаван Томас"
  ],
  "producer": [
    "Тим Гальярдо",
    "Донаван Томас",
    "Thomas Bernard"
  ],
  "operator": [
    "Иоана Василь"
  ],
  "composer": [
    "Панчо Бургос-Гойсуэта"
  ],
  "design": [
    "Дэниэл Стивенс",
    "Бреннан Гордон МакНикол",
    "Emilyna Cullen"
  ],
  "editor": [
    "Sergio Vizuete"
  ],
  "actors": [
    "Донаван Томас",
    "Патрик Хьюм",
    "Дайана Геттингер",
    "Кевин МакКоркл",
    "Уилл Дженнингс",
    "Паркер Болек",
    "Ирина Коста",
    "Саманта Фаччи",
    "Натаньяэль Грей",
    "Дж. Кристофер"
  ],
  "actors_dubl": [],
  "trivia": [],
  "trailers": [],
  "seasons": [],
  "voiceActing": [
    "Рус. Люб. многоголосый"
  ],
  "subtitle": [],
  "parts": []
}
