{
  "id": 32590,
  "name": "Лето. Пляж. Кино",
  "name_eng": "Teen Beach Movie",
  "year": 2013,
  "slogan": "«Getting trapped in a movie,,, is no day at the beach»",
  "age": "6+",
  "type": "film",
  "quality": "HD (720p)",
  "imdb": "6.0",
  "imdb_id": "0",
  "kinopoisk": "6.3",
  "kinopoisk_id": "674793",
  "world_art": null,
  "world_art_id": null,
  "time": "110 мин. / 01:50",
  "ads": false,
  "premier": "2013-07-19",
  "premier_rus": "2013-09-20",
  "availability": "2013-09-21",
  "activate_time": "2020-07-15 04:24:00",
  "budget": null,
  "fees_use": null,
  "fees_world": null,
  "fees_rus": null,
  "rate_mpaa": null,
  "description": "Последний день лета подходит к концу, а поклонники сёрфинга Маккензи и ее друг Брейди никак не хотят уходить с пляжа. Под вечер они ловят огромную волну, которая переносит их не только в пространстве, но и во времени — на полстолетия назад! Здесь, в 60-х, друзья оказываются в центре противостояния двух шумных компаний — сёрферов и рокеров. Оказывается, всё, что происходит вокруг, — не что иное, как известный ретро-мюзикл. У Маккензи и Брейди есть только один шанс попасть обратно домой — вернуть музыкальную историю в прежнее русло. Для этого ребятам предстоит освоить язык песни и танца.",
  "iframe_url": "",
  "iframe_poster": null,
  "poster": "https://img.imgilall.me/movies/franchise/3/2/5/9/0/0/0/0/0/0/610x900_32590.jpg",
  "country": {
    "1": "США"
  },
  "collection": [],
  "genre": {
    "6": "Фэнтези",
    "38": "Мюзикл",
    "33": "Семейный"
  },
  "director": [
    "Джеффри Хорнадэй"
  ],
  "screenwriter": [
    "Винс Марчелло",
    "Марк Ландри",
    "Роберт Хорн"
  ],
  "producer": [
    "Роберт Ф. Филлипс",
    "Дэвид Бьюлоу",
    "Жасмин Косович"
  ],
  "operator": [
    "Марк Ирвин"
  ],
  "composer": [
    "Дэвид Нессим Лоуренс"
  ],
  "design": [
    "Марк Хофелинг",
    "Уинг Ли",
    "Рут Е. Картер"
  ],
  "editor": [
    "Дэвид Финфер"
  ],
  "actors": [
    "Росс Линч",
    "Майя Митчелл",
    "Грэйс Фиппс",
    "Гарретт Клэйтон",
    "Джон ДеЛюка",
    "Крисси Фит",
    "Сюзанн Крайер",
    "Бэрри Боствик",
    "Кевин Чэмберлин",
    "Стив Валентайн"
  ],
  "actors_dubl": [
    "Игорь Сергеев",
    "Ирина Обрезкова",
    "Александр Быковский",
    "Глеб Гаврилов",
    "Ульяна Панченко"
  ],
  "trivia": [],
  "trailers": [],
  "seasons": [],
  "voiceActing": [
    "Cartoon Network"
  ],
  "subtitle": [],
  "parts": []
}
