{
  "id": 991,
  "name": "Девочки из календаря",
  "name_eng": "Calendar Girls",
  "year": 2003,
  "slogan": "«A Full Monty-female style!»",
  "age": "12+",
  "type": "film",
  "quality": "FHD (1080p)",
  "imdb": "6.9",
  "imdb_id": "0337909",
  "kinopoisk": "7.4",
  "kinopoisk_id": "6787",
  "world_art": null,
  "world_art_id": null,
  "time": "108 мин. / 01:48",
  "ads": false,
  "premier": "2003-08-09",
  "premier_rus": null,
  "availability": null,
  "activate_time": "2018-07-05 14:29:38",
  "budget": "$10 000 000",
  "fees_use": "$31 041 759",
  "fees_world": "+ $65 500 300 = $96 542 059",
  "fees_rus": null,
  "rate_mpaa": "PG-13",
  "description": "Фильм основан на реальных событиях. 1999-й год. Несколько почтенных домохозяек из провинциального Йоркшира хотят собрать денег на диван в больницу для комнаты родственников. Где лечат мужа одной из них.Для этого они снимаются для календаря-ежегодника в обнажённом виде и календарь внезапно становится бестселлером!...",
  "iframe_url": "",
  "iframe_poster": null,
  "poster": "https://img.imgilall.me/movies/franchise/9/9/1/0/0/0/0/0/0/0/610x900_991.jpg",
  "country": {
    "1": "США",
    "2": "Великобритания"
  },
  "collection": {
    "27": "Про жизнь"
  },
  "genre": {
    "19": "Комедия",
    "10": "Зарубежный",
    "7": "Драма"
  },
  "director": [
    "Найджел Коул"
  ],
  "screenwriter": [
    "Джульетт Таухиди",
    "Тим Фёрт"
  ],
  "producer": [
    "Ник Бартон",
    "Сюзанн Маки",
    "Стив Кларк-Холл"
  ],
  "operator": [
    "Эшли Роу"
  ],
  "composer": [
    "Патрик Дойл"
  ],
  "design": [
    "Мартин Чайлдс",
    "Марк Раггетт",
    "Фрэнсис Темпест"
  ],
  "editor": [
    "Майкл Паркер"
  ],
  "actors": [
    "Хелен Миррен",
    "Джули Уолтерс",
    "Линда Бэссет",
    "Селия Имри",
    "Аннетт Кросби",
    "Пенелопа Уилтон",
    "Джеральдин Джеймс",
    "Филип Гленистер",
    "Киран Хайндс",
    "Джон Элдертон"
  ],
  "actors_dubl": [],
  "trivia": [],
  "trailers": [],
  "seasons": [],
  "voiceActing": [
    "Рус. Проф. двухголосый"
  ],
  "subtitle": [],
  "parts": []
}
