{
  "id": 34401,
  "name": "На грани сомнения",
  "name_eng": "Suspension of Disbelief",
  "year": 2012,
  "slogan": "«Во что веришь ты?»",
  "age": "16+",
  "type": "film",
  "quality": "HD (720p)",
  "imdb": "4.3",
  "imdb_id": "0",
  "kinopoisk": "4.6",
  "kinopoisk_id": "670141",
  "world_art": null,
  "world_art_id": null,
  "time": "107 мин. / 01:47",
  "ads": false,
  "premier": "2013-06-13",
  "premier_rus": "2013-10-10",
  "availability": "2013-10-11",
  "activate_time": "2020-07-17 09:05:00",
  "budget": null,
  "fees_use": null,
  "fees_world": null,
  "fees_rus": null,
  "rate_mpaa": null,
  "description": "Теряясь между реальностью и вымыслом, талантливый писатель Мартин оказывается на грани сомнения. Убийство, исчезновение жены 10 лет назад, загадочная встреча с сексуальной незнакомкой, как две капли воды похожей на жертву, заставляют Мартина задаться одним единственным вопросом: «Кому можно верить?».",
  "iframe_url": "",
  "iframe_poster": null,
  "poster": "https://img.imgilall.me/movies/franchise/3/4/4/0/1/0/0/0/0/0/610x900_34401.jpg",
  "country": {
    "2": "Великобритания"
  },
  "collection": [],
  "genre": {
    "13": "Триллер"
  },
  "director": [
    "Майк Фиггис"
  ],
  "screenwriter": [
    "Майк Фиггис"
  ],
  "producer": [
    "Али Агалар",
    "Карола Эш",
    "Вито Ди Роза"
  ],
  "operator": [
    "Майк Фиггис"
  ],
  "composer": [
    "Майк Фиггис"
  ],
  "design": [
    "Вито Ди Роза",
    "Оливер Гарсиа",
    "Сэнди Пауэлл"
  ],
  "editor": [
    "Майк Фиггис"
  ],
  "actors": [
    "Себастьян Кох",
    "Лотта Вербек",
    "Эмилия Фокс",
    "Ребекка Найт",
    "Оуэн Мэкен",
    "Локлен Нибор",
    "Фрэнсис де ла Тур",
    "Джулиан Сэндс",
    "Кеннет Крэнэм",
    "Мелиа Крейлинг"
  ],
  "actors_dubl": [],
  "trivia": [],
  "trailers": [],
  "seasons": [],
  "voiceActing": [
    "Diva Universal"
  ],
  "subtitle": [],
  "parts": []
}
