{
  "id": 51345,
  "name": "Старлинги",
  "name_eng": "Starlings",
  "year": 2012,
  "slogan": "—",
  "age": null,
  "type": "series",
  "quality": "SD",
  "imdb": "7.3",
  "imdb_id": "2156187",
  "kinopoisk": "6.3",
  "kinopoisk_id": "675499",
  "world_art": null,
  "world_art_id": null,
  "time": "60 мин",
  "ads": false,
  "premier": "2012-05-13",
  "premier_rus": "2012-05-14",
  "availability": "2012-05-15",
  "serial_status": "offline",
  "activate_time": "2021-10-11 17:26:00",
  "budget": null,
  "fees_use": null,
  "fees_world": null,
  "fees_rus": null,
  "rate_mpaa": null,
  "description": "Семейка Старлингов, скромно живущая в городке Мэтлок в самом центре Англии, не может уснуть. Им пришлось приютить бормочущего во сне деда после пожара в доме престарелых. Из комнаты свихнувшегося на рептилиях брата сбегает страшный паук. А тут ещё приезжает из Тайланда племянник Фёрги, которого бросила невеста. И принимает за вора внебрачного сына деда, нашедшего своего престарелого папу спустя много лет. И, наконец, Терри Старлинг получает письмо с требованием срочно оплатить долг в 4 тыс. фунтов стерлингов, а денег нет. Как выпутаться из непростых житейских ситуаций? Старлинги всегда найдут ответ!",
  "iframe_url": "",
  "poster": "https://img.imgilall.me/movies/franchise/5/1/3/4/5/0/0/0/0/0/610x900_51345.jpg",
  "country": {
    "2": "Великобритания"
  },
  "collection": [],
  "genre": {
    "19": "Комедия"
  },
  "director": [
    "Мэтт Липси",
    "Сэмюэл Донован",
    "Тони Дау"
  ],
  "screenwriter": [
    "Стив Эдж",
    "Мэтт Кинг"
  ],
  "producer": [
    "Гилл Айлс",
    "Хенри Нормал",
    "Стив Куган"
  ],
  "operator": [
    "Френсис Де Грооте"
  ],
  "composer": [],
  "design": [
    "Дэвид Феррис",
    "Джонни Мид",
    "Starlings"
  ],
  "editor": [
    "Робин Питерс",
    "Адам Уайндмилл",
    "Ричард Кокс"
  ],
  "actors": [
    "Брендан Койл",
    "Лесли Шарп",
    "Стив Эдж",
    "Ребекка Найт",
    "Финн Аткинс",
    "Мэтт Кинг",
    "Алан Уильямс",
    "Джон Даглиш",
    "Аквели Роач",
    "Сидни Уайт"
  ],
  "actors_dubl": [],
  "trivia": [],
  "trailers": [],
  "seasons": [
    {
      "poster": null,
      "release_ru": null,
      "release_world": null,
      "availability": null,
      "iframe_url": "",
      "season": 1,
      "episodes": [
        {
          "episode": 1,
          "name": null,
          "iframe_url": "",
          "iframe_poster": null,
          "release_ru": null,
          "release_world": null,
          "availability": null,
          "voiceActing": [
            "Рус. Проф. многоголосый",
            "Eng.Original"
          ],
          "ads": false,
          "subtitle": []
        },
        {
          "episode": 2,
          "name": null,
          "iframe_url": "",
          "iframe_poster": null,
          "release_ru": null,
          "release_world": null,
          "availability": null,
          "voiceActing": [
            "Рус. Проф. многоголосый",
            "Eng.Original"
          ],
          "ads": false,
          "subtitle": []
        },
        {
          "episode": 3,
          "name": null,
          "iframe_url": "",
          "iframe_poster": null,
          "release_ru": null,
          "release_world": null,
          "availability": null,
          "voiceActing": [
            "Рус. Проф. многоголосый",
            "Eng.Original"
          ],
          "ads": false,
          "subtitle": []
        },
        {
          "episode": 4,
          "name": null,
          "iframe_url": "",
          "iframe_poster": null,
          "release_ru": null,
          "release_world": null,
          "availability": null,
          "voiceActing": [
            "Рус. Проф. многоголосый",
            "Eng.Original"
          ],
          "ads": false,
          "subtitle": []
        },
        {
          "episode": 5,
          "name": null,
          "iframe_url": "",
          "iframe_poster": null,
          "release_ru": null,
          "release_world": null,
          "availability": null,
          "voiceActing": [
            "Рус. Проф. многоголосый",
            "Eng.Original"
          ],
          "ads": false,
          "subtitle": []
        },
        {
          "episode": 6,
          "name": null,
          "iframe_url": "",
          "iframe_poster": null,
          "release_ru": null,
          "release_world": null,
          "availability": null,
          "voiceActing": [
            "Рус. Проф. многоголосый",
            "Eng.Original"
          ],
          "ads": false,
          "subtitle": []
        },
        {
          "episode": 7,
          "name": null,
          "iframe_url": "",
          "iframe_poster": null,
          "release_ru": null,
          "release_world": null,
          "availability": null,
          "voiceActing": [
            "Рус. Проф. многоголосый",
            "Eng.Original"
          ],
          "ads": false,
          "subtitle": []
        },
        {
          "episode": 8,
          "name": null,
          "iframe_url": "",
          "iframe_poster": null,
          "release_ru": null,
          "release_world": null,
          "availability": null,
          "voiceActing": [
            "Рус. Проф. многоголосый",
            "Eng.Original"
          ],
          "ads": false,
          "subtitle": []
        }
      ]
    },
    {
      "poster": null,
      "release_ru": null,
      "release_world": null,
      "availability": null,
      "iframe_url": "",
      "season": 2,
      "episodes": [
        {
          "episode": 1,
          "name": null,
          "iframe_url": "",
          "iframe_poster": null,
          "release_ru": null,
          "release_world": null,
          "availability": null,
          "voiceActing": [
            "Eng.Original"
          ],
          "ads": false,
          "subtitle": []
        },
        {
          "episode": 2,
          "name": null,
          "iframe_url": "",
          "iframe_poster": null,
          "release_ru": null,
          "release_world": null,
          "availability": null,
          "voiceActing": [
            "Eng.Original"
          ],
          "ads": false,
          "subtitle": []
        },
        {
          "episode": 3,
          "name": null,
          "iframe_url": "",
          "iframe_poster": null,
          "release_ru": null,
          "release_world": null,
          "availability": null,
          "voiceActing": [
            "Eng.Original"
          ],
          "ads": false,
          "subtitle": []
        },
        {
          "episode": 4,
          "name": null,
          "iframe_url": "",
          "iframe_poster": null,
          "release_ru": null,
          "release_world": null,
          "availability": null,
          "voiceActing": [
            "Eng.Original"
          ],
          "ads": false,
          "subtitle": []
        },
        {
          "episode": 5,
          "name": null,
          "iframe_url": "",
          "iframe_poster": null,
          "release_ru": null,
          "release_world": null,
          "availability": null,
          "voiceActing": [
            "Eng.Original"
          ],
          "ads": false,
          "subtitle": []
        },
        {
          "episode": 6,
          "name": null,
          "iframe_url": "",
          "iframe_poster": null,
          "release_ru": null,
          "release_world": null,
          "availability": null,
          "voiceActing": [
            "Eng.Original"
          ],
          "ads": false,
          "subtitle": []
        },
        {
          "episode": 7,
          "name": null,
          "iframe_url": "",
          "iframe_poster": null,
          "release_ru": null,
          "release_world": null,
          "availability": null,
          "voiceActing": [
            "Eng.Original"
          ],
          "ads": false,
          "subtitle": []
        },
        {
          "episode": 8,
          "name": null,
          "iframe_url": "",
          "iframe_poster": null,
          "release_ru": null,
          "release_world": null,
          "availability": null,
          "voiceActing": [
            "Eng.Original"
          ],
          "ads": false,
          "subtitle": []
        }
      ]
    }
  ],
  "voiceActing": [
    "Рус. Проф. многоголосый",
    "Eng.Original"
  ],
  "subtitle": [],
  "parts": []
}
