{
  "id": 29732,
  "name": "Переполох на районе",
  "name_eng": "Les Kaïra",
  "year": 2012,
  "slogan": "—",
  "age": "18+",
  "type": "film",
  "quality": "HD (720p)",
  "imdb": "5.3",
  "imdb_id": "0",
  "kinopoisk": "4.6",
  "kinopoisk_id": "670153",
  "world_art": null,
  "world_art_id": null,
  "time": "97 мин. / 01:37",
  "ads": false,
  "premier": "2012-07-10",
  "premier_rus": "2013-03-14",
  "availability": "2013-03-15",
  "activate_time": "2020-07-24 15:44:00",
  "budget": null,
  "fees_use": null,
  "fees_world": "$7 893 757",
  "fees_rus": "$103 504",
  "rate_mpaa": "G",
  "description": "Трое непутевых жителей одного из бедных кварталов Парижа попадают в историю и оказываются в должниках у местного авторитета Ворнера. Срочно нужны деньги и друзья решают сняться в порнофильме...",
  "iframe_url": "",
  "iframe_poster": null,
  "poster": "https://img.imgilall.me/movies/franchise/2/9/7/3/2/0/0/0/0/0/610x900_29732.jpg",
  "country": {
    "9": "Франция"
  },
  "collection": [],
  "genre": {
    "19": "Комедия"
  },
  "director": [
    "Франк Гастамбид"
  ],
  "screenwriter": [
    "Франк Гастамбид"
  ],
  "producer": [
    "Эрик Альтмайер",
    "Николас Альтмайер",
    "Кристоф Тома"
  ],
  "operator": [
    "Антуан Марто"
  ],
  "composer": [
    "Эрик Невё"
  ],
  "design": [
    "Лорен Тессейр",
    "Сандра Берреби"
  ],
  "editor": [],
  "actors": [
    "Меди Садун",
    "Франк Гастамбид",
    "Джиб Поктье",
    "Алис Белаиди",
    "Пом Клементьефф",
    "Рамзи Бедиа",
    "Хаким Сид",
    "Исмаэль Си Саване",
    "Аннабель Лангронн",
    "Сисси Дюпарк"
  ],
  "actors_dubl": [
    "Татьяна Шарко",
    "Антон Савенков",
    "Владимир Рыбальченко",
    "Алексей Шадхин",
    "Станислав Стрелков"
  ],
  "trivia": [],
  "trailers": [],
  "seasons": [],
  "voiceActing": [
    "Cartoon Network"
  ],
  "subtitle": [],
  "parts": []
}
