{
  "id": 15677,
  "name": "Дочь баяниста",
  "name_eng": "",
  "year": 2012,
  "slogan": "—",
  "age": "16+",
  "type": "film",
  "quality": "SD",
  "imdb": null,
  "imdb_id": "5079222",
  "kinopoisk": "6.2",
  "kinopoisk_id": "679575",
  "world_art": null,
  "world_art_id": null,
  "time": "90 мин. / 01:30",
  "ads": false,
  "premier": null,
  "premier_rus": "2012-05-13",
  "availability": "2012-05-14",
  "activate_time": "2020-02-28 12:00:00",
  "budget": null,
  "fees_use": null,
  "fees_world": null,
  "fees_rus": null,
  "rate_mpaa": null,
  "description": "Музыкант Вася один растит дочь, а постоянной работы у него нет. В эту несладкую жизнь внезапно вмешивается и еще одно печальное обстоятельство: сгорает дом Васи.Скоро находится выход из сложной ситуации: Вася находит подработку и вместе с музыкантами местной филармонии отправляется на гастроли. Но и тут неудача - вместе с дочкой он опаздывает на автобус.  Вася решает, что деньги можно заработать игрой на баяне, а ночевать - на вокзале. Так Вася и Света становятся уличными музыкантами.",
  "iframe_url": "",
  "iframe_poster": null,
  "poster": "https://img.imgilall.me/movies/franchise/1/5/6/7/7/0/0/0/0/0/610x900_15677.jpg",
  "country": {
    "5": "Россия"
  },
  "collection": [],
  "genre": {
    "22": "Русский",
    "8": "Мелодрама"
  },
  "director": [
    "Екатерина Науменко"
  ],
  "screenwriter": [
    "Елена Паломяки"
  ],
  "producer": [
    "Ирина Заря",
    "Ольга Журженко"
  ],
  "operator": [
    "Владимир Гуевский"
  ],
  "composer": [
    "Иван Небесный"
  ],
  "design": [
    "Екатерина Слонова",
    "Варвара Лещева"
  ],
  "editor": [
    "Денис Некрот"
  ],
  "actors": [
    "Андрей Мерзликин",
    "Ольга Сутулова",
    "Анна Потебня",
    "Андрей Саминин",
    "Андрей Валенский",
    "Анжелика Гирич",
    "Елена Стефанская",
    "Владимир Мовчан",
    "Василий Домбровский",
    "Андрей Мостренко"
  ],
  "actors_dubl": [],
  "trivia": [],
  "trailers": [],
  "seasons": [],
  "voiceActing": [
    "Рус. Оригинальный"
  ],
  "subtitle": [],
  "parts": []
}
