{
  "id": 16948,
  "name": "М. О. Ж.",
  "name_eng": "M. O. J.",
  "year": 2014,
  "slogan": "—",
  "age": null,
  "type": "film",
  "quality": "SD",
  "imdb": "4.9",
  "imdb_id": "2231646",
  "kinopoisk": "3.7",
  "kinopoisk_id": "675486",
  "world_art": null,
  "world_art_id": null,
  "time": "71 мин. / 01:11",
  "ads": false,
  "premier": "2014-07-27",
  "premier_rus": "2014-07-28",
  "availability": "2014-07-29",
  "activate_time": "2020-04-25 12:09:00",
  "budget": "€40 000",
  "fees_use": null,
  "fees_world": null,
  "fees_rus": null,
  "rate_mpaa": null,
  "description": "Молодой человек по имени Дэн хочет отдохнуть и расслабиться на выходные в шикарном особняке. Но он не ожидает, что там уже есть ещё кто-то, кто ему ужасающе знаком.",
  "iframe_url": "",
  "iframe_poster": null,
  "poster": "https://img.imgilall.me/movies/franchise/1/6/9/4/8/0/0/0/0/0/610x900_16948.jpg",
  "country": {
    "42": "Латвия"
  },
  "collection": {
    "14": "Для взрослых"
  },
  "genre": {
    "26": "Ужасы",
    "10": "Зарубежный",
    "7": "Драма"
  },
  "director": [
    "Айк Карапетян"
  ],
  "screenwriter": [
    "Айк Карапетян"
  ],
  "producer": [
    "Роберт Виновскис"
  ],
  "operator": [
    "Янис Эглитис"
  ],
  "composer": [],
  "design": [],
  "editor": [
    "Андрис Грантс"
  ],
  "actors": [
    "Максим Лазарев",
    "Арис Розенталс",
    "Анта Айзупе"
  ],
  "actors_dubl": [],
  "trivia": [],
  "trailers": [],
  "seasons": [],
  "voiceActing": [
    "Рус. Дублированный",
    "Latvian Original"
  ],
  "subtitle": [],
  "parts": []
}
