{
  "id": 32550,
  "name": "Доктор",
  "name_eng": "",
  "year": 2012,
  "slogan": null,
  "age": "16+",
  "type": "film",
  "quality": "HD (720p)",
  "imdb": null,
  "imdb_id": null,
  "kinopoisk": "7.1",
  "kinopoisk_id": "679707",
  "world_art": null,
  "world_art_id": null,
  "time": "95 мин. / 01:35",
  "ads": false,
  "premier": null,
  "premier_rus": null,
  "availability": null,
  "activate_time": "2020-07-15 07:38:00",
  "budget": null,
  "fees_use": null,
  "fees_world": null,
  "fees_rus": null,
  "rate_mpaa": null,
  "description": "Главный герой — хирург Андрей. Он прошел путь от молодого врача до профессионала. На его долю выпало преодоление чудовищных реалий российской действительности: работа при отсутствии медикаментов и аппаратуры, когда полагаться можно только на интуицию. Его жизнь — ежедневный подвиг спасения человеческих жизней в нечеловеческих условиях. Впрочем, сам он свою жизнь подвигом не считает: он просто выполняет свою работу…",
  "iframe_url": "",
  "iframe_poster": null,
  "poster": "https://img.imgilall.me/movies/franchise/3/2/5/5/0/0/0/0/0/0/610x900_32550.jpg",
  "country": {
    "5": "Россия"
  },
  "collection": [],
  "genre": {
    "7": "Драма"
  },
  "director": [
    "Владимир Панков"
  ],
  "screenwriter": [
    "Елена Исаева"
  ],
  "producer": [
    "Александр Литвинов",
    "Владимир Меньшов",
    "Иван Голомовзюк"
  ],
  "operator": [
    "Александр Смирнов"
  ],
  "composer": [
    "Владимир Панков"
  ],
  "design": [
    "Юлия Феофанова",
    "Анжелика Плынова"
  ],
  "editor": [
    "Ольга Колесникова"
  ],
  "actors": [
    "Андрей Заводюк",
    "Сергей Родюков",
    "Инга Сметанина",
    "Татьяна Кличановская",
    "Павел Акимкин",
    "Ольга Герчакова",
    "Сергей Агафонов",
    "Людмила Шергина",
    "Алина Ольшанская",
    "Алексей Багдасаров"
  ],
  "actors_dubl": [],
  "trivia": [],
  "trailers": [],
  "seasons": [],
  "voiceActing": [
    "Original"
  ],
  "subtitle": [],
  "parts": []
}
