{
  "id": 31914,
  "name": "Человек-мозг",
  "name_eng": "No Otoko",
  "year": 2013,
  "slogan": "—",
  "age": null,
  "type": "film",
  "quality": "HD (720p)",
  "imdb": "6.4",
  "imdb_id": "0",
  "kinopoisk": "6.7",
  "kinopoisk_id": "689035",
  "world_art": null,
  "world_art_id": null,
  "time": "123 мин. / 02:03",
  "ads": false,
  "premier": "2013-02-09",
  "premier_rus": "2013-02-10",
  "availability": "2013-02-11",
  "activate_time": "2020-07-14 04:26:00",
  "budget": null,
  "fees_use": null,
  "fees_world": null,
  "fees_rus": null,
  "rate_mpaa": null,
  "description": "Происходит серия взрывов, казалось бы, не связанных между собой. Итиро Судзуки, также известного как Человек-мозг, подозревают в причастности к организации этих взрывов. Расследованием занимается детектив Мидорикава. Человек-мозг - таинственный мужчина с выдающейся памятью и высоким интеллектом, но он не испытывает эмоций. Психиатр Марико Васия верит, что люди добры по своей природе, и пытается спасать преступников. Она находит Итиро интересным и пытается докопаться до правды.",
  "iframe_url": "",
  "iframe_poster": null,
  "poster": "https://img.imgilall.me/movies/franchise/3/1/9/1/4/0/0/0/0/0/610x900_31914.jpg",
  "country": {
    "18": "Япония"
  },
  "collection": [],
  "genre": {
    "25": "Криминал",
    "24": "Детектив"
  },
  "director": [
    "Томоюки Такимото"
  ],
  "screenwriter": [
    "Кацухико Манабэ",
    "Идзуру Нарусима",
    "Урио Сюдо"
  ],
  "producer": [
    "Ёити Арисигэ",
    "Наото Фудзимура",
    "Юдзи Исида"
  ],
  "operator": [
    "Тоёмити Курита"
  ],
  "composer": [
    "Цунэо Имахори",
    "Габриэль Роберто"
  ],
  "design": [
    "Томоюки Маруо"
  ],
  "editor": [
    "Нобуюки Такахаси"
  ],
  "actors": [
    "Фуми Никайдо",
    "Сёта Сомэтани",
    "Ёсукэ Эгути",
    "Ясуко Мацуюки",
    "Тома Икута",
    "Юкиёси Одзава",
    "Рэндзи Исибаси",
    "Исао Нацуяги",
    "Кэн Мицуиси",
    "Рина Ота"
  ],
  "actors_dubl": [],
  "trivia": [
    "Фильм снят по роману «No Otoko» (дословно «Человек-мозг») писателя Урио Шудо. Роман был отмечен литературной премией Эдогавы Рампо в 2000 году."
  ],
  "trailers": [],
  "seasons": [],
  "voiceActing": [
    "Колобок"
  ],
  "subtitle": [],
  "parts": []
}
