{
  "id": 22783,
  "name": "К Элизе",
  "name_eng": "Para Elisa",
  "year": 2012,
  "slogan": "—",
  "age": "16+",
  "type": "film",
  "quality": "SD",
  "imdb": "4.2",
  "imdb_id": "2403419",
  "kinopoisk": "3.7",
  "kinopoisk_id": "682753",
  "world_art": null,
  "world_art_id": null,
  "time": "74 мин. / 01:14",
  "ads": true,
  "premier": "2012-10-04",
  "premier_rus": "2012-10-05",
  "availability": "2012-10-06",
  "activate_time": "2020-06-11 14:00:00",
  "budget": null,
  "fees_use": null,
  "fees_world": null,
  "fees_rus": null,
  "rate_mpaa": null,
  "description": "Сюжет фильма крутится вокруг студентки Анны, которая нуждается в деньгах для оплаты своей учебы. Она обращается по объявлению в семью, которой требуется нянька. На работу ее берут, только вот в качестве живой куклы для, видимо не совсем здоровой, Элизы. А если кукла себя плохо ведет, то наказание не заставит себя долго ждать.",
  "iframe_url": "",
  "iframe_poster": null,
  "poster": "https://img.imgilall.me/movies/franchise/2/2/7/8/3/0/0/0/0/0/610x900_22783.jpg",
  "country": {
    "3": "Испания"
  },
  "collection": {
    "29": "Психологические"
  },
  "genre": {
    "13": "Триллер"
  },
  "director": [
    "Juanra Fernández"
  ],
  "screenwriter": [
    "Juanra Fernández"
  ],
  "producer": [
    "Alex Carbonell",
    "Alícia Lacarcel Comas",
    "Jordi Carbonell Segura"
  ],
  "operator": [
    "Давид Вальдеперес"
  ],
  "composer": [
    "Паскуаль Васкес"
  ],
  "design": [
    "Дэниэл Харке",
    "Мигель Анхель Милан"
  ],
  "editor": [
    "Alex Carbonell"
  ],
  "actors": [
    "Ана Турпин",
    "Она Косамикела",
    "Луиса Гаваса",
    "Хесус Каба",
    "Шила Понце",
    "Хавьер Перейра",
    "Пеп Антон Муньос",
    "Энрике Вильен",
    "Пабло Винья",
    "Фредерик Томас"
  ],
  "actors_dubl": [],
  "trivia": [],
  "trailers": [],
  "seasons": [],
  "voiceActing": [
    "Рус. Проф. многоголосый",
    "Spanish Original"
  ],
  "subtitle": [],
  "parts": []
}
