{
  "id": 24674,
  "name": "Роммель",
  "name_eng": "Rommel",
  "year": 2012,
  "slogan": "«From the landings to the assassination attempt»",
  "age": "16+",
  "type": "film",
  "quality": "FHD (1080p)",
  "imdb": "6.6",
  "imdb_id": "2157346",
  "kinopoisk": "6.3",
  "kinopoisk_id": "682870",
  "world_art": null,
  "world_art_id": null,
  "time": "120 мин. / 02:00",
  "ads": false,
  "premier": "2012-11-01",
  "premier_rus": "2012-11-02",
  "availability": "2012-11-03",
  "activate_time": "2020-10-19 21:07:00",
  "budget": "€6 000 000",
  "fees_use": null,
  "fees_world": null,
  "fees_rus": null,
  "rate_mpaa": null,
  "description": "В январе 1944 Роммель был назначен командующим группой армий «В» в Северной Франции. Он попытался сделать «Атлантический вал» серьёзным препятствием для противника. Однако из-за стратегических разногласий с командующим всей войсковой группировкой во Франции — фельдмаршалом Рундштедтом, единый план обороны западной границы рейха не был выработан, что и привело к неоперативности и несогласованности действий немецких войск во время высадки союзников в Нормандии 6 июня 1944 года.",
  "iframe_url": "",
  "iframe_poster": null,
  "poster": "https://img.imgilall.me/movies/franchise/2/4/6/7/4/0/0/0/0/0/610x900_24674.jpg",
  "country": {
    "9": "Франция",
    "20": "Германия",
    "49": "Австрия"
  },
  "collection": [],
  "genre": {
    "32": "Военный",
    "28": "Исторический",
    "27": "Биографический",
    "17": "Боевик",
    "7": "Драма"
  },
  "director": [
    "Ники Штайн"
  ],
  "screenwriter": [
    "Ники Штайн"
  ],
  "producer": [
    "Нико Хофманн",
    "Ариане Крампе",
    "Др. Юрген Шустер"
  ],
  "operator": [
    "Arthur W. Ahrweiler"
  ],
  "composer": [
    "Джеки Энгелкен",
    "Ульрик Спис"
  ],
  "design": [
    "Бенедикт Херфорт",
    "Хуки Хорнбергер",
    "Матиас Клемме"
  ],
  "editor": [
    "Корина Дитц"
  ],
  "actors": [
    "Ульрих Тукур",
    "Тим Бергманн",
    "Йоханнес Зильбершнайдер",
    "Беньямин Задлер",
    "Рольф Канис",
    "Артур Клемт",
    "Томас Лимпинзель",
    "Патрик Мёллекен",
    "Роберт Шупп",
    "Петер Вольф"
  ],
  "actors_dubl": [],
  "trivia": [],
  "trailers": [],
  "seasons": [],
  "voiceActing": [
    "Diva Universal"
  ],
  "subtitle": [],
  "parts": []
}
