{
  "id": 301,
  "name": "Рик и Морти",
  "name_eng": "Rick and Morty",
  "year": 2013,
  "slogan": "«Science makes sense, family doesn't»",
  "age": "18+",
  "type": "cartoon-series",
  "quality": "FHD (1080p)",
  "imdb": "9.2",
  "imdb_id": "2861424",
  "kinopoisk": "9.0",
  "kinopoisk_id": "685246",
  "world_art": null,
  "world_art_id": null,
  "time": "23 мин",
  "ads": true,
  "premier": "2013-12-02",
  "premier_rus": "2014-09-08",
  "availability": "2014-09-09",
  "serial_status": "online",
  "activate_time": "2018-06-07 20:53:21",
  "budget": null,
  "fees_use": null,
  "fees_world": null,
  "fees_rus": null,
  "rate_mpaa": null,
  "description": "В центре сюжета - школьник по имени Морти и его дедушка Рик. Морти - самый обычный мальчик, который ничем не отличается от своих сверстников. А вот его дедуля занимается необычными научными исследованиями и зачастую полностью неадекватен. Он может в любое время дня и ночи схватить внука и отправиться вместе с ним в безумные приключения с помощью построенной из разного хлама летающей тарелки, которая способна перемещаться сквозь межпространственный тоннель. Каждый раз эта парочка оказывается в самых неожиданных местах и самых нелепых ситуациях.",
  "iframe_url": "",
  "poster": "https://img.imgilall.me/movies/franchise/3/0/1/0/0/0/0/0/0/0/610x900_301.jpg",
  "country": {
    "1": "США"
  },
  "collection": {
    "82": "Молодежные комедии",
    "4": "Ситкомы",
    "95": "Про апокалипсис",
    "71": "Про путешествия",
    "70": "Про инопланетян",
    "68": "Про роботов",
    "65": "Антиутопии",
    "43": "Про подростков",
    "26": "Про монстров",
    "21": "Для молодёжи",
    "14": "Для взрослых",
    "28": "Про космос"
  },
  "genre": {
    "9": "Приключения",
    "11": "Фантастика",
    "19": "Комедия",
    "10": "Зарубежный"
  },
  "director": [
    "Уэсли Арчер",
    "Пит Мишелс",
    "Nathan Litz"
  ],
  "screenwriter": [
    "Майк МакМэхан",
    "Мэтт Роллер",
    "Джейн Бекер"
  ],
  "producer": [
    "Дэн Хармон",
    "Джастин Ройланд",
    "Кит Кроффорд"
  ],
  "operator": [],
  "composer": [
    "Райан Элдер",
    "Джейсон Несмит"
  ],
  "design": [
    "Джеймс МакДермотт",
    "Jeffrey Thompson"
  ],
  "editor": [
    "Ли Хартинг",
    "Кен Маккензи",
    "Matthew Sipple"
  ],
  "actors": [
    "Джастин Ройланд",
    "Крис Парнелл",
    "Спенсер Грэммер",
    "Сара Чок",
    "Кари Уолгрен",
    "Дэн Хармон",
    "Морис ЛаМарш",
    "Том Кенни",
    "Райан Ридли",
    "Брэндон Джонсон"
  ],
  "actors_dubl": [],
  "trivia": [
    "В 2007 году Джастин Ройланд нарисовал якобы официальный мультсериал о приключениях Дока Брауна и Марти МакФлая из трилогии «Назад в будущее», являвшийся на самом деле гротескной пародией. Позже автор переименовал персонажей в Рика и Морти и сделал самостоятельный сериал, в котором угадывается влияние известной трилогии.",
    "Когда Рик переключает каналы с альтернативных вселенных, мелькает передача с альтернативной \"Игрой престолов\", где Тирион Ланнистер выше всех остальных.",
    "Во 2-й серии 1-го сезона, в сцене когда Рик и Морти попадают в сон миссис Оладушки, можно заметить двух гномов из \"Гравити Фолз\" (2012). Также в середине эпизода Морти смотрит мультик про кота, похожего на Гарфилда.",
    "В 9-й серии 1-го сезона присутствует персонаж-отсылка к книге Стивена Кинга \"Необходимые вещи\", а также к роману Рэя Брэдбери \"Что-то страшное грядёт\".",
    "В 3-й серии 2-го сезона Рик смотрит сериал, являющийся отсылкой к сериалу \"Однокурсники\" (2009), создателем которого является также Дэн Хэрмон.",
    "В 7-й серии 2-го сезона, когда инопланетянин объясняет Джерри и Бет, как используется их подсознание, мы видим научный слайд на центральном мониторе, где показан персонаж Билл Сайфер из сериала «Гравити Фолз». Примечательно, что этот антагонист не раз проникал в подсознание героев, чтобы добыть нужную информацию."
  ],
  "trailers": [
    {
      "name": "трейлер №2",
      "number": 2,
      "iframe_poster": null,
      "season": 4,
      "iframe_url": ""
    },
    {
      "name": "трейлер №1",
      "number": 1,
      "iframe_poster": null,
      "season": 4,
      "iframe_url": ""
    },
    {
      "name": "трейлер №1",
      "number": 1,
      "iframe_poster": null,
      "season": 4,
      "iframe_url": ""
    }
  ],
  "seasons": [
    {
      "poster": "https://img.imgilall.me/movies/season/1/0/0/0/0/0/0/0/0/0/610x900_100.jpg",
      "release_ru": "2013-12-03",
      "release_world": "2013-12-02",
      "availability": "2013-12-04",
      "iframe_url": "",
      "season": 1,
      "episodes": [
        {
          "episode": 1,
          "name": "Pilot",
          "iframe_url": "",
          "iframe_poster": null,
          "release_ru": "2013-12-03",
          "release_world": "2013-12-02",
          "availability": "2013-12-04",
          "voiceActing": [
            "Сыендук",
            "Eng.Original"
          ],
          "ads": false,
          "subtitle": [
            "Рус. полные"
          ]
        },
        {
          "episode": 2,
          "name": "Lawnmower Dog",
          "iframe_url": "",
          "iframe_poster": null,
          "release_ru": "2013-12-10",
          "release_world": "2013-12-09",
          "availability": "2013-12-11",
          "voiceActing": [
            "Сыендук",
            "Eng.Original"
          ],
          "ads": false,
          "subtitle": [
            "Рус. полные"
          ]
        },
        {
          "episode": 3,
          "name": "Anatomy Park",
          "iframe_url": "",
          "iframe_poster": null,
          "release_ru": "2013-12-17",
          "release_world": "2013-12-16",
          "availability": "2013-12-18",
          "voiceActing": [
            "Сыендук",
            "Eng.Original"
          ],
          "ads": false,
          "subtitle": [
            "Рус. полные"
          ]
        },
        {
          "episode": 4,
          "name": "M. Night Shaym-Aliens!",
          "iframe_url": "",
          "iframe_poster": null,
          "release_ru": "2014-01-14",
          "release_world": "2014-01-13",
          "availability": "2014-01-15",
          "voiceActing": [
            "Сыендук",
            "Eng.Original"
          ],
          "ads": false,
          "subtitle": [
            "Рус. полные"
          ]
        },
        {
          "episode": 5,
          "name": "Meeseeks and Destroy",
          "iframe_url": "",
          "iframe_poster": null,
          "release_ru": "2014-01-21",
          "release_world": "2014-01-20",
          "availability": "2014-01-22",
          "voiceActing": [
            "Сыендук",
            "Eng.Original"
          ],
          "ads": false,
          "subtitle": [
            "Рус. полные"
          ]
        },
        {
          "episode": 6,
          "name": "Rick Potion #9",
          "iframe_url": "",
          "iframe_poster": null,
          "release_ru": "2014-01-28",
          "release_world": "2014-01-27",
          "availability": "2014-01-29",
          "voiceActing": [
            "Сыендук",
            "Eng.Original"
          ],
          "ads": false,
          "subtitle": [
            "Рус. полные"
          ]
        },
        {
          "episode": 7,
          "name": "Raising Gazorpazorp",
          "iframe_url": "",
          "iframe_poster": null,
          "release_ru": "2014-03-11",
          "release_world": "2014-03-10",
          "availability": "2014-03-12",
          "voiceActing": [
            "Сыендук",
            "Eng.Original"
          ],
          "ads": false,
          "subtitle": [
            "Рус. полные"
          ]
        },
        {
          "episode": 8,
          "name": "Rixty Minutes",
          "iframe_url": "",
          "iframe_poster": null,
          "release_ru": "2014-03-18",
          "release_world": "2014-03-17",
          "availability": "2014-03-19",
          "voiceActing": [
            "Сыендук",
            "Eng.Original"
          ],
          "ads": false,
          "subtitle": [
            "Рус. полные"
          ]
        },
        {
          "episode": 9,
          "name": "Something Ricked This Way Comes",
          "iframe_url": "",
          "iframe_poster": null,
          "release_ru": "2014-03-25",
          "release_world": "2014-03-24",
          "availability": "2014-03-26",
          "voiceActing": [
            "Сыендук",
            "Eng.Original"
          ],
          "ads": false,
          "subtitle": [
            "Рус. полные"
          ]
        },
        {
          "episode": 10,
          "name": "Close Rick-Counters of the Rick Kind",
          "iframe_url": "",
          "iframe_poster": null,
          "release_ru": "2014-04-08",
          "release_world": "2014-04-07",
          "availability": "2014-04-09",
          "voiceActing": [
            "Сыендук",
            "Eng.Original"
          ],
          "ads": false,
          "subtitle": [
            "Рус. полные"
          ]
        },
        {
          "episode": 11,
          "name": "Ricksy Business",
          "iframe_url": "",
          "iframe_poster": null,
          "release_ru": "2014-04-15",
          "release_world": "2014-04-14",
          "availability": "2014-04-16",
          "voiceActing": [
            "Сыендук",
            "Eng.Original"
          ],
          "ads": false,
          "subtitle": [
            "Рус. полные"
          ]
        }
      ]
    },
    {
      "poster": "https://img.imgilall.me/movies/season/1/0/8/0/0/0/0/0/0/0/610x900_108.jpg",
      "release_ru": "2015-07-27",
      "release_world": "2015-07-26",
      "availability": "2015-07-28",
      "iframe_url": "",
      "season": 2,
      "episodes": [
        {
          "episode": 1,
          "name": "A Rickle in Time",
          "iframe_url": "",
          "iframe_poster": null,
          "release_ru": "2015-07-27",
          "release_world": "2015-07-26",
          "availability": "2015-07-28",
          "voiceActing": [
            "Сыендук",
            "Eng.Original"
          ],
          "ads": false,
          "subtitle": [
            "Рус. полные"
          ]
        },
        {
          "episode": 2,
          "name": "Mortynight Run",
          "iframe_url": "",
          "iframe_poster": null,
          "release_ru": "2015-08-03",
          "release_world": "2015-08-02",
          "availability": "2015-08-04",
          "voiceActing": [
            "Сыендук",
            "Eng.Original"
          ],
          "ads": false,
          "subtitle": [
            "Рус. полные"
          ]
        },
        {
          "episode": 3,
          "name": "Auto Erotic Assimilation",
          "iframe_url": "",
          "iframe_poster": null,
          "release_ru": "2015-08-10",
          "release_world": "2015-08-09",
          "availability": "2015-08-11",
          "voiceActing": [
            "Сыендук",
            "Eng.Original"
          ],
          "ads": false,
          "subtitle": [
            "Рус. полные"
          ]
        },
        {
          "episode": 4,
          "name": "Total Rickall",
          "iframe_url": "",
          "iframe_poster": null,
          "release_ru": "2015-08-17",
          "release_world": "2015-08-16",
          "availability": "2015-08-18",
          "voiceActing": [
            "Сыендук",
            "Eng.Original"
          ],
          "ads": false,
          "subtitle": [
            "Рус. полные"
          ]
        },
        {
          "episode": 5,
          "name": "Get Schwifty",
          "iframe_url": "",
          "iframe_poster": null,
          "release_ru": "2015-08-24",
          "release_world": "2015-08-23",
          "availability": "2015-08-25",
          "voiceActing": [
            "Сыендук",
            "Eng.Original"
          ],
          "ads": false,
          "subtitle": [
            "Рус. полные"
          ]
        },
        {
          "episode": 6,
          "name": "The Ricks Must Be Crazy",
          "iframe_url": "",
          "iframe_poster": null,
          "release_ru": "2015-08-31",
          "release_world": "2015-08-30",
          "availability": "2015-09-01",
          "voiceActing": [
            "Сыендук",
            "Eng.Original"
          ],
          "ads": false,
          "subtitle": [
            "Рус. полные"
          ]
        },
        {
          "episode": 7,
          "name": "Big Trouble in Little Sanchez",
          "iframe_url": "",
          "iframe_poster": null,
          "release_ru": "2015-09-14",
          "release_world": "2015-09-13",
          "availability": "2015-09-15",
          "voiceActing": [
            "Сыендук",
            "Eng.Original"
          ],
          "ads": false,
          "subtitle": [
            "Рус. полные"
          ]
        },
        {
          "episode": 8,
          "name": "Interdimensional Cable 2: Tempting Fate",
          "iframe_url": "",
          "iframe_poster": null,
          "release_ru": "2015-09-21",
          "release_world": "2015-09-20",
          "availability": "2015-09-22",
          "voiceActing": [
            "Сыендук",
            "Eng.Original"
          ],
          "ads": false,
          "subtitle": [
            "Рус. полные"
          ]
        },
        {
          "episode": 9,
          "name": "Look Who's Purging Now",
          "iframe_url": "",
          "iframe_poster": null,
          "release_ru": "2015-09-28",
          "release_world": "2015-09-27",
          "availability": "2015-09-29",
          "voiceActing": [
            "Сыендук",
            "Eng.Original"
          ],
          "ads": false,
          "subtitle": [
            "Рус. полные"
          ]
        },
        {
          "episode": 10,
          "name": "The Wedding Squanchers",
          "iframe_url": "",
          "iframe_poster": null,
          "release_ru": "2015-10-05",
          "release_world": "2015-10-04",
          "availability": "2015-10-06",
          "voiceActing": [
            "Сыендук",
            "Eng.Original"
          ],
          "ads": false,
          "subtitle": [
            "Рус. полные"
          ]
        }
      ]
    },
    {
      "poster": "https://img.imgilall.me/movies/season/1/0/9/0/0/0/0/0/0/0/610x900_109.jpg",
      "release_ru": "2017-04-02",
      "release_world": "2017-04-01",
      "availability": "2017-04-03",
      "iframe_url": "",
      "season": 3,
      "episodes": [
        {
          "episode": 1,
          "name": "The Rickshank Rickdemption",
          "iframe_url": "",
          "iframe_poster": null,
          "release_ru": "2017-04-02",
          "release_world": "2017-04-01",
          "availability": "2017-04-03",
          "voiceActing": [
            "Сыендук",
            "Eng.Original"
          ],
          "ads": false,
          "subtitle": [
            "Рус. полные"
          ]
        },
        {
          "episode": 2,
          "name": "Rickmancing the Stone",
          "iframe_url": "",
          "iframe_poster": null,
          "release_ru": "2017-07-31",
          "release_world": "2017-07-30",
          "availability": "2017-08-01",
          "voiceActing": [
            "Сыендук",
            "Eng.Original"
          ],
          "ads": false,
          "subtitle": [
            "Рус. полные"
          ]
        },
        {
          "episode": 3,
          "name": "Pickle Rick",
          "iframe_url": "",
          "iframe_poster": null,
          "release_ru": "2017-08-07",
          "release_world": "2017-08-06",
          "availability": "2017-08-08",
          "voiceActing": [
            "Сыендук",
            "Eng.Original"
          ],
          "ads": false,
          "subtitle": [
            "Рус. полные"
          ]
        },
        {
          "episode": 4,
          "name": "Vindicators 3: The Return of Worldender",
          "iframe_url": "",
          "iframe_poster": null,
          "release_ru": "2017-08-14",
          "release_world": "2017-08-13",
          "availability": "2017-08-15",
          "voiceActing": [
            "Сыендук",
            "Eng.Original"
          ],
          "ads": false,
          "subtitle": [
            "Рус. полные"
          ]
        },
        {
          "episode": 5,
          "name": "The Whirly Dirly Conspiracy",
          "iframe_url": "",
          "iframe_poster": null,
          "release_ru": "2017-08-21",
          "release_world": "2017-08-20",
          "availability": "2017-08-22",
          "voiceActing": [
            "Сыендук",
            "Eng.Original"
          ],
          "ads": false,
          "subtitle": [
            "Рус. полные"
          ]
        },
        {
          "episode": 6,
          "name": "Rest and Ricklaxation",
          "iframe_url": "",
          "iframe_poster": null,
          "release_ru": "2017-08-28",
          "release_world": "2017-08-27",
          "availability": "2017-08-29",
          "voiceActing": [
            "Сыендук",
            "Eng.Original"
          ],
          "ads": false,
          "subtitle": [
            "Рус. полные"
          ]
        },
        {
          "episode": 7,
          "name": "The Ricklantis Mixup",
          "iframe_url": "",
          "iframe_poster": null,
          "release_ru": "2017-09-11",
          "release_world": "2017-09-10",
          "availability": "2017-09-12",
          "voiceActing": [
            "Сыендук",
            "Eng.Original"
          ],
          "ads": false,
          "subtitle": [
            "Рус. полные"
          ]
        },
        {
          "episode": 8,
          "name": "Morty's Mind Blowers",
          "iframe_url": "",
          "iframe_poster": null,
          "release_ru": "2017-09-18",
          "release_world": "2017-09-17",
          "availability": "2017-09-19",
          "voiceActing": [
            "Сыендук",
            "Eng.Original"
          ],
          "ads": false,
          "subtitle": [
            "Рус. полные"
          ]
        },
        {
          "episode": 9,
          "name": "The ABC's of Beth",
          "iframe_url": "",
          "iframe_poster": null,
          "release_ru": "2017-09-25",
          "release_world": "2017-09-24",
          "availability": "2017-09-26",
          "voiceActing": [
            "Сыендук",
            "Eng.Original"
          ],
          "ads": false,
          "subtitle": [
            "Рус. полные"
          ]
        },
        {
          "episode": 10,
          "name": "The Rickchurian Mortydate",
          "iframe_url": "",
          "iframe_poster": null,
          "release_ru": "2017-10-02",
          "release_world": "2017-10-01",
          "availability": "2017-10-03",
          "voiceActing": [
            "Сыендук",
            "Eng.Original"
          ],
          "ads": false,
          "subtitle": [
            "Рус. полные"
          ]
        }
      ]
    },
    {
      "poster": "https://img.imgilall.me/movies/season/5/7/8/7/0/0/0/0/0/0/610x900_5787.jpg",
      "release_ru": "2019-11-11",
      "release_world": "2019-11-10",
      "availability": "2019-11-12",
      "iframe_url": "",
      "season": 4,
      "episodes": [
        {
          "episode": 1,
          "name": "Edge of Tomorty: Rick, Die, Rickpeat",
          "iframe_url": "",
          "iframe_poster": null,
          "release_ru": "2019-11-10",
          "release_world": "2019-11-10",
          "availability": "2019-11-11",
          "voiceActing": [
            "Сыендук",
            "Eng.Original"
          ],
          "ads": false,
          "subtitle": [
            "Рус. полные"
          ]
        },
        {
          "episode": 2,
          "name": "The Old Man and the Seat",
          "iframe_url": "",
          "iframe_poster": null,
          "release_ru": "2019-11-17",
          "release_world": "2019-11-17",
          "availability": "2019-11-18",
          "voiceActing": [
            "Сыендук",
            "Eng.Original"
          ],
          "ads": false,
          "subtitle": [
            "Рус. полные"
          ]
        },
        {
          "episode": 3,
          "name": "One Crew Over the Crewcoo's Morty",
          "iframe_url": "",
          "iframe_poster": null,
          "release_ru": "2019-11-24",
          "release_world": "2019-11-24",
          "availability": "2019-11-25",
          "voiceActing": [
            "Сыендук",
            "Eng.Original"
          ],
          "ads": false,
          "subtitle": [
            "Рус. полные"
          ]
        },
        {
          "episode": 4,
          "name": "Claw and Hoarder: Special Ricktim's Morty",
          "iframe_url": "",
          "iframe_poster": null,
          "release_ru": "2019-12-08",
          "release_world": "2019-12-08",
          "availability": "2019-12-09",
          "voiceActing": [
            "Сыендук",
            "Eng.Original"
          ],
          "ads": false,
          "subtitle": [
            "Рус. полные"
          ]
        },
        {
          "episode": 5,
          "name": "Rattlestar Ricklactica",
          "iframe_url": "",
          "iframe_poster": null,
          "release_ru": "2019-12-15",
          "release_world": "2019-12-15",
          "availability": "2019-12-16",
          "voiceActing": [
            "Сыендук",
            "Eng.Original"
          ],
          "ads": false,
          "subtitle": [
            "Рус. полные"
          ]
        },
        {
          "episode": 6,
          "name": "Never Ricking Morty",
          "iframe_url": "",
          "iframe_poster": null,
          "release_ru": "2020-05-04",
          "release_world": "2020-05-03",
          "availability": "2020-05-04",
          "voiceActing": [
            "Сыендук",
            "Eng.Original"
          ],
          "ads": false,
          "subtitle": [
            "Рус. полные"
          ]
        },
        {
          "episode": 7,
          "name": "Promortyus",
          "iframe_url": "",
          "iframe_poster": null,
          "release_ru": "2020-05-11",
          "release_world": "2020-05-10",
          "availability": "2020-05-12",
          "voiceActing": [
            "Сыендук",
            "Eng.Original"
          ],
          "ads": false,
          "subtitle": [
            "Рус. полные"
          ]
        },
        {
          "episode": 8,
          "name": "The Vat of Acid Episode",
          "iframe_url": "",
          "iframe_poster": null,
          "release_ru": "2020-05-18",
          "release_world": "2020-05-17",
          "availability": "2020-05-19",
          "voiceActing": [
            "Сыендук",
            "Eng.Original"
          ],
          "ads": false,
          "subtitle": [
            "Рус. полные"
          ]
        },
        {
          "episode": 9,
          "name": "Childrick of Mort",
          "iframe_url": "",
          "iframe_poster": null,
          "release_ru": "2020-05-25",
          "release_world": "2020-05-24",
          "availability": "2020-05-26",
          "voiceActing": [
            "Сыендук",
            "Eng.Original"
          ],
          "ads": false,
          "subtitle": [
            "Рус. полные"
          ]
        },
        {
          "episode": 10,
          "name": "Star Mort Rickturn of The Jerri",
          "iframe_url": "",
          "iframe_poster": null,
          "release_ru": "2020-06-01",
          "release_world": "2020-05-31",
          "availability": "2020-06-02",
          "voiceActing": [
            "Сыендук",
            "Eng.Original"
          ],
          "ads": false,
          "subtitle": [
            "Рус. полные"
          ]
        }
      ]
    },
    {
      "poster": null,
      "release_ru": "2021-06-21",
      "release_world": "2021-06-20",
      "availability": "2021-06-22",
      "iframe_url": "",
      "season": 5,
      "episodes": [
        {
          "episode": 0,
          "name": null,
          "iframe_url": "",
          "iframe_poster": null,
          "release_ru": null,
          "release_world": null,
          "availability": null,
          "voiceActing": [
            "HDRezka Studio"
          ],
          "ads": true,
          "subtitle": [
            "Рус. форсированные"
          ]
        },
        {
          "episode": 1,
          "name": "TBA",
          "iframe_url": "",
          "iframe_poster": null,
          "release_ru": "2021-06-21",
          "release_world": "2021-06-20",
          "availability": "2021-06-21",
          "voiceActing": [
            "Сыендук",
            "Eng.Original"
          ],
          "ads": false,
          "subtitle": [
            "Eng. full"
          ]
        },
        {
          "episode": 2,
          "name": "Mortyplicity",
          "iframe_url": "",
          "iframe_poster": null,
          "release_ru": "2021-06-28",
          "release_world": "2021-06-27",
          "availability": "2021-06-29",
          "voiceActing": [
            "Сыендук",
            "Eng.Original"
          ],
          "ads": false,
          "subtitle": [
            "Eng. full"
          ]
        },
        {
          "episode": 3,
          "name": "A Rickconvenient Mort",
          "iframe_url": "",
          "iframe_poster": null,
          "release_ru": "2021-07-05",
          "release_world": "2021-07-04",
          "availability": "2021-07-06",
          "voiceActing": [
            "Сыендук",
            "Eng.Original"
          ],
          "ads": false,
          "subtitle": [
            "Рус. полные"
          ]
        },
        {
          "episode": 4,
          "name": "Rickdependence Spray",
          "iframe_url": "",
          "iframe_poster": null,
          "release_ru": "2021-07-12",
          "release_world": "2021-07-11",
          "availability": "2021-07-13",
          "voiceActing": [
            "Сыендук",
            "Eng.Original"
          ],
          "ads": false,
          "subtitle": [
            "Рус. полные"
          ]
        },
        {
          "episode": 5,
          "name": "Amortycan Grickfitti",
          "iframe_url": "",
          "iframe_poster": null,
          "release_ru": "2021-07-19",
          "release_world": "2021-07-18",
          "availability": "2021-07-20",
          "voiceActing": [
            "Сыендук",
            "Eng.Original"
          ],
          "ads": false,
          "subtitle": [
            "Eng. SDH"
          ]
        },
        {
          "episode": 6,
          "name": "Rick & Morty's Thanksploitation Spectacular",
          "iframe_url": "",
          "iframe_poster": null,
          "release_ru": "2021-07-26",
          "release_world": "2021-07-25",
          "availability": "2021-07-27",
          "voiceActing": [
            "Сыендук",
            "Eng.Original"
          ],
          "ads": false,
          "subtitle": [
            "Рус. полные"
          ]
        },
        {
          "episode": 7,
          "name": "Gotron Jerrysis Rickvangelion",
          "iframe_url": "",
          "iframe_poster": null,
          "release_ru": "2021-08-02",
          "release_world": "2021-08-01",
          "availability": "2021-08-03",
          "voiceActing": [
            "Сыендук",
            "Eng.Original"
          ],
          "ads": false,
          "subtitle": [
            "Рус. полные"
          ]
        },
        {
          "episode": 8,
          "name": "Rickternal Friendshine of the Spotless Mort",
          "iframe_url": "",
          "iframe_poster": null,
          "release_ru": "2021-08-09",
          "release_world": "2021-08-08",
          "availability": "2021-08-10",
          "voiceActing": [
            "Сыендук",
            "Eng.Original"
          ],
          "ads": false,
          "subtitle": [
            "Eng. full"
          ]
        },
        {
          "episode": 9,
          "name": "Forgetting Sarick Mortshall",
          "iframe_url": "",
          "iframe_poster": null,
          "release_ru": "2021-08-16",
          "release_world": "2021-08-15",
          "availability": "2021-08-17",
          "voiceActing": [
            "Сыендук",
            "Eng.Original"
          ],
          "ads": false,
          "subtitle": [
            "Рус. форсированные"
          ]
        },
        {
          "episode": 10,
          "name": "Rickmurai Jack",
          "iframe_url": "",
          "iframe_poster": null,
          "release_ru": "2021-08-23",
          "release_world": "2021-08-22",
          "availability": "2021-08-24",
          "voiceActing": [
            "Сыендук",
            "Eng.Original"
          ],
          "ads": false,
          "subtitle": [
            "Рус. полные"
          ]
        },
        {
          "episode": 11,
          "name": null,
          "iframe_url": "",
          "iframe_poster": null,
          "release_ru": null,
          "release_world": null,
          "availability": null,
          "voiceActing": [
            "HDRezka Studio"
          ],
          "ads": true,
          "subtitle": [
            "Рус. форсированные"
          ]
        }
      ]
    }
  ],
  "voiceActing": [
    "Сыендук",
    "Eng.Original",
    "HDRezka Studio"
  ],
  "subtitle": [
    "Рус. полные",
    "Рус. форсированные",
    "Eng. full",
    "Eng. SDH"
  ],
  "parts": []
}
