{
  "id": 14775,
  "name": "Континуум",
  "name_eng": "Continuum",
  "year": 2012,
  "slogan": "«Forever and Ever»",
  "age": null,
  "type": "series",
  "quality": "SD",
  "imdb": "6.5",
  "imdb_id": "2309131",
  "kinopoisk": "6.1",
  "kinopoisk_id": "682485",
  "world_art": null,
  "world_art_id": null,
  "time": "—",
  "ads": false,
  "premier": "2012-02-21",
  "premier_rus": null,
  "availability": "2012-02-22",
  "serial_status": "offline",
  "activate_time": "2020-01-28 15:05:00",
  "budget": null,
  "fees_use": null,
  "fees_world": null,
  "fees_rus": null,
  "rate_mpaa": null,
  "description": "В космосе происходит мощный взрыв, вскоре после этого неизвестно где просыпается девушка. Её приветствует тоненький детский голосок, но она его не узнаёт. Голос назвал её Рейган, но и имя оказалось ей совершенно незнакомо. Это очень тревожит девушку и она начинает озираться вокруг, видит, что сидит в какой-то капсуле. Она продолжает задавать вопросы и выясняет, что с ней общается бортовой компьютер космического корабля. Машина сообщает, что Рейган тут «большой босс» и находится здесь с особой миссией. Эти «ценнейшие» сведения не пугают, а лишь слегка удивляют девушку, не пробуждая в ней воспоминаний. Напротив она, как настоящая женщина, начинает готовить еду и с явным удовольствием хозяйничать. Только узнав о том, что она одна летит на затерянном корабле в неизвестном направлении, красавица задумалась.",
  "iframe_url": "",
  "poster": "https://img.imgilall.me/movies/franchise/1/4/7/7/5/0/0/0/0/0/610x900_14775.jpg",
  "country": {
    "7": "Канада",
    "1": "США"
  },
  "collection": {
    "28": "Про космос"
  },
  "genre": {
    "11": "Фантастика",
    "10": "Зарубежный"
  },
  "director": [
    "Блейк Кэлхун"
  ],
  "screenwriter": [
    "Блейк Кэлхун"
  ],
  "producer": [
    "Блейк Кэлхун",
    "Ross Calhoun",
    "Майк Мэден"
  ],
  "operator": [
    "Алан Лефевр"
  ],
  "composer": [
    "Дэймон Крисвелл"
  ],
  "design": [
    "Эрик Уитни"
  ],
  "editor": [
    "Блейк Кэлхун"
  ],
  "actors": [
    "Мелани Меркоски",
    "Брэд Хоукинс",
    "Тэрин О’Нилл",
    "Кэмерон Тен Нейпел",
    "Aaron Atkins"
  ],
  "actors_dubl": [],
  "trivia": [],
  "trailers": [],
  "seasons": [
    {
      "poster": null,
      "release_ru": "2012-02-22",
      "release_world": "2012-02-21",
      "availability": "2012-02-23",
      "iframe_url": "",
      "season": 1,
      "episodes": [
        {
          "episode": 1,
          "name": "Supernovacaine",
          "iframe_url": "",
          "iframe_poster": null,
          "release_ru": "2012-02-22",
          "release_world": "2012-02-21",
          "availability": "2012-02-23",
          "voiceActing": [
            "Рус. Одноголосый"
          ],
          "ads": false,
          "subtitle": []
        },
        {
          "episode": 2,
          "name": "The Eagle Eye Has Landed",
          "iframe_url": "",
          "iframe_poster": null,
          "release_ru": "2012-02-29",
          "release_world": "2012-02-28",
          "availability": "2012-03-01",
          "voiceActing": [
            "Рус. Одноголосый"
          ],
          "ads": false,
          "subtitle": []
        },
        {
          "episode": 3,
          "name": "Step Back to the Future",
          "iframe_url": "",
          "iframe_poster": null,
          "release_ru": "2012-03-07",
          "release_world": "2012-03-06",
          "availability": "2012-03-08",
          "voiceActing": [
            "Рус. Одноголосый"
          ],
          "ads": false,
          "subtitle": []
        },
        {
          "episode": 4,
          "name": "Event Horizontal",
          "iframe_url": "",
          "iframe_poster": null,
          "release_ru": "2012-03-14",
          "release_world": "2012-03-13",
          "availability": "2012-03-15",
          "voiceActing": [
            "Рус. Одноголосый"
          ],
          "ads": false,
          "subtitle": []
        },
        {
          "episode": 5,
          "name": "Han Soloist",
          "iframe_url": "",
          "iframe_poster": null,
          "release_ru": "2012-03-21",
          "release_world": "2012-03-20",
          "availability": "2012-03-22",
          "voiceActing": [
            "Рус. Одноголосый"
          ],
          "ads": false,
          "subtitle": []
        },
        {
          "episode": 6,
          "name": "Two Close Encounters",
          "iframe_url": "",
          "iframe_poster": null,
          "release_ru": "2012-03-28",
          "release_world": "2012-03-27",
          "availability": "2012-03-29",
          "voiceActing": [
            "Рус. Одноголосый"
          ],
          "ads": false,
          "subtitle": []
        },
        {
          "episode": 7,
          "name": "Lost in MySpace",
          "iframe_url": "",
          "iframe_poster": null,
          "release_ru": "2012-04-04",
          "release_world": "2012-04-03",
          "availability": "2012-04-05",
          "voiceActing": [
            "Рус. Одноголосый"
          ],
          "ads": false,
          "subtitle": []
        },
        {
          "episode": 8,
          "name": "The Ex-Terminator",
          "iframe_url": "",
          "iframe_poster": null,
          "release_ru": "2012-04-11",
          "release_world": "2012-04-10",
          "availability": "2012-04-12",
          "voiceActing": [
            "Рус. Одноголосый"
          ],
          "ads": false,
          "subtitle": []
        },
        {
          "episode": 9,
          "name": "A Space Oddity",
          "iframe_url": "",
          "iframe_poster": null,
          "release_ru": "2012-04-18",
          "release_world": "2012-04-17",
          "availability": "2012-04-19",
          "voiceActing": [
            "Рус. Одноголосый"
          ],
          "ads": false,
          "subtitle": []
        }
      ]
    },
    {
      "poster": null,
      "release_ru": "2013-08-16",
      "release_world": "2013-08-15",
      "availability": "2013-08-17",
      "iframe_url": "",
      "season": 2,
      "episodes": [
        {
          "episode": 1,
          "name": "The Terminator's Salvation",
          "iframe_url": "",
          "iframe_poster": null,
          "release_ru": "2013-08-16",
          "release_world": "2013-08-15",
          "availability": "2013-08-17",
          "voiceActing": [
            "Рус. Люб. одноголосый"
          ],
          "ads": false,
          "subtitle": []
        },
        {
          "episode": 2,
          "name": "Solo System",
          "iframe_url": "",
          "iframe_poster": null,
          "release_ru": "2013-08-23",
          "release_world": "2013-08-22",
          "availability": "2013-08-24",
          "voiceActing": [
            "Рус. Люб. одноголосый"
          ],
          "ads": false,
          "subtitle": []
        },
        {
          "episode": 3,
          "name": "Houston, We Have Another...",
          "iframe_url": "",
          "iframe_poster": null,
          "release_ru": "2013-09-06",
          "release_world": "2013-09-05",
          "availability": "2013-09-07",
          "voiceActing": [
            "Рус. Люб. одноголосый"
          ],
          "ads": false,
          "subtitle": []
        },
        {
          "episode": 4,
          "name": "The Empress Strikes Back",
          "iframe_url": "",
          "iframe_poster": null,
          "release_ru": "2013-09-13",
          "release_world": "2013-09-12",
          "availability": "2013-09-14",
          "voiceActing": [
            "Рус. Люб. одноголосый"
          ],
          "ads": false,
          "subtitle": []
        },
        {
          "episode": 5,
          "name": "Minority Reporting",
          "iframe_url": "",
          "iframe_poster": null,
          "release_ru": "2013-09-20",
          "release_world": "2013-09-19",
          "availability": "2013-09-21",
          "voiceActing": [
            "Рус. Люб. одноголосый"
          ],
          "ads": false,
          "subtitle": []
        },
        {
          "episode": 6,
          "name": "Artificial Intelligence",
          "iframe_url": "",
          "iframe_poster": null,
          "release_ru": "2013-09-27",
          "release_world": "2013-09-26",
          "availability": "2013-09-28",
          "voiceActing": [
            "Рус. Люб. одноголосый"
          ],
          "ads": false,
          "subtitle": []
        },
        {
          "episode": 7,
          "name": "The Wrath of a Con",
          "iframe_url": "",
          "iframe_poster": null,
          "release_ru": "2013-10-04",
          "release_world": "2013-10-03",
          "availability": "2013-10-05",
          "voiceActing": [
            "Рус. Люб. одноголосый"
          ],
          "ads": false,
          "subtitle": []
        },
        {
          "episode": 8,
          "name": "Phone Home",
          "iframe_url": "",
          "iframe_poster": null,
          "release_ru": "2013-10-11",
          "release_world": "2013-10-10",
          "availability": "2013-10-12",
          "voiceActing": [
            "Рус. Люб. одноголосый"
          ],
          "ads": false,
          "subtitle": []
        },
        {
          "episode": 9,
          "name": "The Final Frontier",
          "iframe_url": "",
          "iframe_poster": null,
          "release_ru": "2013-10-18",
          "release_world": "2013-10-17",
          "availability": "2013-10-19",
          "voiceActing": [
            "Рус. Люб. одноголосый"
          ],
          "ads": false,
          "subtitle": []
        }
      ]
    }
  ],
  "voiceActing": [
    "Рус. Одноголосый",
    "Рус. Люб. одноголосый"
  ],
  "subtitle": [],
  "parts": []
}
