{
  "id": 24462,
  "name": "Четверо похорон и одна свадьба",
  "name_eng": "Plots with a View",
  "year": 2002,
  "slogan": "«Любовь до гроба и убийственная конкуренция»",
  "age": "16+",
  "type": "film",
  "quality": "SD",
  "imdb": "6.6",
  "imdb_id": "0298504",
  "kinopoisk": "6.9",
  "kinopoisk_id": "6890",
  "world_art": null,
  "world_art_id": null,
  "time": "94 мин. / 01:34",
  "ads": false,
  "premier": "2002-10-04",
  "premier_rus": "2003-11-13",
  "availability": "2003-11-14",
  "activate_time": "2020-06-18 13:50:00",
  "budget": "$8 000 000",
  "fees_use": null,
  "fees_world": null,
  "fees_rus": null,
  "rate_mpaa": "R",
  "description": "За всю жизнь директор похоронного агентства Борис Плотс мечтал о двух вещах – танцах и Бетти Райс Джонс. Девушка тоже втайне любила парня, но её отец сам выбрал ей жениха. Спустя 30 лет у Бетти умирает ненавистная свекровь, и для организации похорон они с мужем обращаются в агентство Плотса. Борис и Бетти понимают, что больше не могут быть врозь. Поняв, что им мешает лишь замужество Бетти, пара решает имитировать её смерть.Между тем в газетах сообщают о предстоящих похоронах под руководством агентства Бориса Плотса. Новость огорчает его конкурента Фрэнка Физербеда, который устраивает различные «жанровые» похороны и пытается перетянуть бизнес на себя.",
  "iframe_url": "",
  "iframe_poster": null,
  "poster": "https://img.imgilall.me/movies/franchise/2/4/4/6/2/0/0/0/0/0/610x900_24462.jpg",
  "country": {
    "1": "США",
    "2": "Великобритания",
    "20": "Германия"
  },
  "collection": [],
  "genre": {
    "25": "Криминал",
    "19": "Комедия",
    "8": "Мелодрама"
  },
  "director": [
    "Ник Харран"
  ],
  "screenwriter": [
    "Фред Понзлов"
  ],
  "producer": [
    "Майкл Кауэн",
    "Сюзанн Лайонс",
    "Джейсон Питти"
  ],
  "operator": [
    "Джеймс Уэлленд"
  ],
  "composer": [
    "Руперт Грегсон-Уильямс"
  ],
  "design": [
    "Кит Максвелл",
    "Лесли Дёрн",
    "Алекс Эванс"
  ],
  "editor": [
    "Джон Ричардс"
  ],
  "actors": [
    "Бренда Блетин",
    "Альфред Молина",
    "Наоми Уоттс",
    "Роберт Пью",
    "Кристофер Уокен",
    "Ли Эванс",
    "Ханна Хиггинс",
    "Джошуа Дженкинс",
    "Шон Филлипс",
    "Менна Трасслер"
  ],
  "actors_dubl": [
    "Ольга Сирина",
    "Владимир Антоник",
    "Лариса Некипелова",
    "Олег Куценко",
    "Вадим Андреев"
  ],
  "trivia": [],
  "trailers": [],
  "seasons": [],
  "voiceActing": [
    "Рус. Дублированный"
  ],
  "subtitle": [],
  "parts": []
}
