{
  "id": 16374,
  "name": "Реверс 666",
  "name_eng": "Exeter",
  "year": 2014,
  "slogan": "«Чудный день для экзорцизма»",
  "age": "18+",
  "type": "film",
  "quality": "FHD (1080p)",
  "imdb": "4.5",
  "imdb_id": "1945044",
  "kinopoisk": "4.0",
  "kinopoisk_id": "696327",
  "world_art": null,
  "world_art_id": null,
  "time": "91 мин. / 01:31",
  "ads": false,
  "premier": "2015-02-27",
  "premier_rus": "2015-07-16",
  "availability": "2015-07-17",
  "activate_time": "2020-04-11 09:44:00",
  "budget": null,
  "fees_use": null,
  "fees_world": null,
  "fees_rus": "$108 969",
  "rate_mpaa": "R",
  "description": "Группа подростков случайно выпускает на волю злого духа, который начинает вселяться в них по одному…",
  "iframe_url": "",
  "iframe_poster": null,
  "poster": "https://img.imgilall.me/movies/franchise/1/6/3/7/4/0/0/0/0/0/610x900_16374.jpg",
  "country": {
    "1": "США"
  },
  "collection": {
    "43": "Про подростков",
    "22": "Про призраков",
    "14": "Для взрослых"
  },
  "genre": {
    "26": "Ужасы",
    "24": "Детектив",
    "13": "Триллер",
    "10": "Зарубежный"
  },
  "director": [
    "Маркус Ниспел"
  ],
  "screenwriter": [
    "Кирстен МакКаллион",
    "Маркус Ниспел"
  ],
  "producer": [
    "Брандт Андерсен",
    "Майкл Корсо",
    "Маркус Ниспел"
  ],
  "operator": [
    "Эрик Трэмл"
  ],
  "composer": [
    "Эрик Элламен"
  ],
  "design": [
    "Гай Роланд",
    "Ричард Берентсен",
    "Джаред Хартли"
  ],
  "editor": [
    "Блейк Маникис"
  ],
  "actors": [
    "Стивен Лэнг",
    "Кевин Чэпмен",
    "Келли Блац",
    "Бриттани Каррен",
    "Бретт Дайер",
    "Гейдж Голайтли",
    "Ник Нак",
    "Ник Норделла",
    "Майкл Ормсби",
    "Малена Корсо"
  ],
  "actors_dubl": [
    "Никита Прозоровский",
    "Михаил Тихонов",
    "Николай Быстров",
    "Мария Иващенко",
    "Даниил Эльдаров"
  ],
  "trivia": [
    "Это первый фильм Маркуса Ниспела, который не является ремейком или адаптацией другого фильма."
  ],
  "trailers": [],
  "seasons": [],
  "voiceActing": [
    "Рус. Дублированный",
    "Eng.Original"
  ],
  "subtitle": [],
  "parts": []
}
