{
  "id": 3492,
  "name": "Пустая корона",
  "name_eng": "The Hollow Crown",
  "year": 2012,
  "slogan": null,
  "age": "16+",
  "type": "series",
  "quality": "HD (720p)",
  "imdb": "8.3",
  "imdb_id": "2262456",
  "kinopoisk": "8.1",
  "kinopoisk_id": "692830",
  "world_art": null,
  "world_art_id": null,
  "time": "132 мин. / 02:12",
  "ads": false,
  "premier": "2012-06-30",
  "premier_rus": null,
  "availability": null,
  "serial_status": "offline",
  "activate_time": "2018-11-14 17:36:45",
  "budget": null,
  "fees_use": null,
  "fees_world": null,
  "fees_rus": null,
  "rate_mpaa": null,
  "description": "Цикл экранизаций исторических пьес Уильяма Шекспира от телеканала ВВС Two под общим названием «Пустая корона». В цикл входят фильмы «Ричард II», «Генрих IV. Часть 1», «Генрих IV. Часть 2» и «Генрих V». История о семье, политике и власти. Сериал рассказывает о взлете и падении трех королей и о том, как их судьбы формировали историю. Ричард II - тщеславный, самодовольный человек, правит, нимало не заботясь о благосостоянии подданных. В конечном итоге его свергает его кузен Болингброк, взошедший на престол как Генрих IV. Царствование Генриха омрачено чувством вины из-за смерти Ричарда, гражданской войной и опасениями за сына Хэла. Когда Хэл восходит на престол как Генрих V, ему остается только похоронить в прошлом призрак отца и бороться со своими собственными демонами.",
  "iframe_url": "",
  "poster": "https://img.imgilall.me/movies/franchise/3/4/9/2/0/0/0/0/0/0/610x900_3492.jpg",
  "country": {
    "2": "Великобритания"
  },
  "collection": {
    "33": "Экранизация книг"
  },
  "genre": {
    "28": "Исторический",
    "10": "Зарубежный",
    "7": "Драма"
  },
  "director": [
    "Доминик Кук",
    "Ричард Эйр",
    "Руперт Гулд"
  ],
  "screenwriter": [
    "Ричард Эйр",
    "Руперт Гулд",
    "Бен Пауэр"
  ],
  "producer": [
    "Пиппа Харрис",
    "Сэм Мендес",
    "Гарет Ним"
  ],
  "operator": [
    "Бен Смитхард",
    "Зак Николсон",
    "Дэнни Коэн"
  ],
  "composer": [
    "Дэн Джонс",
    "Стивен Уорбек",
    "Адам Корк"
  ],
  "design": [
    "Джон Стивенсон",
    "Донал Вудс",
    "Алан МакДональд"
  ],
  "editor": [
    "Гарет С. Скейлс",
    "Тревор Вейт",
    "Лесли Уолкер"
  ],
  "actors": [
    "Бен Уишоу",
    "Том Хиддлстон",
    "Джереми Айронс",
    "Бенедикт Камбербэтч",
    "Софи Оконедо",
    "Том Стёрридж",
    "Джули Уолтерс",
    "Стэнли Таунсенд",
    "Джуди Денч",
    "Майкл Гэмбон"
  ],
  "actors_dubl": [],
  "trivia": [
    "Сериал состоит из экранизаций «исторических» пьес Уильяма Шекспира.",
    "Во втором сезоне рассказывается о браке Генриха VI и Маргариты Анжуйской. Маргарита выходила замуж в возрасте 15 лет. Исполнившей её роль актрисе Софи Оконедо в момент съёмок было 46 лет.",
    "Съёмки первой части состоялись в 2011 году. Телекомпания BBC запланировала показ исторических пьес о короне на время Летних Олимпийских игр 2012 в Лондоне, как часть «Культурной Олимпиады»."
  ],
  "trailers": [],
  "seasons": [
    {
      "poster": "https://img.imgilall.me/movies/season/2/0/2/2/0/0/0/0/0/0/610x900_2022.jpg",
      "release_ru": "2012-07-01",
      "release_world": "2012-06-30",
      "availability": "2012-07-02",
      "iframe_url": "",
      "season": 1,
      "episodes": [
        {
          "episode": 1,
          "name": "Richard II",
          "iframe_url": "",
          "iframe_poster": null,
          "release_ru": "2012-07-01",
          "release_world": "2012-06-30",
          "availability": "2012-07-02",
          "voiceActing": [
            "Студия СВ-Дубль",
            "Eng.Original"
          ],
          "ads": false,
          "subtitle": [
            "Рус. полные"
          ]
        },
        {
          "episode": 2,
          "name": "Henry IV Part 1",
          "iframe_url": "",
          "iframe_poster": null,
          "release_ru": "2012-07-08",
          "release_world": "2012-07-07",
          "availability": "2012-07-09",
          "voiceActing": [
            "Студия СВ-Дубль",
            "Eng.Original"
          ],
          "ads": false,
          "subtitle": [
            "Рус. полные"
          ]
        },
        {
          "episode": 3,
          "name": "Henry IV Part 2",
          "iframe_url": "",
          "iframe_poster": null,
          "release_ru": "2012-07-15",
          "release_world": "2012-07-14",
          "availability": "2012-07-16",
          "voiceActing": [
            "Студия СВ-Дубль",
            "Eng.Original"
          ],
          "ads": false,
          "subtitle": [
            "Рус. полные",
            "Рус. полные"
          ]
        },
        {
          "episode": 4,
          "name": "Henry V",
          "iframe_url": "",
          "iframe_poster": null,
          "release_ru": "2012-07-22",
          "release_world": "2012-07-21",
          "availability": "2012-07-23",
          "voiceActing": [
            "Студия СВ-Дубль",
            "Eng.Original"
          ],
          "ads": false,
          "subtitle": [
            "Рус. полные",
            "Рус. полные"
          ]
        }
      ]
    },
    {
      "poster": "https://img.imgilall.me/movies/season/2/0/2/3/0/0/0/0/0/0/610x900_2023.jpg",
      "release_ru": "2016-05-08",
      "release_world": "2016-05-07",
      "availability": "2016-05-09",
      "iframe_url": "",
      "season": 2,
      "episodes": [
        {
          "episode": 1,
          "name": "Henry VI Part 1",
          "iframe_url": "",
          "iframe_poster": null,
          "release_ru": "2016-05-08",
          "release_world": "2016-05-07",
          "availability": "2016-05-09",
          "voiceActing": [
            "Baibako",
            "Eng.Original"
          ],
          "ads": false,
          "subtitle": [
            "Рус. полные"
          ]
        },
        {
          "episode": 2,
          "name": "Henry VI Part 2",
          "iframe_url": "",
          "iframe_poster": null,
          "release_ru": "2016-05-15",
          "release_world": "2016-05-14",
          "availability": "2016-05-16",
          "voiceActing": [
            "Baibako",
            "Eng.Original"
          ],
          "ads": false,
          "subtitle": [
            "Рус. полные"
          ]
        },
        {
          "episode": 3,
          "name": "Richard III",
          "iframe_url": "",
          "iframe_poster": null,
          "release_ru": "2016-05-22",
          "release_world": "2016-05-21",
          "availability": "2016-05-23",
          "voiceActing": [
            "Baibako",
            "Eng.Original"
          ],
          "ads": false,
          "subtitle": [
            "Рус. полные"
          ]
        }
      ]
    }
  ],
  "voiceActing": [
    "Студия СВ-Дубль",
    "Eng.Original",
    "Baibako"
  ],
  "subtitle": [
    "Рус. полные"
  ],
  "parts": []
}
