{
  "id": 17751,
  "name": "Жена художника",
  "name_eng": "Marie Krøyer",
  "year": 2012,
  "slogan": "—",
  "age": "16+",
  "type": "film",
  "quality": "SD",
  "imdb": "6.3",
  "imdb_id": "1961192",
  "kinopoisk": "6.2",
  "kinopoisk_id": "695503",
  "world_art": null,
  "world_art_id": null,
  "time": "102 мин. / 01:42",
  "ads": false,
  "premier": "2012-09-27",
  "premier_rus": "2013-01-03",
  "availability": "2013-01-04",
  "activate_time": "2020-05-19 04:28:00",
  "budget": "DKK 6 500 000",
  "fees_use": null,
  "fees_world": null,
  "fees_rus": "$18 614",
  "rate_mpaa": null,
  "description": "В 1889 году датская художница Мари Трипке вышла замуж за Педера Северина Крёйера, всемирно известного живописца. Они были одной из самых знаменитых семейных пар в стране, вызывая всеобщее восхищение. Выдающиеся люди времени — политики, аристократы, ученые, писатели, королевские особы — мечтали о том, чтобы П.С. Крёйер написал их портреты. Для них это было большой честью. И художник за свою работу мог назначить любую цену. А Мари называли самой красивой женщиной Европы. Жизнь семьи, в которой подрастала дочь Вибеке, выглядела идеальной: творчество, высокий статус, богатство. Но за внешним благополучием скрывался настоящий ад. Крёйер страдал наследственным психическим расстройством, часто впадал в депрессии. Из веселого и радостного человека он в одно мгновение мог превращаться в сумасшедшего монстра. Знакомство со шведским композитором Хуго Альвеном, которого Мари полюбила, казалось ей шагом к спасению...",
  "iframe_url": "",
  "iframe_poster": null,
  "poster": "https://img.imgilall.me/movies/franchise/1/7/7/5/1/0/0/0/0/0/610x900_17751.jpg",
  "country": {
    "25": "Дания",
    "28": "Швеция"
  },
  "collection": {
    "78": "Биографии"
  },
  "genre": {
    "27": "Биографический",
    "7": "Драма"
  },
  "director": [
    "Билле Аугуст"
  ],
  "screenwriter": [
    "Питер Асмуссен",
    "Анастасия Арнольд"
  ],
  "producer": [
    "Сигне Лейк Йенсен",
    "Карин Тролле",
    "Джессика Аск"
  ],
  "operator": [
    "Дирк Брюэль"
  ],
  "composer": [
    "Стефан Нилссон"
  ],
  "design": [
    "Йетте Леманн",
    "Сорен Шварцберг",
    "Манон Расмуссен"
  ],
  "editor": [
    "Герд Тьюр"
  ],
  "actors": [
    "Биргитта Йорт Сёренсен",
    "Сёрен Сэттер-Лассен",
    "Сверрир Гуднасон",
    "Лене Мария Кристенсен",
    "Томми Кентер",
    "Нанна Бюль Андресен",
    "Вера Торпп Ларссон",
    "Курт Дрейер",
    "Андерс Гьеллеруп Кох",
    "Метте Мария Аренкиэль"
  ],
  "actors_dubl": [],
  "trivia": [
    "Первый датский художественный фильм режиссера Билле Аугуста за 25 лет.",
    "Биргитте Йорт Серенсен была выбрана на главную роль режиссером Билле Аугустом, потому что она показалась ему похожей на персонаж из оригинальных картин Марии Крёйер."
  ],
  "trailers": [],
  "seasons": [],
  "voiceActing": [
    "Рус. Проф. многоголосый"
  ],
  "subtitle": [],
  "parts": []
}
