{
  "id": 16477,
  "name": "Плачущая 3",
  "name_eng": "The Wailer 3",
  "year": 2012,
  "slogan": "—",
  "age": null,
  "type": "film",
  "quality": "SD",
  "imdb": "2.8",
  "imdb_id": "2400434",
  "kinopoisk": null,
  "kinopoisk_id": "709572",
  "world_art": null,
  "world_art_id": null,
  "time": "110 мин. / 01:50",
  "ads": false,
  "premier": "2012-09-01",
  "premier_rus": "2012-09-02",
  "availability": "2012-09-03",
  "activate_time": "2020-04-13 22:21:00",
  "budget": "$500 000",
  "fees_use": null,
  "fees_world": null,
  "fees_rus": null,
  "rate_mpaa": null,
  "description": "Дэниел с семьёй приехал погостить к тёще, тело которой через пару дней нашли в бассейне у дома. Согласно полицейскому рапорту это не было несчастным случаем – женщина была утоплена, погибнув точно так же, как и её муж несколько лет назад. Но череда бед, связанных с водой, на этом не закончилась: во время накрывшего город ливня жена Дэниела тоже утонула, дети пропали без вести, а он сам стал инвалидом.",
  "iframe_url": "",
  "iframe_poster": null,
  "poster": "https://img.imgilall.me/movies/franchise/1/6/4/7/7/0/0/0/0/0/610x900_16477.jpg",
  "country": {
    "1": "США"
  },
  "collection": [],
  "genre": {
    "26": "Ужасы",
    "10": "Зарубежный"
  },
  "director": [
    "Хавьер Барбера"
  ],
  "screenwriter": [
    "Хавьер Барбера"
  ],
  "producer": [
    "Грег Энтон",
    "Эларт Коэльо",
    "Мануэль Иностроса"
  ],
  "operator": [
    "Эухенио Каньяс"
  ],
  "composer": [
    "Дуглас Эдвард"
  ],
  "design": [
    "Грег Энтон",
    "Grace Dardon",
    "Крис Н. Холмс"
  ],
  "editor": [
    "Хавьер Барбера"
  ],
  "actors": [
    "Джош ДеЛозье",
    "Мария Паллас",
    "Chris Anderson",
    "Nicole Simpson",
    "Ellalyn Haile",
    "Ти Хэйли",
    "Рода Пелл",
    "Кристина Корсхольм",
    "Грег Энтон",
    "Стив Бартлетт"
  ],
  "actors_dubl": [],
  "trivia": [],
  "trailers": [],
  "seasons": [],
  "voiceActing": [
    "Рус. Люб. одноголосый"
  ],
  "subtitle": [],
  "parts": [
    15975,
    15976,
    16477
  ]
}
