{
  "id": 32569,
  "name": "Ублюдок",
  "name_eng": "Creep",
  "year": 2014,
  "slogan": "—",
  "age": null,
  "type": "film",
  "quality": "HD (720p)",
  "imdb": "6.3",
  "imdb_id": "0",
  "kinopoisk": "6.1",
  "kinopoisk_id": "710372",
  "world_art": null,
  "world_art_id": null,
  "time": "77 мин. / 01:17",
  "ads": false,
  "premier": "2014-03-08",
  "premier_rus": "2014-03-09",
  "availability": "2014-03-10",
  "activate_time": "2020-07-14 15:31:00",
  "budget": null,
  "fees_use": null,
  "fees_world": null,
  "fees_rus": null,
  "rate_mpaa": "R",
  "description": "Видеограф отвечает на объявление в Крейгслисте об однодневной работе в отдалённом горном городке. Его клиент - мужчина, который утверждает, что смертельно болен и хочет оставить видеопослание своему ещё нерождённому сыну.",
  "iframe_url": "",
  "iframe_poster": null,
  "poster": "https://img.imgilall.me/movies/franchise/3/2/5/6/9/0/0/0/0/0/610x900_32569.jpg",
  "country": {
    "1": "США"
  },
  "collection": [],
  "genre": {
    "13": "Триллер"
  },
  "director": [
    "Патрик Брайс"
  ],
  "screenwriter": [
    "Патрик Брайс",
    "Марк Дюпласс"
  ],
  "producer": [
    "Джейсон Блум",
    "Марк Дюпласс",
    "Джош Браун"
  ],
  "operator": [],
  "composer": [
    "Кайл Филд",
    "Эрик Эндрю Кун"
  ],
  "design": [
    "Lynsay Richardson"
  ],
  "editor": [
    "Кристофер Донлон"
  ],
  "actors": [
    "Патрик Брайс",
    "Марк Дюпласс"
  ],
  "actors_dubl": [],
  "trivia": [
    "Практически весь фильм является результатом импровизаций. Планы съёмок состояли лишь из коротких заметок вроде «запись разговора во время езды на машине».",
    "Так как фильм основан на беседах между Патриком Брайсом и Марком Дюплассом, большую его часть составляют импровизации. Была отснята масса материала, который демонстрировали друзьям и знакомым. В результате по их советам то, что начинали снимать как чёрную комедию, превратилось в фильм ужасов. Сохранилось по меньшей мере три альтернативных варианта концовки фильма."
  ],
  "trailers": [],
  "seasons": [],
  "voiceActing": [
    "А. Дольский"
  ],
  "subtitle": [],
  "parts": []
}
