{
  "id": 28271,
  "name": "Цвета",
  "name_eng": "Colors",
  "year": 1988,
  "slogan": "«70,000 gang members. One million guns. Two cops»",
  "age": "18+",
  "type": "film",
  "quality": "HD (720p)",
  "imdb": "6.7",
  "imdb_id": "0094894",
  "kinopoisk": "6.7",
  "kinopoisk_id": "7195",
  "world_art": null,
  "world_art_id": null,
  "time": "120 мин. / 02:00",
  "ads": false,
  "premier": "1988-04-15",
  "premier_rus": "1988-04-16",
  "availability": "1988-04-17",
  "activate_time": "2020-07-24 17:05:00",
  "budget": "$6 000 000",
  "fees_use": "$46 616 067",
  "fees_world": null,
  "fees_rus": null,
  "rate_mpaa": "R",
  "description": "Лос-Анджелес захлестнула волна преступности. В городе орудуют сотни преступных группировок, в которых состоит более 70000 человек. Ежедневно в бандитских разборках гибнут мирные жители. Такое положение вещей не устраивает двух «горячих» полицейских.Один из них – умудренный опытом и чрезвычайно жестокий, второй – молодой, но с очень крутым нравом. Вместе они пытаются остановить насилие на улицах города. Постепенно ситуация выходит из-под контроля, и Лос-Анджелес превращается в кровавое поле боя. И без того напряженное положение осложняется любовной интригой, возникшей между молодым полицейским и прекрасной девушкой, состоящей в одной из банд.Но смогут ли они быть вместе; ведь в мире, где правит жестокость, за ошибки приходится платить кровью.",
  "iframe_url": "",
  "iframe_poster": null,
  "poster": "https://img.imgilall.me/movies/franchise/2/8/2/7/1/0/0/0/0/0/610x900_28271.jpg",
  "country": {
    "1": "США"
  },
  "collection": [],
  "genre": {
    "25": "Криминал",
    "17": "Боевик",
    "13": "Триллер",
    "8": "Мелодрама",
    "7": "Драма"
  },
  "director": [
    "Деннис Хоппер"
  ],
  "screenwriter": [
    "Майкл Шиффер",
    "Ричард Ди Лелло"
  ],
  "producer": [
    "Роберт Х. Соло",
    "Пол Льюис"
  ],
  "operator": [
    "Хаскелл Уэкслер"
  ],
  "composer": [
    "Херби Хэнкок"
  ],
  "design": [
    "Рон Формен",
    "Чэз Батчер",
    "Эрни Бишоп"
  ],
  "editor": [
    "Роберт Эстрин"
  ],
  "actors": [
    "Шон Пенн",
    "Роберт Дювалл",
    "Мария Кончита Алонсо",
    "Рэнди Брукс",
    "Гранд Л. Буш",
    "Дон Чидл",
    "Жерардо Мейя",
    "Гленн Пламмер",
    "Руди Рамос",
    "Сай Ричардсон"
  ],
  "actors_dubl": [],
  "trivia": [],
  "trailers": [],
  "seasons": [],
  "voiceActing": [
    "Diva Universal"
  ],
  "subtitle": [],
  "parts": []
}
