{
  "id": 24169,
  "name": "Боязнь пауков",
  "name_eng": "Arachnophobia",
  "year": 1990,
  "slogan": "«Eight legs, two fangs and an attitude»",
  "age": null,
  "type": "film",
  "quality": "HD (720p)",
  "imdb": "6.4",
  "imdb_id": "0099052",
  "kinopoisk": "6.7",
  "kinopoisk_id": "7102",
  "world_art": null,
  "world_art_id": null,
  "time": "105 мин. / 01:45",
  "ads": false,
  "premier": "1990-07-18",
  "premier_rus": "1990-07-19",
  "availability": "1990-07-20",
  "activate_time": "2020-10-15 05:59:00",
  "budget": "$31 000 000",
  "fees_use": "$53 208 180",
  "fees_world": null,
  "fees_rus": null,
  "rate_mpaa": "PG-13",
  "description": "В душе каждого живет неуправляемый первобытный страх. И однажды человеку суждено столкнуться с ним лицом к лицу. Доктор Росс Дженнингс страдает арахнофобией, экзотическим заболеванием, связанным с боязнью пауков. Он перебирается в маленький провинциальный городок в надежде на тихую и спокойную жизнь. Но по роковой случайности, из южноамериканских джунглей туда попадает смертоносный паук.",
  "iframe_url": "",
  "iframe_poster": null,
  "poster": "https://img.imgilall.me/movies/franchise/2/4/1/6/9/0/0/0/0/0/610x900_24169.jpg",
  "country": {
    "1": "США"
  },
  "collection": {
    "26": "Про монстров"
  },
  "genre": {
    "26": "Ужасы",
    "6": "Фэнтези",
    "19": "Комедия",
    "13": "Триллер"
  },
  "director": [
    "Фрэнк Маршалл"
  ],
  "screenwriter": [
    "Дон Джекоби",
    "Уэсли Стрик",
    "Аль Уильямс"
  ],
  "producer": [
    "Кэтлин Кеннеди",
    "Ричард Вэйн",
    "Уильям С. Бисли"
  ],
  "operator": [
    "Микаэл Саломон"
  ],
  "composer": [
    "Тревор Джонс"
  ],
  "design": [
    "Джеймс Д. Бисселл",
    "Кристофер Бериэн-Мор",
    "Дженнифер Л. Парсонс"
  ],
  "editor": [
    "Майкл Кан"
  ],
  "actors": [
    "Джефф Дэниелс",
    "Харли Джейн Козак",
    "Джон Гудман",
    "Джулиан Сэндс",
    "Стюарт Пэнкин",
    "Брайан МакНамара",
    "Марк Л. Тейлор",
    "Генри Джонс",
    "Питер Джейсон",
    "Джеймс Хэнди"
  ],
  "actors_dubl": [],
  "trivia": [
    "В фильме был использован вид пауков Delena cancerides из Новой Зеландии. Несмотря на свой угрожающий вид, они не опасны для человека.",
    "Герой Джона Гудмана, убийца насекомых Делберт МакКлинток, давит паука, и раздается противный склизкий звук. Звукорежиссеры фильма добились такого эффекта, раздавив парочку картофельных чипсов. Кроме того, для тех же целей иногда использовали упаковки с горчицей.",
    "В сцене, когда пауки начинают атаковать дом, по телевизору показывают фильм Семейные узы (1982).",
    "Канайма (название городка в фильме) является именем духа мести в мифологии индейцев Гайаны. Это также название местности в Венесуэле недалеко от водопада Анхель — месте съемок фильма.",
    "Картина снималась в городе Камбрия (штат Калифорния), а также в Венесуэле.",
    "Новый вид бабочки, который находят ученые в начале фильма — «Урания мадагаскарская», реально существующий вид."
  ],
  "trailers": [],
  "seasons": [],
  "voiceActing": [
    "Diva Universal"
  ],
  "subtitle": [],
  "parts": []
}
