{
  "id": 30751,
  "name": "Убей или умри",
  "name_eng": "Kill or Be Killed",
  "year": 2015,
  "slogan": "«You reap what you sow»",
  "age": null,
  "type": "film",
  "quality": "HD (720p)",
  "imdb": "4.3",
  "imdb_id": "0",
  "kinopoisk": "4.2",
  "kinopoisk_id": "710350",
  "world_art": null,
  "world_art_id": null,
  "time": "103 мин. / 01:43",
  "ads": false,
  "premier": "2015-04-10",
  "premier_rus": "2015-04-11",
  "availability": "2015-04-12",
  "activate_time": "2020-07-12 12:33:00",
  "budget": null,
  "fees_use": null,
  "fees_world": null,
  "fees_rus": null,
  "rate_mpaa": null,
  "description": "Осенью 1900 года бандит Клод Барби решает привести в исполнение свой план по «уходу на пенсию», пытаясь провести свою банду через Техас, направляясь за спрятанными после неудачного ограбления поезда деньгами.",
  "iframe_url": "",
  "iframe_poster": null,
  "poster": "https://img.imgilall.me/movies/franchise/3/0/7/5/1/0/0/0/0/0/610x900_30751.jpg",
  "country": {
    "1": "США"
  },
  "collection": [],
  "genre": {
    "26": "Ужасы",
    "29": "Вестерн",
    "24": "Детектив",
    "13": "Триллер"
  },
  "director": [
    "Дуан Грейвз",
    "Джастин Микс"
  ],
  "screenwriter": [
    "Дуан Грейвз",
    "Джастин Микс"
  ],
  "producer": [
    "Кэрри Кокс",
    "Маркус Кокс",
    "Майкл Берриман"
  ],
  "operator": [
    "Брэндон Торрес"
  ],
  "composer": [
    "John Constant",
    "Nick Durham"
  ],
  "design": [
    "Кэтерин Мортер",
    "Мэтт Дэйтон",
    "Джиллиан Бандрик"
  ],
  "editor": [
    "Дуан Грейвз"
  ],
  "actors": [
    "Джастин Микс",
    "Пол МакКарти-Бойингтон",
    "Грег Келли",
    "Н’Даба Дивайн",
    "Бриджер Задина",
    "Ларри Харбин",
    "Эрианн Мартин",
    "Люче Рэйнс",
    "Тимоти Т. МакКинни",
    "Эдвин Нил"
  ],
  "actors_dubl": [],
  "trivia": [],
  "trailers": [],
  "seasons": [],
  "voiceActing": [
    "Рус. Люб. многоголосый"
  ],
  "subtitle": [],
  "parts": []
}
