{
  "id": 27710,
  "name": "Мой партнёр",
  "name_eng": "Naui P.S. pateuneo",
  "year": 2012,
  "slogan": "«Got a wrong number? Met the right person!»",
  "age": null,
  "type": "film",
  "quality": "HD (720p)",
  "imdb": "6.9",
  "imdb_id": "2592336",
  "kinopoisk": "7.6",
  "kinopoisk_id": "729053",
  "world_art": null,
  "world_art_id": null,
  "time": "114 мин. / 01:54",
  "ads": false,
  "premier": "2012-12-06",
  "premier_rus": "2012-12-07",
  "availability": "2012-12-08",
  "activate_time": "2020-07-18 09:03:00",
  "budget": null,
  "fees_use": null,
  "fees_world": "$12 534 479",
  "fees_rus": null,
  "rate_mpaa": "PG-13",
  "description": "Два месяца назад Хён-сына бросила девушка, и когда он узнаёт, что она уже нашла нового ухажёра, погружается в пучину отчаяния и жалости к себе. В этот же вечер, ошибившись номером, ему звонит незнакомка и устраивает сеанс секса по телефону. Девушку зовут Юн-джон, и она с нетерпением ждёт предложения от своего парня. Дистанционно познакомившись таким странным способом, Хён-сын и Юн-джон начинают созваниваться каждый день — теперь обоим есть кому изливать душу, жаловаться на окружающих и доверять свои самые сокровенные тайны.",
  "iframe_url": "",
  "iframe_poster": null,
  "poster": "https://img.imgilall.me/movies/franchise/2/7/7/1/0/0/0/0/0/0/610x900_27710.jpg",
  "country": {
    "16": "Корея Южная"
  },
  "collection": [],
  "genre": {
    "19": "Комедия",
    "8": "Мелодрама"
  },
  "director": [
    "Пён Сон-хён"
  ],
  "screenwriter": [
    "Пён Сон-хён",
    "Ким Мин-су"
  ],
  "producer": [
    "Чон Тхэ-сон",
    "Лим Сан-джин",
    "Ли Джин-хи"
  ],
  "operator": [
    "Чхве Сан-хо"
  ],
  "composer": [
    "Ким Хон-джип"
  ],
  "design": [
    "Ли Ин-ок",
    "Хам Хён-джу"
  ],
  "editor": [
    "Ким Сан-бом",
    "Ким Джэ-бом"
  ],
  "actors": [
    "Чи Сон",
    "Ким А-джун",
    "Щин Со-юль",
    "Кан Гён-джун",
    "Ким Сон-о",
    "Чон Су-ён",
    "Мун Джи-юн",
    "Ким Бо-ми",
    "Ким Бо-ён",
    "Квак Чи-мин"
  ],
  "actors_dubl": [],
  "trivia": [],
  "trailers": [],
  "seasons": [],
  "voiceActing": [
    "JoyStudio"
  ],
  "subtitle": [],
  "parts": []
}
