{
  "id": 34411,
  "name": "Песня",
  "name_eng": "The Song",
  "year": 2014,
  "slogan": "«Even the wisest of men was a fool for love»",
  "age": "12+",
  "type": "film",
  "quality": "SD",
  "imdb": "6.0",
  "imdb_id": "0",
  "kinopoisk": "6.7",
  "kinopoisk_id": "722543",
  "world_art": null,
  "world_art_id": null,
  "time": "116 мин. / 01:56",
  "ads": false,
  "premier": "2014-09-26",
  "premier_rus": "2014-09-27",
  "availability": "2014-09-28",
  "activate_time": "2020-07-17 02:23:00",
  "budget": null,
  "fees_use": "$1 009 620",
  "fees_world": null,
  "fees_rus": null,
  "rate_mpaa": "PG-13",
  "description": "Начинающий певец и музыкант Джед Кинг мечтает выйти из тени своего отца, легендарного кантри-музыканта. На одном из музыкальных фестивалей Джед знакомится с красавицей Роуз, и их роман стремительно разгорается. Вскоре после свадьбы Джед посвящает любимой песню, которая становится настоящим хитом. Но полный соблазнов и искушений мир звезд эстрады постепенно начинает разрушать жизнь и брак главных героев.",
  "iframe_url": "",
  "iframe_poster": null,
  "poster": "https://img.imgilall.me/movies/franchise/3/4/4/1/1/0/0/0/0/0/610x900_34411.jpg",
  "country": {
    "1": "США"
  },
  "collection": [],
  "genre": {
    "8": "Мелодрама",
    "7": "Драма"
  },
  "director": [
    "Richard Ramsey"
  ],
  "screenwriter": [
    "Richard Ramsey"
  ],
  "producer": [
    "Shane Sooter",
    "Cassandra Arza",
    "Chris Bolinger"
  ],
  "operator": [
    "Кевин Брайан"
  ],
  "composer": [
    "Винс Эмметт"
  ],
  "design": [
    "Benjamin Rodman",
    "Дэниэл Хоукс"
  ],
  "editor": [
    "Джаред Харди"
  ],
  "actors": [
    "Алан Пауэлл",
    "Али Фолкнер",
    "Кэйтлин Николь-Томас",
    "Дэнни Винсон",
    "Аарон Бенвард",
    "Кенда Бенвард",
    "Джуд Рэмси",
    "Гари Дженкинс",
    "Лэндон Маршалл",
    "Рэйчел Т. Митчелл"
  ],
  "actors_dubl": [],
  "trivia": [],
  "trailers": [],
  "seasons": [],
  "voiceActing": [
    "Diva Universal"
  ],
  "subtitle": [],
  "parts": []
}
