{
  "id": 19401,
  "name": "Ров",
  "name_eng": "Ditch",
  "year": 2016,
  "slogan": "«There's hell to pay for cutting class»",
  "age": null,
  "type": "film",
  "quality": "HD (720p)",
  "imdb": "3.5",
  "imdb_id": "2523426",
  "kinopoisk": null,
  "kinopoisk_id": "723759",
  "world_art": null,
  "world_art_id": null,
  "time": "77 мин. / 01:17",
  "ads": false,
  "premier": "2016-09-30",
  "premier_rus": "2016-10-01",
  "availability": "2016-10-02",
  "activate_time": "2020-06-23 13:24:00",
  "budget": null,
  "fees_use": null,
  "fees_world": null,
  "fees_rus": null,
  "rate_mpaa": null,
  "description": "Старшеклассница Дженни Билсон является прекрасной ученицей и примерной дочерью старого полицейского детектива и просто олицетворяет американскую мечту. Но одна ошибка, которую она совершила год назад, начинает преследовать её. Прошлое возвращается, чтобы отомстить.",
  "iframe_url": "",
  "iframe_poster": null,
  "poster": "https://img.imgilall.me/movies/franchise/1/9/4/0/1/0/0/0/0/0/610x900_19401.jpg",
  "country": {
    "1": "США"
  },
  "collection": [],
  "genre": {
    "26": "Ужасы",
    "13": "Триллер"
  },
  "director": [
    "Джо Хендрик"
  ],
  "screenwriter": [
    "Дэниэл П. Кофлин",
    "Райан Кофлин"
  ],
  "producer": [
    "Megan Waters",
    "Дэниэл П. Кофлин",
    "Matthew Scott Perry"
  ],
  "operator": [
    "Joffrey Mason"
  ],
  "composer": [
    "Джиона Остинелли"
  ],
  "design": [
    "Лэйн Перри"
  ],
  "editor": [
    "Joe Betancourt",
    "Джеймс Конделик"
  ],
  "actors": [
    "Билл Оберст мл.",
    "Кэти Фоли",
    "Зэк Силверман",
    "Морган Бенуа",
    "Линн Лаури",
    "Грег Депетро",
    "Сюзанн Гутьеррес",
    "Кайл Моррис",
    "Пэнди Суисайд",
    "Гэбриел Де Санти"
  ],
  "actors_dubl": [],
  "trivia": [],
  "trailers": [],
  "seasons": [],
  "voiceActing": [
    "Хихикающий доктор",
    "Eng.Original"
  ],
  "subtitle": [],
  "parts": []
}
