{
  "id": 103,
  "name": "Любой ценой",
  "name_eng": "Hell or High Water",
  "year": 2016,
  "slogan": "«Справедливость - это не преступление»",
  "age": "18+",
  "type": "film",
  "quality": "FHD (1080p)",
  "imdb": "7.6",
  "imdb_id": "2582782",
  "kinopoisk": "7.2",
  "kinopoisk_id": "726794",
  "world_art": null,
  "world_art_id": null,
  "time": "102 мин. / 01:42",
  "ads": false,
  "premier": "2016-05-16",
  "premier_rus": "2016-08-18",
  "availability": null,
  "activate_time": "2018-05-28 15:43:59",
  "budget": "$12 000 000",
  "fees_use": "$27 007 844",
  "fees_world": "$37 879 877",
  "fees_rus": null,
  "rate_mpaa": "R",
  "description": "Молодой парень Тоби и его недавно вышедший из тюрьмы старший брат Таннер узнают, что на их умершей матери висел огромный кредит. И теперь, если не погасить долг в определённый срок, банк присвоит себе семейное ранчо. Пытаясь в столь короткий срок найти необходимую сумму, Тоби уговаривает брата пойти на невероятно рискованный шаг — ограбить несколько мелких банков. Вооружившись и надев на лица маски, братья отправляются в опасный тур по местным финансовым заведениям, совершенно не подозревая, куда их может завести эта безумная идея.",
  "iframe_url": "",
  "iframe_poster": null,
  "poster": "https://img.imgilall.me/movies/franchise/1/0/3/0/0/0/0/0/0/0/610x900_103.jpg",
  "country": {
    "1": "США"
  },
  "collection": {
    "19": "Про ограбления, аферы и мошенников"
  },
  "genre": {
    "25": "Криминал",
    "34": "Полнометражный",
    "29": "Вестерн",
    "10": "Зарубежный",
    "7": "Драма"
  },
  "director": [
    "Дэвид Маккензи"
  ],
  "screenwriter": [
    "Тейлор Шеридан"
  ],
  "producer": [
    "Браден Афтегуд",
    "Питер Берг",
    "Кэтрин Дин"
  ],
  "operator": [
    "Джиллз Натгенс"
  ],
  "composer": [
    "Ник Кейв",
    "Уоррен Эллис"
  ],
  "design": [
    "Том Даффилд",
    "Стив Купер",
    "Малгожата Тужаньская"
  ],
  "editor": [
    "Джейк Робертс"
  ],
  "actors": [
    "Джефф Бриджес",
    "Крис Пайн",
    "Бен Фостер",
    "Джил Бирмингем",
    "Дейл Дикки",
    "Уильям Стерчи",
    "Бак Тейлор",
    "Кристин Берг",
    "Кит Мэривезер",
    "Кристофер Дж. Буззел"
  ],
  "actors_dubl": [
    "Владимир Антоник",
    "Дмитрий Поляновский",
    "Андрей Вальц",
    "Александр Хорлин",
    "Ирина Виленкина"
  ],
  "trivia": [
    "Фильм посвящен Дэвиду Джону Маккензи (1929-2015) и Урсуле Сибил Маккензи (1940-2015), родителям режиссера Дэвида Маккензи. Оба умерли в период, когда Дэвид снимал «Любой ценой».",
    "Тоби предлагает сыну пиво. Техас является одним из десяти штатов, где несовершеннолетним разрешается употреблять алкоголь в определенных местах. Например, это разрешается в присутствии старших членов семьи.",
    "Действие происходит в Техасе, но на самом деле там не было снято ни одной сцены. Законодательное собрание штата сняло налоговые льготы, таким образом снимать фильм было решено в Нью-Мексико."
  ],
  "trailers": [],
  "seasons": [],
  "voiceActing": [
    "Рус. Дублированный",
    "Ю. Немахов",
    "А. Матвеев",
    "А. Гаврилов",
    "Дмитрий \"Goblin\" Пучков",
    "Рус. Одноголосый",
    "Укр. Проф. багатоголосий",
    "Eng.Original"
  ],
  "subtitle": [
    "Рус. форсированные"
  ],
  "parts": []
}
