{
  "id": 33893,
  "name": "Жизнь как дом",
  "name_eng": "Life as a House",
  "year": 2001,
  "slogan": "«Seen from a distance, it's perfect»",
  "age": "16+",
  "type": "film",
  "quality": "HD (720p)",
  "imdb": "7.5",
  "imdb_id": "0",
  "kinopoisk": "7.8",
  "kinopoisk_id": "737",
  "world_art": null,
  "world_art_id": null,
  "time": "125 мин. / 02:05",
  "ads": false,
  "premier": "2001-09-09",
  "premier_rus": "2001-09-10",
  "availability": "2001-09-11",
  "activate_time": "2020-07-15 16:20:00",
  "budget": "$27 000 000",
  "fees_use": "$15 667 270",
  "fees_world": "+ $8 236 521 = $23 903 791",
  "fees_rus": null,
  "rate_mpaa": "R",
  "description": "Главный герой, 45-летний архитектор Джордж Монро, узнав о своей скорой кончине, понимает, что жизнь его прошла совсем не так, как ему хотелось бы. Он пытается исправить ошибки прошлого, став заботливым и трогательным. Несмотря на то, что его терпеть не могут все члены семьи, которую он покинул десять лет назад, он решает не только во что бы то ни было построить дом, но и привлечь в качестве помощника своего сына...",
  "iframe_url": "",
  "iframe_poster": null,
  "poster": "https://img.imgilall.me/movies/franchise/3/3/8/9/3/0/0/0/0/0/610x900_33893.jpg",
  "country": {
    "1": "США"
  },
  "collection": [],
  "genre": {
    "7": "Драма"
  },
  "director": [
    "Ирвин Уинклер"
  ],
  "screenwriter": [
    "Марк Эндрус"
  ],
  "producer": [
    "Роб Кауэн",
    "Ирвин Уинклер",
    "Майкл Де Лука"
  ],
  "operator": [
    "Вилмош Жигмонд"
  ],
  "composer": [
    "Марк Айшем"
  ],
  "design": [
    "Дж. Деннис Вашингтон",
    "Томас Т. Тейлор",
    "Молли Мэгиннис"
  ],
  "editor": [
    "Джули Монро"
  ],
  "actors": [
    "Кевин Клайн",
    "Хейден Кристенсен",
    "Кристин Скотт Томас",
    "Джена Мэлоун",
    "Мэри Стинберген",
    "Майк Вейнберг",
    "Скотти Левенуорф",
    "Иэн Сомерхолдер",
    "Джейми Шеридан",
    "Скотт Бакула"
  ],
  "actors_dubl": [],
  "trivia": [
    "Дом, который по сюжету построил Джордж с помощниками, должен был быть снесён. Художник по костюмам фильма Молли Мэгиннис возглавила группу людей, которые занимались реконструкцией и переоборудованием строения. В итоге это стала школьная библиотека Kenter Canyon school в Брентвуде, Калифорния. Новая библиотека открылась в апреле 2004 года.",
    "Видео, где Джордж и маленький Сэм играли на пляже, было снято женой Кевина Клайна, актрисой Фиби Кейтс. Она снимала Кевина и их сына Оуэна на пляже в Бермудах."
  ],
  "trailers": [],
  "seasons": [],
  "voiceActing": [
    "Diva Universal"
  ],
  "subtitle": [],
  "parts": []
}
