{
  "id": 24374,
  "name": "Крупный куш",
  "name_eng": "The Big Take",
  "year": 2018,
  "slogan": "«It's murder to make a movie»",
  "age": null,
  "type": "film",
  "quality": "FHD (1080p)",
  "imdb": "5.9",
  "imdb_id": "2619512",
  "kinopoisk": null,
  "kinopoisk_id": "730090",
  "world_art": null,
  "world_art_id": null,
  "time": "83 мин. / 01:23",
  "ads": false,
  "premier": "2018-09-07",
  "premier_rus": "2018-09-08",
  "availability": "2018-09-09",
  "activate_time": "2020-06-18 11:18:00",
  "budget": null,
  "fees_use": null,
  "fees_world": null,
  "fees_rus": null,
  "rate_mpaa": null,
  "description": "Знаменитого актёра Дугласа Брауна кто-то шантажирует. Он просит разобраться с этим своего агента, который в свою очередь обращается к частному сыщику. Тот выходит на Макса О'Лири — начинающего режиссёра, пытающегося снять свой первый фильм. Макс не виноват, но теперь ему придётся выпутываться из круговорота весьма неприятных событий.",
  "iframe_url": "",
  "iframe_poster": null,
  "poster": "https://img.imgilall.me/movies/franchise/2/4/3/7/4/0/0/0/0/0/610x900_24374.jpg",
  "country": {
    "1": "США"
  },
  "collection": [],
  "genre": {
    "13": "Триллер"
  },
  "director": [
    "Джастин Дэйли"
  ],
  "screenwriter": [
    "Джастин Дэйли"
  ],
  "producer": [
    "Дженнифер «Нен» Гэтьен",
    "Ник Дэйли",
    "Мэттью Кехо"
  ],
  "operator": [
    "Андреас фон Шееле"
  ],
  "composer": [],
  "design": [
    "Scott Kuzio",
    "Йен Сэлтер",
    "Нора Мендис"
  ],
  "editor": [
    "Джозиа Синьор"
  ],
  "actors": [
    "Джеймс МакКэффри",
    "Эбон Мосс-Бакрак",
    "Зои Белл",
    "Роберт Форстер",
    "Дэн Хедайя",
    "Билл Сейдж",
    "Оксана Лада",
    "Слейт Линдер",
    "Тара Вествуд",
    "Джон Инос III"
  ],
  "actors_dubl": [],
  "trivia": [],
  "trailers": [],
  "seasons": [],
  "voiceActing": [
    "HDRezka Studio",
    "Eng.Original"
  ],
  "subtitle": [
    "Eng. full"
  ],
  "parts": []
}
