{
  "id": 46288,
  "name": "Африка",
  "name_eng": "Africa",
  "year": 2013,
  "slogan": "—",
  "age": null,
  "type": "series",
  "quality": "FHD (1080p)",
  "imdb": "8.9",
  "imdb_id": "2571774",
  "kinopoisk": "8.9",
  "kinopoisk_id": "743965",
  "world_art": null,
  "world_art_id": null,
  "time": "58 мин. серия (348 мин. всего)",
  "ads": false,
  "premier": "2013-01-02",
  "premier_rus": "2013-01-03",
  "availability": "2013-01-04",
  "serial_status": "offline",
  "activate_time": "2021-05-05 10:40:00",
  "budget": null,
  "fees_use": null,
  "fees_world": null,
  "fees_rus": null,
  "rate_mpaa": null,
  "description": "Это новое представление ландшафтов и живых созданий дикой природы поведает в невиданном доселе ключе о горах и саваннах, вулканах и озерах, ледниках и джунглях Африки, населенных удивительными животными, пресмыкающимися, рыбами и насекомыми с необыкновенным поведением в естественной среде обитания, по-прежнему полной тайн и загадок...",
  "iframe_url": "",
  "poster": "https://img.imgilall.me/movies/franchise/4/6/2/8/8/0/0/0/0/0/610x900_46288.jpg",
  "country": {
    "2": "Великобритания"
  },
  "collection": {
    "18": "Про животных",
    "104": "BBC"
  },
  "genre": {
    "54": "Документальный"
  },
  "director": [
    "Катрина Бартлам",
    "Ben Aviss",
    "Ник Истон"
  ],
  "screenwriter": [
    "Дэвид Аттенборо"
  ],
  "producer": [
    "Майкл Гантон",
    "Джеймс Хонейборн",
    "Саймон Блэкни"
  ],
  "operator": [
    "Майк Фокс",
    "Felicity Lanchester"
  ],
  "composer": [
    "Сара  Класс",
    "Уилл Слэйтер"
  ],
  "design": [],
  "editor": [
    "Джеймс Таггарт",
    "Найджел Бак",
    "Даррен Флэксстоун"
  ],
  "actors": [
    "Дэвид Аттенборо",
    "Саймон Блэкни",
    "Джеймс Олдред",
    "Катрина Бартлам",
    "Тим Берроу",
    "Andres Bifani",
    "Paul Brehem",
    "Кейт Брум",
    "Kahindi Changawa",
    "Мартин Колбек"
  ],
  "actors_dubl": [],
  "trivia": [],
  "trailers": [],
  "seasons": [
    {
      "poster": null,
      "release_ru": null,
      "release_world": null,
      "availability": null,
      "iframe_url": "",
      "season": 1,
      "episodes": [
        {
          "episode": 1,
          "name": null,
          "iframe_url": "",
          "iframe_poster": null,
          "release_ru": null,
          "release_world": null,
          "availability": null,
          "voiceActing": [
            "Рус. Одноголосый",
            "Eng.Original"
          ],
          "ads": false,
          "subtitle": [
            "Рус. полные"
          ]
        },
        {
          "episode": 2,
          "name": null,
          "iframe_url": "",
          "iframe_poster": null,
          "release_ru": null,
          "release_world": null,
          "availability": null,
          "voiceActing": [
            "Рус. Одноголосый",
            "Eng.Original"
          ],
          "ads": false,
          "subtitle": [
            "Рус. полные"
          ]
        },
        {
          "episode": 3,
          "name": null,
          "iframe_url": "",
          "iframe_poster": null,
          "release_ru": null,
          "release_world": null,
          "availability": null,
          "voiceActing": [
            "Рус. Одноголосый",
            "Eng.Original"
          ],
          "ads": false,
          "subtitle": [
            "Рус. полные"
          ]
        },
        {
          "episode": 4,
          "name": null,
          "iframe_url": "",
          "iframe_poster": null,
          "release_ru": null,
          "release_world": null,
          "availability": null,
          "voiceActing": [
            "Рус. Одноголосый",
            "Eng.Original"
          ],
          "ads": false,
          "subtitle": [
            "Рус. полные"
          ]
        },
        {
          "episode": 5,
          "name": null,
          "iframe_url": "",
          "iframe_poster": null,
          "release_ru": null,
          "release_world": null,
          "availability": null,
          "voiceActing": [
            "Рус. Одноголосый",
            "Eng.Original"
          ],
          "ads": false,
          "subtitle": [
            "Рус. полные"
          ]
        },
        {
          "episode": 6,
          "name": null,
          "iframe_url": "",
          "iframe_poster": null,
          "release_ru": null,
          "release_world": null,
          "availability": null,
          "voiceActing": [
            "Рус. Одноголосый",
            "Eng.Original"
          ],
          "ads": false,
          "subtitle": [
            "Рус. полные"
          ]
        }
      ]
    }
  ],
  "voiceActing": [
    "Рус. Одноголосый",
    "Eng.Original"
  ],
  "subtitle": [
    "Рус. полные"
  ],
  "parts": []
}
