{
  "id": 12076,
  "name": "Апокалипсис Деррена Брауна",
  "name_eng": "Derren Brown: Apocalypse",
  "year": 2012,
  "slogan": "—",
  "age": null,
  "type": "series",
  "quality": "SD",
  "imdb": "7.9",
  "imdb_id": "2513228",
  "kinopoisk": "7.4",
  "kinopoisk_id": "742344",
  "world_art": null,
  "world_art_id": null,
  "time": "60 мин. всего",
  "ads": false,
  "premier": "2012-10-26",
  "premier_rus": "2013-05-12",
  "availability": null,
  "serial_status": "offline",
  "activate_time": "2019-11-08 14:20:00",
  "budget": null,
  "fees_use": null,
  "fees_world": null,
  "fees_rus": null,
  "rate_mpaa": null,
  "description": "Деррен Браун с самым смелым розыгрышем: он должен убедить обычного человека в том, что на Землю упал метеорит и что он – один из немногих выживших в мире, где началась смертоносная эпидемия.",
  "iframe_url": "",
  "poster": "https://img.imgilall.me/movies/franchise/1/2/0/7/6/0/0/0/0/0/610x900_12076.jpg",
  "country": {
    "2": "Великобритания"
  },
  "collection": [],
  "genre": {
    "26": "Ужасы",
    "54": "Документальный",
    "24": "Детектив",
    "10": "Зарубежный"
  },
  "director": [
    "Саймон Динселл"
  ],
  "screenwriter": [
    "Деррен Браун",
    "Stephen Long",
    "Иэн Шарки"
  ],
  "producer": [
    "Деррен Браун",
    "Fi Cotter Craig",
    "Рут Эмерсон"
  ],
  "operator": [],
  "composer": [
    "Бен Фостер",
    "Ник Фостер"
  ],
  "design": [],
  "editor": [
    "Эндрю Кук",
    "Энди Киннер"
  ],
  "actors": [
    "Деррен Браун",
    "Стивен Броснан",
    "Гилберт Мартин",
    "Джордан Лоугрэн",
    "Сара Круддас",
    "Ben Dewar-Powell",
    "Шон Лукас",
    "Марк О’Коннелл",
    "Richard Rumble"
  ],
  "actors_dubl": [],
  "trivia": [],
  "trailers": [],
  "seasons": [
    {
      "poster": null,
      "release_ru": null,
      "release_world": null,
      "availability": null,
      "iframe_url": "",
      "season": 1,
      "episodes": [
        {
          "episode": 1,
          "name": null,
          "iframe_url": "",
          "iframe_poster": null,
          "release_ru": null,
          "release_world": null,
          "availability": null,
          "voiceActing": [
            "Рус. Одноголосый"
          ],
          "ads": false,
          "subtitle": []
        },
        {
          "episode": 2,
          "name": null,
          "iframe_url": "",
          "iframe_poster": null,
          "release_ru": null,
          "release_world": null,
          "availability": null,
          "voiceActing": [
            "Рус. Одноголосый"
          ],
          "ads": false,
          "subtitle": []
        }
      ]
    }
  ],
  "voiceActing": [
    "Рус. Одноголосый"
  ],
  "subtitle": [],
  "parts": []
}
