{
  "id": 32554,
  "name": "На том свете: Между жизнью и смертью",
  "name_eng": "Kingdom Come",
  "year": 2014,
  "slogan": "—",
  "age": null,
  "type": "film",
  "quality": "HD (720p)",
  "imdb": "4.3",
  "imdb_id": "0",
  "kinopoisk": "4.4",
  "kinopoisk_id": "740432",
  "world_art": null,
  "world_art_id": null,
  "time": "97 мин. / 01:37",
  "ads": false,
  "premier": "2014-08-20",
  "premier_rus": "2014-08-21",
  "availability": "2014-08-22",
  "activate_time": "2020-07-14 13:13:00",
  "budget": "$3 000 000",
  "fees_use": null,
  "fees_world": null,
  "fees_rus": null,
  "rate_mpaa": null,
  "description": "Группа незнакомых друг другу людей просыпается в заброшенной больнице. Никто из них не знает, как туда попал, но все они вынуждены столкнутся со зловещими намерениями сверхъестественной силы.",
  "iframe_url": "",
  "iframe_poster": null,
  "poster": "https://img.imgilall.me/movies/franchise/3/2/5/5/4/0/0/0/0/0/610x900_32554.jpg",
  "country": {
    "7": "Канада"
  },
  "collection": [],
  "genre": {
    "26": "Ужасы"
  },
  "director": [
    "Грег А. Сейджер"
  ],
  "screenwriter": [
    "Грег А. Сейджер",
    "Джофф Харт",
    "А. Джэй Уильямс"
  ],
  "producer": [
    "Грег А. Сейджер",
    "Greg Bierbaum",
    "Lance Ceaser"
  ],
  "operator": [
    "Гари Элмер"
  ],
  "composer": [
    "Аарон Джилхюс"
  ],
  "design": [
    "Ноэль Саджиант"
  ],
  "editor": [
    "Грег А. Сейджер"
  ],
  "actors": [
    "Райан Баррет",
    "Камилла Холетт-Френч",
    "Уильям Фоли",
    "Джейсон Марторино",
    "Соруш Саиди",
    "Кэти Ульман",
    "Джо Джо Каруме",
    "Челси Мари",
    "Элли О’Брайен",
    "Кэт Кравчук"
  ],
  "actors_dubl": [],
  "trivia": [],
  "trailers": [],
  "seasons": [],
  "voiceActing": [
    "Хихикающий доктор"
  ],
  "subtitle": [],
  "parts": []
}
