{
  "id": 50530,
  "name": "Кремень. Освобождение",
  "name_eng": "",
  "year": 2013,
  "slogan": "«Его правда - его оружие»",
  "age": "16+",
  "type": "series",
  "quality": "FHD (1080p)",
  "imdb": "5.8",
  "imdb_id": "4741312",
  "kinopoisk": "5.9",
  "kinopoisk_id": "744737",
  "world_art": null,
  "world_art_id": null,
  "time": "50 мин. серия (200 мин. всего)",
  "ads": false,
  "premier": "2013-04-20",
  "premier_rus": "2014-04-06",
  "availability": "2014-04-07",
  "serial_status": "offline",
  "activate_time": "2021-09-12 23:07:00",
  "budget": null,
  "fees_use": null,
  "fees_world": null,
  "fees_rus": null,
  "rate_mpaa": null,
  "description": "Отставной майор Андрей Шаманов, после долгих лет службы, учится жить мирной жизнью. Но когда бывшим коллегам требуется помощь, даже счастье с любимой женщиной не способно заставить его отказаться от опасного задания: расследовать причину гибели группы спецназа, проводившей учение в горах, где скрывается группировка контрабандистов. В ходе работы Андрея ждут испытания: преступники похищают его возлюбленную и шантажируют героя, на что опытный военный Шаманов решает ответить штурмом. Удачно спланировав операцию, Андрей находит свою Настю, освобождая вместе с ней еще нескольких заложников. Но главная опасность впереди – преступники не позволят Андрею, а также нескольким свидетелям просто так сбежать с тайной базы…",
  "iframe_url": "",
  "poster": "https://img.imgilall.me/movies/franchise/5/0/5/3/0/0/0/0/0/0/610x900_50530.jpg",
  "country": {
    "5": "Россия"
  },
  "collection": [],
  "genre": {
    "25": "Криминал",
    "17": "Боевик"
  },
  "director": [
    "Владимир Епифанцев"
  ],
  "screenwriter": [
    "Иван Угаров",
    "Аркадий Высоцкий"
  ],
  "producer": [
    "Алексей Моисеев",
    "Давид Дишдишян",
    "Олег Пиганов"
  ],
  "operator": [
    "Вячеслав Лисневский"
  ],
  "composer": [
    "Валерий Васюков"
  ],
  "design": [
    "Владимир Душин"
  ],
  "editor": [],
  "actors": [
    "Владимир Епифанцев",
    "Анастасия Веденская",
    "Сергей Векслер",
    "Денис Яковлев",
    "Инна Хотеенкова",
    "Михаил Горевой",
    "Сергей Фролов",
    "Максим Браматкин",
    "Анна Цуканова-Котт",
    "Иван Добронравов"
  ],
  "actors_dubl": [],
  "trivia": [],
  "trailers": [],
  "seasons": [
    {
      "poster": null,
      "release_ru": null,
      "release_world": null,
      "availability": null,
      "iframe_url": "",
      "season": 1,
      "episodes": [
        {
          "episode": 1,
          "name": null,
          "iframe_url": "",
          "iframe_poster": null,
          "release_ru": null,
          "release_world": null,
          "availability": null,
          "voiceActing": [
            "Рус. Оригинальный"
          ],
          "ads": false,
          "subtitle": []
        },
        {
          "episode": 2,
          "name": null,
          "iframe_url": "",
          "iframe_poster": null,
          "release_ru": null,
          "release_world": null,
          "availability": null,
          "voiceActing": [
            "Рус. Оригинальный"
          ],
          "ads": false,
          "subtitle": []
        },
        {
          "episode": 3,
          "name": null,
          "iframe_url": "",
          "iframe_poster": null,
          "release_ru": null,
          "release_world": null,
          "availability": null,
          "voiceActing": [
            "Рус. Оригинальный"
          ],
          "ads": false,
          "subtitle": []
        },
        {
          "episode": 4,
          "name": null,
          "iframe_url": "",
          "iframe_poster": null,
          "release_ru": null,
          "release_world": null,
          "availability": null,
          "voiceActing": [
            "Рус. Оригинальный"
          ],
          "ads": false,
          "subtitle": []
        }
      ]
    }
  ],
  "voiceActing": [
    "Рус. Оригинальный"
  ],
  "subtitle": [],
  "parts": []
}
