{
  "id": 33250,
  "name": "Мажестик",
  "name_eng": "The Majestic",
  "year": 2001,
  "slogan": "«Sometimes your life comes into focus one frame at a time»",
  "age": "12+",
  "type": "film",
  "quality": "HD (720p)",
  "imdb": "6.9",
  "imdb_id": "0",
  "kinopoisk": "7.7",
  "kinopoisk_id": "746",
  "world_art": null,
  "world_art_id": null,
  "time": "153 мин. / 02:33",
  "ads": false,
  "premier": "2001-12-11",
  "premier_rus": "2001-12-12",
  "availability": "2001-12-13",
  "activate_time": "2020-06-28 08:49:00",
  "budget": "$72 000 000",
  "fees_use": "$27 807 266",
  "fees_world": "+ $9 510 292 = $37 317 558",
  "fees_rus": null,
  "rate_mpaa": "PG",
  "description": "История о человеке, ищущем самого себя. Питер, голливудский сценарист, случайно попадает в маленький городок Лоусон в Калифорнии: после автомобильной аварии он полностью теряет память.Его принимают за пропавшего без вести героя Второй мировой. Питер, который сам поверил в это, берется за восстановление заброшенного городского кинотеатра. Невеста героя, которая ждала его несколько лет, также не замечает, что рядом с ней — двойник. Прекрасная жизнь основана на прекрасном обмане. Но правда, рано или поздно, откроется...",
  "iframe_url": "",
  "iframe_poster": null,
  "poster": "https://img.imgilall.me/movies/franchise/3/3/2/5/0/0/0/0/0/0/610x900_33250.jpg",
  "country": {
    "1": "США"
  },
  "collection": [],
  "genre": {
    "8": "Мелодрама",
    "7": "Драма"
  },
  "director": [
    "Фрэнк Дарабонт"
  ],
  "screenwriter": [
    "Майкл Слоун"
  ],
  "producer": [
    "Фрэнк Дарабонт",
    "Джим Бенке",
    "Клаудия Каммингс"
  ],
  "operator": [
    "Дэвид Тэттерсолл"
  ],
  "composer": [
    "Марк Айшем"
  ],
  "design": [
    "Грегори Мелтон",
    "Эрик Карлсон",
    "Томас А. Уолш"
  ],
  "editor": [
    "Джим Пейдж"
  ],
  "actors": [
    "Джим Керри",
    "Лори Холден",
    "Мартин Ландау",
    "Хэл Холбрук",
    "Джеффри ДеМанн",
    "Боб Бэлабан",
    "Брент Бриско",
    "Рон Рифкин",
    "Джерри Блэк",
    "Дэвид Огден Стайерз"
  ],
  "actors_dubl": [
    "Вячеслав Баранов",
    "Анна Каменкова",
    "Игорь Ясулович",
    "Виктор Петров",
    "Рудольф Панков"
  ],
  "trivia": [
    "Голос, читающий письмо Люка, принадлежит Мэтту Дэймону."
  ],
  "trailers": [],
  "seasons": [],
  "voiceActing": [
    "Cartoon Network"
  ],
  "subtitle": [],
  "parts": []
}
