{
  "id": 29899,
  "name": "Калейдоскоп ужасов 2",
  "name_eng": "Creepshow 2",
  "year": 1987,
  "slogan": "«When The Curtain Goes Up, The Terror Begins!»",
  "age": "18+",
  "type": "film",
  "quality": "HD (720p)",
  "imdb": "6.1",
  "imdb_id": "0092796",
  "kinopoisk": "6.4",
  "kinopoisk_id": "7453",
  "world_art": null,
  "world_art_id": null,
  "time": "92 мин. / 01:32",
  "ads": false,
  "premier": "1987-05-01",
  "premier_rus": "1987-05-02",
  "availability": "1987-05-03",
  "activate_time": "2020-09-10 21:43:00",
  "budget": "$3 500 000",
  "fees_use": "$14 000 000",
  "fees_world": null,
  "fees_rus": null,
  "rate_mpaa": "R",
  "description": "Альманах из трех короткометражных фантастически - мистических новелл по рассказам Стивена Кинга. В фильме прекрасно соседствуют ужасы и фантастика, пародия и мистика, кино и анимация. Почитатели жанра оценят ожившие из комиксов страшилки, сделанные все с явной иронией и черным юмором.",
  "iframe_url": "",
  "iframe_poster": null,
  "poster": "https://img.imgilall.me/movies/franchise/2/9/8/9/9/0/0/0/0/0/610x900_29899.jpg",
  "country": {
    "1": "США"
  },
  "collection": [],
  "genre": {
    "26": "Ужасы",
    "6": "Фэнтези",
    "19": "Комедия"
  },
  "director": [
    "Майкл Горник"
  ],
  "screenwriter": [
    "Джордж А. Ромеро",
    "Люсиль Флетчер",
    "Стивен Кинг"
  ],
  "producer": [
    "Дэвид Болл",
    "Митчелл Галин",
    "Ричард П. Рубинштейн"
  ],
  "operator": [
    "Ричард Харт",
    "Том Харвитц"
  ],
  "composer": [
    "Лес Рид"
  ],
  "design": [
    "Брюс Алан Миллер",
    "Эйлин Сиефф Струп",
    "Эндрю Бернард"
  ],
  "editor": [
    "Питер Уитерлей"
  ],
  "actors": [
    "Доменик Джон",
    "Том Савини",
    "Джордж Кеннеди",
    "Филип Дор",
    "Молтби Наполеон",
    "Тайрон Тонто",
    "Дороти Ламур",
    "Фрэнк Салседо",
    "Холт Маккэллани",
    "Дэвид Холбрук"
  ],
  "actors_dubl": [],
  "trivia": [
    "В новелле «Попутчик» можно заметить книгу Стивена Кинга «Оно»."
  ],
  "trailers": [],
  "seasons": [],
  "voiceActing": [
    "Diva Universal"
  ],
  "subtitle": [],
  "parts": []
}
