{
  "id": 24692,
  "name": "Вечность и один день",
  "name_eng": "Mia aioniotita kai mia mera",
  "year": 1998,
  "slogan": "—",
  "age": null,
  "type": "film",
  "quality": "SD",
  "imdb": "7.9",
  "imdb_id": "0156794",
  "kinopoisk": "7.1",
  "kinopoisk_id": "7696",
  "world_art": null,
  "world_art_id": null,
  "time": "137 мин. / 02:17",
  "ads": true,
  "premier": "1998-05-23",
  "premier_rus": "1998-05-24",
  "availability": "1998-05-25",
  "activate_time": "2020-06-19 13:26:00",
  "budget": null,
  "fees_use": "$107 178",
  "fees_world": null,
  "fees_rus": null,
  "rate_mpaa": null,
  "description": "Знаменитый писатель узнает, что тяжело болен и проживет лишь один день. Он встречает мальчика-албанца и решает посвятить маленькому нелегалу этот день — то время, что ему отпущено.",
  "iframe_url": "",
  "iframe_poster": null,
  "poster": "https://img.imgilall.me/movies/franchise/2/4/6/9/2/0/0/0/0/0/610x900_24692.jpg",
  "country": {
    "8": "Италия",
    "9": "Франция",
    "20": "Германия",
    "37": "Греция"
  },
  "collection": {
    "27": "Про жизнь"
  },
  "genre": {
    "7": "Драма"
  },
  "director": [
    "Тео Ангелопулос"
  ],
  "screenwriter": [
    "Тео Ангелопулос",
    "Тонино Гуэрра",
    "Петрос Маркарис"
  ],
  "producer": [
    "Тео Ангелопулос",
    "Джорджо Сильваньи",
    "Эрик Хойманн"
  ],
  "operator": [
    "Йоргос Арванитис",
    "Андреас Синанос"
  ],
  "composer": [
    "Элени Караиндру"
  ],
  "design": [
    "Костас Димитриадис",
    "Гиоргос Зиакас",
    "Гиоргос Пацас"
  ],
  "editor": [
    "Яннис Цицопулу"
  ],
  "actors": [
    "Бруно Ганц",
    "Изабель Рено",
    "Фабрицио Бентивольо",
    "Акилеас Скевис",
    "Лазарос Андреу",
    "Aristotelis Aposkitis",
    "Деспина Бебеделли",
    "Ирис Шациантониу",
    "Dimitris Fotsinos-Safrantzas",
    "Петрос Фусун"
  ],
  "actors_dubl": [],
  "trivia": [],
  "trailers": [],
  "seasons": [],
  "voiceActing": [
    "Рус. Люб. одноголосый"
  ],
  "subtitle": [],
  "parts": []
}
