{
  "id": 20457,
  "name": "Приложение",
  "name_eng": "i-Lived",
  "year": 2015,
  "slogan": "«Agree to the terms and conditions»",
  "age": null,
  "type": "film",
  "quality": "HD (720p)",
  "imdb": "4.5",
  "imdb_id": "2949196",
  "kinopoisk": "4.2",
  "kinopoisk_id": "766087",
  "world_art": null,
  "world_art_id": null,
  "time": "97 мин. / 01:37",
  "ads": true,
  "premier": "2015-07-03",
  "premier_rus": "2015-07-04",
  "availability": "2015-07-05",
  "activate_time": "2020-05-29 01:18:00",
  "budget": null,
  "fees_use": null,
  "fees_world": null,
  "fees_rus": null,
  "rate_mpaa": null,
  "description": "Джош — блоггер и обозреватель приложений для смартфонов. Однажды ему предлагают протестировать новое приложение. Суть приложения в выполнении заданий из реальной жизни, за что потом начисляются поощрительные баллы. Как ни странно, приложении работало. Джош успешно выполнял разные задания на темы: «здоровое питание», «вежливость», «упорство», «ловкость».В то же самое время он заметил, как изменилась его реальная жизнь. Ему предложили выгодную работу, он выиграл в покер, его больная мать пошла на поправку, но самое необычное — он начал встречаться с девушкой, о которой раньше и мечтать не мог. Он с удовольствием советовал приложение друзьям. Однако скоро задания стали более злыми: «ударь кого-нибудь», «укради деньги». Джош уже был слишком увлечен происходящим, чтобы остановиться на этом...",
  "iframe_url": "",
  "iframe_poster": null,
  "poster": "https://img.imgilall.me/movies/franchise/2/0/4/5/7/0/0/0/0/0/610x900_20457.jpg",
  "country": {
    "1": "США"
  },
  "collection": {
    "29": "Психологические",
    "26": "Про монстров"
  },
  "genre": {
    "26": "Ужасы",
    "24": "Детектив",
    "13": "Триллер"
  },
  "director": [
    "Франк Халфун"
  ],
  "screenwriter": [
    "Франк Халфун",
    "Брайан Брейтер"
  ],
  "producer": [
    "Эхуд Блайберг",
    "Павлина Хатупис",
    "Франк Халфун"
  ],
  "operator": [
    "Кристофер ЛяВассёр"
  ],
  "composer": [
    "Матье Карратье",
    "Грег Тайеб"
  ],
  "design": [
    "Кейти Бирмингем",
    "Маири Чисхолм",
    "Ким Нго"
  ],
  "editor": [
    "Мартинос Аристиду",
    "Гленн Гарлэнд",
    "Франк Халфун"
  ],
  "actors": [
    "Джереми Уоткинс",
    "Сара Пауэр",
    "Кристофер Мена",
    "Элейн Партнау",
    "Джен Броберг",
    "Ник Д’Авирро",
    "Луис Фернандес-Хиль",
    "Майя Милетич",
    "Брайан Брейтер",
    "Шеннон Коллис"
  ],
  "actors_dubl": [],
  "trivia": [],
  "trailers": [],
  "seasons": [],
  "voiceActing": [
    "Рус. Люб. многоголосый",
    "Eng.Original"
  ],
  "subtitle": [
    "Eng. full"
  ],
  "parts": []
}
