{
  "id": 283,
  "name": "Стрингер",
  "name_eng": "Nightcrawler",
  "year": 2014,
  "slogan": "«Секреты Лос-Анджелеса»",
  "age": "16+",
  "type": "film",
  "quality": "FHD (1080p)",
  "imdb": "7.9",
  "imdb_id": "2872718",
  "kinopoisk": "7.4",
  "kinopoisk_id": "760815",
  "world_art": null,
  "world_art_id": null,
  "time": "118 мин. / 01:58",
  "ads": false,
  "premier": "2014-09-05",
  "premier_rus": "2015-08-06",
  "availability": null,
  "activate_time": "2018-06-07 17:41:03",
  "budget": "$8 500 000",
  "fees_use": "$32 381 217",
  "fees_world": "$47 398 992",
  "fees_rus": "$92 834",
  "rate_mpaa": "R",
  "description": "Луи Блум пытается найти работу. После того как он видит, как любительская съемочная группа снимает автомобильную аварию, он меняет ворованный велосипед на камеру и снимает последствия угона автомобиля, чтобы продать местной телевизионной компании. Директор новостей Нина покупает запись и убеждает его продолжить работу. Вскоре становится ясно, что ради по-настоящему стоящего материала Луи не остановится ни перед чем…",
  "iframe_url": "",
  "iframe_poster": null,
  "poster": "https://img.imgilall.me/movies/franchise/2/8/3/0/0/0/0/0/0/0/610x900_283.jpg",
  "country": {
    "1": "США"
  },
  "collection": {
    "29": "Психологические"
  },
  "genre": {
    "25": "Криминал",
    "13": "Триллер",
    "10": "Зарубежный"
  },
  "director": [
    "Дэн Гилрой"
  ],
  "screenwriter": [
    "Дэн Гилрой"
  ],
  "producer": [
    "Дженнифер Фокс",
    "Тони Гилрой",
    "Джейк Джилленхол"
  ],
  "operator": [
    "Роберт Элсвит"
  ],
  "composer": [
    "Джеймс Ньютон Ховард"
  ],
  "design": [
    "Кевин Кэвэно",
    "Наман Маршалл",
    "Эми Весткотт"
  ],
  "editor": [
    "Джон Гилрой"
  ],
  "actors": [
    "Джейк Джилленхол",
    "Рене Руссо",
    "Риз Ахмед",
    "Билл Пэкстон",
    "Майкл Пападжон",
    "Марко Родригес",
    "Джеймс Хуанг",
    "Кент Шокнек",
    "Пэт Харви",
    "Шэрон Тэй"
  ],
  "actors_dubl": [],
  "trivia": [
    "Готовясь к своей роли, Джейк Джилленхол сбросил почти 15 кг.",
    "Во время съемок одной сцены Джейк Джилленхол настолько вошел в роль, что разбил рукой зеркало, после чего его пришлось отвезти в больницу, где актеру наложили 14 швов.",
    "Готовясь к своей роли, Джейк Джилленхол занимался физическими упражнениями до 8 часов в день, а на съемочную площадку он либо ездил на велосипеде, либо совершал до нее пробежку.",
    "В рамках подготовки к своим ролям Джейк Джилленхол и Риз Ахмед ездили вместе с настоящими полицейскими в ночной патруль по Лос-Анджелесу.",
    "Этот фильм стал режиссерским дебютом Дэна Гилроя.",
    "Кульминационная сцена фильма снималась на бульваре Лорел Каньон (Laurel Canyon Blvd) в долине Сан-Фернандо, всего в нескольких кварталах от места, где в 1997 году произошла перестрелка между двумя вооруженными до зубов грабителями банка и полицией Лос-Анджелеса, в ходе которой оба грабителя были убиты.",
    "Фильм, который Джейк Джилленхол смотрит по телевизору, это «Придворный шут» (1955).",
    "В сцене, где Рик заправляет машину Лу, на фоне можно заметить плакат фильма «Капитан Филлипс» (2013).",
    "Большинство автомобильных сцен Джейк Джилленхол исполнил сам, включая сцену погони в конце фильма.",
    "Двое реальных «стрингеров», которые тренировали Джейка Джилленхола и Риза Ахмеда снялись в эпизоде в начале фильма, где Луис слишком поздно приезжает на пожар. Они сыграли двух людей, которые убегают последними.",
    "Когда Рик встречается с Лу для собеседования, они сидят в закусочной. Эта же закусочная использовалась во время съемок фильма «Драйв» (2011)."
  ],
  "trailers": [],
  "seasons": [],
  "voiceActing": [
    "Рус. Проф. многоголосый",
    "Укр. Проф. багатоголосий",
    "Eng.Original"
  ],
  "subtitle": [
    "Рус. полные"
  ],
  "parts": []
}
