{
  "id": 42069,
  "name": "Остров Паскали",
  "name_eng": "Pascali's Island",
  "year": 1988,
  "slogan": "—",
  "age": null,
  "type": "film",
  "quality": "FHD (1080p)",
  "imdb": "6.8",
  "imdb_id": "0095827",
  "kinopoisk": "7.1",
  "kinopoisk_id": "7629",
  "world_art": null,
  "world_art_id": null,
  "time": "104 мин. / 01:44",
  "ads": false,
  "premier": "1988-07-22",
  "premier_rus": "1988-07-23",
  "availability": "1988-07-24",
  "activate_time": "2020-11-10 23:53:00",
  "budget": null,
  "fees_use": "$1 451 857",
  "fees_world": null,
  "fees_rus": null,
  "rate_mpaa": "PG-13",
  "description": "Фильм об искренности, лжи, и некоторых других столь же сложных философских категориях в искусстве и жизни. Главные герои фильма - трое жителей греческого острова.",
  "iframe_url": "",
  "iframe_poster": null,
  "poster": "https://img.imgilall.me/movies/franchise/4/2/0/6/9/0/0/0/0/0/610x900_42069.jpg",
  "country": {
    "2": "Великобритания"
  },
  "collection": [],
  "genre": {
    "7": "Драма"
  },
  "director": [
    "Джеймс Дирден"
  ],
  "screenwriter": [
    "Джеймс Дирден",
    "Бэрри Ансуорт"
  ],
  "producer": [
    "Кэри Брокау",
    "Пол Рафаэль",
    "Скотт Миллани"
  ],
  "operator": [
    "Роджер Дикинс"
  ],
  "composer": [
    "Лоэк Диккер"
  ],
  "design": [
    "Филип Элтон",
    "Петрос Капуралис",
    "Дженнифер Уильямс"
  ],
  "editor": [
    "Эдвард Марньер"
  ],
  "actors": [
    "Бен Кингсли",
    "Чарльз Дэнс",
    "Кеворк Маликян",
    "Джордж Мёрселл",
    "Хелен Миррен",
    "Надим Савалха",
    "Стефан Грифф",
    "Вернон Добчефф",
    "Шила Аллен",
    "Т.П. МакКенна"
  ],
  "actors_dubl": [],
  "trivia": [],
  "trailers": [],
  "seasons": [],
  "voiceActing": [
    "НТВ"
  ],
  "subtitle": [],
  "parts": []
}
