{
  "id": 25778,
  "name": "Сглазили",
  "name_eng": "Jinxed",
  "year": 2013,
  "slogan": "—",
  "age": "12+",
  "type": "film",
  "quality": "HD (720p)",
  "imdb": "6.4",
  "imdb_id": "2934844",
  "kinopoisk": "6.7",
  "kinopoisk_id": "764601",
  "world_art": null,
  "world_art_id": null,
  "time": "75 мин. / 01:15",
  "ads": false,
  "premier": "2013-11-29",
  "premier_rus": "2014-05-23",
  "availability": "2014-05-24",
  "activate_time": "2020-06-26 18:29:00",
  "budget": "$5 000 000",
  "fees_use": null,
  "fees_world": null,
  "fees_rus": null,
  "rate_mpaa": "G",
  "description": "Много поколений назад семью Мёрфи сглазили. Если в каком-нибудь деле был хоть небольшой шанс на неудачу, то он обязательно сыграет. Мэг Мёрфи отправляется в путешествие, чтобы разрушить проклятие и зажить нормальной жизнью, о которой она всегда мечтала.",
  "iframe_url": "",
  "iframe_poster": null,
  "poster": "https://img.imgilall.me/movies/franchise/2/5/7/7/8/0/0/0/0/0/610x900_25778.jpg",
  "country": {
    "7": "Канада",
    "1": "США"
  },
  "collection": [],
  "genre": {
    "33": "Семейный",
    "19": "Комедия"
  },
  "director": [
    "Стивен Херек"
  ],
  "screenwriter": [
    "Нил Израэл",
    "Ори Уоллингтон"
  ],
  "producer": [
    "Эми Сидорик",
    "Скотт МакЭбой",
    "Майкл Самачиччия"
  ],
  "operator": [
    "Том Хартинг"
  ],
  "composer": [
    "Джеймс Дули"
  ],
  "design": [
    "Сэнди Кокрейн",
    "Джеймс Стюарт",
    "Кейт Майн"
  ],
  "editor": [
    "Brant-Burgoyne Anita",
    "Анита Брандт-Бергойн"
  ],
  "actors": [
    "Сиэра Браво",
    "Джейкоб Бертран",
    "Елена Кампурис",
    "Джек Гриффо",
    "Донаван Стинсон",
    "Киган Коннор Трейси",
    "Баркели Даффилд",
    "Джей Бразо",
    "Андреа Брукс",
    "Джесса Даниэльсон"
  ],
  "actors_dubl": [
    "Жанна Никонова",
    "Ольга Кузнецова",
    "Мария Иващенко",
    "Иван Калинин",
    "Дмитрий Поляновский"
  ],
  "trivia": [],
  "trailers": [],
  "seasons": [],
  "voiceActing": [
    "SDI Media"
  ],
  "subtitle": [],
  "parts": []
}
