{
  "id": 9986,
  "name": "Злые птички",
  "name_eng": "Angry Birds Toons",
  "year": 2013,
  "slogan": "«ANGRY BIRDS TOONS brings to life the characters and adventures from one of the beloved games in history!»",
  "age": "6+",
  "type": "cartoon-series",
  "quality": "HD (720p)",
  "imdb": "6.3",
  "imdb_id": "3012598",
  "kinopoisk": "6.2",
  "kinopoisk_id": "761309",
  "world_art": null,
  "world_art_id": null,
  "time": "5 мин",
  "ads": false,
  "premier": "2013-03-16",
  "premier_rus": null,
  "availability": null,
  "serial_status": "offline",
  "activate_time": "2019-07-23 12:15:00",
  "budget": "€3 000 000",
  "fees_use": null,
  "fees_world": null,
  "fees_rus": null,
  "rate_mpaa": null,
  "description": "Жизнь злых птичек не проста на острове Свиней. Красный и его бесстрашные пернатых товарищи: Чак, Матильда, Бомба, Голубые и Теренс, должны объединиться, чтобы защитить свои яйца.",
  "iframe_url": "",
  "poster": "https://img.imgilall.me/movies/franchise/9/9/8/6/0/0/0/0/0/0/610x900_9986.jpg",
  "country": {
    "48": "Финляндия"
  },
  "collection": [],
  "genre": {
    "33": "Семейный",
    "19": "Комедия",
    "10": "Зарубежный"
  },
  "director": [
    "Eric Guaglione",
    "Ким Хельминен",
    "Томас Лепеска"
  ],
  "screenwriter": [
    "Мари Бердмор",
    "Дэйв Бенжойа",
    "Эшли Бодди"
  ],
  "producer": [
    "Майкл Хэд",
    "Сёрен Фленг",
    "Pablo Jordi"
  ],
  "operator": [],
  "composer": [
    "Майкл А. Рейган",
    "Дэвид Швайтцер",
    "Alexander Röder"
  ],
  "design": [
    "Жан-Мишель Беш",
    "Сизар Шевалье"
  ],
  "editor": [
    "Рикке Малене Нилсен",
    "Дэймон П. Йочс",
    "Дункан Рочфорт"
  ],
  "actors": [
    "Антти Пяккенен",
    "Антти Пяккенен",
    "Heljä Heikkinen",
    "Lynne Guaglione",
    "Рауно Ахонен",
    "Матти Лайтинен",
    "Antti Kemppainen",
    "Ким Хельминен",
    "Дуглас Блэк Хитон",
    "Olli Laamanen"
  ],
  "actors_dubl": [],
  "trivia": [],
  "trailers": [
    {
      "name": "трейлер №1",
      "number": 1,
      "iframe_poster": null,
      "season": 1,
      "iframe_url": ""
    }
  ],
  "seasons": [
    {
      "poster": null,
      "release_ru": "2013-03-17",
      "release_world": "2013-03-16",
      "availability": "2013-03-18",
      "iframe_url": "",
      "season": 1,
      "episodes": [
        {
          "episode": 1,
          "name": "Chuck Time",
          "iframe_url": "",
          "iframe_poster": "https://img.imgilall.me/movies/video/1/0/5/2/1/2/0/0/0/0/800x450_105212.jpeg",
          "release_ru": "2013-03-17",
          "release_world": "2013-03-16",
          "availability": "2013-03-18",
          "voiceActing": [
            "Eng.Original"
          ],
          "ads": false,
          "subtitle": []
        },
        {
          "episode": 2,
          "name": "Where's My Crown?",
          "iframe_url": "",
          "iframe_poster": "https://img.imgilall.me/movies/video/1/0/5/2/0/4/0/0/0/0/800x450_105204.jpeg",
          "release_ru": "2013-03-24",
          "release_world": "2013-03-23",
          "availability": "2013-03-25",
          "voiceActing": [
            "Eng.Original"
          ],
          "ads": false,
          "subtitle": []
        },
        {
          "episode": 3,
          "name": "Full Metal Chuck",
          "iframe_url": "",
          "iframe_poster": "https://img.imgilall.me/movies/video/1/0/5/2/1/0/0/0/0/0/800x450_105210.jpeg",
          "release_ru": "2013-03-31",
          "release_world": "2013-03-30",
          "availability": "2013-04-01",
          "voiceActing": [
            "Eng.Original"
          ],
          "ads": false,
          "subtitle": []
        },
        {
          "episode": 4,
          "name": "Another Birthday",
          "iframe_url": "",
          "iframe_poster": "https://img.imgilall.me/movies/video/1/0/5/2/0/2/0/0/0/0/800x450_105202.jpeg",
          "release_ru": "2013-04-07",
          "release_world": "2013-04-06",
          "availability": "2013-04-08",
          "voiceActing": [
            "Eng.Original"
          ],
          "ads": false,
          "subtitle": []
        },
        {
          "episode": 5,
          "name": "Egg Sounds",
          "iframe_url": "",
          "iframe_poster": "https://img.imgilall.me/movies/video/1/0/5/2/0/1/0/0/0/0/800x450_105201.jpeg",
          "release_ru": "2013-04-14",
          "release_world": "2013-04-13",
          "availability": "2013-04-15",
          "voiceActing": [
            "Eng.Original"
          ],
          "ads": false,
          "subtitle": []
        },
        {
          "episode": 6,
          "name": "Pig Talent",
          "iframe_url": "",
          "iframe_poster": "https://img.imgilall.me/movies/video/1/0/5/1/7/5/0/0/0/0/800x450_105175.jpeg",
          "release_ru": "2013-04-21",
          "release_world": "2013-04-20",
          "availability": "2013-04-22",
          "voiceActing": [
            "Eng.Original"
          ],
          "ads": false,
          "subtitle": []
        },
        {
          "episode": 7,
          "name": "Cordon Bleugh!",
          "iframe_url": "",
          "iframe_poster": "https://img.imgilall.me/movies/video/1/0/5/2/0/8/0/0/0/0/800x450_105208.jpeg",
          "release_ru": "2013-04-28",
          "release_world": "2013-04-27",
          "availability": "2013-04-29",
          "voiceActing": [
            "Eng.Original"
          ],
          "ads": false,
          "subtitle": []
        },
        {
          "episode": 8,
          "name": "True Blue?",
          "iframe_url": "",
          "iframe_poster": "https://img.imgilall.me/movies/video/1/0/5/2/0/6/0/0/0/0/800x450_105206.jpeg",
          "release_ru": "2013-05-05",
          "release_world": "2013-05-04",
          "availability": "2013-05-06",
          "voiceActing": [
            "Eng.Original"
          ],
          "ads": false,
          "subtitle": []
        },
        {
          "episode": 9,
          "name": "Do As I Say!",
          "iframe_url": "",
          "iframe_poster": "https://img.imgilall.me/movies/video/1/0/5/2/0/5/0/0/0/0/800x450_105205.jpeg",
          "release_ru": "2013-05-12",
          "release_world": "2013-05-11",
          "availability": "2013-05-13",
          "voiceActing": [
            "Eng.Original"
          ],
          "ads": false,
          "subtitle": []
        },
        {
          "episode": 10,
          "name": "Off Duty",
          "iframe_url": "",
          "iframe_poster": "https://img.imgilall.me/movies/video/1/0/5/1/9/7/0/0/0/0/800x450_105197.jpeg",
          "release_ru": "2013-05-19",
          "release_world": "2013-05-18",
          "availability": "2013-05-20",
          "voiceActing": [
            "Eng.Original"
          ],
          "ads": false,
          "subtitle": []
        },
        {
          "episode": 11,
          "name": "Slingshot 101",
          "iframe_url": "",
          "iframe_poster": "https://img.imgilall.me/movies/video/1/0/5/2/0/9/0/0/0/0/800x450_105209.jpeg",
          "release_ru": "2013-05-26",
          "release_world": "2013-05-25",
          "availability": "2013-05-27",
          "voiceActing": [
            "Eng.Original"
          ],
          "ads": false,
          "subtitle": []
        },
        {
          "episode": 12,
          "name": "Thunder Chuck",
          "iframe_url": "",
          "iframe_poster": "https://img.imgilall.me/movies/video/1/0/5/1/9/8/0/0/0/0/800x450_105198.jpeg",
          "release_ru": "2013-06-02",
          "release_world": "2013-06-01",
          "availability": "2013-06-03",
          "voiceActing": [
            "Eng.Original"
          ],
          "ads": false,
          "subtitle": []
        },
        {
          "episode": 13,
          "name": "Gardening with Terence",
          "iframe_url": "",
          "iframe_poster": "https://img.imgilall.me/movies/video/1/0/5/2/0/7/0/0/0/0/800x450_105207.jpeg",
          "release_ru": "2013-06-09",
          "release_world": "2013-06-08",
          "availability": "2013-06-10",
          "voiceActing": [
            "Eng.Original"
          ],
          "ads": false,
          "subtitle": []
        },
        {
          "episode": 14,
          "name": "Dopeys on a Rope",
          "iframe_url": "",
          "iframe_poster": "https://img.imgilall.me/movies/video/1/0/5/2/0/3/0/0/0/0/800x450_105203.jpeg",
          "release_ru": "2013-06-16",
          "release_world": "2013-06-15",
          "availability": "2013-06-17",
          "voiceActing": [
            "Eng.Original"
          ],
          "ads": false,
          "subtitle": []
        },
        {
          "episode": 15,
          "name": "Trojan Egg",
          "iframe_url": "",
          "iframe_poster": "https://img.imgilall.me/movies/video/1/0/5/1/9/6/0/0/0/0/800x450_105196.jpeg",
          "release_ru": "2013-06-23",
          "release_world": "2013-06-22",
          "availability": "2013-06-24",
          "voiceActing": [
            "Eng.Original"
          ],
          "ads": false,
          "subtitle": []
        },
        {
          "episode": 16,
          "name": "Double Take",
          "iframe_url": "",
          "iframe_poster": "https://img.imgilall.me/movies/video/1/0/5/1/9/4/0/0/0/0/800x450_105194.jpeg",
          "release_ru": "2013-06-30",
          "release_world": "2013-06-29",
          "availability": "2013-07-01",
          "voiceActing": [
            "Eng.Original"
          ],
          "ads": false,
          "subtitle": []
        },
        {
          "episode": 17,
          "name": "Crash Test Piggies",
          "iframe_url": "",
          "iframe_poster": "https://img.imgilall.me/movies/video/1/0/5/1/8/6/0/0/0/0/800x450_105186.jpeg",
          "release_ru": "2013-07-07",
          "release_world": "2013-07-06",
          "availability": "2013-07-08",
          "voiceActing": [
            "Eng.Original"
          ],
          "ads": false,
          "subtitle": []
        },
        {
          "episode": 18,
          "name": "Slappy-Go-Lucky",
          "iframe_url": "",
          "iframe_poster": "https://img.imgilall.me/movies/video/1/0/5/1/8/5/0/0/0/0/800x450_105185.jpeg",
          "release_ru": "2013-07-14",
          "release_world": "2013-07-13",
          "availability": "2013-07-15",
          "voiceActing": [
            "Eng.Original"
          ],
          "ads": false,
          "subtitle": []
        },
        {
          "episode": 19,
          "name": "Sneezy Does It",
          "iframe_url": "",
          "iframe_poster": "https://img.imgilall.me/movies/video/1/0/5/1/7/6/0/0/0/0/800x450_105176.jpeg",
          "release_ru": "2013-07-21",
          "release_world": "2013-07-20",
          "availability": "2013-07-22",
          "voiceActing": [
            "Eng.Original"
          ],
          "ads": false,
          "subtitle": []
        },
        {
          "episode": 20,
          "name": "Run Chuck Run",
          "iframe_url": "",
          "iframe_poster": "https://img.imgilall.me/movies/video/1/0/5/1/9/1/0/0/0/0/800x450_105191.jpeg",
          "release_ru": "2013-07-28",
          "release_world": "2013-07-27",
          "availability": "2013-07-29",
          "voiceActing": [
            "Eng.Original"
          ],
          "ads": false,
          "subtitle": []
        },
        {
          "episode": 21,
          "name": "Hypno Pigs",
          "iframe_url": "",
          "iframe_poster": "https://img.imgilall.me/movies/video/1/0/5/1/8/4/0/0/0/0/800x450_105184.jpeg",
          "release_ru": "2013-08-04",
          "release_world": "2013-08-03",
          "availability": "2013-08-05",
          "voiceActing": [
            "Eng.Original"
          ],
          "ads": false,
          "subtitle": []
        },
        {
          "episode": 22,
          "name": "Egg's Day Out",
          "iframe_url": "",
          "iframe_poster": "https://img.imgilall.me/movies/video/1/0/5/1/7/2/0/0/0/0/800x450_105172.jpeg",
          "release_ru": "2013-08-11",
          "release_world": "2013-08-10",
          "availability": "2013-08-12",
          "voiceActing": [
            "Eng.Original"
          ],
          "ads": false,
          "subtitle": []
        },
        {
          "episode": 23,
          "name": "Gate Crasher",
          "iframe_url": "",
          "iframe_poster": "https://img.imgilall.me/movies/video/1/0/5/1/9/2/0/0/0/0/800x450_105192.jpeg",
          "release_ru": "2013-08-18",
          "release_world": "2013-08-17",
          "availability": "2013-08-19",
          "voiceActing": [
            "Eng.Original"
          ],
          "ads": false,
          "subtitle": []
        },
        {
          "episode": 24,
          "name": "Hog Roast",
          "iframe_url": "",
          "iframe_poster": "https://img.imgilall.me/movies/video/1/0/5/1/8/1/0/0/0/0/800x450_105181.jpeg",
          "release_ru": "2013-08-25",
          "release_world": "2013-08-24",
          "availability": "2013-08-26",
          "voiceActing": [
            "Eng.Original"
          ],
          "ads": false,
          "subtitle": []
        },
        {
          "episode": 25,
          "name": "The Bird That Cried Pig",
          "iframe_url": "",
          "iframe_poster": "https://img.imgilall.me/movies/video/1/0/5/1/7/8/0/0/0/0/800x450_105178.jpeg",
          "release_ru": "2013-09-01",
          "release_world": "2013-08-31",
          "availability": "2013-09-02",
          "voiceActing": [
            "Eng.Original"
          ],
          "ads": false,
          "subtitle": []
        },
        {
          "episode": 26,
          "name": "Hamshank Redemption",
          "iframe_url": "",
          "iframe_poster": "https://img.imgilall.me/movies/video/1/0/5/2/0/0/0/0/0/0/800x450_105200.jpeg",
          "release_ru": "2013-09-08",
          "release_world": "2013-09-07",
          "availability": "2013-09-09",
          "voiceActing": [
            "Eng.Original"
          ],
          "ads": false,
          "subtitle": []
        },
        {
          "episode": 27,
          "name": "Green Pig Soup",
          "iframe_url": "",
          "iframe_poster": "https://img.imgilall.me/movies/video/1/0/5/1/6/9/0/0/0/0/800x450_105169.jpeg",
          "release_ru": "2013-09-15",
          "release_world": "2013-09-14",
          "availability": "2013-09-16",
          "voiceActing": [
            "Eng.Original"
          ],
          "ads": false,
          "subtitle": []
        },
        {
          "episode": 28,
          "name": "Catch of the Day",
          "iframe_url": "",
          "iframe_poster": "https://img.imgilall.me/movies/video/1/0/5/1/7/0/0/0/0/0/800x450_105170.jpeg",
          "release_ru": "2013-09-22",
          "release_world": "2013-09-21",
          "availability": "2013-09-23",
          "voiceActing": [
            "Eng.Original"
          ],
          "ads": false,
          "subtitle": []
        },
        {
          "episode": 29,
          "name": "Nighty Night Terence",
          "iframe_url": "",
          "iframe_poster": "https://img.imgilall.me/movies/video/1/0/5/2/1/1/0/0/0/0/800x450_105211.jpeg",
          "release_ru": "2013-09-29",
          "release_world": "2013-09-28",
          "availability": "2013-09-30",
          "voiceActing": [
            "Eng.Original"
          ],
          "ads": false,
          "subtitle": []
        },
        {
          "episode": 30,
          "name": "Piggy Wig",
          "iframe_url": "",
          "iframe_poster": "https://img.imgilall.me/movies/video/1/0/5/1/8/0/0/0/0/0/800x450_105180.jpeg",
          "release_ru": "2013-10-06",
          "release_world": "2013-10-05",
          "availability": "2013-10-07",
          "voiceActing": [
            "Eng.Original"
          ],
          "ads": false,
          "subtitle": []
        },
        {
          "episode": 31,
          "name": "Pig Plot Potion",
          "iframe_url": "",
          "iframe_poster": "https://img.imgilall.me/movies/video/1/0/5/1/7/7/0/0/0/0/800x450_105177.jpeg",
          "release_ru": "2013-10-13",
          "release_world": "2013-10-12",
          "availability": "2013-10-14",
          "voiceActing": [
            "Eng.Original"
          ],
          "ads": false,
          "subtitle": []
        },
        {
          "episode": 32,
          "name": "Tooth Royal",
          "iframe_url": "",
          "iframe_poster": "https://img.imgilall.me/movies/video/1/0/5/1/8/9/0/0/0/0/800x450_105189.jpeg",
          "release_ru": "2013-10-20",
          "release_world": "2013-10-19",
          "availability": "2013-10-21",
          "voiceActing": [
            "Eng.Original"
          ],
          "ads": false,
          "subtitle": []
        },
        {
          "episode": 33,
          "name": "Night of the Living Pork",
          "iframe_url": "",
          "iframe_poster": "https://img.imgilall.me/movies/video/1/0/5/1/6/4/0/0/0/0/800x450_105164.jpeg",
          "release_ru": "2013-10-27",
          "release_world": "2013-10-26",
          "availability": "2013-10-28",
          "voiceActing": [
            "Eng.Original"
          ],
          "ads": false,
          "subtitle": []
        },
        {
          "episode": 34,
          "name": "King of the Castle",
          "iframe_url": "",
          "iframe_poster": "https://img.imgilall.me/movies/video/1/0/5/1/8/3/0/0/0/0/800x450_105183.jpeg",
          "release_ru": "2013-11-03",
          "release_world": "2013-11-02",
          "availability": "2013-11-04",
          "voiceActing": [
            "Eng.Original"
          ],
          "ads": false,
          "subtitle": []
        },
        {
          "episode": 35,
          "name": "Love is in the Air",
          "iframe_url": "",
          "iframe_poster": "https://img.imgilall.me/movies/video/1/0/5/1/7/3/0/0/0/0/800x450_105173.jpeg",
          "release_ru": "2013-11-10",
          "release_world": "2013-11-09",
          "availability": "2013-11-11",
          "voiceActing": [
            "Eng.Original"
          ],
          "ads": false,
          "subtitle": []
        },
        {
          "episode": 36,
          "name": "Fired Up",
          "iframe_url": "",
          "iframe_poster": "https://img.imgilall.me/movies/video/1/0/5/1/7/1/0/0/0/0/800x450_105171.jpeg",
          "release_ru": "2013-11-17",
          "release_world": "2013-11-16",
          "availability": "2013-11-18",
          "voiceActing": [
            "Eng.Original"
          ],
          "ads": false,
          "subtitle": []
        },
        {
          "episode": 37,
          "name": "Clash of Corns",
          "iframe_url": "",
          "iframe_poster": "https://img.imgilall.me/movies/video/1/0/5/1/9/9/0/0/0/0/800x450_105199.jpeg",
          "release_ru": "2013-11-24",
          "release_world": "2013-11-23",
          "availability": "2013-11-25",
          "voiceActing": [
            "Eng.Original"
          ],
          "ads": false,
          "subtitle": []
        },
        {
          "episode": 38,
          "name": "A Pig's Best Friend",
          "iframe_url": "",
          "iframe_poster": "https://img.imgilall.me/movies/video/1/0/5/1/9/3/0/0/0/0/800x450_105193.jpeg",
          "release_ru": "2013-12-01",
          "release_world": "2013-11-30",
          "availability": "2013-12-02",
          "voiceActing": [
            "Eng.Original"
          ],
          "ads": false,
          "subtitle": []
        },
        {
          "episode": 39,
          "name": "Slumber Mill",
          "iframe_url": "",
          "iframe_poster": "https://img.imgilall.me/movies/video/1/0/5/1/6/8/0/0/0/0/800x450_105168.jpeg",
          "release_ru": "2013-12-08",
          "release_world": "2013-12-07",
          "availability": "2013-12-09",
          "voiceActing": [
            "Eng.Original"
          ],
          "ads": false,
          "subtitle": []
        },
        {
          "episode": 40,
          "name": "Jingle Yells",
          "iframe_url": "",
          "iframe_poster": "https://img.imgilall.me/movies/video/1/0/5/1/6/6/0/0/0/0/800x450_105166.jpeg",
          "release_ru": "2013-12-15",
          "release_world": "2013-12-14",
          "availability": "2013-12-16",
          "voiceActing": [
            "Eng.Original"
          ],
          "ads": false,
          "subtitle": []
        },
        {
          "episode": 41,
          "name": "El Porkador!",
          "iframe_url": "",
          "iframe_poster": "https://img.imgilall.me/movies/video/1/0/5/1/8/2/0/0/0/0/800x450_105182.jpeg",
          "release_ru": "2013-12-22",
          "release_world": "2013-12-21",
          "availability": "2013-12-23",
          "voiceActing": [
            "Eng.Original"
          ],
          "ads": false,
          "subtitle": []
        },
        {
          "episode": 42,
          "name": "Hiccups",
          "iframe_url": "",
          "iframe_poster": "https://img.imgilall.me/movies/video/1/0/5/1/8/7/0/0/0/0/800x450_105187.jpeg",
          "release_ru": "2013-12-29",
          "release_world": "2013-12-28",
          "availability": "2013-12-30",
          "voiceActing": [
            "Eng.Original"
          ],
          "ads": false,
          "subtitle": []
        },
        {
          "episode": 43,
          "name": "The Butterfly Effect",
          "iframe_url": "",
          "iframe_poster": "https://img.imgilall.me/movies/video/1/0/5/1/9/5/0/0/0/0/800x450_105195.jpeg",
          "release_ru": "2014-01-05",
          "release_world": "2014-01-04",
          "availability": "2014-01-06",
          "voiceActing": [
            "Eng.Original"
          ],
          "ads": false,
          "subtitle": []
        },
        {
          "episode": 44,
          "name": "Hambo",
          "iframe_url": "",
          "iframe_poster": "https://img.imgilall.me/movies/video/1/0/5/1/6/5/0/0/0/0/800x450_105165.jpeg",
          "release_ru": "2014-01-12",
          "release_world": "2014-01-11",
          "availability": "2014-01-13",
          "voiceActing": [
            "Eng.Original"
          ],
          "ads": false,
          "subtitle": []
        },
        {
          "episode": 45,
          "name": "Bird Flu",
          "iframe_url": "",
          "iframe_poster": "https://img.imgilall.me/movies/video/1/0/5/1/9/0/0/0/0/0/800x450_105190.jpeg",
          "release_ru": "2014-01-19",
          "release_world": "2014-01-18",
          "availability": "2014-01-20",
          "voiceActing": [
            "Eng.Original"
          ],
          "ads": false,
          "subtitle": []
        },
        {
          "episode": 46,
          "name": "Piggies from the Deep",
          "iframe_url": "",
          "iframe_poster": "https://img.imgilall.me/movies/video/1/0/5/1/6/2/0/0/0/0/800x450_105162.jpeg",
          "release_ru": "2014-01-26",
          "release_world": "2014-01-25",
          "availability": "2014-01-27",
          "voiceActing": [
            "Eng.Original"
          ],
          "ads": false,
          "subtitle": []
        },
        {
          "episode": 47,
          "name": "Oh Gnome!",
          "iframe_url": "",
          "iframe_poster": "https://img.imgilall.me/movies/video/1/0/5/1/8/8/0/0/0/0/800x450_105188.jpeg",
          "release_ru": "2014-02-02",
          "release_world": "2014-02-01",
          "availability": "2014-02-03",
          "voiceActing": [
            "Eng.Original"
          ],
          "ads": false,
          "subtitle": []
        },
        {
          "episode": 48,
          "name": "Shrub It In",
          "iframe_url": "",
          "iframe_poster": "https://img.imgilall.me/movies/video/1/0/5/1/7/4/0/0/0/0/800x450_105174.jpeg",
          "release_ru": "2014-02-09",
          "release_world": "2014-02-08",
          "availability": "2014-02-10",
          "voiceActing": [
            "Eng.Original"
          ],
          "ads": false,
          "subtitle": []
        },
        {
          "episode": 49,
          "name": "The Truce",
          "iframe_url": "",
          "iframe_poster": "https://img.imgilall.me/movies/video/1/0/5/1/7/9/0/0/0/0/800x450_105179.jpeg",
          "release_ru": "2014-02-16",
          "release_world": "2014-02-15",
          "availability": "2014-02-17",
          "voiceActing": [
            "Eng.Original"
          ],
          "ads": false,
          "subtitle": []
        },
        {
          "episode": 50,
          "name": "Operation Opera",
          "iframe_url": "",
          "iframe_poster": "https://img.imgilall.me/movies/video/1/0/5/1/6/1/0/0/0/0/800x450_105161.jpeg",
          "release_ru": "2014-02-23",
          "release_world": "2014-02-22",
          "availability": "2014-02-24",
          "voiceActing": [
            "Eng.Original"
          ],
          "ads": false,
          "subtitle": []
        },
        {
          "episode": 51,
          "name": "Chucked Out",
          "iframe_url": "",
          "iframe_poster": "https://img.imgilall.me/movies/video/1/0/5/1/6/3/0/0/0/0/800x450_105163.jpeg",
          "release_ru": "2014-03-02",
          "release_world": "2014-03-01",
          "availability": "2014-03-03",
          "voiceActing": [
            "Eng.Original"
          ],
          "ads": false,
          "subtitle": []
        },
        {
          "episode": 52,
          "name": "Bomb's Awake",
          "iframe_url": "",
          "iframe_poster": "https://img.imgilall.me/movies/video/1/0/5/1/6/7/0/0/0/0/800x450_105167.jpeg",
          "release_ru": "2014-03-09",
          "release_world": "2014-03-08",
          "availability": "2014-03-10",
          "voiceActing": [
            "Eng.Original"
          ],
          "ads": false,
          "subtitle": []
        }
      ]
    },
    {
      "poster": null,
      "release_ru": "2014-10-20",
      "release_world": "2014-10-19",
      "availability": "2014-10-21",
      "iframe_url": "",
      "season": 2,
      "episodes": [
        {
          "episode": 1,
          "name": "Treasure Hunt",
          "iframe_url": "",
          "iframe_poster": "https://img.imgilall.me/movies/video/1/0/5/0/7/9/0/0/0/0/800x450_105079.jpeg",
          "release_ru": "2014-10-20",
          "release_world": "2014-10-19",
          "availability": "2014-10-21",
          "voiceActing": [
            "Eng.Original"
          ],
          "ads": false,
          "subtitle": []
        },
        {
          "episode": 2,
          "name": "Sweets of Doom",
          "iframe_url": "",
          "iframe_poster": "https://img.imgilall.me/movies/video/1/0/5/0/8/7/0/0/0/0/800x450_105087.jpeg",
          "release_ru": "2014-10-27",
          "release_world": "2014-10-26",
          "availability": "2014-10-28",
          "voiceActing": [
            "Eng.Original"
          ],
          "ads": false,
          "subtitle": []
        },
        {
          "episode": 3,
          "name": "Party Ahoy",
          "iframe_url": "",
          "iframe_poster": "https://img.imgilall.me/movies/video/1/0/5/0/8/8/0/0/0/0/800x450_105088.jpeg",
          "release_ru": "2014-11-03",
          "release_world": "2014-11-02",
          "availability": "2014-11-04",
          "voiceActing": [
            "Eng.Original"
          ],
          "ads": false,
          "subtitle": []
        },
        {
          "episode": 4,
          "name": "Hide and Seek",
          "iframe_url": "",
          "iframe_poster": "https://img.imgilall.me/movies/video/1/0/5/0/9/7/0/0/0/0/800x450_105097.jpeg",
          "release_ru": "2014-11-10",
          "release_world": "2014-11-09",
          "availability": "2014-11-11",
          "voiceActing": [
            "Eng.Original"
          ],
          "ads": false,
          "subtitle": []
        },
        {
          "episode": 5,
          "name": "Sink or Swim",
          "iframe_url": "",
          "iframe_poster": "https://img.imgilall.me/movies/video/1/0/5/0/8/9/0/0/0/0/800x450_105089.jpeg",
          "release_ru": "2014-11-17",
          "release_world": "2014-11-16",
          "availability": "2014-11-18",
          "voiceActing": [
            "Eng.Original"
          ],
          "ads": false,
          "subtitle": []
        },
        {
          "episode": 6,
          "name": "Super Bomb!",
          "iframe_url": "",
          "iframe_poster": "https://img.imgilall.me/movies/video/1/0/5/0/7/6/0/0/0/0/800x450_105076.jpeg",
          "release_ru": "2014-11-24",
          "release_world": "2014-11-23",
          "availability": "2014-11-25",
          "voiceActing": [
            "Eng.Original"
          ],
          "ads": false,
          "subtitle": []
        },
        {
          "episode": 7,
          "name": "Just So",
          "iframe_url": "",
          "iframe_poster": "https://img.imgilall.me/movies/video/1/0/5/0/8/1/0/0/0/0/800x450_105081.jpeg",
          "release_ru": "2014-12-01",
          "release_world": "2014-11-30",
          "availability": "2014-12-02",
          "voiceActing": [
            "Eng.Original"
          ],
          "ads": false,
          "subtitle": []
        },
        {
          "episode": 8,
          "name": "The Miracle of Life",
          "iframe_url": "",
          "iframe_poster": "https://img.imgilall.me/movies/video/1/0/5/0/8/3/0/0/0/0/800x450_105083.jpeg",
          "release_ru": "2014-12-08",
          "release_world": "2014-12-07",
          "availability": "2014-12-09",
          "voiceActing": [
            "Eng.Original"
          ],
          "ads": false,
          "subtitle": []
        },
        {
          "episode": 9,
          "name": "Cave Pig",
          "iframe_url": "",
          "iframe_poster": "https://img.imgilall.me/movies/video/1/0/5/0/9/3/0/0/0/0/800x450_105093.jpeg",
          "release_ru": "2014-12-15",
          "release_world": "2014-12-14",
          "availability": "2014-12-16",
          "voiceActing": [
            "Eng.Original"
          ],
          "ads": false,
          "subtitle": []
        },
        {
          "episode": 10,
          "name": "Joy to the Pigs",
          "iframe_url": "",
          "iframe_poster": "https://img.imgilall.me/movies/video/1/0/5/0/8/4/0/0/0/0/800x450_105084.jpeg",
          "release_ru": "2014-12-22",
          "release_world": "2014-12-21",
          "availability": "2014-12-23",
          "voiceActing": [
            "Eng.Original"
          ],
          "ads": false,
          "subtitle": []
        },
        {
          "episode": 11,
          "name": "Dogzilla",
          "iframe_url": "",
          "iframe_poster": "https://img.imgilall.me/movies/video/1/0/5/0/9/0/0/0/0/0/800x450_105090.jpeg",
          "release_ru": "2014-12-29",
          "release_world": "2014-12-28",
          "availability": "2014-12-30",
          "voiceActing": [
            "Eng.Original"
          ],
          "ads": false,
          "subtitle": []
        },
        {
          "episode": 12,
          "name": "Boulder Bro",
          "iframe_url": "",
          "iframe_poster": "https://img.imgilall.me/movies/video/1/0/5/0/9/4/0/0/0/0/800x450_105094.jpeg",
          "release_ru": "2015-01-05",
          "release_world": "2015-01-04",
          "availability": "2015-01-06",
          "voiceActing": [
            "Eng.Original"
          ],
          "ads": false,
          "subtitle": []
        },
        {
          "episode": 13,
          "name": "Chuckmania",
          "iframe_url": "",
          "iframe_poster": "https://img.imgilall.me/movies/video/1/0/5/0/9/2/0/0/0/0/800x450_105092.jpeg",
          "release_ru": "2015-01-12",
          "release_world": "2015-01-11",
          "availability": "2015-01-13",
          "voiceActing": [
            "Eng.Original"
          ],
          "ads": false,
          "subtitle": []
        },
        {
          "episode": 14,
          "name": "Not Without My Helmet",
          "iframe_url": "",
          "iframe_poster": "https://img.imgilall.me/movies/video/1/0/5/0/9/6/0/0/0/0/800x450_105096.jpeg",
          "release_ru": "2015-01-19",
          "release_world": "2015-01-18",
          "availability": "2015-01-20",
          "voiceActing": [
            "Eng.Original"
          ],
          "ads": false,
          "subtitle": []
        },
        {
          "episode": 15,
          "name": "Mona Litha",
          "iframe_url": "",
          "iframe_poster": "https://img.imgilall.me/movies/video/1/0/5/0/8/2/0/0/0/0/800x450_105082.jpeg",
          "release_ru": "2015-01-26",
          "release_world": "2015-01-25",
          "availability": "2015-01-27",
          "voiceActing": [
            "Eng.Original"
          ],
          "ads": false,
          "subtitle": []
        },
        {
          "episode": 16,
          "name": "Sir Bomb of Hamelot",
          "iframe_url": "",
          "iframe_poster": "https://img.imgilall.me/movies/video/1/0/5/0/7/8/0/0/0/0/800x450_105078.jpeg",
          "release_ru": "2015-02-02",
          "release_world": "2015-02-01",
          "availability": "2015-02-03",
          "voiceActing": [
            "Eng.Original"
          ],
          "ads": false,
          "subtitle": []
        },
        {
          "episode": 17,
          "name": "Bearded Ambition",
          "iframe_url": "",
          "iframe_poster": "https://img.imgilall.me/movies/video/1/0/5/0/8/0/0/0/0/0/800x450_105080.jpeg",
          "release_ru": "2015-02-09",
          "release_world": "2015-02-08",
          "availability": "2015-02-10",
          "voiceActing": [
            "Eng.Original"
          ],
          "ads": false,
          "subtitle": []
        },
        {
          "episode": 18,
          "name": "Cold Justice",
          "iframe_url": "",
          "iframe_poster": "https://img.imgilall.me/movies/video/1/0/5/0/9/9/0/0/0/0/800x450_105099.jpeg",
          "release_ru": "2015-02-16",
          "release_world": "2015-02-15",
          "availability": "2015-02-17",
          "voiceActing": [
            "Eng.Original"
          ],
          "ads": false,
          "subtitle": []
        },
        {
          "episode": 19,
          "name": "Slow the Chuck Down!",
          "iframe_url": "",
          "iframe_poster": "https://img.imgilall.me/movies/video/1/0/5/0/7/5/0/0/0/0/800x450_105075.jpeg",
          "release_ru": "2015-02-23",
          "release_world": "2015-02-22",
          "availability": "2015-02-24",
          "voiceActing": [
            "Eng.Original"
          ],
          "ads": false,
          "subtitle": []
        },
        {
          "episode": 20,
          "name": "Brutal vs. Brutal",
          "iframe_url": "",
          "iframe_poster": "https://img.imgilall.me/movies/video/1/0/5/0/8/5/0/0/0/0/800x450_105085.jpeg",
          "release_ru": "2015-03-02",
          "release_world": "2015-03-01",
          "availability": "2015-03-03",
          "voiceActing": [
            "Eng.Original"
          ],
          "ads": false,
          "subtitle": []
        },
        {
          "episode": 21,
          "name": "Eating Out",
          "iframe_url": "",
          "iframe_poster": "https://img.imgilall.me/movies/video/1/0/5/0/7/7/0/0/0/0/800x450_105077.jpeg",
          "release_ru": "2015-03-09",
          "release_world": "2015-03-08",
          "availability": "2015-03-10",
          "voiceActing": [
            "Eng.Original"
          ],
          "ads": false,
          "subtitle": []
        },
        {
          "episode": 22,
          "name": "The Great Eggscape",
          "iframe_url": "",
          "iframe_poster": "https://img.imgilall.me/movies/video/1/0/5/0/9/1/0/0/0/0/800x450_105091.jpeg",
          "release_ru": "2015-03-16",
          "release_world": "2015-03-15",
          "availability": "2015-03-17",
          "voiceActing": [
            "Eng.Original"
          ],
          "ads": false,
          "subtitle": []
        },
        {
          "episode": 23,
          "name": "Sleep Like a Hog",
          "iframe_url": "",
          "iframe_poster": "https://img.imgilall.me/movies/video/1/0/5/0/9/5/0/0/0/0/800x450_105095.jpeg",
          "release_ru": "2015-03-23",
          "release_world": "2015-03-22",
          "availability": "2015-03-24",
          "voiceActing": [
            "Eng.Original"
          ],
          "ads": false,
          "subtitle": []
        },
        {
          "episode": 24,
          "name": "Bombina",
          "iframe_url": "",
          "iframe_poster": "https://img.imgilall.me/movies/video/1/0/5/0/8/6/0/0/0/0/800x450_105086.jpeg",
          "release_ru": "2015-03-30",
          "release_world": "2015-03-29",
          "availability": "2015-03-31",
          "voiceActing": [
            "Eng.Original"
          ],
          "ads": false,
          "subtitle": []
        },
        {
          "episode": 25,
          "name": "Pig Possessed",
          "iframe_url": "",
          "iframe_poster": "https://img.imgilall.me/movies/video/1/0/5/1/0/0/0/0/0/0/800x450_105100.jpeg",
          "release_ru": "2015-04-06",
          "release_world": "2015-04-05",
          "availability": "2015-04-07",
          "voiceActing": [
            "Eng.Original"
          ],
          "ads": false,
          "subtitle": []
        },
        {
          "episode": 26,
          "name": "Epic Sax-Off",
          "iframe_url": "",
          "iframe_poster": "https://img.imgilall.me/movies/video/1/0/5/0/9/8/0/0/0/0/800x450_105098.jpeg",
          "release_ru": "2015-04-13",
          "release_world": "2015-04-12",
          "availability": "2015-04-14",
          "voiceActing": [
            "Eng.Original"
          ],
          "ads": false,
          "subtitle": []
        }
      ]
    },
    {
      "poster": null,
      "release_ru": "2015-10-02",
      "release_world": "2015-10-01",
      "availability": "2015-10-03",
      "iframe_url": "",
      "season": 3,
      "episodes": [
        {
          "episode": 1,
          "name": "Royal Heist",
          "iframe_url": "",
          "iframe_poster": "https://img.imgilall.me/movies/video/1/0/5/1/3/3/0/0/0/0/800x450_105133.jpeg",
          "release_ru": "2015-10-02",
          "release_world": "2015-10-01",
          "availability": "2015-10-03",
          "voiceActing": [
            "Eng.Original"
          ],
          "ads": false,
          "subtitle": []
        },
        {
          "episode": 2,
          "name": "Bad Hair Day",
          "iframe_url": "",
          "iframe_poster": "https://img.imgilall.me/movies/video/1/0/5/1/3/4/0/0/0/0/800x450_105134.jpeg",
          "release_ru": "2015-10-02",
          "release_world": "2015-10-01",
          "availability": "2015-10-03",
          "voiceActing": [
            "Eng.Original"
          ],
          "ads": false,
          "subtitle": []
        },
        {
          "episode": 3,
          "name": "Golditrotters",
          "iframe_url": "",
          "iframe_poster": "https://img.imgilall.me/movies/video/1/0/5/1/3/5/0/0/0/0/800x450_105135.jpeg",
          "release_ru": "2015-10-02",
          "release_world": "2015-10-01",
          "availability": "2015-10-03",
          "voiceActing": [
            "Eng.Original"
          ],
          "ads": false,
          "subtitle": []
        },
        {
          "episode": 4,
          "name": "A Fistful of Cabbage",
          "iframe_url": "",
          "iframe_poster": "https://img.imgilall.me/movies/video/1/0/5/1/3/6/0/0/0/0/800x450_105136.jpeg",
          "release_ru": "2015-10-17",
          "release_world": "2015-10-16",
          "availability": "2015-10-18",
          "voiceActing": [
            "Eng.Original"
          ],
          "ads": false,
          "subtitle": []
        },
        {
          "episode": 5,
          "name": "Porcula",
          "iframe_url": "",
          "iframe_poster": "https://img.imgilall.me/movies/video/1/0/5/1/3/7/0/0/0/0/800x450_105137.jpeg",
          "release_ru": "2015-10-24",
          "release_world": "2015-10-23",
          "availability": "2015-10-25",
          "voiceActing": [
            "Eng.Original"
          ],
          "ads": false,
          "subtitle": []
        },
        {
          "episode": 6,
          "name": "Didgeridork",
          "iframe_url": "",
          "iframe_poster": "https://img.imgilall.me/movies/video/1/0/5/1/3/8/0/0/0/0/800x450_105138.jpeg",
          "release_ru": "2015-10-24",
          "release_world": "2015-10-23",
          "availability": "2015-10-25",
          "voiceActing": [
            "Eng.Original"
          ],
          "ads": false,
          "subtitle": []
        },
        {
          "episode": 7,
          "name": "The Porktrait",
          "iframe_url": "",
          "iframe_poster": "https://img.imgilall.me/movies/video/1/0/5/1/3/9/0/0/0/0/800x450_105139.jpeg",
          "release_ru": "2015-10-31",
          "release_world": "2015-10-30",
          "availability": "2015-11-01",
          "voiceActing": [
            "Eng.Original"
          ],
          "ads": false,
          "subtitle": []
        },
        {
          "episode": 8,
          "name": "Fix It!",
          "iframe_url": "",
          "iframe_poster": "https://img.imgilall.me/movies/video/1/0/5/1/4/2/0/0/0/0/800x450_105142.jpeg",
          "release_ru": "2015-11-14",
          "release_world": "2015-11-13",
          "availability": "2015-11-15",
          "voiceActing": [
            "Eng.Original"
          ],
          "ads": false,
          "subtitle": []
        },
        {
          "episode": 9,
          "name": "Age Rage",
          "iframe_url": "",
          "iframe_poster": "https://img.imgilall.me/movies/video/1/0/5/1/4/3/0/0/0/0/800x450_105143.jpeg",
          "release_ru": "2015-11-28",
          "release_world": "2015-11-27",
          "availability": "2015-11-29",
          "voiceActing": [
            "Eng.Original"
          ],
          "ads": false,
          "subtitle": []
        },
        {
          "episode": 10,
          "name": "Catching the Blues",
          "iframe_url": "",
          "iframe_poster": "https://img.imgilall.me/movies/video/1/0/5/1/4/4/0/0/0/0/800x450_105144.jpeg",
          "release_ru": "2015-12-12",
          "release_world": "2015-12-11",
          "availability": "2015-12-13",
          "voiceActing": [
            "Eng.Original"
          ],
          "ads": false,
          "subtitle": []
        },
        {
          "episode": 11,
          "name": "Last Tree Standing",
          "iframe_url": "",
          "iframe_poster": "https://img.imgilall.me/movies/video/1/0/5/1/4/5/0/0/0/0/800x450_105145.jpeg",
          "release_ru": "2015-12-19",
          "release_world": "2015-12-18",
          "availability": "2015-12-20",
          "voiceActing": [
            "Eng.Original"
          ],
          "ads": false,
          "subtitle": []
        },
        {
          "episode": 12,
          "name": "Happy Hippy",
          "iframe_url": "",
          "iframe_poster": "https://img.imgilall.me/movies/video/1/0/5/1/4/6/0/0/0/0/800x450_105146.jpeg",
          "release_ru": "2015-12-26",
          "release_world": "2015-12-25",
          "availability": "2015-12-27",
          "voiceActing": [
            "Eng.Original"
          ],
          "ads": false,
          "subtitle": []
        },
        {
          "episode": 13,
          "name": "Mind the Pony",
          "iframe_url": "",
          "iframe_poster": "https://img.imgilall.me/movies/video/1/0/5/1/4/7/0/0/0/0/800x450_105147.jpeg",
          "release_ru": "2016-01-09",
          "release_world": "2016-01-08",
          "availability": "2016-01-10",
          "voiceActing": [
            "Eng.Original"
          ],
          "ads": false,
          "subtitle": []
        },
        {
          "episode": 14,
          "name": "Robo-Tilda",
          "iframe_url": "",
          "iframe_poster": "https://img.imgilall.me/movies/video/1/0/5/1/4/8/0/0/0/0/800x450_105148.jpeg",
          "release_ru": "2016-01-23",
          "release_world": "2016-01-22",
          "availability": "2016-01-24",
          "voiceActing": [
            "Eng.Original"
          ],
          "ads": false,
          "subtitle": []
        },
        {
          "episode": 15,
          "name": "King of the Ring",
          "iframe_url": "",
          "iframe_poster": "https://img.imgilall.me/movies/video/1/0/5/1/4/9/0/0/0/0/800x450_105149.jpeg",
          "release_ru": "2016-02-06",
          "release_world": "2016-02-05",
          "availability": "2016-02-07",
          "voiceActing": [
            "Eng.Original"
          ],
          "ads": false,
          "subtitle": []
        },
        {
          "episode": 16,
          "name": "Spaced Out",
          "iframe_url": "",
          "iframe_poster": "https://img.imgilall.me/movies/video/1/0/5/1/5/0/0/0/0/0/800x450_105150.jpeg",
          "release_ru": "2016-02-20",
          "release_world": "2016-02-19",
          "availability": "2016-02-21",
          "voiceActing": [
            "Eng.Original"
          ],
          "ads": false,
          "subtitle": []
        },
        {
          "episode": 17,
          "name": "Battling Butlers",
          "iframe_url": "",
          "iframe_poster": "https://img.imgilall.me/movies/video/1/0/5/1/5/1/0/0/0/0/800x450_105151.jpeg",
          "release_ru": "2016-03-05",
          "release_world": "2016-03-04",
          "availability": "2016-03-06",
          "voiceActing": [
            "Eng.Original"
          ],
          "ads": false,
          "subtitle": []
        },
        {
          "episode": 18,
          "name": "Eggshaustion",
          "iframe_url": "",
          "iframe_poster": "https://img.imgilall.me/movies/video/1/0/5/1/5/2/0/0/0/0/800x450_105152.jpeg",
          "release_ru": "2016-03-19",
          "release_world": "2016-03-18",
          "availability": "2016-03-20",
          "voiceActing": [
            "Eng.Original"
          ],
          "ads": false,
          "subtitle": []
        },
        {
          "episode": 19,
          "name": "Short and Special",
          "iframe_url": "",
          "iframe_poster": "https://img.imgilall.me/movies/video/1/0/5/1/5/3/0/0/0/0/800x450_105153.jpeg",
          "release_ru": "2016-03-26",
          "release_world": "2016-03-25",
          "availability": "2016-03-27",
          "voiceActing": [
            "Eng.Original"
          ],
          "ads": false,
          "subtitle": []
        },
        {
          "episode": 20,
          "name": "Hocus Porcus",
          "iframe_url": "",
          "iframe_poster": "https://img.imgilall.me/movies/video/1/0/5/1/5/4/0/0/0/0/800x450_105154.jpeg",
          "release_ru": "2016-04-02",
          "release_world": "2016-04-01",
          "availability": "2016-04-03",
          "voiceActing": [
            "Eng.Original"
          ],
          "ads": false,
          "subtitle": []
        },
        {
          "episode": 21,
          "name": "Romance in a Bottle",
          "iframe_url": "",
          "iframe_poster": "https://img.imgilall.me/movies/video/1/0/5/1/5/5/0/0/0/0/800x450_105155.jpeg",
          "release_ru": "2016-04-09",
          "release_world": "2016-04-08",
          "availability": "2016-04-10",
          "voiceActing": [
            "Eng.Original"
          ],
          "ads": false,
          "subtitle": []
        },
        {
          "episode": 22,
          "name": "The Butler Did It!",
          "iframe_url": "",
          "iframe_poster": "https://img.imgilall.me/movies/video/1/0/5/1/5/6/0/0/0/0/800x450_105156.jpeg",
          "release_ru": "2016-04-16",
          "release_world": "2016-04-15",
          "availability": "2016-04-17",
          "voiceActing": [
            "Eng.Original"
          ],
          "ads": false,
          "subtitle": []
        },
        {
          "episode": 23,
          "name": "Stalker",
          "iframe_url": "",
          "iframe_poster": "https://img.imgilall.me/movies/video/1/0/5/1/5/7/0/0/0/0/800x450_105157.jpeg",
          "release_ru": "2016-04-23",
          "release_world": "2016-04-22",
          "availability": "2016-04-24",
          "voiceActing": [
            "Eng.Original"
          ],
          "ads": false,
          "subtitle": []
        },
        {
          "episode": 24,
          "name": "Photochucked",
          "iframe_url": "",
          "iframe_poster": "https://img.imgilall.me/movies/video/1/0/5/1/5/8/0/0/0/0/800x450_105158.jpeg",
          "release_ru": "2016-04-30",
          "release_world": "2016-04-29",
          "availability": "2016-05-01",
          "voiceActing": [
            "Eng.Original"
          ],
          "ads": false,
          "subtitle": []
        },
        {
          "episode": 25,
          "name": "Bake On!",
          "iframe_url": "",
          "iframe_poster": "https://img.imgilall.me/movies/video/1/0/5/1/5/9/0/0/0/0/800x450_105159.jpeg",
          "release_ru": "2016-05-09",
          "release_world": "2016-05-08",
          "availability": "2016-05-10",
          "voiceActing": [
            "Eng.Original"
          ],
          "ads": false,
          "subtitle": []
        },
        {
          "episode": 26,
          "name": "Toyhoggers",
          "iframe_url": "",
          "iframe_poster": "https://img.imgilall.me/movies/video/1/0/5/1/6/0/0/0/0/0/800x450_105160.jpeg",
          "release_ru": "2016-05-16",
          "release_world": "2016-05-15",
          "availability": "2016-05-17",
          "voiceActing": [
            "Eng.Original"
          ],
          "ads": false,
          "subtitle": []
        }
      ]
    }
  ],
  "voiceActing": [
    "Eng.Original"
  ],
  "subtitle": [],
  "parts": []
}
