{
  "id": 32773,
  "name": "Другая ты",
  "name_eng": "Another You",
  "year": 2017,
  "slogan": "—",
  "age": null,
  "type": "film",
  "quality": "HD (720p)",
  "imdb": "4.2",
  "imdb_id": "0",
  "kinopoisk": null,
  "kinopoisk_id": "764673",
  "world_art": null,
  "world_art_id": null,
  "time": "83 мин. / 01:23",
  "ads": false,
  "premier": "2017-05-15",
  "premier_rus": "2017-05-16",
  "availability": "2017-05-17",
  "activate_time": "2020-06-28 12:40:00",
  "budget": null,
  "fees_use": null,
  "fees_world": null,
  "fees_rus": null,
  "rate_mpaa": null,
  "description": "Фильм о молодом учёном, амбициозной девушке по имени Сидни Джеймисон. Неожиданно для себя она влюбляется в Маркуса и больше не может представить себе жизни без него. Со временем Маркус становится для девушки навязчивой идеей. Когда во время своего исследования феномена дежавю Сидни сделает удивительное открытие, она попытается исправить ошибки прошлого.",
  "iframe_url": "",
  "iframe_poster": null,
  "poster": "https://img.imgilall.me/movies/franchise/3/2/7/7/3/0/0/0/0/0/610x900_32773.jpg",
  "country": {
    "1": "США"
  },
  "collection": [],
  "genre": {
    "7": "Драма"
  },
  "director": [
    "Крис Роберт"
  ],
  "screenwriter": [
    "Крис Роберт"
  ],
  "producer": [
    "Крис Роберт",
    "А.Дж. Шах",
    "Диего Бонета"
  ],
  "operator": [
    "Тайлер Эллисон"
  ],
  "composer": [
    "Рик Уитковски"
  ],
  "design": [
    "Дэннис Стром",
    "Кори Суизен",
    "Шерри Хиггинс"
  ],
  "editor": [
    "Ник Хилл"
  ],
  "actors": [
    "Ксения Соло",
    "Диего Бонета",
    "Александр Баннерман",
    "Кристен Холден-Рид",
    "Тейлор Хорст",
    "Ричард Т. Джонс",
    "Никита Каминский",
    "Джим Крен",
    "Меган Мартин",
    "Эбби Уатен"
  ],
  "actors_dubl": [],
  "trivia": [],
  "trailers": [],
  "seasons": [],
  "voiceActing": [
    "Рус. Люб. многоголосый"
  ],
  "subtitle": [],
  "parts": []
}
