{
  "id": 33300,
  "name": "Мужской стриптиз",
  "name_eng": "The Full Monty",
  "year": 1997,
  "slogan": "«The year's most revealing comedy»",
  "age": "16+",
  "type": "film",
  "quality": "FHD (1080p)",
  "imdb": null,
  "imdb_id": null,
  "kinopoisk": "7.4",
  "kinopoisk_id": "7732",
  "world_art": null,
  "world_art_id": null,
  "time": "88 мин. / 01:28",
  "ads": false,
  "premier": "1997-08-13",
  "premier_rus": "1997-08-14",
  "availability": "1997-08-15",
  "activate_time": "2020-07-15 12:37:00",
  "budget": "$3 500 000",
  "fees_use": "$45 950 122",
  "fees_world": "$257 850 122",
  "fees_rus": "$240 000",
  "rate_mpaa": "R",
  "description": "В небольшом английском городке Шеффилд закрывается сталелитейный завод. Успех заехавшей в Шеффилд группы мужских стриптизёров рождает у одного из бывших работников завода идею организовать своё стриптиз-шоу, чтобы хоть как-то сводить концы с концами. А поскольку бывшие сталевары не отличаются ни идеальным телом, ни умением танцевать, то необходимо придумать что-то ещё для привлечения женского внимания…",
  "iframe_url": "",
  "iframe_poster": null,
  "poster": "https://img.imgilall.me/movies/franchise/3/3/3/0/0/0/0/0/0/0/610x900_33300.jpg",
  "country": {
    "1": "США",
    "2": "Великобритания"
  },
  "collection": {
    "114": "Лаурет премии \"Оскар\"",
    "5": "С наградами"
  },
  "genre": {
    "19": "Комедия",
    "7": "Драма"
  },
  "director": [
    "Питер Каттанео"
  ],
  "screenwriter": [
    "Саймон Бофой"
  ],
  "producer": [
    "Уберто Пазолини",
    "Пол Бакнор",
    "Полли Лейс"
  ],
  "operator": [
    "Джон де Борман"
  ],
  "composer": [
    "Энн Дадли"
  ],
  "design": [
    "Макс Готтлиб",
    "Крис Руп",
    "Джилл Тейлор"
  ],
  "editor": [
    "Дэвид Фриман",
    "Ник Мур"
  ],
  "actors": [
    "Роберт Карлайл",
    "Марк Эдди",
    "Уильям Снейп",
    "Том Уилкинсон",
    "Стив Хисон",
    "Пол Барбер",
    "Хьюго Спир",
    "Лесли Шарп",
    "Эмили Вуф",
    "Дирдри Костильо"
  ],
  "actors_dubl": [
    "Валерий Кухарешин",
    "Сергей Паршин",
    "Валерий Никитенко",
    "Юрий Овсянко",
    "Валерий Кравченко"
  ],
  "trivia": [
    "Дэнни Бойлу было предложено стать режиссёром картины, но он отказался, поскольку сценарий не заинтересовал его.",
    "Название фильма на британском сленге (Full Monty) означает «полностью», «целиком». Не знавших этого американских боссов киностудии оно привело в замешательство, поскольку в фильме не было ни одного персонажа по имени Монти.",
    "Рабочим названием фильма было «Яйца, бобы и чиппендейлы» (Eggs, Beans and Chippendales). Чиппендейлы — английское название группы наполовину обнаженных мужчин, танцующих для женской аудитории в ночных клубах.",
    "Шесть актёров, сыгравших главные роли в фильме, на самом деле исполнили полный стриптиз в присутствии 400 человек. Режиссёр Питер Каттанео описал это как сделку «без дублей» между ним и актёрами.",
    "Сцена с персонажем по прозвищу «Конь» в телефонной будке снималась три раза. В первый раз разговор подслушивала пожилая женщина, стоящая снаружи. Во второй раз подслушиванием занималась компания развлекающихся девушек. После того как оба варианта были отвергнуты, сцену пересняли заново, на этот раз без посторонних.",
    "Во время съёмок финального фрагмента хореограф лежал прямо перед сценой, вне видимости камер, и выкрикивал инструкции для актёров.",
    "Первоначальная версия фильма оказалась слишком короткой, и через три месяца после окончания съёмок был снят ряд дополнительных сцен. Это прошло без участия Роберта Карлайла, который к тому времени уже был занят в другом проекте.",
    "Многие американские кинотеатры к показу картины выпустили специальные буклеты для зрителей с переводом британского сленга, оставленного в американской версии фильма, для того чтобы сделать диалоги более понятными для аудитории.",
    "В ноябре 1998 года Принц Чарльз заново поставил для национального телевидения сцену, происходящую в офисе приёма безработных при участии молодых членов благотворительной британской организации Prince`s Trust («Фонд Принца»).",
    "Успех фильма повлёк за собой создание бродвейского мюзикла с тем же названием, при этом персонажи и место действия были американизированы. Премьера мюзикла прошла в Сан-Диего, а на Бродвее он дебютировал 26 октября 2000 года и впоследствии был удостоен ряда престижных наград.",
    "До настоящего времени «Мужской стриптиз» с кассовыми сборами в 52 232 058 фунтов стерлингов (11 096 718 проданных билетов) остаётся самой кассовой британской кинолентой в национальном кинопрокате."
  ],
  "trailers": [],
  "seasons": [],
  "voiceActing": [
    "Премьер Видео Фильм",
    "Лазер Видео",
    "Д. Есарев",
    "Карповский",
    "Eng.Original"
  ],
  "subtitle": [
    "Рус. полные"
  ],
  "parts": []
}
