{
  "id": 33705,
  "name": "Если бы эти стены могли говорить 2",
  "name_eng": "If These Walls Could Talk 2",
  "year": 2000,
  "slogan": "«Women love women»",
  "age": "16+",
  "type": "film",
  "quality": "SD",
  "imdb": null,
  "imdb_id": null,
  "kinopoisk": "7.7",
  "kinopoisk_id": "77330",
  "world_art": null,
  "world_art_id": null,
  "time": "96 мин. / 01:36",
  "ads": false,
  "premier": "2000-03-05",
  "premier_rus": "2000-03-06",
  "availability": "2000-03-07",
  "activate_time": "2020-07-15 11:28:00",
  "budget": null,
  "fees_use": null,
  "fees_world": null,
  "fees_rus": null,
  "rate_mpaa": "R",
  "description": "Три женщины сняли три новеллы о любви и любовных отношениях, в которых есть все, кроме… мужчин.",
  "iframe_url": "",
  "iframe_poster": null,
  "poster": "https://img.imgilall.me/movies/franchise/3/3/7/0/5/0/0/0/0/0/610x900_33705.jpg",
  "country": {
    "1": "США"
  },
  "collection": [],
  "genre": {
    "8": "Мелодрама",
    "7": "Драма"
  },
  "director": [
    "Джейн Андерсон",
    "Марта Кулидж",
    "Энн Хеч"
  ],
  "screenwriter": [
    "Сильвия Сичел",
    "Джейн Андерсон",
    "Энн Хеч"
  ],
  "producer": [
    "Мэри Кэйн",
    "Эллен ДеДженерес",
    "Памела Пост"
  ],
  "operator": [
    "Питер Диминг",
    "Пол Эллиот",
    "Робби Гринберг"
  ],
  "composer": [
    "Бэзил Поледурис"
  ],
  "design": [
    "Нина Руссо",
    "Джулия Кэстон",
    "Зузан Мина Эшельбах"
  ],
  "editor": [
    "Маргарет Гудспид"
  ],
  "actors": [
    "Ванесса Редгрейв",
    "Мишель Уильямс",
    "Хлоя Севиньи",
    "Шэрон Стоун",
    "Эллен ДеДженерес",
    "Мэриэн Селдес",
    "Пол Джаматти",
    "Элизабет Перкинс",
    "Ниа Лонг",
    "Реджина Кинг"
  ],
  "actors_dubl": [
    "Сергей Чихачёв"
  ],
  "trivia": [],
  "trailers": [],
  "seasons": [],
  "voiceActing": [
    "Diva Universal"
  ],
  "subtitle": [],
  "parts": []
}
