{
  "id": 30759,
  "name": "Это случилось в долине",
  "name_eng": "Down in the Valley",
  "year": 2004,
  "slogan": "«Sometimes it's hard to find your way...»",
  "age": "16+",
  "type": "film",
  "quality": "HD (720p)",
  "imdb": "6.4",
  "imdb_id": "0",
  "kinopoisk": "6.5",
  "kinopoisk_id": "77551",
  "world_art": null,
  "world_art_id": null,
  "time": "108 мин. / 01:48",
  "ads": false,
  "premier": "2005-05-13",
  "premier_rus": "2005-12-29",
  "availability": "2005-12-30",
  "activate_time": "2020-07-12 08:35:00",
  "budget": "$8 000 000",
  "fees_use": "$568 932",
  "fees_world": "+ $283 940 = $852 872",
  "fees_rus": null,
  "rate_mpaa": "R",
  "description": "Происходящая на окраине Лос-Анджелеса история скучающей девушки-подростка Тоуб, чьё бесцветное существование полностью преображается после случайной встречи с Харланом Каррутерсом, харизматичным ковбоем, который выглядит абсолютно чужим в городских джунглях Лос-Анджелеса. Поэтическое обаяние и романтическая душа Харлана привлекают Тоуб и она воплощает в нём всю чистоту и невинность, которые практически невозможно встретить на улицах современного Лос-Анджелеса. Восприимчивый и чувствительный младший брат Тоуб, Лонни также привязывается к Харлану.Несмотря на очевидную разницу в возрасте, социальной среде героев и растущее сопротивление отца Тоуб, Вейда, их страстный, но скрытный от других роман продолжается до тех пор, пока становится очевидным, что Тоуб не готова к столь необыкновенной силе любви Харлана. События неожиданно приобретают опасный поворот после того как Тоуб узнаёт, что Харлан вовсе не тот человек, каким он казался ей.",
  "iframe_url": "",
  "iframe_poster": null,
  "poster": "https://img.imgilall.me/movies/franchise/3/0/7/5/9/0/0/0/0/0/610x900_30759.jpg",
  "country": {
    "1": "США"
  },
  "collection": [],
  "genre": {
    "29": "Вестерн",
    "13": "Триллер",
    "8": "Мелодрама",
    "7": "Драма"
  },
  "director": [
    "Дэвид Джейкобсон"
  ],
  "screenwriter": [
    "Дэвид Джейкобсон"
  ],
  "producer": [
    "Ставрос Мержос",
    "Эдвард Нортон",
    "Адам Розенфельт"
  ],
  "operator": [
    "Энрике Чедьяк"
  ],
  "composer": [
    "Питер Салетт"
  ],
  "design": [
    "Франко-Джакомо Карбоне",
    "Майкл Этвелл",
    "Жаклин Уэст"
  ],
  "editor": [
    "Дэвид Джейкобсон",
    "Линзи Клингмэн",
    "Эдвард Нортон"
  ],
  "actors": [
    "Эдвард Нортон",
    "Эван Рэйчел Вуд",
    "Дэвид Морс",
    "Рори Калкин",
    "Брюс Дерн",
    "Джон Дил",
    "Джеффри Льюис",
    "Элизабет Пенья",
    "Кэт Деннингс",
    "Хантер Пэрриш"
  ],
  "actors_dubl": [],
  "trivia": [],
  "trailers": [],
  "seasons": [],
  "voiceActing": [
    "Diva Universal"
  ],
  "subtitle": [],
  "parts": []
}
