{
  "id": 19121,
  "name": "Птицы",
  "name_eng": "Le peuple migrateur",
  "year": 2001,
  "slogan": "«Вокруг света с птицами»",
  "age": "0+",
  "type": "film",
  "quality": "FHD (1080p)",
  "imdb": "8.0",
  "imdb_id": "0301727",
  "kinopoisk": "8.1",
  "kinopoisk_id": "7790",
  "world_art": null,
  "world_art_id": null,
  "time": "98 мин. / 01:38",
  "ads": false,
  "premier": "2001-12-12",
  "premier_rus": "2002-09-26",
  "availability": "2002-09-27",
  "activate_time": "2020-05-18 20:12:00",
  "budget": "FRF 160 000 000",
  "fees_use": "$11 689 053",
  "fees_world": "+ $20 568 700 = $32 257 753",
  "fees_rus": null,
  "rate_mpaa": "G",
  "description": "Этот сенсационный фильм - зрелище настолько завораживающее, что никакие спецэффекты не смогли бы передать невообразимую реальность происходящего. Работа операторов поистине уникальна - впервые в истории кино птиц снимали непосредственно во время полета.Чтобы запечатлеть сезонные миграции главных героев, была максимально усовершенствована съемочная техника, ведь снимать пришлось и в арктическом холоде, и в болоте, и в тумане, а главное - были разработаны сверхлегкие летательные аппараты, способные летать со скоростью и на высоте птиц. Над фильмом работало около 500 человек из разных стран мира, съемки заняли целых три года.",
  "iframe_url": "",
  "iframe_poster": null,
  "poster": "https://img.imgilall.me/movies/franchise/1/9/1/2/1/0/0/0/0/0/610x900_19121.jpg",
  "country": {
    "3": "Испания",
    "8": "Италия",
    "9": "Франция",
    "10": "Швейцария",
    "20": "Германия"
  },
  "collection": [],
  "genre": {
    "54": "Документальный"
  },
  "director": [
    "Жак Перрен",
    "Жак Клюзо",
    "Мишель Деба"
  ],
  "screenwriter": [
    "Жан Дорст",
    "Стефан Дюран",
    "Ги Жарри"
  ],
  "producer": [
    "Жак Перрен",
    "Кристоф Барратье",
    "Рейнхард Брюндиг"
  ],
  "operator": [
    "Олли Барбэ",
    "Мишель Бенжамен",
    "Сильви Карседо-Дрёжу"
  ],
  "composer": [
    "Бруно Куле"
  ],
  "design": [
    "Режис Николино"
  ],
  "editor": [
    "Мари-Жозеф Йойотт"
  ],
  "actors": [
    "Филипп Лабро",
    "Жак Перрен"
  ],
  "actors_dubl": [],
  "trivia": [
    "С целью добиться того, чтобы птицы не пугались звуков, производимых людьми и кинокамерами, создатели фильма начали приучать к ним некоторых птиц еще до того, как те вылупились из яиц.",
    "Эпизод, в котором гусь застревает в индустриальном отстойнике, был преднамеренно организован создателями фильма. После съемок эпизода птица была немедленно освобождена.",
    "А вот эпизод с раненой крачкой, окруженной крабами, не был заранее подготовлен. Птица была спасена съемочной группой сразу после окончания съемки — практически в последний момент."
  ],
  "trailers": [],
  "seasons": [],
  "voiceActing": [
    "Рус. Одноголосый",
    "Fr. Original",
    "Eng.Original"
  ],
  "subtitle": [],
  "parts": []
}
