{
  "id": 18723,
  "name": "Неукротимая Анжелика",
  "name_eng": "Indomptable Angélique",
  "year": 1967,
  "slogan": "—",
  "age": "16+",
  "type": "film",
  "quality": "HD (720p)",
  "imdb": "6.6",
  "imdb_id": "0061819",
  "kinopoisk": "7.9",
  "kinopoisk_id": "77359",
  "world_art": null,
  "world_art_id": null,
  "time": "95 мин. / 01:35",
  "ads": false,
  "premier": "1967-10-27",
  "premier_rus": "1967-10-28",
  "availability": "1967-10-29",
  "activate_time": "2020-05-12 21:40:00",
  "budget": null,
  "fees_use": null,
  "fees_world": null,
  "fees_rus": null,
  "rate_mpaa": null,
  "description": "Поиски мужа приводят Анжелику к морскому побережью, где следы Жоффре де Пейрака обрываются... Капитан королевской галеры, пораженный красотой молодой женщины, принуждает ее подняться на борт и сопровождать его в плавании.",
  "iframe_url": "",
  "iframe_poster": null,
  "poster": "https://img.imgilall.me/movies/franchise/1/8/7/2/3/0/0/0/0/0/610x900_18723.jpg",
  "country": {
    "8": "Италия",
    "9": "Франция",
    "38": "Германия (ФРГ)"
  },
  "collection": {
    "71": "Про путешествия",
    "38": "Про любовь",
    "11": "Для женщин"
  },
  "genre": {
    "9": "Приключения"
  },
  "director": [
    "Бернар Бордери"
  ],
  "screenwriter": [
    "Бернар Бордери",
    "Франсис Кон",
    "Паскаль Жарден"
  ],
  "producer": [
    "Франсуа Шавен",
    "Франсис Кон"
  ],
  "operator": [
    "Анри Персен"
  ],
  "composer": [
    "Мишель Мань"
  ],
  "design": [
    "Робер Джордани",
    "Розин Деламар",
    "Мария Насалли Рокка"
  ],
  "editor": [
    "Кристиан Годен"
  ],
  "actors": [
    "Мишель Мерсье",
    "Робер Оссейн",
    "Роже Пиго",
    "Кристиан Роде",
    "Этторе Манни",
    "Бруно Дитрих",
    "Паскуале Мартино",
    "Зигхардт Рупп",
    "Польдо Бенданди",
    "Омеро Капанна"
  ],
  "actors_dubl": [
    "Наталья Казначеева",
    "Ольга Зубкова",
    "Вячеслав Тихонов",
    "Всеволод Кузнецов",
    "Владислав Ковальков"
  ],
  "trivia": [
    "Экранизация четвёртой одноимённой части многотомного романа о приключениях Анжелики, написанного Анн и Сержем Голон.",
    "Фильм «Неукротимая Анжелика», объединённый со следующей серией «Анжелика и султан», демонстрировался в советском кинопрокате в 1987 году под названием «Неукротимая маркиза».",
    "Фильм был снят почти полностью в Италии, в основном на Сардинии. Сцены на рынке рабов сняты в городе Сиди-Бу-Саид (Тунис)."
  ],
  "trailers": [],
  "seasons": [],
  "voiceActing": [
    "Рус. Дублированный",
    "Fr. Original"
  ],
  "subtitle": [],
  "parts": [
    17460,
    18723
  ]
}
