{
  "id": 17142,
  "name": "Диана",
  "name_eng": "Diane",
  "year": 2017,
  "slogan": "—",
  "age": "16++",
  "type": "film",
  "quality": "SD",
  "imdb": "4.3",
  "imdb_id": "3021984",
  "kinopoisk": null,
  "kinopoisk_id": "775915",
  "world_art": null,
  "world_art_id": null,
  "time": "82 мин. / 01:22",
  "ads": true,
  "premier": "2017-08-24",
  "premier_rus": "2017-08-25",
  "availability": "2017-08-26",
  "activate_time": "2020-05-02 07:48:00",
  "budget": "$100 000",
  "fees_use": "",
  "fees_world": "",
  "fees_rus": "",
  "rate_mpaa": "",
  "description": "Когда ветеран войны Стив обнаруживает тело привлекательной молодой девушки во дворе своего дома, он словно влюбляется в неё и даже делает фотографию трупа. По приезду полиции выясняется, что девушку закололи отверткой, при этом хозяин дома становится главным подозреваемым, несмотря на заявление о том, что он впервые видит погибшую. После того, как главного героя отпустили за неимением доказательств, новость об этом инциденте мгновенно распространилась среди жителей небольшого городка, и в жизни Стива начались серьезные проблемы...",
  "iframe_url": "",
  "iframe_poster": null,
  "poster": "https://img.imgilall.me/movies/franchise/1/7/1/4/2/0/0/0/0/0/610x900_17142.jpg",
  "country": {
    "1": "США"
  },
  "collection": [],
  "genre": {
    "25": "Криминал",
    "26": "Ужасы",
    "24": "Детектив",
    "13": "Триллер",
    "10": "Зарубежный",
    "7": "Драма"
  },
  "director": [
    "Майкл Монгилло"
  ],
  "screenwriter": [
    "Matt Giannini",
    "Майкл Монгилло"
  ],
  "producer": [
    "Дэвис Майклс",
    "Томас Эдвард Сеймур",
    "Тейлор Уоррен"
  ],
  "operator": [
    "Энтони Э. Гриффин"
  ],
  "composer": [
    "Остин Уинтори"
  ],
  "design": [
    "Сюзанн М. Маркиз"
  ],
  "editor": [
    "Майкл Монгилло",
    "Джефф Рейли",
    "Тейлор Уоррен"
  ],
  "actors": [
    "Джейсон Алан Смит",
    "Карли Аверс",
    "Маргарет Роуз Шампейн",
    "Дик Боланд",
    "Jim Thalman",
    "Даг Томпош",
    "Райан МакКарти",
    "Дэвис Майклс",
    "Кэти Сирл",
    "Сьюэлл Уитни"
  ],
  "actors_dubl": [],
  "trivia": [],
  "trailers": [],
  "seasons": [],
  "voiceActing": [
    "HDRezka Studio"
  ],
  "subtitle": [
    "Рус. форсированные"
  ],
  "parts": []
}
