{
  "id": 24088,
  "name": "В поисках Вивиан Майер",
  "name_eng": "Finding Vivian Maier",
  "year": 2013,
  "slogan": "«The discovery that rocked the art world»",
  "age": "18+",
  "type": "film",
  "quality": "FHD (1080p)",
  "imdb": "7.7",
  "imdb_id": "2714900",
  "kinopoisk": "7.8",
  "kinopoisk_id": "779092",
  "world_art": null,
  "world_art_id": null,
  "time": "83 мин. / 01:23",
  "ads": false,
  "premier": "2013-09-09",
  "premier_rus": "2013-09-10",
  "availability": "2013-09-11",
  "activate_time": "2020-06-17 12:55:00",
  "budget": null,
  "fees_use": "$1 509 131",
  "fees_world": null,
  "fees_rus": null,
  "rate_mpaa": null,
  "description": "Вивиан Майер (1926-2009) всю жизнь работала няней, однако после смерти среди её вещей было обнаружено около ста тысяч фотографий, некоторые из которых являются настоящими шедеврами. Эта находка сделала Майер одной из величайших фотографов 20-го века. Этот фильм рассказывает о жизни женщины, которая вела такую необычную двойную жизнь.",
  "iframe_url": "",
  "iframe_poster": null,
  "poster": "https://img.imgilall.me/movies/franchise/2/4/0/8/8/0/0/0/0/0/610x900_24088.jpg",
  "country": {
    "1": "США"
  },
  "collection": [],
  "genre": {
    "54": "Документальный",
    "27": "Биографический",
    "24": "Детектив"
  },
  "director": [
    "Джон Малуф",
    "Чарли Сискел"
  ],
  "screenwriter": [
    "Джон Малуф",
    "Чарли Сискел"
  ],
  "producer": [
    "Джон Малуф",
    "Чарли Сискел",
    "Джефф Гарлин"
  ],
  "operator": [
    "Джон Малуф"
  ],
  "composer": [
    "Джошуа Ральф"
  ],
  "design": [],
  "editor": [
    "Аарон Уикенден"
  ],
  "actors": [
    "Вивиан Майер",
    "Джон Малуф",
    "Даниэль Арно",
    "Симон Амеде",
    "Марен Бэйлэндер",
    "Ойла Бисс",
    "Bindy Bitterman",
    "Роджер Карлсон",
    "Фил Донахью",
    "Карен Фрэнк"
  ],
  "actors_dubl": [],
  "trivia": [],
  "trailers": [],
  "seasons": [],
  "voiceActing": [
    "Рус. Проф. многоголосый"
  ],
  "subtitle": [],
  "parts": []
}
