{
  "id": 24406,
  "name": "Белая графиня",
  "name_eng": "The White Countess",
  "year": 2005,
  "slogan": "—",
  "age": "12+",
  "type": "film",
  "quality": "HD (720p)",
  "imdb": "6.6",
  "imdb_id": "0384686",
  "kinopoisk": "6.8",
  "kinopoisk_id": "77528",
  "world_art": null,
  "world_art_id": null,
  "time": "135 мин. / 02:15",
  "ads": false,
  "premier": "2005-10-30",
  "premier_rus": "2006-04-13",
  "availability": "2006-04-14",
  "activate_time": "2020-06-23 14:16:00",
  "budget": "$16 000 000",
  "fees_use": "$1 669 971",
  "fees_world": "+ $2 384 236 = $4 054 207",
  "fees_rus": "$3 550",
  "rate_mpaa": "PG-13",
  "description": "Действие фильма разворачивается в конце 30-х годов в Шанхае. Ослепший американский дипломат страстно влюбляется в эмигрировавшую из Советской России овдовевшую красавицу-графиню, которая всеми силами старается поддержать семью своего покойного мужа. Она готова на все, даже на то, чтобы преступить закон…",
  "iframe_url": "",
  "iframe_poster": null,
  "poster": "https://img.imgilall.me/movies/franchise/2/4/4/0/6/0/0/0/0/0/610x900_24406.jpg",
  "country": {
    "1": "США",
    "2": "Великобритания",
    "19": "Китай",
    "20": "Германия"
  },
  "collection": [],
  "genre": {
    "32": "Военный",
    "28": "Исторический",
    "8": "Мелодрама",
    "7": "Драма"
  },
  "director": [
    "Джеймс Айвори"
  ],
  "screenwriter": [
    "Кадзуо Исигуро"
  ],
  "producer": [
    "Исмаил Мерчант",
    "Рахила Бутвала",
    "Пол Брэдли"
  ],
  "operator": [
    "Кристофер Дойл"
  ],
  "composer": [
    "Ричард Роббинс"
  ],
  "design": [
    "Эндрю Сандерс",
    "Чен Шаомян",
    "Steve Simmonds"
  ],
  "editor": [
    "Джон Дэвид Аллен"
  ],
  "actors": [
    "Рэйф Файнс",
    "Наташа Ричардсон",
    "Ванесса Редгрейв",
    "Линн Редгрейв",
    "Хироюки Санада",
    "Мэдлин Поттер",
    "Мадлен Дэйли",
    "Джон Вуд",
    "Аллан Кордунер",
    "Тимур Енгалычев"
  ],
  "actors_dubl": [],
  "trivia": [],
  "trailers": [],
  "seasons": [],
  "voiceActing": [
    "Diva Universal"
  ],
  "subtitle": [],
  "parts": []
}
