{
  "id": 33649,
  "name": "Ужасная часовня",
  "name_eng": "The Dooms Chapel Horror",
  "year": 2016,
  "slogan": "—",
  "age": null,
  "type": "film",
  "quality": "SD",
  "imdb": "3.5",
  "imdb_id": "0",
  "kinopoisk": null,
  "kinopoisk_id": "770991",
  "world_art": null,
  "world_art_id": null,
  "time": "94 мин. / 01:34",
  "ads": false,
  "premier": "2016-06-14",
  "premier_rus": "2016-06-15",
  "availability": "2016-06-16",
  "activate_time": "2020-06-28 08:19:00",
  "budget": null,
  "fees_use": null,
  "fees_world": null,
  "fees_rus": null,
  "rate_mpaa": null,
  "description": null,
  "iframe_url": "",
  "iframe_poster": null,
  "poster": "https://img.imgilall.me/movies/franchise/3/3/6/4/9/0/0/0/0/0/610x900_33649.jpg",
  "country": {
    "1": "США"
  },
  "collection": [],
  "genre": {
    "26": "Ужасы",
    "24": "Детектив",
    "13": "Триллер"
  },
  "director": [
    "Джон Холт"
  ],
  "screenwriter": [
    "Джейсон Тернер"
  ],
  "producer": [
    "Кристофер Бауэр",
    "Kyle Davis",
    "Meghan Davis"
  ],
  "operator": [
    "Джеймс Хоук"
  ],
  "composer": [
    "Josh Coffey"
  ],
  "design": [
    "Daniel Yocum"
  ],
  "editor": [
    "Leland Schuler"
  ],
  "actors": [
    "Билл Оберст мл.",
    "Austin Madding",
    "Abby Murphy",
    "Josh Cornelius",
    "Джошуа Марк Робинсон",
    "Венди Килинг",
    "Alan Walters",
    "Уильям Райан Уотсон",
    "Easton Lee McCuiston",
    "Кристофер Бауэр"
  ],
  "actors_dubl": [],
  "trivia": [],
  "trailers": [],
  "seasons": [],
  "voiceActing": [
    "Рус. Люб. многоголосый"
  ],
  "subtitle": [],
  "parts": []
}
