{
  "id": 18150,
  "name": "Ищите женщину",
  "name_eng": "",
  "year": 1982,
  "slogan": "—",
  "age": "0+",
  "type": "series",
  "quality": "SD",
  "imdb": "7.9",
  "imdb_id": "0084155",
  "kinopoisk": "8.2",
  "kinopoisk_id": "77277",
  "world_art": null,
  "world_art_id": null,
  "time": "152 мин. / 02:32",
  "ads": false,
  "premier": "1983-01-01",
  "premier_rus": "1983-01-02",
  "availability": "1983-01-03",
  "serial_status": "offline",
  "activate_time": "2020-05-08 10:25:00",
  "budget": null,
  "fees_use": null,
  "fees_world": null,
  "fees_rus": null,
  "rate_mpaa": null,
  "description": "В нотариальной конторе обнаружен покойник. В поиски убийцы включается секретарь конторы — женщина неукротимой энергии. Постепенно выясняется, что чрезмерная активность самодеятельного сыщика не лучшим образом влияет на расследование.",
  "iframe_url": "",
  "poster": "https://img.imgilall.me/movies/franchise/1/8/1/5/0/0/0/0/0/0/610x900_18150.jpg",
  "country": {
    "24": "СССР"
  },
  "collection": [],
  "genre": {
    "25": "Криминал",
    "19": "Комедия"
  },
  "director": [
    "Алла Сурикова"
  ],
  "screenwriter": [
    "Светлана Володина",
    "Робер Тома"
  ],
  "producer": [],
  "operator": [
    "Михаил Агранович"
  ],
  "composer": [
    "Виктор Лебедев"
  ],
  "design": [
    "Михаил Корташов",
    "Ганна Ганевская"
  ],
  "editor": [
    "Людмила Елян"
  ],
  "actors": [
    "Софико Чиаурели",
    "Леонид Куравлёв",
    "Сергей Юрский",
    "Александр Абдулов",
    "Елена Соловей",
    "Леонид Ярмольник",
    "Людмила Дмитриева",
    "Елена Укращенок",
    "Владимир Басов",
    "Нина Тер-Осипян"
  ],
  "actors_dubl": [],
  "trivia": [
    "В начале 1-й серии Алиса смотрит по телевизору детектив «Свидетелей надо прикончить» с Бельмондо (которого она обожает) в главной роли, и далее пересказывает содержание фильма по телефону подруге. Использованы кадры из фильма «Частный детектив» (L’Alpagueur), в котором главную роль действительно исполняет Бельмондо. Сюжет, рассказываемый Алисой, разумеется, не имеет ничего общего с сюжетом «Частного детектива».",
    "В начале фильма идет панорама Парижа, которую снимали без всякого разрешения на съемку, просто установив камеру в машине.",
    "Все упомянутые в фильме адреса действительно существуют. По адресу Робера де Шаранса (Rue des Gobelins 19), стоит исторический дом, который находится под охраной государства.",
    "Все газеты и журналы в фильме действительно французские. На одном журнале даже видна реклама часов Cartier модели Santos.",
    "Около рабочего стола мадемуазель Постик висит настоящий Scotch.",
    "В начале каждой серии использованы кадры французских кинолент «Частный детектив» (1976) и «Смерть негодяя» (1977)."
  ],
  "trailers": [],
  "seasons": [
    {
      "poster": null,
      "release_ru": null,
      "release_world": null,
      "availability": null,
      "iframe_url": "",
      "season": 1,
      "episodes": [
        {
          "episode": 1,
          "name": null,
          "iframe_url": "",
          "iframe_poster": null,
          "release_ru": null,
          "release_world": null,
          "availability": null,
          "voiceActing": [
            "Рус. Оригинальный"
          ],
          "ads": false,
          "subtitle": []
        },
        {
          "episode": 2,
          "name": null,
          "iframe_url": "",
          "iframe_poster": null,
          "release_ru": null,
          "release_world": null,
          "availability": null,
          "voiceActing": [
            "Рус. Оригинальный"
          ],
          "ads": false,
          "subtitle": []
        }
      ]
    }
  ],
  "voiceActing": [
    "Рус. Оригинальный"
  ],
  "subtitle": [],
  "parts": []
}
