{
  "id": 51033,
  "name": "Седьмая руна",
  "name_eng": "",
  "year": 2014,
  "slogan": "—",
  "age": "16+",
  "type": "series",
  "quality": "SD",
  "imdb": "6.5",
  "imdb_id": "0",
  "kinopoisk": "6.3",
  "kinopoisk_id": "773928",
  "world_art": null,
  "world_art_id": null,
  "time": "50 мин. серия (400 мин. всего)",
  "ads": false,
  "premier": "2015-04-05",
  "premier_rus": "2015-04-06",
  "availability": "2015-04-07",
  "serial_status": "offline",
  "activate_time": "2021-09-29 16:39:00",
  "budget": null,
  "fees_use": null,
  "fees_world": null,
  "fees_rus": null,
  "rate_mpaa": null,
  "description": "В городе Н-ск при загадочных обстоятельствах погибает дочь губернатора. Для выяснения обстоятельств её смерти в город Н-ск из Москвы приезжает следователь Олег Нестеров. В том месте, где нашли тело девушки, проходила ролевая игра по карело-финскому эпосу «Калевала», и председатель ролевиков Вера параллельно начинает свое расследование. Однако новые жертвы и серия загадочных событий все больше запутывают Олега и Веру. А вскоре Нестеров понимает, что в Н-ске играют не только ролевики. И банкир, и прокурор, и губернатор вовлечены в некую странную азартную игру, смысл которой скрыт от непосвященных.",
  "iframe_url": "",
  "poster": "https://img.imgilall.me/movies/franchise/5/1/0/3/3/0/0/0/0/0/610x900_51033.jpg",
  "country": {
    "5": "Россия"
  },
  "collection": [],
  "genre": {
    "9": "Приключения",
    "24": "Детектив",
    "13": "Триллер"
  },
  "director": [
    "Сергей Попов"
  ],
  "screenwriter": [
    "Сергей Дяченко",
    "Марина Дяченко",
    "Алексей Сидоров"
  ],
  "producer": [
    "Рубен Дишдишян",
    "Елена Денисевич",
    "Арам Мовсесян"
  ],
  "operator": [
    "Денис Чабанко"
  ],
  "composer": [
    "Дарин Сысоев"
  ],
  "design": [
    "Сергей Гудилин",
    "Татьяна Пояркова",
    "Евгений Архангельский"
  ],
  "editor": [
    "Алексей Слепов",
    "Любава Нечистяк"
  ],
  "actors": [
    "Юрий Колокольников",
    "Юлия Снигирь",
    "Дмитрий Куличков",
    "Виктор Сухоруков",
    "Дмитрий Ульянов",
    "Роман Мадянов",
    "Юрий Цурило",
    "Мария Сокова",
    "Константин Чепурин",
    "Дарья Екамасова"
  ],
  "actors_dubl": [
    "Элиза Мартиросова"
  ],
  "trivia": [],
  "trailers": [],
  "seasons": [
    {
      "poster": null,
      "release_ru": null,
      "release_world": null,
      "availability": null,
      "iframe_url": "",
      "season": 1,
      "episodes": [
        {
          "episode": 1,
          "name": null,
          "iframe_url": "",
          "iframe_poster": null,
          "release_ru": null,
          "release_world": null,
          "availability": null,
          "voiceActing": [
            "Рус. Оригинальный"
          ],
          "ads": false,
          "subtitle": []
        },
        {
          "episode": 2,
          "name": null,
          "iframe_url": "",
          "iframe_poster": null,
          "release_ru": null,
          "release_world": null,
          "availability": null,
          "voiceActing": [
            "Рус. Оригинальный"
          ],
          "ads": false,
          "subtitle": []
        },
        {
          "episode": 3,
          "name": null,
          "iframe_url": "",
          "iframe_poster": null,
          "release_ru": null,
          "release_world": null,
          "availability": null,
          "voiceActing": [
            "Рус. Оригинальный"
          ],
          "ads": false,
          "subtitle": []
        },
        {
          "episode": 4,
          "name": null,
          "iframe_url": "",
          "iframe_poster": null,
          "release_ru": null,
          "release_world": null,
          "availability": null,
          "voiceActing": [
            "Рус. Оригинальный"
          ],
          "ads": false,
          "subtitle": []
        },
        {
          "episode": 5,
          "name": null,
          "iframe_url": "",
          "iframe_poster": null,
          "release_ru": null,
          "release_world": null,
          "availability": null,
          "voiceActing": [
            "Рус. Оригинальный"
          ],
          "ads": false,
          "subtitle": []
        },
        {
          "episode": 6,
          "name": null,
          "iframe_url": "",
          "iframe_poster": null,
          "release_ru": null,
          "release_world": null,
          "availability": null,
          "voiceActing": [
            "Рус. Оригинальный"
          ],
          "ads": false,
          "subtitle": []
        },
        {
          "episode": 7,
          "name": null,
          "iframe_url": "",
          "iframe_poster": null,
          "release_ru": null,
          "release_world": null,
          "availability": null,
          "voiceActing": [
            "Рус. Оригинальный"
          ],
          "ads": false,
          "subtitle": []
        },
        {
          "episode": 8,
          "name": null,
          "iframe_url": "",
          "iframe_poster": null,
          "release_ru": null,
          "release_world": null,
          "availability": null,
          "voiceActing": [
            "Рус. Оригинальный"
          ],
          "ads": false,
          "subtitle": []
        }
      ]
    }
  ],
  "voiceActing": [
    "Рус. Оригинальный"
  ],
  "subtitle": [],
  "parts": []
}
