{
  "id": 30996,
  "name": "Чья-то мать",
  "name_eng": "Somebody's Mother",
  "year": 2016,
  "slogan": "«Two sisters struggle with what it means to be a mother. One after the sudden loss of her baby, the other with her own inability to care for her young child. Together they find hope in the face of tragedy»",
  "age": null,
  "type": "film",
  "quality": "HD (720p)",
  "imdb": "7.3",
  "imdb_id": "0",
  "kinopoisk": null,
  "kinopoisk_id": "779754",
  "world_art": null,
  "world_art_id": null,
  "time": "83 мин. / 01:23",
  "ads": false,
  "premier": "2016-03-04",
  "premier_rus": "2016-03-05",
  "availability": "2016-03-06",
  "activate_time": "2020-07-11 17:40:00",
  "budget": null,
  "fees_use": null,
  "fees_world": null,
  "fees_rus": null,
  "rate_mpaa": null,
  "description": "Две сестры, две матери. Каждая переживает личную трагедию: сын Клэр умирает спустя 11 дней после рождения, а Анна не испытывает материнских чувств к своему ребенку. Вместе они пытаются пройти все стадии принятия неизбежности ситуаций.",
  "iframe_url": "",
  "iframe_poster": null,
  "poster": "https://img.imgilall.me/movies/franchise/3/0/9/9/6/0/0/0/0/0/610x900_30996.jpg",
  "country": {
    "1": "США"
  },
  "collection": [],
  "genre": {
    "33": "Семейный",
    "7": "Драма"
  },
  "director": [
    "Габриела Толлман"
  ],
  "screenwriter": [
    "Эвелин Толлман",
    "Габриела Толлман"
  ],
  "producer": [
    "Томас Этан Харрис",
    "Карен Лавендер",
    "Эвелин Толлман"
  ],
  "operator": [
    "Фортунато Прокопио"
  ],
  "composer": [
    "Уолтер Верзова"
  ],
  "design": [
    "Элизабет А. Скотт"
  ],
  "editor": [
    "Tyler Hubby",
    "Габриела Толлман"
  ],
  "actors": [
    "Ричард Абрахам",
    "Дэниэл Эхерн",
    "Уайет Эхерн",
    "Уайет Джеймс Эхерн",
    "Томпани Декерт",
    "Брайан Донован",
    "Пола Элиотт",
    "Кори Грант",
    "Дженн Харп",
    "Надин Кадей"
  ],
  "actors_dubl": [],
  "trivia": [],
  "trailers": [],
  "seasons": [],
  "voiceActing": [
    "Рус. Люб. многоголосый"
  ],
  "subtitle": [],
  "parts": []
}
