{
  "id": 3286,
  "name": "Рождество в Конвей",
  "name_eng": "Christmas in Conway",
  "year": 2013,
  "slogan": "«He gave her a gift this town will never forget»",
  "age": "12+",
  "type": "film",
  "quality": "SD",
  "imdb": "6.8",
  "imdb_id": "3072182",
  "kinopoisk": "6.5",
  "kinopoisk_id": "782259",
  "world_art": null,
  "world_art_id": null,
  "time": "97 мин. / 01:37",
  "ads": false,
  "premier": "2013-12-01",
  "premier_rus": null,
  "availability": null,
  "activate_time": "2019-12-27 19:29:00",
  "budget": null,
  "fees_use": null,
  "fees_world": null,
  "fees_rus": null,
  "rate_mpaa": null,
  "description": "Сюзи недавно выписали из больницы, и ей нужен круглосуточный уход. Ее муж Дункан решает, что лучшее лекарство для Сюзи (и рождественский подарок, который она никогда не забудет) – это поездка на настоящем колесе обозрения, установленном в их собственном дворе. Почему именно колесо обозрения? Потому что в кабине такого колеса много лет назад Дункан сделал Сюзи предложение.",
  "iframe_url": "",
  "iframe_poster": null,
  "poster": "https://img.imgilall.me/movies/franchise/3/2/8/6/0/0/0/0/0/0/610x900_3286.jpg",
  "country": {
    "1": "США"
  },
  "collection": [],
  "genre": {
    "10": "Зарубежный",
    "8": "Мелодрама",
    "7": "Драма"
  },
  "director": [
    "Джон Кент Харрисон"
  ],
  "screenwriter": [
    "Стефен П. Линдси",
    "Луис Угас"
  ],
  "producer": [
    "Эндрю Готтлиб",
    "Пэм Фицджералд",
    "Камерон Йохан"
  ],
  "operator": [
    "Джеймс Крессэнтис"
  ],
  "composer": [
    "Джеф Дзанелли"
  ],
  "design": [
    "Стивен Марш",
    "Джонетта Бун",
    "Марта Пино"
  ],
  "editor": [
    "Дэвид Битти"
  ],
  "actors": [
    "Энди Гарсиа",
    "Мэнди Мур",
    "Шери Отери",
    "Райли Смит",
    "Мэри-Луиз Паркер",
    "Рик Райц",
    "Марк Джеффри Миллер",
    "Грег Перроу",
    "Джейсон Дэвис",
    "Андреа Пауэлл"
  ],
  "actors_dubl": [],
  "trivia": [],
  "trailers": [],
  "seasons": [],
  "voiceActing": [
    "Рус. Проф. многоголосый"
  ],
  "subtitle": [],
  "parts": []
}
