{
  "id": 1885,
  "name": "Безумно богатые азиаты",
  "name_eng": "Crazy Rich Asians",
  "year": 2018,
  "slogan": "«The only thing crazier than love is family»",
  "age": "16+",
  "type": "film",
  "quality": "FHD (1080p)",
  "imdb": "6.9",
  "imdb_id": "3104988",
  "kinopoisk": "6.8",
  "kinopoisk_id": "789174",
  "world_art": null,
  "world_art_id": null,
  "time": "120 мин. / 02:00",
  "ads": false,
  "premier": "2018-08-07",
  "premier_rus": null,
  "availability": null,
  "activate_time": "2018-08-30 22:07:39",
  "budget": "$30 000 000",
  "fees_use": "$174 532 921",
  "fees_world": "$238 532 921",
  "fees_rus": null,
  "rate_mpaa": "PG-13",
  "description": "Рэйчел Чу — американка китайского происхождения. Она отправляется вместе с бойфрендом в Сингапур на свадьбу его лучшего друга, где узнаёт, что её спутник на самом деле родом из безумно богатого семейства, и все местные женщины до смерти хотят за него замуж.",
  "iframe_url": "",
  "iframe_poster": null,
  "poster": "https://img.imgilall.me/movies/franchise/1/8/8/5/0/0/0/0/0/0/610x900_1885.jpg",
  "country": {
    "1": "США"
  },
  "collection": [],
  "genre": {
    "19": "Комедия",
    "10": "Зарубежный",
    "8": "Мелодрама"
  },
  "director": [
    "Джон М. Чу"
  ],
  "screenwriter": [
    "Пит Чиарелли",
    "Аделе Лим",
    "Кевин Кван"
  ],
  "producer": [
    "Нина Джейкобсон",
    "Джон Пенотти",
    "Брэд Симпсон"
  ],
  "operator": [
    "Ваня Чернюл"
  ],
  "composer": [
    "Брайан Тайлер"
  ],
  "design": [
    "Нельсон Коутс",
    "Лесли Ив",
    "Дэвид Ингрэм"
  ],
  "editor": [
    "Майрон И. Керстайн"
  ],
  "actors": [
    "Констанс Ву",
    "Генри Голдинг",
    "Мишель Йео",
    "Джемма Чан",
    "Лиза Лу",
    "Аквафина",
    "Гарри Шам мл.",
    "Кен Жонг",
    "Соноя Мидзуно",
    "Крис Пэнг"
  ],
  "actors_dubl": [
    "Вероника Саркисова",
    "Иван Калинин",
    "Елена Харитонова",
    "Екатерина Тихомирова",
    "Анна Киселёва"
  ],
  "trivia": [
    "Экранизация одноимённого романа (2013), который является первой частью трилогии писателя из Сингапура Кевина Квана."
  ],
  "trailers": [],
  "seasons": [],
  "voiceActing": [
    "Рус. Дублированный",
    "Eng.Original"
  ],
  "subtitle": [
    "Рус. форсированные"
  ],
  "parts": []
}
