{
  "id": 26342,
  "name": "Поездка",
  "name_eng": "Ride",
  "year": 2014,
  "slogan": "«When her son dropped out, she dropped in»",
  "age": "16+",
  "type": "film",
  "quality": "HD (720p)",
  "imdb": "5.7",
  "imdb_id": "1930463",
  "kinopoisk": "5.9",
  "kinopoisk_id": "784470",
  "world_art": null,
  "world_art_id": null,
  "time": "93 мин. / 01:33",
  "ads": false,
  "premier": "2014-11-08",
  "premier_rus": "2014-11-09",
  "availability": "2014-11-10",
  "activate_time": "2020-07-24 14:15:00",
  "budget": null,
  "fees_use": null,
  "fees_world": null,
  "fees_rus": null,
  "rate_mpaa": "R",
  "description": "Мать вынуждена предпринять путешествие через всю страну в Калифорнию, чтобы быть со своим сыном, который решил бросить школу и стать серфером.",
  "iframe_url": "",
  "iframe_poster": null,
  "poster": "https://img.imgilall.me/movies/franchise/2/6/3/4/2/0/0/0/0/0/610x900_26342.jpg",
  "country": {
    "1": "США"
  },
  "collection": [],
  "genre": {
    "19": "Комедия",
    "7": "Драма"
  },
  "director": [
    "Хелен Хант"
  ],
  "screenwriter": [
    "Хелен Хант"
  ],
  "producer": [
    "Мун Блонер",
    "Лиззи Фридман",
    "Хелен Хант"
  ],
  "operator": [
    "Джас Шелтон"
  ],
  "composer": [
    "Джулиан Уасс"
  ],
  "design": [
    "Трэйси Галлахер",
    "Керин Вагнер",
    "Элизабет Кинэн"
  ],
  "editor": [
    "Уильям Йе"
  ],
  "actors": [
    "Хелен Хант",
    "Брентон Туэйтс",
    "Джули Дретзин",
    "Джей Расселл",
    "Джордан Лэйн Прайс",
    "Уилли С. Карпентер",
    "Ричард Кайнд",
    "Makena Lei Carnahan",
    "Джэй Хьюджули",
    "Роберт Неппер"
  ],
  "actors_dubl": [],
  "trivia": [],
  "trailers": [],
  "seasons": [],
  "voiceActing": [
    "Diva Universal"
  ],
  "subtitle": [],
  "parts": []
}
