{
  "id": 20629,
  "name": "Ребенок Розмари",
  "name_eng": "Rosemary's Baby",
  "year": 2014,
  "slogan": "«Fear is born»",
  "age": "16+",
  "type": "series",
  "quality": "FHD (1080p)",
  "imdb": "5.5",
  "imdb_id": "3087752",
  "kinopoisk": "6.0",
  "kinopoisk_id": "789868",
  "world_art": null,
  "world_art_id": null,
  "time": "170 мин. всего",
  "ads": false,
  "premier": "2014-05-11",
  "premier_rus": "2014-05-12",
  "availability": "2014-05-13",
  "serial_status": "offline",
  "activate_time": "2020-05-29 10:55:00",
  "budget": null,
  "fees_use": null,
  "fees_world": null,
  "fees_rus": null,
  "rate_mpaa": null,
  "description": "История о молодой девушке Розмари Вудхаус, которая подозревает, что ее соседи — участники Сатанинского культа, а их цель — ее будущий ребенок.",
  "iframe_url": "",
  "poster": "https://img.imgilall.me/movies/franchise/2/0/6/2/9/0/0/0/0/0/610x900_20629.jpg",
  "country": {
    "7": "Канада",
    "1": "США",
    "9": "Франция"
  },
  "collection": [],
  "genre": {
    "26": "Ужасы",
    "24": "Детектив",
    "13": "Триллер",
    "7": "Драма"
  },
  "director": [
    "Агнешка Холланд"
  ],
  "screenwriter": [
    "Скотт Эбботт",
    "Айра Левин",
    "Джеймс Вонг"
  ],
  "producer": [
    "Эндрю Балек",
    "Роберт Берначчи",
    "Джошуа Д. Морер"
  ],
  "operator": [
    "Мишель Аматье"
  ],
  "composer": [
    "Антони Лазаркевич"
  ],
  "design": [
    "Кристель Мизоннёв"
  ],
  "editor": [
    "Брайан Бердан",
    "Эми Е. Дадлсон",
    "Дж. Кэтлин Гибсон"
  ],
  "actors": [
    "Зои Салдана",
    "Патрик Джей Адамс",
    "Кароль Буке",
    "Кристина Коул",
    "Джейсон Айзекс",
    "Оливье Рабурден",
    "Франсуа Сивиль",
    "Розмари Ла Волле",
    "Eva Lutz",
    "Войцех Пшоняк"
  ],
  "actors_dubl": [],
  "trivia": [
    "Экранизация классического романа Айры Левин."
  ],
  "trailers": [],
  "seasons": [
    {
      "poster": null,
      "release_ru": null,
      "release_world": null,
      "availability": null,
      "iframe_url": "",
      "season": 1,
      "episodes": [
        {
          "episode": 1,
          "name": null,
          "iframe_url": "",
          "iframe_poster": null,
          "release_ru": null,
          "release_world": null,
          "availability": null,
          "voiceActing": [
            "LostFilm",
            "Eng.Original"
          ],
          "ads": false,
          "subtitle": [
            "Eng. SDH"
          ]
        },
        {
          "episode": 2,
          "name": null,
          "iframe_url": "",
          "iframe_poster": null,
          "release_ru": null,
          "release_world": null,
          "availability": null,
          "voiceActing": [
            "LostFilm",
            "Eng.Original"
          ],
          "ads": false,
          "subtitle": [
            "Eng. SDH"
          ]
        }
      ]
    }
  ],
  "voiceActing": [
    "LostFilm",
    "Eng.Original"
  ],
  "subtitle": [
    "Eng. SDH"
  ],
  "parts": []
}
