{
  "id": 33901,
  "name": "Пока я не исчезну",
  "name_eng": "Before I Disappear",
  "year": 2014,
  "slogan": "—",
  "age": null,
  "type": "film",
  "quality": "HD (720p)",
  "imdb": "7.2",
  "imdb_id": "0",
  "kinopoisk": "7.2",
  "kinopoisk_id": "780152",
  "world_art": null,
  "world_art_id": null,
  "time": "93 мин. / 01:33",
  "ads": false,
  "premier": "2014-03-10",
  "premier_rus": "2014-09-20",
  "availability": "2014-09-21",
  "activate_time": "2020-07-16 06:31:00",
  "budget": null,
  "fees_use": "$10 078",
  "fees_world": null,
  "fees_rus": null,
  "rate_mpaa": null,
  "description": "Опустившись на самое дно, Ричи получает звонок от своей сестры, которая просит присмотреть за его одиннадцатилетней племянницей Софией.",
  "iframe_url": "",
  "iframe_poster": null,
  "poster": "https://img.imgilall.me/movies/franchise/3/3/9/0/1/0/0/0/0/0/610x900_33901.jpg",
  "country": {
    "1": "США",
    "2": "Великобритания"
  },
  "collection": [],
  "genre": {
    "7": "Драма"
  },
  "director": [
    "Шон Кристенсен"
  ],
  "screenwriter": [
    "Шон Кристенсен"
  ],
  "producer": [
    "Шон Кристенсен",
    "Терри Леонард",
    "Дэймон Расселл"
  ],
  "operator": [
    "Дэниэл Кац"
  ],
  "composer": [
    "Даррен Морзе"
  ],
  "design": [
    "Скотт Кузио",
    "Флетчер Ченси",
    "Микаела Вол"
  ],
  "editor": [
    "Шон Кристенсен",
    "Эндрю Напье",
    "Дэймон Расселл"
  ],
  "actors": [
    "Шон Кристенсен",
    "Фатима Птацек",
    "Эмми Россам",
    "Пол Уэсли",
    "Рон Перлман",
    "Ричард Шифф",
    "Фрэн Кранц",
    "Хани Эвиталь",
    "Изабель МакНалли",
    "Шон Рейнгголд"
  ],
  "actors_dubl": [],
  "trivia": [
    "Фильм снят на основе короткометражного фильма Шона Кристенсена «Сейчас или никогда», удостоенного «Оскара» в номинации «Лучший короткометражный игровой фильм» в 2013 году."
  ],
  "trailers": [],
  "seasons": [],
  "voiceActing": [
    "Важенин (BadBajo)"
  ],
  "subtitle": [],
  "parts": []
}
