{
  "id": 28962,
  "name": "Монтажёр",
  "name_eng": "The Editor",
  "year": 2014,
  "slogan": "—",
  "age": null,
  "type": "film",
  "quality": "HD (720p)",
  "imdb": "6.1",
  "imdb_id": "0",
  "kinopoisk": "5.9",
  "kinopoisk_id": "788538",
  "world_art": null,
  "world_art_id": null,
  "time": "95 мин. / 01:35",
  "ads": false,
  "premier": "2014-09-11",
  "premier_rus": "2014-09-12",
  "availability": "2014-09-13",
  "activate_time": "2020-07-25 05:02:00",
  "budget": "CA$ 130 000",
  "fees_use": null,
  "fees_world": null,
  "fees_rus": null,
  "rate_mpaa": null,
  "description": "Некогда лучший в своей профессии монтажёр Рэй в результате несчастного случая остался с плохо гнущимися пальцами и теперь вынужден монтировать низкопробные фильмы. Однажды прямо в студии убивают актёров из фильма, над которым работает Рэй, и он сам становится главным подозреваемым. Мужчина решает найти преступника и очистить своё имя, а в это время убийства продолжаются.",
  "iframe_url": "",
  "iframe_poster": null,
  "poster": "https://img.imgilall.me/movies/franchise/2/8/9/6/2/0/0/0/0/0/610x900_28962.jpg",
  "country": {
    "7": "Канада"
  },
  "collection": [],
  "genre": {
    "25": "Криминал",
    "26": "Ужасы",
    "24": "Детектив",
    "19": "Комедия",
    "13": "Триллер"
  },
  "director": [
    "Адам Брукс",
    "Мэттью Кеннеди"
  ],
  "screenwriter": [
    "Адам Брукс",
    "Мэттью Кеннеди",
    "Конор Суини"
  ],
  "producer": [
    "Адам Брукс",
    "Мэттью Кеннеди",
    "Kevin Ascolillo II"
  ],
  "operator": [
    "Адам Брукс",
    "Мэттью Кеннеди",
    "Jon'Nathon Stebbe"
  ],
  "composer": [
    "Джереми Гиллеспи",
    "Норман Оренштейн",
    "Клаудио Симонетти"
  ],
  "design": [
    "Мэриам Дектер",
    "Хезер Нил"
  ],
  "editor": [
    "Адам Брукс",
    "Nicole Katz"
  ],
  "actors": [
    "Адам Брукс",
    "Пас де ла Уэрта",
    "Мэттью Кеннеди",
    "Конор Суини",
    "Удо Кир",
    "Лоуренс Р. Харви",
    "Джерри Вассерман",
    "Саманта Хилл",
    "Кевин Андерсон",
    "Бретт Донахью"
  ],
  "actors_dubl": [],
  "trivia": [
    "Рольфи, собака-повадырь Маргарит Порфири (Шейла Кэмпбелл), является питомцем актрисы в реальной жизни."
  ],
  "trailers": [],
  "seasons": [],
  "voiceActing": [
    "Колобок"
  ],
  "subtitle": [],
  "parts": []
}
