{
  "id": 48038,
  "name": "Чего я хочу от тебя",
  "name_eng": "Lo que quiero de ti",
  "year": 2012,
  "slogan": "—",
  "age": null,
  "type": "film",
  "quality": "HD (720p)",
  "imdb": "5.9",
  "imdb_id": "2232184",
  "kinopoisk": null,
  "kinopoisk_id": "782477",
  "world_art": null,
  "world_art_id": null,
  "time": "13 мин.",
  "ads": true,
  "premier": "2012-11-04",
  "premier_rus": "2012-11-05",
  "availability": "2012-11-06",
  "activate_time": "2021-06-22 16:32:00",
  "budget": null,
  "fees_use": null,
  "fees_world": null,
  "fees_rus": null,
  "rate_mpaa": null,
  "description": null,
  "iframe_url": "",
  "iframe_poster": null,
  "poster": "https://img.imgilall.me/movies/franchise/4/8/0/3/8/0/0/0/0/0/610x900_48038.jpg",
  "country": {
    "3": "Испания"
  },
  "collection": [],
  "genre": {
    "26": "Ужасы",
    "53": "Короткометражный",
    "24": "Детектив",
    "8": "Мелодрама"
  },
  "director": [
    "Miguel Lafuente"
  ],
  "screenwriter": [
    "Miguel Lafuente"
  ],
  "producer": [
    "Miguel Lafuente"
  ],
  "operator": [
    "Carles Rubio"
  ],
  "composer": [
    "Tony García"
  ],
  "design": [
    "Dimitris Donias",
    "Pelayo Rodríguez Calzado",
    "Хуанлу Пейнадо"
  ],
  "editor": [
    "Antonio Lava"
  ],
  "actors": [
    "Хайме Астуй",
    "Juan Luis Peinado",
    "Helena Puig",
    "Kristian Gomez",
    "Miguel Jiménez Ramos",
    "Olis DoCarlo",
    "Dani G. Carcelén",
    "Luciane Franco"
  ],
  "actors_dubl": [],
  "trivia": [],
  "trailers": [],
  "seasons": [],
  "voiceActing": [
    "Рус. Люб. многоголосый"
  ],
  "subtitle": [],
  "parts": []
}
