{
  "id": 40702,
  "name": "Небольшое одолжение",
  "name_eng": "Little Favour",
  "year": 2013,
  "slogan": "—",
  "age": null,
  "type": "film",
  "quality": "FHD (1080p)",
  "imdb": "7.1",
  "imdb_id": "3147290",
  "kinopoisk": "6.3",
  "kinopoisk_id": "794526",
  "world_art": null,
  "world_art_id": null,
  "time": "22 мин.",
  "ads": false,
  "premier": "2013-11-01",
  "premier_rus": "2013-11-02",
  "availability": "2013-11-03",
  "activate_time": "2020-10-31 06:05:00",
  "budget": null,
  "fees_use": null,
  "fees_world": null,
  "fees_rus": null,
  "rate_mpaa": null,
  "description": "Это история Уоллеса. Прошло уже 7 лет с тех пор, как он оставил службу и 10 лет с того момента, когда его американский коллега, ставший и его другом, спас ему жизнь во время миссии в Ираке. Он вполне успешно занимается бизнесом, стараясь скрыть свою внутреннюю борьбу с посттравматическим стрессовым расстройством. Однажды, когда, казалось бы, наконец, он решается начать новые нормальные отношения, появляется его старый друг Джеймс и просит сделать ему «небольшое одолжение». Мог ли он отказать, ведь этот человек спас ему жизнь?",
  "iframe_url": "",
  "iframe_poster": null,
  "poster": "https://img.imgilall.me/movies/franchise/4/0/7/0/2/0/0/0/0/0/610x900_40702.jpg",
  "country": {
    "2": "Великобритания"
  },
  "collection": [],
  "genre": {
    "53": "Короткометражный",
    "17": "Боевик",
    "13": "Триллер"
  },
  "director": [
    "Патрик Монро"
  ],
  "screenwriter": [
    "Патрик Монро"
  ],
  "producer": [
    "Патрик Монро",
    "Адам Экланд",
    "Laila Ansbergs"
  ],
  "operator": [
    "Джеймс Френд"
  ],
  "composer": [],
  "design": [
    "Расселл Де Розарио",
    "Элис Фелтон"
  ],
  "editor": [
    "Найджел Галт"
  ],
  "actors": [
    "Бенедикт Камбербэтч",
    "Колин Сэлмон",
    "Ник Моран",
    "Paris Winter Munroe",
    "Liam Collins",
    "Нина Фриис",
    "Джек Голденберг",
    "Бобби Холлэнд Хэнтон",
    "Роберт Шеннон",
    "Джулиан Шоу"
  ],
  "actors_dubl": [],
  "trivia": [],
  "trailers": [],
  "seasons": [],
  "voiceActing": [
    "Важенин (BadBajo)"
  ],
  "subtitle": [],
  "parts": []
}
