{
  "id": 21778,
  "name": "Верхом на великанах",
  "name_eng": "Riding Giants",
  "year": 2004,
  "slogan": "«It doesn't get any bigger than this»",
  "age": null,
  "type": "film",
  "quality": "FHD (1080p)",
  "imdb": "7.9",
  "imdb_id": "0389326",
  "kinopoisk": "8.2",
  "kinopoisk_id": "79872",
  "world_art": null,
  "world_art_id": null,
  "time": "105 мин. / 01:45",
  "ads": true,
  "premier": "2004-06-11",
  "premier_rus": "2004-06-12",
  "availability": "2004-06-13",
  "activate_time": "2020-06-04 13:24:00",
  "budget": null,
  "fees_use": "$2 276 368",
  "fees_world": "+ $889 889 = $3 166 257",
  "fees_rus": null,
  "rate_mpaa": "PG-13",
  "description": "Фильм о сумасбродных смельчаках, кто решил бросить вызов огромным морским волнам. Последовательный рассказ о том, как зародился серф-спорт, кто был основателем, кто уже вошел в легенды тау-серфинга. Сейчас самое популярное место на земле для серфинга, это Гавайи, а самую большую волну можно поймать у берегов Северной Калифорнии, и называется она Маверик. Не каждому покоряются морские волны-великаны, но те, кто прошел по верху ее гребня, действительно заслуживают восхищения.",
  "iframe_url": "",
  "iframe_poster": null,
  "poster": "https://img.imgilall.me/movies/franchise/2/1/7/7/8/0/0/0/0/0/610x900_21778.jpg",
  "country": {
    "1": "США",
    "9": "Франция"
  },
  "collection": {
    "76": "Про спорт"
  },
  "genre": {
    "54": "Документальный",
    "28": "Исторический",
    "23": "Спортивный"
  },
  "director": [
    "Стэйси Перальта"
  ],
  "screenwriter": [
    "Стэйси Перальта",
    "Сэм Джордж"
  ],
  "producer": [
    "Аги Орси",
    "Стэйси Перальта",
    "Jane Kachmer"
  ],
  "operator": [
    "Sebastian Jungwirth",
    "Питер Пилафиан",
    "Грант Уошберн"
  ],
  "composer": [
    "Рик Маркманн"
  ],
  "design": [],
  "editor": [
    "Пол Краудер"
  ],
  "actors": [
    "Джефф Кларк",
    "Pat Curren",
    "Даррик Дёрнер",
    "Сара Герхардт",
    "Лэйрд Джон Хэмилтон",
    "Dru Harrison",
    "David H. Kalama Jr.",
    "Дэйв Калама",
    "Брайан Л. Киулана",
    "Баззи Кербокс"
  ],
  "actors_dubl": [],
  "trivia": [],
  "trailers": [],
  "seasons": [],
  "voiceActing": [
    "Рус. Проф. двухголосый",
    "Eng.Original"
  ],
  "subtitle": [
    "Eng. full"
  ],
  "parts": []
}
