{
  "id": 16655,
  "name": "Невинные убийцы",
  "name_eng": "Asesinos inocentes",
  "year": 2015,
  "slogan": "—",
  "age": null,
  "type": "film",
  "quality": "SD",
  "imdb": "5.8",
  "imdb_id": "3144582",
  "kinopoisk": "6.0",
  "kinopoisk_id": "798862",
  "world_art": null,
  "world_art_id": null,
  "time": "95 мин. / 01:35",
  "ads": false,
  "premier": "2015-03-10",
  "premier_rus": "2015-03-11",
  "availability": "2015-03-12",
  "activate_time": "2020-04-16 15:49:00",
  "budget": "€2 023 583",
  "fees_use": null,
  "fees_world": null,
  "fees_rus": null,
  "rate_mpaa": null,
  "description": "История студента Франсиско Гарральда, который, оказавшись в затруднительной ситуации, получает предложение убить своего профессора психологии. Самое необычное, что предлагает ему это сам профессор.",
  "iframe_url": "",
  "iframe_poster": null,
  "poster": "https://img.imgilall.me/movies/franchise/1/6/6/5/5/0/0/0/0/0/610x900_16655.jpg",
  "country": {
    "3": "Испания"
  },
  "collection": [],
  "genre": {
    "25": "Криминал",
    "24": "Детектив",
    "19": "Комедия",
    "13": "Триллер",
    "10": "Зарубежный"
  },
  "director": [
    "Gonzalo Bendala"
  ],
  "screenwriter": [
    "Х.М. Асенсио",
    "Gonzalo Bendala"
  ],
  "producer": [
    "Сандра Родригез",
    "Марта Веласко"
  ],
  "operator": [
    "Альваро Гутьеррес"
  ],
  "composer": [
    "Пабло Сервантес"
  ],
  "design": [
    "Ванеса де ла Аса",
    "Эстер Вакеро"
  ],
  "editor": [
    "Антонио Фрутос"
  ],
  "actors": [
    "Мигель Анхель Сола",
    "Макси Иглесиас",
    "Аура Гарридо",
    "Хавьер Эрнандез",
    "Альвар Гордехуэла",
    "Висенте Ромеро",
    "Маноло Соло",
    "Луис Фернандес",
    "Мария Альфонса Россо",
    "Карлос Альварес-Новоа"
  ],
  "actors_dubl": [],
  "trivia": [],
  "trailers": [],
  "seasons": [],
  "voiceActing": [
    "Рус. Люб. многоголосый",
    "Spanish Original"
  ],
  "subtitle": [],
  "parts": []
}
