{
  "id": 46627,
  "name": "Курокоти",
  "name_eng": "Kurokôchi",
  "year": 2013,
  "slogan": "—",
  "age": null,
  "type": "series",
  "quality": "HD (720p)",
  "imdb": "6.9",
  "imdb_id": "3113540",
  "kinopoisk": null,
  "kinopoisk_id": "809033",
  "world_art": null,
  "world_art_id": null,
  "time": "54 мин. всего",
  "ads": true,
  "premier": "2013-10-11",
  "premier_rus": "2013-10-12",
  "availability": "2013-10-13",
  "serial_status": "offline",
  "activate_time": "2021-05-16 09:57:00",
  "budget": null,
  "fees_use": null,
  "fees_world": null,
  "fees_rus": null,
  "rate_mpaa": null,
  "description": "45 лет назад в Японии было совершено крупнейшее ограбление в истории страны: одиночка угнал инкассаторскую машину и без единого выстрела завладел 300 миллионами йен, после чего исчез. Дело так и не раскрыли. Но до сих пор оно не даёт покоя кинематографистам и одному дотошному инспектору полиции по имени Курокоти Кейта.Крутой характер и любовь к рискованным методам приводят к тому, что Курокоти бросает вызов сильным мира сего. У него всегда есть туз в рукаве и компромат на каждого, он готов идти до конца, но к чему это приведёт его самого и его новоиспечённую напарницу, юную сотрудницу полиции Сейке Масиро, которой его методы расследований совсем не по душе?..",
  "iframe_url": "",
  "poster": "https://img.imgilall.me/movies/franchise/4/6/6/2/7/0/0/0/0/0/610x900_46627.jpg",
  "country": {
    "18": "Япония"
  },
  "collection": [],
  "genre": {
    "24": "Детектив"
  },
  "director": [
    "Акихико Ватасэ",
    "Такэёси Ямамото",
    "Юитиро Хиракава"
  ],
  "screenwriter": [
    "Ёсихиро Идзуми",
    "Kôji Kôno",
    "Richard Wu"
  ],
  "producer": [
    "Акихико Исимару",
    "Ёсихико Накаи",
    "Дзюн Муто"
  ],
  "operator": [],
  "composer": [
    "Ёсиаки Дэва",
    "Юри Хабука"
  ],
  "design": [],
  "editor": [],
  "actors": [
    "Томоя Нагасэ",
    "Масаюки Ито",
    "Аямэ Горики",
    "Мантаро Коити",
    "Томохару Хасэгава",
    "Ацуро Ватабэ",
    "Го Ридзю",
    "Ясуо Даити",
    "Морио Кадзама",
    "Микихиса Адзума"
  ],
  "actors_dubl": [],
  "trivia": [],
  "trailers": [],
  "seasons": [
    {
      "poster": null,
      "release_ru": null,
      "release_world": null,
      "availability": null,
      "iframe_url": "",
      "season": 1,
      "episodes": [
        {
          "episode": 1,
          "name": null,
          "iframe_url": "",
          "iframe_poster": null,
          "release_ru": null,
          "release_world": null,
          "availability": null,
          "voiceActing": [
            "WestFilm"
          ],
          "ads": true,
          "subtitle": []
        },
        {
          "episode": 2,
          "name": null,
          "iframe_url": "",
          "iframe_poster": null,
          "release_ru": null,
          "release_world": null,
          "availability": null,
          "voiceActing": [
            "WestFilm"
          ],
          "ads": true,
          "subtitle": []
        },
        {
          "episode": 3,
          "name": null,
          "iframe_url": "",
          "iframe_poster": null,
          "release_ru": null,
          "release_world": null,
          "availability": null,
          "voiceActing": [
            "WestFilm"
          ],
          "ads": true,
          "subtitle": []
        },
        {
          "episode": 4,
          "name": null,
          "iframe_url": "",
          "iframe_poster": null,
          "release_ru": null,
          "release_world": null,
          "availability": null,
          "voiceActing": [
            "WestFilm"
          ],
          "ads": true,
          "subtitle": []
        },
        {
          "episode": 5,
          "name": null,
          "iframe_url": "",
          "iframe_poster": null,
          "release_ru": null,
          "release_world": null,
          "availability": null,
          "voiceActing": [
            "WestFilm"
          ],
          "ads": true,
          "subtitle": []
        },
        {
          "episode": 6,
          "name": null,
          "iframe_url": "",
          "iframe_poster": null,
          "release_ru": null,
          "release_world": null,
          "availability": null,
          "voiceActing": [
            "WestFilm"
          ],
          "ads": true,
          "subtitle": []
        },
        {
          "episode": 7,
          "name": null,
          "iframe_url": "",
          "iframe_poster": null,
          "release_ru": null,
          "release_world": null,
          "availability": null,
          "voiceActing": [
            "WestFilm"
          ],
          "ads": true,
          "subtitle": []
        },
        {
          "episode": 8,
          "name": null,
          "iframe_url": "",
          "iframe_poster": null,
          "release_ru": null,
          "release_world": null,
          "availability": null,
          "voiceActing": [
            "WestFilm"
          ],
          "ads": true,
          "subtitle": []
        },
        {
          "episode": 9,
          "name": null,
          "iframe_url": "",
          "iframe_poster": null,
          "release_ru": null,
          "release_world": null,
          "availability": null,
          "voiceActing": [
            "WestFilm"
          ],
          "ads": true,
          "subtitle": []
        },
        {
          "episode": 10,
          "name": null,
          "iframe_url": "",
          "iframe_poster": null,
          "release_ru": null,
          "release_world": null,
          "availability": null,
          "voiceActing": [
            "WestFilm"
          ],
          "ads": true,
          "subtitle": []
        }
      ]
    }
  ],
  "voiceActing": [
    "WestFilm"
  ],
  "subtitle": [],
  "parts": []
}
