{
  "id": 17242,
  "name": "Час расплаты",
  "name_eng": "Paycheck",
  "year": 2003,
  "slogan": "«Ему заплатили чтобы он забыл прошлое, от которого зависит будущее»",
  "age": "12+",
  "type": "film",
  "quality": "FHD (1080p)",
  "imdb": "6.3",
  "imdb_id": "0338337",
  "kinopoisk": "7.1",
  "kinopoisk_id": "8085",
  "world_art": null,
  "world_art_id": null,
  "time": "119 мин. / 01:59",
  "ads": false,
  "premier": "2003-12-25",
  "premier_rus": "2004-02-19",
  "availability": "2004-02-20",
  "activate_time": "2020-04-30 10:05:00",
  "budget": "$60 000 000",
  "fees_use": "$53 790 451",
  "fees_world": "+ $41 637 064 = $95 427 515",
  "fees_rus": "$2 095 000",
  "rate_mpaa": "PG-13",
  "description": "Майкл Дженнингс, специалист по реверс-инжинирингу, соглашается принять участие в секретном проекте, за который ему обещают огромный гонорар. Когда всё заканчивается, Майклу стирают память. Дальше главный герой с радостью направляется в банк, где узнаёт, что месяц назад он отказался от всех своих акций стоимостью 92 миллиона долларов.",
  "iframe_url": "",
  "iframe_poster": null,
  "poster": "https://img.imgilall.me/movies/franchise/1/7/2/4/2/0/0/0/0/0/610x900_17242.jpg",
  "country": {
    "7": "Канада",
    "1": "США"
  },
  "collection": {
    "33": "Экранизация книг"
  },
  "genre": {
    "11": "Фантастика",
    "24": "Детектив",
    "17": "Боевик",
    "13": "Триллер",
    "10": "Зарубежный"
  },
  "director": [
    "Джон Ву"
  ],
  "screenwriter": [
    "Дин Георгарис",
    "Филип К. Дик"
  ],
  "producer": [
    "Теренс Чан",
    "Джон Дэвис",
    "Майкл Хэкетт"
  ],
  "operator": [
    "Джефри Л. Кимбалл"
  ],
  "composer": [
    "Джон Пауэлл"
  ],
  "design": [
    "Уильям Сэнделл",
    "Сэнди Кокрейн",
    "Эрика Эделл Филлипс"
  ],
  "editor": [
    "Кристофер Раус",
    "Кевин Ститт"
  ],
  "actors": [
    "Бен Аффлек",
    "Ума Турман",
    "Аарон Экхарт",
    "Пол Джаматти",
    "Колм Фиор",
    "Джо Мортон",
    "Майкл С. Холл",
    "Питер Фридман",
    "Кэтрин Моррис",
    "Ивана Миличевич"
  ],
  "actors_dubl": [
    "Иван Агапов",
    "Елена Соловьева",
    "Владимир Зайцев",
    "Юрий Маляров",
    "Никита Прозоровский"
  ],
  "trivia": [
    "Съемки картины начались 3-го апреля 2003 года в Ванкувере, а закончились 16-го июля того же года.",
    "Картина основана на коротком одноименном рассказе 1953 года Филиппа К. Дика.",
    "Первоначально картину должны были ставить Бретт Рэтнер, затем Кэтрин Бигелоу, а главную роль исполнить Мэтт Дэймон.",
    "В фильме присутствует несколько неизменных элементов фильмов Джона Ву, включая две «мексиканские ничьи» и появление голубя."
  ],
  "trailers": [],
  "seasons": [],
  "voiceActing": [
    "Рус. Дублированный",
    "Ю. Живов",
    "Eng.Original",
    "Eng. Orig. with Commentary"
  ],
  "subtitle": [
    "Рус. полные"
  ],
  "parts": []
}
