{
  "id": 29195,
  "name": "Преступление во времени",
  "name_eng": "Crimes and Mister Meanors",
  "year": 2015,
  "slogan": "—",
  "age": null,
  "type": "film",
  "quality": "HD (720p)",
  "imdb": "6.1",
  "imdb_id": "0",
  "kinopoisk": null,
  "kinopoisk_id": "809356",
  "world_art": null,
  "world_art_id": null,
  "time": "105 мин. / 01:45",
  "ads": false,
  "premier": "2015-10-01",
  "premier_rus": "2015-10-02",
  "availability": "2015-10-03",
  "activate_time": "2020-07-10 06:24:00",
  "budget": null,
  "fees_use": null,
  "fees_world": null,
  "fees_rus": null,
  "rate_mpaa": null,
  "description": null,
  "iframe_url": "",
  "iframe_poster": null,
  "poster": "https://img.imgilall.me/movies/franchise/2/9/1/9/5/0/0/0/0/0/610x900_29195.jpg",
  "country": {
    "1": "США"
  },
  "collection": [],
  "genre": {
    "33": "Семейный"
  },
  "director": [
    "Jason Prisk"
  ],
  "screenwriter": [
    "Jason Prisk"
  ],
  "producer": [
    "Sara Foley Prisk",
    "Derek Arwood",
    "Джереми Беннетт"
  ],
  "operator": [
    "Jason Prisk"
  ],
  "composer": [
    "Марианте Беззерайдс"
  ],
  "design": [
    "Кэти Райт",
    "Мелани Микс"
  ],
  "editor": [
    "Jason Prisk"
  ],
  "actors": [
    "Logan Burton",
    "Кэсседи МакКлинси",
    "Аллен О’Рейли",
    "Альфа Триветт",
    "Эшли ЛеКонте Кэмпбелл",
    "Brian Troxell",
    "Адам Бойер",
    "Эйприл Биллингсли",
    "Эшли Хит",
    "Рональд Огден"
  ],
  "actors_dubl": [],
  "trivia": [],
  "trailers": [],
  "seasons": [],
  "voiceActing": [
    "Рус. Люб. многоголосый"
  ],
  "subtitle": [],
  "parts": []
}
