{
  "id": 24240,
  "name": "Пригородная готика",
  "name_eng": "Suburban Gothic",
  "year": 2014,
  "slogan": "«This dead end town just got a lot deader»",
  "age": "18+",
  "type": "film",
  "quality": "HD (720p)",
  "imdb": "5.6",
  "imdb_id": "3279176",
  "kinopoisk": "5.8",
  "kinopoisk_id": "806569",
  "world_art": null,
  "world_art_id": null,
  "time": "90 мин. / 01:30",
  "ads": true,
  "premier": "2014-07-19",
  "premier_rus": "2014-07-20",
  "availability": "2014-07-21",
  "activate_time": "2020-06-17 19:11:00",
  "budget": null,
  "fees_use": null,
  "fees_world": null,
  "fees_rus": null,
  "rate_mpaa": "R",
  "description": "У Рэймонда диплом престижного колледжа, но он не может найти работу. После того как его выгоняют за неуплату из съёмной квартиры, парень вынужден вернуться в отчий дом. Но когда мстительный призрак начинает терроризировать его городок, Рэймонд объединяется с Беккой, местной барменшей, чтобы разгадать тайну духа, угрожающего жизни каждого человека.",
  "iframe_url": "",
  "iframe_poster": null,
  "poster": "https://img.imgilall.me/movies/franchise/2/4/2/4/0/0/0/0/0/0/610x900_24240.jpg",
  "country": {
    "1": "США"
  },
  "collection": {
    "14": "Для взрослых"
  },
  "genre": {
    "19": "Комедия",
    "13": "Триллер"
  },
  "director": [
    "Ричард Бейтс мл."
  ],
  "screenwriter": [
    "Ричард Бейтс мл.",
    "Марк Брунер"
  ],
  "producer": [
    "Дилан Хейл Льюис",
    "Стив Анселл",
    "Ричард Бейтс мл."
  ],
  "operator": [
    "Лукас Ли Грэм"
  ],
  "composer": [
    "Михль Брич"
  ],
  "design": [
    "Энтони Трэн"
  ],
  "editor": [
    "Стив Анселл",
    "Ивонн Валдез"
  ],
  "actors": [
    "Мэттью Грей Гублер",
    "Кэт Деннингс",
    "Рэй Уайз",
    "Барбара Нивен",
    "Мьюз Уотсон",
    "Сэлли Кёркленд",
    "Мэл Родригез",
    "Джеффри Комбс",
    "Джон Уотерс",
    "Ронни Джин Блевинс"
  ],
  "actors_dubl": [],
  "trivia": [],
  "trailers": [],
  "seasons": [],
  "voiceActing": [
    "Колобок",
    "Eng.Original"
  ],
  "subtitle": [
    "Eng. SDH"
  ],
  "parts": []
}
