{
  "id": 27228,
  "name": "Спираль",
  "name_eng": "",
  "year": 2014,
  "slogan": "«Игра бесконечна…»",
  "age": "12+",
  "type": "film",
  "quality": "HD (720p)",
  "imdb": "3.8",
  "imdb_id": "3523480",
  "kinopoisk": "5.1",
  "kinopoisk_id": "809156",
  "world_art": null,
  "world_art_id": null,
  "time": "102 мин. / 01:42",
  "ads": false,
  "premier": "2014-09-05",
  "premier_rus": "2014-02-27",
  "availability": "2014-02-28",
  "activate_time": "2020-07-23 04:01:00",
  "budget": null,
  "fees_use": null,
  "fees_world": "$1 436 158",
  "fees_rus": "$1 637 432",
  "rate_mpaa": null,
  "description": "Главный герой истории – Алексей,  талантливый  программист  из  Новосибирска, приезжает в Москву и становится членом закрытого полулегального элитного клуба под названием «Спираль». Как новичку ему крупно везет, и он выигрывает одну экстремальную игру клуба за другой, получая сумасшедшие гонорары. В него влюбляется такая девушка, о какой он даже не мог мечтать. Но в одночасье красивый мир вокруг него рушится, и он влипает в крупные неприятности – его обвиняют в ограблении банка, любимая девушка не верит в его невиновность, и в довершении всего его пытаются убить…",
  "iframe_url": "",
  "iframe_poster": null,
  "poster": "https://img.imgilall.me/movies/franchise/2/7/2/2/8/0/0/0/0/0/610x900_27228.jpg",
  "country": {
    "5": "Россия"
  },
  "collection": [],
  "genre": {
    "17": "Боевик"
  },
  "director": [
    "Андрей Волгин"
  ],
  "screenwriter": [
    "Константин Глушков"
  ],
  "producer": [
    "Елена Ковалева",
    "Алексей Гришин",
    "Рената Пиотровски"
  ],
  "operator": [
    "Игорь Бондарев",
    "Вячеслав Лисневский"
  ],
  "composer": [
    "Александр Крюков"
  ],
  "design": [],
  "editor": [
    "Алексей Гришин"
  ],
  "actors": [
    "Константин Крюков",
    "Анатолий Руденко",
    "Вениамин Смехов",
    "Александр Яцко",
    "Никита Высоцкий",
    "Кларисса Барская",
    "Константин Глушков",
    "Владимир Стержаков",
    "Марина Куделинская",
    "Рената Пиотровски"
  ],
  "actors_dubl": [
    "Рамиля Искандер"
  ],
  "trivia": [],
  "trailers": [],
  "seasons": [],
  "voiceActing": [
    "Original"
  ],
  "subtitle": [],
  "parts": []
}
