{
  "id": 2388,
  "name": "Пальмы в снегу",
  "name_eng": "Palmeras en la nieve",
  "year": 2015,
  "slogan": null,
  "age": "16+",
  "type": "film",
  "quality": "FHD (1080p)",
  "imdb": "7.4",
  "imdb_id": "3202202",
  "kinopoisk": "7.3",
  "kinopoisk_id": "801868",
  "world_art": null,
  "world_art_id": null,
  "time": "163 мин. / 02:43",
  "ads": false,
  "premier": "2015-12-09",
  "premier_rus": "2016-04-07",
  "availability": null,
  "activate_time": "2018-09-17 12:32:58",
  "budget": "сборы",
  "fees_use": null,
  "fees_world": "$18 428 235",
  "fees_rus": "$25 518",
  "rate_mpaa": null,
  "description": "Это история о большой любви, связи времен и поколений. Красавица Кларенс живет в холодных горах. Однажды она находит загадочное письмо и решает узнать правду о прошлом своего отца. Девушка отправляется на остров Фернандо-По и как будто попадает в рай. Она идет по следам семейных тайн, где есть и запретная любовь, и предательство, и великие события, ставшие частью мировой истории.",
  "iframe_url": "",
  "iframe_poster": null,
  "poster": "https://img.imgilall.me/movies/franchise/2/3/8/8/0/0/0/0/0/0/610x900_2388.jpg",
  "country": {
    "3": "Испания"
  },
  "collection": [],
  "genre": {
    "10": "Зарубежный",
    "8": "Мелодрама",
    "7": "Драма"
  },
  "director": [
    "Фернандо Гонзалез Молина"
  ],
  "screenwriter": [
    "Серхио Х. Санчес",
    "Luz Gabás"
  ],
  "producer": [
    "Мерседес Гамеро",
    "Адриан Герра",
    "Микель Лехарса"
  ],
  "operator": [
    "Чави Хименес"
  ],
  "composer": [
    "Лукас Видаль"
  ],
  "design": [
    "Антон Лагуна",
    "Лолес Гарсия Галеан",
    "Габрьель Листе"
  ],
  "editor": [
    "Ирен Блекуа",
    "Вероника Кайон"
  ],
  "actors": [
    "Марио Касас",
    "Адриана Угарте",
    "Макарена Гарсия",
    "Ален Эрнандес",
    "Берта Васкес",
    "Джедже Апали",
    "Даниэль Грао",
    "Kimbo",
    "Фернандо Кайо",
    "Сельсо Бугальо"
  ],
  "actors_dubl": [],
  "trivia": [
    "Съемки проходили на острове Гран-Канария, в Колумбии и испанском городе Уэска.",
    "Массовка фильма состояла из 2000 человек, что сделало производство «Пальм в снегу» крупнейшим испаноязычным проектом в настоящее время.",
    "Для съемок было высажено 400 пальм, а также «с нуля» выстроены колониальное поместье с большой усадьбой и африканская деревня.",
    "В испанском прокате фильм обошел седьмой эпизод «Звездных войн».",
    "415 000 испанцев назвали «Пальмы в снегу» лучшим фильмом 2015 года, а сыгравшего в ней главную роль Марио Касаса — лучшим актером года в рамках ежегодной премии Fotogramas de Plata.",
    "Лента стала лауреатом престижных кинопремий: номинировалась в пяти категориях премии «Гойя» (испанский «Оскар») и выиграла в двух из них."
  ],
  "trailers": [],
  "seasons": [],
  "voiceActing": [
    "Рус. Проф. многоголосый",
    "Spanish Original"
  ],
  "subtitle": [
    "Eng. full"
  ],
  "parts": []
}
