{
  "id": 18956,
  "name": "Заброшенные",
  "name_eng": "The Confines",
  "year": 2015,
  "slogan": "«Where hope goes to die»",
  "age": null,
  "type": "film",
  "quality": "HD (720p)",
  "imdb": "4.9",
  "imdb_id": "3311988",
  "kinopoisk": "4.6",
  "kinopoisk_id": "807499",
  "world_art": null,
  "world_art_id": null,
  "time": "86 мин. / 01:26",
  "ads": false,
  "premier": "2015-06-13",
  "premier_rus": "2015-06-14",
  "availability": "2015-06-15",
  "activate_time": "2020-05-18 01:22:00",
  "budget": null,
  "fees_use": null,
  "fees_world": null,
  "fees_rus": null,
  "rate_mpaa": null,
  "description": "Проблемная девушка Джулия Стрик устраивается на работу ночным охранником в заброшенном жилом комплексе. Но уже в первое свое дежурство сталкивается с чем-то неведомым, обитающим в недрах разрушающегося здания. Нервы ее на пределе, Стрик и ее напарник пытаются разобраться, где явь, а где лишь плод больного воображения.",
  "iframe_url": "",
  "iframe_poster": null,
  "poster": "https://img.imgilall.me/movies/franchise/1/8/9/5/6/0/0/0/0/0/610x900_18956.jpg",
  "country": {
    "1": "США"
  },
  "collection": [],
  "genre": {
    "26": "Ужасы",
    "24": "Детектив",
    "13": "Триллер"
  },
  "director": [
    "Итан Роквей"
  ],
  "screenwriter": [
    "Идо Флюк",
    "Итан Роквей"
  ],
  "producer": [
    "Майк Ландри",
    "Итан Роквей",
    "Карлос Веласкес"
  ],
  "operator": [
    "Зак Галлер"
  ],
  "composer": [
    "Макс Арудж"
  ],
  "design": [
    "Акин МакКензи",
    "James Glayat",
    "Сара Майорино"
  ],
  "editor": [
    "Джакомо Амброзини"
  ],
  "actors": [
    "Джейсон Патрик",
    "Луиса Краузе",
    "Марк Марголис",
    "Эзра Найт",
    "Лу Карбонно",
    "Массиель Эрнандез",
    "Генри Келемен",
    "Брэндон Киффер",
    "Джеймс Муртаг",
    "Джон Сэмпсон"
  ],
  "actors_dubl": [],
  "trivia": [],
  "trailers": [],
  "seasons": [],
  "voiceActing": [
    "Хихикающий доктор",
    "Eng.Original"
  ],
  "subtitle": [
    "Eng. full"
  ],
  "parts": []
}
