{
  "id": 32848,
  "name": "Торренте 5",
  "name_eng": "Torrente 5: Operación Eurovegas",
  "year": 2014,
  "slogan": "«La banca no siempre gana»",
  "age": null,
  "type": "film",
  "quality": "HD (720p)",
  "imdb": "5.4",
  "imdb_id": "0",
  "kinopoisk": "4.2",
  "kinopoisk_id": "807666",
  "world_art": null,
  "world_art_id": null,
  "time": "105 мин. / 01:45",
  "ads": false,
  "premier": "2014-10-03",
  "premier_rus": "2014-10-04",
  "availability": "2014-10-05",
  "activate_time": "2020-07-15 06:07:00",
  "budget": "€8 500 000",
  "fees_use": null,
  "fees_world": null,
  "fees_rus": null,
  "rate_mpaa": null,
  "description": "На что только не заставит пойти нужда. Герои фильма решаются на рискованное предприятие. Желание раз и навсегда положить конец проблемам с финансами толкает компанию единомышленников на создание идеального плана обогащения.",
  "iframe_url": "",
  "iframe_poster": null,
  "poster": "https://img.imgilall.me/movies/franchise/3/2/8/4/8/0/0/0/0/0/610x900_32848.jpg",
  "country": {
    "3": "Испания"
  },
  "collection": [],
  "genre": {
    "19": "Комедия",
    "17": "Боевик"
  },
  "director": [
    "Сантьяго Сегура"
  ],
  "screenwriter": [
    "Сантьяго Сегура"
  ],
  "producer": [
    "Мария Луиса Гутиеррес",
    "Мерседес Гамеро",
    "Сантьяго Сегура"
  ],
  "operator": [
    "Тео Дельгадо"
  ],
  "composer": [
    "Роке Баньос",
    "Alex Martinez"
  ],
  "design": [
    "Хосе Луис Аррисабалага",
    "Биаффра",
    "Кристина Родригес"
  ],
  "editor": [
    "Фран Амаро"
  ],
  "actors": [
    "Сантьяго Сегура",
    "Хулиан Лопес",
    "Хесулин де Убрике",
    "Алек Болдуин",
    "Дамиан Рамос",
    "Луис Карлос",
    "Альваро Тортоза",
    "Каньита Брава",
    "Хосе Мария Рубио",
    "Энджи"
  ],
  "actors_dubl": [],
  "trivia": [],
  "trailers": [],
  "seasons": [],
  "voiceActing": [
    "Важенин (BadBajo)"
  ],
  "subtitle": [],
  "parts": []
}
