{
  "id": 28472,
  "name": "Страшная воля богов",
  "name_eng": "Kamisama no iu tôri",
  "year": 2014,
  "slogan": "«Daruma doll did it»",
  "age": "18+",
  "type": "film",
  "quality": "HD (720p)",
  "imdb": "6.4",
  "imdb_id": "3354222",
  "kinopoisk": "6.5",
  "kinopoisk_id": "811603",
  "world_art": null,
  "world_art_id": null,
  "time": "117 мин. / 01:57",
  "ads": false,
  "premier": "2014-10-18",
  "premier_rus": "2015-04-23",
  "availability": "2015-04-24",
  "activate_time": "2020-06-27 09:10:00",
  "budget": null,
  "fees_use": null,
  "fees_world": "$1 938 654",
  "fees_rus": "$11 062",
  "rate_mpaa": null,
  "description": "Сюн Такахата тяготится своей заурядной жизнью, пока однажды в его классе не начинают происходить странные вещи. Школьникам являются загадочные игрушки во главе с куклой Дарумой — божеством, приносящим счастье. Незваные гости призывают ребят принять участие в играх, цена которым — жизнь. Они подбадривают сомневающихся, рисуя радужные перспективы, но в случае отказа от участия школьникам грозит немедленная смерть.",
  "iframe_url": "",
  "iframe_poster": null,
  "poster": "https://img.imgilall.me/movies/franchise/2/8/4/7/2/0/0/0/0/0/610x900_28472.jpg",
  "country": {
    "18": "Япония"
  },
  "collection": [],
  "genre": {
    "26": "Ужасы",
    "11": "Фантастика",
    "13": "Триллер"
  },
  "director": [
    "Такаси Миике"
  ],
  "screenwriter": [
    "Хироюки Яцу",
    "Мунэюки Канэсиро",
    "Акэдзи Фудзимура"
  ],
  "producer": [
    "Юсукэ Исигуро",
    "Сигэдзи Маэда",
    "Мисако Сака"
  ],
  "operator": [
    "Нобуясу Кита"
  ],
  "composer": [
    "Кодзи Эндо"
  ],
  "design": [
    "Со Хасимото",
    "Акира Сакамото"
  ],
  "editor": [
    "Кэндзи Ямасита"
  ],
  "actors": [
    "Сота Фукуси",
    "Мио Юки",
    "Рюносукэ Камики",
    "Хирона Ямадзаки",
    "Сёта Сомэтани",
    "Нао Омори",
    "Нидзиро Мураками",
    "Рири Фрэнки",
    "Ацуко Маэда",
    "Сакити Сато"
  ],
  "actors_dubl": [
    "Вячеслав Козлов",
    "Аделина Червякова",
    "Семён Ващенко",
    "Анна Слынько",
    "Дмитрий Стрелков"
  ],
  "trivia": [
    "Фильм основан на манге «Kamisama no iu tori» авторов Мунэюки Канэсиро и Акэдзи Фудзимуры, которая печаталась в журнале Bessatsu Shonen с марта 2011 по ноябрь 2012 года."
  ],
  "trailers": [],
  "seasons": [],
  "voiceActing": [
    "Рус. Дублированный"
  ],
  "subtitle": [],
  "parts": []
}
