{
  "id": 427,
  "name": "Джессика Джонс",
  "name_eng": "Marvel's Jessica Jones",
  "year": 2018,
  "slogan": "«It's time the world knew her name»",
  "age": "16+",
  "type": "series",
  "quality": "FHD (1080p)",
  "imdb": "7.9",
  "imdb_id": "2357547",
  "kinopoisk": "7.6",
  "kinopoisk_id": "817508",
  "world_art": null,
  "world_art_id": null,
  "time": "56 мин.",
  "ads": false,
  "premier": "2015-10-10",
  "premier_rus": "2019-01-09",
  "availability": "2019-01-10",
  "serial_status": "offline",
  "activate_time": "2018-06-15 11:10:31",
  "budget": null,
  "fees_use": null,
  "fees_world": null,
  "fees_rus": null,
  "rate_mpaa": null,
  "description": "После трагических событий, оборвавших короткую супергеройскую карьеру Джессики Джонс, девушка пытается восстановить свою личную жизнь и свою карьеру частного детектива, расследуя таинственную активность людей со сверхспособностями в Нью-Йорке.",
  "iframe_url": "",
  "poster": "https://img.imgilall.me/movies/franchise/4/2/7/0/0/0/0/0/0/0/610x900_427.jpg",
  "country": {
    "1": "США"
  },
  "collection": {
    "40": "Netflix",
    "21": "Для молодёжи"
  },
  "genre": {
    "25": "Криминал",
    "11": "Фантастика",
    "17": "Боевик",
    "13": "Триллер",
    "10": "Зарубежный",
    "7": "Драма"
  },
  "director": [
    "Стивен Серджик",
    "Дженнифер Гетцингер",
    "Ута Бризвитц"
  ],
  "screenwriter": [
    "Брайан Бендис",
    "Майкл Гейдос",
    "Мелисса Розенберг"
  ],
  "producer": [
    "Тим Якофано",
    "Джеф Лоуб",
    "Мелисса Розенберг"
  ],
  "operator": [
    "Мануэль Биллетер",
    "Петр Хиномац"
  ],
  "composer": [
    "Шон Коллери"
  ],
  "design": [
    "Лорен Викс",
    "Джуди Ри",
    "Тони Бартон"
  ],
  "editor": [
    "Майкл Н. Нью",
    "Джонатан Чибнелл",
    "Тирса Хэкшоу"
  ],
  "actors": [
    "Кристен Риттер",
    "Рэйчел Тейлор",
    "Ика Дэрвилл",
    "Кэрри-Энн Мосс",
    "Джон Вентимилья",
    "Дэвид Теннант",
    "Ребекка Де Морнэй",
    "Дж.Р. Рамирез",
    "Джанет Мактир",
    "Уил Трэвэл"
  ],
  "actors_dubl": [
    "Татьяна Шитова",
    "Екатерина Семенова",
    "Евгений Рубцов",
    "Наталья Казначеева",
    "Даниил Эльдаров"
  ],
  "trivia": [
    "В 2016 году на сервисе Netflix вышел сериал, главным героем которого является Люк Кейдж, возлюбленный Джессики Джонс.",
    "Триш (Пэтси Уокер) является одним из старейших персонажей вселенной Marvel. Она начинала как модель, но со временем стала супергероиней, известной под именем Адская кошка. Исполнительница этой роли Рэйчел Тейлор была моделью прежде, чем стать актрисой.",
    "Баром Люка Кейджа стало то же самое питейное заведение, которое представлено как бар братьев Росато в гангстерском фильме Френсиса Форда Копполы \"Крёстный отец 2\" (1974).",
    "Во флэшбеке Джессика показана в костюме супергероини. В серии комиксов под названием \"Alias\" эту супергероиню звали Сокровищем, а волосы у неё были розовыми.",
    "Телесериал изначально назывался \"Известная как Джессика Джонс\", но затем название было решено укоротить. Названия всех эпизодов на английском тем не менее начинаются со слов «AKA» (also known as - известный как).",
    "Дэвид Теннант стал четвёртым актёром из телесериала \"Доктор Кто\" (2005-2010), играющим в фильмах кинематографической вселенной \"Marvel\". Его предшественник в \"Докторе Кто\" Кристофер Экклстон сыграл Малекита в фильме Алана Тейлора \"Тор 2: Царство тьмы\" (2013), Дженна Коулман исполнила роль Конни в фильме Джо Джонстона \"Первый мститель\" (2011), а Карен Гиллан сыграла Небулу в \"Стражах Галактики\" Джеймса Ганна (2014).",
    "На роль Джессики Джонс рассматривались кандидатуры Александры Даддарио, Терезы Палмер, Джессики Де Гау и Марин Айрлэнд, но сыграла главную героиню Кристен Риттер.",
    "Одним из клиентов Джерин Хогарт в киновселенной Marvel является Дэниэл Рэнд, известный как супергерой Железный кулак. Близким другом Джерин когда-то был отец Рэнда по имени Уэнделл. Он же назначил Джерин (в комиксах Джерин - мужчина) управлять своей недвижимостью.",
    "Бар Люка Кейджа показан как \"Life Cafe\" в рок-мюзикле \"Rent\" (1996).",
    "Второе появление Рэйчел Тейлор в фильмах, снятых по комиксам Marvel, после фантастического фильма ужасов Бретта Леонарда \"Леший\" (2005).",
    "В одном из эпизодов Джессика Джонс выпивает бутылку Wild Turkey, виски той же марки, что Фрэнк Касл пьёт в фильме Джонатана Хенсли \"Каратель\" (2004).",
    "Исполнившие роли Робин и Рубена Колби Минифи и Киран Малкеа появлялись в эпизодических ролях в телесериале \"Чёрный список\" (2013).",
    "Готовясь к съёмкам в телесериале, Кристен Риттер за два месяца тренировок набрала 4,5 килограмма мышечной массы.",
    "Вначале исполнительный продюсер и создатель сериала Мелисса Розенберг работала над ним ещё для коммерческой телевизионной сети ABC, однако в 2012 году проект был продан, но работу над ним Розенберг продолжила. Всё это время Кристен Риттер была на верхней строчке составленного Розенберг списка  кандидатов на роль Джессики Джонс.",
    "Вначале в фильме вместо Триш (Пэтси Уокер) должна была действовать Кэрол Дэнверс (она же Капитан Марвел), однако появилась всё-таки Уокер из-за изменений в киновселенной Marvel, а также из-за того, что о Дэнверс выйдет отдельный фильм \"Капитан Марвел\", премьера которого состоится 2019 году.",
    "Согласие на участие в съёмках Кэрри-Энн Мосс дала после прочтения сценариев первых двух серий. Роль Джерин Хогарт ей предложили исполнительные продюсеры Джозеф Лоуб III и Мелисса Розенберг.",
    "Костюмеры приготовили не менее десятка вариантов куртки Джессики Джонс. Одной из них стала кожанка для байкеров от шведского дома моды Acne Studios, с которой поснимали \"колокольчики, свистки и прочие аксессуары, неуместные в данном случае\". Актриса использовала во время съёмок 20 пар джинсов.",
    "В телесериале использовано свыше 600 спецэффектов.",
    "Брайан Бендис, создатель Джессики Джонс, посмотрел черновые варианты нескольких серий и остался очень доволен увиденным.",
    "Вначале планировалось сделать мир телесериала более похожим на мир, изображённый в комиксах. Супергерои были бы в таком мире хорошо известны и не являлись бы чем-то необычным, а сверхъестественные способности были бы широко распространены. В конечном счёте, однако, авторы телесериала решили сделать его мир менее похожим на прообраз в комиксах и более соответствующим миру кинематографической вселенной \"Marvel\", где из всех супергероев широкую известность в то время имели только Мстители и Сорвиголова. По крайней мере, зрителям известно, что супергероев в мире телесериала больше, чем одни только упомянутые персонажи.",
    "Одну из серий третьего сезона сняла сама Кристен Риттер — исполнительница главной роли Джессики Джонс. Это её режиссёрский дебют."
  ],
  "trailers": [
    {
      "name": "трейлер №1",
      "number": 1,
      "iframe_poster": "https://img.imgilall.me/movies/trailer/6/6/2/0/0/0/0/0/0/0/800x450_662.jpeg",
      "season": 3,
      "iframe_url": ""
    },
    {
      "name": "трейлер №1",
      "number": 1,
      "iframe_poster": "https://img.imgilall.me/movies/trailer/6/2/4/0/0/0/0/0/0/0/800x450_624.jpeg",
      "season": 3,
      "iframe_url": ""
    }
  ],
  "seasons": [
    {
      "poster": "https://img.imgilall.me/movies/season/2/9/2/0/0/0/0/0/0/0/610x900_292.jpg",
      "release_ru": "2015-11-21",
      "release_world": "2015-11-20",
      "availability": "2015-11-22",
      "iframe_url": "",
      "season": 1,
      "episodes": [
        {
          "episode": 1,
          "name": "AKA Ladies Night",
          "iframe_url": "",
          "iframe_poster": null,
          "release_ru": "2015-11-21",
          "release_world": "2015-11-20",
          "availability": "2015-11-22",
          "voiceActing": [
            "Дуб. (Кириллица)",
            "LostFilm",
            "Eng.Original"
          ],
          "ads": false,
          "subtitle": [
            "Eng. full"
          ]
        },
        {
          "episode": 2,
          "name": "AKA Crush Syndrome",
          "iframe_url": "",
          "iframe_poster": null,
          "release_ru": "2015-11-21",
          "release_world": "2015-11-20",
          "availability": "2015-11-22",
          "voiceActing": [
            "Дуб. (Кириллица)",
            "LostFilm",
            "Eng.Original"
          ],
          "ads": false,
          "subtitle": [
            "Eng. full"
          ]
        },
        {
          "episode": 3,
          "name": "AKA It's Called Whiskey",
          "iframe_url": "",
          "iframe_poster": null,
          "release_ru": "2015-11-21",
          "release_world": "2015-11-20",
          "availability": "2015-11-22",
          "voiceActing": [
            "Дуб. (Кириллица)",
            "LostFilm",
            "Eng.Original"
          ],
          "ads": false,
          "subtitle": [
            "Eng. full"
          ]
        },
        {
          "episode": 4,
          "name": "AKA 99 Friends",
          "iframe_url": "",
          "iframe_poster": null,
          "release_ru": "2015-11-21",
          "release_world": "2015-11-20",
          "availability": "2015-11-22",
          "voiceActing": [
            "Дуб. (Кириллица)",
            "LostFilm",
            "Eng.Original"
          ],
          "ads": false,
          "subtitle": [
            "Eng. full"
          ]
        },
        {
          "episode": 5,
          "name": "AKA The Sandwich Saved Me",
          "iframe_url": "",
          "iframe_poster": null,
          "release_ru": "2015-11-21",
          "release_world": "2015-11-20",
          "availability": "2015-11-22",
          "voiceActing": [
            "Дуб. (Кириллица)",
            "LostFilm",
            "Eng.Original"
          ],
          "ads": false,
          "subtitle": [
            "Eng. full"
          ]
        },
        {
          "episode": 6,
          "name": "AKA You're a Winner!",
          "iframe_url": "",
          "iframe_poster": null,
          "release_ru": "2015-11-21",
          "release_world": "2015-11-20",
          "availability": "2015-11-22",
          "voiceActing": [
            "Дуб. (Кириллица)",
            "LostFilm",
            "Eng.Original"
          ],
          "ads": false,
          "subtitle": [
            "Eng. full"
          ]
        },
        {
          "episode": 7,
          "name": "AKA Top Shelf Perverts",
          "iframe_url": "",
          "iframe_poster": null,
          "release_ru": "2015-11-21",
          "release_world": "2015-11-20",
          "availability": "2015-11-22",
          "voiceActing": [
            "Дуб. (Кириллица)",
            "LostFilm",
            "Eng.Original"
          ],
          "ads": false,
          "subtitle": [
            "Eng. full"
          ]
        },
        {
          "episode": 8,
          "name": "AKA WWJD?",
          "iframe_url": "",
          "iframe_poster": null,
          "release_ru": "2015-11-21",
          "release_world": "2015-11-20",
          "availability": "2015-11-22",
          "voiceActing": [
            "Дуб. (Кириллица)",
            "LostFilm",
            "Eng.Original"
          ],
          "ads": false,
          "subtitle": [
            "Eng. full"
          ]
        },
        {
          "episode": 9,
          "name": "AKA Sin Bin",
          "iframe_url": "",
          "iframe_poster": null,
          "release_ru": "2015-11-21",
          "release_world": "2015-11-20",
          "availability": "2015-11-22",
          "voiceActing": [
            "Дуб. (Кириллица)",
            "LostFilm",
            "Eng.Original"
          ],
          "ads": false,
          "subtitle": [
            "Eng. full"
          ]
        },
        {
          "episode": 10,
          "name": "AKA 1,000 Cuts",
          "iframe_url": "",
          "iframe_poster": null,
          "release_ru": "2015-11-21",
          "release_world": "2015-11-20",
          "availability": "2015-11-22",
          "voiceActing": [
            "Дуб. (Кириллица)",
            "LostFilm",
            "Eng.Original"
          ],
          "ads": false,
          "subtitle": [
            "Eng. full"
          ]
        },
        {
          "episode": 11,
          "name": "AKA I've Got the Blues",
          "iframe_url": "",
          "iframe_poster": null,
          "release_ru": "2015-11-21",
          "release_world": "2015-11-20",
          "availability": "2015-11-22",
          "voiceActing": [
            "Дуб. (Кириллица)",
            "LostFilm",
            "Eng.Original"
          ],
          "ads": false,
          "subtitle": [
            "Eng. full"
          ]
        },
        {
          "episode": 12,
          "name": "AKA Take a Bloody Number",
          "iframe_url": "",
          "iframe_poster": null,
          "release_ru": "2015-11-21",
          "release_world": "2015-11-20",
          "availability": "2015-11-22",
          "voiceActing": [
            "Дуб. (Кириллица)",
            "LostFilm",
            "Eng.Original"
          ],
          "ads": false,
          "subtitle": [
            "Eng. full"
          ]
        },
        {
          "episode": 13,
          "name": "AKA Smile",
          "iframe_url": "",
          "iframe_poster": null,
          "release_ru": "2015-11-21",
          "release_world": "2015-11-20",
          "availability": "2015-11-22",
          "voiceActing": [
            "Дуб. (Кириллица)",
            "LostFilm",
            "Eng.Original"
          ],
          "ads": false,
          "subtitle": [
            "Eng. full"
          ]
        }
      ]
    },
    {
      "poster": "https://img.imgilall.me/movies/season/2/9/3/0/0/0/0/0/0/0/610x900_293.jpg",
      "release_ru": "2018-03-09",
      "release_world": "2018-03-08",
      "availability": "2018-03-10",
      "iframe_url": "",
      "season": 2,
      "episodes": [
        {
          "episode": 1,
          "name": "AKA Start at the Beginning",
          "iframe_url": "",
          "iframe_poster": null,
          "release_ru": "2018-03-09",
          "release_world": "2018-03-08",
          "availability": "2018-03-10",
          "voiceActing": [
            "LostFilm",
            "Eng.Original"
          ],
          "ads": false,
          "subtitle": [
            "Eng. full"
          ]
        },
        {
          "episode": 2,
          "name": "AKA Freak Accident",
          "iframe_url": "",
          "iframe_poster": null,
          "release_ru": "2018-03-09",
          "release_world": "2018-03-08",
          "availability": "2018-03-10",
          "voiceActing": [
            "LostFilm",
            "Eng.Original"
          ],
          "ads": false,
          "subtitle": [
            "Eng. full"
          ]
        },
        {
          "episode": 3,
          "name": "AKA Sole Survivor",
          "iframe_url": "",
          "iframe_poster": null,
          "release_ru": "2018-03-09",
          "release_world": "2018-03-08",
          "availability": "2018-03-10",
          "voiceActing": [
            "LostFilm",
            "Eng.Original"
          ],
          "ads": false,
          "subtitle": [
            "Eng. full"
          ]
        },
        {
          "episode": 4,
          "name": "AKA God Help the Hobo",
          "iframe_url": "",
          "iframe_poster": null,
          "release_ru": "2018-03-09",
          "release_world": "2018-03-08",
          "availability": "2018-03-10",
          "voiceActing": [
            "LostFilm",
            "Eng.Original"
          ],
          "ads": false,
          "subtitle": [
            "Eng. full"
          ]
        },
        {
          "episode": 5,
          "name": "AKA The Octopus",
          "iframe_url": "",
          "iframe_poster": null,
          "release_ru": "2018-03-09",
          "release_world": "2018-03-08",
          "availability": "2018-03-10",
          "voiceActing": [
            "LostFilm",
            "Eng.Original"
          ],
          "ads": false,
          "subtitle": [
            "Eng. full"
          ]
        },
        {
          "episode": 6,
          "name": "AKA Facetime",
          "iframe_url": "",
          "iframe_poster": null,
          "release_ru": "2018-03-09",
          "release_world": "2018-03-08",
          "availability": "2018-03-10",
          "voiceActing": [
            "LostFilm",
            "Eng.Original"
          ],
          "ads": false,
          "subtitle": [
            "Eng. full"
          ]
        },
        {
          "episode": 7,
          "name": "AKA I Want Your Cray Cray",
          "iframe_url": "",
          "iframe_poster": null,
          "release_ru": "2018-03-09",
          "release_world": "2018-03-08",
          "availability": "2018-03-10",
          "voiceActing": [
            "LostFilm",
            "Eng.Original"
          ],
          "ads": false,
          "subtitle": [
            "Eng. full"
          ]
        },
        {
          "episode": 8,
          "name": "AKA Ain't We Got Fun",
          "iframe_url": "",
          "iframe_poster": null,
          "release_ru": "2018-03-09",
          "release_world": "2018-03-08",
          "availability": "2018-03-10",
          "voiceActing": [
            "LostFilm",
            "Eng.Original"
          ],
          "ads": false,
          "subtitle": [
            "Eng. full"
          ]
        },
        {
          "episode": 9,
          "name": "AKA Shark in the Bathtub, Monster in the Bed",
          "iframe_url": "",
          "iframe_poster": null,
          "release_ru": "2018-03-09",
          "release_world": "2018-03-08",
          "availability": "2018-03-10",
          "voiceActing": [
            "LostFilm",
            "Eng.Original"
          ],
          "ads": false,
          "subtitle": [
            "Eng. full"
          ]
        },
        {
          "episode": 10,
          "name": "AKA Pork Chop",
          "iframe_url": "",
          "iframe_poster": null,
          "release_ru": "2018-03-09",
          "release_world": "2018-03-08",
          "availability": "2018-03-10",
          "voiceActing": [
            "LostFilm",
            "Eng.Original"
          ],
          "ads": false,
          "subtitle": [
            "Eng. full"
          ]
        },
        {
          "episode": 11,
          "name": "AKA Three Lives and Counting",
          "iframe_url": "",
          "iframe_poster": null,
          "release_ru": "2018-03-09",
          "release_world": "2018-03-08",
          "availability": "2018-03-10",
          "voiceActing": [
            "LostFilm",
            "Eng.Original"
          ],
          "ads": false,
          "subtitle": [
            "Eng. full"
          ]
        },
        {
          "episode": 12,
          "name": "AKA Pray for My Patsy",
          "iframe_url": "",
          "iframe_poster": null,
          "release_ru": "2018-03-09",
          "release_world": "2018-03-08",
          "availability": "2018-03-10",
          "voiceActing": [
            "LostFilm",
            "Eng.Original"
          ],
          "ads": false,
          "subtitle": [
            "Eng. full"
          ]
        },
        {
          "episode": 13,
          "name": "AKA Playland",
          "iframe_url": "",
          "iframe_poster": null,
          "release_ru": "2018-03-09",
          "release_world": "2018-03-08",
          "availability": "2018-03-10",
          "voiceActing": [
            "LostFilm",
            "Eng.Original"
          ],
          "ads": false,
          "subtitle": [
            "Eng. full"
          ]
        }
      ]
    },
    {
      "poster": "https://img.imgilall.me/movies/season/5/8/5/6/0/0/0/0/0/0/610x900_5856.jpg",
      "release_ru": "2019-06-15",
      "release_world": "2019-06-14",
      "availability": "2019-06-16",
      "iframe_url": "",
      "season": 3,
      "episodes": [
        {
          "episode": 1,
          "name": "A.K.A The Perfect Burger",
          "iframe_url": "",
          "iframe_poster": null,
          "release_ru": "2019-06-15",
          "release_world": "2019-06-14",
          "availability": "2019-06-16",
          "voiceActing": [
            "LostFilm",
            "Eng.Original"
          ],
          "ads": false,
          "subtitle": [
            "Eng. full"
          ]
        },
        {
          "episode": 2,
          "name": "A.K.A You're Welcome",
          "iframe_url": "",
          "iframe_poster": null,
          "release_ru": "2019-06-15",
          "release_world": "2019-06-14",
          "availability": "2019-06-16",
          "voiceActing": [
            "LostFilm",
            "Eng.Original"
          ],
          "ads": false,
          "subtitle": [
            "Eng. full"
          ]
        },
        {
          "episode": 3,
          "name": "A.K.A I Have No Spleen",
          "iframe_url": "",
          "iframe_poster": null,
          "release_ru": "2019-06-15",
          "release_world": "2019-06-14",
          "availability": "2019-06-16",
          "voiceActing": [
            "LostFilm",
            "Eng.Original"
          ],
          "ads": false,
          "subtitle": [
            "Eng. full"
          ]
        },
        {
          "episode": 4,
          "name": "A.K.A Customer Service is Standing By",
          "iframe_url": "",
          "iframe_poster": null,
          "release_ru": "2019-06-15",
          "release_world": "2019-06-14",
          "availability": "2019-06-16",
          "voiceActing": [
            "LostFilm",
            "Eng.Original"
          ],
          "ads": false,
          "subtitle": [
            "Eng. full"
          ]
        },
        {
          "episode": 5,
          "name": "A.K.A I Wish",
          "iframe_url": "",
          "iframe_poster": null,
          "release_ru": "2019-06-15",
          "release_world": "2019-06-14",
          "availability": "2019-06-16",
          "voiceActing": [
            "LostFilm",
            "Eng.Original"
          ],
          "ads": false,
          "subtitle": [
            "Eng. full"
          ]
        },
        {
          "episode": 6,
          "name": "A.K.A Sorry Face",
          "iframe_url": "",
          "iframe_poster": null,
          "release_ru": "2019-06-15",
          "release_world": "2019-06-14",
          "availability": "2019-06-16",
          "voiceActing": [
            "LostFilm",
            "Eng.Original"
          ],
          "ads": false,
          "subtitle": [
            "Eng. full"
          ]
        },
        {
          "episode": 7,
          "name": "A.K.A The Double Half-Wappinger",
          "iframe_url": "",
          "iframe_poster": null,
          "release_ru": "2019-06-15",
          "release_world": "2019-06-14",
          "availability": "2019-06-16",
          "voiceActing": [
            "LostFilm",
            "Eng.Original"
          ],
          "ads": false,
          "subtitle": [
            "Eng. full"
          ]
        },
        {
          "episode": 8,
          "name": "A.K.A Camera Friendly",
          "iframe_url": "",
          "iframe_poster": null,
          "release_ru": "2019-06-15",
          "release_world": "2019-06-14",
          "availability": "2019-06-16",
          "voiceActing": [
            "LostFilm",
            "Eng.Original"
          ],
          "ads": false,
          "subtitle": [
            "Eng. full"
          ]
        },
        {
          "episode": 9,
          "name": "A.K.A I Did Something Today",
          "iframe_url": "",
          "iframe_poster": null,
          "release_ru": "2019-06-15",
          "release_world": "2019-06-14",
          "availability": "2019-06-16",
          "voiceActing": [
            "LostFilm",
            "Eng.Original"
          ],
          "ads": false,
          "subtitle": [
            "Eng. full"
          ]
        },
        {
          "episode": 10,
          "name": "A.K.A Hero Pants",
          "iframe_url": "",
          "iframe_poster": null,
          "release_ru": "2019-06-15",
          "release_world": "2019-06-14",
          "availability": "2019-06-16",
          "voiceActing": [
            "LostFilm",
            "Eng.Original"
          ],
          "ads": false,
          "subtitle": [
            "Eng. full"
          ]
        },
        {
          "episode": 11,
          "name": "A.K.A Hellcat",
          "iframe_url": "",
          "iframe_poster": null,
          "release_ru": "2019-06-15",
          "release_world": "2019-06-14",
          "availability": "2019-06-16",
          "voiceActing": [
            "LostFilm",
            "Eng.Original"
          ],
          "ads": false,
          "subtitle": [
            "Eng. full"
          ]
        },
        {
          "episode": 12,
          "name": "A.K.A A Lotta Worms",
          "iframe_url": "",
          "iframe_poster": null,
          "release_ru": "2019-06-15",
          "release_world": "2019-06-14",
          "availability": "2019-06-16",
          "voiceActing": [
            "LostFilm",
            "Eng.Original"
          ],
          "ads": false,
          "subtitle": [
            "Eng. full"
          ]
        },
        {
          "episode": 13,
          "name": "A.K.A Everything",
          "iframe_url": "",
          "iframe_poster": null,
          "release_ru": "2019-06-15",
          "release_world": "2019-06-14",
          "availability": "2019-06-16",
          "voiceActing": [
            "LostFilm",
            "Eng.Original"
          ],
          "ads": false,
          "subtitle": [
            "Eng. full"
          ]
        }
      ]
    }
  ],
  "voiceActing": [
    "Дуб. (Кириллица)",
    "LostFilm",
    "Eng.Original"
  ],
  "subtitle": [
    "Eng. full"
  ],
  "parts": []
}
