{
  "id": 27777,
  "name": "Омен 4: Пробуждение",
  "name_eng": "Omen IV: The Awakening",
  "year": 1991,
  "slogan": "«They said it was over.  They were wrong»",
  "age": "18+",
  "type": "film",
  "quality": "SD",
  "imdb": "3.9",
  "imdb_id": "0102585",
  "kinopoisk": "5.0",
  "kinopoisk_id": "81024",
  "world_art": null,
  "world_art_id": null,
  "time": "93 мин. / 01:33",
  "ads": false,
  "premier": "1991-05-20",
  "premier_rus": "1991-05-21",
  "availability": "1991-05-22",
  "activate_time": "2020-06-27 13:50:00",
  "budget": null,
  "fees_use": null,
  "fees_world": null,
  "fees_rus": null,
  "rate_mpaa": null,
  "description": "Дэмиен Торн мертв, но Пророчество существует, и на свет появляется девочка по имени Дилия, которую удочеряет молодая пара Карен и Джин Йорк. Когда Карен узнает, что Дилия была рождена при загадочных обстоятельствах, она нанимает частного детектива, чтобы найти настоящих родителей девочки.Вокруг начинают происходить зловещие кровавые события, и Карен начинает бояться и подозревать всех в смертельном заговоре против нее, так же как ей становится известна адская правда о ребенке...",
  "iframe_url": "",
  "iframe_poster": null,
  "poster": "https://img.imgilall.me/movies/franchise/2/7/7/7/7/0/0/0/0/0/610x900_27777.jpg",
  "country": {
    "7": "Канада"
  },
  "collection": [],
  "genre": {
    "26": "Ужасы",
    "24": "Детектив",
    "13": "Триллер"
  },
  "director": [
    "Хорхе Монтеси",
    "Доминик Отенен-Жирар"
  ],
  "screenwriter": [
    "Брайан Тэггерт",
    "Харви Бернхард",
    "Дэвид Зельцер"
  ],
  "producer": [
    "Харви Бернхард",
    "Роберт Дж. Андерсон",
    "Мэйс Нойфельд"
  ],
  "operator": [
    "Мартин Фюрер"
  ],
  "composer": [
    "Джонатан Шеффер"
  ],
  "design": [
    "Ричард Уилкокс",
    "Лоуренс Ф. Певек",
    "Сьюзэн Де Лавал"
  ],
  "editor": [
    "Фрэнк Ирвин"
  ],
  "actors": [
    "Фэй Грант",
    "Майкл Вудс",
    "Майкл Лернер",
    "Мэдисон Мэйсон",
    "Энн Хирн",
    "Джим Бёрнс",
    "Дон С. Дэвис",
    "Азия Виейра",
    "Меган Лейтч",
    "Джой Когхилл"
  ],
  "actors_dubl": [],
  "trivia": [
    "Режиссер Доминик Отенен-Жирар покинул проект на стадии продакшна, и на его место пришел Хорхе Монтеси.",
    "Фильм показывался в кинотеатрах Великобритании и Австралии."
  ],
  "trailers": [],
  "seasons": [],
  "voiceActing": [
    "Diva Universal"
  ],
  "subtitle": [],
  "parts": []
}
