{
  "id": 43538,
  "name": "Робокоп возвращается",
  "name_eng": "RoboCop: Prime Directives",
  "year": 2001,
  "slogan": "—",
  "age": "16+",
  "type": "series",
  "quality": "SD",
  "imdb": "4.7",
  "imdb_id": "0220008",
  "kinopoisk": "4.5",
  "kinopoisk_id": "81407",
  "world_art": null,
  "world_art_id": null,
  "time": "375 мин. всего",
  "ads": false,
  "premier": "2001-01-04",
  "premier_rus": "2001-01-05",
  "availability": "2001-01-06",
  "serial_status": "offline",
  "activate_time": "2021-01-12 18:04:00",
  "budget": "$8 000 000",
  "fees_use": null,
  "fees_world": null,
  "fees_rus": null,
  "rate_mpaa": "R",
  "description": "Убитый бандитами офицер Мёрфи стал частью уникального эксперимента корпорации ОСР по созданию первого в истории робота-полицейского, несокрушимого и грозного защитника закона. Когда робокоп появился на улицах Дельта-Сити, люди вздохнули с облегчением: теперь их покой охранял могучий сверхчеловек с железными нервами и металлическими руками.Шли годы. Доспехи робокопа покрылись шрамами и вмятинами от бесконечных схваток со злом. Уровень преступности падал, и робот-полицейский постепенно превращался в «свадебного генерала». И пришлось бы железному рыцарю ржаветь на свалке, если бы в городе не появился таинственный и безжалостный террорист, которого журналисты окрестили «Костяной Машиной».",
  "iframe_url": "",
  "poster": "https://img.imgilall.me/movies/franchise/4/3/5/3/8/0/0/0/0/0/610x900_43538.jpg",
  "country": {
    "7": "Канада"
  },
  "collection": [],
  "genre": {
    "25": "Криминал",
    "11": "Фантастика",
    "17": "Боевик"
  },
  "director": [
    "Джулиан Грант"
  ],
  "screenwriter": [
    "Брэд Абрахам",
    "Джозеф О’Брайэн",
    "Майкл Майнер"
  ],
  "producer": [
    "Дэбби Файастоун",
    "Джей Файастоун",
    "Джулиан Грант"
  ],
  "operator": [
    "Расс Гузи"
  ],
  "composer": [
    "Норман Оренштейн"
  ],
  "design": [
    "Тим Бойд",
    "Эндрю Халл",
    "Джудит Инглэнд"
  ],
  "editor": [
    "Чак Кан",
    "Марлон Москаль",
    "Джойс Пун"
  ],
  "actors": [
    "Пейдж Флетчер",
    "Морис Дин Винт",
    "Мария дель Мар",
    "Энтони Лемке",
    "Кевин Джубинвилл",
    "Дэвид Фрайзер",
    "Роуг Джонстон",
    "Миф",
    "Тед Лудзик",
    "Джеймс Пёрселл"
  ],
  "actors_dubl": [],
  "trivia": [],
  "trailers": [],
  "seasons": [
    {
      "poster": null,
      "release_ru": null,
      "release_world": null,
      "availability": null,
      "iframe_url": "",
      "season": 1,
      "episodes": [
        {
          "episode": 1,
          "name": null,
          "iframe_url": "",
          "iframe_poster": null,
          "release_ru": null,
          "release_world": null,
          "availability": null,
          "voiceActing": [
            "Рус. Проф. многоголосый",
            "Eng.Original"
          ],
          "ads": false,
          "subtitle": []
        },
        {
          "episode": 2,
          "name": null,
          "iframe_url": "",
          "iframe_poster": null,
          "release_ru": null,
          "release_world": null,
          "availability": null,
          "voiceActing": [
            "Рус. Проф. многоголосый",
            "Eng.Original"
          ],
          "ads": false,
          "subtitle": []
        },
        {
          "episode": 3,
          "name": null,
          "iframe_url": "",
          "iframe_poster": null,
          "release_ru": null,
          "release_world": null,
          "availability": null,
          "voiceActing": [
            "Рус. Проф. многоголосый",
            "Eng.Original"
          ],
          "ads": false,
          "subtitle": []
        },
        {
          "episode": 4,
          "name": null,
          "iframe_url": "",
          "iframe_poster": null,
          "release_ru": null,
          "release_world": null,
          "availability": null,
          "voiceActing": [
            "Рус. Проф. многоголосый",
            "Eng.Original"
          ],
          "ads": false,
          "subtitle": []
        }
      ]
    }
  ],
  "voiceActing": [
    "Рус. Проф. многоголосый",
    "Eng.Original"
  ],
  "subtitle": [],
  "parts": []
}
