{
  "id": 222,
  "name": "Убийство в Восточном экспрессе",
  "name_eng": "Murder on the Orient Express",
  "year": 2017,
  "slogan": "«Под подозрением каждый»",
  "age": "16+",
  "type": "film",
  "quality": "FHD (1080p)",
  "imdb": "6.5",
  "imdb_id": "3402236",
  "kinopoisk": "6.7",
  "kinopoisk_id": "817969",
  "world_art": null,
  "world_art_id": null,
  "time": "114 мин. / 01:54",
  "ads": false,
  "premier": "2017-11-03",
  "premier_rus": "2017-11-09",
  "availability": null,
  "activate_time": "2018-06-07 15:54:35",
  "budget": "$55 000 000",
  "fees_use": "$102 826 543",
  "fees_world": "$352 789 811",
  "fees_rus": "$16 668 164",
  "rate_mpaa": "PG-13",
  "description": "Путешествие на одном из самых роскошных поездов Европы неожиданно превращается в одну из самых стильных и захватывающих загадок в истории. Фильм рассказывает историю тринадцати пассажиров поезда, каждый из которых находится под подозрением. И только сыщик должен как можно быстрее разгадать головоломку, прежде чем преступник нанесет новый удар.",
  "iframe_url": "",
  "iframe_poster": null,
  "poster": "https://img.imgilall.me/movies/franchise/2/2/2/0/0/0/0/0/0/0/610x900_222.jpg",
  "country": {
    "7": "Канада",
    "34": "Мальта",
    "1": "США",
    "2": "Великобритания"
  },
  "collection": [],
  "genre": {
    "24": "Детектив",
    "10": "Зарубежный",
    "7": "Драма"
  },
  "director": [
    "Кеннет Брана"
  ],
  "screenwriter": [
    "Майкл Грин",
    "Агата Кристи"
  ],
  "producer": [
    "Уинстон Аццопарди",
    "Кеннет Брана",
    "Жереми Шеврет"
  ],
  "operator": [
    "Харис Замбарлукос"
  ],
  "composer": [
    "Патрик Дойл"
  ],
  "design": [
    "Джим Клэй",
    "Эндрю Эклэнд-Сноу",
    "Уилл Кубро"
  ],
  "editor": [
    "Мик Одсли"
  ],
  "actors": [
    "Кеннет Брана",
    "Пенелопа Крус",
    "Уиллем Дефо",
    "Джуди Денч",
    "Джонни Депп",
    "Джош Гад",
    "Дерек Джекоби",
    "Лесли Одом мл.",
    "Мишель Пфайффер",
    "Дэйзи Ридли"
  ],
  "actors_dubl": [
    "Максим Сергеев",
    "Мария Цветкова-Овсянникова",
    "Станислав Концевич",
    "Татьяна Ткач",
    "Сергей Дьячков"
  ],
  "trivia": [
    "Экранизация детектива Агаты Кристи."
  ],
  "trailers": [],
  "seasons": [],
  "voiceActing": [
    "Рус. Дублированный"
  ],
  "subtitle": [],
  "parts": []
}
