{
  "id": 938,
  "name": "Затура: Космическое приключение",
  "name_eng": "Zathura: A Space Adventure",
  "year": 2005,
  "slogan": "«Приключения ждут»",
  "age": "6+",
  "type": "film",
  "quality": "FHD (1080p)",
  "imdb": "6.2",
  "imdb_id": "0406375",
  "kinopoisk": "6.4",
  "kinopoisk_id": "81097",
  "world_art": null,
  "world_art_id": null,
  "time": "101 мин. / 01:41",
  "ads": false,
  "premier": "2005-11-06",
  "premier_rus": "2005-12-29",
  "availability": null,
  "activate_time": "2018-07-05 10:33:49",
  "budget": "$65 000 000",
  "fees_use": "$29 258 869",
  "fees_world": "+ $35 062 632 = $64 321 501",
  "fees_rus": "$791 000",
  "rate_mpaa": "PG",
  "description": "Братья Уолтер и Дэнни находят в подвале своего старого дома загадочную игру под названием «Затура» и в результате оказываются в космосе.Во время их фантастического путешествия они встречаются с астронавтом, попадают под метеоритный дождь, противостоят враждебным инопланетянам, похожим на ящериц, сталкиваются с неуправляемым роботом и межгалактическим космическим кораблем. Но самая большая опасность ожидает их впереди. Если они не успеют вовремя закончить игру и добраться до планеты Затура, то навеки останутся в открытом космосе…",
  "iframe_url": "",
  "iframe_poster": null,
  "poster": "https://img.imgilall.me/movies/franchise/9/3/8/0/0/0/0/0/0/0/610x900_938.jpg",
  "country": {
    "1": "США"
  },
  "collection": [],
  "genre": {
    "9": "Приключения",
    "11": "Фантастика",
    "6": "Фэнтези",
    "33": "Семейный",
    "19": "Комедия",
    "17": "Боевик",
    "10": "Зарубежный"
  },
  "director": [
    "Джон Фавро"
  ],
  "screenwriter": [
    "Дэвид Кепп",
    "Джон Кэмпс",
    "Крис Ван Оллсбёрг"
  ],
  "producer": [
    "Майкл Де Лука",
    "Скотт Крупф",
    "Уильям Тейтлер"
  ],
  "operator": [
    "Гильермо Наварро"
  ],
  "composer": [
    "Джон Дебни"
  ],
  "design": [
    "Дж. Майкл Рива",
    "Дэвид Ф. Классен",
    "Ричард Ф. Мейс"
  ],
  "editor": [
    "Дэн Лебентал"
  ],
  "actors": [
    "Джона Бобо",
    "Джош Хатчерсон",
    "Дэкс Шепард",
    "Кристен Стюарт",
    "Тим Роббинс",
    "Фрэнк Оз",
    "Джон Александр",
    "Дерек Мирс",
    "Дуглас Тейт",
    "Джо Букаро III"
  ],
  "actors_dubl": [
    "Иван Чабан",
    "Антон Смола",
    "Андрей Зайцев",
    "Эльвира Ишмуратова",
    "Николай Смирнов"
  ],
  "trivia": [
    "Рабочее название фильма — Джуманджи 2 (Jumanji 2)."
  ],
  "trailers": [],
  "seasons": [],
  "voiceActing": [
    "Рус. Дублированный",
    "В. Королев",
    "Рус. Проф. двухголосый",
    "Eng.Original",
    "Eng. Orig. with Commentary"
  ],
  "subtitle": [
    "Рус. полные"
  ],
  "parts": [
    225,
    937,
    938
  ]
}
