{
  "id": 29065,
  "name": "Фантом",
  "name_eng": "Phantom",
  "year": 2015,
  "slogan": "«A story you wish were true»",
  "age": "12+",
  "type": "film",
  "quality": "HD (720p)",
  "imdb": "5.9",
  "imdb_id": "0",
  "kinopoisk": "7.2",
  "kinopoisk_id": "821150",
  "world_art": null,
  "world_art_id": null,
  "time": "136 мин. / 02:16",
  "ads": false,
  "premier": "2015-08-28",
  "premier_rus": "2015-08-29",
  "availability": "2015-08-30",
  "activate_time": "2020-07-09 10:20:00",
  "budget": "$7 500 000",
  "fees_use": "$489 984",
  "fees_world": null,
  "fees_rus": null,
  "rate_mpaa": null,
  "description": "26 ноября 2008 года был совершён один из крупнейших терактов в Мумбаи. Ответственность за теракт взяла на себя крупная террористическая организация «Лашкаре-Тайба», буквально переводимая как «Армия Бога». В результате погибли 195 человек, более 300 были ранены. Этот фильм повествует о ликвидации лидеров этой группировки храбрыми индийскими солдатами, которые рискуя своими жизнями, вторглись под прикрытием на территорию Пакистана, чтобы уничтожить ячейку одной из самых опасных и жестоких террористических организаций в мире.",
  "iframe_url": "",
  "iframe_poster": null,
  "poster": "https://img.imgilall.me/movies/franchise/2/9/0/6/5/0/0/0/0/0/610x900_29065.jpg",
  "country": {
    "26": "Индия"
  },
  "collection": [],
  "genre": {
    "17": "Боевик",
    "13": "Триллер",
    "7": "Драма"
  },
  "director": [
    "Кабир Кхан"
  ],
  "screenwriter": [
    "Кабир Кхан",
    "Parveez Sheikh",
    "Каусар Мунир"
  ],
  "producer": [
    "Саджид Надиадвала",
    "Hervey Afiune",
    "Rajan Kapoor"
  ],
  "operator": [
    "Асим Мишра"
  ],
  "composer": [
    "Притам Чакраборти",
    "Джулиус Пакьям"
  ],
  "design": [
    "Пол МакКаллок",
    "Zeina Nawar",
    "Сукант Паниграхи"
  ],
  "editor": [
    "Hervey Afiune",
    "Аариф Шейх"
  ],
  "actors": [
    "Саиф Али Кхан",
    "Катрина Каиф",
    "Сабьясачи Чакраборти",
    "Раджеш Тайланг",
    "Hervey Afiune",
    "Elyas Ahmad",
    "Фара Ахмед",
    "Брэнди Александр",
    "Мохаммед Али",
    "Маной Ананд"
  ],
  "actors_dubl": [],
  "trivia": [],
  "trailers": [],
  "seasons": [],
  "voiceActing": [
    "JoyStudio"
  ],
  "subtitle": [],
  "parts": []
}
