{
  "id": 3723,
  "name": "Сюрприз",
  "name_eng": "De Surprise",
  "year": 2015,
  "slogan": "«Пока смерть не разлучит нас»",
  "age": "12+",
  "type": "film",
  "quality": "FHD (1080p)",
  "imdb": "6.7",
  "imdb_id": "3409440",
  "kinopoisk": "6.6",
  "kinopoisk_id": "820220",
  "world_art": null,
  "world_art_id": null,
  "time": "97 мин. / 01:37",
  "ads": false,
  "premier": "2015-05-21",
  "premier_rus": "2015-09-17",
  "availability": null,
  "activate_time": "2018-11-21 09:17:16",
  "budget": null,
  "fees_use": null,
  "fees_world": null,
  "fees_rus": "$31 636",
  "rate_mpaa": null,
  "description": "Эксцентричный мультимиллионер подписывает соглашение о «прекращении» своей жизни. Выбирая гроб для похорон, он знакомится с подписавшей аналогичный договор молодой женщиной. Проблемы возникают после того, как они влюбляются друг в друга и пытаются расторгнуть заключенные контракты…",
  "iframe_url": "",
  "iframe_poster": null,
  "poster": "https://img.imgilall.me/movies/franchise/3/7/2/3/0/0/0/0/0/0/610x900_3723.jpg",
  "country": {
    "31": "Нидерланды",
    "20": "Германия",
    "21": "Ирландия",
    "29": "Бельгия"
  },
  "collection": [],
  "genre": {
    "19": "Комедия",
    "10": "Зарубежный",
    "8": "Мелодрама"
  },
  "director": [
    "Майк ван Дим"
  ],
  "screenwriter": [
    "Майк ван Дим",
    "Карин ван Хольст Пеллекан",
    "Белькампо"
  ],
  "producer": [
    "Ханс де Верс",
    "Майк ван Дим",
    "Эльс Вандеворст"
  ],
  "operator": [
    "Рогир Стофферс"
  ],
  "composer": [
    "Брайан Бирн"
  ],
  "design": [
    "Хьюберт Пуль",
    "Тамо Кунц",
    "Барбара Мертенс"
  ],
  "editor": [
    "Джессика Де Конинг"
  ],
  "actors": [
    "Йерун ван Конингсбругге",
    "Джорджина Вербаан",
    "Ян Деклер",
    "Генри Гудман",
    "Анкур Баль",
    "Навид Чоудри",
    "Оливер Гатс",
    "Ронни Джатти",
    "Элизабет Андерсен",
    "Тамар Баруч"
  ],
  "actors_dubl": [
    "Борис Шувалов",
    "Людмила Шувалова",
    "Рудольф Панков",
    "Олег Форостенко",
    "Андрей Градов"
  ],
  "trivia": [
    "Этот фильм основан на одноименном рассказе Белькампо, который режиссер Майк ван Дим хотел экранизировать с тех пор, как получил «Оскара» за фильм «Характер» (1997). Первоначально фильм думали снимать в США, и Скарлетт Йоханссон хотела сыграть в нем главную женскую роль. Однако ван Дим не был уверен, что Йоханссон справится с комедийной ролью и не пришел к согласию с продюсерами, в итоге он забрал проект обратно в Нидерланды."
  ],
  "trailers": [],
  "seasons": [],
  "voiceActing": [
    "Рус. Дублированный",
    "Original"
  ],
  "subtitle": [],
  "parts": []
}
