{
  "id": 16942,
  "name": "Не в моём вкусе",
  "name_eng": "Pas son genre",
  "year": 2013,
  "slogan": "—",
  "age": "16+",
  "type": "film",
  "quality": "SD",
  "imdb": "6.5",
  "imdb_id": "3489470",
  "kinopoisk": "6.3",
  "kinopoisk_id": "821923",
  "world_art": null,
  "world_art_id": null,
  "time": "111 мин. / 01:51",
  "ads": false,
  "premier": "2014-04-23",
  "premier_rus": "2016-05-05",
  "availability": "2016-05-06",
  "activate_time": "2020-04-24 18:07:00",
  "budget": null,
  "fees_use": null,
  "fees_world": null,
  "fees_rus": "$17 728",
  "rate_mpaa": null,
  "description": "Клеман, молодой парижский философ и писатель, отправлен на год преподавать в уездный городок Аррас. От тоски по столичной жизни его спасает Дженнифер, местная симпатичная парикмахерша, которая хоть и не читает Достоевского, зато здорово поет в караоке. Между ними нет ничего общего, кроме взаимного притяжения. И кажется, одной страсти достаточно, чтобы прожить счастливо, но однажды Дженнифер находит на книжном прилавке новый роман Клемана… о самой себе.",
  "iframe_url": "",
  "iframe_poster": null,
  "poster": "https://img.imgilall.me/movies/franchise/1/6/9/4/2/0/0/0/0/0/610x900_16942.jpg",
  "country": {
    "9": "Франция",
    "29": "Бельгия"
  },
  "collection": {
    "11": "Для женщин"
  },
  "genre": {
    "10": "Зарубежный",
    "8": "Мелодрама",
    "7": "Драма"
  },
  "director": [
    "Люка Бельво"
  ],
  "screenwriter": [
    "Люка Бельво",
    "Филипп Вилен"
  ],
  "producer": [
    "Патрик Кине",
    "Патрик Собельман",
    "Арлетт Зильберберг"
  ],
  "operator": [
    "Пьеррик Гантельми д’Иль"
  ],
  "composer": [
    "Фридерик Вершеваль"
  ],
  "design": [
    "Фредерик Бельво",
    "Натали Рауль"
  ],
  "editor": [
    "Лудо Трох"
  ],
  "actors": [
    "Эмили Декьенн",
    "Лоик Корбери",
    "Сандра Нкаке",
    "Шарлотта Талпер",
    "Анн Косенс",
    "Даниэла Бисконти",
    "Дидье Сандр",
    "Мартин Шевалье",
    "Флориан Тирье",
    "Аннелиз Эсме"
  ],
  "actors_dubl": [],
  "trivia": [],
  "trailers": [],
  "seasons": [],
  "voiceActing": [
    "Рус. Проф. многоголосый"
  ],
  "subtitle": [],
  "parts": []
}
