{
  "id": 36586,
  "name": "Трип Кеты",
  "name_eng": "El viaje de Keta",
  "year": 2018,
  "slogan": "«An hallucinatory comedy»",
  "age": null,
  "type": "film",
  "quality": "HD (720p)",
  "imdb": "6.2",
  "imdb_id": "3419036",
  "kinopoisk": null,
  "kinopoisk_id": "820244",
  "world_art": null,
  "world_art_id": null,
  "time": "104 мин. / 01:44",
  "ads": true,
  "premier": "2018-05-26",
  "premier_rus": "2018-05-27",
  "availability": "2018-05-28",
  "activate_time": "2020-09-01 10:23:00",
  "budget": "MX$ 8 000 000",
  "fees_use": "",
  "fees_world": "",
  "fees_rus": "",
  "rate_mpaa": "",
  "description": "Кета - умная девочка с шикарной причёской и большими амбициями, но почему-то она продаёт наркотики.",
  "iframe_url": "",
  "iframe_poster": null,
  "poster": "https://img.imgilall.me/movies/franchise/3/6/5/8/6/0/0/0/0/0/610x900_36586.jpg",
  "country": {
    "17": "Мексика"
  },
  "collection": [],
  "genre": {
    "19": "Комедия"
  },
  "director": [
    "Хулио Бекор",
    "Fernando Sma"
  ],
  "screenwriter": [
    "Beto Cohen"
  ],
  "producer": [
    "Хулио Бекор",
    "Beto Cohen",
    "Claudia Del Castillo"
  ],
  "operator": [
    "Jana Arcega",
    "Claudia Becerril Bulos",
    "René Flores"
  ],
  "composer": [
    "Abraham Urquiza"
  ],
  "design": [
    "Хулио Бекор"
  ],
  "editor": [
    "Антонио Брибиска Айала"
  ],
  "actors": [
    "Летисия Уихара",
    "Фабиола Кампоманес",
    "Хулио Бекор",
    "Даниэла Шмидт",
    "Анхелика Мария",
    "Рехина Ороско",
    "Патрисия Рейес Спиндола",
    "Альберто Эстрелья",
    "Моника Дионне",
    "Моника Уарте"
  ],
  "actors_dubl": [],
  "trivia": [],
  "trailers": [],
  "seasons": [],
  "voiceActing": [
    "Рус. Люб. многоголосый"
  ],
  "subtitle": [],
  "parts": []
}
