{
  "id": 47610,
  "name": "Агирре, гнев божий",
  "name_eng": "Aguirre, der Zorn Gottes",
  "year": 1972,
  "slogan": "«On this river, God never finished his creation»",
  "age": "12+",
  "type": "film",
  "quality": "HD (720p)",
  "imdb": "7.9",
  "imdb_id": "0068182",
  "kinopoisk": "7.7",
  "kinopoisk_id": "8206",
  "world_art": null,
  "world_art_id": null,
  "time": "95 мин. / 01:35",
  "ads": false,
  "premier": "1972-12-29",
  "premier_rus": "1972-12-30",
  "availability": "1972-12-31",
  "activate_time": "2021-06-02 18:40:00",
  "budget": "$370 000",
  "fees_use": null,
  "fees_world": "$34 167",
  "fees_rus": null,
  "rate_mpaa": null,
  "description": "После завоевания и разграбления испанцами государства Инков возникла легенда о сказочно богатой стране Эльдорадо, которая затерялась в бесчисленных болотах бассейна Амазонки.",
  "iframe_url": "",
  "iframe_poster": null,
  "poster": "https://img.imgilall.me/movies/franchise/4/7/6/1/0/0/0/0/0/0/610x900_47610.jpg",
  "country": {
    "17": "Мексика",
    "38": "Германия (ФРГ)",
    "79": "Перу"
  },
  "collection": [],
  "genre": {
    "9": "Приключения",
    "28": "Исторический",
    "27": "Биографический",
    "17": "Боевик",
    "7": "Драма"
  },
  "director": [
    "Вернер Херцог"
  ],
  "screenwriter": [
    "Вернер Херцог"
  ],
  "producer": [
    "Вернер Херцог",
    "Ганс Прешер",
    "Дэниэл Камино"
  ],
  "operator": [
    "Томас Маух"
  ],
  "composer": [
    "Popol Vuh"
  ],
  "design": [],
  "editor": [
    "Беате Майнка-Йеллингхауз"
  ],
  "actors": [
    "Клаус Кински",
    "Елена Рохо",
    "Дель Негро",
    "Руй Герра",
    "Петер Берлинг",
    "Сесилия Ривера",
    "Даниэль Адес",
    "Эдвард Роланд",
    "Алехандро Чавез",
    "Армандо Полана"
  ],
  "actors_dubl": [],
  "trivia": [],
  "trailers": [],
  "seasons": [],
  "voiceActing": [
    "Рус. Проф. многоголосый"
  ],
  "subtitle": [],
  "parts": []
}
