{
  "id": 36356,
  "name": "Каждому своё",
  "name_eng": "",
  "year": 2017,
  "slogan": null,
  "age": "16+",
  "type": "series",
  "quality": "HD (720p)",
  "imdb": null,
  "imdb_id": null,
  "kinopoisk": null,
  "kinopoisk_id": "839049",
  "world_art": null,
  "world_art_id": null,
  "time": "",
  "ads": false,
  "premier": null,
  "premier_rus": null,
  "availability": null,
  "serial_status": "offline",
  "activate_time": "2020-08-24 11:58:00",
  "budget": null,
  "fees_use": null,
  "fees_world": null,
  "fees_rus": null,
  "rate_mpaa": null,
  "description": "История о двух друзьях, выросших в детском доме Волгограда. Повзрослев, Клим и Добрыня перебираются жить в Москву, где постигают все прелести жизни в большом городе.",
  "iframe_url": "",
  "poster": "https://img.imgilall.me/movies/franchise/3/6/3/5/6/0/0/0/0/0/610x900_36356.jpg",
  "country": {
    "5": "Россия"
  },
  "collection": [],
  "genre": {
    "8": "Мелодрама"
  },
  "director": [
    "Игорь Гринякин"
  ],
  "screenwriter": [
    "Игорь Гринякин"
  ],
  "producer": [
    "Сергей Оганесян",
    "Елена Геладзе"
  ],
  "operator": [
    "Максим Жуков"
  ],
  "composer": [],
  "design": [
    "Анна Лазарева"
  ],
  "editor": [],
  "actors": [
    "Павел Попов",
    "Иван Оранский",
    "Оксана Акиньшина",
    "Никита Лобанов",
    "Ксения Радченко",
    "Александра Богданова",
    "Надежда Игошина",
    "Артем Манукян",
    "Алёна Константинова",
    "Алексей Сидоров"
  ],
  "actors_dubl": [],
  "trivia": [],
  "trailers": [],
  "seasons": [
    {
      "poster": null,
      "release_ru": null,
      "release_world": null,
      "availability": null,
      "iframe_url": "",
      "season": 1,
      "episodes": [
        {
          "episode": 1,
          "name": null,
          "iframe_url": "",
          "iframe_poster": null,
          "release_ru": null,
          "release_world": null,
          "availability": null,
          "voiceActing": [
            "Рус. Оригинальный"
          ],
          "ads": false,
          "subtitle": []
        },
        {
          "episode": 2,
          "name": null,
          "iframe_url": "",
          "iframe_poster": null,
          "release_ru": null,
          "release_world": null,
          "availability": null,
          "voiceActing": [
            "Рус. Оригинальный"
          ],
          "ads": false,
          "subtitle": []
        }
      ]
    }
  ],
  "voiceActing": [
    "Рус. Оригинальный"
  ],
  "subtitle": [],
  "parts": []
}
