{
  "id": 20024,
  "name": "Метаморфозис",
  "name_eng": "Metamorphosis",
  "year": 2015,
  "slogan": "—",
  "age": "18+",
  "type": "film",
  "quality": "FHD (1080p)",
  "imdb": "6.2",
  "imdb_id": "5339432",
  "kinopoisk": "5.9",
  "kinopoisk_id": "839705",
  "world_art": null,
  "world_art_id": null,
  "time": "103 мин. / 01:43",
  "ads": false,
  "premier": "2016-11-07",
  "premier_rus": "2015-11-19",
  "availability": "2015-11-20",
  "activate_time": "2020-05-26 13:34:00",
  "budget": null,
  "fees_use": null,
  "fees_world": null,
  "fees_rus": "$5 317",
  "rate_mpaa": null,
  "description": "Жизнь талантливого пианиста Алексея Сенина – это репетиции, концерты, музыка. Ничего, кроме музыки. Мать, целиком подчинившая своей безумной любовью сына. Тетка, озабоченная исключительно бытом. Предприимчивый директор Влад. Ближний круг – из абсолютно чужих ему людей. В свои двадцать пять Алексей, несмотря на известность и признание, словно одинокий несчастный ребенок. Однажды, выступая в доме состоятельного бизнесмена, он знакомится с дочкой хозяина, 11-летней Сашей. И в ней он находит родственную душу. Их невинная дружба вызывает вокруг страшную бурю злобы, запретов и насилия.Девочка и музыкант – два чистых и светлых человека, против которых ополчился циничный, жестокий и больной мир…",
  "iframe_url": "",
  "iframe_poster": null,
  "poster": "https://img.imgilall.me/movies/franchise/2/0/0/2/4/0/0/0/0/0/610x900_20024.jpg",
  "country": {
    "5": "Россия"
  },
  "collection": {
    "11": "Для женщин"
  },
  "genre": {
    "7": "Драма"
  },
  "director": [
    "Сергей Тарамаев",
    "Любовь Львова"
  ],
  "screenwriter": [
    "Сергей Тарамаев",
    "Любовь Львова"
  ],
  "producer": [
    "Владимир Лелеков",
    "Михаил Карасев",
    "Тамара Богданова"
  ],
  "operator": [
    "Азиз Жамбакиев"
  ],
  "composer": [
    "Андрей Дергачев"
  ],
  "design": [
    "Тимофей Рябушинский",
    "Владимир Никифоров",
    "Дмитрий Андреев"
  ],
  "editor": [],
  "actors": [
    "Егор Корешков",
    "Евгений Ткачук",
    "Василиса Бернаскони",
    "Юлия Ауг",
    "Ёла Санько",
    "Денис Шведов",
    "Амбарцум Кабанян",
    "Сергей Русскин",
    "Николай Орловский",
    "Светлана Столярова"
  ],
  "actors_dubl": [],
  "trivia": [],
  "trailers": [],
  "seasons": [],
  "voiceActing": [
    "Рус. Оригинальный"
  ],
  "subtitle": [],
  "parts": []
}
