{
  "id": 34167,
  "name": "Космические ковбои",
  "name_eng": "Space Cowboys",
  "year": 2000,
  "slogan": "«Звёздный экипаж на орбите Земли»",
  "age": "12+",
  "type": "film",
  "quality": "HD (720p)",
  "imdb": "6.5",
  "imdb_id": "0",
  "kinopoisk": "6.6",
  "kinopoisk_id": "836",
  "world_art": null,
  "world_art_id": null,
  "time": "130 мин. / 02:10",
  "ads": false,
  "premier": "2000-08-01",
  "premier_rus": "2000-08-02",
  "availability": "2000-08-03",
  "activate_time": "2020-07-17 07:37:00",
  "budget": "$65 000 000",
  "fees_use": "$90 464 773",
  "fees_world": "+ $38 419 359 = $128 884 132",
  "fees_rus": null,
  "rate_mpaa": "PG-13",
  "description": "В 1958 году четверых отважных пилотов, которые должны были первыми отправиться в космос, в результате интриг отстранили от полетов навсегда. Сорок лет о них никто не вспоминал, но вот, получено сообщение: старый советский спутник связи может рухнуть на землю.Грозит катастрофа невиданных масштабов. Технология спутника настолько устарела, что разобраться здесь могут только четверо астронавтов-отставников.",
  "iframe_url": "",
  "iframe_poster": null,
  "poster": "https://img.imgilall.me/movies/franchise/3/4/1/6/7/0/0/0/0/0/610x900_34167.jpg",
  "country": {
    "1": "США"
  },
  "collection": [],
  "genre": {
    "9": "Приключения",
    "17": "Боевик",
    "13": "Триллер"
  },
  "director": [
    "Клинт Иствуд"
  ],
  "screenwriter": [
    "Кен Кауфман",
    "Ховард Клауснер"
  ],
  "producer": [
    "Клинт Иствуд",
    "Эндрю Лазар",
    "Том Рукер"
  ],
  "operator": [
    "Джек Н. Грин"
  ],
  "composer": [
    "Ленни Нихаус"
  ],
  "design": [
    "Генри Бамстед",
    "Джек Дж. Тейлор мл.",
    "Gary Eastman"
  ],
  "editor": [
    "Джоэл Кокс"
  ],
  "actors": [
    "Клинт Иствуд",
    "Томми Ли Джонс",
    "Дональд Сазерленд",
    "Джеймс Гарнер",
    "Джеймс Кромуэлл",
    "Марша Гей Харден",
    "Уильям Дивэйн",
    "Лорен Дин",
    "Кортни Б. Вэнс",
    "Барбара Бэбкок"
  ],
  "actors_dubl": [
    "Леонид Белозорович",
    "Владимир Антоник",
    "Рудольф Панков",
    "Владимир Ферапонтов",
    "Алексей Золотницкий"
  ],
  "trivia": [
    "Поначалу Клинт Иствуд отказался снимать этот фильм, сочтя сценарий слишком неправдоподобным. Свое мнение он изменил в 1998 году, когда в космос полетел 77-летний астронавт Джон Гленн.",
    "Первоначально предполагалось, что Джерри О`Нила сыграет Шон Коннери, а Тэнка Салливана — Джек Николсон. В итоге эти роли исполнили соответственно Дональд Сазерленд и Джеймс Гарнер.",
    "На съемках актерам пришлось нелегко: 72-летний Джеймс Гарнер, например, сломал руку.",
    "В картине использованы реальные кадры, снятые в космосе.",
    "По словам монтажера Джоэла Кокса, Клинт Иствуд, привыкший работать очень быстро, снимал по 35-40 планов в день.",
    "Клинт Иствуд сочинил музыкальную тему, которая звучит в начале фильма. Она в итоге вошла в общий саундтрек, созданный композитором Ленни Нихаузом."
  ],
  "trailers": [],
  "seasons": [],
  "voiceActing": [
    "Cartoon Network"
  ],
  "subtitle": [],
  "parts": []
}
