{
  "id": 4523,
  "name": "Метод",
  "name_eng": "",
  "year": 2015,
  "slogan": null,
  "age": "18+",
  "type": "series",
  "quality": "SD",
  "imdb": "7.4",
  "imdb_id": "5135336",
  "kinopoisk": "8.1",
  "kinopoisk_id": "838050",
  "world_art": null,
  "world_art_id": null,
  "time": "53 мин.",
  "ads": false,
  "premier": "2015-10-18",
  "premier_rus": "2015-10-18",
  "availability": "2015-10-19",
  "serial_status": "online",
  "activate_time": "2018-12-10 14:34:54",
  "budget": null,
  "fees_use": null,
  "fees_world": null,
  "fees_rus": null,
  "rate_mpaa": null,
  "description": "Главный герой — Родион Меглин — загадочная и неординарная личность, следователь высочайшего уровня, который раскрывает самые сложные убийства. Он привык работать в одиночку, не раскрывая секреты своего метода.",
  "iframe_url": "",
  "poster": "https://img.imgilall.me/movies/franchise/4/5/2/3/0/0/0/0/0/0/610x900_4523.jpg",
  "country": {
    "5": "Россия"
  },
  "collection": {
    "12": "Для мужчин",
    "21": "Для молодёжи"
  },
  "genre": {
    "25": "Криминал",
    "22": "Русский",
    "13": "Триллер",
    "7": "Драма"
  },
  "director": [
    "Юрий Быков"
  ],
  "screenwriter": [
    "Олег Маловичко",
    "Дмитрий Иванов",
    "Милана Касакина"
  ],
  "producer": [
    "Александр Цекало",
    "Константин Эрнст",
    "Иван Самохвалов"
  ],
  "operator": [
    "Юрий Коробейников"
  ],
  "composer": [
    "Райан Оттер"
  ],
  "design": [
    "Алина Аначкина",
    "Алексей Банников",
    "Артем Мосов"
  ],
  "editor": [
    "Максим Полинский",
    "Николай Булыгин",
    "Марина Васильева"
  ],
  "actors": [
    "Константин Хабенский",
    "Паулина Андреева",
    "Алексей Серебряков",
    "Александр Цекало",
    "Виталий Кищенко",
    "Тимофей Трибунцев",
    "Юрий Колокольников",
    "Виктор Цекало",
    "Сергей Сосновский",
    "Александр Петров"
  ],
  "actors_dubl": [],
  "trivia": [
    "В начале 2017 года продюсерский центр «Среда» Александра Цекало продал права на показ сериала \"Метод\" стриминговому видеосервису Netflix."
  ],
  "trailers": [],
  "seasons": [
    {
      "poster": "https://img.imgilall.me/movies/season/2/4/7/1/0/0/0/0/0/0/610x900_2471.jpg",
      "release_ru": "2015-10-19",
      "release_world": "2015-10-18",
      "availability": "2015-10-20",
      "iframe_url": "",
      "season": 1,
      "episodes": [
        {
          "episode": 1,
          "name": null,
          "iframe_url": "",
          "iframe_poster": null,
          "release_ru": "2015-10-19",
          "release_world": "2015-10-18",
          "availability": "2015-10-20",
          "voiceActing": [
            "Рус. Оригинальный"
          ],
          "ads": false,
          "subtitle": []
        },
        {
          "episode": 2,
          "name": null,
          "iframe_url": "",
          "iframe_poster": null,
          "release_ru": "2015-10-19",
          "release_world": "2015-10-18",
          "availability": "2015-10-20",
          "voiceActing": [
            "Рус. Оригинальный"
          ],
          "ads": false,
          "subtitle": []
        },
        {
          "episode": 3,
          "name": null,
          "iframe_url": "",
          "iframe_poster": null,
          "release_ru": "2015-10-26",
          "release_world": "2015-10-25",
          "availability": "2015-10-27",
          "voiceActing": [
            "Рус. Оригинальный"
          ],
          "ads": false,
          "subtitle": []
        },
        {
          "episode": 4,
          "name": null,
          "iframe_url": "",
          "iframe_poster": null,
          "release_ru": "2015-10-26",
          "release_world": "2015-10-25",
          "availability": "2015-10-27",
          "voiceActing": [
            "Рус. Оригинальный"
          ],
          "ads": false,
          "subtitle": []
        },
        {
          "episode": 5,
          "name": null,
          "iframe_url": "",
          "iframe_poster": null,
          "release_ru": "2015-11-02",
          "release_world": "2015-11-01",
          "availability": "2015-11-03",
          "voiceActing": [
            "Рус. Оригинальный"
          ],
          "ads": false,
          "subtitle": []
        },
        {
          "episode": 6,
          "name": null,
          "iframe_url": "",
          "iframe_poster": null,
          "release_ru": "2015-11-02",
          "release_world": "2015-11-01",
          "availability": "2015-11-03",
          "voiceActing": [
            "Рус. Оригинальный"
          ],
          "ads": false,
          "subtitle": []
        },
        {
          "episode": 7,
          "name": null,
          "iframe_url": "",
          "iframe_poster": null,
          "release_ru": "2015-11-09",
          "release_world": "2015-11-08",
          "availability": "2015-11-10",
          "voiceActing": [
            "Рус. Оригинальный"
          ],
          "ads": false,
          "subtitle": []
        },
        {
          "episode": 8,
          "name": null,
          "iframe_url": "",
          "iframe_poster": null,
          "release_ru": "2015-11-09",
          "release_world": "2015-11-08",
          "availability": "2015-11-10",
          "voiceActing": [
            "Рус. Оригинальный"
          ],
          "ads": false,
          "subtitle": []
        },
        {
          "episode": 9,
          "name": null,
          "iframe_url": "",
          "iframe_poster": null,
          "release_ru": "2015-11-16",
          "release_world": "2015-11-15",
          "availability": "2015-11-17",
          "voiceActing": [
            "Рус. Оригинальный"
          ],
          "ads": false,
          "subtitle": []
        },
        {
          "episode": 10,
          "name": null,
          "iframe_url": "",
          "iframe_poster": null,
          "release_ru": "2015-11-16",
          "release_world": "2015-11-15",
          "availability": "2015-11-17",
          "voiceActing": [
            "Рус. Оригинальный"
          ],
          "ads": false,
          "subtitle": []
        },
        {
          "episode": 11,
          "name": null,
          "iframe_url": "",
          "iframe_poster": null,
          "release_ru": "2015-11-23",
          "release_world": "2015-11-22",
          "availability": "2015-11-24",
          "voiceActing": [
            "Рус. Оригинальный"
          ],
          "ads": false,
          "subtitle": []
        },
        {
          "episode": 12,
          "name": null,
          "iframe_url": "",
          "iframe_poster": null,
          "release_ru": "2015-11-30",
          "release_world": "2015-11-29",
          "availability": "2015-12-01",
          "voiceActing": [
            "Рус. Оригинальный"
          ],
          "ads": false,
          "subtitle": []
        },
        {
          "episode": 13,
          "name": null,
          "iframe_url": "",
          "iframe_poster": null,
          "release_ru": "2015-12-07",
          "release_world": "2015-12-06",
          "availability": "2015-12-08",
          "voiceActing": [
            "Рус. Оригинальный"
          ],
          "ads": false,
          "subtitle": []
        },
        {
          "episode": 14,
          "name": null,
          "iframe_url": "",
          "iframe_poster": null,
          "release_ru": "2015-12-14",
          "release_world": "2015-12-13",
          "availability": "2015-12-15",
          "voiceActing": [
            "Рус. Оригинальный"
          ],
          "ads": false,
          "subtitle": []
        },
        {
          "episode": 15,
          "name": null,
          "iframe_url": "",
          "iframe_poster": null,
          "release_ru": "2015-12-21",
          "release_world": "2015-12-20",
          "availability": "2015-12-22",
          "voiceActing": [
            "Рус. Оригинальный"
          ],
          "ads": false,
          "subtitle": []
        },
        {
          "episode": 16,
          "name": null,
          "iframe_url": "",
          "iframe_poster": null,
          "release_ru": "2015-12-21",
          "release_world": "2015-12-20",
          "availability": "2015-12-22",
          "voiceActing": [
            "Рус. Оригинальный"
          ],
          "ads": false,
          "subtitle": []
        }
      ]
    },
    {
      "poster": null,
      "release_ru": null,
      "release_world": null,
      "availability": null,
      "iframe_url": "",
      "season": 2,
      "episodes": [
        {
          "episode": 1,
          "name": null,
          "iframe_url": "",
          "iframe_poster": null,
          "release_ru": "2019-11-24",
          "release_world": "2019-11-24",
          "availability": "2019-11-24",
          "voiceActing": [
            "Рус. Оригинальный"
          ],
          "ads": false,
          "subtitle": []
        },
        {
          "episode": 2,
          "name": null,
          "iframe_url": "",
          "iframe_poster": null,
          "release_ru": null,
          "release_world": null,
          "availability": null,
          "voiceActing": [
            "Рус. Оригинальный"
          ],
          "ads": false,
          "subtitle": []
        },
        {
          "episode": 3,
          "name": null,
          "iframe_url": "",
          "iframe_poster": null,
          "release_ru": null,
          "release_world": null,
          "availability": null,
          "voiceActing": [
            "Рус. Оригинальный"
          ],
          "ads": false,
          "subtitle": []
        },
        {
          "episode": 4,
          "name": null,
          "iframe_url": "",
          "iframe_poster": null,
          "release_ru": null,
          "release_world": null,
          "availability": null,
          "voiceActing": [
            "Рус. Оригинальный"
          ],
          "ads": false,
          "subtitle": []
        },
        {
          "episode": 5,
          "name": null,
          "iframe_url": "",
          "iframe_poster": null,
          "release_ru": null,
          "release_world": null,
          "availability": null,
          "voiceActing": [
            "Рус. Оригинальный"
          ],
          "ads": false,
          "subtitle": []
        },
        {
          "episode": 6,
          "name": null,
          "iframe_url": "",
          "iframe_poster": null,
          "release_ru": null,
          "release_world": null,
          "availability": null,
          "voiceActing": [
            "Рус. Оригинальный"
          ],
          "ads": false,
          "subtitle": []
        },
        {
          "episode": 7,
          "name": null,
          "iframe_url": "",
          "iframe_poster": null,
          "release_ru": null,
          "release_world": null,
          "availability": null,
          "voiceActing": [
            "Рус. Оригинальный"
          ],
          "ads": false,
          "subtitle": []
        },
        {
          "episode": 8,
          "name": null,
          "iframe_url": "",
          "iframe_poster": null,
          "release_ru": null,
          "release_world": null,
          "availability": null,
          "voiceActing": [
            "Рус. Оригинальный"
          ],
          "ads": false,
          "subtitle": []
        },
        {
          "episode": 9,
          "name": null,
          "iframe_url": "",
          "iframe_poster": null,
          "release_ru": null,
          "release_world": null,
          "availability": null,
          "voiceActing": [
            "Рус. Оригинальный"
          ],
          "ads": false,
          "subtitle": []
        },
        {
          "episode": 10,
          "name": null,
          "iframe_url": "",
          "iframe_poster": null,
          "release_ru": null,
          "release_world": null,
          "availability": null,
          "voiceActing": [
            "Рус. Оригинальный"
          ],
          "ads": false,
          "subtitle": []
        },
        {
          "episode": 11,
          "name": null,
          "iframe_url": "",
          "iframe_poster": null,
          "release_ru": null,
          "release_world": null,
          "availability": null,
          "voiceActing": [
            "Рус. Оригинальный"
          ],
          "ads": false,
          "subtitle": []
        },
        {
          "episode": 12,
          "name": null,
          "iframe_url": "",
          "iframe_poster": null,
          "release_ru": null,
          "release_world": null,
          "availability": null,
          "voiceActing": [
            "Рус. Оригинальный"
          ],
          "ads": false,
          "subtitle": []
        },
        {
          "episode": 13,
          "name": null,
          "iframe_url": "",
          "iframe_poster": null,
          "release_ru": null,
          "release_world": null,
          "availability": null,
          "voiceActing": [
            "Рус. Оригинальный"
          ],
          "ads": false,
          "subtitle": []
        },
        {
          "episode": 14,
          "name": null,
          "iframe_url": "",
          "iframe_poster": null,
          "release_ru": null,
          "release_world": null,
          "availability": null,
          "voiceActing": [
            "Рус. Оригинальный"
          ],
          "ads": false,
          "subtitle": []
        },
        {
          "episode": 15,
          "name": null,
          "iframe_url": "",
          "iframe_poster": null,
          "release_ru": null,
          "release_world": null,
          "availability": null,
          "voiceActing": [
            "Рус. Оригинальный"
          ],
          "ads": false,
          "subtitle": []
        },
        {
          "episode": 16,
          "name": null,
          "iframe_url": "",
          "iframe_poster": null,
          "release_ru": null,
          "release_world": null,
          "availability": null,
          "voiceActing": [
            "Рус. Оригинальный"
          ],
          "ads": false,
          "subtitle": []
        }
      ]
    }
  ],
  "voiceActing": [
    "Рус. Оригинальный"
  ],
  "subtitle": [],
  "parts": []
}
