{
  "id": 27516,
  "name": "Меняемся воротами",
  "name_eng": "Switching Goals",
  "year": 1999,
  "slogan": "—",
  "age": null,
  "type": "film",
  "quality": "SD",
  "imdb": "5.1",
  "imdb_id": "0217074",
  "kinopoisk": "6.4",
  "kinopoisk_id": "84444",
  "world_art": null,
  "world_art_id": null,
  "time": "85 мин. / 01:25",
  "ads": false,
  "premier": "1999-12-12",
  "premier_rus": "1999-12-13",
  "availability": "1999-12-14",
  "activate_time": "2020-07-09 11:14:00",
  "budget": null,
  "fees_use": null,
  "fees_world": null,
  "fees_rus": null,
  "rate_mpaa": null,
  "description": "Эмма и Сэм Стэнтон – лучшие подружки. К тому же близняшки и большие озорницы. Девчонки обожают меняться одеждой и безделушками, но перепутать их почти невозможно.Ведь Сэм увлекается футболом, а Эмма мечтает стать настоящей леди. Но так получилось, что они обе должны выйти на футбольное поле. Чем же закончится этот матч?",
  "iframe_url": "",
  "iframe_poster": null,
  "poster": "https://img.imgilall.me/movies/franchise/2/7/5/1/6/0/0/0/0/0/610x900_27516.jpg",
  "country": {
    "1": "США"
  },
  "collection": [],
  "genre": {
    "33": "Семейный",
    "23": "Спортивный",
    "19": "Комедия"
  },
  "director": [
    "Дэвид Стейнберг"
  ],
  "screenwriter": [
    "Дэвид Кукофф",
    "Мэтт Рошков"
  ],
  "producer": [
    "Сьюзэн Мердок",
    "Рич Хеллер",
    "Илана Кукофф"
  ],
  "operator": [
    "Дэвид А. Макин"
  ],
  "composer": [
    "Патрик Уильямс"
  ],
  "design": [
    "Рольф Харви",
    "Джуди Б. Шварц",
    "Джорджина Ярхи"
  ],
  "editor": [
    "Бад Фридген"
  ],
  "actors": [
    "Мэри-Кейт Олсен",
    "Эшли Олсен",
    "Кэтрин Гринвуд",
    "Джо Грифази",
    "Тревор Блумас",
    "Эрик Лютес",
    "Кит Найт",
    "Джэйк Леду",
    "Роберт Кларк",
    "Брайан Хейтон"
  ],
  "actors_dubl": [
    "Татьяна Весёлкина",
    "Наталья Казначеева",
    "Алексей Борзунов",
    "Олег Вирозуб",
    "Игорь Тарадайкин"
  ],
  "trivia": [],
  "trailers": [],
  "seasons": [],
  "voiceActing": [
    "Cartoon Network"
  ],
  "subtitle": [],
  "parts": []
}
