{
  "id": 30601,
  "name": "Правда",
  "name_eng": "Truth",
  "year": 2015,
  "slogan": "«When Truth becomes your downfall»",
  "age": "16+",
  "type": "film",
  "quality": "HD (720p)",
  "imdb": "6.8",
  "imdb_id": "0",
  "kinopoisk": "6.4",
  "kinopoisk_id": "841333",
  "world_art": null,
  "world_art_id": null,
  "time": "125 мин. / 02:05",
  "ads": false,
  "premier": "2015-09-12",
  "premier_rus": "2015-09-13",
  "availability": "2015-09-14",
  "activate_time": "2020-06-28 13:41:00",
  "budget": "$9 600 000",
  "fees_use": "$2 541 854",
  "fees_world": null,
  "fees_rus": null,
  "rate_mpaa": "R",
  "description": "В картине будет рассказываться о скандале, разразившемся после того, как суперпопулярный ведущий новостной программы на CBS Дэн Рэзер заявил в эфире о том, что Джордж Буш-мл. по блату попал в Национальную гвардию США, чтобы избежать отправки во Вьетнам (спасибо могучему папе Бушу-старшему, который на тот момент служил послом). После такой правды репутация Рэзера здорово пострадала, а его продюсера Мэри Мэйпс и вовсе уволили.",
  "iframe_url": "",
  "iframe_poster": null,
  "poster": "https://img.imgilall.me/movies/franchise/3/0/6/0/1/0/0/0/0/0/610x900_30601.jpg",
  "country": {
    "1": "США",
    "4": "Австралия"
  },
  "collection": [],
  "genre": {
    "28": "Исторический",
    "27": "Биографический",
    "7": "Драма"
  },
  "director": [
    "Джеймс Вандербилт"
  ],
  "screenwriter": [
    "Джеймс Вандербилт",
    "Мэри Мейп"
  ],
  "producer": [
    "Брэдли Дж. Фишер",
    "Даг Манкофф",
    "Бретт Рэтнер"
  ],
  "operator": [
    "Мэнди Уокер"
  ],
  "composer": [
    "Брайан Тайлер"
  ],
  "design": [
    "Фиона Кромби",
    "Кирк М. Петруччелли",
    "Фиона Донован"
  ],
  "editor": [
    "Ричард Фрэнсис-Брюс"
  ],
  "actors": [
    "Кейт Бланшетт",
    "Роберт Редфорд",
    "Тофер Грейс",
    "Деннис Куэйд",
    "Элизабет Мосс",
    "Брюс Гринвуд",
    "Стейси Кич",
    "Джон Бенжамин Хикки",
    "Дэвид Лайонс",
    "Дермот Малруни"
  ],
  "actors_dubl": [],
  "trivia": [
    "Фильм основан на вышедшей в 2005 году книге Мэри Мейп «Истина и долг: пресса, президент и привилегия власти».",
    "По просьбе Кейт Бланшетт съёмки организовали в Австралии. Актрисе хотелось во время съёмок быть поближе к родным.",
    "Работа над фильмом началась ещё в 2007-м году.",
    "Съёмки фильма заняли 8 недель.",
    "Режиссёрский дебют Джеймса Вандербилта.",
    "Телерадиосеть CBS, которая уволила занимавшуюся независимыми расследованиями журналистку Мэри Мейп (в фильме её играет Кейт Бланшетт) из-за скандала, о котором идёт речь в фильме, отказалась предоставлять эфирное время для рекламы фильма. В качестве объяснения этому решению было объявлено, что взгляд авторов фильма на данный скандал окажет плохую услугу истине, широкой общественности и журналистике. В то же время Дэн Разер, которого играет Роберт Редфорд и который тоже покинул CBS со скандалом, утверждает, что события в фильме показаны с большой точностью."
  ],
  "trailers": [],
  "seasons": [],
  "voiceActing": [
    "JoyStudio"
  ],
  "subtitle": [],
  "parts": []
}
