{
  "id": 21184,
  "name": "Я не сволочь",
  "name_eng": "Je ne suis pas un salaud",
  "year": 2015,
  "slogan": "—",
  "age": null,
  "type": "film",
  "quality": "SD",
  "imdb": "6.4",
  "imdb_id": "4084060",
  "kinopoisk": "6.3",
  "kinopoisk_id": "843957",
  "world_art": null,
  "world_art_id": null,
  "time": "111 мин. / 01:51",
  "ads": false,
  "premier": "2015-08-25",
  "premier_rus": "2015-08-26",
  "availability": "2015-08-27",
  "activate_time": "2020-06-09 15:21:00",
  "budget": null,
  "fees_use": null,
  "fees_world": null,
  "fees_rus": null,
  "rate_mpaa": null,
  "description": "После того как на Эдди жестоко напали на улице, он ошибочно указывает на Ахмеда, идеального виновного, которого он заметил за несколько дней до этой агрессии. В то время как судебный механизм набирает обороты в отношении Ахмеда, Эдди пытается оправиться в окружении своей жены и своего сына благодаря новой работе. Но вскоре, осознав серьезность своего жеста, Эдди пытается сделать все возможное, чтобы восстановить истину. Даже если придется все потерять...",
  "iframe_url": "",
  "iframe_poster": null,
  "poster": "https://img.imgilall.me/movies/franchise/2/1/1/8/4/0/0/0/0/0/610x900_21184.jpg",
  "country": {
    "9": "Франция"
  },
  "collection": [],
  "genre": {
    "7": "Драма"
  },
  "director": [
    "Эмануэль Финкель"
  ],
  "screenwriter": [
    "Эмануэль Финкель",
    "Джули Пейр"
  ],
  "producer": [
    "Кристин Гозлан",
    "Дэвид Пуаро-Гозлан"
  ],
  "operator": [
    "Алексис Кавиршин"
  ],
  "composer": [
    "Chloé Thévenin"
  ],
  "design": [
    "Карин Бранко",
    "Розенн Ле Глоэк",
    "Агнес Ноден"
  ],
  "editor": [
    "Сильви Лагер"
  ],
  "actors": [
    "Николя Дювошель",
    "Мелани Тьерри",
    "Дрисс Рамди",
    "Maryne Cayon",
    "Николя Бриде",
    "Johan Soulé",
    "Ален Бежель",
    "Isabelle Dagnac",
    "Антуан Гуи",
    "Maryne Bertieaux"
  ],
  "actors_dubl": [],
  "trivia": [],
  "trailers": [],
  "seasons": [],
  "voiceActing": [
    "Рус. Люб. многоголосый"
  ],
  "subtitle": [],
  "parts": []
}
