{
  "id": 26028,
  "name": "Концерт Нобунаги",
  "name_eng": "Nobunaga Concerto: The Movie",
  "year": 2016,
  "slogan": "—",
  "age": null,
  "type": "film",
  "quality": "HD (720p)",
  "imdb": "6.1",
  "imdb_id": "4122254",
  "kinopoisk": null,
  "kinopoisk_id": "843660",
  "world_art": null,
  "world_art_id": null,
  "time": "126 мин. / 02:06",
  "ads": false,
  "premier": "2016-01-23",
  "premier_rus": "2016-01-24",
  "availability": "2016-01-25",
  "activate_time": "2020-07-08 00:52:00",
  "budget": null,
  "fees_use": null,
  "fees_world": null,
  "fees_rus": null,
  "rate_mpaa": null,
  "description": null,
  "iframe_url": "",
  "iframe_poster": null,
  "poster": "https://img.imgilall.me/movies/franchise/2/6/0/2/8/0/0/0/0/0/610x900_26028.jpg",
  "country": {
    "18": "Япония"
  },
  "collection": [],
  "genre": {
    "11": "Фантастика",
    "19": "Комедия"
  },
  "director": [
    "Хироаки Мацуяма"
  ],
  "screenwriter": [
    "Аюми Исии",
    "Масафуми Нисида",
    "Окада Митидзо"
  ],
  "producer": [],
  "operator": [],
  "composer": [],
  "design": [
    "Кадзухиро Саватаиси"
  ],
  "editor": [],
  "actors": [
    "Сюн Огури",
    "Ко Сибасаки",
    "Осаму Мукаи",
    "Такаюки Ямада",
    "Тайсукэ Фудзигая",
    "Кико Мидзухара",
    "Гаку Хамада",
    "Арата Фурута",
    "Масахиро Такасима",
    "Дэндэн"
  ],
  "actors_dubl": [],
  "trivia": [],
  "trailers": [],
  "seasons": [],
  "voiceActing": [
    "Рус. Люб. многоголосый"
  ],
  "subtitle": [],
  "parts": []
}
