{
  "id": 26196,
  "name": "Одна ночь с королем",
  "name_eng": "One Night with the King",
  "year": 2006,
  "slogan": "«Feel The Touch Of Destiny»",
  "age": null,
  "type": "film",
  "quality": "FHD (1080p)",
  "imdb": "6.1",
  "imdb_id": "0430431",
  "kinopoisk": "6.8",
  "kinopoisk_id": "84884",
  "world_art": null,
  "world_art_id": null,
  "time": "123 мин. / 02:03",
  "ads": false,
  "premier": "2006-10-10",
  "premier_rus": "2006-10-11",
  "availability": "2006-10-12",
  "activate_time": "2020-06-27 06:51:00",
  "budget": "$20 000 000",
  "fees_use": "$13 395 961",
  "fees_world": "+ $142 621 = $13 538 582",
  "fees_rus": null,
  "rate_mpaa": "PG",
  "description": "Юная и необычайно красивая девушка, выросшая в семье рабов, попадает волею случая во дворец к Королю. Она еще не знает, какую важную роль ей предстоит сыграть в жизни всего королевства.",
  "iframe_url": "",
  "iframe_poster": null,
  "poster": "https://img.imgilall.me/movies/franchise/2/6/1/9/6/0/0/0/0/0/610x900_26196.jpg",
  "country": {
    "1": "США"
  },
  "collection": [],
  "genre": {
    "28": "Исторический",
    "27": "Биографический",
    "7": "Драма"
  },
  "director": [
    "Майкл О. Саджбел"
  ],
  "screenwriter": [
    "Стефан Блинн",
    "Марк Эндрю Олсен",
    "Томми Тенни"
  ],
  "producer": [
    "Стефан Блинн",
    "Ричард Дж. Кук",
    "Лори Крауч"
  ],
  "operator": [
    "Стивен Бернштейн"
  ],
  "composer": [
    "Дж. А.С. Редфорд"
  ],
  "design": [
    "Арадана Сет",
    "Обид Т.П.",
    "Нита Лулла"
  ],
  "editor": [
    "Стефан Блинн",
    "Габриэлла Кристиани",
    "Мишель Саммерс"
  ],
  "actors": [
    "Тиффани Дюпон",
    "Люк Госс",
    "Джон Ноубл",
    "Омар Шариф",
    "Джон Рис-Дэвис",
    "Том ’Тайни’ Листер мл.",
    "Джеймс Кэллис",
    "Питер О’Тул",
    "Джавен Кэмпбелл",
    "Джоти Догра"
  ],
  "actors_dubl": [],
  "trivia": [
    "Фильм снят по мотивам романа Томми Тенни и Марка Эндрю Олсена «Хадасса: Одна ночь с королём»."
  ],
  "trailers": [],
  "seasons": [],
  "voiceActing": [
    "Diva Universal"
  ],
  "subtitle": [],
  "parts": []
}
