{
  "id": 31926,
  "name": "Переправа 2",
  "name_eng": "The Crossing 2",
  "year": 2015,
  "slogan": "—",
  "age": "16+",
  "type": "film",
  "quality": "HD (720p)",
  "imdb": "6.3",
  "imdb_id": "0",
  "kinopoisk": "6.2",
  "kinopoisk_id": "842783",
  "world_art": null,
  "world_art_id": null,
  "time": "131 мин. / 02:11",
  "ads": false,
  "premier": "2015-07-30",
  "premier_rus": "2015-10-22",
  "availability": "2015-10-23",
  "activate_time": "2020-07-13 11:29:00",
  "budget": null,
  "fees_use": null,
  "fees_world": null,
  "fees_rus": "$19 239",
  "rate_mpaa": null,
  "description": "Люди уже поднялись на борт парома «Тайпин». Как и остальные пассажиры лайнера они оказываются на краю смерти. Всё смешалось в бурном потоке волн: радость и печаль, любовь и ненависть, жизнь и смерть.",
  "iframe_url": "",
  "iframe_poster": null,
  "poster": "https://img.imgilall.me/movies/franchise/3/1/9/2/6/0/0/0/0/0/610x900_31926.jpg",
  "country": {
    "1": "США",
    "16": "Корея Южная",
    "18": "Япония",
    "19": "Китай"
  },
  "collection": [],
  "genre": {
    "32": "Военный",
    "28": "Исторический",
    "8": "Мелодрама",
    "7": "Драма"
  },
  "director": [
    "Джон Ву"
  ],
  "screenwriter": [
    "Ван Хуэйлин",
    "Су Чаобинь",
    "Чэнь Чинхуэй"
  ],
  "producer": [
    "Теренс Чан",
    "Ray Chen",
    "Кун Эргоу"
  ],
  "operator": [
    "Чжао Фэй"
  ],
  "composer": [
    "Таро Ивасиро"
  ],
  "design": [
    "Хорас Ма",
    "Чэнь Тунсюнь"
  ],
  "editor": [
    "Исмаэль Гомес III"
  ],
  "actors": [
    "Такеши Канеширо",
    "Чжан Цзыи",
    "Тун Давэй",
    "Масами Нагасава",
    "Хуан Сяомин",
    "Сон Хе-гё",
    "Анджелес Ву",
    "Фэй Юй",
    "Тони Ян",
    "Денни Хуан"
  ],
  "actors_dubl": [
    "Сергей Смирнов",
    "Татьяна Ермилова",
    "Прохор Чеховской",
    "Мария Фортунатова",
    "Алексей Войтюк"
  ],
  "trivia": [
    "В основе фильме лежат реальные события. 27 января 1949 года китайский лайнер «Тайпин» затонул вблизи Тайваня после столкновения с грузовым кораблём «Цзинь-Юань». Погибло примерно 1500 человек, было спасено меньше 50 (точное количество погибших неизвестно, так как на борту лайнера было много беженцев). Из-за масштабов катастрофы, «Тайпин» называют «китайский «Титаник»."
  ],
  "trailers": [],
  "seasons": [],
  "voiceActing": [
    "Рус. Дублированный"
  ],
  "subtitle": [],
  "parts": []
}
