{
  "id": 32131,
  "name": "Отель проклятых",
  "name_eng": "Hotel of the Damned",
  "year": 2016,
  "slogan": "«No matter how bad things are..They can always get worse»",
  "age": null,
  "type": "film",
  "quality": "SD",
  "imdb": "5.2",
  "imdb_id": "0",
  "kinopoisk": null,
  "kinopoisk_id": "849562",
  "world_art": null,
  "world_art_id": null,
  "time": "84 мин. / 01:24",
  "ads": false,
  "premier": "2016-10-20",
  "premier_rus": "2016-10-21",
  "availability": "2016-10-22",
  "activate_time": "2020-07-14 08:15:00",
  "budget": null,
  "fees_use": null,
  "fees_world": null,
  "fees_rus": null,
  "rate_mpaa": null,
  "description": "После автомобильной катастрофы отец с дочкой и её любовником оказываются в заброшенном отеле, населённом нечеловеческими существами с каннибальскими замашками.",
  "iframe_url": "",
  "iframe_poster": null,
  "poster": "https://img.imgilall.me/movies/franchise/3/2/1/3/1/0/0/0/0/0/610x900_32131.jpg",
  "country": {
    "50": "Румыния"
  },
  "collection": [],
  "genre": {
    "26": "Ужасы",
    "13": "Триллер"
  },
  "director": [
    "Бобби Барбачору"
  ],
  "screenwriter": [
    "Лука Берковичи",
    "Paul Petcu"
  ],
  "producer": [
    "Andrei Baltaretu",
    "Бобби Барбачору",
    "Cristina Barbacioru"
  ],
  "operator": [
    "Andrei Baltaretu"
  ],
  "composer": [
    "Эндрю Спенс"
  ],
  "design": [
    "Dorin Grigorescu",
    "Теодора Гойя",
    "Элизабета Григореску"
  ],
  "editor": [
    "Valentin Goldner"
  ],
  "actors": [
    "Питер Добсон",
    "Мануэла Харабор",
    "Олтин Юрезену",
    "Флорин Кеворкян",
    "Roxana Luca",
    "Луис Мэндилор",
    "Богдан Марходин",
    "Natalia Mateut",
    "Valentin Petrisor",
    "Димитрина Живкова"
  ],
  "actors_dubl": [],
  "trivia": [],
  "trailers": [],
  "seasons": [],
  "voiceActing": [
    "Хихикающий доктор"
  ],
  "subtitle": [],
  "parts": []
}
