{
  "id": 29453,
  "name": "Война полов",
  "name_eng": "",
  "year": 2015,
  "slogan": "«Мужики! Не расслабляйтесь!»",
  "age": "16+",
  "type": "film",
  "quality": "HD (720p)",
  "imdb": "3.0",
  "imdb_id": "0",
  "kinopoisk": "3.2",
  "kinopoisk_id": "840230",
  "world_art": null,
  "world_art_id": null,
  "time": "86 мин. / 01:26",
  "ads": false,
  "premier": null,
  "premier_rus": "2015-10-22",
  "availability": "2015-10-23",
  "activate_time": "2020-07-09 23:15:00",
  "budget": "$2 000 000",
  "fees_use": null,
  "fees_world": "$180 837",
  "fees_rus": "$189 394",
  "rate_mpaa": null,
  "description": "Что завтра на рассвете с каждым из нас случится, не знает никто. И когда ТРИ наших героя проснулись на необитаемом острове, в компании ДВУХ красивых… но не очень дружелюбных девушек… да еще без воды и еды… Вот тут они и поняли, что жизнь действительно полна сюрпризов!",
  "iframe_url": "",
  "iframe_poster": null,
  "poster": "https://img.imgilall.me/movies/franchise/2/9/4/5/3/0/0/0/0/0/610x900_29453.jpg",
  "country": {
    "5": "Россия"
  },
  "collection": [],
  "genre": {
    "19": "Комедия"
  },
  "director": [
    "Кирилл Кузин"
  ],
  "screenwriter": [
    "Андрей Курейчик",
    "Денис Елеонский"
  ],
  "producer": [
    "Рубен Атоян",
    "Всеволод Зорин",
    "Оксана Бровченко"
  ],
  "operator": [
    "Евгений Ермоленко"
  ],
  "composer": [
    "Дмитрий Носков"
  ],
  "design": [
    "Павел Лычкин",
    "Полина Микитенко"
  ],
  "editor": [],
  "actors": [
    "Харальд Розенстрём",
    "Александр Пальчиков",
    "Екатерина Кузнецова",
    "Сабина Ахмедова",
    "Алексей Демидов",
    "Марина Федункив",
    "Анатолий Белый",
    "Кристелль",
    "Борис Эстрин",
    "Артем Семакин"
  ],
  "actors_dubl": [
    "Александр Хошабаев"
  ],
  "trivia": [],
  "trailers": [],
  "seasons": [],
  "voiceActing": [
    "Original"
  ],
  "subtitle": [],
  "parts": []
}
