{
  "id": 6900,
  "name": "Тайна Печати дракона: путешествие в Китай",
  "name_eng": "",
  "year": 2019,
  "slogan": "—",
  "age": "6+",
  "type": "film",
  "quality": "FHD (1080p)",
  "imdb": "4.7",
  "imdb_id": "6218010",
  "kinopoisk": "5.8",
  "kinopoisk_id": "840758",
  "world_art": null,
  "world_art_id": null,
  "time": "121 мин. / 02:01",
  "ads": false,
  "premier": "2019-09-19",
  "premier_rus": "2019-09-19",
  "availability": null,
  "activate_time": "2019-08-18 20:11:00",
  "budget": "$49 000 000",
  "fees_use": null,
  "fees_world": "$14 051 279",
  "fees_rus": "$5 712 373",
  "rate_mpaa": "PG-13",
  "description": "Английский путешественник Джонатан Грин получает от Петра I заказ на изготовление карт Дальнего Востока России. Ему вновь предстоит долгий путь, полный невероятных приключений, который приведет его в Китай. Картограф столкнется с массой головокружительных открытий, неожиданных встреч с диковинными существами, китайскими принцессами, мастерами смертоносных боевых искусств и самим Лун-Ван, Царем всех драконов. Что может быть опаснее, чем посмотреть в глаза Вию? Разве что встретиться с ним вновь. Что на этот раз окажется сильнее – непоколебимый скептицизм ученого или древняя черная магия, уже давно захватившая власть в Восточных землях?",
  "iframe_url": "",
  "iframe_poster": null,
  "poster": "https://img.imgilall.me/movies/franchise/6/9/0/0/0/0/0/0/0/0/610x900_6900.jpg",
  "country": {
    "5": "Россия"
  },
  "collection": {
    "71": "Про путешествия",
    "26": "Про монстров",
    "21": "Для молодёжи",
    "99": "Про драконов"
  },
  "genre": {
    "9": "Приключения",
    "6": "Фэнтези",
    "10": "Зарубежный"
  },
  "director": [
    "Олег Степченко"
  ],
  "screenwriter": [
    "Олег Степченко",
    "Алексей А. Петрухин",
    "Дмитрий Пальцев"
  ],
  "producer": [
    "Сергей Сельянов",
    "Глеб Фетисов",
    "Ла Пэйкан"
  ],
  "operator": [
    "Иван Гудков",
    "Нг Ман-Чин"
  ],
  "composer": [
    "Александра Магакян"
  ],
  "design": [
    "Артур Мирзоян",
    "Гуля Бейшенова"
  ],
  "editor": [
    "Серик Бейсеу",
    "Юлия Любомирова",
    "Петр Зеленов"
  ],
  "actors": [
    "Джейсон Флеминг",
    "Арнольд Шварценеггер",
    "Чарльз Дэнс",
    "Джеки Чан",
    "Яо Синтун",
    "Кристофер Фэйрбэнк",
    "Рутгер Хауэр",
    "Мартин Клебба",
    "Юрий Колокольников",
    "Павел Воля"
  ],
  "actors_dubl": [
    "Василий Дахненко",
    "Владимир Антоник",
    "Никита Прозоровский",
    "Андрей Градов",
    "Валерий Сторожик"
  ],
  "trivia": [],
  "trailers": [
    {
      "name": "трейлер №1",
      "number": 1,
      "iframe_poster": "https://img.imgilall.me/movies/trailer/3/0/2/0/0/0/0/0/0/0/800x450_302.jpeg",
      "season": null,
      "iframe_url": ""
    },
    {
      "name": "трейлер №1",
      "number": 1,
      "iframe_poster": "https://img.imgilall.me/movies/trailer/6/9/0/0/0/0/0/0/0/0/800x450_690.jpeg",
      "season": null,
      "iframe_url": ""
    }
  ],
  "seasons": [],
  "voiceActing": [
    "Рус. Дублированный",
    "Eng.Original"
  ],
  "subtitle": [
    "Рус. форсированные"
  ],
  "parts": []
}
