{
  "id": 1575,
  "name": "Черепашки-ниндзя 2",
  "name_eng": "Teenage Mutant Ninja Turtles: Out of the Shadows",
  "year": 2016,
  "slogan": "«Raise some shell»",
  "age": "6+",
  "type": "film",
  "quality": "FHD (1080p)",
  "imdb": "6.0",
  "imdb_id": "3949660",
  "kinopoisk": "6.0",
  "kinopoisk_id": "841518",
  "world_art": null,
  "world_art_id": null,
  "time": "112 мин. / 01:52",
  "ads": false,
  "premier": "2016-05-22",
  "premier_rus": "2016-06-02",
  "availability": "2016-06-03",
  "activate_time": "2018-08-13 17:36:45",
  "budget": "$135 000 000",
  "fees_use": "$82 051 601",
  "fees_world": "$245 623 848",
  "fees_rus": "$9 798 717",
  "rate_mpaa": "PG-13",
  "description": "Долгое время черепашки-ниндзя скрывались от людей в лабиринтах городской канализации. На протяжении нескольких лет учитель Сплинтер обучал их боевым искусствам и прививал им чувство справедливости. В один прекрасный момент им пришлось подняться наверх, чтобы спасти Нью-Йорк от Шредера, предводителя Клана Футов, захватившего власть в Нью-Йорке. Вместе с отважным репортером Эйприл и ее оператором Верном, бесстрашные воины смогли одержать победу и очистить любимый город от преступности. Леонардо, Микеланджело, Рафаэль и Донателло нашли свое предназначение в этом мире и стали защитниками своего города. Они навели порядок в Нью-Йорке и с чистой совестью могли отправиться на покой, но однажды им вновь пришлось столкнуться с могущественным врагом, угрожающим их городу.",
  "iframe_url": "",
  "iframe_poster": null,
  "poster": "https://img.imgilall.me/movies/franchise/1/5/7/5/0/0/0/0/0/0/610x900_1575.jpg",
  "country": {
    "7": "Канада",
    "12": "Гонконг",
    "1": "США",
    "19": "Китай"
  },
  "collection": [],
  "genre": {
    "9": "Приключения",
    "11": "Фантастика",
    "19": "Комедия",
    "17": "Боевик",
    "10": "Зарубежный"
  },
  "director": [
    "Дэйв Грин"
  ],
  "screenwriter": [
    "Джош Аппелбаум",
    "Андре Немец",
    "Питер Лэрд"
  ],
  "producer": [
    "Майкл Бэй",
    "Эндрю Форм",
    "Брэдли Фуллер"
  ],
  "operator": [
    "Лула Карвальо"
  ],
  "composer": [
    "Стив Яблонски"
  ],
  "design": [
    "Мартин Лэйн",
    "Мигель Лопес-Кастильо",
    "Бретт МакКензи"
  ],
  "editor": [
    "Боб Дюксе",
    "Джим Мэй"
  ],
  "actors": [
    "Меган Фокс",
    "Уилл Арнетт",
    "Лора Линни",
    "Стивен Амелл",
    "Ноэль Фишер",
    "Джереми Ховард",
    "Пит Пложек",
    "Алан Ричсон",
    "Тайлер Перри",
    "Брайан Ти"
  ],
  "actors_dubl": [
    "Полина Щербакова",
    "Александр Коврижных",
    "Ольга Зубкова",
    "Даниил Эльдаров",
    "Прохор Чеховской"
  ],
  "trivia": [
    "Это третий художественный фильм с элементами анимации о черепашках-ниндзя, в котором фигурирует Кейси Джонс.",
    "О планах снять продолжение фильма «Черепашки-ниндзя» было объявлено через два дня после его выхода на экраны в 2014 году.",
    "Стивен Амелл сравнил роль Кейси Джонса с ролью Оливера Куина из сериала «Стрела» (2012). «Кейси Джонс чем-то напоминает Оливера Куина из старых комиксов», — сказал он.",
    "Джудит Хоаг, снявшаяся в эпизодической роли, сыграла роль Эйприл О`Нил в фильме «Черепашки-ниндзя» (1990). Кроме того, она играла в фильме «Армагеддон» (1998) режиссёра Майкла Бэя.",
    "Девиз на боевом фургоне гласит «Братья-тартаруга» («tartaruga» по-итальянски «черепаха»). В мультсериале «Мутанты черепашки ниндзя. Новые приключения!» (2003) на втором боевом фургоне можно прочесть девиз «Братья-тортуга» («tortuga» — «черепаха» по-испански).",
    "В роли Рокстеди снялся профессиональный ирландский рестлер Шеймус (настоящее имя — Стефен Фаррелли).",
    "Изначально выход фильма в прокат планировался на 2017 год.",
    "Джудит Хоаг, игравшая роль Эйприл О`Нил в фильме «Черепашки-ниндзя» (Стив Бэррон, 1990), снялась в эпизодической роли, однако в прокатную версию фильма сцена с ней не попала.",
    "Брэд Гэррет, который озвучил инопланетянина Крэнга, дружит с Пэтом Фрэли, чьим голосом Крэнг говорил в мультсериале «Черепашки мутанты ниндзя» (1987-1996). Когда на озвучивание этого персонажа выбрали Гэррета, Фрэли безоговорочно поддержал его кандидатуру.",
    "Продюсеры предлагали эпизодические роли в фильме Элиасу Котеасу (первому исполнителю роли Кейси Джонса в кинематографе) и Сэму Рокуэллу (сыгравшему главаря банды), но те предложение отклонили.",
    "Чёрно-серая шипастая броня Шреддера взята из мультсериала «Мутанты черепашки ниндзя. Новые приключения!» (2003-2009).",
    "В детстве режиссёр Дэйв Грин был горячим поклонником черепашек-ниндзя и носил костюм Донателло.",
    "Джонни Ноксвелл, озвучивший Леонардо в фильме Джонатана Либесмана «Черепашки-ниндзя» (2014), покинул проект, и Питу Пложеку пришлось этого персонажа и озвучивать, и играть (для создания компьютерного образа Леонардо использовалась технология «захват движения»).",
    "Изначально в подзаголовок фильма были вынесены слова «Половина панциря». Это отсылка к песне о главных персонажах «Герои в половинках панциря».",
    "Роли Сплинтера, Шреддера и Караи исполняют Питер Дональд Бадаламенти II, Брайан Ти и Бриттани Исибаси. Все актёры моложе прежних исполнителей соответствующих ролей Дэнни Вудберна, Тохору Масамуне и Мины Нодзи.",
    "После Криса Эванса, который озвучил Кейси Джонса в полнометражном компьютерном мультфильме «Черепашки-ниндзя» (2007), Стивен Амелл стал вторым актёром, снимавшимся в теле- и кинопроектах по мотивам комиксов, занятым в роли Джонса. Пока Амелл снимался в телесериале «Стрела» о супергерое издательства «DC Comics» (2012), Эванс был занят в съёмках проектов по комиксам «Marvel Comics» (других тоже, но реже).",
    "Алан Ричсон (исполнитель роли Рафаэля) и Стивен Амелл (он играет Кейси Джонса) вместе играли в сериале «Реальные пацаны» (2010-2011). Ричсон сыграл там полузащитника футбольной команды и одного из центральных персонажей, а Амелл — защитника, и только в первом сезоне.",
    "Крэнга должен был озвучивать Фред Армисен, однако он не смог из-за участия в других проектах, и Крэнг заговорил в фильме голосом Брэда Гэррета.",
    "Бриттани Исибаси называет себя страстной поклонницей Караи.",
    "Это седьмой снятый по комиксам проект в карьере актёра Гэри Энтони Уильямса. Прежде он снимался в фильмах «Люди в чёрном» (Барри Зонненфельд, 1997) и «Гетто» (Аудрюс Юзенас, 2005) и озвучивал персонажей в мультфильмах и мультсериалах «Бэтмен: Отвага и смелость» (2008-2011), «Мстители: Величайшие герои Земли» (2010-2013), «Тёмный рыцарь: Возрождение легенды. Часть 1» и «Тёмный рыцарь: Возрождение легенды. Часть 2» (2012 и 2013), а также «Берегитесь Бэтмена» (2013-2014).",
    "Второй снятый по комиксам проект в карьерах актёров Брайана Ти после фильма «Росомаха: Бессмертный» (Джеймса Мэнголда, 2013) и Стивена Амелла после телесериала «Стрела» (2012).",
    "Шестой снятый по комиксам проект в карьере актёра Брэда Гэррета после фильма «Каспер» (Брэд Силберлинг, 1995), «Тик-герой» (актёр озвучивания в мультсериале 1994-1996), «Супермен» (актёр озвучивания в мультсериале 1996-2000), «Гарфилд» (Питер Хьюит, 2004) и «Астерикс и викинги» (актёр озвучивания в англоязычном дубляже полнометражного анимационного фильма, 2006).",
    "Меган Фокс, Алан Ричсон и Стивен Амелл снимались в качестве приглашённых звёзд в американском комедийном телесериале «Новенькая» (2011).",
    "Брэд Гэррет, который озвучивает Крэнга, появился в одном из эпизодов телесериала «Дефективный детектив» (2002), главную роль в котором исполнил Тони Шэлуб, чьим голосом в фильме «Черепашки-ниндзя 2» говорит Сплинтер.",
    "Четвёртый случай в карьере Брэда Гэррета, когда он озвучивает кого-то из персонажей в фильме, где игра актёров сочетается с компьютерной графикой. Он уже выступал в этой роли, озвучивая Фатсо в фильме «Каспер» (Брэд Силберлинг, 1995), добермана Луку в фильме «Гарфилд» (Питер Хьюитт, 2004) и ротвейлера по кличке Рифф-Рафф в фильме «Суперпёс» (Фредерик Дю Чау, 2007).",
    "Брэд Гэррет и Уилл Арнетт вместе снимались в анимационном фильме студий «Pixar» и «Disney» «Рататуй» (Брэд Бёрд, 2007).",
    "Один из создателей черепашек-ниндзя Кевин Истмен сыграл в фильме разносчика пиццы.",
    "Кейси Джонс водит чёрный «Dodge Hellcat Challenger» 2016 года выпуска.",
    "В начале титров зритель слышит ремиксы оригинальной музыки, написанной для франшизы, и композиции «Go Ninja Go» американского рэпера по имени Ванилла Айс.",
    "На регистрационном номере автомобиля можно прочесть: «Мираж 84». Черепашки-ниндзя впервые появились в комиксах компании «Mirage» в 1984 году."
  ],
  "trailers": [
    {
      "name": "трейлер №1",
      "number": 1,
      "iframe_poster": null,
      "season": null,
      "iframe_url": ""
    }
  ],
  "seasons": [],
  "voiceActing": [
    "Рус. Дублированный",
    "Eng.Original"
  ],
  "subtitle": [
    "Рус. форсированные"
  ],
  "parts": [
    308,
    1575
  ]
}
