{
  "id": 24161,
  "name": "Рейхсфюрер СС",
  "name_eng": "Reichsführer-SS",
  "year": 2015,
  "slogan": "«He Commands Your Fear!»",
  "age": null,
  "type": "film",
  "quality": "SD",
  "imdb": "3.4",
  "imdb_id": "3995140",
  "kinopoisk": "3.4",
  "kinopoisk_id": "846641",
  "world_art": null,
  "world_art_id": null,
  "time": "95 мин. / 01:35",
  "ads": false,
  "premier": "2015-11-21",
  "premier_rus": "2015-11-22",
  "availability": "2015-11-23",
  "activate_time": "2020-06-17 14:04:00",
  "budget": "$25 000",
  "fees_use": null,
  "fees_world": null,
  "fees_rus": null,
  "rate_mpaa": null,
  "description": "Генрих Гиммлер, рейхсфюрер СС, был самым преданным соратником Адольфа Гитлера и одним из самых страшных людей Второй мировой войны. Он убивал даже не поморшившись. Как то раз, рейхсфюреру становится физически плохо во время казни русских военопленных на Восточном фронте, в 1941-м году. Безжалостная карьеристская крыса, генерал Ганс Шелленберг, сдает Гиммлера. И Гитлер проверяет Генриха Гиммлера не верность, вынуждая совершить убийство польского заключенного по имени Данута, собственными руками. В результате, внутри Гиммлера пробуждаться монстр, который будет шокировать ни одно поколение. После того, как тот сводит счеты с жизнью в 1945-м году, он попадает в Ад. Что случится, когда Гиммлер встретит Эребуса, самого привратника ада?",
  "iframe_url": "",
  "iframe_poster": null,
  "poster": "https://img.imgilall.me/movies/franchise/2/4/1/6/1/0/0/0/0/0/610x900_24161.jpg",
  "country": {
    "1": "США"
  },
  "collection": {
    "69": "Про войну 1941-1945"
  },
  "genre": {
    "26": "Ужасы",
    "32": "Военный",
    "13": "Триллер"
  },
  "director": [
    "Дэвид Б. Стюарт III"
  ],
  "screenwriter": [
    "Дэвид Б. Стюарт III"
  ],
  "producer": [
    "Кристиан Грилло",
    "Чак Мехер",
    "Джон Мартино"
  ],
  "operator": [
    "Джон Мартино"
  ],
  "composer": [
    "Кристиан Грилло"
  ],
  "design": [
    "Дэвид Б. Стюарт III",
    "Леонард Поллак"
  ],
  "editor": [
    "Кристиан Грилло"
  ],
  "actors": [
    "Дэвид Б. Стюарт III",
    "Анджелина Ли",
    "Чак Мехер",
    "Martin Slamon",
    "Джон Мартино",
    "Тина Краузе",
    "Тэмми Джин",
    "Joseph Barford",
    "Anthony Cerrano",
    "Келли Уэстон"
  ],
  "actors_dubl": [],
  "trivia": [],
  "trailers": [],
  "seasons": [],
  "voiceActing": [
    "Рус. Люб. двухголосый"
  ],
  "subtitle": [],
  "parts": []
}
