{
  "id": 17397,
  "name": "Всем хана!",
  "name_eng": "Disaster!",
  "year": 2005,
  "slogan": "«Такого безобразия вы не видели никогда!»",
  "age": "18+",
  "type": "cartoon",
  "quality": "SD",
  "imdb": "5.0",
  "imdb_id": "0424958",
  "kinopoisk": "5.4",
  "kinopoisk_id": "84200",
  "world_art": null,
  "world_art_id": null,
  "time": "83 мин. / 01:23",
  "ads": false,
  "premier": "2005-11-04",
  "premier_rus": "2005-11-05",
  "availability": "2005-11-06",
  "activate_time": "2020-06-09 15:34:00",
  "budget": "$14 000 000",
  "fees_use": null,
  "fees_world": null,
  "fees_rus": "$140 000",
  "rate_mpaa": "R",
  "description": "Если астероид со славным именем Шон Коннери все-таки доберется до Земли, на нашей планете не останется в живых никого. Даже бактерий. Человечество может спасти только команда супер-профессионалов, состоящая из порнозвезды, робота-гея, грудастой блондинки и других, не менее колоритных персонажей. Под мудрым руководством парализованного ученого им предстоит бросить вызов громадной каменюке, угрожающей жизни ни в чем не повинных бактерий.",
  "iframe_url": "",
  "iframe_poster": null,
  "poster": "https://img.imgilall.me/movies/franchise/1/7/3/9/7/0/0/0/0/0/610x900_17397.jpg",
  "country": {
    "1": "США"
  },
  "collection": {
    "14": "Для взрослых"
  },
  "genre": {
    "11": "Фантастика",
    "19": "Комедия"
  },
  "director": [
    "Рой Т. Вуд"
  ],
  "screenwriter": [
    "Пол Бенсон",
    "Мэтт Салливан"
  ],
  "producer": [
    "Ивэн Астровски",
    "Эхуд Блайберг",
    "Ицхак Гинсберг"
  ],
  "operator": [
    "Дж.С. Эрл"
  ],
  "composer": [
    "Трэйси Миллс"
  ],
  "design": [
    "Джим Таулер",
    "Эрин Пеннакио"
  ],
  "editor": [
    "Дэвид А. Дэвидсон",
    "Ясу Цуй"
  ],
  "actors": [
    "Джим Каммингс",
    "Гленн Моршауэр",
    "Дэнни Манн",
    "Стив Мэккалл",
    "Джинни Элиас",
    "Хезер Кэппс",
    "Айзек С. Синглтон мл.",
    "Гленн Такакджян",
    "Мэтт Салливан",
    "Никки Сикс"
  ],
  "actors_dubl": [
    "Дмитрий Пучков",
    "Максим Сергеев",
    "Валерий Кухарешин",
    "Геннадий Богачёв",
    "Елена Шульман"
  ],
  "trivia": [],
  "trailers": [],
  "seasons": [],
  "voiceActing": [
    "Рус. Проф. многоголосый"
  ],
  "subtitle": [],
  "parts": []
}
