{
  "id": 36150,
  "name": "Багз и Даффи: Мультфильмы военного времени",
  "name_eng": "Bugs & Daffy: The Wartime Cartoons",
  "year": 1989,
  "slogan": "—",
  "age": null,
  "type": "cartoon",
  "quality": "SD",
  "imdb": "8.1",
  "imdb_id": "0443729",
  "kinopoisk": null,
  "kinopoisk_id": "840966",
  "world_art": null,
  "world_art_id": null,
  "time": "120 мин. / 02:00",
  "ads": true,
  "premier": null,
  "premier_rus": null,
  "availability": null,
  "activate_time": "2020-08-14 11:16:00",
  "budget": null,
  "fees_use": null,
  "fees_world": null,
  "fees_rus": null,
  "rate_mpaa": null,
  "description": null,
  "iframe_url": "",
  "iframe_poster": null,
  "poster": "https://img.imgilall.me/movies/franchise/3/6/1/5/0/0/0/0/0/0/610x900_36150.jpg",
  "country": {
    "1": "США"
  },
  "collection": [],
  "genre": {
    "32": "Военный",
    "19": "Комедия"
  },
  "director": [],
  "screenwriter": [],
  "producer": [
    "Ralph Tribbey"
  ],
  "operator": [],
  "composer": [],
  "design": [],
  "editor": [
    "Johen Bohn"
  ],
  "actors": [
    "Мэл Бланк",
    "Билли Блэтчер",
    "Леонард Малтин",
    "Би Бенадерет",
    "Ричард Бикенбах",
    "Роберт С. Брюс",
    "Ричард Хейдн",
    "Тед Пирс"
  ],
  "actors_dubl": [],
  "trivia": [],
  "trailers": [
    {
      "name": "трейлер №1",
      "number": 1,
      "iframe_poster": null,
      "season": null,
      "iframe_url": ""
    }
  ],
  "seasons": [],
  "voiceActing": [
    "Рус. Люб. одноголосый",
    "Eng.Original"
  ],
  "subtitle": [],
  "parts": []
}
