{
  "id": 32109,
  "name": "Почерк убийства",
  "name_eng": "Stressed to Kill",
  "year": 2016,
  "slogan": "«When his blood pressure rises, the killings begin»",
  "age": "18+",
  "type": "film",
  "quality": "SD",
  "imdb": "5.6",
  "imdb_id": "0",
  "kinopoisk": null,
  "kinopoisk_id": "849150",
  "world_art": null,
  "world_art_id": null,
  "time": "103 мин. / 01:43",
  "ads": false,
  "premier": "2016-05-27",
  "premier_rus": "2016-05-28",
  "availability": "2016-05-29",
  "activate_time": "2020-06-28 10:14:00",
  "budget": null,
  "fees_use": null,
  "fees_world": null,
  "fees_rus": null,
  "rate_mpaa": null,
  "description": "Чтобы уменьшить кровяное давление после сердечного приступа, человек начинает убивать людей.",
  "iframe_url": "",
  "iframe_poster": null,
  "poster": "https://img.imgilall.me/movies/franchise/3/2/1/0/9/0/0/0/0/0/610x900_32109.jpg",
  "country": {
    "1": "США",
    "4": "Австралия"
  },
  "collection": [],
  "genre": {
    "25": "Криминал",
    "19": "Комедия",
    "13": "Триллер",
    "7": "Драма"
  },
  "director": [
    "Марк Сэвадж"
  ],
  "screenwriter": [
    "Tom Parnell",
    "Марк Сэвадж"
  ],
  "producer": [
    "Скотт Перлман",
    "Марк Сэвадж",
    "Шон Холтен"
  ],
  "operator": [
    "Дэвид Ричардсон"
  ],
  "composer": [
    "Глен Гэбриел"
  ],
  "design": [
    "Нил Норман",
    "Lynn Single"
  ],
  "editor": [
    "Джеймс Коул"
  ],
  "actors": [
    "Арманд Ассанте",
    "Билл Оберст мл.",
    "Дерек Робертс",
    "Маршал Хилтон",
    "Тамара Остин",
    "Соня Кертис",
    "Лэнс Тафельски",
    "Густаво Перез",
    "Чарльз Харрельсон",
    "Аль Аки"
  ],
  "actors_dubl": [],
  "trivia": [],
  "trailers": [],
  "seasons": [],
  "voiceActing": [
    "Рус. Проф. многоголосый"
  ],
  "subtitle": [],
  "parts": []
}
