{
  "id": 26467,
  "name": "Врата тьмы",
  "name_eng": "Pay the Ghost",
  "year": 2015,
  "slogan": "«Мир мёртвых ближе, чем кажется»",
  "age": "16+",
  "type": "film",
  "quality": "HD (720p)",
  "imdb": "5.2",
  "imdb_id": "3733778",
  "kinopoisk": "5.2",
  "kinopoisk_id": "840573",
  "world_art": null,
  "world_art_id": null,
  "time": "94 мин. / 01:34",
  "ads": false,
  "premier": "2015-09-16",
  "premier_rus": "2015-09-24",
  "availability": "2015-09-25",
  "activate_time": "2020-06-27 08:43:00",
  "budget": null,
  "fees_use": null,
  "fees_world": "$2 914 020",
  "fees_rus": "$494 503",
  "rate_mpaa": null,
  "description": "Во время ночного парада в Нью-Йорке у профессора Майка Кола бесследно пропадает маленький сын. Полиции не удается найти ребёнка, однако после собственного расследования отец узнает, что некое мощное древнее проклятие забирает детей каждый год. Чтобы вернуть сына, мужчина решает использовать единственный шанс – в ночь на Хэллоуин отправиться на другую сторону тьмы.",
  "iframe_url": "",
  "iframe_poster": null,
  "poster": "https://img.imgilall.me/movies/franchise/2/6/4/6/7/0/0/0/0/0/610x900_26467.jpg",
  "country": {
    "1": "США"
  },
  "collection": [],
  "genre": {
    "26": "Ужасы",
    "24": "Детектив",
    "13": "Триллер",
    "7": "Драма"
  },
  "director": [
    "Ули Эдель"
  ],
  "screenwriter": [
    "Дэниэл Кэй",
    "Тим Леббон"
  ],
  "producer": [
    "Николя Картье",
    "Josh Cowell",
    "Крэйг Дж. Флорес"
  ],
  "operator": [
    "Шэрон Мейр"
  ],
  "composer": [
    "Джозеф ЛоДука"
  ],
  "design": [
    "Руперт Лазарус",
    "Шон Брио",
    "Кристофер Харгадон"
  ],
  "editor": [
    "Джефф МакЭвой"
  ],
  "actors": [
    "Николас Кейдж",
    "Сара Уэйн Кэллис",
    "Вероника Феррес",
    "Лайрик Бент",
    "Лорен Битти",
    "Кэли Хантер",
    "Джек Фултон",
    "Стивен МакХэтти",
    "Сюзанна Хоффман",
    "Хуан Карлос Велис"
  ],
  "actors_dubl": [
    "Александр Рахленко",
    "Анастасия Лапина",
    "Алексей Шадхин",
    "Павел Кипнис",
    "Станислав Стрелков"
  ],
  "trivia": [
    "Впервые фильм был анонсирован в 2010 году, тогда на место режиссера рассматривалась кандидатура Дэнниса Илиадиса."
  ],
  "trailers": [],
  "seasons": [],
  "voiceActing": [
    "Рус. Дублированный"
  ],
  "subtitle": [],
  "parts": []
}
