{
  "id": 26365,
  "name": "Исчезновение Элеанор Ригби: Они",
  "name_eng": "The Disappearance of Eleanor Rigby: Them",
  "year": 2014,
  "slogan": "«В каждой истории любви есть своя тайна»",
  "age": "16+",
  "type": "film",
  "quality": "HD (720p)",
  "imdb": "6.3",
  "imdb_id": "3729920",
  "kinopoisk": "6.5",
  "kinopoisk_id": "841431",
  "world_art": null,
  "world_art_id": null,
  "time": "123 мин. / 02:03",
  "ads": false,
  "premier": "2014-05-17",
  "premier_rus": "2014-12-04",
  "availability": "2014-12-05",
  "activate_time": "2020-07-08 05:02:00",
  "budget": "$3 000 000",
  "fees_use": "$587 774",
  "fees_world": "+ $860 302 = $1 448 076",
  "fees_rus": "$83 119",
  "rate_mpaa": "R",
  "description": "Конор и Элеанор живут на Манхэттене. Они женаты уже несколько лет, хотя очень разные. Она учится в университете. Он – владелец небольшого ресторанчика. Ее семья (папа – профессор, мама – скрипачка) в свое время не очень благосклонно отнеслась к выбору дочери. Его отца вообще мало интересуют дела сына. Но для Конора и Элеанор все это не имеет никакого значения, потому что они создали свой собственный мир, наполненный любовью. Жизнь для них словно легкая, интересная и красивая игра. Но драматические события меняют всё, их идеальный мир рушится, и Элеанор решает исчезнуть…",
  "iframe_url": "",
  "iframe_poster": null,
  "poster": "https://img.imgilall.me/movies/franchise/2/6/3/6/5/0/0/0/0/0/610x900_26365.jpg",
  "country": {
    "1": "США"
  },
  "collection": [],
  "genre": {
    "8": "Мелодрама",
    "7": "Драма"
  },
  "director": [
    "Нед Бенсон"
  ],
  "screenwriter": [
    "Нед Бенсон"
  ],
  "producer": [
    "Нед Бенсон",
    "Джессика Честейн",
    "Кассандра Кулукундис"
  ],
  "operator": [
    "Крис Бловелт"
  ],
  "composer": [
    "Райан Лотт"
  ],
  "design": [
    "Келли МакГихи",
    "Стэйси Баттат",
    "Шила Бок"
  ],
  "editor": [],
  "actors": [
    "Джеймс МакЭвой",
    "Джессика Честейн",
    "Нина Арианда",
    "Виола Дэвис",
    "Билл Хейдер",
    "Киран Хайндс",
    "Изабель Юппер",
    "Уильям Хёрт",
    "Джесс Вейкслер",
    "Никки М. Джеймс"
  ],
  "actors_dubl": [
    "Иван Калинин",
    "Рамиля Искандер",
    "Ирина Киреева",
    "Ольга Кузнецова",
    "Александр Дасевич"
  ],
  "trivia": [
    "Названием фильм обязан песне Eleanor Rigby (1966) группы The Beatles.",
    "Чтобы сыграть в этом фильме, актриса Джессика Честейн отказалась от роли в супергеройском боевике Шейна Блэка «Железный человек 3» (2013)."
  ],
  "trailers": [],
  "seasons": [],
  "voiceActing": [
    "Cartoon Network"
  ],
  "subtitle": [],
  "parts": []
}
