{
  "id": 1911,
  "name": "Рапунцель: Запутанная история",
  "name_eng": "Tangled",
  "year": 2010,
  "slogan": "«Приключения предпочитают блондинок»",
  "age": "6+",
  "type": "cartoon",
  "quality": "FHD (1080p)",
  "imdb": "7.7",
  "imdb_id": "0398286",
  "kinopoisk": "7.9",
  "kinopoisk_id": "84049",
  "world_art": null,
  "world_art_id": null,
  "time": "100 мин. / 01:40",
  "ads": false,
  "premier": "2010-11-24",
  "premier_rus": "2010-11-25",
  "availability": null,
  "activate_time": "2018-08-31 15:51:52",
  "budget": "$260 000 000",
  "fees_use": "$200 821 936",
  "fees_world": "$591 794 936",
  "fees_rus": "$23 377 477",
  "rate_mpaa": "PG",
  "description": "Обаятельный разбойник Флинн путешествует по жизни с легкостью, лишь потому, что он красив, болтлив и удачлив. И, казалось, фортуна всегда на его стороне, пока однажды он не выбирает высокую башню в густой чаще леса в качестве «спокойного» убежища. Флинн оказывается связанным по рукам и ногам юной красавицей по имени Рапунцель. Если вы думаете, что самое интересное в ней — это 21 метр волшебных золотистых волос, то вы заблуждаетесь! Запертая в башне и отчаянно ищущая приключений, Рапунцель решает использовать Флинна в качестве билета в большой мир. Сначала комичное похищение, затем невинный шантаж — и вот наши герои на воле. Вместе с главными героями в авантюрное путешествие отправятся бравый конь-ищейка Максимус, ручной хамелеон и шайка сумасбродных разбойников.",
  "iframe_url": "",
  "iframe_poster": null,
  "poster": "https://img.imgilall.me/movies/franchise/1/9/1/1/0/0/0/0/0/0/610x900_1911.jpg",
  "country": {
    "1": "США"
  },
  "collection": {
    "37": "Disney"
  },
  "genre": {
    "9": "Приключения",
    "6": "Фэнтези",
    "37": "Детский",
    "34": "Полнометражный",
    "19": "Комедия",
    "10": "Зарубежный",
    "8": "Мелодрама"
  },
  "director": [
    "Нэйтан Грено",
    "Байрон Ховард"
  ],
  "screenwriter": [
    "Дэн Фогельман",
    "Якоб Гримм",
    "Вильгельм Гримм"
  ],
  "producer": [
    "Рой Конли",
    "Глен Кин",
    "Джон Лассетер"
  ],
  "operator": [],
  "composer": [
    "Алан Менкен"
  ],
  "design": [
    "Дуглас Роджерс",
    "Дэн Купер",
    "Дэвид Гетц"
  ],
  "editor": [
    "Тим Мертенс"
  ],
  "actors": [
    "Мэнди Мур",
    "Закари Ливай",
    "Донна Мерфи",
    "Рон Перлман",
    "М. К. Гейни",
    "Джеффри Тэмбор",
    "Брэд Гэррет",
    "Пол Ф. Томпкинс",
    "Ричард Кил",
    "Делани Роуз Стейн"
  ],
  "actors_dubl": [
    "Виктория Дайнеко",
    "Андрей Бирин",
    "Григорий Антипенко",
    "Мария Кац",
    "Арман Хачатрян"
  ],
  "trivia": [
    "Мультфильм создан по мотивам сказки братьев Гримм «Рапунцель» (Rapunzel).",
    "«Рапунцель: Запутанная история» — это 50-й полнометражный анимационный фильм студии Walt Disney Pictures.",
    "Правильное ударение в имени «Рапунцель» ставится на второй слог: РапУнцель.",
    "Оба режиссёра – и Байрон Ховард, и Нэйтан Грено – мечтали стать аниматорами с тех пор, как посетили анимационную студию Disney в парке развлечений Disney World. Перед тем, как получить работу в студии, Ховард работал экскурсоводом и часами наблюдал с улицы через стекло за трудом аниматоров.",
    "Сегодня Байрон Ховард и Нэйтан Грено– восходящие звёзды анимации, яркие представители нового поколения режиссёров. Ховард – постановщик приключенческой анимационной комедии «Вольт», выпущенной студией Walt Disney Animation в 2008 году, собравшей в мировом прокате более 300 млн. долларов. «Вольт» был номинирован на два «Золотых Глобуса» (за лучший анимационный фильм и за лучшую песню) и на «Оскар» (за лучший анимационный фильм). Грено на студии уже 14 лет; он принимал участие в работе над картинами «Мулан», «Братец-медвежонок» и «В гости к Робинсонам». В анимационном фильме «Вольт» он был руководителем сценарной группы.",
    "Дочь старшего аниматора Глена Кини, художница Клэр Кини, продумала и нарисовала фрески на стенах башни Рапунцель. Разрабатывая персонажа Рапунцель, Глен наделил её некоторыми чертами своей дочери, в том числе упрямым нравом и склонностью расписывать стены.",
    "Длина золотистых волос Рапунцель — 70 футов (больше 21 метра), в них больше 100 000 отдельных локонов.",
    "Чтобы передать на экране движение волос, была разработана специальная программа Dynamic Wires. Раньше никому в анимации не доводилось рисовать такое количество волос, и ни одна главная героиня в истории кино не носила на голове такую роскошную причёску.",
    "Среднестатистическая длина волос на голове — 30 см. Если сложить эти волосы один к одному, то они растянутся на 26 миль (41,6 км). А если сложить один к одному все волосы с головы Рапунцель, они растянутся на 1820 миль (2912 км).",
    "Во время работы над фильмом десять женщин из творческой группы начали отращивать волосы. Позже все они подстриглись и сдали волосы в организацию, изготовляющую парики для людей, облысевших в результате болезней.",
    "Компьютерный инженер Келли Уорд (одна из трёх специалистов, работавших над созданием программы для симуляции движения волос Рапунцель и других персонажей фильма) защитила диссертацию по компьютерной анимации волос и плотно занималась этим вопросом в течение последних 10 лет. Она считается одним из главных экспертов в этой области.",
    "Образцом для водопада и бурного потока неподалёку от башни послужили реки и водопады в Йосемитском национальном парке в Калифорнии. Старший специалист по спецэффектам ездил туда на два дня и отснял больше 150 видеороликов натуры. На них и опирались в работе художники, выбирая лучшие места и ракурсы. Чтобы нарисовать водопад, требуется нарисовать больше 10 миллионов отдельных капелек.",
    "Больше 2000 гонок в игре «Mario Kart» было сыграно создателями фильма, чтобы не сойти с ума от напряжённой работы.",
    "В фильме «Рапунцель: Запутанная история» действуют пять главных героев, 21 разбойник и 38 горожан. Для кульминационной сцены с фонарями перед художниками спецэффектов была поставлена задача собрать на экране 3000 горожан. Это самая большая массовая сцена за всю историю компьютерной анимации Disney.",
    "Захватывающая кульминационная сцена фильма разворачивается на фоне горизонта, заполненного горящими фонарями. В каждом фонаре горит отдельный нарисованный огонь, состоящий из 10 000 маленьких световых пучков. В одном кадре уместилось 46 000 фонарей, следовательно — 460 миллионов световых пучков!",
    "Источником вдохновения для сцены, в которой речной поток прорывает деревянную дамбу, послужил аттракцион «Стремнина Гризли» (Grizzly River Run) в Калифорнийском парке развлечений Disneyland. В финальной сцене прорыва дамбы на экран выливается 23 миллиона виртуальных галлонов нарисованной воды.",
    "Густой туман, обволакивающий Рапунцель и Матушку Готель, отражает намерение Готель затуманить разум Рапунцель."
  ],
  "trailers": [
    {
      "name": "трейлер №1",
      "number": 1,
      "iframe_poster": null,
      "season": null,
      "iframe_url": ""
    }
  ],
  "seasons": [],
  "voiceActing": [
    "Рус. Дублированный",
    "Eng.Original"
  ],
  "subtitle": [
    "Рус. полные"
  ],
  "parts": [
    1911,
    4835,
    8877,
    19885
  ]
}
