{
  "id": 24848,
  "name": "Фанни и Александр",
  "name_eng": "Fanny och Alexander",
  "year": 1982,
  "slogan": "«En film av Ingmar Bergman»",
  "age": "16+",
  "type": "film",
  "quality": "FHD (1080p)",
  "imdb": "8.1",
  "imdb_id": "0083922",
  "kinopoisk": "7.9",
  "kinopoisk_id": "8400",
  "world_art": null,
  "world_art_id": null,
  "time": "188 мин. / 03:08",
  "ads": false,
  "premier": "1982-12-17",
  "premier_rus": "2018-04-20",
  "availability": "2018-04-21",
  "activate_time": "2020-06-20 03:16:00",
  "budget": "$6 000 000",
  "fees_use": "$6 783 304",
  "fees_world": null,
  "fees_rus": null,
  "rate_mpaa": "R",
  "description": "История семьи Экдаль, увиденная глазами двух детей — сестры и брата Фанни и Александра. Пока семья едина и неразлучна, дети счастливы и без страха могут предаваться чудесным мечтам. С потерей близких людей в них растет чувство горечи и неприязни к миру. Но там, где Фанни пытается сохранить чистую душу, Александр замыкается в тёмном и жестоком внутреннем мирке.",
  "iframe_url": "",
  "iframe_poster": null,
  "poster": "https://img.imgilall.me/movies/franchise/2/4/8/4/8/0/0/0/0/0/610x900_24848.jpg",
  "country": {
    "9": "Франция",
    "28": "Швеция",
    "38": "Германия (ФРГ)"
  },
  "collection": {
    "114": "Лауреат премии \"Оскар\"",
    "5": "С наградами"
  },
  "genre": {
    "7": "Драма"
  },
  "director": [
    "Ингмар Бергман"
  ],
  "screenwriter": [
    "Ингмар Бергман"
  ],
  "producer": [
    "Йорн Доннер",
    "Ренцо Росселлини",
    "Даниэль Тоскан дю Плантье"
  ],
  "operator": [
    "Свен Нюквист"
  ],
  "composer": [
    "Даниэль Белль"
  ],
  "design": [
    "Анна Асп",
    "Марик Вос-Лунд",
    "Сюзанна Линхейм"
  ],
  "editor": [
    "Сильвия Ингемарссон"
  ],
  "actors": [
    "Кристина Адольфсон",
    "Бёрье Альстедт",
    "Пернилла Алльвин",
    "Кристиан Алмгрен",
    "Карл Бильквист",
    "Аксель Дюберг",
    "Аллан Эдвалль",
    "Сив Эрикс",
    "Эва Фрёлинг",
    "Патрисия Желен"
  ],
  "actors_dubl": [],
  "trivia": [
    "Телесериал имеет хронометраж 312 минут.",
    "17 декабря 1983 года в Швеции вышла в прокат режиссерская версия фильма.",
    "Лив Ульман отклонила роль Эмилии Экдаль, и ее заменила Эва Фрёлинг. Бергман был расстроен отказом, и заявил Ульман, что она потеряла свое право быть первой приглашенной в его фильмы.",
    "На роль епископа Эдварда Вергеруса приглашали Макса фон Сюдова, но актер был занят в тот момент на других проектах.",
    "Фамилии героев Вергерус и Эгердаль — своего рода визитные карточки Ингмара Бергмана.",
    "Ингмар Бергман снял примерно 24 часа материала для этого фильма.",
    "После роли Александра Бертиль Гуве решил больше не сниматься в кино. В будущем он стал доктором экономических наук.",
    "Финальные сцены похорон вне церкви были сняты съемочной группой самостоятельно. Бергман в тот момент слег в постель с гриппом."
  ],
  "trailers": [],
  "seasons": [],
  "voiceActing": [
    "Рус. Проф. многоголосый"
  ],
  "subtitle": [
    "Eng. full"
  ],
  "parts": []
}
