{
  "id": 33297,
  "name": "Эксперимент «Одержимость»",
  "name_eng": "The Possession Experiment",
  "year": 2016,
  "slogan": "«Some doors should never be open»",
  "age": null,
  "type": "film",
  "quality": "HD (720p)",
  "imdb": "3.6",
  "imdb_id": "0",
  "kinopoisk": "3.7",
  "kinopoisk_id": "846485",
  "world_art": null,
  "world_art_id": null,
  "time": "84 мин. / 01:24",
  "ads": false,
  "premier": "2016-10-27",
  "premier_rus": "2016-10-28",
  "availability": "2016-10-29",
  "activate_time": "2020-07-15 15:48:00",
  "budget": "$55 000",
  "fees_use": null,
  "fees_world": null,
  "fees_rus": null,
  "rate_mpaa": null,
  "description": "Брендона всегда тянуло к сверхъестественным вещам, поэтому для своей курсовой работы по теологии молодой человек избрал тему экзорцизма. Вместе с другом-студентом Брендон расследует массовое убийство/самоубийство, произошедшее в ходе неудачной попытки изгнать беса. Заигрывание с потусторонним миром доходит до крайней точки, когда герой решается поставить опыт экзорцизма на самом себе. “Эксперимент Одержимость”, разумеется, не сулит ничего хорошего двум экстремалам, но жажда потаённых знаний, тяга к потустороннему и обычная мальчишеская дерзость отключили все тормоза и почти заблокировали мозг – а дальше фильм ужасов обрёл новых персонажей, которые радостно начинают пользоваться возможностью выскочить за двери преисподней и покуражиться среди людей.",
  "iframe_url": "",
  "iframe_poster": null,
  "poster": "https://img.imgilall.me/movies/franchise/3/3/2/9/7/0/0/0/0/0/610x900_33297.jpg",
  "country": {
    "1": "США"
  },
  "collection": [],
  "genre": {
    "26": "Ужасы",
    "13": "Триллер"
  },
  "director": [
    "Скотт Хансен"
  ],
  "screenwriter": [
    "Мэри Диксон",
    "Скотт Хансен"
  ],
  "producer": [
    "Greg Anthony",
    "Тодд Граббс",
    "Тодд Слэйтер"
  ],
  "operator": [
    "Скотт Хансен"
  ],
  "composer": [
    "Дирк Элерт"
  ],
  "design": [
    "Джейсон Майкл Тутилл",
    "Kearston Dillard-Scott",
    "Колин Тутилл"
  ],
  "editor": [
    "Robert H. Chapman",
    "Скотт Хансен"
  ],
  "actors": [
    "Крис Майнор",
    "Jake Brinn",
    "Никки Джаспер",
    "Кт Фанелли",
    "Билл Моусли",
    "Марк Джой",
    "Рэйчел Фолкнер",
    "Грег Трэвис",
    "Даллас Т. Тейлор",
    "Ron Dressel"
  ],
  "actors_dubl": [],
  "trivia": [],
  "trailers": [],
  "seasons": [],
  "voiceActing": [
    "Рус. Проф. многоголосый"
  ],
  "subtitle": [],
  "parts": []
}
