{
  "id": 39262,
  "name": "Как братья-пальцы поссорились",
  "name_eng": "",
  "year": 1973,
  "slogan": "—",
  "age": null,
  "type": "cartoon",
  "quality": "SD",
  "imdb": null,
  "imdb_id": "6801510",
  "kinopoisk": null,
  "kinopoisk_id": "842142",
  "world_art": null,
  "world_art_id": null,
  "time": "—",
  "ads": false,
  "premier": null,
  "premier_rus": null,
  "availability": null,
  "activate_time": "2020-10-14 02:41:00",
  "budget": null,
  "fees_use": null,
  "fees_world": null,
  "fees_rus": null,
  "rate_mpaa": null,
  "description": null,
  "iframe_url": "",
  "iframe_poster": null,
  "poster": "https://img.imgilall.me/movies/franchise/3/9/2/6/2/0/0/0/0/0/610x900_39262.jpg",
  "country": {
    "24": "СССР"
  },
  "collection": [],
  "genre": {
    "53": "Короткометражный"
  },
  "director": [
    "Ахрар Акбарходжаев"
  ],
  "screenwriter": [
    "Ахрар Акбарходжаев",
    "Н. Умеров"
  ],
  "producer": [],
  "operator": [
    "Анвар Мукаррамов"
  ],
  "composer": [
    "Эдуард Каландаров"
  ],
  "design": [
    "Ю. Петров"
  ],
  "editor": [],
  "actors": [],
  "actors_dubl": [],
  "trivia": [],
  "trailers": [],
  "seasons": [],
  "voiceActing": [
    "Original"
  ],
  "subtitle": [],
  "parts": []
}
