{
  "id": 47787,
  "name": "200 баксов",
  "name_eng": "200 American",
  "year": 2003,
  "slogan": "«How Much Are You Worth?»",
  "age": "18+",
  "type": "film",
  "quality": "SD",
  "imdb": "5.3",
  "imdb_id": "0387805",
  "kinopoisk": "5.9",
  "kinopoisk_id": "84483",
  "world_art": null,
  "world_art_id": null,
  "time": "84 мин. / 01:24",
  "ads": false,
  "premier": "2003-08-10",
  "premier_rus": "2003-08-11",
  "availability": "2003-08-12",
  "activate_time": "2021-06-22 10:42:00",
  "budget": null,
  "fees_use": null,
  "fees_world": null,
  "fees_rus": null,
  "rate_mpaa": null,
  "description": "Сколько вы стоите? История о двух разных парнях, которые пытаются найти себя. Йан, молодой австралиец, приезжает в Нью-Йорк, чтобы начать новую жизнь. Чтобы заработать денег, он занимается проституцией с мужчинами. Его ставка — 200 долларов. Вскоре он встречает Конрада, владельца рекламного агентства, который решает снять себе постоянного парня на то время, пока он не отошел от своего прежнего бойфренда. Удивленный тем, что такой симпатичный парень как Йан занимается проституцией, он предлагает ему работу в своем агентстве, но возникают сложности, когда Йан западает на своего нового начальника Майкла, что заставляет Конрада попытаться вернуть своего экс-бойфренда.",
  "iframe_url": "",
  "iframe_poster": null,
  "poster": "https://img.imgilall.me/movies/franchise/4/7/7/8/7/0/0/0/0/0/610x900_47787.jpg",
  "country": {
    "1": "США"
  },
  "collection": [],
  "genre": {
    "19": "Комедия",
    "8": "Мелодрама",
    "7": "Драма"
  },
  "director": [
    "Ричард Лемэй"
  ],
  "screenwriter": [
    "Ричард Лемэй"
  ],
  "producer": [
    "Ричард Лемэй"
  ],
  "operator": [
    "Хосе Ортиз"
  ],
  "composer": [
    "F.L. Jones"
  ],
  "design": [],
  "editor": [
    "Ричард Лемэй"
  ],
  "actors": [
    "Мэтт Уолтон",
    "Шон Матич",
    "Энтони Амес",
    "Джон-Дилан Ховард",
    "Марк Форд",
    "Гэйл Херендин",
    "Люси Смит",
    "Спенсер Асте",
    "Джастин Даришин",
    "Дэвид В. Росс"
  ],
  "actors_dubl": [],
  "trivia": [],
  "trailers": [],
  "seasons": [],
  "voiceActing": [
    "Original"
  ],
  "subtitle": [],
  "parts": []
}
