{
  "id": 33614,
  "name": "Портной из Панамы",
  "name_eng": "The Tailor of Panama",
  "year": 2001,
  "slogan": "«В этом предательском месте даже лучшему шпиону нужна поддержка»",
  "age": "16+",
  "type": "film",
  "quality": "HD (720p)",
  "imdb": "6.2",
  "imdb_id": "0",
  "kinopoisk": "6.2",
  "kinopoisk_id": "851",
  "world_art": null,
  "world_art_id": null,
  "time": "109 мин. / 01:49",
  "ads": false,
  "premier": "2001-02-11",
  "premier_rus": "2001-02-12",
  "availability": "2001-02-13",
  "activate_time": "2020-07-15 13:50:00",
  "budget": "$21 000 000",
  "fees_use": "$13 729 742",
  "fees_world": "+ $14 278 720 = $28 008 462",
  "fees_rus": null,
  "rate_mpaa": "R",
  "description": "Секретный агент Британской разведки Энди Оснард подвержен двум неизменным страстям своей опасной профессии – одержимостью риском и чужими женами. На этот раз ему предстоит большая игра: он оказывается в центре политической интриги вокруг судьбы Панамского канала. Его орудие – престижный портной Гарри Перидел, чья элитная клиентура может дать разведчику бесценные сведения. Другой пламенной страсти – к женщине – в новом деле отводится не последняя роль.",
  "iframe_url": "",
  "iframe_poster": null,
  "poster": "https://img.imgilall.me/movies/franchise/3/3/6/1/4/0/0/0/0/0/610x900_33614.jpg",
  "country": {
    "1": "США",
    "21": "Ирландия"
  },
  "collection": [],
  "genre": {
    "19": "Комедия",
    "13": "Триллер",
    "7": "Драма"
  },
  "director": [
    "Джон Бурмен"
  ],
  "screenwriter": [
    "Джон ле Карре",
    "Эндрю Дэвис",
    "Джон Бурмен"
  ],
  "producer": [
    "Джон Бурмен",
    "Кеван Баркер",
    "Джон ле Карре"
  ],
  "operator": [
    "Филипп Русло"
  ],
  "composer": [
    "Шон Дэвей"
  ],
  "design": [
    "Дерек Уоллес",
    "Сара Холдрен",
    "Ирен О’Брайэн"
  ],
  "editor": [
    "Рон Дэвис"
  ],
  "actors": [
    "Пирс Броснан",
    "Джеффри Раш",
    "Джейми Ли Кёртис",
    "Леонор Варела",
    "Брендан Глисон",
    "Гарольд Пинтер",
    "Катрин МакКормак",
    "Дэниэл Рэдклифф",
    "Лола Бурман",
    "Дэвид Хейман"
  ],
  "actors_dubl": [],
  "trivia": [
    "Джеффри Раш не водит машину, поэтому во всех сценах, где его герой за рулём, машину либо тянут на буксире, либо в сцене снят дублёр.",
    "Фильм снят по мотивам одноимённого романа (1996) Джона ле Карре.",
    "В фильме показаны некоторые достопримечательности Панамы — президентский дворец, один из трёх основных шлюзов Панамского канала, дом управляющего, а также центр управления Панамским каналом (последний является режимным объектом, поэтому снимали там по минимуму).",
    "По возвращении из Панамы творческий коллектив фильма продолжил съёмки в павильонах Ardmore Studios возле Дублина в Ирландии.",
    "Виды снаружи домов, где проживали герои Джеффри Раша, Джейми Ли Кёртис и Пирса Броснана, снимали в Панаме, а все внутренние помещения — на съёмочных площадках Ardmore Studios в Ирландии. В Ирландии же создали и центр управления в Пентагоне со множеством сверхсовременных компьютеров."
  ],
  "trailers": [],
  "seasons": [],
  "voiceActing": [
    "Diva Universal"
  ],
  "subtitle": [],
  "parts": []
}
