{
  "id": 38448,
  "name": "Команда «Смерть»",
  "name_eng": "Chung chong ging chaat",
  "year": 2001,
  "slogan": "—",
  "age": "16+",
  "type": "film",
  "quality": "SD",
  "imdb": "5.7",
  "imdb_id": "0283287",
  "kinopoisk": null,
  "kinopoisk_id": "85561",
  "world_art": null,
  "world_art_id": null,
  "time": "94 мин. / 01:34",
  "ads": false,
  "premier": "2001-02-22",
  "premier_rus": "2001-02-23",
  "availability": "2001-02-24",
  "activate_time": "2020-10-12 04:20:00",
  "budget": null,
  "fees_use": null,
  "fees_world": null,
  "fees_rus": null,
  "rate_mpaa": null,
  "description": "Спираль событий стремительно закручивается во время неудачной полицейской облавы на подпольный криминальный банк.Один из полицейских получает тяжелое ранение, и становится практически инвалидом. Для его спасения необходима операция стоимостью 500 000 долларов.Трое полицейских решают помочь своему другу и идут на ограбление того самого банка, чтобы оплатить операцию. Все проходит успешно, но на месте ограбления оставлена улика… Дело начинает расследовать Особый отряд суперполицейских. Бандиты тоже хотят вернуть свои деньги.",
  "iframe_url": "",
  "iframe_poster": null,
  "poster": "https://img.imgilall.me/movies/franchise/3/8/4/4/8/0/0/0/0/0/610x900_38448.jpg",
  "country": {
    "12": "Гонконг"
  },
  "collection": [],
  "genre": {
    "17": "Боевик"
  },
  "director": [
    "Данте Лам"
  ],
  "screenwriter": [
    "Кларенс Ли",
    "Нг Вай-Лунь",
    "Данте Лам"
  ],
  "producer": [
    "Данте Лам",
    "Джо Чунг Мэн Квонг"
  ],
  "operator": [
    "Тони Чун"
  ],
  "composer": [
    "Томми Вай"
  ],
  "design": [
    "Стэнли Чун"
  ],
  "editor": [
    "Чан Ки-Хоп"
  ],
  "actors": [
    "Дэниэл Ву",
    "Алекс То",
    "Сэмюэл Пан",
    "Тони Хо",
    "Джо Кук",
    "Вэй-Фай Вонг",
    "Джазз Пун",
    "Аллан Мо",
    "Джо Ли",
    "Shui Chit Cheung"
  ],
  "actors_dubl": [],
  "trivia": [],
  "trailers": [],
  "seasons": [],
  "voiceActing": [
    "Diva Universal"
  ],
  "subtitle": [],
  "parts": []
}
