{
  "id": 2963,
  "name": "Кунг-фу Кролик: Повелитель огня",
  "name_eng": "Tu Xia Chuan Qi: Qing Li Chuan Shuo",
  "year": 2015,
  "slogan": "«Убегающий тигр, спрятавшийся дракон»",
  "age": "6+",
  "type": "cartoon",
  "quality": "HD (720p)",
  "imdb": "5.6",
  "imdb_id": "4838316",
  "kinopoisk": "4.6",
  "kinopoisk_id": "855957",
  "world_art": null,
  "world_art_id": null,
  "time": "90 мин. / 01:30",
  "ads": false,
  "premier": "2015-02-21",
  "premier_rus": "2015-09-17",
  "availability": null,
  "activate_time": "2018-10-19 10:35:33",
  "budget": null,
  "fees_use": null,
  "fees_world": null,
  "fees_rus": "$679 301",
  "rate_mpaa": null,
  "description": "Победу в поединке сильнейших бойцов неожиданно одерживает неуклюжий с виду пушистый кролик, лучше других владеющий секретами древнего кунг-фу, после чего становится главным защитником деревни. Однако, не долго ему удается купаться в лучах славы и наслаждаться вниманием поклонников. Злодеи вознамерились выкрасть у кролика магический камень и тем самым лишить его силы. Сможет ли пушистый супергерой защитить деревню и противостоять злодеям без силы волшебного камня?",
  "iframe_url": "",
  "iframe_poster": "https://img.imgilall.me/movies/video/2/7/6/2/3/0/0/0/0/0/800x450_27623.jpeg",
  "poster": "https://img.imgilall.me/movies/franchise/2/9/6/3/0/0/0/0/0/0/610x900_2963.jpg",
  "country": {
    "19": "Китай"
  },
  "collection": [],
  "genre": {
    "9": "Приключения",
    "37": "Детский",
    "34": "Полнометражный",
    "19": "Комедия",
    "10": "Зарубежный"
  },
  "director": [
    "Дейк Дун"
  ],
  "screenwriter": [],
  "producer": [],
  "operator": [],
  "composer": [],
  "design": [],
  "editor": [],
  "actors": [
    "Хэ Юньвэй",
    "Хуан Лэй",
    "Ян Цзышань"
  ],
  "actors_dubl": [
    "Андрей Бочаров",
    "Анна Хилькевич",
    "Георгий Юфа",
    "Нонна Гришаева"
  ],
  "trivia": [],
  "trailers": [],
  "seasons": [],
  "voiceActing": [
    "Рус. Дублированный"
  ],
  "subtitle": [],
  "parts": []
}
