{
  "id": 28233,
  "name": "О Боже... Мы в фильме ужасов",
  "name_eng": "OMG... We're in a Horror Movie",
  "year": 2016,
  "slogan": "—",
  "age": null,
  "type": "film",
  "quality": "HD (720p)",
  "imdb": "3.6",
  "imdb_id": "3720468",
  "kinopoisk": null,
  "kinopoisk_id": "856996",
  "world_art": null,
  "world_art_id": null,
  "time": "107 мин. / 01:47",
  "ads": false,
  "premier": "2016-12-09",
  "premier_rus": "2016-12-10",
  "availability": "2016-12-11",
  "activate_time": "2020-07-24 13:14:00",
  "budget": null,
  "fees_use": null,
  "fees_world": null,
  "fees_rus": null,
  "rate_mpaa": null,
  "description": "Шестеро друзей ночью играют в настольные игры. Вдруг их прерывает голос, который сообщает им, что они застряли в фильме ужасов. Кто из них окажется главным злодеем? Кто выживет? Кто умрет первым? Каждый из друзей пытается выжить своими методами, обходя шаблоны фильмов ужасов.",
  "iframe_url": "",
  "iframe_poster": null,
  "poster": "https://img.imgilall.me/movies/franchise/2/8/2/3/3/0/0/0/0/0/610x900_28233.jpg",
  "country": {
    "1": "США"
  },
  "collection": [],
  "genre": {
    "26": "Ужасы",
    "19": "Комедия"
  },
  "director": [
    "Аджала Банделе"
  ],
  "screenwriter": [
    "Аджала Банделе",
    "Tom Hatfield"
  ],
  "producer": [
    "Бриттани Энн Вудфорд",
    "Аджала Банделе",
    "Tyler David Gilbert"
  ],
  "operator": [
    "Greg Loebell"
  ],
  "composer": [
    "Tyler David Gilbert"
  ],
  "design": [],
  "editor": [
    "Аджала Банделе"
  ],
  "actors": [
    "Аджала Банделе",
    "Дженни Кертис",
    "Лиз Феннинг",
    "Кристофер Хэмптон",
    "Nils Jansson",
    "Greg Loebell",
    "Шэрон Мэй",
    "Шэнна Малкольм",
    "Брендан МакГовен",
    "Чинна Скай"
  ],
  "actors_dubl": [],
  "trivia": [],
  "trailers": [],
  "seasons": [],
  "voiceActing": [
    "Рус. Люб. многоголосый"
  ],
  "subtitle": [],
  "parts": []
}
