{
  "id": 30382,
  "name": "Любовь, как спорт",
  "name_eng": "Results",
  "year": 2015,
  "slogan": "«Fighting fit»",
  "age": "16+",
  "type": "film",
  "quality": "HD (720p)",
  "imdb": "5.4",
  "imdb_id": "0",
  "kinopoisk": "4.8",
  "kinopoisk_id": "851951",
  "world_art": null,
  "world_art_id": null,
  "time": "105 мин. / 01:45",
  "ads": false,
  "premier": "2015-01-27",
  "premier_rus": "2015-01-28",
  "availability": "2015-01-29",
  "activate_time": "2020-07-11 07:13:00",
  "budget": null,
  "fees_use": "$104 507",
  "fees_world": null,
  "fees_rus": null,
  "rate_mpaa": "R",
  "description": "Дэнни, недавно разбогатевший и переживший развод, записывается в фитнес-клуб с целью привести себя в форму. Владелец зала Тревор, гуру фитнеса, уже давно воспринимающий все вокруг в пересчете на килокалории, знакомит его со своей бывшей подружкой, амбициозной и энергичной Кэт, которая должна стать его персональным тренером. Тренировки дают неожиданный эффект: Дэнни решает приударить за Кэт, а Тревор начинает ощущать дискомфорт. Идеальный мир фитнеса трещит по швам.",
  "iframe_url": "",
  "iframe_poster": null,
  "poster": "https://img.imgilall.me/movies/franchise/3/0/3/8/2/0/0/0/0/0/610x900_30382.jpg",
  "country": {
    "1": "США"
  },
  "collection": [],
  "genre": {
    "19": "Комедия",
    "8": "Мелодрама"
  },
  "director": [
    "Эндрю Буджальски"
  ],
  "screenwriter": [
    "Эндрю Буджальски"
  ],
  "producer": [
    "Пол Бернон",
    "Хьюстон Кинг",
    "Сэм Слэйтер"
  ],
  "operator": [
    "Матиас Грунский"
  ],
  "composer": [
    "Джастин Райс"
  ],
  "design": [
    "Майкл Брикер",
    "Энтони Лавадера",
    "Колин Уилкс"
  ],
  "editor": [
    "Робин Шварц"
  ],
  "actors": [
    "Гай Пирс",
    "Коби Смолдерс",
    "Кевин Корригэн",
    "Элизабет Берридж",
    "Тишуан Скотт",
    "Мэтт Следж",
    "Лесли Робертс",
    "Leslie Asaka",
    "Cody Butler",
    "Jenn Deising"
  ],
  "actors_dubl": [],
  "trivia": [],
  "trailers": [],
  "seasons": [],
  "voiceActing": [
    "Diva Universal"
  ],
  "subtitle": [],
  "parts": []
}
