{
  "id": 37730,
  "name": "Ложь и правда",
  "name_eng": "Jhutha Sach",
  "year": 1984,
  "slogan": "—",
  "age": "16+",
  "type": "film",
  "quality": "SD",
  "imdb": "6.1",
  "imdb_id": "0357812",
  "kinopoisk": null,
  "kinopoisk_id": "86835",
  "world_art": null,
  "world_art_id": null,
  "time": "131 мин. / 02:11",
  "ads": false,
  "premier": "1984-11-16",
  "premier_rus": "1984-11-17",
  "availability": "1984-11-18",
  "activate_time": "2020-10-12 10:16:00",
  "budget": null,
  "fees_use": null,
  "fees_world": null,
  "fees_rus": null,
  "rate_mpaa": null,
  "description": "Иногда мы используем немного лжи, чтобы успокоить детей. Двое маленьких детей и их отец — маленькая дружная семья, где детям не хватает материнской любви. Дети есть дети: они привязались к одной женщине и убеждают отца принять ее как их мать. И он соглашается.Когда все уже шло своим чередом, отец внезапно умирает в результате несчастного случая. Женщина делала все, чтобы сделать приемных детей счастливыми, но судьба распорядилась иначе ...",
  "iframe_url": "",
  "iframe_poster": null,
  "poster": "https://img.imgilall.me/movies/franchise/3/7/7/3/0/0/0/0/0/0/610x900_37730.jpg",
  "country": {
    "26": "Индия"
  },
  "collection": [],
  "genre": {
    "33": "Семейный",
    "7": "Драма"
  },
  "director": [
    "Эсмаэль Шрофф"
  ],
  "screenwriter": [
    "Moin-ud-din"
  ],
  "producer": [
    "А. Надиадвала",
    "Абдул Хафиз Надиадвала",
    "Фироз Надиадвала"
  ],
  "operator": [
    "Sudhin Majumdar"
  ],
  "composer": [
    "Рахул Дев Бурман"
  ],
  "design": [
    "Бабурао Поддар",
    "Аллан Гилл",
    "Р.В. Найду"
  ],
  "editor": [
    "Ваман Б. Бхосл",
    "Гурудутт Ширали"
  ],
  "actors": [
    "Дхармендра",
    "Рекха",
    "Амриш Пури",
    "Бейби Пинки",
    "Джугал Хансрадж",
    "Асрани",
    "Лалита Павар",
    "Према Нараян",
    "Аруна Ирани",
    "Мастер Бхагван"
  ],
  "actors_dubl": [],
  "trivia": [],
  "trailers": [],
  "seasons": [],
  "voiceActing": [
    "Diva Universal"
  ],
  "subtitle": [],
  "parts": []
}
