{
  "id": 29169,
  "name": "Бремя рутины",
  "name_eng": "The Burden of My Company",
  "year": 2015,
  "slogan": "—",
  "age": "12+",
  "type": "film",
  "quality": "HD (720p)",
  "imdb": "3.9",
  "imdb_id": "4151400",
  "kinopoisk": null,
  "kinopoisk_id": "866944",
  "world_art": null,
  "world_art_id": null,
  "time": "80 мин. / 01:20",
  "ads": false,
  "premier": null,
  "premier_rus": null,
  "availability": null,
  "activate_time": "2020-07-09 20:48:00",
  "budget": null,
  "fees_use": null,
  "fees_world": null,
  "fees_rus": null,
  "rate_mpaa": null,
  "description": null,
  "iframe_url": "",
  "iframe_poster": null,
  "poster": "https://img.imgilall.me/movies/franchise/2/9/1/6/9/0/0/0/0/0/610x900_29169.jpg",
  "country": {
    "1": "США"
  },
  "collection": [],
  "genre": {
    "19": "Комедия",
    "7": "Драма"
  },
  "director": [
    "Ericson Just"
  ],
  "screenwriter": [
    "Allen T. Duarte",
    "Andrew Harwood",
    "Ericson Just"
  ],
  "producer": [
    "Allen T. Duarte",
    "Andrew Harwood",
    "Ericson Just"
  ],
  "operator": [],
  "composer": [],
  "design": [],
  "editor": [
    "Ericson Just"
  ],
  "actors": [
    "Николь Дайонн",
    "Meredith Michal",
    "Andrew Harwood",
    "Кэйтлин Майкл Райли",
    "Брюс Клиффорд",
    "Уилльям Руст",
    "Ericson Just",
    "Barbara Reboh Schader",
    "Robin Van Auken",
    "Эрик Ри"
  ],
  "actors_dubl": [],
  "trivia": [],
  "trailers": [],
  "seasons": [],
  "voiceActing": [
    "Рус. Люб. многоголосый"
  ],
  "subtitle": [],
  "parts": []
}
