{
  "id": 21387,
  "name": "Ганновер-стрит",
  "name_eng": "Hanover Street",
  "year": 1979,
  "slogan": "«Love hasn't been like this since 1943»",
  "age": "12+",
  "type": "film",
  "quality": "FHD (1080p)",
  "imdb": "6.0",
  "imdb_id": "0079268",
  "kinopoisk": "6.6",
  "kinopoisk_id": "8679",
  "world_art": null,
  "world_art_id": null,
  "time": "109 мин. / 01:49",
  "ads": true,
  "premier": "1979-05-18",
  "premier_rus": "1979-05-19",
  "availability": "1979-05-20",
  "activate_time": "2020-06-02 14:38:00",
  "budget": null,
  "fees_use": "$3 000 000",
  "fees_world": null,
  "fees_rus": null,
  "rate_mpaa": "PG",
  "description": "Отважный пилот Дэйвид Эллоран встречает прекрасную незнакомку, и в пекле страшной войны разгорается страсть влюбленных. Она замужем, но настоящее чувство не разбирает условностей. Однажды Дэйвид получает рискованное задание – доставить за линию фронта британского разведчика с суперсекретной и опасной миссией.Но его самолет сбивают, и двое оказываются на краю гибели. Положение осложняется тем, что Дэйвид вскоре понимает, кто находится рядом с ним - человек, с которым ему предстояло бороться за жизнь, оказывается мужем его возлюбленной…",
  "iframe_url": "",
  "iframe_poster": null,
  "poster": "https://img.imgilall.me/movies/franchise/2/1/3/8/7/0/0/0/0/0/610x900_21387.jpg",
  "country": {
    "2": "Великобритания"
  },
  "collection": {
    "69": "Про войну 1941-1945",
    "38": "Про любовь"
  },
  "genre": {
    "9": "Приключения",
    "32": "Военный",
    "17": "Боевик",
    "8": "Мелодрама",
    "7": "Драма"
  },
  "director": [
    "Питер Хайамс"
  ],
  "screenwriter": [
    "Питер Хайамс"
  ],
  "producer": [
    "Пол Лазарус III",
    "Гарри Бенн",
    "Майкл И. Рахмил"
  ],
  "operator": [
    "Дэвид Уоткин"
  ],
  "composer": [
    "Джон Бэрри"
  ],
  "design": [
    "Филип Харрисон",
    "Роберт Картрайт",
    "Малкольм Миддлтон"
  ],
  "editor": [
    "Джеймс Митчелл"
  ],
  "actors": [
    "Харрисон Форд",
    "Лесли-Энн Даун",
    "Кристофер Пламмер",
    "Алек МакКоуэн",
    "Ричард Мейсер",
    "Майкл Сакс",
    "Пэтси Кензит",
    "Макс Уолл",
    "Шэйн Риммер",
    "Кит Бакли"
  ],
  "actors_dubl": [],
  "trivia": [],
  "trailers": [],
  "seasons": [],
  "voiceActing": [
    "Рус. Проф. многоголосый",
    "Eng.Original"
  ],
  "subtitle": [
    "Eng. full"
  ],
  "parts": []
}
