{
  "id": 48393,
  "name": "Личная жизнь Этана Грина",
  "name_eng": "The Mostly Unfabulous Social Life of Ethan Green",
  "year": 2005,
  "slogan": "«You think you have dating problems...»",
  "age": "18+",
  "type": "film",
  "quality": "HD (720p)",
  "imdb": "6.2",
  "imdb_id": "0424287",
  "kinopoisk": "5.7",
  "kinopoisk_id": "86430",
  "world_art": null,
  "world_art_id": null,
  "time": "88 мин. / 01:28",
  "ads": false,
  "premier": "2005-04-29",
  "premier_rus": "2005-04-30",
  "availability": "2005-05-01",
  "activate_time": "2021-07-05 15:16:00",
  "budget": null,
  "fees_use": "$153 122",
  "fees_world": null,
  "fees_rus": null,
  "rate_mpaa": "R",
  "description": "У Этана Грина все очень плохо - любимый парень его бросил, достали соседи, тут в «друзья» начинает набиваться странный тип, а тот, кто так нравится Этану, его совсем не замечает. Но вот однажды все круто меняется.",
  "iframe_url": "",
  "iframe_poster": null,
  "poster": "https://img.imgilall.me/movies/franchise/4/8/3/9/3/0/0/0/0/0/610x900_48393.jpg",
  "country": {
    "1": "США"
  },
  "collection": [],
  "genre": {
    "19": "Комедия",
    "8": "Мелодрама"
  },
  "director": [
    "Джордж Бамбер"
  ],
  "screenwriter": [
    "Дэвид Вернон",
    "Эрик Орнер"
  ],
  "producer": [
    "Стив Бруксбэнк",
    "Тодд Й. Мурата",
    "Тод Абрамс"
  ],
  "operator": [
    "Джон Илер"
  ],
  "composer": [
    "Рой Файастоун"
  ],
  "design": [
    "Ричард Мехер",
    "Лаура Харпер",
    "Питер А. Ловелло"
  ],
  "editor": [
    "Пол Койн",
    "Мэтт Дитрих"
  ],
  "actors": [
    "Дэниэл Леттерле",
    "Диего Серрано",
    "Шанола Хэмптон",
    "Дэвид Монахэн",
    "Ричард Рили",
    "Джоэл Брукс",
    "Скотт Эткинсон",
    "Дин Шелтон",
    "Мередит Бакстер",
    "Рамон Де Окампо"
  ],
  "actors_dubl": [],
  "trivia": [],
  "trailers": [],
  "seasons": [],
  "voiceActing": [
    "Рус. Люб. одноголосый"
  ],
  "subtitle": [],
  "parts": []
}
