{
  "id": 21286,
  "name": "Во сколько она вернется?",
  "name_eng": "Que Horas Ela Volta?",
  "year": 2015,
  "slogan": "—",
  "age": null,
  "type": "film",
  "quality": "HD (720p)",
  "imdb": "7.8",
  "imdb_id": "3742378",
  "kinopoisk": "6.7",
  "kinopoisk_id": "863919",
  "world_art": null,
  "world_art_id": null,
  "time": "112 мин. / 01:52",
  "ads": false,
  "premier": "2015-01-25",
  "premier_rus": "2015-01-26",
  "availability": "2015-01-27",
  "activate_time": "2020-06-09 16:03:00",
  "budget": "R$ 4 000 000",
  "fees_use": "$376 986",
  "fees_world": null,
  "fees_rus": null,
  "rate_mpaa": "R",
  "description": "Домработнице Вал, которая, проработав многие годы в Сан-Паулу вдали от своей дочери Жессики, оставленной в штате Пернамбуку, наконец, имеет стабильную работу, но её мучает совесть из-за расставания с семьей. В то же время она фактически стала второй матерью сыну своих работодателей, которого помогала растить как няня.",
  "iframe_url": "",
  "iframe_poster": null,
  "poster": "https://img.imgilall.me/movies/franchise/2/1/2/8/6/0/0/0/0/0/610x900_21286.jpg",
  "country": {
    "30": "Бразилия"
  },
  "collection": [],
  "genre": {
    "19": "Комедия",
    "7": "Драма"
  },
  "director": [
    "Анна Майлаерт"
  ],
  "screenwriter": [
    "Анна Майлаерт"
  ],
  "producer": [
    "Фабиану Жуллане",
    "Дебора Иванов",
    "Габриель Ласерда"
  ],
  "operator": [
    "Барбара Альварес"
  ],
  "composer": [
    "Витор Араухо",
    "Fábio Trummer"
  ],
  "design": [
    "Талес Жункейра",
    "Маркус Педросу",
    "Клаудия Копке"
  ],
  "editor": [
    "Карен Харли"
  ],
  "actors": [
    "Режина Казе",
    "Мишель Жуэлсаш",
    "Камила Мардила",
    "Карин Телес",
    "Лоуренко Мутарелли",
    "Helena Albergaria",
    "Bete Dorgam",
    "Луис Миранда",
    "Theo Werneck",
    "Люси Перейра"
  ],
  "actors_dubl": [],
  "trivia": [],
  "trailers": [],
  "seasons": [],
  "voiceActing": [
    "Рус. Люб. многоголосый"
  ],
  "subtitle": [],
  "parts": []
}
