{
  "id": 32270,
  "name": "Чумовые боты",
  "name_eng": "Kinky Boots",
  "year": 2005,
  "slogan": "«How Far Would You Go To Save The Family Business?»",
  "age": "16+",
  "type": "film",
  "quality": "HD (720p)",
  "imdb": "7.1",
  "imdb_id": "0",
  "kinopoisk": "7.1",
  "kinopoisk_id": "86881",
  "world_art": null,
  "world_art_id": null,
  "time": "107 мин. / 01:47",
  "ads": false,
  "premier": "2005-10-07",
  "premier_rus": "2005-10-08",
  "availability": "2005-10-09",
  "activate_time": "2020-07-14 05:16:00",
  "budget": null,
  "fees_use": "$1 822 428",
  "fees_world": "+ $7 073 000 = $8 895 428",
  "fees_rus": null,
  "rate_mpaa": "PG-13",
  "description": "Чарли Прайс всегда был записным неудачником - неудивительно, что именно ему суждено было довести до ручки существовавший десятилетиями семейный бизнес - обувную фабрику. Крах предприятия, не выдерживающего конкуренции с современными заводами, неминуем.Но именно в этот момент происходит чудо, которого бедняга уже и не ждал. Причем, чудо в перьях. Буквально! Оно появляется на пороге Чарли в образе звезды  кабаре Саймона, здоровенного чернокожего певца-трансвестита, обожающего вычурные наряды.Наглый как танк и обладающий весьма эксцентричным вкусом, Саймон (также известный под творческим псевдонимом Лола) и его коллеги нуждаются в большой партии диковинной сценической обуви вроде розовых сапог на огромных каблуках. И Чарли оказывается единственным, кто способен выполнить этот странный заказ...",
  "iframe_url": "",
  "iframe_poster": null,
  "poster": "https://img.imgilall.me/movies/franchise/3/2/2/7/0/0/0/0/0/0/610x900_32270.jpg",
  "country": {
    "1": "США",
    "2": "Великобритания"
  },
  "collection": [],
  "genre": {
    "19": "Комедия",
    "7": "Драма"
  },
  "director": [
    "Джулиан Джаррольд"
  ],
  "screenwriter": [
    "Джофф Дин",
    "Тим Фёрт"
  ],
  "producer": [
    "Питер Эттедги",
    "Сюзанн Маки",
    "Ник Бартон"
  ],
  "operator": [
    "Эйгил Брилд"
  ],
  "composer": [
    "Эдриан Джонстон"
  ],
  "design": [
    "Алан МакДональд",
    "Филип Элтон",
    "Сэмми Шелдон"
  ],
  "editor": [
    "Эмма Е. Хикокс"
  ],
  "actors": [
    "Джоэл Эдгертон",
    "Чиветель Эджиофор",
    "Сара-Джейн Поттс",
    "Джемайма Рупер",
    "Ник Фрост",
    "Линда Бэссет",
    "Роберт Пью",
    "Ивэн Хупер",
    "Стивен Маркус",
    "Мона Чин"
  ],
  "actors_dubl": [],
  "trivia": [
    "Все песни Лолы исполняет сам Чиветел Эджиофор."
  ],
  "trailers": [],
  "seasons": [],
  "voiceActing": [
    "Diva Universal"
  ],
  "subtitle": [],
  "parts": []
}
