{
  "id": 30768,
  "name": "Беги, толстяк, беги",
  "name_eng": "Run Fatboy Run",
  "year": 2007,
  "slogan": "«Love. Commitment. Responsibility. There's nothing he can't run away from»",
  "age": "16+",
  "type": "film",
  "quality": "HD (720p)",
  "imdb": "6.6",
  "imdb_id": "0",
  "kinopoisk": "6.8",
  "kinopoisk_id": "87941",
  "world_art": null,
  "world_art_id": null,
  "time": "100 мин. / 01:40",
  "ads": false,
  "premier": "2007-09-07",
  "premier_rus": "2007-09-08",
  "availability": "2007-09-09",
  "activate_time": "2020-07-12 09:55:00",
  "budget": "$10 000 000",
  "fees_use": "$6 003 262",
  "fees_world": "+ $27 460 260 = $33 463 522",
  "fees_rus": null,
  "rate_mpaa": "PG-13",
  "description": "Это Лондонский марафон, тысячи ног бегут по Набережной Темзы. Две из них принадлежат не очень спортивному неудачнику Деннису Дойлу. Он бежит для того, чтобы вновь завоевать уважение (а возможно и любовь) Либби. Это девушка, которую он бросил у алтаря беременной и с разбитым сердцем пять лет назад. А рядом с ним бежит новый друг Либби - красивый, успешный, уверенный в себе и в отличной форме. Сможет ли Дэннис вернуть то, что потерял? Одно известно наверняка - он готов отдать сердце и душу, чтобы получить еще один шанс.",
  "iframe_url": "",
  "iframe_poster": null,
  "poster": "https://img.imgilall.me/movies/franchise/3/0/7/6/8/0/0/0/0/0/610x900_30768.jpg",
  "country": {
    "1": "США",
    "2": "Великобритания"
  },
  "collection": [],
  "genre": {
    "23": "Спортивный",
    "19": "Комедия",
    "8": "Мелодрама"
  },
  "director": [
    "Дэвид Швиммер"
  ],
  "screenwriter": [
    "Майкл Йен Блэк",
    "Саймон Пегг"
  ],
  "producer": [
    "Сара Кертис",
    "Роберт Джонс",
    "Марта Коулмэн"
  ],
  "operator": [
    "Ричард Грейтрекс"
  ],
  "composer": [
    "Алекс Вурман"
  ],
  "design": [
    "Софи Бечер",
    "Джулия Кастл",
    "Энни Хардинж"
  ],
  "editor": [
    "Майкл Паркер"
  ],
  "actors": [
    "Саймон Пегг",
    "Тандиве Ньютон",
    "Хэнк Азария",
    "Дилан Моран",
    "Хариш Патель",
    "Индия де Бефорт",
    "Мэттью Фентон",
    "Саймон Дэй",
    "Рут Шин",
    "Тайрон Хаггинс"
  ],
  "actors_dubl": [],
  "trivia": [
    "В фильме можно заметить плакат фильма «Команда `Америка`: Мировая полиция».",
    "В саундтрек фильма входит одна из песен группы The Fratellis. Также одна из песен этой группы входит в саундтрек фильма «Типа крутые легавые» с участием того же Саймона Пегга."
  ],
  "trailers": [],
  "seasons": [],
  "voiceActing": [
    "Diva Universal"
  ],
  "subtitle": [],
  "parts": []
}
