{
  "id": 33772,
  "name": "Бабушка",
  "name_eng": "Grandma",
  "year": 2015,
  "slogan": "—",
  "age": "18+",
  "type": "film",
  "quality": "HD (720p)",
  "imdb": "6.7",
  "imdb_id": "0",
  "kinopoisk": "6.3",
  "kinopoisk_id": "879646",
  "world_art": null,
  "world_art_id": null,
  "time": "82 мин. / 01:22",
  "ads": false,
  "premier": "2015-01-30",
  "premier_rus": "2015-01-31",
  "availability": "2015-02-01",
  "activate_time": "2020-06-28 10:55:00",
  "budget": "$600 000",
  "fees_use": "$6 980 524",
  "fees_world": "+ $106 928 = $7 087 452",
  "fees_rus": null,
  "rate_mpaa": "R",
  "description": "Девушка-подросток сталкивается с незапланированной беременностью и отправляется за помощью к своей бабушке, которая давно отдалилась от своей дочери…",
  "iframe_url": "",
  "iframe_poster": null,
  "poster": "https://img.imgilall.me/movies/franchise/3/3/7/7/2/0/0/0/0/0/610x900_33772.jpg",
  "country": {
    "1": "США"
  },
  "collection": [],
  "genre": {
    "19": "Комедия",
    "7": "Драма"
  },
  "director": [
    "Пол Вайц"
  ],
  "screenwriter": [
    "Пол Вайц"
  ],
  "producer": [
    "Терри Дугас",
    "Пэрис Касидокостас Латсис",
    "Эндрю Миано"
  ],
  "operator": [
    "Тобиас Датум"
  ],
  "composer": [
    "Джоэль П. Уэст"
  ],
  "design": [
    "Синди Чао",
    "Мишель Ю",
    "Молли Грандмэн"
  ],
  "editor": [
    "Джон Корн"
  ],
  "actors": [
    "Лили Томлин",
    "Джуди Грир",
    "Джулия Гарнер",
    "Карлос Миранда",
    "Джон Чо",
    "Нат Вулф",
    "Лаверн Кокс",
    "Аарон Билию",
    "Элизабет Пенья",
    "Коллин Кэмп"
  ],
  "actors_dubl": [],
  "trivia": [],
  "trailers": [],
  "seasons": [],
  "voiceActing": [
    "Рус. Проф. многоголосый"
  ],
  "subtitle": [],
  "parts": []
}
