{
  "id": 3946,
  "name": "Ведьма любви",
  "name_eng": "The Love Witch",
  "year": 2016,
  "slogan": "«She Loved Men... To Death»",
  "age": "18+",
  "type": "film",
  "quality": "HD (720p)",
  "imdb": "6.2",
  "imdb_id": "3908142",
  "kinopoisk": "6.4",
  "kinopoisk_id": "874985",
  "world_art": null,
  "world_art_id": null,
  "time": "120 мин. / 02:00",
  "ads": false,
  "premier": "2016-01-31",
  "premier_rus": null,
  "availability": null,
  "activate_time": "2020-06-25 12:25:00",
  "budget": "$1 000 000",
  "fees_use": "$228 894",
  "fees_world": "+ $17 324 = $246 218",
  "fees_rus": null,
  "rate_mpaa": null,
  "description": "В некоем странном мире, стилизованном под Америку 60-х годов, молодая ведьма очень хочет любить и быть любимой. А для этого все средства хороши. Она выбирает самых отборных самцов и использует всё свои заговоры и женские штучки, чтобы приворожить очередного красавчика. Но вот беда - сильные снаружи, слабые внутри они не выдерживают чар хрупкой женщины и умирают.",
  "iframe_url": "",
  "iframe_poster": null,
  "poster": "https://img.imgilall.me/movies/franchise/3/9/4/6/0/0/0/0/0/0/610x900_3946.jpg",
  "country": {
    "1": "США"
  },
  "collection": [],
  "genre": {
    "39": "Арт-хаус",
    "26": "Ужасы",
    "19": "Комедия",
    "13": "Триллер",
    "10": "Зарубежный",
    "7": "Драма"
  },
  "director": [
    "Анна Биллер"
  ],
  "screenwriter": [
    "Анна Биллер"
  ],
  "producer": [
    "Анна Биллер",
    "Майк Кроуфорд",
    "Джаред Санфорд"
  ],
  "operator": [
    "М. Дэвид Маллен"
  ],
  "composer": [
    "Анна Биллер"
  ],
  "design": [
    "Анна Биллер"
  ],
  "editor": [
    "Анна Биллер"
  ],
  "actors": [
    "Саманта Робинсон",
    "Джан Кис",
    "Лаура Уоддэлл",
    "Джефф Парис",
    "Джаред Санфорд",
    "Роберт Сили",
    "Дженнифер Ингрум",
    "Рэнди Эванс",
    "Клайв Эшборн",
    "Лили Хоуллман"
  ],
  "actors_dubl": [],
  "trivia": [
    "Большую часть декораций и костюмов создала и сшила сама режиссёр фильма."
  ],
  "trailers": [],
  "seasons": [],
  "voiceActing": [
    "Рус. Люб. многоголосый"
  ],
  "subtitle": [],
  "parts": []
}
