{
  "id": 39345,
  "name": "Масиламани по прозвищу Масс",
  "name_eng": "Masss",
  "year": 2015,
  "slogan": "—",
  "age": null,
  "type": "film",
  "quality": "FHD (1080p)",
  "imdb": "6.0",
  "imdb_id": "4328798",
  "kinopoisk": null,
  "kinopoisk_id": "884188",
  "world_art": null,
  "world_art_id": null,
  "time": "151 мин. / 02:31",
  "ads": false,
  "premier": "2015-05-29",
  "premier_rus": "2015-05-30",
  "availability": "2015-05-31",
  "activate_time": "2020-10-14 18:11:00",
  "budget": "₹ 200",
  "fees_use": null,
  "fees_world": null,
  "fees_rus": null,
  "rate_mpaa": null,
  "description": "Сирота Масс и его закадычный друг Джет зарабатывают на жизнь жульничеством, которое однажды едва не отправляет их на тот свет. Попав в аварию, Масс обнаруживает у себя неожиданный дар. Находчивый парень придумывает ему практическое применение. Но вместе с даром приходит большая ответственность и новые проблемы. Как все уладить, не потерять любовь и остаться самим собой? Может, кому-то это и не по зубам, но Масс покажет класс.",
  "iframe_url": "",
  "iframe_poster": null,
  "poster": "https://img.imgilall.me/movies/franchise/3/9/3/4/5/0/0/0/0/0/610x900_39345.jpg",
  "country": {
    "26": "Индия"
  },
  "collection": [],
  "genre": {
    "26": "Ужасы",
    "19": "Комедия",
    "17": "Боевик"
  },
  "director": [
    "Венкат Прабху"
  ],
  "screenwriter": [
    "Д.С. Каннан",
    "Мадхан Карки",
    "Венкат Прабху"
  ],
  "producer": [
    "К.Е. Гнанавел",
    "Jithin Thorai"
  ],
  "operator": [
    "Р.Д. Раджасекхар"
  ],
  "composer": [
    "Юван Шанкар Раджа"
  ],
  "design": [
    "Радживан",
    "Висуки Бхаскар"
  ],
  "editor": [
    "Правин К.Л."
  ],
  "actors": [
    "Сурья Шивакумар",
    "Наянтара",
    "Партхибан",
    "Самудира Кани",
    "Пранитха",
    "Премги Амарен",
    "Карунас",
    "Сриман",
    "В. Джаяпракаш",
    "Раджендран"
  ],
  "actors_dubl": [],
  "trivia": [],
  "trailers": [],
  "seasons": [],
  "voiceActing": [
    "Victory-Films"
  ],
  "subtitle": [],
  "parts": []
}
