{
  "id": 2945,
  "name": "Последняя запись",
  "name_eng": "Son Mektup",
  "year": 2015,
  "slogan": null,
  "age": "12+",
  "type": "film",
  "quality": "HD (720p)",
  "imdb": "4.6",
  "imdb_id": "4342506",
  "kinopoisk": null,
  "kinopoisk_id": "882391",
  "world_art": null,
  "world_art_id": null,
  "time": "122 мин. / 02:02",
  "ads": true,
  "premier": "2015-03-18",
  "premier_rus": null,
  "availability": null,
  "activate_time": "2018-10-18 17:27:27",
  "budget": null,
  "fees_use": null,
  "fees_world": null,
  "fees_rus": null,
  "rate_mpaa": null,
  "description": "Первая мировая война. Англичане устроили штаб на острове Лемнос, куда перебрасывают свои силы для боев за Дарданеллы. Летчика Салиха направляют на аэродром в Чанаккале и дают задание собирать разведданные — фотографировать позиции англичан, военные суда и транспортные. Однажды в воздушном бою Салих получает серьезное ранение, но при этом помогает турецким санитарам спасти маленького мальчика по имени Фуат. Этот сирота становится связующим звеном между летчиком и медсестрой Нюхаль. Между ними начали завязываться отношения. Но, медсестра уезжает в Стамбул и их любовь остается в письмах. Англичане идут на штурм.",
  "iframe_url": "",
  "iframe_poster": "https://img.imgilall.me/movies/video/2/7/6/5/2/0/0/0/0/0/800x450_27652.jpeg",
  "poster": "https://img.imgilall.me/movies/franchise/2/9/4/5/0/0/0/0/0/0/610x900_2945.jpg",
  "country": {
    "36": "Турция"
  },
  "collection": [],
  "genre": {
    "32": "Военный",
    "28": "Исторический",
    "17": "Боевик",
    "10": "Зарубежный",
    "7": "Драма"
  },
  "director": [
    "Ожан Эрен"
  ],
  "screenwriter": [
    "Ожан Эрен"
  ],
  "producer": [
    "Ожан Эрен"
  ],
  "operator": [
    "Угур Ичбак"
  ],
  "composer": [],
  "design": [
    "Yavuz Fazlioglu",
    "Özgür Özcan",
    "Фадим Учбас"
  ],
  "editor": [
    "Али Устюндаг"
  ],
  "actors": [
    "Тансел Онгел",
    "Несрин Джавадзаде",
    "Хусейн Авни Даньял",
    "Бюлент Шакрак",
    "Barbara Sotelsek",
    "Ozan Gözel",
    "Nuri Gökasan",
    "Kerem Arslanoglu",
    "Bulut Akkale",
    "Энгин Бенли"
  ],
  "actors_dubl": [],
  "trivia": [],
  "trailers": [],
  "seasons": [],
  "voiceActing": [
    "Рус. Люб. многоголосый"
  ],
  "subtitle": [],
  "parts": []
}
