{
  "id": 23160,
  "name": "Кокон",
  "name_eng": "Cocoon",
  "year": 1985,
  "slogan": "«It is everything you've dreamed of. It is nothing you expect»",
  "age": "12+",
  "type": "film",
  "quality": "FHD (1080p)",
  "imdb": "6.7",
  "imdb_id": "0088933",
  "kinopoisk": "7.2",
  "kinopoisk_id": "8866",
  "world_art": null,
  "world_art_id": null,
  "time": "117 мин. / 01:57",
  "ads": false,
  "premier": "1985-06-21",
  "premier_rus": "1985-06-22",
  "availability": "1985-06-23",
  "activate_time": "2020-10-09 06:31:00",
  "budget": "$17 500 000",
  "fees_use": "$76 113 124",
  "fees_world": "+ $9 200 000 = $85 313 124",
  "fees_rus": null,
  "rate_mpaa": "PG-13",
  "description": "Обитатели дома престарелых обнаруживают, что если искупаться в близлежащем бассейне, начинаешь чувствовать себя совсем молодцом. Но вдруг выясняется, что на дне бассейна хранится чудодейственный кокон, поднятый из глубин океана и принадлежащий инопланетянам, когда-то навестившим Землю, а теперь вернувшимся.Старички резко возжелали омолодиться и пустились в увлекательную, но небезопасную авантюру, которая сопряжена с шумом и множеством нарушений.",
  "iframe_url": "",
  "iframe_poster": null,
  "poster": "https://img.imgilall.me/movies/franchise/2/3/1/6/0/0/0/0/0/0/610x900_23160.jpg",
  "country": {
    "1": "США"
  },
  "collection": {
    "114": "Лауреат премии \"Оскар\"",
    "5": "С наградами"
  },
  "genre": {
    "11": "Фантастика",
    "7": "Драма"
  },
  "director": [
    "Рон Ховард"
  ],
  "screenwriter": [
    "Том Бенедек",
    "Дэвид Сейперстин"
  ],
  "producer": [
    "Дэвид Браун",
    "Лили Фини Занук",
    "Ричард Д. Занук"
  ],
  "operator": [
    "Дональд Питермен"
  ],
  "composer": [
    "Джеймс Хорнер"
  ],
  "design": [
    "Джек Т. Коллис",
    "Эджи Джерард Роджерс",
    "Джим Даффи"
  ],
  "editor": [
    "Дэниэл П. Хэнли",
    "Майк Хилл"
  ],
  "actors": [
    "Дон Амичи",
    "Уилфорд Бримли",
    "Хьюм Кронин",
    "Брайан Деннехи",
    "Джек Гилфорд",
    "Стив Гуттенберг",
    "Морин Стейплтон",
    "Джессика Тэнди",
    "Гвен Вердон",
    "Херта Уэр"
  ],
  "actors_dubl": [
    "Сергей Паршин",
    "Александр Демьяненко",
    "Игорь Ефимов",
    "Александр Суснин",
    "Валерий Захарьев"
  ],
  "trivia": [
    "Первоначально режиссёром фильма должен был стать Роберт Земекис, но примерно после года работы над проектом он был заменён на Рона Ховарда. Впоследствии режиссёр объяснил своё увольнение тем, что он показал руководству киностудии рабочую версию своего другого проекта «Роман с камнем» (1984), который произвел на них крайне негативное впечатление и, по мнению многих из них, был обречён на провал.",
    "В эпизодических ролях в фильме появляются брат, отец и мать режиссёра Рона Ховарда.",
    "На момент съёмок фильма Уилфорду Бримли было всего лишь 50 лет. Чтобы он выглядел значительно старше своего возраста его волосы были покрашены в серый цвет.",
    "Хьюм Кронин и Джессика Тэнди, сыгравшие в фильме пожилых супругов Джозефа и Альму Финли, на самом деле были женаты на протяжении многих лет.",
    "Уже после выхода фильма команда постановщиков спецэффектов в одном из интервью призналась, что дельфины, показанные в подводных сценах, были не живые, а специально сконструированные для этого роботы."
  ],
  "trailers": [],
  "seasons": [],
  "voiceActing": [
    "Рус. Проф. многоголосый",
    "А. Гаврилов",
    "Рус. Дублированный",
    "Eng.Original"
  ],
  "subtitle": [
    "Рус. полные"
  ],
  "parts": []
}
