{
  "id": 4728,
  "name": "Атака титанов. Фильм второй: Конец света",
  "name_eng": "Shingeki no kyojin: Attack on Titan - End of the World",
  "year": 2015,
  "slogan": "«To rise above monsters, you must become one»",
  "age": "16+",
  "type": "film",
  "quality": "HD (720p)",
  "imdb": "4.8",
  "imdb_id": "4294052",
  "kinopoisk": "4.8",
  "kinopoisk_id": "888854",
  "world_art": null,
  "world_art_id": null,
  "time": "87 мин. / 01:27",
  "ads": false,
  "premier": "2015-09-19",
  "premier_rus": "2015-10-02",
  "availability": null,
  "activate_time": "2018-12-18 12:56:40",
  "budget": null,
  "fees_use": "$305 934",
  "fees_world": "$15 493 723",
  "fees_rus": "$45 371",
  "rate_mpaa": null,
  "description": "Сотни лет назад самым страшным кошмаром людей были титаны, появившиеся неизвестно откуда. Человечество было для исполинов всего лишь кормом. Когда люди возвели вокруг своих городов огромную защитную стену, жизнь изменилась — в ней появились спокойствие и беззаботность. Как оказалось, лишь на время.Страх и ужас вернулись, когда стена пала, и первобытные гиганты вновь ступили на территорию людей. В неравной борьбе от человечества практически ничего не осталось, а на защиту выживших встаёт парень по имени Эрен, жаждущий мести за смерть своих близких.",
  "iframe_url": "",
  "iframe_poster": "https://img.imgilall.me/movies/video/4/4/9/3/1/0/0/0/0/0/800x450_44931.jpeg",
  "poster": "https://img.imgilall.me/movies/franchise/4/7/2/8/0/0/0/0/0/0/610x900_4728.jpg",
  "country": {
    "18": "Япония"
  },
  "collection": {
    "95": "Про апокалипсис"
  },
  "genre": {
    "26": "Ужасы",
    "6": "Фэнтези",
    "17": "Боевик",
    "10": "Зарубежный",
    "7": "Драма"
  },
  "director": [
    "Синдзи Хигути"
  ],
  "screenwriter": [
    "Томохиро Матияма",
    "Юсукэ Ватанабэ",
    "Хадзимэ Исаяма"
  ],
  "producer": [
    "Юдзи Исида",
    "Гэнки Кавамура",
    "Ёсихиро Сато"
  ],
  "operator": [
    "Сёдзи Эхара"
  ],
  "composer": [
    "Сиро Сагису",
    "Сиро Васидзу"
  ],
  "design": [
    "Такэси Симидзу",
    "Синъити Мита"
  ],
  "editor": [
    "Юсукэ Исида"
  ],
  "actors": [
    "Харума Миура",
    "Хироки Хасэгава",
    "Кико Мидзухара",
    "Каната Хонго",
    "Такахиро Миура",
    "Нанами Сакураба",
    "Сатоми Исихара",
    "Пьер Таки",
    "Дзюн Кунимура",
    "Сатору Мацуо"
  ],
  "actors_dubl": [
    "Евгения Ваган"
  ],
  "trivia": [
    "Сюжет фильма основан на одноименной манге Хадзимэ Исаямы."
  ],
  "trailers": [],
  "seasons": [],
  "voiceActing": [
    "Рус. Дублированный"
  ],
  "subtitle": [],
  "parts": [
    4727,
    4728
  ]
}
