{
  "id": 19250,
  "name": "Вампирша",
  "name_eng": "Rise",
  "year": 2007,
  "slogan": "«Жертва. Вампир. Убийца»",
  "age": "18+",
  "type": "film",
  "quality": "SD",
  "imdb": "4.9",
  "imdb_id": "0389328",
  "kinopoisk": "4.8",
  "kinopoisk_id": "88150",
  "world_art": null,
  "world_art_id": null,
  "time": "97 мин. / 01:37",
  "ads": false,
  "premier": "2007-04-28",
  "premier_rus": "2007-08-16",
  "availability": "2007-08-17",
  "activate_time": "2020-05-19 15:27:00",
  "budget": null,
  "fees_use": "$114 306",
  "fees_world": "+ $2 731 229 = $2 845 535",
  "fees_rus": "$440 577",
  "rate_mpaa": "R",
  "description": "Молодая журналистка Сэди пытается выяснить, почему в их городе случаются странные и страшные кровавые убийства. Вампиры, которые являются прямыми участниками этих убийств, решают, что она слишком глубоко засунула свой нос в их дела. Поймав девушку, они кусают ее.Ночью Сэди просыпается в морге и обнаруживает на шее следы укусов. Понимая, что стала вампиршей, она клянется отомстить тем, кто превратил ее в кровопийцу, и пускается по следу упырей, пересекаясь с детективом Роулинсом, чья дочь была убита той же бандой.",
  "iframe_url": "",
  "iframe_poster": null,
  "poster": "https://img.imgilall.me/movies/franchise/1/9/2/5/0/0/0/0/0/0/610x900_19250.jpg",
  "country": {
    "1": "США"
  },
  "collection": [],
  "genre": {
    "26": "Ужасы",
    "24": "Детектив",
    "17": "Боевик",
    "13": "Триллер"
  },
  "director": [
    "Себастьян Гутьеррес"
  ],
  "screenwriter": [
    "Себастьян Гутьеррес"
  ],
  "producer": [
    "Грег Шапиро",
    "Обри Хендерсон",
    "Натан Каан"
  ],
  "operator": [
    "Джон Толл"
  ],
  "composer": [
    "Нэтан Барр"
  ],
  "design": [
    "Джерри Флеминг",
    "Остин Горг",
    "Дениз Уингейт"
  ],
  "editor": [
    "Лиза Бромвелл",
    "Робб Салливан"
  ],
  "actors": [
    "Люси Лью",
    "Майкл Чиклис",
    "Джеймс Д’Арси",
    "Карла Гуджино",
    "Марго Харшман",
    "Холт Маккэллани",
    "Мако",
    "Самира Армстронг",
    "Роберт Форстер",
    "Хулио Оскар Мечосо"
  ],
  "actors_dubl": [
    "Ольга Зверева",
    "Владимир Герасимов",
    "Илья Бледный",
    "Ольга Зубкова",
    "Жанна Никонова"
  ],
  "trivia": [],
  "trailers": [],
  "seasons": [],
  "voiceActing": [
    "Рус. Дублированный"
  ],
  "subtitle": [],
  "parts": []
}
