{
  "id": 25194,
  "name": "Скалистый берег",
  "name_eng": "Acantilado",
  "year": 2016,
  "slogan": "«Debes escuchar el silencio »",
  "age": null,
  "type": "film",
  "quality": "FHD (1080p)",
  "imdb": "5.2",
  "imdb_id": "4176928",
  "kinopoisk": "5.1",
  "kinopoisk_id": "890452",
  "world_art": null,
  "world_art_id": null,
  "time": "99 мин. / 01:39",
  "ads": true,
  "premier": "2016-04-25",
  "premier_rus": "2016-04-26",
  "availability": "2016-04-27",
  "activate_time": "2020-06-24 06:05:00",
  "budget": "€2 500 000",
  "fees_use": null,
  "fees_world": null,
  "fees_rus": null,
  "rate_mpaa": null,
  "description": "Габриэль получает неожиданный звонок с известием о массовом самоубийстве секты на Канарских островах. Его младшая сестра, с которой он много лет не общался, была одним из адептом и, вероятнее всего, погибла вместе со всеми. Как единственный родственник, Габриэль отправляется на Канарские острова, чтобы выяснить что же произошло с его сестрой. Эта поездка заставит его переосмыслить своё прошлое и будущее...",
  "iframe_url": "",
  "iframe_poster": null,
  "poster": "https://img.imgilall.me/movies/franchise/2/5/1/9/4/0/0/0/0/0/610x900_25194.jpg",
  "country": {
    "3": "Испания"
  },
  "collection": {
    "29": "Психологические"
  },
  "genre": {
    "13": "Триллер",
    "8": "Мелодрама"
  },
  "director": [
    "Элена Таберна"
  ],
  "screenwriter": [
    "Элена Таберна",
    "Андрес Мартурель",
    "Натксо Лопес"
  ],
  "producer": [
    "Икер Гануса"
  ],
  "operator": [
    "Хавьер Агирре"
  ],
  "composer": [
    "Анхель Ильярраменди"
  ],
  "design": [
    "Хавьер Альвариньо",
    "Карлос Диас"
  ],
  "editor": [
    "Тереса Фонт"
  ],
  "actors": [
    "Даниэль Грао",
    "Хуана Акоста",
    "Гойя Толедо",
    "Ингрид Гарсия Йонсон",
    "Ана Грасия",
    "Хосеан Бенгоэчеа",
    "Джон Кортахарена",
    "Майкен Беитиа",
    "Чиро Миро",
    "Шавьер Элоррьяга"
  ],
  "actors_dubl": [],
  "trivia": [],
  "trailers": [],
  "seasons": [],
  "voiceActing": [
    "GreenРай Studio"
  ],
  "subtitle": [],
  "parts": []
}
