{
  "id": 24496,
  "name": "Образцовый самец",
  "name_eng": "Zoolander",
  "year": 2001,
  "slogan": "«3% Body Fat. 1% Brain Activity»",
  "age": "18+",
  "type": "film",
  "quality": "FHD (1080p)",
  "imdb": "6.5",
  "imdb_id": "0196229",
  "kinopoisk": "6.0",
  "kinopoisk_id": "890",
  "world_art": null,
  "world_art_id": null,
  "time": "90 мин. / 01:30",
  "ads": true,
  "premier": "2001-09-28",
  "premier_rus": "2002-01-10",
  "availability": "2002-01-11",
  "activate_time": "2020-06-18 16:56:00",
  "budget": "$28 000 000",
  "fees_use": "$45 172 250",
  "fees_world": "+ $15 608 731 = $60 780 981",
  "fees_rus": null,
  "rate_mpaa": "R",
  "description": "Дерек Зуландер - мужчина-модель №1 в мире. Точнее, он был лучшим в течение последних лет. На церемонии вручения премии мужчинам-моделям в этом году приз у него отобрал главный конкурент Хэнсел.Еще через несколько дней по нелепому стечению обстоятельств при взрыве бензоколонки погибают три лучших друга Дерека. После этого ему приходит в голову ужасная для мужчины-модели мысль: а что если смысл жизни заключается в чем-то еще, кроме как во внешности?Затем ведущий модельер приглашает Дерека стать новым лицом его марки. Наивный Зуландер не предполагает, что его ждет западня...",
  "iframe_url": "",
  "iframe_poster": null,
  "poster": "https://img.imgilall.me/movies/franchise/2/4/4/9/6/0/0/0/0/0/610x900_24496.jpg",
  "country": {
    "1": "США",
    "20": "Германия"
  },
  "collection": {
    "14": "Для взрослых"
  },
  "genre": {
    "19": "Комедия"
  },
  "director": [
    "Бен Стиллер"
  ],
  "screenwriter": [
    "Дрэйк Сэтер",
    "Бен Стиллер",
    "Джон Гамбург"
  ],
  "producer": [
    "Стюарт Корнфелд",
    "Скотт Рудин",
    "Бен Стиллер"
  ],
  "operator": [
    "Бэрри Петерсон"
  ],
  "composer": [
    "Дэвид Арнольд"
  ],
  "design": [
    "Робин Стэндефер",
    "Стивен Алесч",
    "Дэвид С. Робинсон"
  ],
  "editor": [
    "Грег Хейден"
  ],
  "actors": [
    "Бен Стиллер",
    "Оуэн Уилсон",
    "Кристин Тейлор",
    "Уилл Феррелл",
    "Милла Йовович",
    "Джерри Стиллер",
    "Дэвид Духовны",
    "Джон Войт",
    "Джуда Фридландер",
    "Нэйтан Ли Грэхэм"
  ],
  "actors_dubl": [
    "Владимир Вихров",
    "Анатолий Белый",
    "Мария Овчинникова",
    "Алексей Колган",
    "Владимир Зайцев"
  ],
  "trivia": [
    "Несмотря на то, что «Зулендер» — это, в частности, пародия на мир моды, среди костюмов в фильме — реальные модели от известных модельеров.",
    "Эпизод со вручением премии VH1 снимался на церемонии вручения премии VH1. Стиллер уговорил устроителей шоу предоставить ему сцену для съемки вручения премии Оуэну-Ханселу в момент перерыва на рекламную паузу.",
    "Волосы на голове Мугату — самые что ни на есть настоящие, а не парик. Ферреллу пришлось целый сезон в телешоу скрывать под париками свой потрясающий платиновый цвет волос.",
    "Папа Стиллера, Джерри Стиллер, сказал, что Бен его на съемках совершенно замучил, потому что относился к отцу как к обычному актеру, а вовсе не как к своему родителю. Впрочем, одновременно Джерри, который в прошлом был очень известным комическим актером, гордится таким профессиональным подходом к делу своего сына.",
    "Образ главного героя — Дерека Зуландера — был придуман Беном Стиллером и Дрэйком Сэтером задолго до выхода фильма на экраны. Впервые зритель мог наблюдать его в телевизионном шоу «Субботним вечером в прямом эфире» (1975).",
    "В сцене беседы героев Бена Стиллера и Дэвида Духовны, последний говорит о том, что индустрия моды стоит за всеми громкими политическими убийствами последних ста лет. На что Зуландер спрашивает: «Почему мужчины-модели?» Герой Духовны дает пространное объяснение. После чего Зуландер повторяет свой вопрос: «Почему мужчины-модели?» Дело в том, что Бен Стиллер забыл свою следующую реплику и просто повторил предыдущую. Девиду Духовны пришлось импровизировать и он сказал: «Ты шутишь? Я только что объяснил тебе это»."
  ],
  "trailers": [],
  "seasons": [],
  "voiceActing": [
    "Рус. Проф. многоголосый",
    "Рус. Люб. многоголосый",
    "НТВ",
    "Ю. Живов",
    "Укр. Проф. багатоголосий",
    "Eng.Original"
  ],
  "subtitle": [
    "Рус. полные"
  ],
  "parts": [
    24496,
    24500
  ]
}
