{
  "id": 6392,
  "name": "Под прикрытием",
  "name_eng": "Gangland Undercover",
  "year": 2015,
  "slogan": null,
  "age": "16+",
  "type": "series",
  "quality": "HD (720p)",
  "imdb": "8.2",
  "imdb_id": "4341996",
  "kinopoisk": "7.6",
  "kinopoisk_id": "893828",
  "world_art": null,
  "world_art_id": null,
  "time": "42 мин.",
  "ads": false,
  "premier": "2015-02-24",
  "premier_rus": null,
  "availability": null,
  "serial_status": "offline",
  "activate_time": "2019-02-28 17:22:57",
  "budget": null,
  "fees_use": null,
  "fees_world": null,
  "fees_rus": null,
  "rate_mpaa": null,
  "description": "Биографическая криминальная драма рассказывает правдивую историю о человеке, который живет двойной жизнью на протяжении трех лет. Чарльз Фалько дилер, ему грозит двадцать лет тюрьмы по обвинению в торговле наркотиками. Но, чтобы избежать этого, Чарльз заключает сделку — он становится агентом ATF. Его миссия очень опасна. Фалько должен проникнуть в одну из самых жестоких банд Америки. Члены этой преступной группировки занимаются торговлей оружием и наркотиками, убийствами и отмыванием денег. Опаснейшая полицейская операция успешно завершилась в марте 2006 года.",
  "iframe_url": "",
  "poster": "https://img.imgilall.me/movies/franchise/6/3/9/2/0/0/0/0/0/0/610x900_6392.jpg",
  "country": {
    "7": "Канада",
    "1": "США"
  },
  "collection": [],
  "genre": {
    "25": "Криминал",
    "28": "Исторический",
    "27": "Биографический",
    "10": "Зарубежный",
    "7": "Драма"
  },
  "director": [
    "Стивен Кемп",
    "Rawles Neil",
    "Карл Хиндмарч"
  ],
  "screenwriter": [
    "Ноэль Бэйкер",
    "Kerrie Droban",
    "Charles Falco"
  ],
  "producer": [
    "Ким Бонди",
    "Илэйн Фронтейн Брайант",
    "Спенсер Медоф"
  ],
  "operator": [
    "Гари Кларк"
  ],
  "composer": [
    "Расс Маккэй",
    "Пол Питре",
    "Аллан Пинн"
  ],
  "design": [
    "Эндрю Берри",
    "Аарон Ноэль",
    "Dareck Gorecki"
  ],
  "editor": [
    "Дафф Смит",
    "Mark Holtze",
    "Роб Чандлер"
  ],
  "actors": [
    "Дэймон Рунян",
    "Йен Мэтьюз",
    "Эри Коэн",
    "Стефен МакИнтайр",
    "Ханна Эмили Андерсон",
    "Кристиан Бако",
    "Шон Бенсон",
    "Джоэнн Боланд",
    "Джастин Мэдер",
    "Don Masters"
  ],
  "actors_dubl": [],
  "trivia": [],
  "trailers": [],
  "seasons": [
    {
      "poster": "https://img.imgilall.me/movies/season/4/2/4/3/0/0/0/0/0/0/610x900_4243.jpg",
      "release_ru": "2015-02-25",
      "release_world": "2015-02-24",
      "availability": "2015-02-26",
      "iframe_url": "",
      "season": 1,
      "episodes": [
        {
          "episode": 1,
          "name": "Going Under",
          "iframe_url": "",
          "iframe_poster": "https://img.imgilall.me/movies/video/6/6/9/7/2/0/0/0/0/0/800x450_66972.jpeg",
          "release_ru": "2015-02-25",
          "release_world": "2015-02-24",
          "availability": "2015-02-26",
          "voiceActing": [
            "NewStudio",
            "Eng.Original"
          ],
          "ads": false,
          "subtitle": []
        },
        {
          "episode": 2,
          "name": "A Tough Prospect",
          "iframe_url": "",
          "iframe_poster": "https://img.imgilall.me/movies/video/6/6/9/7/4/0/0/0/0/0/800x450_66974.jpeg",
          "release_ru": "2015-03-04",
          "release_world": "2015-03-03",
          "availability": "2015-03-05",
          "voiceActing": [
            "NewStudio",
            "Eng.Original"
          ],
          "ads": false,
          "subtitle": []
        },
        {
          "episode": 3,
          "name": "Patched In",
          "iframe_url": "",
          "iframe_poster": "https://img.imgilall.me/movies/video/6/6/9/7/1/0/0/0/0/0/800x450_66971.jpeg",
          "release_ru": "2015-03-11",
          "release_world": "2015-03-10",
          "availability": "2015-03-12",
          "voiceActing": [
            "NewStudio",
            "Eng.Original"
          ],
          "ads": false,
          "subtitle": []
        },
        {
          "episode": 4,
          "name": "Dangerous Game",
          "iframe_url": "",
          "iframe_poster": "https://img.imgilall.me/movies/video/6/6/9/7/5/0/0/0/0/0/800x450_66975.jpeg",
          "release_ru": "2015-03-18",
          "release_world": "2015-03-17",
          "availability": "2015-03-19",
          "voiceActing": [
            "NewStudio",
            "Eng.Original"
          ],
          "ads": false,
          "subtitle": []
        },
        {
          "episode": 5,
          "name": "Solitary",
          "iframe_url": "",
          "iframe_poster": "https://img.imgilall.me/movies/video/6/6/9/7/3/0/0/0/0/0/800x450_66973.jpeg",
          "release_ru": "2015-03-25",
          "release_world": "2015-03-24",
          "availability": "2015-03-26",
          "voiceActing": [
            "NewStudio",
            "Eng.Original"
          ],
          "ads": false,
          "subtitle": []
        },
        {
          "episode": 6,
          "name": "Endgame",
          "iframe_url": "",
          "iframe_poster": "https://img.imgilall.me/movies/video/6/6/9/7/6/0/0/0/0/0/800x450_66976.jpeg",
          "release_ru": "2015-04-01",
          "release_world": "2015-03-31",
          "availability": "2015-04-02",
          "voiceActing": [
            "NewStudio",
            "Eng.Original"
          ],
          "ads": false,
          "subtitle": []
        }
      ]
    },
    {
      "poster": "https://img.imgilall.me/movies/season/4/2/4/4/0/0/0/0/0/0/610x900_4244.jpg",
      "release_ru": "2016-09-27",
      "release_world": "2016-09-26",
      "availability": "2016-09-28",
      "iframe_url": "",
      "season": 2,
      "episodes": [
        {
          "episode": 1,
          "name": "Nowhere Man",
          "iframe_url": "",
          "iframe_poster": "https://img.imgilall.me/movies/video/6/6/9/7/8/0/0/0/0/0/800x450_66978.jpeg",
          "release_ru": "2016-09-27",
          "release_world": "2016-09-26",
          "availability": "2016-09-28",
          "voiceActing": [
            "NewStudio",
            "Eng.Original"
          ],
          "ads": false,
          "subtitle": []
        },
        {
          "episode": 2,
          "name": "The Devil You Know",
          "iframe_url": "",
          "iframe_poster": "https://img.imgilall.me/movies/video/6/6/9/7/9/0/0/0/0/0/800x450_66979.jpeg",
          "release_ru": "2016-10-04",
          "release_world": "2016-10-03",
          "availability": "2016-10-05",
          "voiceActing": [
            "NewStudio",
            "Eng.Original"
          ],
          "ads": false,
          "subtitle": []
        },
        {
          "episode": 3,
          "name": "Mongol Nation",
          "iframe_url": "",
          "iframe_poster": "https://img.imgilall.me/movies/video/6/6/9/8/0/0/0/0/0/0/800x450_66980.jpeg",
          "release_ru": "2016-10-11",
          "release_world": "2016-10-10",
          "availability": "2016-10-12",
          "voiceActing": [
            "NewStudio",
            "Eng.Original"
          ],
          "ads": false,
          "subtitle": []
        },
        {
          "episode": 4,
          "name": "Black Rain",
          "iframe_url": "",
          "iframe_poster": "https://img.imgilall.me/movies/video/6/6/9/8/1/0/0/0/0/0/800x450_66981.jpeg",
          "release_ru": "2016-10-18",
          "release_world": "2016-10-17",
          "availability": "2016-10-19",
          "voiceActing": [
            "NewStudio",
            "Eng.Original"
          ],
          "ads": false,
          "subtitle": []
        },
        {
          "episode": 5,
          "name": "Club Adios",
          "iframe_url": "",
          "iframe_poster": "https://img.imgilall.me/movies/video/6/6/9/8/2/0/0/0/0/0/800x450_66982.jpeg",
          "release_ru": "2016-10-25",
          "release_world": "2016-10-24",
          "availability": "2016-10-26",
          "voiceActing": [
            "NewStudio",
            "Eng.Original"
          ],
          "ads": false,
          "subtitle": []
        },
        {
          "episode": 6,
          "name": "Inlaws and Outlaws",
          "iframe_url": "",
          "iframe_poster": "https://img.imgilall.me/movies/video/6/6/9/8/3/0/0/0/0/0/800x450_66983.jpeg",
          "release_ru": "2016-11-01",
          "release_world": "2016-10-31",
          "availability": "2016-11-02",
          "voiceActing": [
            "NewStudio",
            "Eng.Original"
          ],
          "ads": false,
          "subtitle": []
        },
        {
          "episode": 7,
          "name": "End of the Road",
          "iframe_url": "",
          "iframe_poster": "https://img.imgilall.me/movies/video/6/6/9/8/4/0/0/0/0/0/800x450_66984.jpeg",
          "release_ru": "2016-11-08",
          "release_world": "2016-11-07",
          "availability": "2016-11-09",
          "voiceActing": [
            "NewStudio",
            "Eng.Original"
          ],
          "ads": false,
          "subtitle": []
        },
        {
          "episode": 8,
          "name": "The Devils Patch",
          "iframe_url": "",
          "iframe_poster": "https://img.imgilall.me/movies/video/6/6/9/8/5/0/0/0/0/0/800x450_66985.jpeg",
          "release_ru": "2016-11-15",
          "release_world": "2016-11-14",
          "availability": "2016-11-16",
          "voiceActing": [
            "NewStudio",
            "Eng.Original"
          ],
          "ads": false,
          "subtitle": []
        }
      ]
    }
  ],
  "voiceActing": [
    "NewStudio",
    "Eng.Original"
  ],
  "subtitle": [],
  "parts": []
}
