{
  "id": 4905,
  "name": "Мыслить как преступник: За границей",
  "name_eng": "Criminal Minds: Beyond Borders",
  "year": 2016,
  "slogan": null,
  "age": "16+",
  "type": "series",
  "quality": "HD (720p)",
  "imdb": "6.1",
  "imdb_id": "4364202",
  "kinopoisk": "6.2",
  "kinopoisk_id": "891437",
  "world_art": null,
  "world_art_id": null,
  "time": "43 мин.",
  "ads": true,
  "premier": "2016-03-16",
  "premier_rus": null,
  "availability": null,
  "serial_status": "offline",
  "activate_time": "2018-12-21 11:20:33",
  "budget": null,
  "fees_use": null,
  "fees_world": null,
  "fees_rus": null,
  "rate_mpaa": null,
  "description": "Сериал рассказывает об элитной команде из ФБР, занимающейся расследованием преступлений за пределами США, в которые вовлечены американские граждане.",
  "iframe_url": "",
  "poster": "https://img.imgilall.me/movies/franchise/4/9/0/5/0/0/0/0/0/0/610x900_4905.jpg",
  "country": {
    "1": "США"
  },
  "collection": {
    "19": "Про ограбления, аферы и мошенников"
  },
  "genre": {
    "25": "Криминал",
    "24": "Детектив",
    "10": "Зарубежный",
    "7": "Драма"
  },
  "director": [
    "Лаура Белси",
    "Род Холкомб",
    "Константин Макрис"
  ],
  "screenwriter": [
    "Эрика Мессер",
    "Erica Meredith",
    "Адам Гласс"
  ],
  "producer": [
    "Кристофер Барбо",
    "Жижи Коэлло-Бэннон",
    "Марк Гордон"
  ],
  "operator": [
    "Ясу Танида",
    "Родни Чартерс"
  ],
  "composer": [
    "Стеффан Фантини",
    "Марк Фантини",
    "Скотт Гордон"
  ],
  "design": [
    "Стюарт Блатт",
    "Марк Зюльзке",
    "Марика Стефенс"
  ],
  "editor": [
    "Мики Блайт",
    "Нил Фелдер",
    "Андреа Фолпрехт"
  ],
  "actors": [
    "Гэри Синиз",
    "Алана де ла Гарса",
    "Дэниэл Хенни",
    "Тайлер Джеймс Уильямс",
    "Энни Функе",
    "Келли Фрай",
    "Шерри Стрингфилд",
    "Эзра Дьюи",
    "Деклан Уэли",
    "Мэтт Коэн"
  ],
  "actors_dubl": [],
  "trivia": [],
  "trailers": [],
  "seasons": [
    {
      "poster": "https://img.imgilall.me/movies/season/2/8/7/5/0/0/0/0/0/0/610x900_2875.jpg",
      "release_ru": "2016-03-17",
      "release_world": "2016-03-16",
      "availability": "2016-03-18",
      "iframe_url": "",
      "season": 1,
      "episodes": [
        {
          "episode": 1,
          "name": "The Harmful One",
          "iframe_url": "",
          "iframe_poster": "https://img.imgilall.me/movies/video/4/6/3/8/0/0/0/0/0/0/800x450_46380.jpeg",
          "release_ru": "2016-03-17",
          "release_world": "2016-03-16",
          "availability": "2016-03-18",
          "voiceActing": [
            "Fox",
            "Eng.Original"
          ],
          "ads": false,
          "subtitle": []
        },
        {
          "episode": 2,
          "name": "Harvested",
          "iframe_url": "",
          "iframe_poster": "https://img.imgilall.me/movies/video/4/6/3/8/1/0/0/0/0/0/800x450_46381.jpeg",
          "release_ru": "2016-03-24",
          "release_world": "2016-03-23",
          "availability": "2016-03-25",
          "voiceActing": [
            "Fox",
            "Eng.Original"
          ],
          "ads": false,
          "subtitle": []
        },
        {
          "episode": 3,
          "name": "Denial",
          "iframe_url": "",
          "iframe_poster": "https://img.imgilall.me/movies/video/4/6/3/8/2/0/0/0/0/0/800x450_46382.jpeg",
          "release_ru": "2016-03-31",
          "release_world": "2016-03-30",
          "availability": "2016-04-01",
          "voiceActing": [
            "Fox",
            "Eng.Original"
          ],
          "ads": false,
          "subtitle": []
        },
        {
          "episode": 4,
          "name": "Whispering Death",
          "iframe_url": "",
          "iframe_poster": "https://img.imgilall.me/movies/video/4/6/3/8/3/0/0/0/0/0/800x450_46383.jpeg",
          "release_ru": "2016-04-07",
          "release_world": "2016-04-06",
          "availability": "2016-04-08",
          "voiceActing": [
            "Fox",
            "Eng.Original"
          ],
          "ads": false,
          "subtitle": []
        },
        {
          "episode": 5,
          "name": "The Lonely Heart",
          "iframe_url": "",
          "iframe_poster": "https://img.imgilall.me/movies/video/4/6/3/8/4/0/0/0/0/0/800x450_46384.jpeg",
          "release_ru": "2016-04-07",
          "release_world": "2016-04-06",
          "availability": "2016-04-08",
          "voiceActing": [
            "Fox",
            "Eng.Original"
          ],
          "ads": false,
          "subtitle": []
        },
        {
          "episode": 6,
          "name": "Love Interrupted",
          "iframe_url": "",
          "iframe_poster": "https://img.imgilall.me/movies/video/4/6/3/8/5/0/0/0/0/0/800x450_46385.jpeg",
          "release_ru": "2016-04-14",
          "release_world": "2016-04-13",
          "availability": "2016-04-15",
          "voiceActing": [
            "Fox",
            "Eng.Original"
          ],
          "ads": false,
          "subtitle": []
        },
        {
          "episode": 7,
          "name": "Citizens of the World",
          "iframe_url": "",
          "iframe_poster": "https://img.imgilall.me/movies/video/4/6/3/8/6/0/0/0/0/0/800x450_46386.jpeg",
          "release_ru": "2016-04-21",
          "release_world": "2016-04-20",
          "availability": "2016-04-22",
          "voiceActing": [
            "Fox",
            "Eng.Original"
          ],
          "ads": false,
          "subtitle": []
        },
        {
          "episode": 8,
          "name": "De Los Inocentes",
          "iframe_url": "",
          "iframe_poster": "https://img.imgilall.me/movies/video/4/6/3/8/7/0/0/0/0/0/800x450_46387.jpeg",
          "release_ru": "2016-04-28",
          "release_world": "2016-04-27",
          "availability": "2016-04-29",
          "voiceActing": [
            "Fox",
            "Eng.Original"
          ],
          "ads": false,
          "subtitle": []
        },
        {
          "episode": 9,
          "name": "The Matchmaker",
          "iframe_url": "",
          "iframe_poster": "https://img.imgilall.me/movies/video/4/6/3/8/8/0/0/0/0/0/800x450_46388.jpeg",
          "release_ru": "2016-05-05",
          "release_world": "2016-05-04",
          "availability": "2016-05-06",
          "voiceActing": [
            "Fox",
            "Eng.Original"
          ],
          "ads": false,
          "subtitle": []
        },
        {
          "episode": 10,
          "name": "IQINISO",
          "iframe_url": "",
          "iframe_poster": "https://img.imgilall.me/movies/video/4/6/3/8/9/0/0/0/0/0/800x450_46389.jpeg",
          "release_ru": "2016-05-12",
          "release_world": "2016-05-11",
          "availability": "2016-05-13",
          "voiceActing": [
            "Fox",
            "Eng.Original"
          ],
          "ads": false,
          "subtitle": []
        },
        {
          "episode": 11,
          "name": "The Ballad of Nick & Nat",
          "iframe_url": "",
          "iframe_poster": "https://img.imgilall.me/movies/video/4/6/3/9/0/0/0/0/0/0/800x450_46390.jpeg",
          "release_ru": "2016-05-12",
          "release_world": "2016-05-11",
          "availability": "2016-05-13",
          "voiceActing": [
            "Fox",
            "Eng.Original"
          ],
          "ads": false,
          "subtitle": []
        },
        {
          "episode": 12,
          "name": "El Toro Bravo",
          "iframe_url": "",
          "iframe_poster": "https://img.imgilall.me/movies/video/4/6/3/9/1/0/0/0/0/0/800x450_46391.jpeg",
          "release_ru": "2016-05-26",
          "release_world": "2016-05-25",
          "availability": "2016-05-27",
          "voiceActing": [
            "Fox",
            "Eng.Original"
          ],
          "ads": false,
          "subtitle": []
        },
        {
          "episode": 13,
          "name": "Paper Orphans",
          "iframe_url": "",
          "iframe_poster": "https://img.imgilall.me/movies/video/4/6/3/9/2/0/0/0/0/0/800x450_46392.jpeg",
          "release_ru": "2016-05-26",
          "release_world": "2016-05-25",
          "availability": "2016-05-27",
          "voiceActing": [
            "Fox",
            "Eng.Original"
          ],
          "ads": false,
          "subtitle": []
        }
      ]
    },
    {
      "poster": "https://img.imgilall.me/movies/season/2/8/7/6/0/0/0/0/0/0/610x900_2876.jpg",
      "release_ru": "2017-03-09",
      "release_world": "2017-03-08",
      "availability": "2017-03-10",
      "iframe_url": "",
      "season": 2,
      "episodes": [
        {
          "episode": 1,
          "name": "Lost Souls",
          "iframe_url": "",
          "iframe_poster": "https://img.imgilall.me/movies/video/4/7/5/7/1/0/0/0/0/0/800x450_47571.jpeg",
          "release_ru": "2017-03-09",
          "release_world": "2017-03-08",
          "availability": "2017-03-10",
          "voiceActing": [
            "IdeaFilm",
            "Eng.Original"
          ],
          "ads": true,
          "subtitle": []
        },
        {
          "episode": 2,
          "name": "Il Mostro",
          "iframe_url": "",
          "iframe_poster": "https://img.imgilall.me/movies/video/4/7/5/7/2/0/0/0/0/0/800x450_47572.jpeg",
          "release_ru": "2017-03-16",
          "release_world": "2017-03-15",
          "availability": "2017-03-17",
          "voiceActing": [
            "IdeaFilm",
            "Eng.Original"
          ],
          "ads": true,
          "subtitle": []
        },
        {
          "episode": 3,
          "name": "The Devil's Breath",
          "iframe_url": "",
          "iframe_poster": "https://img.imgilall.me/movies/video/4/7/5/7/3/0/0/0/0/0/800x450_47573.jpeg",
          "release_ru": "2017-03-23",
          "release_world": "2017-03-22",
          "availability": "2017-03-24",
          "voiceActing": [
            "IdeaFilm",
            "Eng.Original"
          ],
          "ads": true,
          "subtitle": []
        },
        {
          "episode": 4,
          "name": "Pretty Like Me",
          "iframe_url": "",
          "iframe_poster": "https://img.imgilall.me/movies/video/4/7/5/7/4/0/0/0/0/0/800x450_47574.jpeg",
          "release_ru": "2017-03-30",
          "release_world": "2017-03-29",
          "availability": "2017-03-31",
          "voiceActing": [
            "IdeaFilm",
            "Eng.Original"
          ],
          "ads": true,
          "subtitle": []
        },
        {
          "episode": 5,
          "name": "Made In…",
          "iframe_url": "",
          "iframe_poster": "https://img.imgilall.me/movies/video/4/7/5/7/5/0/0/0/0/0/800x450_47575.jpeg",
          "release_ru": "2017-04-06",
          "release_world": "2017-04-05",
          "availability": "2017-04-07",
          "voiceActing": [
            "IdeaFilm",
            "Eng.Original"
          ],
          "ads": true,
          "subtitle": []
        },
        {
          "episode": 6,
          "name": "Cinderella and the Dragon",
          "iframe_url": "",
          "iframe_poster": "https://img.imgilall.me/movies/video/4/7/5/7/6/0/0/0/0/0/800x450_47576.jpeg",
          "release_ru": "2017-04-13",
          "release_world": "2017-04-12",
          "availability": "2017-04-14",
          "voiceActing": [
            "IdeaFilm",
            "Eng.Original"
          ],
          "ads": true,
          "subtitle": []
        },
        {
          "episode": 7,
          "name": "La Huesuda",
          "iframe_url": "",
          "iframe_poster": "https://img.imgilall.me/movies/video/4/7/5/7/7/0/0/0/0/0/800x450_47577.jpeg",
          "release_ru": "2017-04-13",
          "release_world": "2017-04-12",
          "availability": "2017-04-14",
          "voiceActing": [
            "IdeaFilm",
            "Eng.Original"
          ],
          "ads": true,
          "subtitle": []
        },
        {
          "episode": 8,
          "name": "Pankration",
          "iframe_url": "",
          "iframe_poster": "https://img.imgilall.me/movies/video/4/7/5/7/8/0/0/0/0/0/800x450_47578.jpeg",
          "release_ru": "2017-04-20",
          "release_world": "2017-04-19",
          "availability": "2017-04-21",
          "voiceActing": [
            "IdeaFilm",
            "Eng.Original"
          ],
          "ads": true,
          "subtitle": []
        },
        {
          "episode": 9,
          "name": "Blowback",
          "iframe_url": "",
          "iframe_poster": "https://img.imgilall.me/movies/video/4/7/5/7/9/0/0/0/0/0/800x450_47579.jpeg",
          "release_ru": "2017-04-27",
          "release_world": "2017-04-26",
          "availability": "2017-04-28",
          "voiceActing": [
            "IdeaFilm",
            "Eng.Original"
          ],
          "ads": true,
          "subtitle": []
        },
        {
          "episode": 10,
          "name": "Type A",
          "iframe_url": "",
          "iframe_poster": "https://img.imgilall.me/movies/video/4/7/5/8/0/0/0/0/0/0/800x450_47580.jpeg",
          "release_ru": "2017-05-04",
          "release_world": "2017-05-03",
          "availability": "2017-05-05",
          "voiceActing": [
            "IdeaFilm",
            "Eng.Original"
          ],
          "ads": true,
          "subtitle": []
        },
        {
          "episode": 11,
          "name": "Obey",
          "iframe_url": "",
          "iframe_poster": "https://img.imgilall.me/movies/video/4/7/5/8/1/0/0/0/0/0/800x450_47581.jpeg",
          "release_ru": "2017-05-11",
          "release_world": "2017-05-10",
          "availability": "2017-05-12",
          "voiceActing": [
            "IdeaFilm",
            "Eng.Original"
          ],
          "ads": true,
          "subtitle": []
        },
        {
          "episode": 12,
          "name": "Abominable",
          "iframe_url": "",
          "iframe_poster": "https://img.imgilall.me/movies/video/4/7/5/8/2/0/0/0/0/0/800x450_47582.jpeg",
          "release_ru": "2017-05-18",
          "release_world": "2017-05-17",
          "availability": "2017-05-19",
          "voiceActing": [
            "IdeaFilm",
            "Eng.Original"
          ],
          "ads": true,
          "subtitle": []
        },
        {
          "episode": 13,
          "name": "The Ripper of Riga",
          "iframe_url": "",
          "iframe_poster": "https://img.imgilall.me/movies/video/4/7/5/8/3/0/0/0/0/0/800x450_47583.jpeg",
          "release_ru": "2017-05-18",
          "release_world": "2017-05-17",
          "availability": "2017-05-19",
          "voiceActing": [
            "IdeaFilm",
            "Eng.Original"
          ],
          "ads": true,
          "subtitle": []
        }
      ]
    }
  ],
  "voiceActing": [
    "Fox",
    "Eng.Original",
    "IdeaFilm"
  ],
  "subtitle": [],
  "parts": []
}
