{
  "id": 26541,
  "name": "Истинный комиссионер",
  "name_eng": "The Truth Commissioner",
  "year": 2016,
  "slogan": "—",
  "age": "12+",
  "type": "film",
  "quality": "SD",
  "imdb": "5.8",
  "imdb_id": "4637240",
  "kinopoisk": null,
  "kinopoisk_id": "905481",
  "world_art": null,
  "world_art_id": null,
  "time": "94 мин. / 01:34",
  "ads": false,
  "premier": "2016-02-01",
  "premier_rus": "2016-02-02",
  "availability": "2016-02-03",
  "activate_time": "2020-06-27 08:23:00",
  "budget": null,
  "fees_use": null,
  "fees_world": null,
  "fees_rus": null,
  "rate_mpaa": null,
  "description": "Очередное дело, очередное убийство. Именно так думал комиссар полиции Генри Стэнфилд, отправившись расследовать дело, связанное с пропажей пятнадцатилетнего парня по имени Коннор Роше. Это преступление, характерное, скорее, для стран третьего мира, где похищения в порядке вещей, потрясло всю Северную Ирландию. В европейских странах такое происшествие тут же несёт за собой огромный скандал. Посреди всей этой шумихи главный герой пытается отличить зёрна от плевел и найти преступников.",
  "iframe_url": "",
  "iframe_poster": null,
  "poster": "https://img.imgilall.me/movies/franchise/2/6/5/4/1/0/0/0/0/0/610x900_26541.jpg",
  "country": [],
  "collection": [],
  "genre": {
    "7": "Драма"
  },
  "director": [
    "Деклан Рекс"
  ],
  "screenwriter": [
    "Оуэн О’Кэллэхэн"
  ],
  "producer": [
    "Дэвид Коллинз",
    "Кевин Джексон",
    "Оуэн О’Кэллэхэн"
  ],
  "operator": [
    "Майкл Лэвэлл"
  ],
  "composer": [
    "Ниал Бирн"
  ],
  "design": [
    "Том МакКаллаг",
    "Хезер Гринлис",
    "Хэйзел Вебб-Крозье"
  ],
  "editor": [
    "Гарет Янг"
  ],
  "actors": [
    "Роджер Аллам",
    "Бэрри Уорд",
    "Конлет Хилл",
    "Мадлен Манток",
    "Брид Бреннан",
    "Жасмин Хайд",
    "Лия Уильямс",
    "Йен Битти",
    "Сиенна Бак",
    "Фрэнк Кэннон"
  ],
  "actors_dubl": [],
  "trivia": [],
  "trailers": [],
  "seasons": [],
  "voiceActing": [
    "Рус. Люб. многоголосый"
  ],
  "subtitle": [],
  "parts": []
}
