{
  "id": 9420,
  "name": "Гейм-он",
  "name_eng": "Game On",
  "year": 2018,
  "slogan": "—",
  "age": "16+",
  "type": "film",
  "quality": "HD (720p)",
  "imdb": "5.2",
  "imdb_id": "4416800",
  "kinopoisk": null,
  "kinopoisk_id": "914927",
  "world_art": null,
  "world_art_id": null,
  "time": "98 мин. / 01:38",
  "ads": true,
  "premier": "2018-03-20",
  "premier_rus": null,
  "availability": null,
  "activate_time": "2019-06-11 15:43:54",
  "budget": "$40 000",
  "fees_use": null,
  "fees_world": null,
  "fees_rus": null,
  "rate_mpaa": null,
  "description": "Реджина, Мак и Уоррен решили открыть магазин с видео-играми. Но когда у друзей возникли проблемы, состоятельный отец Уоррена отказался им помочь с оплатой счетов. Трио должно доказать, что они сами способны заработать деньги и выкупить магазин.",
  "iframe_url": "",
  "iframe_poster": "https://img.imgilall.me/movies/video/9/7/9/9/4/0/0/0/0/0/800x450_97994.jpeg",
  "poster": "https://img.imgilall.me/movies/franchise/9/4/2/0/0/0/0/0/0/0/610x900_9420.jpg",
  "country": {
    "1": "США"
  },
  "collection": [],
  "genre": {
    "19": "Комедия",
    "10": "Зарубежный"
  },
  "director": [
    "Шария Линн",
    "Филлип Себал"
  ],
  "screenwriter": [
    "Шария Линн",
    "Мэри Элизабет Секела"
  ],
  "producer": [
    "Сара Крэйг",
    "Гриффин Гмелич",
    "Шария Линн"
  ],
  "operator": [
    "Филлип Себал"
  ],
  "composer": [],
  "design": [],
  "editor": [
    "Филлип Себал"
  ],
  "actors": [
    "Бри Картер",
    "Кэти Хемминг",
    "Меган Тереза Риппи",
    "Джордан Нанкарроу",
    "Крис Шеклер",
    "Александра Моро",
    "Чули Джой",
    "Роберт Френсис",
    "Хуан Алеман",
    "Дугл"
  ],
  "actors_dubl": [],
  "trivia": [],
  "trailers": [],
  "seasons": [],
  "voiceActing": [
    "Рус. Люб. многоголосый"
  ],
  "subtitle": [],
  "parts": []
}
