{
  "id": 34343,
  "name": "Последнее ограбление",
  "name_eng": "The Last Heist",
  "year": 2016,
  "slogan": "—",
  "age": null,
  "type": "film",
  "quality": "SD",
  "imdb": "3.6",
  "imdb_id": "0",
  "kinopoisk": "3.9",
  "kinopoisk_id": "915691",
  "world_art": null,
  "world_art_id": null,
  "time": "84 мин. / 01:24",
  "ads": false,
  "premier": "2016-06-17",
  "premier_rus": "2016-06-18",
  "availability": "2016-06-19",
  "activate_time": "2020-07-17 08:44:00",
  "budget": null,
  "fees_use": null,
  "fees_world": null,
  "fees_rus": null,
  "rate_mpaa": null,
  "description": "Ограбление банка превращается в кровавую бойню, когда один из заложников оказывается серийным убийцей. Заперев в здании хорошо подготовленную банду грабителей, убийца начинает их вырезать одного за другим.",
  "iframe_url": "",
  "iframe_poster": null,
  "poster": "https://img.imgilall.me/movies/franchise/3/4/3/4/3/0/0/0/0/0/610x900_34343.jpg",
  "country": {
    "1": "США"
  },
  "collection": [],
  "genre": {
    "26": "Ужасы",
    "17": "Боевик",
    "13": "Триллер"
  },
  "director": [
    "Майк Мендес"
  ],
  "screenwriter": [
    "Гай Стивенсон"
  ],
  "producer": [
    "Рик Бенаттар",
    "Кортни Комптон",
    "Крис Коновер"
  ],
  "operator": [
    "Жан-Мишель Лосада"
  ],
  "composer": [
    "Александр Борнстейн"
  ],
  "design": [
    "Лорен Мейер",
    "Элизабет Магальянес",
    "Эшли Люн"
  ],
  "editor": [
    "Майк Мендес",
    "Лоуренс Ван Чаранте"
  ],
  "actors": [
    "Генри Роллинз",
    "Торранс Кумбс",
    "Виктория Прэтт",
    "Майкл Аарон Миллиган",
    "Майкл Шеннон Дженкинс",
    "Ник Принсип",
    "Марк Келли",
    "Кен Лайл",
    "Кристина Клиб",
    "Камилла Джексон"
  ],
  "actors_dubl": [],
  "trivia": [],
  "trailers": [],
  "seasons": [],
  "voiceActing": [
    "Рус. Проф. многоголосый"
  ],
  "subtitle": [],
  "parts": []
}
