{
  "id": 8758,
  "name": "Наследие охотника на белохвостого оленя",
  "name_eng": "The Legacy of a Whitetail Deer Hunter",
  "year": 2018,
  "slogan": "—",
  "age": "16+",
  "type": "film",
  "quality": "FHD (1080p)",
  "imdb": "5.5",
  "imdb_id": "4762824",
  "kinopoisk": "5.7",
  "kinopoisk_id": "915394",
  "world_art": null,
  "world_art_id": null,
  "time": "83 мин. / 01:23",
  "ads": false,
  "premier": "2018-03-10",
  "premier_rus": null,
  "availability": null,
  "activate_time": "2019-05-17 16:30:21",
  "budget": null,
  "fees_use": null,
  "fees_world": null,
  "fees_rus": null,
  "rate_mpaa": null,
  "description": "Опытный охотник Бак Фергюсон и его верный оператор Дон отправляются на выходные в лесное приключение, чтобы наладить контакт c юным сыном Бака.",
  "iframe_url": "",
  "iframe_poster": null,
  "poster": "https://img.imgilall.me/movies/franchise/8/7/5/8/0/0/0/0/0/0/610x900_8758.jpg",
  "country": {
    "1": "США"
  },
  "collection": [],
  "genre": {
    "9": "Приключения",
    "19": "Комедия",
    "10": "Зарубежный",
    "7": "Драма"
  },
  "director": [
    "Джоди Хилл"
  ],
  "screenwriter": [
    "Джоди Хилл",
    "Дэнни Макбрайд",
    "Джон Карсьери"
  ],
  "producer": [
    "Эли Буш",
    "Скотт Рудин",
    "Джон Карсьери"
  ],
  "operator": [
    "Эрик Трэмл"
  ],
  "composer": [
    "Джозеф Стефенс"
  ],
  "design": [
    "Марк Снелгроув",
    "Джэми Уокер МакКолл",
    "Карен Малеки"
  ],
  "editor": [
    "Кэти Маккерри",
    "Джефф Сейбеник"
  ],
  "actors": [
    "Джош Бролин",
    "Дэнни Макбрайд",
    "Монтана Джордан",
    "Скут МакНэри",
    "Кэрри Кун",
    "Томми Браун",
    "Уилльям Ковбой Рид",
    "Крис Хилл ст."
  ],
  "actors_dubl": [],
  "trivia": [
    "Перед съёмками в этом фильме Джош Бролин набрал 18 кг веса и отпустил усы."
  ],
  "trailers": [],
  "seasons": [],
  "voiceActing": [
    "HDRezka Studio"
  ],
  "subtitle": [],
  "parts": []
}
