{
  "id": 1270,
  "name": "Существо из бездны",
  "name_eng": "The Creature Below",
  "year": 2016,
  "slogan": "—",
  "age": "16+",
  "type": "film",
  "quality": "HD (720p)",
  "imdb": "3.7",
  "imdb_id": "4368098",
  "kinopoisk": "4.2",
  "kinopoisk_id": "914582",
  "world_art": null,
  "world_art_id": null,
  "time": "83 мин. / 01:23",
  "ads": false,
  "premier": "2016-08-27",
  "premier_rus": null,
  "availability": null,
  "activate_time": "2018-07-10 12:07:26",
  "budget": "£ 12 000",
  "fees_use": null,
  "fees_world": null,
  "fees_rus": null,
  "rate_mpaa": null,
  "description": "При при испытании нового скафандра погружением на большую глубину молодая женщина-учёный сталкивается с неизвестным науке гигантским существом. После этого она приносит домой непонятный предмет, который оказывается яйцом глубинного монстра. Из него вылупляется плотоядный детёныш, и новоиспечённая «мамаша» решает его кормить и защищать.",
  "iframe_url": "",
  "iframe_poster": null,
  "poster": "https://img.imgilall.me/movies/franchise/1/2/7/0/0/0/0/0/0/0/610x900_1270.jpg",
  "country": {
    "2": "Великобритания"
  },
  "collection": {
    "45": "Фильмы на Хэллоуин"
  },
  "genre": {
    "26": "Ужасы",
    "11": "Фантастика",
    "10": "Зарубежный"
  },
  "director": [
    "Стюарт Спарк"
  ],
  "screenwriter": [
    "Пол Батлер",
    "Стюарт Спарк"
  ],
  "producer": [
    "Пол Батлер",
    "Стюарт Спарк",
    "Кэл О’Коннелл"
  ],
  "operator": [
    "Кэл О’Коннелл"
  ],
  "composer": [
    "Дэйв С. Уокер"
  ],
  "design": [
    "Натали Роу"
  ],
  "editor": [
    "Стюарт Спарк"
  ],
  "actors": [
    "Анна Доусон",
    "Михаэла Лонгден",
    "Дэниэл Трэйс",
    "Джонни Виваш",
    "Захари Ли",
    "Libby Watitis",
    "Дэвид Шеклтон",
    "Кэл О’Коннелл",
    "Линдси Крейн",
    "Paul Toy"
  ],
  "actors_dubl": [],
  "trivia": [],
  "trailers": [],
  "seasons": [],
  "voiceActing": [
    "Карповский",
    "Хихикающий доктор",
    "Eng.Original"
  ],
  "subtitle": [
    "Eng. full"
  ],
  "parts": []
}
