{
  "id": 32920,
  "name": "Школа Кёнсон: Пропавшие без вести",
  "name_eng": "Gyeongseonghakkyo: sarajin sonyeodeul",
  "year": 2015,
  "slogan": "—",
  "age": null,
  "type": "film",
  "quality": "FHD (1080p)",
  "imdb": "5.8",
  "imdb_id": "0",
  "kinopoisk": "5.7",
  "kinopoisk_id": "913361",
  "world_art": null,
  "world_art_id": null,
  "time": "99 мин. / 01:39",
  "ads": false,
  "premier": "2015-06-18",
  "premier_rus": "2015-06-19",
  "availability": "2015-06-20",
  "activate_time": "2020-06-28 17:13:00",
  "budget": null,
  "fees_use": null,
  "fees_world": "$2 625 343",
  "fees_rus": null,
  "rate_mpaa": null,
  "description": "1938 год, Кёнсон (название Сеула во времена японской оккупации). Больная чахоткой Чу-ран поступает в Кёнсонский лицей под именем Сидзуко, потому что руководят пансионатом японцы, и у всех воспитанниц должны быть японские имена. Вскоре девушка узнает о странном совпадении: оказывается, в школе уже была девочка по имени Сидзуко, которая, якобы, уехала домой.",
  "iframe_url": "",
  "iframe_poster": null,
  "poster": "https://img.imgilall.me/movies/franchise/3/2/9/2/0/0/0/0/0/0/610x900_32920.jpg",
  "country": {
    "16": "Корея Южная"
  },
  "collection": [],
  "genre": {
    "26": "Ужасы",
    "24": "Детектив",
    "13": "Триллер"
  },
  "director": [
    "Ли Хэ-ён"
  ],
  "screenwriter": [
    "Ли Хэ-ён"
  ],
  "producer": [
    "Кимджо Гван-су"
  ],
  "operator": [
    "Ким Иль-ён"
  ],
  "composer": [
    "Дальпаран"
  ],
  "design": [
    "Хан А-рым"
  ],
  "editor": [
    "Ким Чхан-джу"
  ],
  "actors": [
    "Пак По-ён",
    "Пак Со-дам",
    "Ом Джи-вон",
    "Кон Е-джи",
    "Щим Хи-соп",
    "Ко Вон-хи",
    "Пак Сон-ён",
    "Кым Сэ-рок",
    "Пак Чу-хи",
    "Чу Бо-би"
  ],
  "actors_dubl": [],
  "trivia": [],
  "trailers": [],
  "seasons": [],
  "voiceActing": [
    "Рус. Люб. двухголосый"
  ],
  "subtitle": [],
  "parts": []
}
