{
  "id": 16353,
  "name": "Любовь найдёт тебя в Валентайне",
  "name_eng": "Love Finds You in Valentine",
  "year": 2016,
  "slogan": "«Sometimes you don't know what's missing until you find it»",
  "age": null,
  "type": "film",
  "quality": "HD (720p)",
  "imdb": "6.4",
  "imdb_id": "4769430",
  "kinopoisk": null,
  "kinopoisk_id": "918721",
  "world_art": null,
  "world_art_id": null,
  "time": "87 мин. / 01:27",
  "ads": false,
  "premier": "2016-02-14",
  "premier_rus": "2016-02-15",
  "availability": "2016-02-16",
  "activate_time": "2020-06-23 17:08:00",
  "budget": "$1 000 000",
  "fees_use": null,
  "fees_world": null,
  "fees_rus": null,
  "rate_mpaa": null,
  "description": "Кеннеди Блейн учится в университете в Калифорнии и мечтает построить карьеру юриста. Однажды ей приходится отправиться в маленький городок, расположенный в Небраске — там находится ранчо, которое ей перешло по наследству. Прежде чем продать недвижимость, Кеннеди решает провести там лето и узнать больше о своей семье.",
  "iframe_url": "",
  "iframe_poster": null,
  "poster": "https://img.imgilall.me/movies/franchise/1/6/3/5/3/0/0/0/0/0/610x900_16353.jpg",
  "country": {
    "1": "США"
  },
  "collection": {
    "27": "Про жизнь"
  },
  "genre": {
    "10": "Зарубежный",
    "8": "Мелодрама",
    "7": "Драма"
  },
  "director": [
    "Терри Каннингэм"
  ],
  "screenwriter": [
    "Брайар Фрид",
    "Irene Brand"
  ],
  "producer": [
    "Джордж Шэмайэ",
    "Синди Бонд",
    "Стефен Р. Кампанелла"
  ],
  "operator": [
    "Адам Н. Уайт"
  ],
  "composer": [
    "Джэми Кристоферсон"
  ],
  "design": [
    "Kelleigh Miller",
    "Шона-Нова Фоли"
  ],
  "editor": [
    "Бретт Хедлунд"
  ],
  "actors": [
    "Михаэлла МакМанус",
    "Диого Моргадо",
    "Хантер Кросс",
    "Джеймс Кисики",
    "Джон Эби",
    "Дэнни Риос",
    "Брайан Бартельс",
    "Марианн Нэйджел",
    "Keith Benford",
    "Линдсей Вагнер"
  ],
  "actors_dubl": [],
  "trivia": [],
  "trailers": [],
  "seasons": [],
  "voiceActing": [
    "Рус. Люб. многоголосый"
  ],
  "subtitle": [],
  "parts": []
}
