{
  "id": 34124,
  "name": "Сосед",
  "name_eng": "The Neighbor",
  "year": 2018,
  "slogan": "«Danger lives next door»",
  "age": null,
  "type": "film",
  "quality": "SD",
  "imdb": "4.9",
  "imdb_id": "0",
  "kinopoisk": "5.0",
  "kinopoisk_id": "920834",
  "world_art": null,
  "world_art_id": null,
  "time": "105 мин. / 01:45",
  "ads": false,
  "premier": "2018-01-26",
  "premier_rus": "2018-01-27",
  "availability": "2018-01-28",
  "activate_time": "2020-07-23 13:01:00",
  "budget": null,
  "fees_use": null,
  "fees_world": null,
  "fees_rus": null,
  "rate_mpaa": "R",
  "description": "Мужчина средних лет живёт в браке, напоминающем застойное болото. Но жизнь его переворачивается, когда в соседний дом въезжают новые жильцы: привлекательная молодая женщина и её агрессивный муж.",
  "iframe_url": "",
  "iframe_poster": null,
  "poster": "https://img.imgilall.me/movies/franchise/3/4/1/2/4/0/0/0/0/0/610x900_34124.jpg",
  "country": {
    "1": "США"
  },
  "collection": [],
  "genre": {
    "13": "Триллер",
    "8": "Мелодрама"
  },
  "director": [
    "Аарон Харви"
  ],
  "screenwriter": [
    "Ричард Байард",
    "Аарон Харви"
  ],
  "producer": [
    "Роберт Огден Барнум",
    "Уильям Фихтнер",
    "Аарон Харви"
  ],
  "operator": [
    "Джон В. Рутланд"
  ],
  "composer": [
    "Джеймс Курд"
  ],
  "design": [
    "Джули Чэнь",
    "Бриттани Энн Кормак"
  ],
  "editor": [
    "Ричард Байард"
  ],
  "actors": [
    "Уильям Фихтнер",
    "Джессика МакНэми",
    "Джин Луиса Келли",
    "Майкл Розенбаум",
    "Колин Вуделл",
    "Эрик Андерсон",
    "Роберт Арц",
    "Джерри Шанди"
  ],
  "actors_dubl": [],
  "trivia": [],
  "trailers": [],
  "seasons": [],
  "voiceActing": [
    "Victory-Films"
  ],
  "subtitle": [],
  "parts": []
}
