{
  "id": 5639,
  "name": "В Кейптаунском порту",
  "name_eng": "",
  "year": 2019,
  "slogan": "—",
  "age": "16+",
  "type": "film",
  "quality": "HD (720p)",
  "imdb": "4.8",
  "imdb_id": "11132996",
  "kinopoisk": "5.7",
  "kinopoisk_id": "929513",
  "world_art": null,
  "world_art_id": null,
  "time": "107 мин. / 01:47",
  "ads": false,
  "premier": "2019-08-29",
  "premier_rus": "2019-08-29",
  "availability": "2019-08-30",
  "activate_time": "2019-08-18 19:52:00",
  "budget": "₽ 120 000 000",
  "fees_use": null,
  "fees_world": null,
  "fees_rus": "$24 250",
  "rate_mpaa": null,
  "description": "Моряк, Пахан и Салажонок. Они встретились лишь однажды летом 1945 года на Дальнем Востоке с оружием в руках и с серьезными намерениями. Все закончилось перестрелкой, и каждый из участников уверен, что убил двух других. Однако судьба подарила всем им долгую насыщенную событиями жизнь. Пройдет более полувека, и в один из дней в разных точках Земли произойдут события, связанные с той роковой встречей лета 1945-го.",
  "iframe_url": "",
  "iframe_poster": "https://img.imgilall.me/movies/video/1/1/9/7/7/8/0/0/0/0/800x450_119778.jpeg",
  "poster": "https://img.imgilall.me/movies/franchise/5/6/3/9/0/0/0/0/0/0/610x900_5639.jpg",
  "country": {
    "5": "Россия"
  },
  "collection": [],
  "genre": {
    "22": "Русский",
    "7": "Драма"
  },
  "director": [
    "Александр Велединский"
  ],
  "screenwriter": [
    "Александр Велединский"
  ],
  "producer": [
    "Владимир Поляков",
    "Владимир Игнатьев",
    "Рубен Дишдишян"
  ],
  "operator": [
    "Алексей Найденов",
    "Андрей Найденов"
  ],
  "composer": [
    "Алексей Зубарев"
  ],
  "design": [
    "Сергей Гудилин"
  ],
  "editor": [],
  "actors": [
    "Евгений Ткачук",
    "Владимир Стеклов",
    "Александр Робак",
    "Юрий Кузнецов",
    "Сергей Сосновский",
    "Светлана Хомич",
    "Ангелина Притуманова",
    "Анфиса Черных",
    "Виталий Кищенко",
    "Юрий Ваксман"
  ],
  "actors_dubl": [],
  "trivia": [
    "В основе сценария лежит реальный случай, произошедший с отцом режиссера Александра Велединского."
  ],
  "trailers": [
    {
      "name": "трейлер №1",
      "number": 1,
      "iframe_poster": "https://img.imgilall.me/movies/trailer/7/7/4/0/0/0/0/0/0/0/800x450_774.jpeg",
      "season": null,
      "iframe_url": ""
    }
  ],
  "seasons": [],
  "voiceActing": [
    "Рус. Оригинальный"
  ],
  "subtitle": [],
  "parts": []
}
