{
  "id": 17499,
  "name": "Мой брат",
  "name_eng": "Kardesim Benim",
  "year": 2016,
  "slogan": "—",
  "age": null,
  "type": "film",
  "quality": "SD",
  "imdb": "5.9",
  "imdb_id": "4788722",
  "kinopoisk": "7.3",
  "kinopoisk_id": "924228",
  "world_art": null,
  "world_art_id": null,
  "time": "120 мин. / 02:00",
  "ads": true,
  "premier": "2016-01-15",
  "premier_rus": "2016-01-16",
  "availability": "2016-01-17",
  "activate_time": "2020-05-01 23:28:00",
  "budget": null,
  "fees_use": null,
  "fees_world": null,
  "fees_rus": null,
  "rate_mpaa": null,
  "description": "Фильм повествует о двух братьях. Хакан, 30-летний музыкант, старающийся избегать внимания прессы, все же притягивает внимание репортёров из-за затяжной ссоры с братом Озаном. Озан — 28-летний поп-певец, раскрытый для общения жизнерадостный парень.. Их отец до определенного времени зарабатывал на жизнь пением на свадьбах, кочую по деревенским праздникам. Это ремесло переняли и сыновья. Спустя время, после смерти матери отец Эркан передал опеку над младшим братом Хакану. Именно поэтому Хакан быстро повзрослел, в то время как младший беззаботно проживал свое детство. И на почве этого между братьями возникли недопонимания, переросшие в длительную ссору. Спустя годы братья встречаются на похоронах отца. Оба намерены отдать последний долг отцу и вернуться на круги своя, но неожиданная последняя воля отца, записанная на видеопленку, резко меняет их планы.",
  "iframe_url": "",
  "iframe_poster": null,
  "poster": "https://img.imgilall.me/movies/franchise/1/7/4/9/9/0/0/0/0/0/610x900_17499.jpg",
  "country": {
    "36": "Турция"
  },
  "collection": [],
  "genre": {
    "19": "Комедия",
    "7": "Драма"
  },
  "director": [
    "Мерт Байкал"
  ],
  "screenwriter": [
    "Зафер Кюлюнк"
  ],
  "producer": [
    "Джемал Окан",
    "Тимур Савджи",
    "Бурак Озчивит"
  ],
  "operator": [
    "Вели Кузлу"
  ],
  "composer": [
    "Cem Öget"
  ],
  "design": [
    "Kaan Kasikir",
    "Тугба Атач"
  ],
  "editor": [
    "Корхан Корюрек"
  ],
  "actors": [
    "Бурак Озчивит",
    "Мурат Боз",
    "Аслы Энвер",
    "Хакан Аталай",
    "Али Беят",
    "Гёзде Мутлуэр",
    "Ахмет Гюлхан",
    "Назан Кесал",
    "Гёктуг Яшар",
    "Mine Durak"
  ],
  "actors_dubl": [],
  "trivia": [],
  "trailers": [],
  "seasons": [],
  "voiceActing": [
    "Рус. Люб. одноголосый"
  ],
  "subtitle": [],
  "parts": []
}
