{
  "id": 17828,
  "name": "Без имени",
  "name_eng": "Without Name",
  "year": 2016,
  "slogan": "—",
  "age": null,
  "type": "film",
  "quality": "SD",
  "imdb": "5.3",
  "imdb_id": "4708346",
  "kinopoisk": "5.5",
  "kinopoisk_id": "921225",
  "world_art": null,
  "world_art_id": null,
  "time": "93 мин. / 01:33",
  "ads": true,
  "premier": "2016-09-12",
  "premier_rus": "2016-09-13",
  "availability": "2016-09-14",
  "activate_time": "2020-05-05 19:55:00",
  "budget": "€350 000",
  "fees_use": null,
  "fees_world": null,
  "fees_rus": null,
  "rate_mpaa": null,
  "description": "Землемер Эрик Мейбери получает крупный контракт и на время переселяется в тихий домик в чаще леса. В первый же вечер он находит дневник бывшего хозяина дома, где тот описывает деревья, а приступив на следующий день к работе, замечает в лесу странности. Не вынося одиночества, Эрик заходит выпить в паб в ближайшем населённом пункте, где местные рассказывают ему, что тот лес издревле обходили стороной, не наносили на карты, и у него даже нет имени. А бывший хозяин дома был найден в лесу полузамёрзшим в кататоническом состоянии.",
  "iframe_url": "",
  "iframe_poster": null,
  "poster": "https://img.imgilall.me/movies/franchise/1/7/8/2/8/0/0/0/0/0/610x900_17828.jpg",
  "country": {
    "21": "Ирландия"
  },
  "collection": [],
  "genre": {
    "26": "Ужасы",
    "24": "Детектив",
    "13": "Триллер",
    "7": "Драма"
  },
  "director": [
    "Лоркан Финнеган"
  ],
  "screenwriter": [
    "Гаррет Шэнли"
  ],
  "producer": [
    "Брунелла Коччилья",
    "Рори Гилмартин"
  ],
  "operator": [
    "Пирс Макгрейл"
  ],
  "composer": [
    "Гэвин О’Брайэн",
    "Нил О’Коннор"
  ],
  "design": [
    "Дженни О’Брайэн",
    "Мик Миноуг",
    "Ниам Бакли"
  ],
  "editor": [
    "Тони Крэнстоун"
  ],
  "actors": [
    "Алан МакКенна",
    "Нив Алгар",
    "Джеймс Браун",
    "Ольга Верли",
    "Брэндон Мэхер",
    "Морган С. Джонс",
    "Брендан Конрой",
    "Доннча Краули",
    "Алан МакНалли",
    "Майкл Маклафлин"
  ],
  "actors_dubl": [],
  "trivia": [],
  "trailers": [],
  "seasons": [],
  "voiceActing": [
    "Рус. Люб. многоголосый"
  ],
  "subtitle": [],
  "parts": []
}
