{
  "id": 17272,
  "name": "Луни Тюнз: Кролик в бегах",
  "name_eng": "Looney Tunes: Rabbits Run",
  "year": 2015,
  "slogan": "—",
  "age": "6+",
  "type": "cartoon",
  "quality": "FHD (1080p)",
  "imdb": "5.8",
  "imdb_id": "4840666",
  "kinopoisk": "5.1",
  "kinopoisk_id": "922494",
  "world_art": null,
  "world_art_id": null,
  "time": "74 мин. / 01:14",
  "ads": false,
  "premier": "2015-07-07",
  "premier_rus": "2015-07-08",
  "availability": "2015-07-09",
  "activate_time": "2020-06-09 15:34:00",
  "budget": null,
  "fees_use": null,
  "fees_world": null,
  "fees_rus": null,
  "rate_mpaa": null,
  "description": "Действие разворачивается в центральной Мексике. В штабе петуха Фоггорна Леггорна черепаха Сесил наблюдает за объектом – редчайшим цветком флоро оккульто, который расцветает раз в 200 лет и служит величайшим в мире оружием. Леггорн собирается провести спецоперацию по захвату магического цветка, но в самый ответственный момент кто-то похищает растение…",
  "iframe_url": "",
  "iframe_poster": null,
  "poster": "https://img.imgilall.me/movies/franchise/1/7/2/7/2/0/0/0/0/0/610x900_17272.jpg",
  "country": {
    "1": "США"
  },
  "collection": {
    "18": "Про животных"
  },
  "genre": {
    "9": "Приключения",
    "38": "Мюзикл",
    "33": "Семейный",
    "19": "Комедия"
  },
  "director": [
    "Джефф Сергей"
  ],
  "screenwriter": [
    "Хью Дэвидсон",
    "Рэйчел Дугай",
    "Ларри Дорф"
  ],
  "producer": [
    "Хью Дэвидсон",
    "Джефф Сергей",
    "Сэм Реджистер"
  ],
  "operator": [],
  "composer": [
    "Кевин Мантей"
  ],
  "design": [
    "Joey Mason"
  ],
  "editor": [],
  "actors": [
    "Фред Армисен",
    "Боб Берген",
    "Джефф Бергман",
    "Джесс Харнелл",
    "Дэймон Джонс",
    "Морис ЛаМарш",
    "Роб Полсен",
    "Ариан Прайс",
    "Рэйчел Дугай",
    "Джим Рэш"
  ],
  "actors_dubl": [],
  "trivia": [],
  "trailers": [
    {
      "name": "трейлер №1",
      "number": 1,
      "iframe_poster": null,
      "season": null,
      "iframe_url": ""
    }
  ],
  "seasons": [],
  "voiceActing": [
    "Рус. Проф. многоголосый",
    "Eng.Original"
  ],
  "subtitle": [
    "Eng. full"
  ],
  "parts": []
}
