{
  "id": 2428,
  "name": "Мы обычные медведи",
  "name_eng": "We Bare Bears",
  "year": 2015,
  "slogan": null,
  "age": "6+",
  "type": "cartoon-series",
  "quality": "FHD (1080p)",
  "imdb": "7.9",
  "imdb_id": "4839610",
  "kinopoisk": "8.3",
  "kinopoisk_id": "926854",
  "world_art": null,
  "world_art_id": null,
  "time": "11 мин.",
  "ads": true,
  "premier": "2015-07-27",
  "premier_rus": "2015-11-16",
  "availability": "2015-11-17",
  "serial_status": "offline",
  "activate_time": "2018-09-20 11:10:53",
  "budget": null,
  "fees_use": null,
  "fees_world": null,
  "fees_rus": null,
  "rate_mpaa": null,
  "description": "Три брата-медведя Гризли, Панда и Белый отчаянно пытаются влиться в общество людей, однако покупая еду, борясь за интернет-славу или заводя друзей, им не всегда удаётся соответствовать людской природе. Но братья всегда готовы прийти друг другу на выручку.",
  "iframe_url": "",
  "poster": "https://img.imgilall.me/movies/franchise/2/4/2/8/0/0/0/0/0/0/610x900_2428.jpg",
  "country": {
    "1": "США"
  },
  "collection": {
    "18": "Про животных"
  },
  "genre": {
    "9": "Приключения",
    "6": "Фэнтези",
    "37": "Детский",
    "33": "Семейный",
    "19": "Комедия",
    "10": "Зарубежный"
  },
  "director": [
    "Manny Hernandez"
  ],
  "screenwriter": [
    "Дэниэл Чонг",
    "Мики Хеллер",
    "Кристи Корзек"
  ],
  "producer": [
    "Дэниэл Чонг",
    "Кертис Лилаш",
    "Брайан А. Миллер"
  ],
  "operator": [],
  "composer": [
    "Брэд Джозеф Брик"
  ],
  "design": [
    "Тони Пулэм",
    "Сью Мондт"
  ],
  "editor": [
    "Tom Browngardt",
    "Бобби Джибис"
  ],
  "actors": [
    "Эрик Эдельштейн",
    "Деметри Мартин",
    "Бобби Мойнахан",
    "Кит Фергюсон",
    "Эден Гамлиэль",
    "Эди Паттерсон",
    "Сэм Лаваньино",
    "Джейсон Ли",
    "Kyler Spears",
    "Шарлин Йи"
  ],
  "actors_dubl": [
    "Владимир Антоник",
    "Олег Куценко",
    "Даниил Эльдаров",
    "Ольга Зверева",
    "Алёна Созинова"
  ],
  "trivia": [
    "В 12 эпизоде 1 сезона персонаж Хлоя смотрит по телевизору мультсериал \"Время приключений\", который также, как и \"Мы обычные медведи\" выходит на телеканале Cartoon Network.",
    "Гризли - самый старший из трех братьев-медведей.",
    "Данный мультсериал основан на вэб-комиксах Дэниэла Чонга под названием \"Три обычных медведя\".",
    "У Панды аллергия на арахис.",
    "Характер Белого медведя в оригинальном комиксе довольно сильно отличается от характера в мультсериале. В комиксе он много говорит, а также более склонен к выражению своих эмоций."
  ],
  "trailers": [
    {
      "name": "трейлер №1",
      "number": 1,
      "iframe_poster": null,
      "season": 1,
      "iframe_url": ""
    }
  ],
  "seasons": [
    {
      "poster": "https://img.imgilall.me/movies/season/1/1/6/3/0/0/0/0/0/0/610x900_1163.jpg",
      "release_ru": "2015-07-28",
      "release_world": "2015-07-27",
      "availability": "2015-07-29",
      "iframe_url": "",
      "season": 1,
      "episodes": [
        {
          "episode": 0,
          "name": null,
          "iframe_url": "",
          "iframe_poster": "https://img.imgilall.me/movies/video/2/1/5/8/6/0/0/0/0/0/800x450_21586.jpeg",
          "release_ru": null,
          "release_world": null,
          "availability": null,
          "voiceActing": [
            "AlexFilm",
            "Eng.Original"
          ],
          "ads": false,
          "subtitle": []
        },
        {
          "episode": 1,
          "name": "Our Stuff",
          "iframe_url": "",
          "iframe_poster": "https://img.imgilall.me/movies/video/2/1/5/8/7/0/0/0/0/0/800x450_21587.jpeg",
          "release_ru": "2015-07-28",
          "release_world": "2015-07-27",
          "availability": "2015-07-29",
          "voiceActing": [
            "AlexFilm",
            "Eng.Original"
          ],
          "ads": false,
          "subtitle": []
        },
        {
          "episode": 2,
          "name": "Viral Video",
          "iframe_url": "",
          "iframe_poster": "https://img.imgilall.me/movies/video/2/1/5/8/8/0/0/0/0/0/800x450_21588.jpeg",
          "release_ru": "2015-07-28",
          "release_world": "2015-07-27",
          "availability": "2015-07-29",
          "voiceActing": [
            "AlexFilm",
            "Eng.Original"
          ],
          "ads": false,
          "subtitle": []
        },
        {
          "episode": 3,
          "name": "Food Truck",
          "iframe_url": "",
          "iframe_poster": "https://img.imgilall.me/movies/video/2/1/5/8/9/0/0/0/0/0/800x450_21589.jpeg",
          "release_ru": "2015-07-29",
          "release_world": "2015-07-28",
          "availability": "2015-07-30",
          "voiceActing": [
            "AlexFilm",
            "Eng.Original"
          ],
          "ads": false,
          "subtitle": []
        },
        {
          "episode": 4,
          "name": "Chloe",
          "iframe_url": "",
          "iframe_poster": "https://img.imgilall.me/movies/video/2/1/5/9/0/0/0/0/0/0/800x450_21590.jpeg",
          "release_ru": "2015-07-30",
          "release_world": "2015-07-29",
          "availability": "2015-07-31",
          "voiceActing": [
            "AlexFilm",
            "Eng.Original"
          ],
          "ads": false,
          "subtitle": []
        },
        {
          "episode": 5,
          "name": "Panda's Date",
          "iframe_url": "",
          "iframe_poster": "https://img.imgilall.me/movies/video/2/1/5/9/1/0/0/0/0/0/800x450_21591.jpeg",
          "release_ru": "2015-07-31",
          "release_world": "2015-07-30",
          "availability": "2015-08-01",
          "voiceActing": [
            "AlexFilm",
            "Eng.Original"
          ],
          "ads": false,
          "subtitle": []
        },
        {
          "episode": 6,
          "name": "Everyday Bears",
          "iframe_url": "",
          "iframe_poster": "https://img.imgilall.me/movies/video/2/1/5/9/2/0/0/0/0/0/800x450_21592.jpeg",
          "release_ru": "2015-08-01",
          "release_world": "2015-07-31",
          "availability": "2015-08-02",
          "voiceActing": [
            "AlexFilm",
            "Eng.Original"
          ],
          "ads": false,
          "subtitle": []
        },
        {
          "episode": 7,
          "name": "Burrito",
          "iframe_url": "",
          "iframe_poster": "https://img.imgilall.me/movies/video/2/1/5/9/3/0/0/0/0/0/800x450_21593.jpeg",
          "release_ru": "2015-08-07",
          "release_world": "2015-08-06",
          "availability": "2015-08-08",
          "voiceActing": [
            "AlexFilm",
            "Eng.Original"
          ],
          "ads": false,
          "subtitle": []
        },
        {
          "episode": 8,
          "name": "Primal",
          "iframe_url": "",
          "iframe_poster": "https://img.imgilall.me/movies/video/2/1/5/9/4/0/0/0/0/0/800x450_21594.jpeg",
          "release_ru": "2015-08-14",
          "release_world": "2015-08-13",
          "availability": "2015-08-15",
          "voiceActing": [
            "AlexFilm",
            "Eng.Original"
          ],
          "ads": false,
          "subtitle": []
        },
        {
          "episode": 9,
          "name": "Jean Jacket",
          "iframe_url": "",
          "iframe_poster": "https://img.imgilall.me/movies/video/2/1/5/9/5/0/0/0/0/0/800x450_21595.jpeg",
          "release_ru": "2015-08-21",
          "release_world": "2015-08-20",
          "availability": "2015-08-22",
          "voiceActing": [
            "AlexFilm",
            "Eng.Original"
          ],
          "ads": false,
          "subtitle": []
        },
        {
          "episode": 10,
          "name": "Nom Nom",
          "iframe_url": "",
          "iframe_poster": "https://img.imgilall.me/movies/video/2/1/5/9/6/0/0/0/0/0/800x450_21596.jpeg",
          "release_ru": "2015-08-28",
          "release_world": "2015-08-27",
          "availability": "2015-08-29",
          "voiceActing": [
            "AlexFilm",
            "Eng.Original"
          ],
          "ads": false,
          "subtitle": []
        },
        {
          "episode": 11,
          "name": "Shush Ninjas",
          "iframe_url": "",
          "iframe_poster": "https://img.imgilall.me/movies/video/2/1/5/9/7/0/0/0/0/0/800x450_21597.jpeg",
          "release_ru": "2015-09-04",
          "release_world": "2015-09-03",
          "availability": "2015-09-05",
          "voiceActing": [
            "AlexFilm",
            "Eng.Original"
          ],
          "ads": false,
          "subtitle": []
        },
        {
          "episode": 12,
          "name": "My Clique",
          "iframe_url": "",
          "iframe_poster": "https://img.imgilall.me/movies/video/2/1/5/9/8/0/0/0/0/0/800x450_21598.jpeg",
          "release_ru": "2015-09-11",
          "release_world": "2015-09-10",
          "availability": "2015-09-12",
          "voiceActing": [
            "AlexFilm",
            "Eng.Original"
          ],
          "ads": false,
          "subtitle": []
        },
        {
          "episode": 13,
          "name": "Charlie",
          "iframe_url": "",
          "iframe_poster": "https://img.imgilall.me/movies/video/2/1/5/9/9/0/0/0/0/0/800x450_21599.jpeg",
          "release_ru": "2015-09-18",
          "release_world": "2015-09-17",
          "availability": "2015-09-19",
          "voiceActing": [
            "AlexFilm",
            "Eng.Original"
          ],
          "ads": false,
          "subtitle": []
        },
        {
          "episode": 14,
          "name": "Brother Up",
          "iframe_url": "",
          "iframe_poster": "https://img.imgilall.me/movies/video/2/1/6/0/0/0/0/0/0/0/800x450_21600.jpeg",
          "release_ru": "2015-10-13",
          "release_world": "2015-10-12",
          "availability": "2015-10-14",
          "voiceActing": [
            "AlexFilm",
            "Eng.Original"
          ],
          "ads": false,
          "subtitle": []
        },
        {
          "episode": 15,
          "name": "Occupy Bears",
          "iframe_url": "",
          "iframe_poster": "https://img.imgilall.me/movies/video/2/1/6/0/1/0/0/0/0/0/800x450_21601.jpeg",
          "release_ru": "2015-10-14",
          "release_world": "2015-10-13",
          "availability": "2015-10-15",
          "voiceActing": [
            "AlexFilm",
            "Eng.Original"
          ],
          "ads": false,
          "subtitle": []
        },
        {
          "episode": 16,
          "name": "Panda's Sneeze",
          "iframe_url": "",
          "iframe_poster": "https://img.imgilall.me/movies/video/2/1/6/0/2/0/0/0/0/0/800x450_21602.jpeg",
          "release_ru": "2015-10-15",
          "release_world": "2015-10-14",
          "availability": "2015-10-16",
          "voiceActing": [
            "AlexFilm",
            "Eng.Original"
          ],
          "ads": false,
          "subtitle": []
        },
        {
          "episode": 17,
          "name": "The Road",
          "iframe_url": "",
          "iframe_poster": "https://img.imgilall.me/movies/video/2/1/6/0/3/0/0/0/0/0/800x450_21603.jpeg",
          "release_ru": "2015-10-16",
          "release_world": "2015-10-15",
          "availability": "2015-10-17",
          "voiceActing": [
            "AlexFilm",
            "Eng.Original"
          ],
          "ads": false,
          "subtitle": []
        },
        {
          "episode": 18,
          "name": "Emergency",
          "iframe_url": "",
          "iframe_poster": "https://img.imgilall.me/movies/video/2/1/6/0/4/0/0/0/0/0/800x450_21604.jpeg",
          "release_ru": "2015-10-17",
          "release_world": "2015-10-16",
          "availability": "2015-10-18",
          "voiceActing": [
            "AlexFilm",
            "Eng.Original"
          ],
          "ads": false,
          "subtitle": []
        },
        {
          "episode": 19,
          "name": "Tote Life",
          "iframe_url": "",
          "iframe_poster": "https://img.imgilall.me/movies/video/2/1/6/0/5/0/0/0/0/0/800x450_21605.jpeg",
          "release_ru": "2015-11-03",
          "release_world": "2015-11-02",
          "availability": "2015-11-04",
          "voiceActing": [
            "AlexFilm",
            "Eng.Original"
          ],
          "ads": false,
          "subtitle": []
        },
        {
          "episode": 20,
          "name": "Charlie & the Snake",
          "iframe_url": "",
          "iframe_poster": "https://img.imgilall.me/movies/video/2/1/6/0/6/0/0/0/0/0/800x450_21606.jpeg",
          "release_ru": "2015-11-04",
          "release_world": "2015-11-03",
          "availability": "2015-11-05",
          "voiceActing": [
            "AlexFilm",
            "Eng.Original"
          ],
          "ads": false,
          "subtitle": []
        },
        {
          "episode": 21,
          "name": "Video Date",
          "iframe_url": "",
          "iframe_poster": "https://img.imgilall.me/movies/video/2/1/6/0/7/0/0/0/0/0/800x450_21607.jpeg",
          "release_ru": "2015-11-05",
          "release_world": "2015-11-04",
          "availability": "2015-11-06",
          "voiceActing": [
            "AlexFilm",
            "Eng.Original"
          ],
          "ads": false,
          "subtitle": []
        },
        {
          "episode": 22,
          "name": "Pet Shop",
          "iframe_url": "",
          "iframe_poster": "https://img.imgilall.me/movies/video/7/9/6/8/2/0/0/0/0/0/800x450_79682.jpeg",
          "release_ru": "2015-11-06",
          "release_world": "2015-11-05",
          "availability": "2015-11-07",
          "voiceActing": [
            "AlexFilm",
            "Eng.Original"
          ],
          "ads": false,
          "subtitle": []
        },
        {
          "episode": 23,
          "name": "Chloe and Ice Bear",
          "iframe_url": "",
          "iframe_poster": "https://img.imgilall.me/movies/video/2/1/6/0/9/0/0/0/0/0/800x450_21609.jpeg",
          "release_ru": "2015-11-07",
          "release_world": "2015-11-06",
          "availability": "2015-11-08",
          "voiceActing": [
            "AlexFilm",
            "Eng.Original"
          ],
          "ads": false,
          "subtitle": []
        },
        {
          "episode": 24,
          "name": "Cupcake Job",
          "iframe_url": "",
          "iframe_poster": "https://img.imgilall.me/movies/video/2/1/6/1/0/0/0/0/0/0/800x450_21610.jpeg",
          "release_ru": "2015-11-13",
          "release_world": "2015-11-12",
          "availability": "2015-11-14",
          "voiceActing": [
            "AlexFilm",
            "Eng.Original"
          ],
          "ads": false,
          "subtitle": []
        },
        {
          "episode": 25,
          "name": "Hibernation",
          "iframe_url": "",
          "iframe_poster": "https://img.imgilall.me/movies/video/2/1/6/1/1/0/0/0/0/0/800x450_21611.jpeg",
          "release_ru": "2015-11-20",
          "release_world": "2015-11-19",
          "availability": "2015-11-21",
          "voiceActing": [
            "AlexFilm",
            "Eng.Original"
          ],
          "ads": false,
          "subtitle": []
        },
        {
          "episode": 26,
          "name": "Charlie Ball",
          "iframe_url": "",
          "iframe_poster": "https://img.imgilall.me/movies/video/7/9/6/8/3/0/0/0/0/0/800x450_79683.jpeg",
          "release_ru": "2016-02-12",
          "release_world": "2016-02-11",
          "availability": "2016-02-13",
          "voiceActing": [
            "AlexFilm",
            "Eng.Original"
          ],
          "ads": false,
          "subtitle": []
        }
      ]
    },
    {
      "poster": "https://img.imgilall.me/movies/season/1/1/6/4/0/0/0/0/0/0/610x900_1164.jpg",
      "release_ru": "2016-02-26",
      "release_world": "2016-02-25",
      "availability": "2016-02-27",
      "iframe_url": "",
      "season": 2,
      "episodes": [
        {
          "episode": 1,
          "name": "Yard Sale",
          "iframe_url": "",
          "iframe_poster": "https://img.imgilall.me/movies/video/2/1/5/3/3/0/0/0/0/0/800x450_21533.jpeg",
          "release_ru": "2016-02-26",
          "release_world": "2016-02-25",
          "availability": "2016-02-27",
          "voiceActing": [
            "AlexFilm",
            "Eng.Original"
          ],
          "ads": false,
          "subtitle": []
        },
        {
          "episode": 2,
          "name": "Slumber Party",
          "iframe_url": "",
          "iframe_poster": "https://img.imgilall.me/movies/video/2/1/5/3/4/0/0/0/0/0/800x450_21534.jpeg",
          "release_ru": "2016-03-04",
          "release_world": "2016-03-03",
          "availability": "2016-03-05",
          "voiceActing": [
            "AlexFilm",
            "Eng.Original"
          ],
          "ads": false,
          "subtitle": []
        },
        {
          "episode": 3,
          "name": "Bear Cleanse",
          "iframe_url": "",
          "iframe_poster": "https://img.imgilall.me/movies/video/2/1/5/3/5/0/0/0/0/0/800x450_21535.jpeg",
          "release_ru": "2016-03-11",
          "release_world": "2016-03-10",
          "availability": "2016-03-12",
          "voiceActing": [
            "AlexFilm",
            "Eng.Original"
          ],
          "ads": false,
          "subtitle": []
        },
        {
          "episode": 4,
          "name": "Nom Nom's Entourage",
          "iframe_url": "",
          "iframe_poster": "https://img.imgilall.me/movies/video/2/1/5/3/6/0/0/0/0/0/800x450_21536.jpeg",
          "release_ru": "2016-03-18",
          "release_world": "2016-03-17",
          "availability": "2016-03-19",
          "voiceActing": [
            "AlexFilm",
            "Eng.Original"
          ],
          "ads": false,
          "subtitle": []
        },
        {
          "episode": 5,
          "name": "Ranger Tabes",
          "iframe_url": "",
          "iframe_poster": "https://img.imgilall.me/movies/video/2/1/5/3/7/0/0/0/0/0/800x450_21537.jpeg",
          "release_ru": "2016-04-01",
          "release_world": "2016-03-31",
          "availability": "2016-04-02",
          "voiceActing": [
            "AlexFilm",
            "Eng.Original"
          ],
          "ads": false,
          "subtitle": []
        },
        {
          "episode": 6,
          "name": "Rooms",
          "iframe_url": "",
          "iframe_poster": "https://img.imgilall.me/movies/video/2/1/5/3/8/0/0/0/0/0/800x450_21538.jpeg",
          "release_ru": "2016-04-22",
          "release_world": "2016-04-21",
          "availability": "2016-04-23",
          "voiceActing": [
            "AlexFilm",
            "Eng.Original"
          ],
          "ads": false,
          "subtitle": []
        },
        {
          "episode": 7,
          "name": "Losing Ice",
          "iframe_url": "",
          "iframe_poster": "https://img.imgilall.me/movies/video/2/1/5/3/9/0/0/0/0/0/800x450_21539.jpeg",
          "release_ru": "2016-04-29",
          "release_world": "2016-04-28",
          "availability": "2016-04-30",
          "voiceActing": [
            "AlexFilm",
            "Eng.Original"
          ],
          "ads": false,
          "subtitle": []
        },
        {
          "episode": 8,
          "name": "Cellie",
          "iframe_url": "",
          "iframe_poster": "https://img.imgilall.me/movies/video/2/1/5/4/0/0/0/0/0/0/800x450_21540.jpeg",
          "release_ru": "2016-05-06",
          "release_world": "2016-05-05",
          "availability": "2016-05-07",
          "voiceActing": [
            "AlexFilm",
            "Eng.Original"
          ],
          "ads": false,
          "subtitle": []
        },
        {
          "episode": 9,
          "name": "Fashion Bears",
          "iframe_url": "",
          "iframe_poster": "https://img.imgilall.me/movies/video/2/1/5/4/1/0/0/0/0/0/800x450_21541.jpeg",
          "release_ru": "2016-08-02",
          "release_world": "2016-08-01",
          "availability": "2016-08-03",
          "voiceActing": [
            "AlexFilm",
            "Eng.Original"
          ],
          "ads": false,
          "subtitle": []
        },
        {
          "episode": 10,
          "name": "The Island",
          "iframe_url": "",
          "iframe_poster": "https://img.imgilall.me/movies/video/2/1/5/4/2/0/0/0/0/0/800x450_21542.jpeg",
          "release_ru": "2016-08-03",
          "release_world": "2016-08-02",
          "availability": "2016-08-04",
          "voiceActing": [
            "AlexFilm",
            "Eng.Original"
          ],
          "ads": false,
          "subtitle": []
        },
        {
          "episode": 11,
          "name": "Bear Flu",
          "iframe_url": "",
          "iframe_poster": "https://img.imgilall.me/movies/video/2/1/5/4/3/0/0/0/0/0/800x450_21543.jpeg",
          "release_ru": "2016-08-04",
          "release_world": "2016-08-03",
          "availability": "2016-08-05",
          "voiceActing": [
            "AlexFilm",
            "Eng.Original"
          ],
          "ads": false,
          "subtitle": []
        },
        {
          "episode": 12,
          "name": "Chicken and Waffles",
          "iframe_url": "",
          "iframe_poster": "https://img.imgilall.me/movies/video/2/1/5/4/4/0/0/0/0/0/800x450_21544.jpeg",
          "release_ru": "2016-08-05",
          "release_world": "2016-08-04",
          "availability": "2016-08-06",
          "voiceActing": [
            "AlexFilm",
            "Eng.Original"
          ],
          "ads": false,
          "subtitle": []
        },
        {
          "episode": 13,
          "name": "The Audition",
          "iframe_url": "",
          "iframe_poster": "https://img.imgilall.me/movies/video/2/1/5/4/5/0/0/0/0/0/800x450_21545.jpeg",
          "release_ru": "2016-08-06",
          "release_world": "2016-08-05",
          "availability": "2016-08-07",
          "voiceActing": [
            "AlexFilm",
            "Eng.Original"
          ],
          "ads": false,
          "subtitle": []
        },
        {
          "episode": "14-15",
          "name": "Captain Craboo, Part 2",
          "iframe_url": "",
          "iframe_poster": "https://img.imgilall.me/movies/video/2/1/5/4/6/0/0/0/0/0/800x450_21546.jpeg",
          "release_ru": "2016-09-06",
          "release_world": "2016-09-05",
          "availability": "2016-09-07",
          "voiceActing": [
            "AlexFilm",
            "Eng.Original"
          ],
          "ads": false,
          "subtitle": []
        },
        {
          "episode": 16,
          "name": "Baby Bears on a Plane",
          "iframe_url": "",
          "iframe_poster": "https://img.imgilall.me/movies/video/2/1/5/4/7/0/0/0/0/0/800x450_21547.jpeg",
          "release_ru": "2016-10-07",
          "release_world": "2016-10-06",
          "availability": "2016-10-08",
          "voiceActing": [
            "AlexFilm",
            "Eng.Original"
          ],
          "ads": false,
          "subtitle": []
        },
        {
          "episode": 17,
          "name": "Yuri and the Bear",
          "iframe_url": "",
          "iframe_poster": "https://img.imgilall.me/movies/video/2/1/5/4/8/0/0/0/0/0/800x450_21548.jpeg",
          "release_ru": "2016-10-14",
          "release_world": "2016-10-13",
          "availability": "2016-10-15",
          "voiceActing": [
            "AlexFilm",
            "Eng.Original"
          ],
          "ads": false,
          "subtitle": []
        },
        {
          "episode": 18,
          "name": "Icy Nights",
          "iframe_url": "",
          "iframe_poster": "https://img.imgilall.me/movies/video/2/1/5/4/9/0/0/0/0/0/800x450_21549.jpeg",
          "release_ru": "2016-10-21",
          "release_world": "2016-10-20",
          "availability": "2016-10-22",
          "voiceActing": [
            "AlexFilm",
            "Eng.Original"
          ],
          "ads": false,
          "subtitle": []
        },
        {
          "episode": 19,
          "name": "Everyone's Tube",
          "iframe_url": "",
          "iframe_poster": "https://img.imgilall.me/movies/video/2/1/5/5/0/0/0/0/0/0/800x450_21550.jpeg",
          "release_ru": "2016-10-28",
          "release_world": "2016-10-27",
          "availability": "2016-10-29",
          "voiceActing": [
            "AlexFilm",
            "Eng.Original"
          ],
          "ads": false,
          "subtitle": []
        },
        {
          "episode": 20,
          "name": "Creature Mysteries",
          "iframe_url": "",
          "iframe_poster": "https://img.imgilall.me/movies/video/2/1/5/5/1/0/0/0/0/0/800x450_21551.jpeg",
          "release_ru": "2016-11-04",
          "release_world": "2016-11-03",
          "availability": "2016-11-05",
          "voiceActing": [
            "AlexFilm",
            "Eng.Original"
          ],
          "ads": false,
          "subtitle": []
        },
        {
          "episode": 21,
          "name": "The Library",
          "iframe_url": "",
          "iframe_poster": "https://img.imgilall.me/movies/video/2/1/5/5/2/0/0/0/0/0/800x450_21552.jpeg",
          "release_ru": "2016-11-11",
          "release_world": "2016-11-10",
          "availability": "2016-11-12",
          "voiceActing": [
            "AlexFilm",
            "Eng.Original"
          ],
          "ads": false,
          "subtitle": []
        },
        {
          "episode": 22,
          "name": "Grizz Helps",
          "iframe_url": "",
          "iframe_poster": "https://img.imgilall.me/movies/video/2/1/5/5/3/0/0/0/0/0/800x450_21553.jpeg",
          "release_ru": "2016-11-18",
          "release_world": "2016-11-17",
          "availability": "2016-11-19",
          "voiceActing": [
            "AlexFilm",
            "Eng.Original"
          ],
          "ads": false,
          "subtitle": []
        },
        {
          "episode": 23,
          "name": "Christmas Parties",
          "iframe_url": "",
          "iframe_poster": "https://img.imgilall.me/movies/video/2/1/5/5/4/0/0/0/0/0/800x450_21554.jpeg",
          "release_ru": "2016-12-02",
          "release_world": "2016-12-01",
          "availability": "2016-12-03",
          "voiceActing": [
            "AlexFilm",
            "Eng.Original"
          ],
          "ads": false,
          "subtitle": []
        },
        {
          "episode": 24,
          "name": null,
          "iframe_url": "",
          "iframe_poster": "https://img.imgilall.me/movies/video/2/1/5/5/5/0/0/0/0/0/800x450_21555.jpeg",
          "release_ru": null,
          "release_world": null,
          "availability": null,
          "voiceActing": [
            "AlexFilm",
            "Eng.Original"
          ],
          "ads": false,
          "subtitle": []
        },
        {
          "episode": 25,
          "name": null,
          "iframe_url": "",
          "iframe_poster": "https://img.imgilall.me/movies/video/2/1/5/5/6/0/0/0/0/0/800x450_21556.jpeg",
          "release_ru": null,
          "release_world": null,
          "availability": null,
          "voiceActing": [
            "AlexFilm",
            "Eng.Original"
          ],
          "ads": false,
          "subtitle": []
        },
        {
          "episode": 26,
          "name": null,
          "iframe_url": "",
          "iframe_poster": "https://img.imgilall.me/movies/video/2/1/5/5/7/0/0/0/0/0/800x450_21557.jpeg",
          "release_ru": null,
          "release_world": null,
          "availability": null,
          "voiceActing": [
            "AlexFilm",
            "Eng.Original"
          ],
          "ads": false,
          "subtitle": []
        }
      ]
    },
    {
      "poster": "https://img.imgilall.me/movies/season/1/1/6/5/0/0/0/0/0/0/610x900_1165.jpg",
      "release_ru": "2017-04-04",
      "release_world": "2017-04-03",
      "availability": "2017-04-05",
      "iframe_url": "",
      "season": 3,
      "episodes": [
        {
          "episode": 1,
          "name": "Grizzly the Movie",
          "iframe_url": "",
          "iframe_poster": "https://img.imgilall.me/movies/video/2/1/4/8/3/0/0/0/0/0/800x450_21483.jpeg",
          "release_ru": "2017-04-04",
          "release_world": "2017-04-03",
          "availability": "2017-04-05",
          "voiceActing": [
            "AlexFilm",
            "Eng.Original"
          ],
          "ads": false,
          "subtitle": []
        },
        {
          "episode": 2,
          "name": "Subway",
          "iframe_url": "",
          "iframe_poster": "https://img.imgilall.me/movies/video/2/1/4/8/4/0/0/0/0/0/800x450_21484.jpeg",
          "release_ru": "2017-04-05",
          "release_world": "2017-04-04",
          "availability": "2017-04-06",
          "voiceActing": [
            "AlexFilm",
            "Eng.Original"
          ],
          "ads": false,
          "subtitle": []
        },
        {
          "episode": 3,
          "name": "Anger Management",
          "iframe_url": "",
          "iframe_poster": "https://img.imgilall.me/movies/video/2/1/4/8/5/0/0/0/0/0/800x450_21485.jpeg",
          "release_ru": "2017-04-06",
          "release_world": "2017-04-05",
          "availability": "2017-04-07",
          "voiceActing": [
            "AlexFilm",
            "Eng.Original"
          ],
          "ads": false,
          "subtitle": []
        },
        {
          "episode": 4,
          "name": "Panda's Friend",
          "iframe_url": "",
          "iframe_poster": "https://img.imgilall.me/movies/video/2/1/4/8/6/0/0/0/0/0/800x450_21486.jpeg",
          "release_ru": "2017-04-07",
          "release_world": "2017-04-06",
          "availability": "2017-04-08",
          "voiceActing": [
            "AlexFilm",
            "Eng.Original"
          ],
          "ads": false,
          "subtitle": []
        },
        {
          "episode": 5,
          "name": "$100",
          "iframe_url": "",
          "iframe_poster": "https://img.imgilall.me/movies/video/2/1/4/8/7/0/0/0/0/0/800x450_21487.jpeg",
          "release_ru": "2017-04-11",
          "release_world": "2017-04-10",
          "availability": "2017-04-12",
          "voiceActing": [
            "AlexFilm",
            "Eng.Original"
          ],
          "ads": false,
          "subtitle": []
        },
        {
          "episode": 6,
          "name": "Neighbors",
          "iframe_url": "",
          "iframe_poster": "https://img.imgilall.me/movies/video/2/1/4/8/8/0/0/0/0/0/800x450_21488.jpeg",
          "release_ru": "2017-04-12",
          "release_world": "2017-04-11",
          "availability": "2017-04-13",
          "voiceActing": [
            "AlexFilm",
            "Eng.Original"
          ],
          "ads": false,
          "subtitle": []
        },
        {
          "episode": 7,
          "name": "Professor Lampwick",
          "iframe_url": "",
          "iframe_poster": "https://img.imgilall.me/movies/video/2/1/4/8/9/0/0/0/0/0/800x450_21489.jpeg",
          "release_ru": "2017-04-13",
          "release_world": "2017-04-12",
          "availability": "2017-04-14",
          "voiceActing": [
            "AlexFilm",
            "Eng.Original"
          ],
          "ads": false,
          "subtitle": []
        },
        {
          "episode": 8,
          "name": "Ralph",
          "iframe_url": "",
          "iframe_poster": "https://img.imgilall.me/movies/video/2/1/4/9/0/0/0/0/0/0/800x450_21490.jpeg",
          "release_ru": "2017-04-14",
          "release_world": "2017-04-13",
          "availability": "2017-04-15",
          "voiceActing": [
            "AlexFilm",
            "Eng.Original"
          ],
          "ads": false,
          "subtitle": []
        },
        {
          "episode": 9,
          "name": "Planet Bears",
          "iframe_url": "",
          "iframe_poster": "https://img.imgilall.me/movies/video/2/1/4/9/1/0/0/0/0/0/800x450_21491.jpeg",
          "release_ru": "2017-04-18",
          "release_world": "2017-04-17",
          "availability": "2017-04-19",
          "voiceActing": [
            "AlexFilm",
            "Eng.Original"
          ],
          "ads": false,
          "subtitle": []
        },
        {
          "episode": 10,
          "name": "Coffee Cave",
          "iframe_url": "",
          "iframe_poster": "https://img.imgilall.me/movies/video/2/1/4/9/2/0/0/0/0/0/800x450_21492.jpeg",
          "release_ru": "2017-04-19",
          "release_world": "2017-04-18",
          "availability": "2017-04-20",
          "voiceActing": [
            "AlexFilm",
            "Eng.Original"
          ],
          "ads": false,
          "subtitle": []
        },
        {
          "episode": 11,
          "name": "Charlie's Big Foot",
          "iframe_url": "",
          "iframe_poster": "https://img.imgilall.me/movies/video/2/1/4/9/3/0/0/0/0/0/800x450_21493.jpeg",
          "release_ru": "2017-04-20",
          "release_world": "2017-04-19",
          "availability": "2017-04-21",
          "voiceActing": [
            "AlexFilm",
            "Eng.Original"
          ],
          "ads": false,
          "subtitle": []
        },
        {
          "episode": 12,
          "name": "The Demon",
          "iframe_url": "",
          "iframe_poster": "https://img.imgilall.me/movies/video/2/1/4/9/4/0/0/0/0/0/800x450_21494.jpeg",
          "release_ru": "2017-04-21",
          "release_world": "2017-04-20",
          "availability": "2017-04-22",
          "voiceActing": [
            "AlexFilm",
            "Eng.Original"
          ],
          "ads": false,
          "subtitle": []
        },
        {
          "episode": 13,
          "name": "Panda's Art",
          "iframe_url": "",
          "iframe_poster": "https://img.imgilall.me/movies/video/2/1/4/9/5/0/0/0/0/0/800x450_21495.jpeg",
          "release_ru": "2017-04-25",
          "release_world": "2017-04-24",
          "availability": "2017-04-26",
          "voiceActing": [
            "AlexFilm",
            "Eng.Original"
          ],
          "ads": false,
          "subtitle": []
        },
        {
          "episode": 14,
          "name": "Poppy Rangers",
          "iframe_url": "",
          "iframe_poster": "https://img.imgilall.me/movies/video/2/1/4/9/6/0/0/0/0/0/800x450_21496.jpeg",
          "release_ru": "2017-04-26",
          "release_world": "2017-04-25",
          "availability": "2017-04-27",
          "voiceActing": [
            "AlexFilm",
            "Eng.Original"
          ],
          "ads": false,
          "subtitle": []
        },
        {
          "episode": 15,
          "name": "Lucy's Brother",
          "iframe_url": "",
          "iframe_poster": "https://img.imgilall.me/movies/video/2/1/4/9/7/0/0/0/0/0/800x450_21497.jpeg",
          "release_ru": "2017-04-27",
          "release_world": "2017-04-26",
          "availability": "2017-04-28",
          "voiceActing": [
            "AlexFilm",
            "Eng.Original"
          ],
          "ads": false,
          "subtitle": []
        },
        {
          "episode": 16,
          "name": "The Fair",
          "iframe_url": "",
          "iframe_poster": "https://img.imgilall.me/movies/video/2/1/4/9/8/0/0/0/0/0/800x450_21498.jpeg",
          "release_ru": "2017-08-08",
          "release_world": "2017-08-07",
          "availability": "2017-08-09",
          "voiceActing": [
            "AlexFilm",
            "Eng.Original"
          ],
          "ads": false,
          "subtitle": []
        },
        {
          "episode": 17,
          "name": "Private Lake",
          "iframe_url": "",
          "iframe_poster": "https://img.imgilall.me/movies/video/2/1/4/9/9/0/0/0/0/0/800x450_21499.jpeg",
          "release_ru": "2017-08-09",
          "release_world": "2017-08-08",
          "availability": "2017-08-10",
          "voiceActing": [
            "AlexFilm",
            "Eng.Original"
          ],
          "ads": false,
          "subtitle": []
        },
        {
          "episode": 18,
          "name": "Lunch with Tabes",
          "iframe_url": "",
          "iframe_poster": "https://img.imgilall.me/movies/video/2/1/5/0/0/0/0/0/0/0/800x450_21500.jpeg",
          "release_ru": "2017-08-10",
          "release_world": "2017-08-09",
          "availability": "2017-08-11",
          "voiceActing": [
            "AlexFilm",
            "Eng.Original"
          ],
          "ads": false,
          "subtitle": []
        },
        {
          "episode": 19,
          "name": "Road Trip",
          "iframe_url": "",
          "iframe_poster": "https://img.imgilall.me/movies/video/2/1/5/0/1/0/0/0/0/0/800x450_21501.jpeg",
          "release_ru": "2017-08-11",
          "release_world": "2017-08-10",
          "availability": "2017-08-12",
          "voiceActing": [
            "AlexFilm",
            "Eng.Original"
          ],
          "ads": false,
          "subtitle": []
        },
        {
          "episode": 20,
          "name": "Summer Love",
          "iframe_url": "",
          "iframe_poster": "https://img.imgilall.me/movies/video/2/1/5/0/2/0/0/0/0/0/800x450_21502.jpeg",
          "release_ru": "2017-08-12",
          "release_world": "2017-08-11",
          "availability": "2017-08-13",
          "voiceActing": [
            "AlexFilm",
            "Eng.Original"
          ],
          "ads": false,
          "subtitle": []
        },
        {
          "episode": 21,
          "name": "The Kitty",
          "iframe_url": "",
          "iframe_poster": "https://img.imgilall.me/movies/video/2/1/5/0/3/0/0/0/0/0/800x450_21503.jpeg",
          "release_ru": "2017-09-02",
          "release_world": "2017-09-01",
          "availability": "2017-09-03",
          "voiceActing": [
            "AlexFilm",
            "Eng.Original"
          ],
          "ads": false,
          "subtitle": []
        },
        {
          "episode": 22,
          "name": "Crowbar Jones",
          "iframe_url": "",
          "iframe_poster": "https://img.imgilall.me/movies/video/2/1/5/0/4/0/0/0/0/0/800x450_21504.jpeg",
          "release_ru": "2017-09-02",
          "release_world": "2017-09-01",
          "availability": "2017-09-03",
          "voiceActing": [
            "AlexFilm",
            "Eng.Original"
          ],
          "ads": false,
          "subtitle": []
        },
        {
          "episode": 23,
          "name": "Kyle",
          "iframe_url": "",
          "iframe_poster": "https://img.imgilall.me/movies/video/2/1/5/0/5/0/0/0/0/0/800x450_21505.jpeg",
          "release_ru": "2017-09-09",
          "release_world": "2017-09-08",
          "availability": "2017-09-10",
          "voiceActing": [
            "AlexFilm",
            "Eng.Original"
          ],
          "ads": false,
          "subtitle": []
        },
        {
          "episode": 24,
          "name": "Citizen Tabes",
          "iframe_url": "",
          "iframe_poster": "https://img.imgilall.me/movies/video/2/1/5/0/6/0/0/0/0/0/800x450_21506.jpeg",
          "release_ru": "2017-09-16",
          "release_world": "2017-09-15",
          "availability": "2017-09-17",
          "voiceActing": [
            "AlexFilm",
            "Eng.Original"
          ],
          "ads": false,
          "subtitle": []
        },
        {
          "episode": 25,
          "name": "Dance Lessons",
          "iframe_url": "",
          "iframe_poster": "https://img.imgilall.me/movies/video/2/1/5/0/7/0/0/0/0/0/800x450_21507.jpeg",
          "release_ru": "2017-09-23",
          "release_world": "2017-09-22",
          "availability": "2017-09-24",
          "voiceActing": [
            "AlexFilm",
            "Eng.Original"
          ],
          "ads": false,
          "subtitle": []
        },
        {
          "episode": 26,
          "name": "Icy Nights II",
          "iframe_url": "",
          "iframe_poster": "https://img.imgilall.me/movies/video/2/1/5/0/8/0/0/0/0/0/800x450_21508.jpeg",
          "release_ru": "2017-09-30",
          "release_world": "2017-09-29",
          "availability": "2017-10-01",
          "voiceActing": [
            "AlexFilm",
            "Eng.Original"
          ],
          "ads": false,
          "subtitle": []
        },
        {
          "episode": 27,
          "name": "Dog Hotel",
          "iframe_url": "",
          "iframe_poster": "https://img.imgilall.me/movies/video/2/1/5/0/9/0/0/0/0/0/800x450_21509.jpeg",
          "release_ru": "2017-10-07",
          "release_world": "2017-10-06",
          "availability": "2017-10-08",
          "voiceActing": [
            "AlexFilm",
            "Eng.Original"
          ],
          "ads": false,
          "subtitle": []
        },
        {
          "episode": 28,
          "name": "Bear Lift",
          "iframe_url": "",
          "iframe_poster": "https://img.imgilall.me/movies/video/2/1/5/1/0/0/0/0/0/0/800x450_21510.jpeg",
          "release_ru": "2017-10-14",
          "release_world": "2017-10-13",
          "availability": "2017-10-15",
          "voiceActing": [
            "AlexFilm",
            "Eng.Original"
          ],
          "ads": false,
          "subtitle": []
        },
        {
          "episode": 29,
          "name": "The Nom Nom Show",
          "iframe_url": "",
          "iframe_poster": "https://img.imgilall.me/movies/video/2/1/5/1/1/0/0/0/0/0/800x450_21511.jpeg",
          "release_ru": "2017-10-14",
          "release_world": "2017-10-13",
          "availability": "2017-10-15",
          "voiceActing": [
            "AlexFilm",
            "Eng.Original"
          ],
          "ads": false,
          "subtitle": []
        },
        {
          "episode": 30,
          "name": "Ice Cave",
          "iframe_url": "",
          "iframe_poster": "https://img.imgilall.me/movies/video/2/1/5/1/2/0/0/0/0/0/800x450_21512.jpeg",
          "release_ru": "2017-10-21",
          "release_world": "2017-10-20",
          "availability": "2017-10-22",
          "voiceActing": [
            "AlexFilm",
            "Eng.Original"
          ],
          "ads": false,
          "subtitle": []
        },
        {
          "episode": 31,
          "name": "Spa Day",
          "iframe_url": "",
          "iframe_poster": "https://img.imgilall.me/movies/video/2/1/5/1/3/0/0/0/0/0/800x450_21513.jpeg",
          "release_ru": "2017-10-21",
          "release_world": "2017-10-20",
          "availability": "2017-10-22",
          "voiceActing": [
            "AlexFilm",
            "Eng.Original"
          ],
          "ads": false,
          "subtitle": []
        },
        {
          "episode": 32,
          "name": "Charlie's Halloween Thing",
          "iframe_url": "",
          "iframe_poster": "https://img.imgilall.me/movies/video/2/1/5/1/4/0/0/0/0/0/800x450_21514.jpeg",
          "release_ru": "2017-10-28",
          "release_world": "2017-10-27",
          "availability": "2017-10-29",
          "voiceActing": [
            "AlexFilm",
            "Eng.Original"
          ],
          "ads": false,
          "subtitle": []
        },
        {
          "episode": 33,
          "name": "Bunnies",
          "iframe_url": "",
          "iframe_poster": "https://img.imgilall.me/movies/video/2/1/5/1/5/0/0/0/0/0/800x450_21515.jpeg",
          "release_ru": "2017-11-04",
          "release_world": "2017-11-03",
          "availability": "2017-11-05",
          "voiceActing": [
            "AlexFilm",
            "Eng.Original"
          ],
          "ads": false,
          "subtitle": []
        },
        {
          "episode": 34,
          "name": "Pigeons",
          "iframe_url": "",
          "iframe_poster": "https://img.imgilall.me/movies/video/2/1/5/1/6/0/0/0/0/0/800x450_21516.jpeg",
          "release_ru": "2017-11-04",
          "release_world": "2017-11-03",
          "availability": "2017-11-05",
          "voiceActing": [
            "AlexFilm",
            "Eng.Original"
          ],
          "ads": false,
          "subtitle": []
        },
        {
          "episode": 35,
          "name": "Tubin'",
          "iframe_url": "",
          "iframe_poster": "https://img.imgilall.me/movies/video/2/1/5/1/7/0/0/0/0/0/800x450_21517.jpeg",
          "release_ru": "2017-11-11",
          "release_world": "2017-11-10",
          "availability": "2017-11-12",
          "voiceActing": [
            "AlexFilm",
            "Eng.Original"
          ],
          "ads": false,
          "subtitle": []
        },
        {
          "episode": 36,
          "name": "Panda 2",
          "iframe_url": "",
          "iframe_poster": "https://img.imgilall.me/movies/video/2/1/5/1/8/0/0/0/0/0/800x450_21518.jpeg",
          "release_ru": "2017-11-11",
          "release_world": "2017-11-10",
          "availability": "2017-11-12",
          "voiceActing": [
            "AlexFilm",
            "Eng.Original"
          ],
          "ads": false,
          "subtitle": []
        },
        {
          "episode": 37,
          "name": "Lazer Royale",
          "iframe_url": "",
          "iframe_poster": "https://img.imgilall.me/movies/video/2/1/5/1/9/0/0/0/0/0/800x450_21519.jpeg",
          "release_ru": "2017-11-18",
          "release_world": "2017-11-17",
          "availability": "2017-11-19",
          "voiceActing": [
            "AlexFilm",
            "Eng.Original"
          ],
          "ads": false,
          "subtitle": []
        },
        {
          "episode": 38,
          "name": "Ranger Games",
          "iframe_url": "",
          "iframe_poster": "https://img.imgilall.me/movies/video/2/1/5/2/0/0/0/0/0/0/800x450_21520.jpeg",
          "release_ru": "2017-11-18",
          "release_world": "2017-11-17",
          "availability": "2017-11-19",
          "voiceActing": [
            "AlexFilm",
            "Eng.Original"
          ],
          "ads": false,
          "subtitle": []
        },
        {
          "episode": 39,
          "name": "The Perfect Tree",
          "iframe_url": "",
          "iframe_poster": "https://img.imgilall.me/movies/video/2/1/5/2/1/0/0/0/0/0/800x450_21521.jpeg",
          "release_ru": "2017-12-02",
          "release_world": "2017-12-01",
          "availability": "2017-12-03",
          "voiceActing": [
            "AlexFilm",
            "Eng.Original"
          ],
          "ads": false,
          "subtitle": []
        },
        {
          "episode": 40,
          "name": null,
          "iframe_url": "",
          "iframe_poster": "https://img.imgilall.me/movies/video/2/1/5/2/2/0/0/0/0/0/800x450_21522.jpeg",
          "release_ru": null,
          "release_world": null,
          "availability": null,
          "voiceActing": [
            "AlexFilm",
            "Eng.Original"
          ],
          "ads": false,
          "subtitle": []
        },
        {
          "episode": 41,
          "name": null,
          "iframe_url": "",
          "iframe_poster": "https://img.imgilall.me/movies/video/2/6/8/1/0/0/0/0/0/0/800x450_26810.jpeg",
          "release_ru": null,
          "release_world": null,
          "availability": null,
          "voiceActing": [
            "AlexFilm",
            "Eng.Original"
          ],
          "ads": false,
          "subtitle": []
        },
        {
          "episode": 42,
          "name": null,
          "iframe_url": "",
          "iframe_poster": "https://img.imgilall.me/movies/video/2/6/8/1/1/0/0/0/0/0/800x450_26811.jpeg",
          "release_ru": null,
          "release_world": null,
          "availability": null,
          "voiceActing": [
            "AlexFilm",
            "Eng.Original"
          ],
          "ads": false,
          "subtitle": []
        },
        {
          "episode": 43,
          "name": null,
          "iframe_url": "",
          "iframe_poster": "https://img.imgilall.me/movies/video/2/6/8/1/2/0/0/0/0/0/800x450_26812.jpeg",
          "release_ru": null,
          "release_world": null,
          "availability": null,
          "voiceActing": [
            "AlexFilm",
            "Eng.Original"
          ],
          "ads": false,
          "subtitle": []
        },
        {
          "episode": 44,
          "name": null,
          "iframe_url": "",
          "iframe_poster": "https://img.imgilall.me/movies/video/2/6/8/1/3/0/0/0/0/0/800x450_26813.jpeg",
          "release_ru": null,
          "release_world": null,
          "availability": null,
          "voiceActing": [
            "AlexFilm",
            "Eng.Original"
          ],
          "ads": false,
          "subtitle": []
        }
      ]
    },
    {
      "poster": "https://img.imgilall.me/movies/season/1/6/6/8/0/0/0/0/0/0/610x900_1668.jpg",
      "release_ru": "2018-01-06",
      "release_world": "2018-01-05",
      "availability": "2018-01-07",
      "iframe_url": "",
      "season": 4,
      "episodes": [
        {
          "episode": 1,
          "name": "Bearz II Men",
          "iframe_url": "",
          "iframe_poster": "https://img.imgilall.me/movies/video/2/6/8/9/6/0/0/0/0/0/800x450_26896.jpeg",
          "release_ru": "2018-01-06",
          "release_world": "2018-01-05",
          "availability": "2018-01-07",
          "voiceActing": [
            "AlexFilm",
            "Eng.Original"
          ],
          "ads": false,
          "subtitle": []
        },
        {
          "episode": 2,
          "name": "Bro Brawl",
          "iframe_url": "",
          "iframe_poster": "https://img.imgilall.me/movies/video/2/6/8/9/8/0/0/0/0/0/800x450_26898.jpeg",
          "release_ru": "2018-01-06",
          "release_world": "2018-01-05",
          "availability": "2018-01-07",
          "voiceActing": [
            "AlexFilm",
            "Eng.Original"
          ],
          "ads": false,
          "subtitle": []
        },
        {
          "episode": 3,
          "name": "Hurricane Hal",
          "iframe_url": "",
          "iframe_poster": "https://img.imgilall.me/movies/video/2/6/8/9/9/0/0/0/0/0/800x450_26899.jpeg",
          "release_ru": "2018-01-13",
          "release_world": "2018-01-12",
          "availability": "2018-01-14",
          "voiceActing": [
            "AlexFilm",
            "Eng.Original"
          ],
          "ads": false,
          "subtitle": []
        },
        {
          "episode": 4,
          "name": "Vacation",
          "iframe_url": "",
          "iframe_poster": "https://img.imgilall.me/movies/video/2/6/9/0/0/0/0/0/0/0/800x450_26900.jpeg",
          "release_ru": "2018-01-20",
          "release_world": "2018-01-19",
          "availability": "2018-01-21",
          "voiceActing": [
            "AlexFilm",
            "Eng.Original"
          ],
          "ads": false,
          "subtitle": []
        },
        {
          "episode": 5,
          "name": "Beehive",
          "iframe_url": "",
          "iframe_poster": "https://img.imgilall.me/movies/video/2/6/9/0/2/0/0/0/0/0/800x450_26902.jpeg",
          "release_ru": "2018-01-27",
          "release_world": "2018-01-26",
          "availability": "2018-01-28",
          "voiceActing": [
            "AlexFilm",
            "Eng.Original"
          ],
          "ads": false,
          "subtitle": []
        },
        {
          "episode": 6,
          "name": "The Park",
          "iframe_url": "",
          "iframe_poster": "https://img.imgilall.me/movies/video/2/6/9/0/3/0/0/0/0/0/800x450_26903.jpeg",
          "release_ru": "2018-02-03",
          "release_world": "2018-02-02",
          "availability": "2018-02-04",
          "voiceActing": [
            "AlexFilm",
            "Eng.Original"
          ],
          "ads": false,
          "subtitle": []
        },
        {
          "episode": 7,
          "name": "I Am Ice Bear",
          "iframe_url": "",
          "iframe_poster": "https://img.imgilall.me/movies/video/2/6/9/0/4/0/0/0/0/0/800x450_26904.jpeg",
          "release_ru": "2018-02-10",
          "release_world": "2018-02-09",
          "availability": "2018-02-11",
          "voiceActing": [
            "AlexFilm",
            "Eng.Original"
          ],
          "ads": false,
          "subtitle": []
        },
        {
          "episode": 8,
          "name": "Baby Bears Can't Jump",
          "iframe_url": "",
          "iframe_poster": "https://img.imgilall.me/movies/video/4/6/0/3/3/0/0/0/0/0/800x450_46033.jpeg",
          "release_ru": "2018-02-17",
          "release_world": "2018-02-16",
          "availability": "2018-02-18",
          "voiceActing": [
            "AlexFilm",
            "Eng.Original"
          ],
          "ads": false,
          "subtitle": []
        },
        {
          "episode": 9,
          "name": "Go Fish",
          "iframe_url": "",
          "iframe_poster": "https://img.imgilall.me/movies/video/4/6/0/3/4/0/0/0/0/0/800x450_46034.jpeg",
          "release_ru": "2018-07-31",
          "release_world": "2018-07-30",
          "availability": "2018-08-01",
          "voiceActing": [
            "AlexFilm",
            "Eng.Original"
          ],
          "ads": false,
          "subtitle": []
        },
        {
          "episode": 10,
          "name": "Teacher's Pet",
          "iframe_url": "",
          "iframe_poster": "https://img.imgilall.me/movies/video/7/1/6/4/0/0/0/0/0/0/800x450_71640.jpeg",
          "release_ru": "2018-07-31",
          "release_world": "2018-07-30",
          "availability": "2018-08-01",
          "voiceActing": [
            "AlexFilm",
            "Eng.Original"
          ],
          "ads": false,
          "subtitle": []
        },
        {
          "episode": 11,
          "name": "Googs",
          "iframe_url": "",
          "iframe_poster": "https://img.imgilall.me/movies/video/7/1/6/4/1/0/0/0/0/0/800x450_71641.jpeg",
          "release_ru": "2018-07-31",
          "release_world": "2018-07-30",
          "availability": "2018-08-01",
          "voiceActing": [
            "AlexFilm",
            "Eng.Original"
          ],
          "ads": false,
          "subtitle": []
        },
        {
          "episode": 12,
          "name": "Paperboyz",
          "iframe_url": "",
          "iframe_poster": "https://img.imgilall.me/movies/video/9/6/2/5/1/0/0/0/0/0/800x450_96251.jpeg",
          "release_ru": "2018-07-31",
          "release_world": "2018-07-30",
          "availability": "2018-08-01",
          "voiceActing": [
            "AlexFilm",
            "Eng.Original"
          ],
          "ads": false,
          "subtitle": []
        },
        {
          "episode": 13,
          "name": "Bear Squad",
          "iframe_url": "",
          "iframe_poster": "https://img.imgilall.me/movies/video/9/6/2/5/2/0/0/0/0/0/800x450_96252.jpeg",
          "release_ru": "2018-07-31",
          "release_world": "2018-07-30",
          "availability": "2018-08-01",
          "voiceActing": [
            "AlexFilm",
            "Eng.Original"
          ],
          "ads": false,
          "subtitle": []
        },
        {
          "episode": 14,
          "name": "Lil' Squid",
          "iframe_url": "",
          "iframe_poster": "https://img.imgilall.me/movies/video/9/6/2/4/9/0/0/0/0/0/800x450_96249.jpeg",
          "release_ru": "2018-07-31",
          "release_world": "2018-07-30",
          "availability": "2018-08-01",
          "voiceActing": [
            "AlexFilm",
            "Eng.Original"
          ],
          "ads": false,
          "subtitle": []
        },
        {
          "episode": 15,
          "name": "I, Butler",
          "iframe_url": "",
          "iframe_poster": "https://img.imgilall.me/movies/video/9/6/2/4/8/0/0/0/0/0/800x450_96248.jpeg",
          "release_ru": "2018-07-31",
          "release_world": "2018-07-30",
          "availability": "2018-08-01",
          "voiceActing": [
            "AlexFilm",
            "Eng.Original"
          ],
          "ads": false,
          "subtitle": []
        },
        {
          "episode": 16,
          "name": "Family Troubles",
          "iframe_url": "",
          "iframe_poster": "https://img.imgilall.me/movies/video/9/6/2/5/3/0/0/0/0/0/800x450_96253.jpeg",
          "release_ru": "2018-07-31",
          "release_world": "2018-07-30",
          "availability": "2018-08-01",
          "voiceActing": [
            "AlexFilm",
            "Eng.Original"
          ],
          "ads": false,
          "subtitle": []
        },
        {
          "episode": 17,
          "name": "Best Bears",
          "iframe_url": "",
          "iframe_poster": "https://img.imgilall.me/movies/video/9/6/2/5/0/0/0/0/0/0/800x450_96250.jpeg",
          "release_ru": "2018-08-07",
          "release_world": "2018-08-06",
          "availability": "2018-08-08",
          "voiceActing": [
            "AlexFilm",
            "Eng.Original"
          ],
          "ads": false,
          "subtitle": []
        },
        {
          "episode": "18-19",
          "name": "Hot Sauce",
          "iframe_url": "",
          "iframe_poster": "https://img.imgilall.me/movies/video/1/0/9/8/2/4/0/0/0/0/800x450_109824.jpeg",
          "release_ru": "2018-08-09",
          "release_world": "2018-08-08",
          "availability": "2018-08-10",
          "voiceActing": [
            "AlexFilm",
            "Eng.Original"
          ],
          "ads": false,
          "subtitle": []
        },
        {
          "episode": 20,
          "name": "Mom App",
          "iframe_url": "",
          "iframe_poster": "https://img.imgilall.me/movies/video/1/0/9/8/2/1/0/0/0/0/800x450_109821.jpeg",
          "release_ru": "2018-08-10",
          "release_world": "2018-08-09",
          "availability": "2018-08-11",
          "voiceActing": [
            "AlexFilm",
            "Eng.Original"
          ],
          "ads": false,
          "subtitle": []
        },
        {
          "episode": 21,
          "name": "The Limo",
          "iframe_url": "",
          "iframe_poster": "https://img.imgilall.me/movies/video/1/0/9/8/2/3/0/0/0/0/800x450_109823.jpeg",
          "release_ru": "2018-08-11",
          "release_world": "2018-08-10",
          "availability": "2018-08-12",
          "voiceActing": [
            "AlexFilm",
            "Eng.Original"
          ],
          "ads": false,
          "subtitle": []
        },
        {
          "episode": 22,
          "name": "More Everyone's Tube",
          "iframe_url": "",
          "iframe_poster": "https://img.imgilall.me/movies/video/1/0/9/8/2/2/0/0/0/0/800x450_109822.jpeg",
          "release_ru": "2018-08-14",
          "release_world": "2018-08-13",
          "availability": "2018-08-15",
          "voiceActing": [
            "AlexFilm",
            "Eng.Original"
          ],
          "ads": false,
          "subtitle": []
        },
        {
          "episode": 23,
          "name": "Money Man",
          "iframe_url": "",
          "iframe_poster": "https://img.imgilall.me/movies/video/1/1/2/5/7/8/0/0/0/0/800x450_112578.jpeg",
          "release_ru": "2018-08-15",
          "release_world": "2018-08-14",
          "availability": "2018-08-16",
          "voiceActing": [
            "AlexFilm",
            "Eng.Original"
          ],
          "ads": false,
          "subtitle": []
        },
        {
          "episode": 24,
          "name": "Rescue Ranger",
          "iframe_url": "",
          "iframe_poster": null,
          "release_ru": "2018-08-16",
          "release_world": "2018-08-15",
          "availability": "2018-08-17",
          "voiceActing": [
            "AlexFilm",
            "Eng.Original"
          ],
          "ads": false,
          "subtitle": []
        },
        {
          "episode": 25,
          "name": "El Oso",
          "iframe_url": "",
          "iframe_poster": null,
          "release_ru": "2018-08-17",
          "release_world": "2018-08-16",
          "availability": "2018-08-18",
          "voiceActing": [
            "AlexFilm",
            "Eng.Original"
          ],
          "ads": false,
          "subtitle": []
        },
        {
          "episode": 26,
          "name": "Charlie's Halloween Thing 2",
          "iframe_url": "",
          "iframe_poster": null,
          "release_ru": "2018-10-20",
          "release_world": "2018-10-19",
          "availability": "2018-10-21",
          "voiceActing": [
            "AlexFilm",
            "Eng.Original"
          ],
          "ads": false,
          "subtitle": []
        },
        {
          "episode": 27,
          "name": "Escandalosos",
          "iframe_url": "",
          "iframe_poster": null,
          "release_ru": "2018-11-06",
          "release_world": "2018-11-05",
          "availability": "2018-11-07",
          "voiceActing": [
            "AlexFilm",
            "Eng.Original"
          ],
          "ads": false,
          "subtitle": []
        },
        {
          "episode": 28,
          "name": "Pizza Band",
          "iframe_url": "",
          "iframe_poster": null,
          "release_ru": "2018-11-07",
          "release_world": "2018-11-06",
          "availability": "2018-11-08",
          "voiceActing": [
            "AlexFilm",
            "Eng.Original"
          ],
          "ads": false,
          "subtitle": []
        },
        {
          "episode": 29,
          "name": "Adopted",
          "iframe_url": "",
          "iframe_poster": null,
          "release_ru": "2018-11-08",
          "release_world": "2018-11-07",
          "availability": "2018-11-09",
          "voiceActing": [
            "AlexFilm",
            "Eng.Original"
          ],
          "ads": false,
          "subtitle": []
        },
        {
          "episode": 30,
          "name": "Wingmen",
          "iframe_url": "",
          "iframe_poster": null,
          "release_ru": "2018-11-09",
          "release_world": "2018-11-08",
          "availability": "2018-11-10",
          "voiceActing": [
            "AlexFilm",
            "Eng.Original"
          ],
          "ads": false,
          "subtitle": []
        },
        {
          "episode": 31,
          "name": "Braces",
          "iframe_url": "",
          "iframe_poster": null,
          "release_ru": "2018-11-10",
          "release_world": "2018-11-09",
          "availability": "2018-11-11",
          "voiceActing": [
            "AlexFilm",
            "Eng.Original"
          ],
          "ads": false,
          "subtitle": []
        },
        {
          "episode": 32,
          "name": "Christmas Movies",
          "iframe_url": "",
          "iframe_poster": null,
          "release_ru": "2018-12-18",
          "release_world": "2018-12-17",
          "availability": "2018-12-19",
          "voiceActing": [
            "AlexFilm",
            "Eng.Original"
          ],
          "ads": false,
          "subtitle": []
        },
        {
          "episode": 33,
          "name": "Imaginary Friend",
          "iframe_url": "",
          "iframe_poster": null,
          "release_ru": "2019-01-29",
          "release_world": "2019-01-28",
          "availability": "2019-01-30",
          "voiceActing": [
            "AlexFilm",
            "Eng.Original"
          ],
          "ads": false,
          "subtitle": []
        },
        {
          "episode": 34,
          "name": "The Mall",
          "iframe_url": "",
          "iframe_poster": null,
          "release_ru": "2019-02-05",
          "release_world": "2019-02-04",
          "availability": "2019-02-06",
          "voiceActing": [
            "AlexFilm",
            "Eng.Original"
          ],
          "ads": false,
          "subtitle": []
        },
        {
          "episode": 35,
          "name": "Tunnels",
          "iframe_url": "",
          "iframe_poster": null,
          "release_ru": "2019-02-12",
          "release_world": "2019-02-11",
          "availability": "2019-02-13",
          "voiceActing": [
            "AlexFilm",
            "Eng.Original"
          ],
          "ads": false,
          "subtitle": []
        },
        {
          "episode": 36,
          "name": "Ramen",
          "iframe_url": "",
          "iframe_poster": null,
          "release_ru": "2019-02-19",
          "release_world": "2019-02-18",
          "availability": "2019-02-20",
          "voiceActing": [
            "AlexFilm",
            "Eng.Original"
          ],
          "ads": false,
          "subtitle": []
        },
        {
          "episode": 37,
          "name": "The Gym",
          "iframe_url": "",
          "iframe_poster": "https://img.imgilall.me/movies/video/7/3/5/4/4/0/0/0/0/0/800x450_73544.jpeg",
          "release_ru": "2019-02-26",
          "release_world": "2019-02-25",
          "availability": "2019-02-27",
          "voiceActing": [
            "Cold Film"
          ],
          "ads": true,
          "subtitle": []
        },
        {
          "episode": 38,
          "name": "Bubble",
          "iframe_url": "",
          "iframe_poster": "https://img.imgilall.me/movies/video/7/3/5/5/2/0/0/0/0/0/800x450_73552.jpeg",
          "release_ru": "2019-03-05",
          "release_world": "2019-03-04",
          "availability": "2019-03-06",
          "voiceActing": [
            "Cold Film"
          ],
          "ads": true,
          "subtitle": []
        },
        {
          "episode": 39,
          "name": "Baby Orphan Ninja Bears",
          "iframe_url": "",
          "iframe_poster": null,
          "release_ru": "2019-03-12",
          "release_world": "2019-03-11",
          "availability": "2019-03-13",
          "voiceActing": [
            "Рус. Люб. многоголосый"
          ],
          "ads": false,
          "subtitle": []
        },
        {
          "episode": 40,
          "name": "Fire!",
          "iframe_url": "",
          "iframe_poster": null,
          "release_ru": "2019-03-19",
          "release_world": "2019-03-18",
          "availability": "2019-03-20",
          "voiceActing": [
            "Рус. Люб. многоголосый"
          ],
          "ads": false,
          "subtitle": []
        },
        {
          "episode": 41,
          "name": "Ranger Norm",
          "iframe_url": "",
          "iframe_poster": null,
          "release_ru": "2019-03-19",
          "release_world": "2019-03-18",
          "availability": "2019-03-20",
          "voiceActing": [
            "AlexFilm",
            "Eng.Original"
          ],
          "ads": false,
          "subtitle": []
        },
        {
          "episode": 42,
          "name": "Shmorby",
          "iframe_url": "",
          "iframe_poster": null,
          "release_ru": "2019-03-26",
          "release_world": "2019-03-25",
          "availability": "2019-03-27",
          "voiceActing": [
            "AlexFilm",
            "Eng.Original"
          ],
          "ads": false,
          "subtitle": []
        },
        {
          "episode": 43,
          "name": "Snake Babies",
          "iframe_url": "",
          "iframe_poster": null,
          "release_ru": "2019-03-26",
          "release_world": "2019-03-25",
          "availability": "2019-03-27",
          "voiceActing": [
            "AlexFilm",
            "Eng.Original"
          ],
          "ads": false,
          "subtitle": []
        },
        {
          "episode": 44,
          "name": "Sandcastle",
          "iframe_url": "",
          "iframe_poster": null,
          "release_ru": "2019-04-02",
          "release_world": "2019-04-01",
          "availability": "2019-04-03",
          "voiceActing": [
            "AlexFilm",
            "Eng.Original"
          ],
          "ads": false,
          "subtitle": []
        },
        {
          "episode": 45,
          "name": "Bros in the City",
          "iframe_url": null,
          "iframe_poster": null,
          "release_ru": "2019-04-04",
          "release_world": "2019-04-03",
          "availability": "2019-04-05",
          "voiceActing": []
        },
        {
          "episode": 46,
          "name": "Cousin Jon",
          "iframe_url": null,
          "iframe_poster": null,
          "release_ru": "2019-04-05",
          "release_world": "2019-04-04",
          "availability": "2019-04-06",
          "voiceActing": []
        },
        {
          "episode": 47,
          "name": "Lord of the Poppies",
          "iframe_url": null,
          "iframe_poster": null,
          "release_ru": "2019-04-06",
          "release_world": "2019-04-05",
          "availability": "2019-04-07",
          "voiceActing": []
        },
        {
          "episode": 48,
          "name": "The Mummy's Curse",
          "iframe_url": null,
          "iframe_poster": null,
          "release_ru": "2019-04-30",
          "release_world": "2019-04-29",
          "availability": "2019-05-01",
          "voiceActing": []
        },
        {
          "episode": 49,
          "name": "Band of Outsiders",
          "iframe_url": null,
          "iframe_poster": null,
          "release_ru": "2019-05-07",
          "release_world": "2019-05-06",
          "availability": "2019-05-08",
          "voiceActing": []
        },
        {
          "episode": 50,
          "name": "Tabes & Charlie",
          "iframe_url": null,
          "iframe_poster": null,
          "release_ru": "2019-05-14",
          "release_world": "2019-05-13",
          "availability": "2019-05-15",
          "voiceActing": []
        },
        {
          "episode": 51,
          "name": "Panda's Birthday",
          "iframe_url": null,
          "iframe_poster": null,
          "release_ru": "2019-05-28",
          "release_world": "2019-05-27",
          "availability": "2019-05-29",
          "voiceActing": []
        }
      ]
    }
  ],
  "voiceActing": [
    "AlexFilm",
    "Eng.Original",
    "Cold Film",
    "Рус. Люб. многоголосый"
  ],
  "subtitle": [],
  "parts": []
}
