{
  "id": 6311,
  "name": "Я и ты и все, кого мы знаем",
  "name_eng": "Me and You and Everyone We Know",
  "year": 2005,
  "slogan": null,
  "age": "16+",
  "type": "film",
  "quality": "SD",
  "imdb": "7.3",
  "imdb_id": "0415978",
  "kinopoisk": "6.6",
  "kinopoisk_id": "93038",
  "world_art": null,
  "world_art_id": null,
  "time": "91 мин. / 01:31",
  "ads": false,
  "premier": "2005-03-14",
  "premier_rus": null,
  "availability": null,
  "activate_time": "2019-02-25 16:50:54",
  "budget": "$2 000 000",
  "fees_use": "$3 885 134",
  "fees_world": "$7 715 525",
  "fees_rus": null,
  "rate_mpaa": "R",
  "description": "Ричард Суирси, отец-одиночка, воспитывающий двоих сыновей, вполне готов к семейным переменам, но когда очаровательная и порывистая Кристин, самобытная художница и лихой водитель «Элдеркэба», врывается в его жизнь, Ричарда охватывает паника. В то же самое время его семилетний сын Робби завязывает свой первый, правда пока виртуальный роман с прекрасной незнакомкой, а 14-летний Питер вновь и вновь становится «подопытным кроликом» для соседских девочек, которые репетируют на парне свои будущие романтические отношения…",
  "iframe_url": "",
  "iframe_poster": "https://img.imgilall.me/movies/video/6/4/9/8/0/0/0/0/0/0/800x450_64980.jpeg",
  "poster": "https://img.imgilall.me/movies/franchise/6/3/1/1/0/0/0/0/0/0/610x900_6311.jpg",
  "country": {
    "1": "США",
    "2": "Великобритания"
  },
  "collection": [],
  "genre": {
    "19": "Комедия",
    "7": "Драма"
  },
  "director": [
    "Миранда Джулай"
  ],
  "screenwriter": [
    "Миранда Джулай"
  ],
  "producer": [
    "Джина Вонг",
    "Холли Бекер",
    "Питер Карлтон"
  ],
  "operator": [
    "Чуй Чавес"
  ],
  "composer": [
    "Майкл Эндрюс"
  ],
  "design": [
    "Аран Манн",
    "Джон Уайатт",
    "Кристи Уиттенборн"
  ],
  "editor": [
    "Эндрю Диклер",
    "Чарльз Айрлэнд"
  ],
  "actors": [
    "Джон Хоукс",
    "Миранда Джулай",
    "Майлз Томпсон",
    "Брэндон Рэтклифф",
    "Карли Вестерман",
    "Эктор Элиас",
    "Брэд Уильям Хенке",
    "Наташа Слэйтон",
    "Неджарра Таунсенд",
    "Трэйси Райт"
  ],
  "actors_dubl": [],
  "trivia": [],
  "trailers": [],
  "seasons": [],
  "voiceActing": [
    "Рус. Люб. одноголосый"
  ],
  "subtitle": [],
  "parts": []
}
