{
  "id": 26439,
  "name": "Во веки вечные",
  "name_eng": "",
  "year": 2015,
  "slogan": "—",
  "age": "16+",
  "type": "film",
  "quality": "HD (720p)",
  "imdb": null,
  "imdb_id": null,
  "kinopoisk": null,
  "kinopoisk_id": "932563",
  "world_art": null,
  "world_art_id": null,
  "time": "82 мин. / 01:22",
  "ads": false,
  "premier": null,
  "premier_rus": "2017-03-15",
  "availability": "2017-03-16",
  "activate_time": "2020-06-27 11:51:00",
  "budget": null,
  "fees_use": null,
  "fees_world": null,
  "fees_rus": null,
  "rate_mpaa": null,
  "description": "Стареющий писатель уже много лет не выходит из депрессии после разрыва с женой. Единственное, что связывает его с реальным миром – это дочь-подросток, о которой он должен заботиться. Но однажды в его жизни появляется таинственная и прекрасная Анна. Любовь к ней возвращает героя к жизни и вдохновляет на написание романа, который приносит громкий успех. Однако его дочь решает покопаться в прошлом новоиспечённой мачехи и с удивлением узнаёт, что Анна не числится в живых…",
  "iframe_url": "",
  "iframe_poster": null,
  "poster": "https://img.imgilall.me/movies/franchise/2/6/4/3/9/0/0/0/0/0/610x900_26439.jpg",
  "country": {
    "5": "Россия"
  },
  "collection": [],
  "genre": {
    "13": "Триллер",
    "7": "Драма"
  },
  "director": [
    "Владимир Чубриков"
  ],
  "screenwriter": [
    "Ольга Елагина",
    "Владимир Чубриков"
  ],
  "producer": [
    "Ирина Красноярова",
    "Татьяна Дубинина",
    "Олег Вакулин"
  ],
  "operator": [
    "Анна Меликова"
  ],
  "composer": [],
  "design": [
    "Максим Ривака",
    "Елена Фёдорова"
  ],
  "editor": [
    "Егор Климович",
    "Дмитрий Рубежин"
  ],
  "actors": [
    "Валерий Сторожик",
    "Ольга Макеева",
    "Полина Слепакова",
    "Елена Никитина",
    "Людмила Колесникова",
    "Ольга Веникова",
    "Сергей Тезов",
    "Александра Абрамейцева",
    "Никита Прозоровский",
    "Ёла Санько"
  ],
  "actors_dubl": [],
  "trivia": [],
  "trailers": [],
  "seasons": [],
  "voiceActing": [
    "Original"
  ],
  "subtitle": [],
  "parts": []
}
