{
  "id": 29543,
  "name": "Пересечение 10-й и Вульф",
  "name_eng": "10th & Wolf",
  "year": 2005,
  "slogan": "«Where an ounce of blood is worth more than a pound of friendship...»",
  "age": "16+",
  "type": "film",
  "quality": "HD (720p)",
  "imdb": "6.3",
  "imdb_id": "0360323",
  "kinopoisk": "6.2",
  "kinopoisk_id": "9360",
  "world_art": null,
  "world_art_id": null,
  "time": "107 мин. / 01:47",
  "ads": false,
  "premier": "2006-04-21",
  "premier_rus": "2006-04-22",
  "availability": "2006-04-23",
  "activate_time": "2020-09-09 13:36:00",
  "budget": "$8 000 000",
  "fees_use": "$54 702",
  "fees_world": "+ $88 749 = $143 451",
  "fees_rus": null,
  "rate_mpaa": "R",
  "description": "Томми был еще ребенком, когда убили его отца, одного из главарей мафии Филадельфии. Его брат и кузен остаются верны «семейному делу», но сам Томми решает завязать со своим прошлым и идет служить в армию.Когда из-за конфликта с командованием ему грозит военный трибунал, агенты ФБР в обмен на свободу предлагают ему вернуться в преступный бизнес и стать тайным осведомителем. Томми предстоит сделать самый трудный выбор: или пойти против закона, или предать брата и друга...",
  "iframe_url": "",
  "iframe_poster": null,
  "poster": "https://img.imgilall.me/movies/franchise/2/9/5/4/3/0/0/0/0/0/610x900_29543.jpg",
  "country": {
    "1": "США"
  },
  "collection": [],
  "genre": {
    "25": "Криминал",
    "13": "Триллер",
    "7": "Драма"
  },
  "director": [
    "Роберт Мореско"
  ],
  "screenwriter": [
    "Роберт Мореско",
    "Аллан Стил"
  ],
  "producer": [
    "Лео Росси",
    "Карен Армстронг",
    "Сюзанн ДеЛорентис"
  ],
  "operator": [
    "Алекс Непомнящий"
  ],
  "composer": [
    "Аарон Цигман"
  ],
  "design": [
    "Рэндо Шмук",
    "Пол Буччьярелли",
    "Эбигейл Мюррэй"
  ],
  "editor": [
    "Харви Розенсток"
  ],
  "actors": [
    "Джеймс Марсден",
    "Джованни Рибизи",
    "Брэд Ренфро",
    "Пайпер Перабо",
    "Деннис Хоппер",
    "Брайан Деннехи",
    "Лесли Энн Уоррен",
    "Лео Росси",
    "Дэш Майок",
    "Томми Ли"
  ],
  "actors_dubl": [],
  "trivia": [],
  "trailers": [],
  "seasons": [],
  "voiceActing": [
    "Рус. Проф. многоголосый"
  ],
  "subtitle": [],
  "parts": []
}
