{
  "id": 51250,
  "name": "Операция «Бикини»",
  "name_eng": "Operation Bikini",
  "year": 1963,
  "slogan": "«The Untold Story of the Navy's Underwater Demolition Teams!»",
  "age": "18+",
  "type": "film",
  "quality": "SD",
  "imdb": "3.7",
  "imdb_id": "0057387",
  "kinopoisk": null,
  "kinopoisk_id": "93475",
  "world_art": null,
  "world_art_id": null,
  "time": "77 мин. / 01:17",
  "ads": false,
  "premier": "1963-03-26",
  "premier_rus": "1963-03-27",
  "availability": "1963-03-28",
  "activate_time": "2021-10-08 11:25:00",
  "budget": null,
  "fees_use": null,
  "fees_world": null,
  "fees_rus": null,
  "rate_mpaa": null,
  "description": "Вторая мировая война. Американская субмарина держит курс на остров Бикини на юге Тихого океана, чтобы уничтожить остатки другой затонувшей лодки того же типа, на борту которой есть ценное радарное оборудование и которое не должно попасть в руки врага. В то же время командование японского флота посылает туда свои корабли, так как стоит вопрос о контроле над Тихим океаном. Всё это постепенно выливается в крупное противостояние из-за того, что силы на обеих сторонах наращиваются и расширяются.",
  "iframe_url": "",
  "iframe_poster": null,
  "poster": "https://img.imgilall.me/movies/franchise/5/1/2/5/0/0/0/0/0/0/610x900_51250.jpg",
  "country": {
    "1": "США"
  },
  "collection": [],
  "genre": {
    "32": "Военный",
    "7": "Драма"
  },
  "director": [
    "Энтони Каррас"
  ],
  "screenwriter": [
    "Джон Томерлин"
  ],
  "producer": [
    "Джеймс Х. Николсон",
    "Лу Русофф",
    "Сэмюэл З. Аркофф"
  ],
  "operator": [
    "Гилберт Уоррентон"
  ],
  "composer": [
    "Лес Бакстер"
  ],
  "design": [
    "Дэниэл Хэллер"
  ],
  "editor": [
    "Энтони Каррас",
    "Homer Powell"
  ],
  "actors": [
    "Тэб Хантер",
    "Фрэнки Авалон",
    "Скотт Брейди",
    "Джим Бакус",
    "Гари Кросби",
    "Майкл Данте",
    "Дэвид Лэндфилд",
    "Джоди МакКри",
    "Аки Алеонг",
    "Марк Кэвелл"
  ],
  "actors_dubl": [],
  "trivia": [],
  "trailers": [],
  "seasons": [],
  "voiceActing": [
    "НТВ+"
  ],
  "subtitle": [],
  "parts": []
}
