{
  "id": 14340,
  "name": "Без обязательств",
  "name_eng": "Casual",
  "year": 2015,
  "slogan": "«Family Comedy. Single Drama»",
  "age": null,
  "type": "series",
  "quality": "FHD (1080p)",
  "imdb": "7.5",
  "imdb_id": "4577466",
  "kinopoisk": "6.8",
  "kinopoisk_id": "935920",
  "world_art": null,
  "world_art_id": null,
  "time": "25 мин",
  "ads": true,
  "premier": "2015-10-07",
  "premier_rus": null,
  "availability": null,
  "serial_status": "offline",
  "activate_time": "2020-01-16 20:25:00",
  "budget": "$200 000",
  "fees_use": null,
  "fees_world": null,
  "fees_rus": null,
  "rate_mpaa": null,
  "description": "История о холостяке и его недавно разведённой сестре, которые снова оказываются под одной крышей. Вместе они воспитывают её дочь-подростка, а также помогают друг другу разобраться с проблемами на личном фронте.",
  "iframe_url": "",
  "poster": "https://img.imgilall.me/movies/franchise/1/4/3/4/0/0/0/0/0/0/610x900_14340.jpg",
  "country": {
    "1": "США"
  },
  "collection": {
    "27": "Про жизнь"
  },
  "genre": {
    "19": "Комедия",
    "10": "Зарубежный",
    "7": "Драма"
  },
  "director": [
    "Майкл Уивер",
    "Джейсон Райтман",
    "Джиллиан Робеспьер"
  ],
  "screenwriter": [
    "Zander Lehmann",
    "Харрис Дэноу",
    "Роза Хандельман"
  ],
  "producer": [
    "Бритон В. Эрвин",
    "Хелен Эстабрук",
    "Джеймс О. Керри"
  ],
  "operator": [
    "Джон Галесериан",
    "Джейсон Олдак",
    "Брайан Аутланд"
  ],
  "composer": [
    "Матео Мессина"
  ],
  "design": [
    "Грег Дж. Гранде",
    "Джозеф П. Лаки",
    "Чет Максвелл"
  ],
  "editor": [
    "Омар Хассан-Рип",
    "Стив Эдвардс",
    "Адам Барр"
  ],
  "actors": [
    "Микейла Уоткинс",
    "Томми Дьюи",
    "Тара Барр",
    "Няша Хатенди",
    "Джули Берман",
    "Кэтрин Аселтон",
    "Майя Эрскин",
    "Зак Орт",
    "Кайл Борнхаймер",
    "Фрэнсис Конрой"
  ],
  "actors_dubl": [],
  "trivia": [],
  "trailers": [
    {
      "name": "трейлер №1",
      "number": 1,
      "iframe_poster": null,
      "season": 4,
      "iframe_url": ""
    }
  ],
  "seasons": [
    {
      "poster": null,
      "release_ru": "2015-10-08",
      "release_world": "2015-10-07",
      "availability": "2015-10-09",
      "iframe_url": "",
      "season": 1,
      "episodes": [
        {
          "episode": 1,
          "name": "Pilot",
          "iframe_url": "",
          "iframe_poster": null,
          "release_ru": "2015-10-08",
          "release_world": "2015-10-07",
          "availability": "2015-10-09",
          "voiceActing": [
            "TVShows",
            "Eng.Original"
          ],
          "ads": false,
          "subtitle": []
        },
        {
          "episode": 2,
          "name": "Friends",
          "iframe_url": "",
          "iframe_poster": null,
          "release_ru": "2015-10-08",
          "release_world": "2015-10-07",
          "availability": "2015-10-09",
          "voiceActing": [
            "TVShows",
            "Eng.Original"
          ],
          "ads": false,
          "subtitle": []
        },
        {
          "episode": 3,
          "name": "Animals",
          "iframe_url": "",
          "iframe_poster": null,
          "release_ru": "2015-10-15",
          "release_world": "2015-10-14",
          "availability": "2015-10-16",
          "voiceActing": [
            "TVShows",
            "Eng.Original"
          ],
          "ads": false,
          "subtitle": []
        },
        {
          "episode": 4,
          "name": "...",
          "iframe_url": "",
          "iframe_poster": null,
          "release_ru": "2015-10-22",
          "release_world": "2015-10-21",
          "availability": "2015-10-23",
          "voiceActing": [
            "TVShows",
            "Eng.Original"
          ],
          "ads": false,
          "subtitle": []
        },
        {
          "episode": 5,
          "name": "Mom",
          "iframe_url": "",
          "iframe_poster": null,
          "release_ru": "2015-10-29",
          "release_world": "2015-10-28",
          "availability": "2015-10-30",
          "voiceActing": [
            "TVShows",
            "Eng.Original"
          ],
          "ads": false,
          "subtitle": []
        },
        {
          "episode": 6,
          "name": "Biden",
          "iframe_url": "",
          "iframe_poster": null,
          "release_ru": "2015-11-05",
          "release_world": "2015-11-04",
          "availability": "2015-11-06",
          "voiceActing": [
            "TVShows",
            "Eng.Original"
          ],
          "ads": false,
          "subtitle": []
        },
        {
          "episode": 7,
          "name": "Home",
          "iframe_url": "",
          "iframe_poster": null,
          "release_ru": "2015-11-12",
          "release_world": "2015-11-11",
          "availability": "2015-11-13",
          "voiceActing": [
            "TVShows",
            "Eng.Original"
          ],
          "ads": false,
          "subtitle": []
        },
        {
          "episode": 8,
          "name": "Bottles",
          "iframe_url": "",
          "iframe_poster": null,
          "release_ru": "2015-11-19",
          "release_world": "2015-11-18",
          "availability": "2015-11-20",
          "voiceActing": [
            "TVShows",
            "Eng.Original"
          ],
          "ads": false,
          "subtitle": []
        },
        {
          "episode": 9,
          "name": "Mars",
          "iframe_url": "",
          "iframe_poster": null,
          "release_ru": "2015-11-26",
          "release_world": "2015-11-25",
          "availability": "2015-11-27",
          "voiceActing": [
            "TVShows",
            "Eng.Original"
          ],
          "ads": false,
          "subtitle": []
        },
        {
          "episode": 10,
          "name": "Dave",
          "iframe_url": "",
          "iframe_poster": null,
          "release_ru": "2015-12-03",
          "release_world": "2015-12-02",
          "availability": "2015-12-04",
          "voiceActing": [
            "TVShows",
            "Eng.Original"
          ],
          "ads": false,
          "subtitle": []
        }
      ]
    },
    {
      "poster": null,
      "release_ru": "2016-06-08",
      "release_world": "2016-06-07",
      "availability": "2016-06-09",
      "iframe_url": "",
      "season": 2,
      "episodes": [
        {
          "episode": 1,
          "name": "Phase 3",
          "iframe_url": "",
          "iframe_poster": null,
          "release_ru": "2016-06-08",
          "release_world": "2016-06-07",
          "availability": "2016-06-09",
          "voiceActing": [
            "TVShows",
            "Eng.Original"
          ],
          "ads": false,
          "subtitle": []
        },
        {
          "episode": 2,
          "name": "Trivial Pursuit",
          "iframe_url": "",
          "iframe_poster": null,
          "release_ru": "2016-06-08",
          "release_world": "2016-06-07",
          "availability": "2016-06-09",
          "voiceActing": [
            "TVShows",
            "Eng.Original"
          ],
          "ads": false,
          "subtitle": []
        },
        {
          "episode": 3,
          "name": "Such Good Friends",
          "iframe_url": "",
          "iframe_poster": null,
          "release_ru": "2016-06-15",
          "release_world": "2016-06-14",
          "availability": "2016-06-16",
          "voiceActing": [
            "TVShows",
            "Eng.Original"
          ],
          "ads": false,
          "subtitle": []
        },
        {
          "episode": 4,
          "name": "Big Green Egg",
          "iframe_url": "",
          "iframe_poster": null,
          "release_ru": "2016-06-22",
          "release_world": "2016-06-21",
          "availability": "2016-06-23",
          "voiceActing": [
            "TVShows",
            "Eng.Original"
          ],
          "ads": false,
          "subtitle": []
        },
        {
          "episode": 5,
          "name": "Bicycle Thieves",
          "iframe_url": "",
          "iframe_poster": null,
          "release_ru": "2016-06-29",
          "release_world": "2016-06-28",
          "availability": "2016-06-30",
          "voiceActing": [
            "TVShows",
            "Eng.Original"
          ],
          "ads": false,
          "subtitle": []
        },
        {
          "episode": 6,
          "name": "100 Cows",
          "iframe_url": "",
          "iframe_poster": null,
          "release_ru": "2016-07-06",
          "release_world": "2016-07-05",
          "availability": "2016-07-07",
          "voiceActing": [
            "TVShows",
            "Eng.Original"
          ],
          "ads": false,
          "subtitle": []
        },
        {
          "episode": 7,
          "name": "Threesomes",
          "iframe_url": "",
          "iframe_poster": null,
          "release_ru": "2016-07-13",
          "release_world": "2016-07-12",
          "availability": "2016-07-14",
          "voiceActing": [
            "TVShows",
            "Eng.Original"
          ],
          "ads": false,
          "subtitle": []
        },
        {
          "episode": 8,
          "name": "The Magpie",
          "iframe_url": "",
          "iframe_poster": null,
          "release_ru": "2016-07-20",
          "release_world": "2016-07-19",
          "availability": "2016-07-21",
          "voiceActing": [
            "TVShows",
            "Eng.Original"
          ],
          "ads": false,
          "subtitle": []
        },
        {
          "episode": 9,
          "name": "The Lake",
          "iframe_url": "",
          "iframe_poster": null,
          "release_ru": "2016-07-27",
          "release_world": "2016-07-26",
          "availability": "2016-07-28",
          "voiceActing": [
            "TVShows",
            "Eng.Original"
          ],
          "ads": false,
          "subtitle": []
        },
        {
          "episode": 10,
          "name": "Reunion",
          "iframe_url": "",
          "iframe_poster": null,
          "release_ru": "2016-08-03",
          "release_world": "2016-08-02",
          "availability": "2016-08-04",
          "voiceActing": [
            "TVShows",
            "Eng.Original"
          ],
          "ads": false,
          "subtitle": []
        },
        {
          "episode": 11,
          "name": "Death and Taxes",
          "iframe_url": "",
          "iframe_poster": null,
          "release_ru": "2016-08-10",
          "release_world": "2016-08-09",
          "availability": "2016-08-11",
          "voiceActing": [
            "Eng.Original"
          ],
          "ads": false,
          "subtitle": []
        },
        {
          "episode": 12,
          "name": "40",
          "iframe_url": "",
          "iframe_poster": null,
          "release_ru": "2016-08-17",
          "release_world": "2016-08-16",
          "availability": "2016-08-18",
          "voiceActing": [
            "TVShows",
            "Eng.Original"
          ],
          "ads": false,
          "subtitle": []
        },
        {
          "episode": 13,
          "name": "The Great Unknown",
          "iframe_url": "",
          "iframe_poster": null,
          "release_ru": "2016-08-24",
          "release_world": "2016-08-23",
          "availability": "2016-08-25",
          "voiceActing": [
            "TVShows",
            "Eng.Original"
          ],
          "ads": false,
          "subtitle": []
        }
      ]
    },
    {
      "poster": null,
      "release_ru": "2017-05-24",
      "release_world": "2017-05-23",
      "availability": "2017-05-25",
      "iframe_url": "",
      "season": 3,
      "episodes": [
        {
          "episode": 1,
          "name": "Ashes to Ashes",
          "iframe_url": "",
          "iframe_poster": null,
          "release_ru": "2017-05-24",
          "release_world": "2017-05-23",
          "availability": "2017-05-25",
          "voiceActing": [
            "TVShows",
            "Eng.Original"
          ],
          "ads": false,
          "subtitle": [
            "Eng. Full"
          ]
        },
        {
          "episode": 2,
          "name": "Things to Do in Burbank When You're Dead",
          "iframe_url": "",
          "iframe_poster": null,
          "release_ru": "2017-05-24",
          "release_world": "2017-05-23",
          "availability": "2017-05-25",
          "voiceActing": [
            "TVShows",
            "Eng.Original"
          ],
          "ads": false,
          "subtitle": [
            "Eng. Full"
          ]
        },
        {
          "episode": 3,
          "name": "The Table",
          "iframe_url": "",
          "iframe_poster": null,
          "release_ru": "2017-05-24",
          "release_world": "2017-05-23",
          "availability": "2017-05-25",
          "voiceActing": [
            "TVShows",
            "Eng.Original"
          ],
          "ads": false,
          "subtitle": [
            "Eng. Full"
          ]
        },
        {
          "episode": 4,
          "name": "The Sprout",
          "iframe_url": "",
          "iframe_poster": null,
          "release_ru": "2017-05-31",
          "release_world": "2017-05-30",
          "availability": "2017-06-01",
          "voiceActing": [
            "TVShows",
            "Eng.Original"
          ],
          "ads": false,
          "subtitle": [
            "Eng. Full"
          ]
        },
        {
          "episode": 5,
          "name": "Look at Me",
          "iframe_url": "",
          "iframe_poster": null,
          "release_ru": "2017-06-07",
          "release_world": "2017-06-06",
          "availability": "2017-06-08",
          "voiceActing": [
            "TVShows",
            "Eng.Original"
          ],
          "ads": false,
          "subtitle": [
            "Eng. Full"
          ]
        },
        {
          "episode": 6,
          "name": "Troubleshooting",
          "iframe_url": "",
          "iframe_poster": null,
          "release_ru": "2017-06-14",
          "release_world": "2017-06-13",
          "availability": "2017-06-15",
          "voiceActing": [
            "TVShows",
            "Eng.Original"
          ],
          "ads": false,
          "subtitle": [
            "Eng. Full"
          ]
        },
        {
          "episode": 7,
          "name": "The Rat King",
          "iframe_url": "",
          "iframe_poster": null,
          "release_ru": "2017-06-21",
          "release_world": "2017-06-20",
          "availability": "2017-06-22",
          "voiceActing": [
            "TVShows",
            "Eng.Original"
          ],
          "ads": false,
          "subtitle": [
            "Eng. Full"
          ]
        },
        {
          "episode": 8,
          "name": "Venus",
          "iframe_url": "",
          "iframe_poster": null,
          "release_ru": "2017-06-28",
          "release_world": "2017-06-27",
          "availability": "2017-06-29",
          "voiceActing": [
            "TVShows",
            "Eng.Original"
          ],
          "ads": false,
          "subtitle": [
            "Eng. Full"
          ]
        },
        {
          "episode": 9,
          "name": "Fresno",
          "iframe_url": "",
          "iframe_poster": null,
          "release_ru": "2017-07-05",
          "release_world": "2017-07-04",
          "availability": "2017-07-06",
          "voiceActing": [
            "TVShows",
            "Eng.Original"
          ],
          "ads": false,
          "subtitle": [
            "Eng. Full"
          ]
        },
        {
          "episode": 10,
          "name": "Cake Walk",
          "iframe_url": "",
          "iframe_poster": null,
          "release_ru": "2017-07-12",
          "release_world": "2017-07-11",
          "availability": "2017-07-13",
          "voiceActing": [
            "TVShows",
            "Eng.Original"
          ],
          "ads": false,
          "subtitle": [
            "Eng. Full"
          ]
        },
        {
          "episode": 11,
          "name": "Firesale",
          "iframe_url": "",
          "iframe_poster": null,
          "release_ru": "2017-07-19",
          "release_world": "2017-07-18",
          "availability": "2017-07-20",
          "voiceActing": [
            "TVShows",
            "Eng.Original"
          ],
          "ads": false,
          "subtitle": [
            "Eng. Full"
          ]
        },
        {
          "episode": 12,
          "name": "99",
          "iframe_url": "",
          "iframe_poster": null,
          "release_ru": "2017-07-26",
          "release_world": "2017-07-25",
          "availability": "2017-07-27",
          "voiceActing": [
            "TVShows",
            "Eng.Original"
          ],
          "ads": false,
          "subtitle": [
            "Eng. Full"
          ]
        },
        {
          "episode": 13,
          "name": "The Hermit & the Moon",
          "iframe_url": "",
          "iframe_poster": null,
          "release_ru": "2017-08-02",
          "release_world": "2017-08-01",
          "availability": "2017-08-03",
          "voiceActing": [
            "TVShows",
            "Eng.Original"
          ],
          "ads": false,
          "subtitle": [
            "Eng. Full"
          ]
        }
      ]
    },
    {
      "poster": null,
      "release_ru": "2018-08-01",
      "release_world": "2018-07-31",
      "availability": "2018-08-02",
      "iframe_url": "",
      "season": 4,
      "episodes": [
        {
          "episode": 1,
          "name": "Carrie",
          "iframe_url": "",
          "iframe_poster": null,
          "release_ru": "2018-08-01",
          "release_world": "2018-07-31",
          "availability": "2018-08-02",
          "voiceActing": [
            "Baibako",
            "Eng.Original"
          ],
          "ads": true,
          "subtitle": []
        },
        {
          "episode": 2,
          "name": "The Missing Piece",
          "iframe_url": "",
          "iframe_poster": null,
          "release_ru": "2018-08-01",
          "release_world": "2018-07-31",
          "availability": "2018-08-02",
          "voiceActing": [
            "Baibako",
            "Eng.Original"
          ],
          "ads": true,
          "subtitle": []
        },
        {
          "episode": 3,
          "name": "Virtual Reality",
          "iframe_url": "",
          "iframe_poster": null,
          "release_ru": "2018-08-01",
          "release_world": "2018-07-31",
          "availability": "2018-08-02",
          "voiceActing": [
            "Baibako",
            "Eng.Original"
          ],
          "ads": true,
          "subtitle": []
        },
        {
          "episode": 4,
          "name": "Dreams Stay with You",
          "iframe_url": "",
          "iframe_poster": null,
          "release_ru": "2018-08-01",
          "release_world": "2018-07-31",
          "availability": "2018-08-02",
          "voiceActing": [
            "Baibako",
            "Eng.Original"
          ],
          "ads": true,
          "subtitle": []
        },
        {
          "episode": 5,
          "name": "The Last Super Bowl",
          "iframe_url": "",
          "iframe_poster": null,
          "release_ru": "2018-08-01",
          "release_world": "2018-07-31",
          "availability": "2018-08-02",
          "voiceActing": [
            "Baibako",
            "Eng.Original"
          ],
          "ads": true,
          "subtitle": []
        },
        {
          "episode": 6,
          "name": "Faultless Bodies and Blameless Minds",
          "iframe_url": "",
          "iframe_poster": null,
          "release_ru": "2018-08-01",
          "release_world": "2018-07-31",
          "availability": "2018-08-02",
          "voiceActing": [
            "Baibako",
            "Eng.Original"
          ],
          "ads": true,
          "subtitle": []
        },
        {
          "episode": 7,
          "name": "All About You",
          "iframe_url": "",
          "iframe_poster": null,
          "release_ru": "2018-08-01",
          "release_world": "2018-07-31",
          "availability": "2018-08-02",
          "voiceActing": [
            "Baibako",
            "Eng.Original"
          ],
          "ads": true,
          "subtitle": []
        },
        {
          "episode": 8,
          "name": "Finale",
          "iframe_url": "",
          "iframe_poster": null,
          "release_ru": "2018-08-01",
          "release_world": "2018-07-31",
          "availability": "2018-08-02",
          "voiceActing": [
            "Baibako",
            "Eng.Original"
          ],
          "ads": true,
          "subtitle": []
        }
      ]
    }
  ],
  "voiceActing": [
    "TVShows",
    "Eng.Original",
    "Baibako"
  ],
  "subtitle": [
    "Eng. Full"
  ],
  "parts": []
}
