{
  "id": 18930,
  "name": "Под знаком Луны",
  "name_eng": "",
  "year": 2013,
  "slogan": "—",
  "age": "12+",
  "type": "series",
  "quality": "SD",
  "imdb": null,
  "imdb_id": "5784812",
  "kinopoisk": "5.5",
  "kinopoisk_id": "943990",
  "world_art": null,
  "world_art_id": null,
  "time": "—",
  "ads": false,
  "premier": null,
  "premier_rus": "2015-11-28",
  "availability": "2015-11-29",
  "serial_status": "offline",
  "activate_time": "2020-05-19 10:33:00",
  "budget": null,
  "fees_use": null,
  "fees_world": null,
  "fees_rus": null,
  "rate_mpaa": null,
  "description": "Главная героиня внезапно узнает, что росла в приемной семье. Настоящие родители 18 лет назад продали ее, как ненужную вещь. Обуреваемая ненавистью, она жаждет найти их, но когда находит, ситуация меняется. Ненависть сменяется жалостью, а вместе с тем — желанием помочь. Однако против этого восстают приемные родители, которые считают, что дочь всем на свете обязана только им. Выход из такой сложной ситуации найти нелегко.",
  "iframe_url": "",
  "poster": "https://img.imgilall.me/movies/franchise/1/8/9/3/0/0/0/0/0/0/610x900_18930.jpg",
  "country": {
    "5": "Россия"
  },
  "collection": [],
  "genre": {
    "8": "Мелодрама",
    "7": "Драма"
  },
  "director": [
    "Петр Степин"
  ],
  "screenwriter": [
    "Марина Покровская"
  ],
  "producer": [],
  "operator": [
    "Юрий Михайлишин"
  ],
  "composer": [
    "Владимир Сайко"
  ],
  "design": [
    "Александр Холодцов"
  ],
  "editor": [],
  "actors": [
    "Евгения Нохрина",
    "Кирилл Дыцевич",
    "Олег Гарбуз",
    "Валентина Лосовская",
    "Светлана Кожемякина",
    "Алиса Авчинник",
    "Андрей Сенькин",
    "Алеся Пуховая",
    "Михаил Каминский",
    "Анатолий Голуб"
  ],
  "actors_dubl": [],
  "trivia": [],
  "trailers": [],
  "seasons": [
    {
      "poster": null,
      "release_ru": null,
      "release_world": null,
      "availability": null,
      "iframe_url": "",
      "season": 1,
      "episodes": [
        {
          "episode": 1,
          "name": null,
          "iframe_url": "",
          "iframe_poster": null,
          "release_ru": null,
          "release_world": null,
          "availability": null,
          "voiceActing": [
            "Рус. Оригинальный"
          ],
          "ads": false,
          "subtitle": []
        },
        {
          "episode": 2,
          "name": null,
          "iframe_url": "",
          "iframe_poster": null,
          "release_ru": null,
          "release_world": null,
          "availability": null,
          "voiceActing": [
            "Рус. Оригинальный"
          ],
          "ads": false,
          "subtitle": []
        },
        {
          "episode": 3,
          "name": null,
          "iframe_url": "",
          "iframe_poster": null,
          "release_ru": null,
          "release_world": null,
          "availability": null,
          "voiceActing": [
            "Рус. Оригинальный"
          ],
          "ads": false,
          "subtitle": []
        },
        {
          "episode": 4,
          "name": null,
          "iframe_url": "",
          "iframe_poster": null,
          "release_ru": null,
          "release_world": null,
          "availability": null,
          "voiceActing": [
            "Рус. Оригинальный"
          ],
          "ads": false,
          "subtitle": []
        }
      ]
    }
  ],
  "voiceActing": [
    "Рус. Оригинальный"
  ],
  "subtitle": [],
  "parts": []
}
