{
  "id": 17492,
  "name": "Рудольф Нуреев. Остров его мечты",
  "name_eng": "",
  "year": 2016,
  "slogan": "—",
  "age": null,
  "type": "film",
  "quality": "SD",
  "imdb": "6.5",
  "imdb_id": "5123454",
  "kinopoisk": null,
  "kinopoisk_id": "947975",
  "world_art": null,
  "world_art_id": null,
  "time": "90 мин. / 01:30",
  "ads": false,
  "premier": "2016-05-20",
  "premier_rus": "2016-12-08",
  "availability": "2016-12-09",
  "activate_time": "2020-05-01 22:24:00",
  "budget": "€500 000",
  "fees_use": null,
  "fees_world": null,
  "fees_rus": "$3 849",
  "rate_mpaa": null,
  "description": "Фильм рассказывает о малоизвестном периоде жизни величайшего танцора и хореографа 20-века Рудольфа Нуреева, связанном с Турцией, где он хотел иметь свой Дом, свой остров.",
  "iframe_url": "",
  "iframe_poster": null,
  "poster": "https://img.imgilall.me/movies/franchise/1/7/4/9/2/0/0/0/0/0/610x900_17492.jpg",
  "country": {
    "36": "Турция",
    "5": "Россия"
  },
  "collection": [],
  "genre": {
    "54": "Документальный"
  },
  "director": [
    "Евгения Тирдатова"
  ],
  "screenwriter": [
    "Евгения Тирдатова"
  ],
  "producer": [
    "Yasemin Pirinccioglu",
    "Евгения Тирдатова",
    "Нил МакКартни"
  ],
  "operator": [
    "Дмитрий Ермаков"
  ],
  "composer": [],
  "design": [],
  "editor": [
    "Борис Мнухин"
  ],
  "actors": [
    "Yasemin Pirinccioglu",
    "Тевфик Эрман Кутлу",
    "Zeynep Fadillioglu",
    "Metin Fadillioglu",
    "Hulya Aksular",
    "Nilay Yesiltepe",
    "Asaf Guneri",
    "Эцио Фриджерио",
    "Франка Скуарчапино"
  ],
  "actors_dubl": [],
  "trivia": [],
  "trailers": [],
  "seasons": [],
  "voiceActing": [
    "SDI Media",
    "Eng.Original"
  ],
  "subtitle": [],
  "parts": []
}
