{
  "id": 17838,
  "name": "Отрицание",
  "name_eng": "Denial",
  "year": 2016,
  "slogan": "«The whole world knows the Holocaust happened. Now she needs to prove it»",
  "age": null,
  "type": "film",
  "quality": "FHD (1080p)",
  "imdb": "6.7",
  "imdb_id": "4645330",
  "kinopoisk": "6.6",
  "kinopoisk_id": "943407",
  "world_art": null,
  "world_art_id": null,
  "time": "110 мин. / 01:50",
  "ads": true,
  "premier": "2016-09-11",
  "premier_rus": "2016-09-12",
  "availability": "2016-09-13",
  "activate_time": "2020-05-07 12:49:00",
  "budget": "$10 000 000",
  "fees_use": "$4 073 489",
  "fees_world": "+ $3 921 038 = $7 994 527",
  "fees_rus": null,
  "rate_mpaa": "PG-13",
  "description": "Признанный писатель и историк Дэбора Е. Липштадт должна отстоять право на историческую правду, доказывающую, что Холокост был, в ответ на обвинения в клевете известного отрицателя Холокоста Дэвида Ирвинга.",
  "iframe_url": "",
  "iframe_poster": null,
  "poster": "https://img.imgilall.me/movies/franchise/1/7/8/3/8/0/0/0/0/0/610x900_17838.jpg",
  "country": {
    "1": "США",
    "2": "Великобритания"
  },
  "collection": [],
  "genre": {
    "27": "Биографический",
    "7": "Драма"
  },
  "director": [
    "Мик Джексон"
  ],
  "screenwriter": [
    "Дэвид Хэа"
  ],
  "producer": [
    "Гари Фостер",
    "Расс Краснофф",
    "Селия Дювал"
  ],
  "operator": [
    "Харис Замбарлукос"
  ],
  "composer": [
    "Говард Шор"
  ],
  "design": [
    "Эндрю МакАлпайн",
    "Кристина Мур",
    "Одиль Дикс-Мирье"
  ],
  "editor": [
    "Джастин Райт"
  ],
  "actors": [
    "Рэйчел Вайс",
    "Том Уилкинсон",
    "Тимоти Сполл",
    "Эндрю Скотт",
    "Джек Лауден",
    "Карен Писториус",
    "Алекс Дженнингс",
    "Харриет Уолтер",
    "Марк Гэтисс",
    "Джон Сешнс"
  ],
  "actors_dubl": [],
  "trivia": [
    "Все диалоги в зале суда взяты из реальной жизни — из протоколов реально разбиравшихся дел.",
    "Сцены в зале суда снимали в помещении окружного суда в королевском боро Кингстон-апон-Темс во внешнем Лондоне. Там располагается здание суда, которое применялось по назначению до начала 1990-х годов, а с тех пор используется исключительно кинематографистами.",
    "Рэйчел Вайс и небольшая съёмочная группа получили разрешение на съёмки в Освенциме, концентрационном лагере, где нацисты замучили почти миллион евреев."
  ],
  "trailers": [],
  "seasons": [],
  "voiceActing": [
    "Рус. Люб. двухголосый"
  ],
  "subtitle": [],
  "parts": []
}
