{
  "id": 32507,
  "name": "Автомобиль-беглец",
  "name_eng": "Runaway Car",
  "year": 1996,
  "slogan": "«Speeding 100 mph to their death in a car out of control»",
  "age": "16+",
  "type": "film",
  "quality": "SD",
  "imdb": "5.2",
  "imdb_id": "0",
  "kinopoisk": "6.7",
  "kinopoisk_id": "94886",
  "world_art": null,
  "world_art_id": null,
  "time": "87 мин. / 01:27",
  "ads": false,
  "premier": "1997-01-21",
  "premier_rus": "1997-01-22",
  "availability": "1997-01-23",
  "activate_time": "2020-07-15 01:35:00",
  "budget": null,
  "fees_use": null,
  "fees_world": null,
  "fees_rus": null,
  "rate_mpaa": "PG",
  "description": "У Дженни был плохой день на работе, и вечером она решила съездить к матери. В гараже она встречает программиста, у которого сломалась машина. Он очень спешил, и Дженни согласилась его подвезти. По дороге к ним присоединяется маленькая племянница Дженни и человек, на которого она чуть не наехала. Но самое худшее еще впереди. У машины отказали акселератор и коробка передач, и теперь она мчится с бешеной скоростью навстречу смерти. Полиция и служба спасения пытаются помочь пассажирам, но их попытки одна за другой заканчиваются неудачно..",
  "iframe_url": "",
  "iframe_poster": null,
  "poster": "https://img.imgilall.me/movies/franchise/3/2/5/0/7/0/0/0/0/0/610x900_32507.jpg",
  "country": {
    "1": "США"
  },
  "collection": [],
  "genre": {
    "9": "Приключения",
    "17": "Боевик",
    "13": "Триллер",
    "7": "Драма"
  },
  "director": [
    "Джек Шолдер"
  ],
  "screenwriter": [
    "Пол Ф. Эдвардс"
  ],
  "producer": [
    "Дори Чейз",
    "Эд Лахти",
    "Шелдон Пиньчук"
  ],
  "operator": [
    "Ангел Декка"
  ],
  "composer": [
    "Дж. Питер Робинсон"
  ],
  "design": [
    "Энтони Тремблэ",
    "Фрэнни Ли"
  ],
  "editor": [
    "Алан Гейк"
  ],
  "actors": [
    "Джадж Райнхолд",
    "Нина Семашко",
    "Брайан Хукс",
    "Пол Айдинг",
    "Гленн Моршауэр",
    "Брайан Редди",
    "Леон",
    "Элизабет Деннехи",
    "Тиа Техада",
    "Майкл Поттер"
  ],
  "actors_dubl": [],
  "trivia": [],
  "trailers": [],
  "seasons": [],
  "voiceActing": [
    "Рус. Проф. многоголосый"
  ],
  "subtitle": [],
  "parts": []
}
