{
  "id": 40523,
  "name": "Братство справедливости (ТВ)",
  "name_eng": "The Brotherhood of Justice",
  "year": 1986,
  "slogan": "«They were the best kids in the neighborhood ... until they decided it was time to fight back»",
  "age": "16+",
  "type": "film",
  "quality": "FHD (1080p)",
  "imdb": "5.5",
  "imdb_id": "0090775",
  "kinopoisk": "6.5",
  "kinopoisk_id": "94122",
  "world_art": null,
  "world_art_id": null,
  "time": "97 мин. / 01:37",
  "ads": false,
  "premier": "1986-05-18",
  "premier_rus": "1986-05-19",
  "availability": "1986-05-20",
  "activate_time": "2020-10-31 12:07:00",
  "budget": null,
  "fees_use": null,
  "fees_world": null,
  "fees_rus": null,
  "rate_mpaa": "R",
  "description": "В ответ на хулиганство учащихся администрация школы решает создать организацию по защите правопорядка, получившее название «Братство справедливости». Возглавить «Братство» берется Дерек и его друзья.Но методы, которые они выбрали для борьбы весьма криминальны: кого — то забросали петардами, кому — то испортили автомобиль, а кого и пырнули ножом. Дело доходит до бомбы, которую закладывают в автомобиль Виктора, ухаживающего за девушкой Дерека. Только полиции по силам остановить этот беспредел.",
  "iframe_url": "",
  "iframe_poster": null,
  "poster": "https://img.imgilall.me/movies/franchise/4/0/5/2/3/0/0/0/0/0/610x900_40523.jpg",
  "country": {
    "1": "США"
  },
  "collection": [],
  "genre": {
    "25": "Криминал",
    "17": "Боевик",
    "13": "Триллер",
    "7": "Драма"
  },
  "director": [
    "Чарльз Брэверман"
  ],
  "screenwriter": [
    "Ной Джубелирер",
    "Джеффри Блум"
  ],
  "producer": [
    "Марго Уинчестер",
    "Питер Бросиус",
    "Питер Губер"
  ],
  "operator": [
    "Ханания Баэр"
  ],
  "composer": [
    "Брэд Фидель"
  ],
  "design": [
    "Филип Томас",
    "Брэд Р. Ломан",
    "Изабелла Б. Ван Сост"
  ],
  "editor": [
    "Берт Глэдштейн",
    "Энн Е. Миллс"
  ],
  "actors": [
    "Киану Ривз",
    "Лори Лафлин",
    "Кифер Сазерленд",
    "Джо Спано",
    "Даррен Далтон",
    "Ивэн Миранд",
    "Дон Майкл Пол",
    "Гари Райли",
    "Билли Зейн",
    "Дэнни Нуччи"
  ],
  "actors_dubl": [],
  "trivia": [],
  "trailers": [],
  "seasons": [],
  "voiceActing": [
    "Diva Universal"
  ],
  "subtitle": [],
  "parts": []
}
