{
  "id": 28597,
  "name": "Чужое лицо",
  "name_eng": "",
  "year": 2013,
  "slogan": "—",
  "age": "12+",
  "type": "film",
  "quality": "HD (720p)",
  "imdb": null,
  "imdb_id": null,
  "kinopoisk": "5.7",
  "kinopoisk_id": "942677",
  "world_art": null,
  "world_art_id": null,
  "time": "90 мин. / 01:30",
  "ads": false,
  "premier": null,
  "premier_rus": "2015-11-15",
  "availability": "2015-11-16",
  "activate_time": "2020-06-27 07:21:00",
  "budget": null,
  "fees_use": null,
  "fees_world": null,
  "fees_rus": null,
  "rate_mpaa": null,
  "description": "Мария, актриса из провинциального города, получает предложение сыграть самую странную роль в своей жизни. Она должна не на сцене и не в кино, а в реальности перевоплотиться в недавно погибшую женщину, сделав пластическую операцию. Мария, хоть и считает предложение безумным, отказаться не может: ей срочно нужны деньги для лечения брата, единственного близкого человека на свете. И девушка ввязывается в авантюру, «надевая» на себя чужое лицо.",
  "iframe_url": "",
  "iframe_poster": null,
  "poster": "https://img.imgilall.me/movies/franchise/2/8/5/9/7/0/0/0/0/0/610x900_28597.jpeg",
  "country": {
    "5": "Россия",
    "55": "Беларусь"
  },
  "collection": [],
  "genre": {
    "8": "Мелодрама"
  },
  "director": [
    "Алексей Карелин"
  ],
  "screenwriter": [
    "Арутюн Гукасян"
  ],
  "producer": [
    "Александр Кушаев",
    "Егор Юзбашев"
  ],
  "operator": [
    "Виктор Зубарев"
  ],
  "composer": [
    "Владимир Сайко"
  ],
  "design": [],
  "editor": [],
  "actors": [
    "Полина Сыркина",
    "Александр Лымарев",
    "Марина Денисова",
    "Игорь Денисов",
    "Светлана Кожемякина",
    "Алеся Подоляк",
    "Александр Гиренок",
    "Ольга Скворцова",
    "Василий Бойдак",
    "Вячеслав Павлють"
  ],
  "actors_dubl": [],
  "trivia": [],
  "trailers": [],
  "seasons": [],
  "voiceActing": [
    "Original"
  ],
  "subtitle": [],
  "parts": []
}
