{
  "id": 20603,
  "name": "Девочка в матроске и автомат: Выпускной",
  "name_eng": "Sailor fuku to kikanju: sotsugyo",
  "year": 2016,
  "slogan": "—",
  "age": null,
  "type": "film",
  "quality": "FHD (1080p)",
  "imdb": "4.9",
  "imdb_id": "4807908",
  "kinopoisk": null,
  "kinopoisk_id": "953480",
  "world_art": null,
  "world_art_id": null,
  "time": "112 мин. / 01:52",
  "ads": false,
  "premier": "2016-02-27",
  "premier_rus": "2016-02-28",
  "availability": "2016-02-29",
  "activate_time": "2020-06-02 06:46:00",
  "budget": null,
  "fees_use": null,
  "fees_world": null,
  "fees_rus": null,
  "rate_mpaa": null,
  "description": "Школьница Издуми Хоси уже успела побывать главой небольшой банды якудза. После того как она отомстила убийце своего дяди, банда была распущена. Теперь Идзуми живет обычной жизнью — учится в школе, подрабатывает в кафе менеджером. Однако спокойная жизнь длится недолго, и опасность снова настигает девушку.",
  "iframe_url": "",
  "iframe_poster": null,
  "poster": "https://img.imgilall.me/movies/franchise/2/0/6/0/3/0/0/0/0/0/610x900_20603.jpg",
  "country": {
    "18": "Япония"
  },
  "collection": [],
  "genre": {
    "17": "Боевик",
    "8": "Мелодрама"
  },
  "director": [
    "Кодзи Маэда"
  ],
  "screenwriter": [
    "Рё Такада",
    "Дзиро Акагава"
  ],
  "producer": [
    "Ацуюки Симода",
    "Синъитиро Иноуэ",
    "Такэси Кикути"
  ],
  "operator": [],
  "composer": [],
  "design": [],
  "editor": [],
  "actors": [
    "Канна Хасимото",
    "Хироки Хасэгава",
    "Масанобу Андо",
    "Тэцуя Такэда",
    "Сёхэй Уно",
    "Такуро Оно",
    "Кандзи Фурутати",
    "Синго Цуруми",
    "Такааки Эноки",
    "Масато Ибу"
  ],
  "actors_dubl": [],
  "trivia": [],
  "trailers": [],
  "seasons": [],
  "voiceActing": [
    "Рус. Люб. двухголосый",
    "Japan Original"
  ],
  "subtitle": [],
  "parts": []
}
