{
  "id": 33609,
  "name": "Бильярдная братия",
  "name_eng": "The Rack Pack",
  "year": 2015,
  "slogan": "«Two megastars, one sport and a fight for victory»",
  "age": null,
  "type": "film",
  "quality": "HD (720p)",
  "imdb": "7.1",
  "imdb_id": "0",
  "kinopoisk": "6.4",
  "kinopoisk_id": "958504",
  "world_art": null,
  "world_art_id": null,
  "time": "87 мин. / 01:27",
  "ads": false,
  "premier": "2016-01-17",
  "premier_rus": "2016-01-18",
  "availability": "2016-01-19",
  "activate_time": "2020-07-15 16:08:00",
  "budget": "$100 000",
  "fees_use": null,
  "fees_world": null,
  "fees_rus": null,
  "rate_mpaa": null,
  "description": "В основу сюжета фильма положены реальные события из жизни двух легендарных игроков в снукер — ирландца Алекса Хиггинса и англичанина Стива Дэвиса. Основные действия фильма разворачиваются в 70-80-е годы в Великобритании.  Молодой талантливый парень Алекс Хиггинс профессионально занимается игрой в малоизвестный снукер. Благодаря яркому характеру, быстрому и зрелищному стилю игры Хиггинс получил прозвище «Ураган».Пока Алекс ведет активную светскую жизнь, посещая ночные клубы и заводя знакомства с девушками, скромный, сдержанный и целеустремленный парень Стив Дэвис оттачивает свое мастерство, концентрируясь на технике игры. В один из дней судьба сталкивает двух профессионалов, которые в будущем станут великими игроками в снукер.",
  "iframe_url": "",
  "iframe_poster": null,
  "poster": "https://img.imgilall.me/movies/franchise/3/3/6/0/9/0/0/0/0/0/610x900_33609.jpg",
  "country": {
    "1": "США",
    "2": "Великобритания"
  },
  "collection": [],
  "genre": {
    "23": "Спортивный",
    "19": "Комедия",
    "7": "Драма"
  },
  "director": [
    "Брайан Уэлш"
  ],
  "screenwriter": [
    "Марк Чаппель",
    "Алан Коннор",
    "Шон Пай"
  ],
  "producer": [
    "Барни Рейш",
    "Шэйн Аллен",
    "Лео Дэниелс"
  ],
  "operator": [
    "Зак Николсон"
  ],
  "composer": [],
  "design": [
    "Виктор Молеро",
    "Джулиан Люкстон",
    "Тим Стивенсон"
  ],
  "editor": [
    "Бен Йетс"
  ],
  "actors": [
    "Дэннис Тейлор",
    "Стив Дэвис",
    "Алекс Хиггинс",
    "Люк Тредэвэй",
    "Уилл Меррик",
    "Кевин Бишоп",
    "Никола Берли",
    "Джеймс Бэйли",
    "Дэниэл Фирн",
    "Джон Сешнс"
  ],
  "actors_dubl": [],
  "trivia": [],
  "trailers": [],
  "seasons": [],
  "voiceActing": [
    "Рус. Люб. многоголосый"
  ],
  "subtitle": [],
  "parts": []
}
