{
  "id": 20772,
  "name": "Сын дьявола",
  "name_eng": "The Child Remains",
  "year": 2017,
  "slogan": "—",
  "age": "18+",
  "type": "film",
  "quality": "FHD (1080p)",
  "imdb": "4.5",
  "imdb_id": "5343532",
  "kinopoisk": "4.6",
  "kinopoisk_id": "957699",
  "world_art": null,
  "world_art_id": null,
  "time": "107 мин. / 01:47",
  "ads": false,
  "premier": "2017-06-20",
  "premier_rus": "2020-07-09",
  "availability": "2020-07-10",
  "activate_time": "2020-06-02 12:49:00",
  "budget": "CA$ 1 000 000",
  "fees_use": null,
  "fees_world": "$23 848",
  "fees_rus": "$2 497",
  "rate_mpaa": null,
  "description": "Семейная пара, музыкант Лиам и журналистка Рей, останавливается в уединенной гостинице, где сорок лет назад находился родильный дом для незамужних женщин. Беременная Рэй видит призрак убитой здесь матери и раскрывает страшную тайну о судьбе родившихся в этом доме детей.",
  "iframe_url": "",
  "iframe_poster": null,
  "poster": "https://img.imgilall.me/movies/franchise/2/0/7/7/2/0/0/0/0/0/610x900_20772.jpg",
  "country": {
    "7": "Канада"
  },
  "collection": {
    "22": "Про призраков",
    "14": "Для взрослых"
  },
  "genre": {
    "26": "Ужасы",
    "24": "Детектив",
    "13": "Триллер",
    "10": "Зарубежный"
  },
  "director": [
    "Майкл Мелски"
  ],
  "screenwriter": [
    "Майкл Мелски"
  ],
  "producer": [
    "Крэйг Камерон",
    "Майкл Мелски",
    "Дэвид Миллер"
  ],
  "operator": [
    "Кен Ле Бланк"
  ],
  "composer": [
    "Азиф Ильяс"
  ],
  "design": [
    "Дженнифер Стюарт",
    "Райан Весси"
  ],
  "editor": [
    "Торбен Бигер"
  ],
  "actors": [
    "Сюзанн Клеман",
    "Аллан Хоуко",
    "Шелли Томпсон",
    "Геза Ковач",
    "Ли Дж. Кэмпбелл",
    "Марта Ирвинг",
    "Рена Коссац",
    "Гленн Лефчак",
    "Лесли Смит"
  ],
  "actors_dubl": [
    "Екатерина Кабашова",
    "Дмитрий Стрелков",
    "Юлия Зоркина",
    "Александр Васильев",
    "Андрей Лёвин"
  ],
  "trivia": [],
  "trailers": [
    {
      "name": "трейлер №1",
      "number": 1,
      "iframe_poster": null,
      "season": null,
      "iframe_url": ""
    }
  ],
  "seasons": [],
  "voiceActing": [
    "Рус. Дублированный",
    "Eng.Original"
  ],
  "subtitle": [
    "Eng. SDH"
  ],
  "parts": []
}
