{
  "id": 38620,
  "name": "Крупный калибр",
  "name_eng": "Tony Arzenta (Big Guns)",
  "year": 1973,
  "slogan": "«By mistake they killed his wife and child - THAT was a hell of a mistake!»",
  "age": "16+",
  "type": "film",
  "quality": "SD",
  "imdb": "6.7",
  "imdb_id": "0069013",
  "kinopoisk": "7.1",
  "kinopoisk_id": "95577",
  "world_art": null,
  "world_art_id": null,
  "time": "116 мин. / 01:56",
  "ads": false,
  "premier": "1973-08-23",
  "premier_rus": "1973-08-24",
  "availability": "1973-08-25",
  "activate_time": "2020-10-14 08:12:00",
  "budget": null,
  "fees_use": null,
  "fees_world": null,
  "fees_rus": null,
  "rate_mpaa": "R",
  "description": "Тони Ардзента - хладнокровный и неуловимый наемный убийца, работающий на могущественный криминальный синдикат, «лучший» в кровавом «бизнесе». Когда Тони неожиданно сообщает своим боссам, что очередной заказ - его последнее дело, после которого он планирует завязать, они, недолго посовещавшись, выносят ему смертный приговор. Но по трагической случайности вместо Тони во взорвавшейся машине погибают его жена и ребенок. Теперь Ардзента неумолим - ведь ему нечего терять. По-прежнему уверенный в своих силах, он объявляет войну синдикату...",
  "iframe_url": "",
  "iframe_poster": null,
  "poster": "https://img.imgilall.me/movies/franchise/3/8/6/2/0/0/0/0/0/0/610x900_38620.jpg",
  "country": {
    "8": "Италия",
    "9": "Франция"
  },
  "collection": [],
  "genre": {
    "25": "Криминал",
    "17": "Боевик",
    "13": "Триллер",
    "7": "Драма"
  },
  "director": [
    "Дуччо Тессари"
  ],
  "screenwriter": [
    "Франко Веруччи",
    "Уго Либераторе",
    "Роберто Гандюс"
  ],
  "producer": [
    "Лучано Мартино",
    "Раймон Данон",
    "Ален Делон"
  ],
  "operator": [
    "Сильвано Ипполити"
  ],
  "composer": [
    "Джанни Феррио"
  ],
  "design": [
    "Лоренцо Баральди",
    "Данта Ортона"
  ],
  "editor": [
    "Марио Морра"
  ],
  "actors": [
    "Ален Делон",
    "Ричард Конте",
    "Карла Гравина",
    "Марк Порель",
    "Роже Анен",
    "Николетта Макиавелли",
    "Гуидо Альберти",
    "Лино Троизи",
    "Сильвано Транквилли",
    "Коррадо Гайпа"
  ],
  "actors_dubl": [],
  "trivia": [],
  "trailers": [],
  "seasons": [],
  "voiceActing": [
    "Diva Universal"
  ],
  "subtitle": [],
  "parts": []
}
