{
  "id": 3548,
  "name": "Навязанная реальность",
  "name_eng": "Brute Sanity",
  "year": 2017,
  "slogan": "",
  "age": "16+",
  "type": "film",
  "quality": "SD",
  "imdb": "3.5",
  "imdb_id": "5014122",
  "kinopoisk": null,
  "kinopoisk_id": "956605",
  "world_art": null,
  "world_art_id": null,
  "time": "82 мин. / 01:22",
  "ads": true,
  "premier": "2017-03-08",
  "premier_rus": null,
  "availability": null,
  "activate_time": "2018-11-15 14:49:02",
  "budget": "",
  "fees_use": "",
  "fees_world": "",
  "fees_rus": "",
  "rate_mpaa": "",
  "description": "Агент ФБР работает в команде с вором, чтобы найти устройство, изменяющее реальность, в то время как ее безумный бывший босс пытается всячески этому помешать.",
  "iframe_url": "",
  "iframe_poster": "https://img.imgilall.me/movies/video/3/3/7/7/5/0/0/0/0/0/800x450_33775.jpeg",
  "poster": "https://img.imgilall.me/movies/franchise/3/5/4/8/0/0/0/0/0/0/610x900_3548.jpg",
  "country": {
    "1": "США"
  },
  "collection": [],
  "genre": {
    "11": "Фантастика",
    "13": "Триллер",
    "10": "Зарубежный"
  },
  "director": [
    "Сэм Ваниврей"
  ],
  "screenwriter": [
    "Сэм Ваниврей"
  ],
  "producer": [
    "Сэм Ваниврей"
  ],
  "operator": [
    "Трэвис Грэй"
  ],
  "composer": [
    "Эван Лэнгли"
  ],
  "design": [],
  "editor": [],
  "actors": [
    "Аджови Коэн",
    "Стивен Лоулор Джонс",
    "Сэм Ваниврей",
    "Дэниэл Бэк",
    "Ара Воланд",
    "Джошуа Раджман",
    "Эмили Дюррант",
    "Эми Стал",
    "Мэй Делапа",
    "Майк Уэйнер"
  ],
  "actors_dubl": [],
  "trivia": [],
  "trailers": [],
  "seasons": [],
  "voiceActing": [
    "Рус. Люб. многоголосый"
  ],
  "subtitle": [],
  "parts": []
}
