{
  "id": 21773,
  "name": "Логин",
  "name_eng": "Login",
  "year": 2013,
  "slogan": "—",
  "age": "16+",
  "type": "film",
  "quality": "SD",
  "imdb": "4.8",
  "imdb_id": "5523324",
  "kinopoisk": "3.9",
  "kinopoisk_id": "957710",
  "world_art": null,
  "world_art_id": null,
  "time": "86 мин. / 01:26",
  "ads": true,
  "premier": "2014-03-07",
  "premier_rus": "2016-04-07",
  "availability": "2016-04-08",
  "activate_time": "2020-06-04 10:54:00",
  "budget": null,
  "fees_use": null,
  "fees_world": null,
  "fees_rus": "$4 419",
  "rate_mpaa": null,
  "description": "Янка и Бэн знакомятся на сайте видеознакомств. Каждый из них ищет виновных в смерти своих любимых. Янка потеряла мужа, который был в тайне от нее влюблен в роковую соблазнительницу Аннет, их знакомство также состоялось на этом сайте. Бэн потерял взрослую дочь, чье сердце разбил самоуверенный мачо Марко. Янка и Бэн строят план: найти и соблазнить Марко и Аннет, совершить месть, которая закончится смертью виновников. Однако они сами попадают в собственные ловушки и уже не понятно, кто дичь, а кто охотник.",
  "iframe_url": "",
  "iframe_poster": null,
  "poster": "https://img.imgilall.me/movies/franchise/2/1/7/7/3/0/0/0/0/0/610x900_21773.jpg",
  "country": {
    "32": "Венгрия"
  },
  "collection": {
    "29": "Психологические"
  },
  "genre": {
    "13": "Триллер"
  },
  "director": [
    "Акош Барноцкий"
  ],
  "screenwriter": [],
  "producer": [
    "Дьёрдь Дора"
  ],
  "operator": [
    "Золтан Майер"
  ],
  "composer": [],
  "design": [],
  "editor": [],
  "actors": [
    "Йожеф Талош",
    "Нора Парти",
    "Ката Гашпар",
    "Андраш Гашпар",
    "Чаба Тот"
  ],
  "actors_dubl": [],
  "trivia": [],
  "trailers": [],
  "seasons": [],
  "voiceActing": [
    "Рус. Проф. многоголосый"
  ],
  "subtitle": [],
  "parts": []
}
