{
  "id": 37905,
  "name": "Русалки (ТВ)",
  "name_eng": "Mermaids",
  "year": 2003,
  "slogan": "—",
  "age": null,
  "type": "film",
  "quality": "SD",
  "imdb": "5.3",
  "imdb_id": "0340842",
  "kinopoisk": "6.7",
  "kinopoisk_id": "95622",
  "world_art": null,
  "world_art_id": null,
  "time": "84 мин. / 01:24",
  "ads": false,
  "premier": "2003-11-15",
  "premier_rus": "2003-11-16",
  "availability": "2003-11-17",
  "activate_time": "2020-10-12 03:54:00",
  "budget": null,
  "fees_use": null,
  "fees_world": null,
  "fees_rus": null,
  "rate_mpaa": null,
  "description": "Диана, Венера и Юния — три красавицы, три сестры, надолго разлученные волею судеб.  Но, когда их отец умирает от руки хищного убийцы, три сестры снова воссоединяются, чтобы свершить правосудие над тем, кто сделал их сиротами. А помогут им в этом волшебные чары, которыми их щедро наделила морская пучина. Ведь наши героини — настоящие русалки!",
  "iframe_url": "",
  "iframe_poster": null,
  "poster": "https://img.imgilall.me/movies/franchise/3/7/9/0/5/0/0/0/0/0/610x900_37905.jpg",
  "country": {
    "1": "США"
  },
  "collection": [],
  "genre": {
    "25": "Криминал",
    "6": "Фэнтези",
    "17": "Боевик",
    "8": "Мелодрама"
  },
  "director": [
    "Йен Бэрри"
  ],
  "screenwriter": [
    "Дэниэл Церон",
    "Брент В. Фридман",
    "Ребекка Суонсон"
  ],
  "producer": [
    "Мартин Браун",
    "Йен Бэрри",
    "Мишель Брастин"
  ],
  "operator": [
    "Джон Стоукс"
  ],
  "composer": [
    "Роджер Мэйсон"
  ],
  "design": [
    "Стюарт Бернсайд",
    "Дэрил Портер",
    "Мэнди Уиллатон"
  ],
  "editor": [
    "Нил Тампстон"
  ],
  "actors": [
    "Сера Д’Лэйн",
    "Никита Аджер",
    "Эрика Хейнатц",
    "Дэниэл Фредериксен",
    "Шон Тейлор",
    "Джейсон Чонг",
    "Женевьева Лемон",
    "Бриттани Бернс",
    "Холли Брисли",
    "Ким Нуки"
  ],
  "actors_dubl": [],
  "trivia": [],
  "trailers": [],
  "seasons": [],
  "voiceActing": [
    "Diva Universal"
  ],
  "subtitle": [],
  "parts": []
}
