{
  "id": 17136,
  "name": "Восставший из ада: Приговор",
  "name_eng": "Hellraiser: Judgment",
  "year": 2018,
  "slogan": "«Evil seeks evil»",
  "age": null,
  "type": "film",
  "quality": "SD",
  "imdb": "4.3",
  "imdb_id": "5476182",
  "kinopoisk": "4.7",
  "kinopoisk_id": "964663",
  "world_art": null,
  "world_art_id": null,
  "time": "81 мин. / 01:21",
  "ads": false,
  "premier": "2018-02-03",
  "premier_rus": "2018-02-04",
  "availability": "2018-02-05",
  "activate_time": "2020-04-29 12:18:00",
  "budget": "$500 000",
  "fees_use": null,
  "fees_world": null,
  "fees_rus": null,
  "rate_mpaa": null,
  "description": "Детективы Шон и Дэвид Картеры расследует дело о жутких серийных убийствах. Объединив усилия с другим детективом, Кристин Эджертон, они следуют за убийцей всё дальше и дальше в лабиринт ужаса, которому нет места в мире живых. Чем глубже они опускаются по спирали в преисподнюю, тем явственнее понимают, что клюнули не на ту наживку. Похоже, сенобиты ждут вовсе не жертв маньяка.",
  "iframe_url": "",
  "iframe_poster": null,
  "poster": "https://img.imgilall.me/movies/franchise/1/7/1/3/6/0/0/0/0/0/610x900_17136.jpg",
  "country": {
    "1": "США"
  },
  "collection": [],
  "genre": {
    "26": "Ужасы",
    "10": "Зарубежный"
  },
  "director": [
    "Гэри Дж. Танниклифф"
  ],
  "screenwriter": [
    "Гэри Дж. Танниклифф",
    "Клайв Баркер"
  ],
  "producer": [
    "Шон Патрик Итон",
    "Дэвид Глассер",
    "Майкл Лихи"
  ],
  "operator": [
    "Сэмюэл Кэлвин"
  ],
  "composer": [
    "Дерон Джонсон"
  ],
  "design": [
    "Брент Дэвид Маннон",
    "Сэм Ховет",
    "Йенова Бургуа"
  ],
  "editor": [
    "Майкл Гриффин"
  ],
  "actors": [
    "Дэймон Карни",
    "Рэнди Уэйн",
    "Александра Харрис",
    "Хэзер Лэнгенкэмп",
    "Пол Т. Тейлор",
    "Гэри Дж. Танниклифф",
    "Джефф Фентер",
    "Тони Пэйн",
    "Риган Уоллес",
    "Хелена Грэйс Дональд"
  ],
  "actors_dubl": [],
  "trivia": [
    "Режиссёр предложил Дагу Брэдли вновь сыграть гвоздеголового сенобита как во всех предыдущих фильмах, кроме девятого, но тот отверг предложение. Роль в итоге получил Пол Т. Тейлор.",
    "На место режиссёра был приглашён специалист по гриму Гэри Дж. Танниклифф.",
    "Режиссёр Гэри Дж. Танниклифф в восьмой части сыграл сенобита, а в девятой части выступал в качестве сценариста."
  ],
  "trailers": [],
  "seasons": [],
  "voiceActing": [
    "HDRezka Studio"
  ],
  "subtitle": [
    "Рус. полные"
  ],
  "parts": [
    25133,
    25137,
    21782,
    17136,
    25216,
    25185,
    25183,
    25143,
    25139,
    25222
  ]
}
