{
  "id": 48741,
  "name": "Последний концерт",
  "name_eng": "Raunch and Roll",
  "year": 2021,
  "slogan": "—",
  "age": null,
  "type": "film",
  "quality": "HD (720p)",
  "imdb": "7.4",
  "imdb_id": "5227342",
  "kinopoisk": null,
  "kinopoisk_id": "969334",
  "world_art": null,
  "world_art_id": null,
  "time": "107 мин. / 01:47",
  "ads": true,
  "premier": "2021-06-01",
  "premier_rus": null,
  "availability": null,
  "activate_time": "2021-07-18 14:28:00",
  "budget": null,
  "fees_use": null,
  "fees_world": null,
  "fees_rus": null,
  "rate_mpaa": null,
  "description": null,
  "iframe_url": "",
  "iframe_poster": null,
  "poster": "https://img.imgilall.me/movies/franchise/4/8/7/4/1/0/0/0/0/0/610x900_48741.jpg",
  "country": {
    "1": "США"
  },
  "collection": [],
  "genre": {
    "7": "Драма"
  },
  "director": [
    "Фил Вуртцель"
  ],
  "screenwriter": [
    "Brendan Ragotzy"
  ],
  "producer": [
    "Brendan Ragotzy",
    "Фил Вуртцель"
  ],
  "operator": [
    "Бретт Бауэрс"
  ],
  "composer": [],
  "design": [
    "Beth Teachout",
    "Hannah Craig"
  ],
  "editor": [
    "Chad Ice",
    "Маккензи Джонсон"
  ],
  "actors": [
    "Майкл Паре",
    "Эрик Петерсон",
    "Уильям МакНамара",
    "Лэнс Барбер",
    "Кристен Далтон",
    "Стив Уайлдер",
    "Роберт Ньюман",
    "Джордж МакДэниэл",
    "Lisa Marie Morabito",
    "Питер Кэри"
  ],
  "actors_dubl": [],
  "trivia": [],
  "trailers": [],
  "seasons": [],
  "voiceActing": [
    "Рус. Люб. многоголосый"
  ],
  "subtitle": [],
  "parts": []
}
