{
  "id": 18878,
  "name": "Легенды затерянного храма",
  "name_eng": "Legends of the Hidden Temple",
  "year": 2016,
  "slogan": "«The legend is real»",
  "age": "12+",
  "type": "film",
  "quality": "FHD (1080p)",
  "imdb": "5.7",
  "imdb_id": "5333842",
  "kinopoisk": null,
  "kinopoisk_id": "962082",
  "world_art": null,
  "world_art_id": null,
  "time": "65 мин. / 01:05",
  "ads": false,
  "premier": "2016-11-26",
  "premier_rus": "2017-02-24",
  "availability": "2017-02-25",
  "activate_time": "2020-05-19 21:21:00",
  "budget": "$5 000 000",
  "fees_use": null,
  "fees_world": null,
  "fees_rus": null,
  "rate_mpaa": null,
  "description": "Троих детей, попавших в древний храм, ждёт невероятное приключение, полное опасностей и загадок. В каждой комнате храма прячутся новые тайны и ловушки. Если дети не справятся, они будут заточены в храме навечно! Невероятная история оживёт – нас ждёт могущественный Олмек, коварные стражи храма, и очень хорошо осведомлённый гид Кирк Фогг. Приключение станет легендарным!",
  "iframe_url": "",
  "iframe_poster": null,
  "poster": "https://img.imgilall.me/movies/franchise/1/8/8/7/8/0/0/0/0/0/610x900_18878.jpg",
  "country": {
    "1": "США"
  },
  "collection": {
    "79": "Про детей"
  },
  "genre": {
    "9": "Приключения",
    "33": "Семейный"
  },
  "director": [
    "Джо Менендес"
  ],
  "screenwriter": [
    "Дэвид Дж. Стэнли",
    "Скотт А. Стоун",
    "Zach Hyatt"
  ],
  "producer": [
    "Эми Сидорик",
    "Скотт МакЭбой",
    "Джессика Хоровиц"
  ],
  "operator": [
    "Том Хартинг"
  ],
  "composer": [
    "Пол Е. Френсис"
  ],
  "design": [
    "Крис Аугуст",
    "Дэн Селон",
    "Кен Шапкин"
  ],
  "editor": [
    "Дэймон Фехт"
  ],
  "actors": [
    "Изабела Мерсед",
    "Колин Критчли",
    "Джет Юргенсмейер",
    "Кирк Фогг",
    "Дэниэл Кадмор",
    "Майкл Беняер",
    "Иоан Себастьян Тирлуи",
    "Катия Ойеда",
    "Дэвид Мичи",
    "Ди Брэдли Бейкер"
  ],
  "actors_dubl": [
    "Виктория Дробина",
    "Данила Ефремов",
    "Елена Солодилина",
    "Сергей Чихачёв",
    "Антон Савенков"
  ],
  "trivia": [],
  "trailers": [],
  "seasons": [],
  "voiceActing": [
    "Рус. Дублированный",
    "Eng.Original"
  ],
  "subtitle": [
    "Eng. SDH"
  ],
  "parts": []
}
