{
  "id": 10484,
  "name": "Лебедь из Синдзюку 2",
  "name_eng": "Shinjuku Swan II",
  "year": 2017,
  "slogan": "—",
  "age": null,
  "type": "film",
  "quality": "HD (720p)",
  "imdb": "5.3",
  "imdb_id": "5467852",
  "kinopoisk": null,
  "kinopoisk_id": "961301",
  "world_art": null,
  "world_art_id": null,
  "time": "133 мин. / 02:13",
  "ads": true,
  "premier": "2017-01-21",
  "premier_rus": null,
  "availability": null,
  "activate_time": "2019-08-23 17:36:00",
  "budget": "",
  "fees_use": "",
  "fees_world": "",
  "fees_rus": "",
  "rate_mpaa": "",
  "description": "Начав просмотр фильма «Лебедь из Синдзюку 2», зритель погружается в приключения главного героя. В центре сюжета находится Ширатори Тацухико, сирота, который нашел себя в качестве вербовщика. Когда-то давно он познакомился с человеком, который занимался поисками девушек, чья внешность идеально подходит для индустрии развлечений. Наблюдая за ним, главный герой понял, что и сам хочет заниматься тем же самым. В результате он влился в этот бизнес и сам стал вербовщиком. Однако, приступив к работе, Ширатори оказался в центре серьезной борьбы за власть.\r\n\r\nИ теперь, когда ситуация стихла, главный герой в тишине и покое разыскивает молоденьких девушек с идеальной внешностью. Он каждый день выходит на улицы города и редко уходит ни с чем. Некоторое время после того, как он переезжает в Йокогаму, все идет просто замечательно. Однако вскоре его втягивают в конфликт с генеральным директором рекрутской компании.",
  "iframe_url": "",
  "iframe_poster": "https://img.imgilall.me/movies/video/1/1/0/3/4/8/0/0/0/0/800x450_110348.jpeg",
  "poster": "https://img.imgilall.me/movies/franchise/1/0/4/8/4/0/0/0/0/0/610x900_10484.jpg",
  "country": {
    "18": "Япония"
  },
  "collection": [],
  "genre": {
    "17": "Боевик",
    "10": "Зарубежный"
  },
  "director": [
    "Сион Соно"
  ],
  "screenwriter": [
    "Кэн Вакуи",
    "Матаитиро Ямамото"
  ],
  "producer": [
    "Матаитиро Ямамото"
  ],
  "operator": [],
  "composer": [],
  "design": [
    "Кадзухиро Саватаиси"
  ],
  "editor": [],
  "actors": [
    "Кокоро Асами",
    "Таданобу Асано",
    "Го Аяно",
    "Мотоки Фуками",
    "Элис Хиросэ",
    "Юсукэ Исэя",
    "Юсукэ Камидзи",
    "Дзюн Канамэ",
    "Нобуаки Канэко",
    "Акихиро Китамура"
  ],
  "actors_dubl": [],
  "trivia": [],
  "trailers": [],
  "seasons": [],
  "voiceActing": [
    "Рус. Люб. многоголосый"
  ],
  "subtitle": [],
  "parts": []
}
