{
  "id": 40510,
  "name": "Богини любви",
  "name_eng": "The Love Goddesses",
  "year": 1965,
  "slogan": "««The Love Goddesses» is the story of sex in the movies»",
  "age": null,
  "type": "film",
  "quality": "SD",
  "imdb": "7.4",
  "imdb_id": "0059402",
  "kinopoisk": null,
  "kinopoisk_id": "974",
  "world_art": null,
  "world_art_id": null,
  "time": "87 мин. / 01:27",
  "ads": false,
  "premier": "1965-03-03",
  "premier_rus": "1965-03-04",
  "availability": "1965-03-05",
  "activate_time": "2020-10-31 06:32:00",
  "budget": null,
  "fees_use": null,
  "fees_world": null,
  "fees_rus": null,
  "rate_mpaa": null,
  "description": "Эта документальная лента рассказывает о блистательных женщинах — секс-символах кинематографа, начиная от рождения кино до начала 60-х. Попутно режиссер показывает, как изменялись нормы культуры и морали, что было дозволено в ту или иную эпоху, а что нет.",
  "iframe_url": "",
  "iframe_poster": null,
  "poster": "https://img.imgilall.me/movies/franchise/4/0/5/1/0/0/0/0/0/0/610x900_40510.jpg",
  "country": {
    "1": "США"
  },
  "collection": [],
  "genre": {
    "54": "Документальный"
  },
  "director": [
    "Сол Дж. Тьюрелл"
  ],
  "screenwriter": [
    "Грэм Фергюсон",
    "Сол Дж. Тьюрелл"
  ],
  "producer": [
    "Грэм Фергюсон",
    "Сол Дж. Тьюрелл"
  ],
  "operator": [],
  "composer": [
    "Перси Фэйт"
  ],
  "design": [],
  "editor": [
    "Нат Грин",
    "Ховард Куперман"
  ],
  "actors": [
    "Карл Кинг",
    "Агнес Эйрс",
    "Теда Бара",
    "Брижит Бардо",
    "Ричард Бартелмесс",
    "Ингрид Бергман",
    "Клара Боу",
    "Клайв Брук",
    "Луиза Брукс",
    "Хорст Буххольц"
  ],
  "actors_dubl": [],
  "trivia": [],
  "trailers": [],
  "seasons": [],
  "voiceActing": [
    "Eng.Original"
  ],
  "subtitle": [],
  "parts": []
}
