{
  "id": 32039,
  "name": "Беглецы от времени",
  "name_eng": "Shiganitalja",
  "year": 2016,
  "slogan": "«Since That Day, Their Dreams Became a Window Connecting Two Worlds»",
  "age": null,
  "type": "film",
  "quality": "HD (720p)",
  "imdb": "6.8",
  "imdb_id": "0",
  "kinopoisk": "6.7",
  "kinopoisk_id": "971587",
  "world_art": null,
  "world_art_id": null,
  "time": "107 мин. / 01:47",
  "ads": false,
  "premier": "2016-03-14",
  "premier_rus": "2016-03-15",
  "availability": "2016-03-16",
  "activate_time": "2020-07-14 09:05:00",
  "budget": null,
  "fees_use": "$59 425",
  "fees_world": "+ $8 252 936 = $8 312 361",
  "fees_rus": null,
  "rate_mpaa": "PG-13",
  "description": "Двое мужчин из разных времён начинают видеть друг друга во сне. Школьный учитель из 1983 года встречается со своей любимой, полицейский из 2015 года знакомится с девушкой – точной копией возлюбленной учителя. Мужчины видят повседневную жизнь и окружение друг друга, а в одном из снов девушка становится жертвой убийства.",
  "iframe_url": "",
  "iframe_poster": null,
  "poster": "https://img.imgilall.me/movies/franchise/3/2/0/3/9/0/0/0/0/0/610x900_32039.jpg",
  "country": {
    "16": "Корея Южная"
  },
  "collection": [],
  "genre": {
    "6": "Фэнтези",
    "13": "Триллер",
    "8": "Мелодрама"
  },
  "director": [
    "Квак Чэ-ён"
  ],
  "screenwriter": [
    "Ко Джон-ун",
    "Квак Чэ-ён"
  ],
  "producer": [
    "Ли Джин-ын"
  ],
  "operator": [
    "Ли Сон-джэ"
  ],
  "composer": [
    "Ким Джун-сон"
  ],
  "design": [
    "Ли Ё-хан",
    "Чан Джу-хи"
  ],
  "editor": [
    "Щин Мин-гён"
  ],
  "actors": [
    "Лим Су-джон",
    "Чо Джон-сок",
    "Ли Джин-ук",
    "Чон Джин-ён",
    "Ли Ги-у",
    "Он Джу-ван",
    "Ли Тхэ-ри",
    "Ли Джон-ын",
    "Ли Бом",
    "Чон Ун-ин"
  ],
  "actors_dubl": [],
  "trivia": [],
  "trailers": [],
  "seasons": [],
  "voiceActing": [
    "Колобок"
  ],
  "subtitle": [],
  "parts": []
}
