{
  "id": 43460,
  "name": "Одна против ста",
  "name_eng": "1 Versus 100",
  "year": 2019,
  "slogan": "—",
  "age": null,
  "type": "film",
  "quality": "HD (720p)",
  "imdb": "6.5",
  "imdb_id": "5322692",
  "kinopoisk": null,
  "kinopoisk_id": "970691",
  "world_art": null,
  "world_art_id": null,
  "time": "78 мин. / 01:18",
  "ads": true,
  "premier": "2019-05-20",
  "premier_rus": null,
  "availability": null,
  "activate_time": "2021-01-10 01:42:00",
  "budget": null,
  "fees_use": null,
  "fees_world": null,
  "fees_rus": null,
  "rate_mpaa": null,
  "description": null,
  "iframe_url": "",
  "iframe_poster": null,
  "poster": "https://img.imgilall.me/movies/franchise/4/3/4/6/0/0/0/0/0/0/610x900_43460.jpg",
  "country": {
    "1": "США"
  },
  "collection": [],
  "genre": {
    "24": "Детектив",
    "13": "Триллер"
  },
  "director": [
    "Bruno Kohfield-Galeano"
  ],
  "screenwriter": [
    "Bruno Kohfield-Galeano",
    "Nicole Zwiren"
  ],
  "producer": [
    "Bruno Kohfield-Galeano"
  ],
  "operator": [
    "Bruno Kohfield-Galeano"
  ],
  "composer": [
    "Second Culture",
    "Nicole Zwiren"
  ],
  "design": [],
  "editor": [
    "Bruno Kohfield-Galeano"
  ],
  "actors": [
    "Anna McClean",
    "Nancy Nezbit",
    "Чарла Кохрэн",
    "Уолтер Мечэм",
    "Rae McKenzie",
    "Ty Pursley",
    "Kyle Smead",
    "Уитни Палмер",
    "Джилл Адлер",
    "Majolie Marie Seib"
  ],
  "actors_dubl": [],
  "trivia": [],
  "trailers": [],
  "seasons": [],
  "voiceActing": [
    "Рус. Люб. многоголосый"
  ],
  "subtitle": [],
  "parts": []
}
