{
  "id": 22731,
  "name": "Корни",
  "name_eng": "Roots",
  "year": 2016,
  "slogan": "—",
  "age": null,
  "type": "film",
  "quality": "HD (720p)",
  "imdb": "6.6",
  "imdb_id": "5674574",
  "kinopoisk": null,
  "kinopoisk_id": "976385",
  "world_art": null,
  "world_art_id": null,
  "time": "80 мин. / 01:20",
  "ads": false,
  "premier": "2016-04-21",
  "premier_rus": "2016-04-22",
  "availability": "2016-04-23",
  "activate_time": "2020-06-11 11:58:00",
  "budget": null,
  "fees_use": null,
  "fees_world": null,
  "fees_rus": null,
  "rate_mpaa": null,
  "description": "Проживающий в Бостоне журналист-блогер Арам решает прилететь в Армению в канун 100-летней годовщины геноцида армян и освещать намечаемые мероприятия в своем блоге.  В Армении он совершенно случайным образом знакомится с Анет, которая живет во Франции и является постоянной читательницей его блога, где девушка представляется под прозвищем Ванэ. Рождается история любви, которая еще сильнее привязывает героев к родной земле. Любовь Арама и Анет становится символом зова крови.",
  "iframe_url": "",
  "iframe_poster": null,
  "poster": "https://img.imgilall.me/movies/franchise/2/2/7/3/1/0/0/0/0/0/610x900_22731.jpg",
  "country": {
    "100": "Армения"
  },
  "collection": [],
  "genre": {
    "7": "Драма"
  },
  "director": [
    "Ваге Ян"
  ],
  "screenwriter": [
    "Карине Ходикян"
  ],
  "producer": [
    "Карен Казарян",
    "Лилит Мартиросян",
    "Ваан Оганесян"
  ],
  "operator": [
    "Роберт Харазян"
  ],
  "composer": [
    "Андраник Берберян"
  ],
  "design": [],
  "editor": [],
  "actors": [
    "Андраник Бабаян",
    "Мери Мкртчян",
    "Рози Аветисова",
    "Григор Багдасарян",
    "Ишхан Гарибян мл.",
    "Вардан Овсепян",
    "Татев Овакимян",
    "Теймине Хачатрян",
    "Арпине Исраелян",
    "Арман Навасардян"
  ],
  "actors_dubl": [],
  "trivia": [],
  "trailers": [],
  "seasons": [],
  "voiceActing": [
    "Колобок"
  ],
  "subtitle": [],
  "parts": []
}
