{
  "id": 6377,
  "name": "Квантовый разлом",
  "name_eng": "Quantum Break",
  "year": 2016,
  "slogan": null,
  "age": "16+",
  "type": "series",
  "quality": "HD (720p)",
  "imdb": "8.0",
  "imdb_id": "4576352",
  "kinopoisk": "7.2",
  "kinopoisk_id": "972195",
  "world_art": null,
  "world_art_id": null,
  "time": "20 мин.",
  "ads": true,
  "premier": "2016-04-05",
  "premier_rus": null,
  "availability": null,
  "serial_status": "offline",
  "activate_time": "2019-02-28 15:32:56",
  "budget": null,
  "fees_use": null,
  "fees_world": null,
  "fees_rus": null,
  "rate_mpaa": null,
  "description": "Все произошло в долю секунды. Один разрушительный миг – и время раскололось, навсегда изменив жизни двух человек. Один из них обнаружил, что может путешествовать сквозь время, и новая сила захватила его целиком и полностью. Второй использует тот же дар, чтобы остановить первого и спасти время от окончательной гибели. Обоим предстоят невероятные испытания, исход которых решит судьбу вселенной.",
  "iframe_url": "",
  "poster": "https://img.imgilall.me/movies/franchise/6/3/7/7/0/0/0/0/0/0/610x900_6377.jpg",
  "country": {
    "1": "США"
  },
  "collection": [],
  "genre": {
    "25": "Криминал",
    "11": "Фантастика",
    "24": "Детектив",
    "17": "Боевик",
    "13": "Триллер",
    "10": "Зарубежный",
    "7": "Драма"
  },
  "director": [
    "Бен Кетаи"
  ],
  "screenwriter": [
    "Терри Хьюз",
    "Джош Корбин",
    "Рон Милбауэр"
  ],
  "producer": [
    "Джейм Бурк",
    "Эми С. Ким",
    "Роберт Дж. Уилсон"
  ],
  "operator": [
    "Тимоти А. Бертон"
  ],
  "composer": [
    "Джон Кафер"
  ],
  "design": [
    "Габор Норман",
    "Джули Зиа",
    "Фрэнк Хелмер"
  ],
  "editor": [
    "Тоби Уилкинс"
  ],
  "actors": [
    "Шон Эшмор",
    "Эйдан Гиллен",
    "Патрик Хьюсингер",
    "Маршалл Оллман",
    "Кортни Хоуп",
    "Мими Майклс",
    "Брук Невин",
    "Жаклин Пиньоль",
    "Амелия Роуз Блэр",
    "Шон Дурри"
  ],
  "actors_dubl": [],
  "trivia": [],
  "trailers": [],
  "seasons": [
    {
      "poster": "https://img.imgilall.me/movies/season/4/2/1/4/0/0/0/0/0/0/610x900_4214.jpg",
      "release_ru": "2016-04-06",
      "release_world": "2016-04-05",
      "availability": "2016-04-07",
      "iframe_url": "",
      "season": 1,
      "episodes": [
        {
          "episode": 1,
          "name": "Monarch Solution",
          "iframe_url": "",
          "iframe_poster": "https://img.imgilall.me/movies/video/6/6/6/9/9/0/0/0/0/0/800x450_66699.jpeg",
          "release_ru": "2016-04-06",
          "release_world": "2016-04-05",
          "availability": "2016-04-07",
          "voiceActing": [
            "Рус. Дублированный"
          ],
          "ads": true,
          "subtitle": []
        },
        {
          "episode": 2,
          "name": "Prisoner",
          "iframe_url": "",
          "iframe_poster": "https://img.imgilall.me/movies/video/6/6/7/0/0/0/0/0/0/0/800x450_66700.jpeg",
          "release_ru": "2016-04-06",
          "release_world": "2016-04-05",
          "availability": "2016-04-07",
          "voiceActing": [
            "Рус. Дублированный"
          ],
          "ads": true,
          "subtitle": []
        },
        {
          "episode": 3,
          "name": "Deception",
          "iframe_url": "",
          "iframe_poster": "https://img.imgilall.me/movies/video/6/6/7/0/1/0/0/0/0/0/800x450_66701.jpeg",
          "release_ru": "2016-04-06",
          "release_world": "2016-04-05",
          "availability": "2016-04-07",
          "voiceActing": [
            "Рус. Дублированный"
          ],
          "ads": true,
          "subtitle": []
        },
        {
          "episode": 4,
          "name": "The Lifeboat Protocol",
          "iframe_url": "",
          "iframe_poster": "https://img.imgilall.me/movies/video/6/6/7/0/2/0/0/0/0/0/800x450_66702.jpeg",
          "release_ru": "2016-04-06",
          "release_world": "2016-04-05",
          "availability": "2016-04-07",
          "voiceActing": [
            "Рус. Дублированный"
          ],
          "ads": true,
          "subtitle": []
        }
      ]
    }
  ],
  "voiceActing": [
    "Рус. Дублированный"
  ],
  "subtitle": [],
  "parts": []
}
