{
  "id": 15990,
  "name": "Тот, кто рядом",
  "name_eng": "",
  "year": 2016,
  "slogan": "—",
  "age": null,
  "type": "series",
  "quality": "FHD (1080p)",
  "imdb": null,
  "imdb_id": null,
  "kinopoisk": "5.9",
  "kinopoisk_id": "980612",
  "world_art": null,
  "world_art_id": null,
  "time": "—",
  "ads": false,
  "premier": null,
  "premier_rus": "2016-05-28",
  "availability": "2016-05-29",
  "serial_status": "offline",
  "activate_time": "2020-03-21 15:28:00",
  "budget": null,
  "fees_use": null,
  "fees_world": null,
  "fees_rus": null,
  "rate_mpaa": null,
  "description": "Во время циркового выступления происходит несчастный случай: молодая акробатка падает с высоты и получает серьёзную травму. Следователь Максим Крылов приезжает в больницу, чтобы прояснить обстоятельства дела. Он понимает, что пострадавшая что-то скрывает, но докопаться до истины мешает её ангельский взгляд и обворожительная улыбка... Макс теряет голову – и уже через месяц женится на красавице Лизе. Он оплачивает ей дорогостоящую операцию – и вот она уже готова вернуться на арену, но выясняется, что в труппе её никто не ждет, на её место взяли другую артистку. Лиза как будто бы смиряется с ситуацией и пытается научиться жить без цирка.Через некоторое время Крылову поручают дело о серии убийств. Один за другим погибают бывшие коллеги Лизы. Герой с ужасом осознает, что убийцей может оказаться не кто иной, как его любимая жена. Не в силах поверить, что милая, добрая Лиза способна на хладнокровное убийство, герой пренебрегает профессиональной этикой и уничтожает все улики против жены. Как далеко он готов зайти, обманывая следствие, чтобы спасти любимую от тюрьмы?",
  "iframe_url": "",
  "poster": "https://img.imgilall.me/movies/franchise/1/5/9/9/0/0/0/0/0/0/610x900_15990.jpg",
  "country": {
    "5": "Россия"
  },
  "collection": [],
  "genre": {
    "24": "Детектив",
    "22": "Русский"
  },
  "director": [
    "Анатолий Артамонов"
  ],
  "screenwriter": [
    "Татьяна Кабзистая",
    "Елена Щербиновская"
  ],
  "producer": [
    "Авдей Кирьянов",
    "Наталья Лазарева",
    "Ника Шишко"
  ],
  "operator": [
    "Роман Бурденюк"
  ],
  "composer": [
    "Николай Романов"
  ],
  "design": [
    "Татьяна Девирц"
  ],
  "editor": [],
  "actors": [
    "Мария Иващенко",
    "Максим Щеголев",
    "Виктория Маслова",
    "Дмитрий Соломыкин",
    "Руслан Ягудин",
    "Артем Федотов",
    "Елена Лотова",
    "Надежда Серая",
    "Александр Шам",
    "Сергей Внуков"
  ],
  "actors_dubl": [],
  "trivia": [],
  "trailers": [],
  "seasons": [
    {
      "poster": null,
      "release_ru": null,
      "release_world": null,
      "availability": null,
      "iframe_url": "",
      "season": 1,
      "episodes": [
        {
          "episode": 1,
          "name": null,
          "iframe_url": "",
          "iframe_poster": null,
          "release_ru": null,
          "release_world": null,
          "availability": null,
          "voiceActing": [
            "Рус. Оригинальный"
          ],
          "ads": false,
          "subtitle": []
        },
        {
          "episode": 2,
          "name": null,
          "iframe_url": "",
          "iframe_poster": null,
          "release_ru": null,
          "release_world": null,
          "availability": null,
          "voiceActing": [
            "Рус. Оригинальный"
          ],
          "ads": false,
          "subtitle": []
        },
        {
          "episode": 3,
          "name": null,
          "iframe_url": "",
          "iframe_poster": null,
          "release_ru": null,
          "release_world": null,
          "availability": null,
          "voiceActing": [
            "Рус. Оригинальный"
          ],
          "ads": false,
          "subtitle": []
        },
        {
          "episode": 4,
          "name": null,
          "iframe_url": "",
          "iframe_poster": null,
          "release_ru": null,
          "release_world": null,
          "availability": null,
          "voiceActing": [
            "Рус. Оригинальный"
          ],
          "ads": false,
          "subtitle": []
        }
      ]
    }
  ],
  "voiceActing": [
    "Рус. Оригинальный"
  ],
  "subtitle": [],
  "parts": []
}
