{
  "id": 12389,
  "name": "История Золушки 4: Если туфелька подойдёт",
  "name_eng": "A Cinderella Story: If the Shoe Fits",
  "year": 2016,
  "slogan": "—",
  "age": null,
  "type": "film",
  "quality": "FHD (1080p)",
  "imdb": "5.8",
  "imdb_id": "5822648",
  "kinopoisk": "5.7",
  "kinopoisk_id": "988118",
  "world_art": null,
  "world_art_id": null,
  "time": "92 мин. / 01:32",
  "ads": false,
  "premier": "2016-08-02",
  "premier_rus": null,
  "availability": null,
  "activate_time": "2019-11-12 21:45:00",
  "budget": null,
  "fees_use": null,
  "fees_world": null,
  "fees_rus": null,
  "rate_mpaa": "PG",
  "description": "Тесса вместе со своими сводными сестрами отправится на курорт Royal Lagoons Resort. Правда отдыхать Тессе там не придется, ведь её семья ждет, что Тесса будет прилагать все усилия и помогать сестрам в прохождении кастинга на шоу «Cinderella Live». Тесса с детства мечтала выступать, но в открытую боится участвовать в конкурсе. Поэтому с помощью новой подруги визажиста Джорджии, она изменит внешность. Брюнетка Тесса на кастинге превратится в блондинку Беллу.",
  "iframe_url": "",
  "iframe_poster": null,
  "poster": "https://img.imgilall.me/movies/franchise/1/2/3/8/9/0/0/0/0/0/610x900_12389.jpg",
  "country": {
    "1": "США"
  },
  "collection": [],
  "genre": {
    "6": "Фэнтези",
    "38": "Мюзикл",
    "33": "Семейный",
    "10": "Зарубежный",
    "8": "Мелодрама"
  },
  "director": [
    "Мишель Джонстон"
  ],
  "screenwriter": [
    "Елена Сонг",
    "Ли Данлэп"
  ],
  "producer": [
    "Мишель Джонстон",
    "Дилан Селлерс",
    "Роки Бестер"
  ],
  "operator": [
    "Роберт Бринкманн"
  ],
  "composer": [
    "Джэйк Монако"
  ],
  "design": [
    "Karel Flint",
    "Вольфганг Эндер",
    "James Nilsen-Misra"
  ],
  "editor": [
    "Дэвид Финфер",
    "Лоуренс Джордан"
  ],
  "actors": [
    "София Карсон",
    "Дженнифер Тилли",
    "Томас Ло",
    "Эми Луиз Уилсон",
    "Jazzara Jaslyn",
    "Николь Фортуин",
    "Дэвид Ури",
    "Chloe Perling",
    "Ally White",
    "Ashley de Lange"
  ],
  "actors_dubl": [],
  "trivia": [],
  "trailers": [],
  "seasons": [],
  "voiceActing": [
    "Рус. Люб. многоголосый",
    "Eng.Original"
  ],
  "subtitle": [],
  "parts": []
}
