{
  "id": 17109,
  "name": "Смертельная ночь",
  "name_eng": "Dead Night",
  "year": 2017,
  "slogan": "«Look Deeper»",
  "age": null,
  "type": "film",
  "quality": "HD (720p)",
  "imdb": "4.3",
  "imdb_id": "5719076",
  "kinopoisk": null,
  "kinopoisk_id": "980563",
  "world_art": null,
  "world_art_id": null,
  "time": "86 мин. / 01:26",
  "ads": true,
  "premier": "2017-09-22",
  "premier_rus": "2017-09-23",
  "availability": "2017-09-24",
  "activate_time": "2020-04-30 10:04:00",
  "budget": null,
  "fees_use": null,
  "fees_world": null,
  "fees_rus": null,
  "rate_mpaa": null,
  "description": "Заботливая мать теряет рассудок и запускает цепочку событий, которые приведут к трагедии и убийствам.",
  "iframe_url": "",
  "iframe_poster": null,
  "poster": "https://img.imgilall.me/movies/franchise/1/7/1/0/9/0/0/0/0/0/610x900_17109.jpg",
  "country": {
    "1": "США"
  },
  "collection": [],
  "genre": {
    "26": "Ужасы",
    "6": "Фэнтези",
    "10": "Зарубежный"
  },
  "director": [
    "Брэд Барух"
  ],
  "screenwriter": [
    "Irving Walker",
    "Брэд Барух"
  ],
  "producer": [
    "Брэд Барух",
    "Энди Мейерс",
    "Дон Коскарелли"
  ],
  "operator": [
    "Кентон Д. Джонсон"
  ],
  "composer": [
    "Джозеф Бишара"
  ],
  "design": [],
  "editor": [
    "Меган Леон"
  ],
  "actors": [
    "Бриа Грант",
    "Софи Дала",
    "Дэниэл Робак",
    "Барбара Крэмптон",
    "Эй Джей Боуэн",
    "Элиз Вагнер Лутман",
    "Джошуа Хоффман",
    "Джой Османски",
    "Кэй Д’Арси",
    "Скай Солейл"
  ],
  "actors_dubl": [],
  "trivia": [],
  "trailers": [],
  "seasons": [],
  "voiceActing": [
    "Рус. Люб. многоголосый"
  ],
  "subtitle": [],
  "parts": []
}
