{
  "id": 8479,
  "name": "Мама",
  "name_eng": "Mum",
  "year": 2016,
  "slogan": null,
  "age": "16+",
  "type": "series",
  "quality": "HD (720p)",
  "imdb": "8.2",
  "imdb_id": "5687446",
  "kinopoisk": "7.2",
  "kinopoisk_id": "980827",
  "world_art": null,
  "world_art_id": null,
  "time": "30 мин.",
  "ads": true,
  "premier": "2016-05-13",
  "premier_rus": null,
  "availability": null,
  "serial_status": "offline",
  "activate_time": "2019-05-09 10:55:26",
  "budget": null,
  "fees_use": null,
  "fees_world": null,
  "fees_rus": null,
  "rate_mpaa": null,
  "description": "Кэти только что потеряла мужа, и даётся ей это совсем нелегко. От эгоистов-родственников совсем нет спасения, девушка сына – настоящая блондинка, да и сын сам не далеко от неё ушёл. Неужели теперь придётся справляться одной?! Настало время искать в жизни новые смыслы.",
  "iframe_url": "",
  "poster": "https://img.imgilall.me/movies/franchise/8/4/7/9/0/0/0/0/0/0/610x900_8479.jpg",
  "country": {
    "2": "Великобритания"
  },
  "collection": [],
  "genre": {
    "19": "Комедия",
    "10": "Зарубежный"
  },
  "director": [
    "Стефан Голашевски",
    "Ричард Лэкстон",
    "Линдсей Робинсон"
  ],
  "screenwriter": [
    "Стефан Голашевски"
  ],
  "producer": [
    "Линдсей Робинсон",
    "Кентон Аллен",
    "Стефан Голашевски"
  ],
  "operator": [
    "Бен Вилер",
    "Дэвид Марш"
  ],
  "composer": [],
  "design": [
    "Эбби Бауэрс",
    "Миранда Джонс",
    "Стив Ричи"
  ],
  "editor": [
    "Саймон Реглар",
    "Барни Пиллинг"
  ],
  "actors": [
    "Лесли Мэнвилл",
    "Питер Муллан",
    "Сэм Суэйнсбери",
    "Лиза МакГриллис",
    "Дороти Эткинсон",
    "Росс Ботмэн",
    "Карл Джонсон",
    "Марлен Сидауэй",
    "Селин Хизли",
    "Аарон Хеффернан"
  ],
  "actors_dubl": [],
  "trivia": [],
  "trailers": [],
  "seasons": [
    {
      "poster": "https://img.imgilall.me/movies/season/5/6/2/6/0/0/0/0/0/0/610x900_5626.jpg",
      "release_ru": "2016-05-14",
      "release_world": "2016-05-13",
      "availability": "2016-05-15",
      "iframe_url": "",
      "season": 1,
      "episodes": [
        {
          "episode": 1,
          "name": "January",
          "iframe_url": "",
          "iframe_poster": "https://img.imgilall.me/movies/video/9/0/6/5/6/0/0/0/0/0/800x450_90656.jpeg",
          "release_ru": "2016-05-14",
          "release_world": "2016-05-13",
          "availability": "2016-05-15",
          "voiceActing": [
            "Ozz",
            "Eng.Original"
          ],
          "ads": false,
          "subtitle": []
        },
        {
          "episode": 2,
          "name": "February",
          "iframe_url": "",
          "iframe_poster": "https://img.imgilall.me/movies/video/9/0/6/5/7/0/0/0/0/0/800x450_90657.jpeg",
          "release_ru": "2016-05-21",
          "release_world": "2016-05-20",
          "availability": "2016-05-22",
          "voiceActing": [
            "Ozz",
            "Eng.Original"
          ],
          "ads": false,
          "subtitle": []
        },
        {
          "episode": 3,
          "name": "May",
          "iframe_url": "",
          "iframe_poster": "https://img.imgilall.me/movies/video/9/0/6/5/8/0/0/0/0/0/800x450_90658.jpeg",
          "release_ru": "2016-05-28",
          "release_world": "2016-05-27",
          "availability": "2016-05-29",
          "voiceActing": [
            "Ozz",
            "Eng.Original"
          ],
          "ads": false,
          "subtitle": []
        },
        {
          "episode": 4,
          "name": "August",
          "iframe_url": "",
          "iframe_poster": "https://img.imgilall.me/movies/video/9/0/6/5/9/0/0/0/0/0/800x450_90659.jpeg",
          "release_ru": "2016-06-04",
          "release_world": "2016-06-03",
          "availability": "2016-06-05",
          "voiceActing": [
            "Ozz",
            "Eng.Original"
          ],
          "ads": false,
          "subtitle": []
        },
        {
          "episode": 5,
          "name": "October",
          "iframe_url": "",
          "iframe_poster": "https://img.imgilall.me/movies/video/9/0/6/6/0/0/0/0/0/0/800x450_90660.jpeg",
          "release_ru": "2016-06-11",
          "release_world": "2016-06-10",
          "availability": "2016-06-12",
          "voiceActing": [
            "Ozz",
            "Eng.Original"
          ],
          "ads": false,
          "subtitle": []
        },
        {
          "episode": 6,
          "name": "December",
          "iframe_url": "",
          "iframe_poster": "https://img.imgilall.me/movies/video/9/0/6/6/1/0/0/0/0/0/800x450_90661.jpeg",
          "release_ru": "2016-06-18",
          "release_world": "2016-06-17",
          "availability": "2016-06-19",
          "voiceActing": [
            "Ozz",
            "Eng.Original"
          ],
          "ads": false,
          "subtitle": []
        }
      ]
    },
    {
      "poster": "https://img.imgilall.me/movies/season/5/6/2/7/0/0/0/0/0/0/610x900_5627.jpg",
      "release_ru": "2018-02-21",
      "release_world": "2018-02-20",
      "availability": "2018-02-22",
      "iframe_url": "",
      "season": 2,
      "episodes": [
        {
          "episode": 1,
          "name": "March",
          "iframe_url": "",
          "iframe_poster": "https://img.imgilall.me/movies/video/9/0/7/6/1/0/0/0/0/0/800x450_90761.jpeg",
          "release_ru": "2018-02-21",
          "release_world": "2018-02-20",
          "availability": "2018-02-22",
          "voiceActing": [
            "Ozz",
            "Eng.Original"
          ],
          "ads": true,
          "subtitle": []
        },
        {
          "episode": 2,
          "name": "April",
          "iframe_url": "",
          "iframe_poster": "https://img.imgilall.me/movies/video/9/0/7/6/2/0/0/0/0/0/800x450_90762.jpeg",
          "release_ru": "2018-02-28",
          "release_world": "2018-02-27",
          "availability": "2018-03-01",
          "voiceActing": [
            "Ozz",
            "Eng.Original"
          ],
          "ads": true,
          "subtitle": []
        },
        {
          "episode": 3,
          "name": "June",
          "iframe_url": "",
          "iframe_poster": "https://img.imgilall.me/movies/video/9/0/7/6/3/0/0/0/0/0/800x450_90763.jpeg",
          "release_ru": "2018-03-07",
          "release_world": "2018-03-06",
          "availability": "2018-03-08",
          "voiceActing": [
            "Ozz",
            "Eng.Original"
          ],
          "ads": true,
          "subtitle": []
        },
        {
          "episode": 4,
          "name": "July",
          "iframe_url": "",
          "iframe_poster": "https://img.imgilall.me/movies/video/9/0/7/6/4/0/0/0/0/0/800x450_90764.jpeg",
          "release_ru": "2018-03-14",
          "release_world": "2018-03-13",
          "availability": "2018-03-15",
          "voiceActing": [
            "Ozz",
            "Eng.Original"
          ],
          "ads": true,
          "subtitle": []
        },
        {
          "episode": 5,
          "name": "September",
          "iframe_url": "",
          "iframe_poster": "https://img.imgilall.me/movies/video/9/0/7/6/5/0/0/0/0/0/800x450_90765.jpeg",
          "release_ru": "2018-03-21",
          "release_world": "2018-03-20",
          "availability": "2018-03-22",
          "voiceActing": [
            "Ozz",
            "Eng.Original"
          ],
          "ads": true,
          "subtitle": []
        },
        {
          "episode": 6,
          "name": "November",
          "iframe_url": "",
          "iframe_poster": "https://img.imgilall.me/movies/video/9/0/7/6/6/0/0/0/0/0/800x450_90766.jpeg",
          "release_ru": "2018-03-28",
          "release_world": "2018-03-27",
          "availability": "2018-03-29",
          "voiceActing": [
            "Ozz",
            "Eng.Original"
          ],
          "ads": true,
          "subtitle": []
        }
      ]
    },
    {
      "poster": "https://img.imgilall.me/movies/season/5/6/2/8/0/0/0/0/0/0/610x900_5628.jpg",
      "release_ru": "2019-05-16",
      "release_world": "2019-05-15",
      "availability": "2019-05-17",
      "iframe_url": "",
      "season": 3,
      "episodes": [
        {
          "episode": 1,
          "name": "Monday",
          "iframe_url": "",
          "iframe_poster": "https://img.imgilall.me/movies/video/1/0/3/4/8/0/0/0/0/0/800x450_103480.jpeg",
          "release_ru": "2019-05-16",
          "release_world": "2019-05-15",
          "availability": "2019-05-17",
          "voiceActing": [
            "Ozz",
            "Eng.Original"
          ],
          "ads": true,
          "subtitle": []
        },
        {
          "episode": 2,
          "name": "Tuesday",
          "iframe_url": "",
          "iframe_poster": "https://img.imgilall.me/movies/video/1/0/3/4/8/1/0/0/0/0/800x450_103481.jpeg",
          "release_ru": "2019-05-23",
          "release_world": "2019-05-22",
          "availability": "2019-05-24",
          "voiceActing": [
            "Ozz",
            "Eng.Original"
          ],
          "ads": true,
          "subtitle": []
        },
        {
          "episode": 3,
          "name": "Wednesday",
          "iframe_url": "",
          "iframe_poster": "https://img.imgilall.me/movies/video/1/0/3/4/8/2/0/0/0/0/800x450_103482.jpeg",
          "release_ru": "2019-05-30",
          "release_world": "2019-05-29",
          "availability": "2019-05-31",
          "voiceActing": [
            "Ozz",
            "Eng.Original"
          ],
          "ads": true,
          "subtitle": []
        },
        {
          "episode": 4,
          "name": "Thursday",
          "iframe_url": "",
          "iframe_poster": "https://img.imgilall.me/movies/video/1/0/3/4/8/3/0/0/0/0/800x450_103483.jpeg",
          "release_ru": "2019-06-06",
          "release_world": "2019-06-05",
          "availability": "2019-06-07",
          "voiceActing": [
            "Ozz",
            "Eng.Original"
          ],
          "ads": true,
          "subtitle": []
        },
        {
          "episode": 5,
          "name": "Friday",
          "iframe_url": "",
          "iframe_poster": "https://img.imgilall.me/movies/video/1/0/3/4/8/4/0/0/0/0/800x450_103484.jpeg",
          "release_ru": "2019-06-13",
          "release_world": "2019-06-12",
          "availability": "2019-06-14",
          "voiceActing": [
            "Ozz",
            "Eng.Original"
          ],
          "ads": true,
          "subtitle": []
        },
        {
          "episode": 6,
          "name": "Saturday",
          "iframe_url": "",
          "iframe_poster": "https://img.imgilall.me/movies/video/1/0/3/4/8/5/0/0/0/0/800x450_103485.jpeg",
          "release_ru": "2019-06-20",
          "release_world": "2019-06-19",
          "availability": "2019-06-21",
          "voiceActing": [
            "Ozz",
            "Eng.Original"
          ],
          "ads": true,
          "subtitle": []
        }
      ]
    }
  ],
  "voiceActing": [
    "Ozz",
    "Eng.Original"
  ],
  "subtitle": [],
  "parts": []
}
