{
  "id": 38067,
  "name": "Great Robbery",
  "name_eng": "",
  "year": 1996,
  "slogan": "—",
  "age": null,
  "type": "film",
  "quality": "FHD (1080p)",
  "imdb": "6.7",
  "imdb_id": "0187096",
  "kinopoisk": null,
  "kinopoisk_id": "98038",
  "world_art": null,
  "world_art_id": null,
  "time": "—",
  "ads": false,
  "premier": null,
  "premier_rus": null,
  "availability": null,
  "activate_time": "2020-10-17 00:27:00",
  "budget": null,
  "fees_use": null,
  "fees_world": null,
  "fees_rus": null,
  "rate_mpaa": null,
  "description": null,
  "iframe_url": "",
  "iframe_poster": null,
  "poster": "https://img.imgilall.me/movies/franchise/3/8/0/6/7/0/0/0/0/0/610x900_38067.jpg",
  "country": {
    "26": "Индия"
  },
  "collection": [],
  "genre": {
    "25": "Криминал",
    "17": "Боевик",
    "7": "Драма"
  },
  "director": [
    "Рам Гопал Варма"
  ],
  "screenwriter": [
    "Джадхяла",
    "Ганапатхи Рао Комманапалли",
    "Рам Гопал Варма"
  ],
  "producer": [
    "С. Ашвини Датт",
    "Ашвини Кумар"
  ],
  "operator": [
    "Гопал Редди С."
  ],
  "composer": [
    "Коти",
    "Радж"
  ],
  "design": [
    "Лиина Дару",
    "Маниш Малхотра"
  ],
  "editor": [
    "Санкар"
  ],
  "actors": [
    "Нагарджуна Акинени",
    "Арун Говиль",
    "Пареш Раваль",
    "Шриниваса Рао Кота",
    "Шридеви",
    "Шридхар",
    "Сомаяджулу Дж.В.",
    "Suryakantham",
    "Аннапурна",
    "Yamuna"
  ],
  "actors_dubl": [],
  "trivia": [],
  "trailers": [],
  "seasons": [],
  "voiceActing": [
    "Рус. Люб. многоголосый"
  ],
  "subtitle": [],
  "parts": []
}
