{
  "id": 8277,
  "name": "Авантюристы",
  "name_eng": "The Adventurers",
  "year": 2017,
  "slogan": "—",
  "age": "16+",
  "type": "film",
  "quality": "FHD (1080p)",
  "imdb": "5.6",
  "imdb_id": "5866930",
  "kinopoisk": "5.5",
  "kinopoisk_id": "992225",
  "world_art": null,
  "world_art_id": null,
  "time": "140 мин. / 02:20",
  "ads": false,
  "premier": "2017-08-11",
  "premier_rus": null,
  "availability": null,
  "activate_time": "2019-05-01 17:32:09",
  "budget": null,
  "fees_use": "$216 556",
  "fees_world": null,
  "fees_rus": null,
  "rate_mpaa": null,
  "description": "Знаменитый вор Чжан вышел из тюрьмы и уже готов провернуть международную аферу с ограблением в Каннах. У него на хвосте висит французский коп Пьер, с которым у Чжана давние счеты. Подельник По нанимает в помощницы очаровательную Рэд, с помощью которой воры рассчитывают похитить три ожерелья, вместе составляющие бесценное сокровище.",
  "iframe_url": "",
  "iframe_poster": null,
  "poster": "https://img.imgilall.me/movies/franchise/8/2/7/7/0/0/0/0/0/0/610x900_8277.jpg",
  "country": {
    "12": "Гонконг",
    "9": "Франция",
    "19": "Китай"
  },
  "collection": {
    "62": "Про полицию",
    "19": "Про ограбления, аферы и мошенников"
  },
  "genre": {
    "25": "Криминал",
    "9": "Приключения",
    "17": "Боевик",
    "10": "Зарубежный",
    "7": "Драма"
  },
  "director": [
    "Стивен Фун"
  ],
  "screenwriter": [
    "Чун Чи Квон",
    "Стивен Фун",
    "Ха Чжичао"
  ],
  "producer": [
    "Теренс Чан",
    "Уэйн Вэй",
    "Джерри Ли"
  ],
  "operator": [
    "Шейн Хёрлбат"
  ],
  "composer": [
    "Туомас Кантелинен"
  ],
  "design": [
    "Guillaume Amosse",
    "Сильвер Чун",
    "Wushu Master"
  ],
  "editor": [
    "Джоэл Кокс",
    "Энджи Лам"
  ],
  "actors": [
    "Энди Лау",
    "Жан Рено",
    "Шу Ци",
    "Тони Ян",
    "Чжан Цзинчу",
    "Ша И",
    "Эрик Цан",
    "Ю Тяньи",
    "Чжан Ицюнь",
    "Гэн Сэто"
  ],
  "actors_dubl": [],
  "trivia": [],
  "trailers": [],
  "seasons": [],
  "voiceActing": [
    "Рус. Люб. многоголосый",
    "China.Original"
  ],
  "subtitle": [],
  "parts": []
}
