{
  "id": 218,
  "name": "Прощай, Кристофер Робин",
  "name_eng": "Goodbye Christopher Robin",
  "year": 2017,
  "slogan": "«Inspired by the True Story»",
  "age": "12+",
  "type": "film",
  "quality": "FHD (1080p)",
  "imdb": "7.1",
  "imdb_id": "1653665",
  "kinopoisk": "7.2",
  "kinopoisk_id": "993579",
  "world_art": null,
  "world_art_id": null,
  "time": "107 мин. / 01:47",
  "ads": false,
  "premier": "2017-09-20",
  "premier_rus": "2017-11-23",
  "availability": null,
  "activate_time": "2018-06-06 12:09:26",
  "budget": null,
  "fees_use": "$1 735 251",
  "fees_world": "+ $5 666 698 = $7 401 949",
  "fees_rus": "$68 656",
  "rate_mpaa": "PG",
  "description": "Картина расскажет о взаимоотношениях между А.А. Милном и его сыном Кристофером Робином, чьи игрушки вдохновили писателя на создание волшебного мира повестей о Винни-Пухе.",
  "iframe_url": "",
  "iframe_poster": null,
  "poster": "https://img.imgilall.me/movies/franchise/2/1/8/0/0/0/0/0/0/0/610x900_218.jpg",
  "country": {
    "2": "Великобритания"
  },
  "collection": {
    "78": "Биографии",
    "39": "На реальных событиях"
  },
  "genre": {
    "33": "Семейный",
    "28": "Исторический",
    "27": "Биографический",
    "10": "Зарубежный"
  },
  "director": [
    "Саймон Кёртис"
  ],
  "screenwriter": [
    "Фрэнк Коттрел Бойс",
    "Саймон Вон"
  ],
  "producer": [
    "Стив Кристиан",
    "Саймон Кёртис",
    "Марк Хаббард"
  ],
  "operator": [
    "Бен Смитхард"
  ],
  "composer": [
    "Картер Бёруэлл"
  ],
  "design": [
    "Дэвид Роджер",
    "Тим Блейк",
    "Кэти Мани"
  ],
  "editor": [
    "Виктория Бойделл"
  ],
  "actors": [
    "Донал Глисон",
    "Марго Робби",
    "Келли Макдоналд",
    "Вики Пеппердин",
    "Уилл Тилстон",
    "Алекс Лоутер",
    "Стивен Кэмпбелл Мур",
    "Ричард МакКейб",
    "Джеральдин Сомервилль",
    "Мосси Смит"
  ],
  "actors_dubl": [],
  "trivia": [
    "Съёмки проходили в графствах Оксфордшир, Суррей, Восточный Суссекс и в Лондоне."
  ],
  "trailers": [],
  "seasons": [],
  "voiceActing": [
    "Рус. Проф. многоголосый",
    "Укр. Проф. багатоголосий",
    "Eng.Original"
  ],
  "subtitle": [
    "Рус. полные"
  ],
  "parts": []
}
