{
  "id": 12092,
  "name": "Расплата",
  "name_eng": "",
  "year": 2019,
  "slogan": "—",
  "age": null,
  "type": "series",
  "quality": "SD",
  "imdb": null,
  "imdb_id": null,
  "kinopoisk": "6.1",
  "kinopoisk_id": "998788",
  "world_art": null,
  "world_art_id": null,
  "time": "56 мин",
  "ads": false,
  "premier": "2019-11-05",
  "premier_rus": "2019-11-06",
  "availability": "2019-11-07",
  "serial_status": "offline",
  "activate_time": "2019-11-05 17:58:00",
  "budget": null,
  "fees_use": null,
  "fees_world": null,
  "fees_rus": null,
  "rate_mpaa": null,
  "description": "Никита Долин отправляется на горнолыжный курорт. В гостинице он знакомится с соседями – четой Морозовых. Анна и Андрей Морозовы – обычная, на первый взгляд, пара с заурядными семейными проблемами. Но события приобретают неожиданный оборот. Вначале Анна совершает попытку самоубийства, и Никите приходится спасать ей жизнь. А вскоре происходит нечастный случай с Андреем – по странному стечению обстоятельств он слетает с трассы и оказывается в больнице. Трагические события и потрясения сближают Анну и Никиту. Случайное знакомство перерастает в курортный роман. Но было ли оно случайным? С каждым шагом простая история всё более запутывается, превращаясь в сложную паутину из тайн, игр и лжи…",
  "iframe_url": "",
  "poster": "https://img.imgilall.me/movies/franchise/1/2/0/9/2/0/0/0/0/0/610x900_12092.jpg",
  "country": {
    "5": "Россия"
  },
  "collection": {
    "11": "Для женщин"
  },
  "genre": {
    "22": "Русский",
    "7": "Драма"
  },
  "director": [
    "Дарья Полторацкая"
  ],
  "screenwriter": [
    "Юсуп Разыков"
  ],
  "producer": [
    "Юрий Сапронов",
    "Лолита Халикова",
    "Авдей Кирьянов"
  ],
  "operator": [
    "Алексей Федоров"
  ],
  "composer": [
    "Антон Шварц"
  ],
  "design": [
    "Леонид Кипнис"
  ],
  "editor": [],
  "actors": [
    "Кирилл Кяро",
    "Светлана Смирнова-Марцинкевич",
    "Никита Панфилов",
    "Татьяна Рыбинец",
    "Никита Зверев",
    "Владимир Стержаков",
    "Валерий Афанасьев",
    "Дмитрий Кривощапов",
    "Константин Балакирев",
    "Нелли Уварова"
  ],
  "actors_dubl": [],
  "trivia": [],
  "trailers": [],
  "seasons": [
    {
      "poster": null,
      "release_ru": "2019-11-06",
      "release_world": "2019-11-05",
      "availability": "2019-11-07",
      "iframe_url": "",
      "season": 1,
      "episodes": [
        {
          "episode": 1,
          "name": null,
          "iframe_url": "",
          "iframe_poster": null,
          "release_ru": "2019-11-05",
          "release_world": "2019-11-05",
          "availability": "2019-11-05",
          "voiceActing": [
            "Рус. Оригинальный"
          ],
          "ads": false,
          "subtitle": []
        },
        {
          "episode": 2,
          "name": null,
          "iframe_url": "",
          "iframe_poster": null,
          "release_ru": "2019-11-06",
          "release_world": "2019-11-06",
          "availability": "2019-11-06",
          "voiceActing": [
            "Рус. Оригинальный"
          ],
          "ads": false,
          "subtitle": []
        },
        {
          "episode": 3,
          "name": null,
          "iframe_url": "",
          "iframe_poster": null,
          "release_ru": "2019-11-07",
          "release_world": "2019-11-07",
          "availability": "2019-11-07",
          "voiceActing": [
            "Рус. Оригинальный"
          ],
          "ads": false,
          "subtitle": []
        },
        {
          "episode": 4,
          "name": null,
          "iframe_url": "",
          "iframe_poster": null,
          "release_ru": "2019-11-07",
          "release_world": "2019-11-06",
          "availability": "2019-11-08",
          "voiceActing": [
            "Рус. Оригинальный"
          ],
          "ads": false,
          "subtitle": []
        },
        {
          "episode": 5,
          "name": null,
          "iframe_url": "",
          "iframe_poster": null,
          "release_ru": "2019-11-07",
          "release_world": "2019-11-06",
          "availability": "2019-11-08",
          "voiceActing": [
            "Рус. Оригинальный"
          ],
          "ads": false,
          "subtitle": []
        },
        {
          "episode": 6,
          "name": null,
          "iframe_url": "",
          "iframe_poster": null,
          "release_ru": "2019-11-07",
          "release_world": "2019-11-06",
          "availability": "2019-11-08",
          "voiceActing": [
            "Рус. Оригинальный"
          ],
          "ads": false,
          "subtitle": []
        },
        {
          "episode": 7,
          "name": null,
          "iframe_url": "",
          "iframe_poster": null,
          "release_ru": "2019-11-08",
          "release_world": "2019-11-07",
          "availability": "2019-11-09",
          "voiceActing": [
            "Рус. Оригинальный"
          ],
          "ads": false,
          "subtitle": []
        },
        {
          "episode": 8,
          "name": null,
          "iframe_url": "",
          "iframe_poster": null,
          "release_ru": "2019-11-08",
          "release_world": "2019-11-07",
          "availability": "2019-11-09",
          "voiceActing": [
            "Рус. Оригинальный"
          ],
          "ads": false,
          "subtitle": []
        },
        {
          "episode": 9,
          "name": null,
          "iframe_url": "",
          "iframe_poster": null,
          "release_ru": null,
          "release_world": null,
          "availability": null,
          "voiceActing": [
            "Рус. Оригинальный"
          ],
          "ads": false,
          "subtitle": []
        }
      ]
    }
  ],
  "voiceActing": [
    "Рус. Оригинальный"
  ],
  "subtitle": [],
  "parts": []
}
