{
  "id": 6693,
  "name": "Тайная жизнь домашних животных 2",
  "name_eng": "The Secret Life of Pets 2",
  "year": 2019,
  "slogan": "«Обхохочешься»",
  "age": "6+",
  "type": "cartoon",
  "quality": "FHD (1080p)",
  "imdb": "6.5",
  "imdb_id": "5113040",
  "kinopoisk": "6.8",
  "kinopoisk_id": "995974",
  "world_art": null,
  "world_art_id": null,
  "time": "86 мин. / 01:26",
  "ads": false,
  "premier": "2019-05-24",
  "premier_rus": "2019-05-30",
  "availability": null,
  "activate_time": "2019-03-13 15:19:53",
  "budget": "$80 000 000",
  "fees_use": "$158 874 395",
  "fees_world": "+ $271 176 898 = $430 051 293",
  "fees_rus": "$25 052 143",
  "rate_mpaa": "PG",
  "description": "Хозяева Макса уезжают за город в гости на ранчо и берут его с собой. Тем временем, в городе у Снежка и Гиджет свои приключения.",
  "iframe_url": "",
  "iframe_poster": null,
  "poster": "https://img.imgilall.me/movies/franchise/6/6/9/3/0/0/0/0/0/0/610x900_6693.jpg",
  "country": {
    "1": "США"
  },
  "collection": {
    "18": "Про животных"
  },
  "genre": {
    "9": "Приключения",
    "37": "Детский",
    "19": "Комедия",
    "10": "Зарубежный"
  },
  "director": [
    "Крис Рено",
    "Джонатан дель Валь"
  ],
  "screenwriter": [
    "Брайан Линч",
    "Кен Даурио",
    "Синко Пол"
  ],
  "producer": [
    "Кристель Бэлкон",
    "Джанет Хили",
    "Бретт Хоффман"
  ],
  "operator": [],
  "composer": [
    "Александр Деспла"
  ],
  "design": [
    "Колин Стимпсон",
    "Matthieu Gosselin"
  ],
  "editor": [
    "Тиффани Л. Кертц"
  ],
  "actors": [
    "Пэттон Освальт",
    "Кевин Харт",
    "Харрисон Форд",
    "Эрик Стоунстрит",
    "Дженни Слейт",
    "Тиффани Хэддиш",
    "Лэйк Белл",
    "Дэна Карви",
    "Бобби Мойнахан",
    "Хэннибал Бёресс"
  ],
  "actors_dubl": [
    "Сергей Смирнов",
    "Илья Исаев",
    "Сергей Гармаш",
    "Юрий Брежнев",
    "Вероника Саркисова"
  ],
  "trivia": [],
  "trailers": [
    {
      "name": "трейлер №1",
      "number": 1,
      "iframe_poster": "https://img.imgilall.me/movies/trailer/4/4/3/0/0/0/0/0/0/0/800x450_443.jpeg",
      "season": null,
      "iframe_url": ""
    },
    {
      "name": "трейлер №1",
      "number": 1,
      "iframe_poster": "https://img.imgilall.me/movies/trailer/2/8/5/0/0/0/0/0/0/0/800x450_285.jpeg",
      "season": null,
      "iframe_url": ""
    }
  ],
  "seasons": [],
  "voiceActing": [
    "Рус. Дублированный",
    "HDRezka Studio",
    "Укр. Дубльований",
    "Eng.Original"
  ],
  "subtitle": [
    "Рус. форсированные"
  ],
  "parts": [
    130,
    6693
  ]
}
