{
  "id": 42435,
  "name": "Слишком поздно, герой",
  "name_eng": "Too Late the Hero",
  "year": 1970,
  "slogan": "«War. It's A Dying Business»",
  "age": "12+",
  "type": "film",
  "quality": "SD",
  "imdb": "6.7",
  "imdb_id": "0066471",
  "kinopoisk": "6.2",
  "kinopoisk_id": "9966",
  "world_art": null,
  "world_art_id": null,
  "time": "145 мин. / 02:25",
  "ads": false,
  "premier": "1970-05-20",
  "premier_rus": "1970-05-21",
  "availability": "1970-05-22",
  "activate_time": "2020-11-23 17:16:00",
  "budget": null,
  "fees_use": null,
  "fees_world": null,
  "fees_rus": null,
  "rate_mpaa": "PG",
  "description": "Вторая мировая война, 1942 год. Сообразительного солдата и американского лейтенанта, знающего японский язык, в составе боевого десанта посылают на тихоокеанский остров с заданием, сулящим верную смерть. Они должны уничтожить радиопередатчик в тылу врага. Это задание превращается в состязание умов между ними и японским офицером.",
  "iframe_url": "",
  "iframe_poster": null,
  "poster": "https://img.imgilall.me/movies/franchise/4/2/4/3/5/0/0/0/0/0/610x900_42435.jpg",
  "country": {
    "1": "США"
  },
  "collection": [],
  "genre": {
    "32": "Военный",
    "17": "Боевик",
    "7": "Драма"
  },
  "director": [
    "Роберт Олдрич"
  ],
  "screenwriter": [
    "Роберт Олдрич",
    "Лукас Хеллер",
    "Джордж Марзбетуни"
  ],
  "producer": [
    "Роберт Олдрич",
    "Уолтер Блейк"
  ],
  "operator": [
    "Джозеф Ф. Бирок"
  ],
  "composer": [
    "Джералд Фрид"
  ],
  "design": [
    "Джеймс Доуелл Вэнс",
    "Джон Браун"
  ],
  "editor": [
    "Майкл Лучиано"
  ],
  "actors": [
    "Майкл Кейн",
    "Клифф Робертсон",
    "Иэн Бэннен",
    "Гарри Эндрюс",
    "Рональд Фрэйзер",
    "Денхолм Эллиот",
    "Лэнс Персивал",
    "Перси Херберт",
    "Патрик Джордан",
    "Сэм Кидд"
  ],
  "actors_dubl": [],
  "trivia": [],
  "trailers": [],
  "seasons": [],
  "voiceActing": [
    "Рус. Проф. многоголосый"
  ],
  "subtitle": [],
  "parts": []
}
