{
  "id": 9096,
  "name": "Джолли – бакалавр юридических наук 2",
  "name_eng": "Jolly LLB 2",
  "year": 2017,
  "slogan": "—",
  "age": "12+",
  "type": "film",
  "quality": "HD (720p)",
  "imdb": "7.2",
  "imdb_id": "5982852",
  "kinopoisk": null,
  "kinopoisk_id": "999677",
  "world_art": null,
  "world_art_id": null,
  "time": "137 мин. / 02:17",
  "ads": false,
  "premier": "2017-02-09",
  "premier_rus": "2017-02-10",
  "availability": "2017-02-11",
  "activate_time": "2019-05-28 11:11:28",
  "budget": "",
  "fees_use": "$1 654 254",
  "fees_world": "+ $21 319 765 = $22 974 019",
  "fees_rus": "",
  "rate_mpaa": "",
  "description": "Теплая, сногсшибательная индийская кинолента повествует историю главного героя по имени Джагдиш Мишра, которого все зовут просто Джолли. Он с раннего детства знал, кем хочет стать. Еще с юных лет наш герой бредил вырасти и заниматься юриспруденцией. Окончив школу, он последовал зову своего сердца и поступил в юридическую академию. Получив заветный диплом, Мишра решил не уезжать из огромного города под названием Лакнау. В суете мегаполиса гораздо легче и быстрее занырнуть с головой в деловую жизнь и начать строить карьеру. Однако самонадеянный парнишка слегка поспешил с выводами. Время идет, а к нему за помощью никто не обращается. Карьера стоит на месте, пока наш герой прозябает в роли ассистента, работая на знаменитого адвоката по имени Ризви Сахаб. Парень спит и видит, как бы открыть свой собственный офис, где он будет работать на себя и получать приличные деньги. Но на данный момент ему не хватает финансов, чтобы открыть свою практику. Однажды на прием приходит некая беременная дама, которую зовут Хина. Ей нужна помощь Ризви в связи с делом об убийстве мужа. Джолли, недолго думая, говорит, что дамочке нужно заплатить кругленькую сумму, и тогда именитый юрист однозначно возьмется за ее дело. Наивная девушка соглашается и дает наличные нечестному Джагдишу. Парень вне себя от радости. Он тут же оформляет свой кабинет и закатывает вечеринку по этому поводу. Однако, когда девушка выясняет, на что ушли ее кровные средства, она лишает себя жизни...",
  "iframe_url": "",
  "iframe_poster": "https://img.imgilall.me/movies/video/9/4/0/3/1/0/0/0/0/0/800x450_94031.jpeg",
  "poster": "https://img.imgilall.me/movies/franchise/9/0/9/6/0/0/0/0/0/0/610x900_9096.jpg",
  "country": {
    "26": "Индия"
  },
  "collection": {
    "27": "Про жизнь"
  },
  "genre": {
    "19": "Комедия",
    "10": "Зарубежный",
    "7": "Драма"
  },
  "director": [
    "Субхаш Капур"
  ],
  "screenwriter": [
    "Субхаш Капур"
  ],
  "producer": [
    "Махеш Кораде",
    "Нарен Кумар",
    "Гурав Нанда"
  ],
  "operator": [
    "Камалджит Неги"
  ],
  "composer": [
    "Ширантан Бхатт",
    "Meet Bros",
    "Вишал Кхурана"
  ],
  "design": [
    "Гаутам Сен",
    "Вира Капур Ии"
  ],
  "editor": [
    "Шекхар Праджапати"
  ],
  "actors": [
    "Акшай Кумар",
    "Хума Куреши",
    "Саурабх Шукла",
    "Анну Капур",
    "Саурабх Аньихотри",
    "Зия Ахмед",
    "V.M. Badola",
    "Рэм Гопал Баджадж",
    "Sudhanva Deshpande",
    "Авийит Датт"
  ],
  "actors_dubl": [],
  "trivia": [],
  "trailers": [],
  "seasons": [],
  "voiceActing": [
    "Рус. Люб. многоголосый"
  ],
  "subtitle": [],
  "parts": [
    9096,
    9097
  ]
}
