{
  "id": 48899,
  "name": "Диверсанты",
  "name_eng": "Diverzanti",
  "year": 1967,
  "slogan": "—",
  "age": null,
  "type": "film",
  "quality": "SD",
  "imdb": "6.9",
  "imdb_id": "0172329",
  "kinopoisk": "6.7",
  "kinopoisk_id": "99058",
  "world_art": null,
  "world_art_id": null,
  "time": "81 мин. / 01:21",
  "ads": false,
  "premier": "1968-02-09",
  "premier_rus": "1968-02-10",
  "availability": "1968-02-11",
  "activate_time": "2021-07-23 17:43:00",
  "budget": null,
  "fees_use": null,
  "fees_world": null,
  "fees_rus": null,
  "rate_mpaa": null,
  "description": "Вторая мировая война. Партизанский отряд, действующий в горах Югославии, окружен фашистами. Немецкие самолеты обстреливают партизан несколько раз в день. Выбраться из окружения можно только одной дорогой, которая также обстреливается с самолетов. Командир отряда посылает группу партизан с диверсионным заданием – уничтожить самолеты прямо на аэродроме.",
  "iframe_url": "",
  "iframe_poster": null,
  "poster": "https://img.imgilall.me/movies/franchise/4/8/8/9/9/0/0/0/0/0/610x900_48899.jpg",
  "country": {
    "41": "Югославия"
  },
  "collection": [],
  "genre": {
    "32": "Военный"
  },
  "director": [
    "Хайрудин Крвавац"
  ],
  "screenwriter": [
    "Хайрудин Крвавац",
    "Властимир Радованович"
  ],
  "producer": [],
  "operator": [
    "Огньен Милицевич"
  ],
  "composer": [
    "Боян Адамич"
  ],
  "design": [
    "Владо Бранкович",
    "Dzemo Cesovic",
    "Мирьяна Остойич"
  ],
  "editor": [
    "Мария Фукс"
  ],
  "actors": [
    "Раде Маркович",
    "Велимир «Бата» Живоинович",
    "Йован Яницевич",
    "Любиша Самарджич",
    "Хусейн Чокич",
    "Здравко Биоградлия",
    "Растислав Йович",
    "Заим Музаферия",
    "Анка Зупанц",
    "Янез Врховец"
  ],
  "actors_dubl": [
    "Юрий Саранцев",
    "Владимир Дружников",
    "Николай Граббе",
    "Юрий Чекулаев",
    "Эдуард Бредун"
  ],
  "trivia": [],
  "trailers": [],
  "seasons": [],
  "voiceActing": [
    "Рус. Дублированный"
  ],
  "subtitle": [],
  "parts": []
}
