{
  "id": 32404,
  "name": "Взлёты и падения: Красный дождь",
  "name_eng": "High & Low: the Red Rain",
  "year": 2016,
  "slogan": "—",
  "age": null,
  "type": "film",
  "quality": "HD (720p)",
  "imdb": "6.2",
  "imdb_id": "0",
  "kinopoisk": null,
  "kinopoisk_id": "998394",
  "world_art": null,
  "world_art_id": null,
  "time": "110 мин. / 01:50",
  "ads": false,
  "premier": "2016-10-08",
  "premier_rus": "2016-10-09",
  "availability": "2016-10-10",
  "activate_time": "2020-06-28 06:54:00",
  "budget": null,
  "fees_use": null,
  "fees_world": null,
  "fees_rus": null,
  "rate_mpaa": null,
  "description": "Год назад три брата Мамия контролировали весь город, но что-то случилось, и старший Такэру скрылся в неизвестном направлении. Масаки и Хирота были уверены, что он обязательно появится на ежегодной поминальной службе, посвященной их родителям, но только вместо брата пришел совсем незнакомый человек. Он сказал, что знает где они могут найти Такэру. Но только сначала они должны абсолютно точно решить для себя — нужно ли им это знание.",
  "iframe_url": "",
  "iframe_poster": null,
  "poster": "https://img.imgilall.me/movies/franchise/3/2/4/0/4/0/0/0/0/0/610x900_32404.jpg",
  "country": {
    "18": "Япония"
  },
  "collection": [],
  "genre": {
    "17": "Боевик",
    "7": "Драма"
  },
  "director": [
    "Юдаи Ямагути"
  ],
  "screenwriter": [
    "Норихиса Хиранума",
    "Кэисукэ Макино",
    "Юко Мацуда"
  ],
  "producer": [],
  "operator": [],
  "composer": [],
  "design": [],
  "editor": [],
  "actors": [
    "Ноэмиэ Накаи",
    "Акира Онодэра",
    "Такуми Саито",
    "Такахиро",
    "Хирооми Тосака"
  ],
  "actors_dubl": [],
  "trivia": [],
  "trailers": [],
  "seasons": [],
  "voiceActing": [
    "Рус. Люб. многоголосый"
  ],
  "subtitle": [],
  "parts": []
}
