{
  "id": 14662,
  "name": "Травля",
  "name_eng": "Manhunt",
  "year": 2020,
  "slogan": "«Survival is the only option»",
  "age": null,
  "type": "film",
  "quality": "HD (720p)",
  "imdb": "3.2",
  "imdb_id": "5919216",
  "kinopoisk": null,
  "kinopoisk_id": "995773",
  "world_art": null,
  "world_art_id": null,
  "time": "72 мин. / 01:12",
  "ads": true,
  "premier": "2020-01-14",
  "premier_rus": null,
  "availability": "2020-01-15",
  "activate_time": "2020-01-27 15:33:00",
  "budget": "$50 000",
  "fees_use": "",
  "fees_world": "",
  "fees_rus": "",
  "rate_mpaa": "",
  "description": "Главному герою придется сыграть в кошки-мышки с маньяком и садистом, чтобы спасти себя и свою девушку.",
  "iframe_url": "",
  "iframe_poster": null,
  "poster": "https://img.imgilall.me/movies/franchise/1/4/6/6/2/0/0/0/0/0/610x900_14662.jpg",
  "country": {
    "1": "США"
  },
  "collection": {
    "25": "Про маньяков"
  },
  "genre": {
    "17": "Боевик",
    "13": "Триллер",
    "10": "Зарубежный"
  },
  "director": [
    "Франклин Корреа"
  ],
  "screenwriter": [
    "Франклин Корреа"
  ],
  "producer": [
    "Joe Delorio",
    "John Piekos",
    "Сенека Робинсон"
  ],
  "operator": [],
  "composer": [],
  "design": [],
  "editor": [
    "John Piekos"
  ],
  "actors": [
    "Дэн Грегори",
    "Rouge Rose",
    "Франклин Корреа",
    "Farid Jamal Khan",
    "Dayveonne Bussey",
    "Харольд Б. Гибсон",
    "Bryan C. King",
    "Valentin Montero",
    "David Paul",
    "Claribel Duran"
  ],
  "actors_dubl": [],
  "trivia": [],
  "trailers": [],
  "seasons": [],
  "voiceActing": [
    "Рус. Люб. многоголосый"
  ],
  "subtitle": [],
  "parts": []
}
