{
  "id": 16800,
  "name": "Смотритель",
  "name_eng": "The Super",
  "year": 2017,
  "slogan": "«He has your keys»",
  "age": null,
  "type": "film",
  "quality": "FHD (1080p)",
  "imdb": "5.5",
  "imdb_id": "5884784",
  "kinopoisk": "5.0",
  "kinopoisk_id": "992893",
  "world_art": null,
  "world_art_id": null,
  "time": "90 мин. / 01:30",
  "ads": false,
  "premier": "2017-10-14",
  "premier_rus": "2017-10-15",
  "availability": "2017-10-16",
  "activate_time": "2020-04-21 12:14:00",
  "budget": "$2 300 000",
  "fees_use": null,
  "fees_world": "$19 513",
  "fees_rus": null,
  "rate_mpaa": "R",
  "description": "Бывший полицейский Фил устраивается суперинтендантом в большой жилой дом в центре Нью-Йорка и переезжает туда жить вместе с двумя дочерьми. В здании происходят загадочные исчезновения жильцов, а один из работников пугающе выглядит и странно себя ведёт.",
  "iframe_url": "",
  "iframe_poster": null,
  "poster": "https://img.imgilall.me/movies/franchise/1/6/8/0/0/0/0/0/0/0/610x900_16800.jpg",
  "country": {
    "1": "США"
  },
  "collection": {
    "14": "Для взрослых"
  },
  "genre": {
    "26": "Ужасы",
    "24": "Детектив",
    "13": "Триллер",
    "10": "Зарубежный"
  },
  "director": [
    "Штефан Рик"
  ],
  "screenwriter": [
    "Джон Дж. МакЛафлин"
  ],
  "producer": [
    "Бретт Форбс",
    "Патрик Риззотти",
    "Том Тэйер"
  ],
  "operator": [
    "Стефан Сюпек",
    "Феликс Крамер"
  ],
  "composer": [
    "Jens Groetzschel",
    "Штефан Шульцки"
  ],
  "design": [
    "Кэт МакАннени",
    "Джошуа Петерсен",
    "Шона Леоне"
  ],
  "editor": [
    "Эндрю Уэсман"
  ],
  "actors": [
    "Патрик Флюгер",
    "Вэл Килмер",
    "Луиса Краузе",
    "Маттеа Конфорти",
    "Тейлор Ричардсон",
    "Пол Бен-Виктор",
    "Юл Васкес",
    "Окьерете Онаодован",
    "Александра Эссоу",
    "Люк Эдвардс"
  ],
  "actors_dubl": [],
  "trivia": [],
  "trailers": [],
  "seasons": [],
  "voiceActing": [
    "Рус. Проф. многоголосый",
    "Eng.Original"
  ],
  "subtitle": [],
  "parts": []
}
